instance,ipc-2014-optimal-rida-fixed
ipc-2014-optimal-barman-p433.1.pddl,CRASHED:0.38994:1000000000.0:1800.0:-1
ipc-2014-optimal-barman-p433.2.pddl,CRASHED:0.301953:1000000000.0:1800.0:-1
ipc-2014-optimal-barman-p433.3.pddl,CRASHED:0.286956:1000000000.0:1800.0:-1
ipc-2014-optimal-barman-p435.1.pddl,TIMEOUT:1801.06:-1.0:1800.0:-1
ipc-2014-optimal-barman-p435.2.pddl,TIMEOUT:1801.09:-1.0:1800.0:-1
ipc-2014-optimal-barman-p435.3.pddl,CRASHED:725.76:1000000000.0:1800.0:-1
ipc-2014-optimal-barman-p443.1.pddl,CRASHED:0.314951:1000000000.0:1800.0:-1
ipc-2014-optimal-barman-p443.2.pddl,CRASHED:0.300953:1000000000.0:1800.0:-1
ipc-2014-optimal-barman-p443.3.pddl,CRASHED:0.297953:1000000000.0:1800.0:-1
ipc-2014-optimal-barman-p536.1.pddl,CRASHED:520.61:1000000000.0:1800.0:-1
ipc-2014-optimal-barman-p536.2.pddl,CRASHED:537.46:1000000000.0:1800.0:-1
ipc-2014-optimal-barman-p536.3.pddl,CRASHED:533.76:1000000000.0:1800.0:-1
ipc-2014-optimal-barman-p638.1.pddl,CRASHED:567.45:1000000000.0:1800.0:-1
ipc-2014-optimal-barman-p638.2.pddl,TIMEOUT:1801.03:-1.0:1800.0:-1
ipc-2014-optimal-barman-p638.3.pddl,TIMEOUT:1801.06:-1.0:1800.0:-1
ipc-2014-optimal-barman-p739.1.pddl,CRASHED:506.36:1000000000.0:1800.0:-1
ipc-2014-optimal-barman-p739.2.pddl,CRASHED:507.69:1000000000.0:1800.0:-1
ipc-2014-optimal-barman-p739.3.pddl,TIMEOUT:1801.04:-1.0:1800.0:-1
ipc-2014-optimal-barman-p839.1.pddl,CRASHED:534.6:1000000000.0:1800.0:-1
ipc-2014-optimal-barman-p839.2.pddl,CRASHED:477.32:1000000000.0:1800.0:-1
ipc-2014-optimal-cavediving-01.pddl,CRASHED:1.49977:1000000000.0:1800.0:-1
ipc-2014-optimal-cavediving-01_easy.pddl,CRASHED:1.12683:1000000000.0:1800.0:-1
ipc-2014-optimal-cavediving-02_easy.pddl,CRASHED:1.13283:1000000000.0:1800.0:-1
ipc-2014-optimal-cavediving-03_easy.pddl,CRASHED:1.11283:1000000000.0:1800.0:-1
ipc-2014-optimal-cavediving-04_easy.pddl,CRASHED:1.06684:1000000000.0:1800.0:-1
ipc-2014-optimal-cavediving-05A_easy.pddl,CRASHED:0.376942:1000000000.0:1800.0:-1
ipc-2014-optimal-cavediving-06A_easy.pddl,CRASHED:0.347946:1000000000.0:1800.0:-1
ipc-2014-optimal-cavediving-07_easy.pddl,SAT:283.255:131.0:1800.0:-1
ipc-2014-optimal-cavediving-08_easy.pddl,CRASHED:0.346947:1000000000.0:1800.0:-1
ipc-2014-optimal-cavediving-09_easy.pddl,CRASHED:5.37218:1000000000.0:1800.0:-1
ipc-2014-optimal-cavediving-10_easy.pddl,CRASHED:5.40518:1000000000.0:1800.0:-1
ipc-2014-optimal-cavediving-11_easy.pddl,CRASHED:5.2452:1000000000.0:1800.0:-1
ipc-2014-optimal-cavediving-12_easy.pddl,CRASHED:5.38918:1000000000.0:1800.0:-1
ipc-2014-optimal-cavediving-13_easy.pddl,CRASHED:1.51477:1000000000.0:1800.0:-1
ipc-2014-optimal-cavediving-14_easy.pddl,CRASHED:1.51277:1000000000.0:1800.0:-1
ipc-2014-optimal-cavediving-15_easy.pddl,CRASHED:1.2868:1000000000.0:1800.0:-1
ipc-2014-optimal-cavediving-16_easy.pddl,CRASHED:1.50677:1000000000.0:1800.0:-1
ipc-2014-optimal-cavediving-18A_easy.pddl,SAT:234.298:131.0:1800.0:-1
ipc-2014-optimal-cavediving-18_easy.pddl,SAT:276.701:131.0:1800.0:-1
ipc-2014-optimal-cavediving-20A_easy.pddl,CRASHED:0.431933:1000000000.0:1800.0:-1
ipc-2014-optimal-childsnack-01-2.pddl,TIMEOUT:1801.03:-1.0:1800.0:-1
ipc-2014-optimal-childsnack-01.pddl,TIMEOUT:1801.09:-1.0:1800.0:-1
ipc-2014-optimal-childsnack-02-2.pddl,TIMEOUT:1801.03:-1.0:1800.0:-1
ipc-2014-optimal-childsnack-02.pddl,TIMEOUT:1801.08:-1.0:1800.0:-1
ipc-2014-optimal-childsnack-03-2.pddl,TIMEOUT:1801.05:-1.0:1800.0:-1
ipc-2014-optimal-childsnack-03.pddl,TIMEOUT:1801.08:-1.0:1800.0:-1
ipc-2014-optimal-childsnack-04-2.pddl,TIMEOUT:1801.06:-1.0:1800.0:-1
ipc-2014-optimal-childsnack-04.pddl,TIMEOUT:1801.07:-1.0:1800.0:-1
ipc-2014-optimal-childsnack-05-2.pddl,TIMEOUT:1801.04:-1.0:1800.0:-1
ipc-2014-optimal-childsnack-05.pddl,TIMEOUT:1801.06:-1.0:1800.0:-1
ipc-2014-optimal-childsnack-06-2.pddl,TIMEOUT:1801.02:-1.0:1800.0:-1
ipc-2014-optimal-childsnack-06.pddl,TIMEOUT:1801.0:-1.0:1800.0:-1
ipc-2014-optimal-childsnack-07-2.pddl,TIMEOUT:1801.03:-1.0:1800.0:-1
ipc-2014-optimal-childsnack-07.pddl,TIMEOUT:1801.07:-1.0:1800.0:-1
ipc-2014-optimal-childsnack-08-2.pddl,TIMEOUT:1801.07:-1.0:1800.0:-1
ipc-2014-optimal-childsnack-08.pddl,TIMEOUT:1801.06:-1.0:1800.0:-1
ipc-2014-optimal-childsnack-09-2.pddl,TIMEOUT:1801.06:-1.0:1800.0:-1
ipc-2014-optimal-childsnack-09.pddl,TIMEOUT:1801.05:-1.0:1800.0:-1
ipc-2014-optimal-childsnack-10-2.pddl,TIMEOUT:1801.06:-1.0:1800.0:-1
ipc-2014-optimal-childsnack-10.pddl,TIMEOUT:1801.06:-1.0:1800.0:-1
ipc-2014-optimal-citycar-p2-2-2-1-2.pddl,SAT:1.66475:46.0:1800.0:-1
ipc-2014-optimal-citycar-p2-2-2-2-1.pddl,SAT:2.17367:64.0:1800.0:-1
ipc-2014-optimal-citycar-p2-2-3-1-2.pddl,SAT:2.41463:50.0:1800.0:-1
ipc-2014-optimal-citycar-p2-2-3-2-1.pddl,SAT:2.23866:48.0:1800.0:-1
ipc-2014-optimal-citycar-p2-2-3-2-2.pddl,SAT:2.42663:50.0:1800.0:-1
ipc-2014-optimal-citycar-p2-2-4-1-2.pddl,SAT:6.16406:52.0:1800.0:-1
ipc-2014-optimal-citycar-p2-2-4-2-1.pddl,SAT:6.13807:52.0:1800.0:-1
ipc-2014-optimal-citycar-p2-2-5-2-2.pddl,SAT:224.644:76.0:1800.0:-1
ipc-2014-optimal-citycar-p2-2-6-1-1.pddl,SAT:178.554:58.0:1800.0:-1
ipc-2014-optimal-citycar-p2-2-6-2-2.pddl,SAT:173.548:58.0:1800.0:-1
ipc-2014-optimal-citycar-p2-3-2-3-1.pddl,SAT:8.35573:68.0:1800.0:-1
ipc-2014-optimal-citycar-p2-3-3-3-1.pddl,SAT:55.0176:78.0:1800.0:-1
ipc-2014-optimal-citycar-p2-3-4-3-1.pddl,SAT:269.95:82.0:1800.0:-1
ipc-2014-optimal-citycar-p2-3-6-3-2.pddl,TIMEOUT:1801.02:-1.0:1800.0:-1
ipc-2014-optimal-citycar-p3-3-2-2-1.pddl,SAT:195.259:70.0:1800.0:-1
ipc-2014-optimal-citycar-p3-3-2-2-2.pddl,CRASHED:1522.34:1000000000.0:1800.0:-1
ipc-2014-optimal-citycar-p3-3-2-3-1.pddl,SAT:8.32073:48.0:1800.0:-1
ipc-2014-optimal-citycar-p3-3-2-3-2.pddl,SAT:177.648:70.0:1800.0:-1
ipc-2014-optimal-citycar-p3-3-3-3-1.pddl,TIMEOUT:1801.02:-1.0:1800.0:-1
ipc-2014-optimal-citycar-p3-3-3-3-2.pddl,CRASHED:1600.3:76.0:1800.0:-1
ipc-2014-optimal-floortile-p01-4-3-2.pddl,SAT:259.12:56.0:1800.0:-1
ipc-2014-optimal-floortile-p01-4-4-2.pddl,SAT:1390.08:68.0:1800.0:-1
ipc-2014-optimal-floortile-p01-5-3-2.pddl,SAT:407.583:63.0:1800.0:-1
ipc-2014-optimal-floortile-p01-5-4-2.pddl,TIMEOUT:1801.04:-1.0:1800.0:-1
ipc-2014-optimal-floortile-p01-5-5-2.pddl,TIMEOUT:1801.08:-1.0:1800.0:-1
ipc-2014-optimal-floortile-p01-6-4-2.pddl,TIMEOUT:1801.08:-1.0:1800.0:-1
ipc-2014-optimal-floortile-p01-6-5-2.pddl,TIMEOUT:1801.08:-1.0:1800.0:-1
ipc-2014-optimal-floortile-p02-4-4-2.pddl,TIMEOUT:1801.06:-1.0:1800.0:-1
ipc-2014-optimal-floortile-p02-5-3-2.pddl,SAT:518.496:65.0:1800.0:-1
ipc-2014-optimal-floortile-p02-5-4-2.pddl,TIMEOUT:1801.09:-1.0:1800.0:-1
ipc-2014-optimal-floortile-p02-5-5-2.pddl,TIMEOUT:1801.1:-1.0:1800.0:-1
ipc-2014-optimal-floortile-p02-6-4-2.pddl,TIMEOUT:1801.08:-1.0:1800.0:-1
ipc-2014-optimal-floortile-p02-6-5-2.pddl,TIMEOUT:1801.09:-1.0:1800.0:-1
ipc-2014-optimal-floortile-p03-4-3-2.pddl,SAT:273.799:56.0:1800.0:-1
ipc-2014-optimal-floortile-p03-4-4-2.pddl,TIMEOUT:1801.05:-1.0:1800.0:-1
ipc-2014-optimal-floortile-p03-5-3-2.pddl,SAT:541.954:65.0:1800.0:-1
ipc-2014-optimal-floortile-p03-5-4-2.pddl,TIMEOUT:1801.09:-1.0:1800.0:-1
ipc-2014-optimal-floortile-p03-5-5-2.pddl,TIMEOUT:1801.04:-1.0:1800.0:-1
ipc-2014-optimal-floortile-p03-6-4-2.pddl,TIMEOUT:1801.03:-1.0:1800.0:-1
ipc-2014-optimal-floortile-p03-6-5-2.pddl,TIMEOUT:1801.04:-1.0:1800.0:-1
ipc-2014-optimal-ged-d-1-2.pddl,SAT:54.9087:1.0:1800.0:-1
ipc-2014-optimal-ged-d-1-3.pddl,SAT:214.308:4.0:1800.0:-1
ipc-2014-optimal-ged-d-1-4.pddl,SAT:54.9117:1.0:1800.0:-1
ipc-2014-optimal-ged-d-1-8.pddl,SAT:298.073:4.0:1800.0:-1
ipc-2014-optimal-ged-d-2-1.pddl,SAT:55.2076:1.0:1800.0:-1
ipc-2014-optimal-ged-d-2-3.pddl,SAT:154.441:3.0:1800.0:-1
ipc-2014-optimal-ged-d-2-4.pddl,SAT:134.516:2.0:1800.0:-1
ipc-2014-optimal-ged-d-2-8.pddl,CRASHED:402.959:5.0:1800.0:-1
ipc-2014-optimal-ged-d-3-1.pddl,SAT:241.109:4.0:1800.0:-1
ipc-2014-optimal-ged-d-3-2.pddl,SAT:153.299:3.0:1800.0:-1
ipc-2014-optimal-ged-d-3-4.pddl,SAT:295.969:5.0:1800.0:-1
ipc-2014-optimal-ged-d-4-2.pddl,SAT:134.632:2.0:1800.0:-1
ipc-2014-optimal-ged-d-4-3.pddl,SAT:339.439:5.0:1800.0:-1
ipc-2014-optimal-ged-d-4-8.pddl,CRASHED:421.267:5.0:1800.0:-1
ipc-2014-optimal-ged-d-7-5.pddl,SAT:297.815:4.0:1800.0:-1
ipc-2014-optimal-ged-d-7-6.pddl,SAT:241.579:4.0:1800.0:-1
ipc-2014-optimal-ged-d-8-1.pddl,SAT:302.898:4.0:1800.0:-1
ipc-2014-optimal-ged-d-8-2.pddl,SAT:332.149:5.0:1800.0:-1
ipc-2014-optimal-ged-d-8-4.pddl,CRASHED:409.652:5.0:1800.0:-1
ipc-2014-optimal-ged-d-8-9.pddl,CRASHED:516.13:1000000000.0:1800.0:-1
ipc-2014-optimal-hiking-1-2-3.pddl,SAT:7.82581:11.0:1800.0:-1
ipc-2014-optimal-hiking-1-2-4.pddl,SAT:11.1043:17.0:1800.0:-1
ipc-2014-optimal-hiking-1-2-5.pddl,SAT:18.7691:25.0:1800.0:-1
ipc-2014-optimal-hiking-1-2-7.pddl,SAT:41.2347:38.0:1800.0:-1
ipc-2014-optimal-hiking-1-2-8.pddl,SAT:65.1041:45.0:1800.0:-1
ipc-2014-optimal-hiking-2-2-3.pddl,SAT:145.577:10.0:1800.0:-1
ipc-2014-optimal-hiking-2-2-4.pddl,SAT:223.053:16.0:1800.0:-1
ipc-2014-optimal-hiking-2-2-5.pddl,SAT:327.138:22.0:1800.0:-1
ipc-2014-optimal-hiking-2-2-6.pddl,SAT:441.166:30.0:1800.0:-1
ipc-2014-optimal-hiking-2-2-7.pddl,SAT:474.408:34.0:1800.0:-1
ipc-2014-optimal-hiking-2-2-8.pddl,CRASHED:1111.1:42.0:1800.0:-1
ipc-2014-optimal-hiking-2-3-4.pddl,SAT:349.347:17.0:1800.0:-1
ipc-2014-optimal-hiking-2-3-5.pddl,SAT:533.706:24.0:1800.0:-1
ipc-2014-optimal-hiking-2-3-6.pddl,SAT:603.325:28.0:1800.0:-1
ipc-2014-optimal-hiking-2-3-7.pddl,CRASHED:1026.34:1000000000.0:1800.0:-1
ipc-2014-optimal-hiking-2-4-3.pddl,SAT:267.563:10.0:1800.0:-1
ipc-2014-optimal-hiking-2-4-4.pddl,SAT:496.095:17.0:1800.0:-1
ipc-2014-optimal-hiking-2-4-5.pddl,SAT:787.994:23.0:1800.0:-1
ipc-2014-optimal-hiking-2-4-6.pddl,CRASHED:1108.41:30.0:1800.0:-1
ipc-2014-optimal-hiking-2-4-7.pddl,CRASHED:802.01:1000000000.0:1800.0:-1
ipc-2014-optimal-maintenance-1.3.010.010.1-001.pddl,CRASHED:7.65883:1000000000.0:1800.0:-1
ipc-2014-optimal-maintenance-1.3.010.010.1-002.pddl,CRASHED:12.0582:1000000000.0:1800.0:-1
ipc-2014-optimal-maintenance-1.3.010.010.2-000.pddl,SAT:23.3884:4.0:1800.0:-1
ipc-2014-optimal-maintenance-1.3.010.010.2-001.pddl,SAT:27.6778:7.0:1800.0:-1
ipc-2014-optimal-maintenance-1.3.010.010.2-002.pddl,SAT:38.5971:6.0:1800.0:-1
ipc-2014-optimal-maintenance-1.3.015.020.1-000.pddl,CRASHED:27.7068:1000000000.0:1800.0:-1
ipc-2014-optimal-maintenance-1.3.015.020.1-001.pddl,CRASHED:20.8188:1000000000.0:1800.0:-1
ipc-2014-optimal-maintenance-1.3.015.020.1-002.pddl,CRASHED:26.27:1000000000.0:1800.0:-1
ipc-2014-optimal-maintenance-1.3.015.020.2-000.pddl,CRASHED:345.189:1000000000.0:1800.0:-1
ipc-2014-optimal-maintenance-1.3.015.020.2-001.pddl,SAT:134.799:11.0:1800.0:-1
ipc-2014-optimal-maintenance-1.3.015.020.2-002.pddl,SAT:125.768:9.0:1800.0:-1
ipc-2014-optimal-maintenance-1.3.025.050.1-000.pddl,CRASHED:89.5894:1000000000.0:1800.0:-1
ipc-2014-optimal-maintenance-1.3.025.050.1-001.pddl,CRASHED:174.995:1000000000.0:1800.0:-1
ipc-2014-optimal-maintenance-1.3.025.050.1-002.pddl,CRASHED:171.487:1000000000.0:1800.0:-1
ipc-2014-optimal-maintenance-1.3.025.100.1-000.pddl,CRASHED:88.2856:1000000000.0:1800.0:-1
ipc-2014-optimal-maintenance-1.3.025.100.1-001.pddl,CRASHED:84.5591:1000000000.0:1800.0:-1
ipc-2014-optimal-maintenance-1.3.025.100.1-002.pddl,CRASHED:90.0593:1000000000.0:1800.0:-1
ipc-2014-optimal-maintenance-1.3.025.100.2-000.pddl,TIMEOUT:1801.04:-1.0:1800.0:-1
ipc-2014-optimal-maintenance-1.3.025.100.2-001.pddl,TIMEOUT:1801.01:-1.0:1800.0:-1
ipc-2014-optimal-maintenance-1.3.025.100.2-002.pddl,TIMEOUT:1801.07:-1.0:1800.0:-1
ipc-2014-optimal-openstacks-p20_1.pddl,SAT:335.087:3.0:1800.0:-1
ipc-2014-optimal-openstacks-p20_2.pddl,SAT:294.27:4.0:1800.0:-1
ipc-2014-optimal-openstacks-p20_3.pddl,SAT:185.006:6.0:1800.0:-1
ipc-2014-optimal-openstacks-p25_1.pddl,CRASHED:683.62:1000000000.0:1800.0:-1
ipc-2014-optimal-openstacks-p25_3.pddl,CRASHED:695.79:1000000000.0:1800.0:-1
ipc-2014-optimal-openstacks-p30_1.pddl,TIMEOUT:1801.0:-1.0:1800.0:-1
ipc-2014-optimal-openstacks-p30_2.pddl,TIMEOUT:1801.03:-1.0:1800.0:-1
ipc-2014-optimal-openstacks-p30_3.pddl,TIMEOUT:1801.04:-1.0:1800.0:-1
ipc-2014-optimal-openstacks-p35_1.pddl,TIMEOUT:1801.03:-1.0:1800.0:-1
ipc-2014-optimal-openstacks-p35_2.pddl,TIMEOUT:1801.08:-1.0:1800.0:-1
ipc-2014-optimal-openstacks-p35_3.pddl,CRASHED:672.73:1000000000.0:1800.0:-1
ipc-2014-optimal-openstacks-p40_1.pddl,CRASHED:497.55:1000000000.0:1800.0:-1
ipc-2014-optimal-openstacks-p40_2.pddl,CRASHED:472.39:1000000000.0:1800.0:-1
ipc-2014-optimal-openstacks-p40_3.pddl,CRASHED:682.86:1000000000.0:1800.0:-1
ipc-2014-optimal-openstacks-p45_1.pddl,CRASHED:589.19:1000000000.0:1800.0:-1
ipc-2014-optimal-openstacks-p45_2.pddl,CRASHED:557.95:1000000000.0:1800.0:-1
ipc-2014-optimal-openstacks-p45_3.pddl,CRASHED:736.38:1000000000.0:1800.0:-1
ipc-2014-optimal-openstacks-p50_1.pddl,CRASHED:715.11:1000000000.0:1800.0:-1
ipc-2014-optimal-openstacks-p50_2.pddl,CRASHED:758.73:1000000000.0:1800.0:-1
ipc-2014-optimal-openstacks-p50_3.pddl,CRASHED:757.77:1000000000.0:1800.0:-1
ipc-2014-optimal-parking-12_7-01.pddl,SAT:967.025:18.0:1800.0:-1
ipc-2014-optimal-parking-12_7-02.pddl,SAT:969.415:18.0:1800.0:-1
ipc-2014-optimal-parking-12_7-03.pddl,SAT:903.343:17.0:1800.0:-1
ipc-2014-optimal-parking-12_7-04.pddl,SAT:951.65:19.0:1800.0:-1
ipc-2014-optimal-parking-14_8-01.pddl,CRASHED:1514.11:1000000000.0:1800.0:-1
ipc-2014-optimal-parking-14_8-02.pddl,SAT:1375.18:22.0:1800.0:-1
ipc-2014-optimal-parking-14_8-03.pddl,SAT:1269.42:21.0:1800.0:-1
ipc-2014-optimal-parking-14_8-04.pddl,CRASHED:1606.73:1000000000.0:1800.0:-1
ipc-2014-optimal-parking-16_9-01.pddl,CRASHED:1526.19:1000000000.0:1800.0:-1
ipc-2014-optimal-parking-16_9-02.pddl,CRASHED:1472.43:1000000000.0:1800.0:-1
ipc-2014-optimal-parking-16_9-03.pddl,CRASHED:1489.37:1000000000.0:1800.0:-1
ipc-2014-optimal-parking-16_9-04.pddl,CRASHED:1376.48:1000000000.0:1800.0:-1
ipc-2014-optimal-parking-18_10-01.pddl,TIMEOUT:1801.05:-1.0:1800.0:-1
ipc-2014-optimal-parking-18_10-02.pddl,TIMEOUT:1801.07:-1.0:1800.0:-1
ipc-2014-optimal-parking-18_10-03.pddl,CRASHED:1486.9:1000000000.0:1800.0:-1
ipc-2014-optimal-parking-18_10-04.pddl,CRASHED:1476.67:1000000000.0:1800.0:-1
ipc-2014-optimal-parking-20_11-01.pddl,CRASHED:1741.61:1000000000.0:1800.0:-1
ipc-2014-optimal-parking-20_11-02.pddl,TIMEOUT:1801.02:-1.0:1800.0:-1
ipc-2014-optimal-parking-20_11-03.pddl,TIMEOUT:1801.01:-1.0:1800.0:-1
ipc-2014-optimal-parking-20_11-04.pddl,CRASHED:1566.75:1000000000.0:1800.0:-1
ipc-2014-optimal-tetris-01-10.pddl,TIMEOUT:1801.07:-1.0:1800.0:-1
ipc-2014-optimal-tetris-01-04.pddl,CRASHED:308.184:1000000000.0:1800.0:-1
ipc-2014-optimal-tetris-01-06.pddl,SAT:219.961:30.0:1800.0:-1
ipc-2014-optimal-tetris-01-08.pddl,SAT:1059.7:36.0:1800.0:-1
ipc-2014-optimal-tetris-02-10.pddl,TIMEOUT:1801.09:-1.0:1800.0:-1
ipc-2014-optimal-tetris-02-04.pddl,SAT:547.116:10.0:1800.0:-1
ipc-2014-optimal-tetris-02-06.pddl,SAT:306.83:30.0:1800.0:-1
ipc-2014-optimal-tetris-02-08.pddl,TIMEOUT:1801.0:-1.0:1800.0:-1
ipc-2014-optimal-tetris-03-10.pddl,TIMEOUT:1801.08:-1.0:1800.0:-1
ipc-2014-optimal-tetris-03-04.pddl,SAT:752.845:11.0:1800.0:-1
ipc-2014-optimal-tetris-03-06.pddl,SAT:253.778:21.0:1800.0:-1
ipc-2014-optimal-tetris-03-08.pddl,TIMEOUT:1801.07:-1.0:1800.0:-1
ipc-2014-optimal-tetris-04-10.pddl,TIMEOUT:1801.07:-1.0:1800.0:-1
ipc-2014-optimal-tetris-04-04.pddl,CRASHED:330.385:1000000000.0:1800.0:-1
ipc-2014-optimal-tetris-04-06.pddl,SAT:250.005:27.0:1800.0:-1
ipc-2014-optimal-tetris-04-08.pddl,TIMEOUT:1801.06:-1.0:1800.0:-1
ipc-2014-optimal-tetris-05-10.pddl,TIMEOUT:1801.06:-1.0:1800.0:-1
ipc-2014-optimal-tetris-05-04.pddl,CRASHED:419.221:1000000000.0:1800.0:-1
ipc-2014-optimal-tetris-05-06.pddl,SAT:222.911:19.0:1800.0:-1
ipc-2014-optimal-tetris-05-08.pddl,TIMEOUT:1801.0:-1.0:1800.0:-1
ipc-2014-optimal-tidybot-01.pddl,TIMEOUT:1801.06:-1.0:1800.0:-1
ipc-2014-optimal-tidybot-02.pddl,SAT:447.891:35.0:1800.0:-1
ipc-2014-optimal-tidybot-03.pddl,SAT:416.87:30.0:1800.0:-1
ipc-2014-optimal-tidybot-04.pddl,SAT:361.04:24.0:1800.0:-1
ipc-2014-optimal-tidybot-05.pddl,TIMEOUT:1801.09:-1.0:1800.0:-1
ipc-2014-optimal-tidybot-06.pddl,TIMEOUT:1801.09:-1.0:1800.0:-1
ipc-2014-optimal-tidybot-07.pddl,SAT:1295.53:38.0:1800.0:-1
ipc-2014-optimal-tidybot-08.pddl,SAT:333.8:25.0:1800.0:-1
ipc-2014-optimal-tidybot-09.pddl,TIMEOUT:1801.05:-1.0:1800.0:-1
ipc-2014-optimal-tidybot-10.pddl,TIMEOUT:1801.07:-1.0:1800.0:-1
ipc-2014-optimal-tidybot-11.pddl,SAT:200.466:29.0:1800.0:-1
ipc-2014-optimal-tidybot-12.pddl,SAT:868.359:35.0:1800.0:-1
ipc-2014-optimal-tidybot-13.pddl,SAT:341.987:30.0:1800.0:-1
ipc-2014-optimal-tidybot-14.pddl,SAT:225.817:25.0:1800.0:-1
ipc-2014-optimal-tidybot-15.pddl,TIMEOUT:1801.08:-1.0:1800.0:-1
ipc-2014-optimal-tidybot-16.pddl,TIMEOUT:1801.1:-1.0:1800.0:-1
ipc-2014-optimal-tidybot-17.pddl,TIMEOUT:1801.03:-1.0:1800.0:-1
ipc-2014-optimal-tidybot-18.pddl,TIMEOUT:1801.03:-1.0:1800.0:-1
ipc-2014-optimal-tidybot-19.pddl,TIMEOUT:1801.07:-1.0:1800.0:-1
ipc-2014-optimal-tidybot-20.pddl,TIMEOUT:1801.08:-1.0:1800.0:-1
ipc-2014-optimal-transport-01.pddl,SAT:60.5708:148.0:1800.0:-1
ipc-2014-optimal-transport-02.pddl,SAT:109.525:191.0:1800.0:-1
ipc-2014-optimal-transport-03.pddl,SAT:223.686:300.0:1800.0:-1
ipc-2014-optimal-transport-04.pddl,TIMEOUT:1801.06:-1.0:1800.0:-1
ipc-2014-optimal-transport-05.pddl,TIMEOUT:1801.0:-1.0:1800.0:-1
ipc-2014-optimal-transport-06.pddl,TIMEOUT:1801.06:-1.0:1800.0:-1
ipc-2014-optimal-transport-07.pddl,SAT:108.581:967.0:1800.0:-1
ipc-2014-optimal-transport-08.pddl,SAT:218.931:1173.0:1800.0:-1
ipc-2014-optimal-transport-09.pddl,CRASHED:788.42:1000000000.0:1800.0:-1
ipc-2014-optimal-transport-10.pddl,CRASHED:809.0:1000000000.0:1800.0:-1
ipc-2014-optimal-transport-11.pddl,TIMEOUT:1801.04:-1.0:1800.0:-1
ipc-2014-optimal-transport-12.pddl,TIMEOUT:1801.08:-1.0:1800.0:-1
ipc-2014-optimal-transport-13.pddl,SAT:123.602:594.0:1800.0:-1
ipc-2014-optimal-transport-14.pddl,SAT:349.328:526.0:1800.0:-1
ipc-2014-optimal-transport-15.pddl,SAT:299.134:753.0:1800.0:-1
ipc-2014-optimal-transport-16.pddl,CRASHED:769.87:1000000000.0:1800.0:-1
ipc-2014-optimal-transport-17.pddl,TIMEOUT:1801.09:-1.0:1800.0:-1
ipc-2014-optimal-transport-18.pddl,TIMEOUT:1801.06:-1.0:1800.0:-1
ipc-2014-optimal-transport-19.pddl,TIMEOUT:1801.08:-1.0:1800.0:-1
ipc-2014-optimal-transport-20.pddl,TIMEOUT:1801.08:-1.0:1800.0:-1
ipc-2014-optimal-visitall-05-10.pddl,SAT:266.656:60.0:1800.0:-1
ipc-2014-optimal-visitall-05-05.pddl,SAT:36.8634:21.0:1800.0:-1
ipc-2014-optimal-visitall-05-06.pddl,SAT:46.209:25.0:1800.0:-1
ipc-2014-optimal-visitall-05-07.pddl,SAT:108.057:34.0:1800.0:-1
ipc-2014-optimal-visitall-05-08.pddl,SAT:224.952:43.0:1800.0:-1
ipc-2014-optimal-visitall-05-09.pddl,SAT:222.845:54.0:1800.0:-1
ipc-2014-optimal-visitall-01-10.pddl,SAT:273.605:99.0:1800.0:-1
ipc-2014-optimal-visitall-01-11.pddl,SAT:328.316:120.0:1800.0:-1
ipc-2014-optimal-visitall-01-12.pddl,SAT:707.091:143.0:1800.0:-1
ipc-2014-optimal-visitall-01-13.pddl,SAT:603.129:168.0:1800.0:-1
ipc-2014-optimal-visitall-01-14.pddl,CRASHED:1102.54:1000000000.0:1800.0:-1
ipc-2014-optimal-visitall-01-15.pddl,CRASHED:1103.58:1000000000.0:1800.0:-1
ipc-2014-optimal-visitall-01-16.pddl,CRASHED:1071.6:1000000000.0:1800.0:-1
ipc-2014-optimal-visitall-01-17.pddl,CRASHED:1133.6:1000000000.0:1800.0:-1
ipc-2014-optimal-visitall-01-18.pddl,CRASHED:1021.42:1000000000.0:1800.0:-1
ipc-2014-optimal-visitall-01-05.pddl,SAT:133.175:24.0:1800.0:-1
ipc-2014-optimal-visitall-01-06.pddl,SAT:282.896:35.0:1800.0:-1
ipc-2014-optimal-visitall-01-07.pddl,SAT:226.549:48.0:1800.0:-1
ipc-2014-optimal-visitall-01-08.pddl,SAT:274.327:63.0:1800.0:-1
ipc-2014-optimal-visitall-01-09.pddl,SAT:307.829:80.0:1800.0:-1
