instance,ipc-2014-agile-arvandherd
ipc-2014-agile-barman-p1-11-4-15.pddl,SAT:195.445:191.0:300.0:-1
ipc-2014-agile-barman-p1-11-5-15.pddl,SAT:186.317:202.0:300.0:-1
ipc-2014-agile-barman-p1-11-5-16.pddl,SAT:198.667:166.0:300.0:-1
ipc-2014-agile-barman-p2-10-4-13.pddl,SAT:192.513:150.0:300.0:-1
ipc-2014-agile-barman-p2-11-4-15.pddl,SAT:205.655:170.0:300.0:-1
ipc-2014-agile-barman-p2-11-5-15.pddl,SAT:188.45:169.0:300.0:-1
ipc-2014-agile-barman-p2-11-5-16.pddl,SAT:201.261:188.0:300.0:-1
ipc-2014-agile-barman-p2-11-5-17.pddl,SAT:213.197:176.0:300.0:-1
ipc-2014-agile-barman-p3-10-4-13.pddl,SAT:203.635:161.0:300.0:-1
ipc-2014-agile-barman-p3-11-4-15.pddl,SAT:206.296:172.0:300.0:-1
ipc-2014-agile-barman-p3-11-5-15.pddl,SAT:216.004:186.0:300.0:-1
ipc-2014-agile-barman-p3-11-5-16.pddl,SAT:206.318:194.0:300.0:-1
ipc-2014-agile-barman-p3-11-5-17.pddl,TIMEOUT:301.06:-1.0:300.0:-1
ipc-2014-agile-barman-p4-11-4-14.pddl,SAT:199.518:173.0:300.0:-1
ipc-2014-agile-barman-p4-11-4-15.pddl,SAT:201.94:179.0:300.0:-1
ipc-2014-agile-barman-p4-11-5-15.pddl,SAT:219.266:182.0:300.0:-1
ipc-2014-agile-barman-p5-10-4-13.pddl,SAT:201.638:146.0:300.0:-1
ipc-2014-agile-barman-p5-11-4-15.pddl,SAT:197.809:178.0:300.0:-1
ipc-2014-agile-barman-p5-11-5-15.pddl,SAT:208.92:176.0:300.0:-1
ipc-2014-agile-barman-p5-11-5-16.pddl,SAT:199.802:185.0:300.0:-1
ipc-2014-agile-cavediving-01_easy.pddl,TIMEOUT:301.0:-1.0:300.0:-1
ipc-2014-agile-cavediving-01.pddl,TIMEOUT:301.08:-1.0:300.0:-1
ipc-2014-agile-cavediving-02_easy.pddl,TIMEOUT:301.07:-1.0:300.0:-1
ipc-2014-agile-cavediving-03_easy.pddl,TIMEOUT:301.08:-1.0:300.0:-1
ipc-2014-agile-cavediving-04_easy.pddl,TIMEOUT:301.02:-1.0:300.0:-1
ipc-2014-agile-cavediving-05A_easy.pddl,SAT:187.83:94.0:300.0:-1
ipc-2014-agile-cavediving-06A_easy.pddl,SAT:245.458:97.0:300.0:-1
ipc-2014-agile-cavediving-07_easy.pddl,SAT:181.311:131.0:300.0:-1
ipc-2014-agile-cavediving-08_easy.pddl,SAT:186.846:90.0:300.0:-1
ipc-2014-agile-cavediving-09_easy.pddl,TIMEOUT:301.12:-1.0:300.0:-1
ipc-2014-agile-cavediving-10_easy.pddl,TIMEOUT:301.03:-1.0:300.0:-1
ipc-2014-agile-cavediving-11_easy.pddl,TIMEOUT:301.03:-1.0:300.0:-1
ipc-2014-agile-cavediving-12_easy.pddl,TIMEOUT:301.01:-1.0:300.0:-1
ipc-2014-agile-cavediving-13_easy.pddl,TIMEOUT:301.02:-1.0:300.0:-1
ipc-2014-agile-cavediving-14_easy.pddl,TIMEOUT:301.1:-1.0:300.0:-1
ipc-2014-agile-cavediving-15_easy.pddl,TIMEOUT:301.04:-1.0:300.0:-1
ipc-2014-agile-cavediving-16_easy.pddl,TIMEOUT:301.05:-1.0:300.0:-1
ipc-2014-agile-cavediving-18A_easy.pddl,SAT:181.865:131.0:300.0:-1
ipc-2014-agile-cavediving-18_easy.pddl,SAT:181.802:131.0:300.0:-1
ipc-2014-agile-cavediving-20A_easy.pddl,SAT:181.511:98.0:300.0:-1
ipc-2014-agile-childsnack-05-2.pddl,SAT:183.837:53.0:300.0:-1
ipc-2014-agile-childsnack-05.pddl,SAT:1.84172:102.0:300.0:-1
ipc-2014-agile-childsnack-06-2.pddl,SAT:182.462:58.0:300.0:-1
ipc-2014-agile-childsnack-07-2.pddl,SAT:204.463:64.0:300.0:-1
ipc-2014-agile-childsnack-08-2.pddl,SAT:193.319:63.0:300.0:-1
ipc-2014-agile-childsnack-08.pddl,TIMEOUT:301.08:-1.0:300.0:-1
ipc-2014-agile-childsnack-09-2.pddl,SAT:14.7558:309.0:300.0:-1
ipc-2014-agile-childsnack-09.pddl,TIMEOUT:301.03:-1.0:300.0:-1
ipc-2014-agile-childsnack-10-2.pddl,CRASHED:253.81:1000000000.0:300.0:-1
ipc-2014-agile-childsnack-10.pddl,TIMEOUT:301.0:-1.0:300.0:-1
ipc-2014-agile-childsnack-11-2.pddl,TIMEOUT:301.04:-1.0:300.0:-1
ipc-2014-agile-childsnack-11.pddl,TIMEOUT:301.07:-1.0:300.0:-1
ipc-2014-agile-childsnack-12.pddl,TIMEOUT:301.02:-1.0:300.0:-1
ipc-2014-agile-childsnack-13-2.pddl,TIMEOUT:301.09:-1.0:300.0:-1
ipc-2014-agile-childsnack-13.pddl,SAT:103.382:183.0:300.0:-1
ipc-2014-agile-childsnack-14.pddl,TIMEOUT:301.0:-1.0:300.0:-1
ipc-2014-agile-childsnack-15-2.pddl,TIMEOUT:301.1:-1.0:300.0:-1
ipc-2014-agile-childsnack-16-2.pddl,TIMEOUT:301.12:-1.0:300.0:-1
ipc-2014-agile-childsnack-19-2.pddl,TIMEOUT:301.11:-1.0:300.0:-1
ipc-2014-agile-childsnack-19.pddl,TIMEOUT:301.04:-1.0:300.0:-1
ipc-2014-agile-citycar-p3-2-2-0-1.pddl,SAT:0.563914:800.0:300.0:-1
ipc-2014-agile-citycar-p3-3-2-0-1.pddl,SAT:1.13383:2166.0:300.0:-1
ipc-2014-agile-citycar-p3-4-2-0-1.pddl,SAT:1.15582:1676.0:300.0:-1
ipc-2014-agile-citycar-p3-5-2-0-1.pddl,SAT:1.42678:3120.0:300.0:-1
ipc-2014-agile-citycar-p3-5-2-0-2.pddl,SAT:1.86:2463.0:300.0:-1
ipc-2014-agile-citycar-p4-2-2-0-1.pddl,SAT:18.8401:1280.0:300.0:-1
ipc-2014-agile-citycar-p4-2-3-0-1.pddl,SAT:26.33:2776.0:300.0:-1
ipc-2014-agile-citycar-p4-2-3-0-2.pddl,SAT:19.736:1482.0:300.0:-1
ipc-2014-agile-citycar-p4-3-2-0-1.pddl,SAT:5.59315:1484.0:300.0:-1
ipc-2014-agile-citycar-p4-3-2-0-2.pddl,SAT:5.48517:1782.0:300.0:-1
ipc-2014-agile-citycar-p4-3-3-0-1.pddl,SAT:57.3953:1847.0:300.0:-1
ipc-2014-agile-citycar-p4-3-3-0-2.pddl,SAT:33.5239:2682.0:300.0:-1
ipc-2014-agile-citycar-p4-4-2-0-1.pddl,SAT:38.0972:3227.0:300.0:-1
ipc-2014-agile-citycar-p4-4-2-0-2.pddl,SAT:67.0668:1909.0:300.0:-1
ipc-2014-agile-citycar-p4-4-3-0-1.pddl,SAT:142.14:2755.0:300.0:-1
ipc-2014-agile-citycar-p4-4-3-0-2.pddl,SAT:89.4894:3529.0:300.0:-1
ipc-2014-agile-citycar-p4-5-2-0-1.pddl,SAT:39.0441:3080.0:300.0:-1
ipc-2014-agile-citycar-p4-5-2-0-2.pddl,SAT:173.97:1165.0:300.0:-1
ipc-2014-agile-citycar-p4-5-3-0-1.pddl,SAT:60.6988:3831.0:300.0:-1
ipc-2014-agile-citycar-p4-5-3-0-2.pddl,SAT:122.059:1974.0:300.0:-1
ipc-2014-agile-floortile-p01-4-3-2.pddl,SAT:204.273:112.0:300.0:-1
ipc-2014-agile-floortile-p01-5-4-2.pddl,TIMEOUT:301.11:-1.0:300.0:-1
ipc-2014-agile-floortile-p01-5-5-2.pddl,TIMEOUT:301.04:-1.0:300.0:-1
ipc-2014-agile-floortile-p01-6-4-2.pddl,TIMEOUT:301.08:-1.0:300.0:-1
ipc-2014-agile-floortile-p01-6-5-2.pddl,TIMEOUT:301.01:-1.0:300.0:-1
ipc-2014-agile-floortile-p01-6-5-3.pddl,TIMEOUT:301.02:-1.0:300.0:-1
ipc-2014-agile-floortile-p02-5-4-2.pddl,TIMEOUT:301.07:-1.0:300.0:-1
ipc-2014-agile-floortile-p02-6-4-2.pddl,TIMEOUT:301.03:-1.0:300.0:-1
ipc-2014-agile-floortile-p02-6-5-2.pddl,TIMEOUT:301.04:-1.0:300.0:-1
ipc-2014-agile-floortile-p02-6-5-3.pddl,TIMEOUT:301.01:-1.0:300.0:-1
ipc-2014-agile-floortile-p03-6-4-2.pddl,TIMEOUT:301.02:-1.0:300.0:-1
ipc-2014-agile-floortile-p03-6-5-2.pddl,TIMEOUT:301.05:-1.0:300.0:-1
ipc-2014-agile-floortile-p03-6-5-3.pddl,TIMEOUT:301.04:-1.0:300.0:-1
ipc-2014-agile-floortile-p04-5-4-2.pddl,TIMEOUT:301.01:-1.0:300.0:-1
ipc-2014-agile-floortile-p04-5-5-2.pddl,TIMEOUT:301.02:-1.0:300.0:-1
ipc-2014-agile-floortile-p04-6-5-2.pddl,TIMEOUT:301.0:-1.0:300.0:-1
ipc-2014-agile-floortile-p04-6-5-3.pddl,TIMEOUT:301.03:-1.0:300.0:-1
ipc-2014-agile-floortile-p05-4-3-2.pddl,SAT:0.38894:530.0:300.0:-1
ipc-2014-agile-floortile-p05-6-5-2.pddl,TIMEOUT:301.05:-1.0:300.0:-1
ipc-2014-agile-floortile-p05-6-5-3.pddl,TIMEOUT:301.09:-1.0:300.0:-1
ipc-2014-agile-ged-d-10-1.pddl,SAT:6.75097:43.0:300.0:-1
ipc-2014-agile-ged-d-10-2.pddl,SAT:51.7011:100.0:300.0:-1
ipc-2014-agile-ged-d-10-3.pddl,SAT:15.0017:102.0:300.0:-1
ipc-2014-agile-ged-d-10-4.pddl,SAT:10.6694:33.0:300.0:-1
ipc-2014-agile-ged-d-10-5.pddl,SAT:194.581:51.0:300.0:-1
ipc-2014-agile-ged-d-10-6.pddl,SAT:191.695:40.0:300.0:-1
ipc-2014-agile-ged-d-11-1.pddl,SAT:192.987:45.0:300.0:-1
ipc-2014-agile-ged-d-11-3.pddl,SAT:189.718:31.0:300.0:-1
ipc-2014-agile-ged-d-11-5.pddl,SAT:193.286:42.0:300.0:-1
ipc-2014-agile-ged-d-11-6.pddl,SAT:27.5298:137.0:300.0:-1
ipc-2014-agile-ged-d-12-11.pddl,SAT:187.378:31.0:300.0:-1
ipc-2014-agile-ged-d-12-2.pddl,SAT:197.863:56.0:300.0:-1
ipc-2014-agile-ged-d-12-3.pddl,SAT:194.256:41.0:300.0:-1
ipc-2014-agile-ged-d-12-5.pddl,SAT:212.791:48.0:300.0:-1
ipc-2014-agile-ged-d-12-6.pddl,SAT:196.347:43.0:300.0:-1
ipc-2014-agile-ged-d-12-7.pddl,SAT:198.994:52.0:300.0:-1
ipc-2014-agile-ged-d-12-8.pddl,SAT:228.904:63.0:300.0:-1
ipc-2014-agile-ged-d-12-9.pddl,SAT:202.457:74.0:300.0:-1
ipc-2014-agile-ged-d-3-6.pddl,SAT:61.8376:30.0:300.0:-1
ipc-2014-agile-ged-d-9-5.pddl,SAT:38.0292:60.0:300.0:-1
ipc-2014-agile-hiking-3-4-3.pddl,SAT:1.82172:102.0:300.0:-1
ipc-2014-agile-hiking-3-4-4.pddl,SAT:3.3145:111.0:300.0:-1
ipc-2014-agile-hiking-3-4-5.pddl,SAT:5.68813:1015.0:300.0:-1
ipc-2014-agile-hiking-3-4-6.pddl,SAT:14.6198:523.0:300.0:-1
ipc-2014-agile-hiking-3-4-7.pddl,SAT:29.0996:2149.0:300.0:-1
ipc-2014-agile-hiking-3-4-8.pddl,SAT:26.135:3210.0:300.0:-1
ipc-2014-agile-hiking-3-4-9.pddl,SAT:80.7277:2429.0:300.0:-1
ipc-2014-agile-hiking-4-5-3.pddl,SAT:4.88626:85.0:300.0:-1
ipc-2014-agile-hiking-4-5-4.pddl,SAT:9.09862:310.0:300.0:-1
ipc-2014-agile-hiking-4-5-5.pddl,SAT:16.7265:849.0:300.0:-1
ipc-2014-agile-hiking-4-5-6.pddl,SAT:35.8565:592.0:300.0:-1
ipc-2014-agile-hiking-4-5-7.pddl,SAT:86.0319:2339.0:300.0:-1
ipc-2014-agile-hiking-4-5-8.pddl,SAT:131.385:3016.0:300.0:-1
ipc-2014-agile-hiking-4-5-9.pddl,TIMEOUT:301.08:-1.0:300.0:-1
ipc-2014-agile-hiking-5-6-3.pddl,SAT:12.3741:666.0:300.0:-1
ipc-2014-agile-hiking-5-6-4.pddl,SAT:20.5639:115.0:300.0:-1
ipc-2014-agile-hiking-5-6-5.pddl,SAT:35.8905:777.0:300.0:-1
ipc-2014-agile-hiking-5-6-6.pddl,SAT:51.6311:957.0:300.0:-1
ipc-2014-agile-hiking-5-6-7.pddl,SAT:133.091:2155.0:300.0:-1
ipc-2014-agile-hiking-5-6-8.pddl,TIMEOUT:301.04:-1.0:300.0:-1
ipc-2014-agile-maintenance-1.3.060.180.5-000.pddl,SAT:9.91649:51.0:300.0:-1
ipc-2014-agile-maintenance-1.3.060.180.5-001.pddl,SAT:3.9674:54.0:300.0:-1
ipc-2014-agile-maintenance-1.3.060.180.5-002.pddl,SAT:57.2563:60.0:300.0:-1
ipc-2014-agile-maintenance-1.3.100.300.5-000.pddl,TIMEOUT:301.1:-1.0:300.0:-1
ipc-2014-agile-maintenance-1.3.100.300.5-001.pddl,TIMEOUT:301.02:-1.0:300.0:-1
ipc-2014-agile-maintenance-1.3.100.300.7-000.pddl,SAT:3.43748:77.0:300.0:-1
ipc-2014-agile-maintenance-1.3.100.300.7-001.pddl,SAT:4.14537:100.0:300.0:-1
ipc-2014-agile-maintenance-1.3.100.300.7-002.pddl,SAT:3.60845:100.0:300.0:-1
ipc-2014-agile-maintenance-1.3.150.500.6-001.pddl,TIMEOUT:301.07:-1.0:300.0:-1
ipc-2014-agile-maintenance-1.3.200.500.5-001.pddl,TIMEOUT:301.01:-1.0:300.0:-1
ipc-2014-agile-maintenance-1.3.200.500.5-002.pddl,SAT:185.44:174.0:300.0:-1
ipc-2014-agile-maintenance-1.3.200.700.7-000.pddl,SAT:17.1174:171.0:300.0:-1
ipc-2014-agile-maintenance-1.3.200.700.7-001.pddl,SAT:30.4044:165.0:300.0:-1
ipc-2014-agile-maintenance-1.3.200.700.7-002.pddl,SAT:16.7525:163.0:300.0:-1
ipc-2014-agile-maintenance-1.3.200.900.5-000.pddl,TIMEOUT:301.09:-1.0:300.0:-1
ipc-2014-agile-maintenance-1.3.200.900.5-001.pddl,TIMEOUT:301.09:-1.0:300.0:-1
ipc-2014-agile-maintenance-1.3.200.900.5-002.pddl,TIMEOUT:301.1:-1.0:300.0:-1
ipc-2014-agile-maintenance-1.3.200.900.8-000.pddl,SAT:28.2677:185.0:300.0:-1
ipc-2014-agile-maintenance-1.3.200.900.8-001.pddl,SAT:27.5008:187.0:300.0:-1
ipc-2014-agile-maintenance-1.3.200.900.8-002.pddl,SAT:39.631:162.0:300.0:-1
ipc-2014-agile-openstacks-p130_2.pddl,SAT:15.3197:85.0:300.0:-1
ipc-2014-agile-openstacks-p130_3.pddl,SAT:20.1979:130.0:300.0:-1
ipc-2014-agile-openstacks-p150_2.pddl,SAT:22.9465:99.0:300.0:-1
ipc-2014-agile-openstacks-p150_3.pddl,SAT:36.9174:142.0:300.0:-1
ipc-2014-agile-openstacks-p170_1.pddl,SAT:33.7829:94.0:300.0:-1
ipc-2014-agile-openstacks-p170_2.pddl,SAT:33.142:148.0:300.0:-1
ipc-2014-agile-openstacks-p170_3.pddl,SAT:43.3354:170.0:300.0:-1
ipc-2014-agile-openstacks-p190_1.pddl,SAT:46.125:121.0:300.0:-1
ipc-2014-agile-openstacks-p190_2.pddl,SAT:43.8723:139.0:300.0:-1
ipc-2014-agile-openstacks-p190_3.pddl,SAT:55.6265:185.0:300.0:-1
ipc-2014-agile-openstacks-p210_1.pddl,SAT:45.5931:158.0:300.0:-1
ipc-2014-agile-openstacks-p210_2.pddl,SAT:57.7782:144.0:300.0:-1
ipc-2014-agile-openstacks-p230_1.pddl,SAT:60.7768:124.0:300.0:-1
ipc-2014-agile-openstacks-p230_2.pddl,SAT:62.6415:204.0:300.0:-1
ipc-2014-agile-openstacks-p250_1.pddl,SAT:70.7852:169.0:300.0:-1
ipc-2014-agile-openstacks-p250_2.pddl,SAT:74.6796:214.0:300.0:-1
ipc-2014-agile-openstacks-p270_1.pddl,SAT:103.726:213.0:300.0:-1
ipc-2014-agile-openstacks-p270_2.pddl,SAT:103.763:213.0:300.0:-1
ipc-2014-agile-openstacks-p290_1.pddl,SAT:119.244:226.0:300.0:-1
ipc-2014-agile-openstacks-p290_2.pddl,SAT:240.878:237.0:300.0:-1
ipc-2014-agile-parking-28_2.pddl,SAT:293.649:103.0:300.0:-1
ipc-2014-agile-parking-28_3.pddl,TIMEOUT:301.0:-1.0:300.0:-1
ipc-2014-agile-parking-30_1.pddl,TIMEOUT:301.05:-1.0:300.0:-1
ipc-2014-agile-parking-30_2.pddl,TIMEOUT:301.07:-1.0:300.0:-1
ipc-2014-agile-parking-30_3.pddl,TIMEOUT:301.04:-1.0:300.0:-1
ipc-2014-agile-parking-32_1.pddl,TIMEOUT:301.06:-1.0:300.0:-1
ipc-2014-agile-parking-32_2.pddl,TIMEOUT:301.04:-1.0:300.0:-1
ipc-2014-agile-parking-32_3.pddl,TIMEOUT:301.01:-1.0:300.0:-1
ipc-2014-agile-parking-34_1.pddl,TIMEOUT:301.02:-1.0:300.0:-1
ipc-2014-agile-parking-34_2.pddl,TIMEOUT:301.05:-1.0:300.0:-1
ipc-2014-agile-parking-34_3.pddl,TIMEOUT:301.0:-1.0:300.0:-1
ipc-2014-agile-parking-36_1.pddl,TIMEOUT:301.05:-1.0:300.0:-1
ipc-2014-agile-parking-36_2.pddl,TIMEOUT:301.05:-1.0:300.0:-1
ipc-2014-agile-parking-36_3.pddl,TIMEOUT:301.07:-1.0:300.0:-1
ipc-2014-agile-parking-38_1.pddl,TIMEOUT:301.08:-1.0:300.0:-1
ipc-2014-agile-parking-38_2.pddl,TIMEOUT:301.0:-1.0:300.0:-1
ipc-2014-agile-parking-38_3.pddl,TIMEOUT:301.03:-1.0:300.0:-1
ipc-2014-agile-parking-40_1.pddl,TIMEOUT:301.06:-1.0:300.0:-1
ipc-2014-agile-parking-40_2.pddl,TIMEOUT:301.01:-1.0:300.0:-1
ipc-2014-agile-parking-40_3.pddl,TIMEOUT:301.01:-1.0:300.0:-1
ipc-2014-agile-tetris-020.pddl,SAT:5.69713:124.0:300.0:-1
ipc-2014-agile-tetris-021.pddl,SAT:21.6527:205.0:300.0:-1
ipc-2014-agile-tetris-022.pddl,SAT:17.0884:438.0:300.0:-1
ipc-2014-agile-tetris-023.pddl,SAT:15.0197:434.0:300.0:-1
ipc-2014-agile-tetris-024.pddl,SAT:24.3993:688.0:300.0:-1
ipc-2014-agile-tetris-025.pddl,SAT:12.6561:552.0:300.0:-1
ipc-2014-agile-tetris-026.pddl,TIMEOUT:301.07:-1.0:300.0:-1
ipc-2014-agile-tetris-027.pddl,SAT:101.401:729.0:300.0:-1
ipc-2014-agile-tetris-028.pddl,SAT:31.1593:519.0:300.0:-1
ipc-2014-agile-tetris-029.pddl,SAT:10.0695:543.0:300.0:-1
ipc-2014-agile-tetris-031.pddl,TIMEOUT:301.02:-1.0:300.0:-1
ipc-2014-agile-tetris-032.pddl,SAT:30.8233:323.0:300.0:-1
ipc-2014-agile-tetris-033.pddl,SAT:65.701:762.0:300.0:-1
ipc-2014-agile-tetris-034.pddl,SAT:53.6768:540.0:300.0:-1
ipc-2014-agile-tetris-035.pddl,SAT:69.2925:1080.0:300.0:-1
ipc-2014-agile-tetris-036.pddl,SAT:52.702:873.0:300.0:-1
ipc-2014-agile-tetris-037.pddl,SAT:35.9605:2419.0:300.0:-1
ipc-2014-agile-tetris-038.pddl,SAT:67.0468:1352.0:300.0:-1
ipc-2014-agile-tetris-039.pddl,TIMEOUT:301.07:-1.0:300.0:-1
ipc-2014-agile-tetris-040.pddl,SAT:61.4327:697.0:300.0:-1
ipc-2014-agile-thoughtful-bootstrap-typed-01.pddl,CRASHED:0.12498:1000000000.0:300.0:-1
ipc-2014-agile-thoughtful-bootstrap-typed-02.pddl,CRASHED:0.114982:1000000000.0:300.0:-1
ipc-2014-agile-thoughtful-bootstrap-typed-03.pddl,CRASHED:0.142977:1000000000.0:300.0:-1
ipc-2014-agile-thoughtful-bootstrap-typed-04.pddl,CRASHED:0.12698:1000000000.0:300.0:-1
ipc-2014-agile-thoughtful-bootstrap-typed-05.pddl,CRASHED:0.12198:1000000000.0:300.0:-1
ipc-2014-agile-thoughtful-p11_6_53-typed.pddl,CRASHED:0.132979:1000000000.0:300.0:-1
ipc-2014-agile-thoughtful-p11_6_59-typed.pddl,CRASHED:0.132979:1000000000.0:300.0:-1
ipc-2014-agile-thoughtful-p11_6_62-typed.pddl,CRASHED:0.132979:1000000000.0:300.0:-1
ipc-2014-agile-thoughtful-p13_7_78-typed.pddl,CRASHED:0.145977:1000000000.0:300.0:-1
ipc-2014-agile-thoughtful-p13_7_79-typed.pddl,CRASHED:0.134978:1000000000.0:300.0:-1
ipc-2014-agile-thoughtful-p13_7_86-typed.pddl,CRASHED:0.135978:1000000000.0:300.0:-1
ipc-2014-agile-thoughtful-target-typed-20.pddl,CRASHED:0.145976:1000000000.0:300.0:-1
ipc-2014-agile-thoughtful-target-typed-21.pddl,CRASHED:0.136978:1000000000.0:300.0:-1
ipc-2014-agile-thoughtful-target-typed-22.pddl,CRASHED:0.135978:1000000000.0:300.0:-1
ipc-2014-agile-thoughtful-target-typed-23.pddl,CRASHED:0.135978:1000000000.0:300.0:-1
ipc-2014-agile-thoughtful-target-typed-24.pddl,CRASHED:0.135979:1000000000.0:300.0:-1
ipc-2014-agile-thoughtful-target-typed-25.pddl,CRASHED:0.135979:1000000000.0:300.0:-1
ipc-2014-agile-thoughtful-target-typed-26.pddl,CRASHED:0.136978:1000000000.0:300.0:-1
ipc-2014-agile-thoughtful-target-typed-27.pddl,CRASHED:0.135979:1000000000.0:300.0:-1
ipc-2014-agile-thoughtful-target-typed-28.pddl,CRASHED:0.136978:1000000000.0:300.0:-1
ipc-2014-agile-transport-01.pddl,SAT:27.4798:19322.0:300.0:-1
ipc-2014-agile-transport-02.pddl,SAT:285.781:3420.0:300.0:-1
ipc-2014-agile-transport-03.pddl,SAT:168.761:26316.0:300.0:-1
ipc-2014-agile-transport-04.pddl,TIMEOUT:301.09:-1.0:300.0:-1
ipc-2014-agile-transport-05.pddl,TIMEOUT:301.02:-1.0:300.0:-1
ipc-2014-agile-transport-06.pddl,TIMEOUT:301.04:-1.0:300.0:-1
ipc-2014-agile-transport-07.pddl,TIMEOUT:301.02:-1.0:300.0:-1
ipc-2014-agile-transport-08.pddl,TIMEOUT:301.06:-1.0:300.0:-1
ipc-2014-agile-transport-09.pddl,TIMEOUT:301.01:-1.0:300.0:-1
ipc-2014-agile-transport-10.pddl,TIMEOUT:301.03:-1.0:300.0:-1
ipc-2014-agile-transport-11.pddl,SAT:27.7268:16632.0:300.0:-1
ipc-2014-agile-transport-12.pddl,SAT:37.8103:24876.0:300.0:-1
ipc-2014-agile-transport-13.pddl,SAT:132.979:22863.0:300.0:-1
ipc-2014-agile-transport-14.pddl,TIMEOUT:301.02:-1.0:300.0:-1
ipc-2014-agile-transport-15.pddl,TIMEOUT:301.03:-1.0:300.0:-1
ipc-2014-agile-transport-16.pddl,TIMEOUT:301.06:-1.0:300.0:-1
ipc-2014-agile-transport-17.pddl,TIMEOUT:301.02:-1.0:300.0:-1
ipc-2014-agile-transport-18.pddl,TIMEOUT:301.07:-1.0:300.0:-1
ipc-2014-agile-transport-19.pddl,TIMEOUT:301.04:-1.0:300.0:-1
ipc-2014-agile-transport-20.pddl,TIMEOUT:301.07:-1.0:300.0:-1
ipc-2014-agile-visitall-30.pddl,SAT:82.9944:5547.0:300.0:-1
ipc-2014-agile-visitall-31.pddl,SAT:131.442:6306.0:300.0:-1
ipc-2014-agile-visitall-32.pddl,SAT:137.174:7567.0:300.0:-1
ipc-2014-agile-visitall-33.pddl,SAT:228.366:1512.0:300.0:-1
ipc-2014-agile-visitall-50.pddl,TIMEOUT:301.02:-1.0:300.0:-1
ipc-2014-agile-visitall-51.pddl,TIMEOUT:301.09:-1.0:300.0:-1
ipc-2014-agile-visitall-52.pddl,TIMEOUT:301.04:-1.0:300.0:-1
ipc-2014-agile-visitall-53.pddl,TIMEOUT:301.07:-1.0:300.0:-1
ipc-2014-agile-visitall-54.pddl,TIMEOUT:301.08:-1.0:300.0:-1
ipc-2014-agile-visitall-55.pddl,TIMEOUT:301.05:-1.0:300.0:-1
ipc-2014-agile-visitall-56.pddl,TIMEOUT:301.07:-1.0:300.0:-1
ipc-2014-agile-visitall-57.pddl,TIMEOUT:301.02:-1.0:300.0:-1
ipc-2014-agile-visitall-58.pddl,TIMEOUT:301.0:-1.0:300.0:-1
ipc-2014-agile-visitall-59.pddl,TIMEOUT:301.07:-1.0:300.0:-1
ipc-2014-agile-visitall-60.pddl,TIMEOUT:301.04:-1.0:300.0:-1
ipc-2014-agile-visitall-61.pddl,TIMEOUT:301.03:-1.0:300.0:-1
ipc-2014-agile-visitall-62.pddl,TIMEOUT:301.01:-1.0:300.0:-1
ipc-2014-agile-visitall-63.pddl,TIMEOUT:301.04:-1.0:300.0:-1
ipc-2014-agile-visitall-64.pddl,TIMEOUT:301.04:-1.0:300.0:-1
ipc-2014-agile-visitall-65.pddl,TIMEOUT:301.06:-1.0:300.0:-1
