instance,ipc-2014-agile-ibacop2
ipc-2014-agile-barman-p1-11-4-15.pddl,SAT:32.0:213.0:300.0:-1
ipc-2014-agile-barman-p1-11-5-15.pddl,SAT:167.0:216.0:300.0:-1
ipc-2014-agile-barman-p1-11-5-16.pddl,SAT:42.0:213.0:300.0:-1
ipc-2014-agile-barman-p2-10-4-13.pddl,SAT:31.0:209.0:300.0:-1
ipc-2014-agile-barman-p2-11-4-15.pddl,SAT:36.0:174.0:300.0:-1
ipc-2014-agile-barman-p2-11-5-15.pddl,SAT:32.0:180.0:300.0:-1
ipc-2014-agile-barman-p2-11-5-16.pddl,SAT:48.0:259.0:300.0:-1
ipc-2014-agile-barman-p2-11-5-17.pddl,SAT:42.0:296.0:300.0:-1
ipc-2014-agile-barman-p3-10-4-13.pddl,SAT:31.0:172.0:300.0:-1
ipc-2014-agile-barman-p3-11-4-15.pddl,SAT:31.0:245.0:300.0:-1
ipc-2014-agile-barman-p3-11-5-15.pddl,SAT:35.0:188.0:300.0:-1
ipc-2014-agile-barman-p3-11-5-16.pddl,SAT:34.0:196.0:300.0:-1
ipc-2014-agile-barman-p3-11-5-17.pddl,SAT:35.0:200.0:300.0:-1
ipc-2014-agile-barman-p4-11-4-14.pddl,SAT:34.0:163.0:300.0:-1
ipc-2014-agile-barman-p4-11-4-15.pddl,SAT:34.0:193.0:300.0:-1
ipc-2014-agile-barman-p4-11-5-15.pddl,SAT:35.0:205.0:300.0:-1
ipc-2014-agile-barman-p5-10-4-13.pddl,SAT:34.0:170.0:300.0:-1
ipc-2014-agile-barman-p5-11-4-15.pddl,SAT:32.0:189.0:300.0:-1
ipc-2014-agile-barman-p5-11-5-15.pddl,SAT:32.0:205.0:300.0:-1
ipc-2014-agile-barman-p5-11-5-16.pddl,SAT:103.0:185.0:300.0:-1
ipc-2014-agile-cavediving-01_easy.pddl,CRASHED:305.0:1000000000.0:300.0:-1
ipc-2014-agile-cavediving-01.pddl,CRASHED:305.0:1000000000.0:300.0:-1
ipc-2014-agile-cavediving-02_easy.pddl,CRASHED:305.0:1000000000.0:300.0:-1
ipc-2014-agile-cavediving-03_easy.pddl,CRASHED:305.0:1000000000.0:300.0:-1
ipc-2014-agile-cavediving-04_easy.pddl,CRASHED:305.0:1000000000.0:300.0:-1
ipc-2014-agile-cavediving-05A_easy.pddl,SAT:65.0:113.0:300.0:-1
ipc-2014-agile-cavediving-06A_easy.pddl,SAT:64.0:114.0:300.0:-1
ipc-2014-agile-cavediving-07_easy.pddl,SAT:60.0:136.0:300.0:-1
ipc-2014-agile-cavediving-08_easy.pddl,SAT:65.0:109.0:300.0:-1
ipc-2014-agile-cavediving-09_easy.pddl,TIMEOUT:301.06:-1.0:300.0:-1
ipc-2014-agile-cavediving-10_easy.pddl,TIMEOUT:301.02:-1.0:300.0:-1
ipc-2014-agile-cavediving-11_easy.pddl,TIMEOUT:301.063:-1.0:300.0:-1
ipc-2014-agile-cavediving-12_easy.pddl,TIMEOUT:301.05:-1.0:300.0:-1
ipc-2014-agile-cavediving-13_easy.pddl,CRASHED:304.0:1000000000.0:300.0:-1
ipc-2014-agile-cavediving-14_easy.pddl,CRASHED:305.0:1000000000.0:300.0:-1
ipc-2014-agile-cavediving-15_easy.pddl,CRASHED:307.0:1000000000.0:300.0:-1
ipc-2014-agile-cavediving-16_easy.pddl,CRASHED:306.0:1000000000.0:300.0:-1
ipc-2014-agile-cavediving-18A_easy.pddl,SAT:83.0:138.0:300.0:-1
ipc-2014-agile-cavediving-18_easy.pddl,SAT:65.0:138.0:300.0:-1
ipc-2014-agile-cavediving-20A_easy.pddl,SAT:68.0:103.0:300.0:-1
ipc-2014-agile-childsnack-05-2.pddl,TIMEOUT:301.03:-1.0:300.0:-1
ipc-2014-agile-childsnack-05.pddl,SAT:260.0:53.0:300.0:-1
ipc-2014-agile-childsnack-06-2.pddl,TIMEOUT:301.03:-1.0:300.0:-1
ipc-2014-agile-childsnack-07-2.pddl,TIMEOUT:301.01:-1.0:300.0:-1
ipc-2014-agile-childsnack-08-2.pddl,TIMEOUT:301.02:-1.0:300.0:-1
ipc-2014-agile-childsnack-08.pddl,TIMEOUT:301.04:-1.0:300.0:-1
ipc-2014-agile-childsnack-09-2.pddl,TIMEOUT:301.09:-1.0:300.0:-1
ipc-2014-agile-childsnack-09.pddl,TIMEOUT:301.04:-1.0:300.0:-1
ipc-2014-agile-childsnack-10-2.pddl,TIMEOUT:301.0:-1.0:300.0:-1
ipc-2014-agile-childsnack-10.pddl,TIMEOUT:301.03:-1.0:300.0:-1
ipc-2014-agile-childsnack-11-2.pddl,TIMEOUT:301.0:-1.0:300.0:-1
ipc-2014-agile-childsnack-11.pddl,TIMEOUT:301.02:-1.0:300.0:-1
ipc-2014-agile-childsnack-12.pddl,TIMEOUT:301.03:-1.0:300.0:-1
ipc-2014-agile-childsnack-13-2.pddl,TIMEOUT:301.0:-1.0:300.0:-1
ipc-2014-agile-childsnack-13.pddl,TIMEOUT:301.0:-1.0:300.0:-1
ipc-2014-agile-childsnack-14.pddl,TIMEOUT:301.0:-1.0:300.0:-1
ipc-2014-agile-childsnack-15-2.pddl,TIMEOUT:301.0:-1.0:300.0:-1
ipc-2014-agile-childsnack-16-2.pddl,TIMEOUT:301.0:-1.0:300.0:-1
ipc-2014-agile-childsnack-19-2.pddl,TIMEOUT:301.0:-1.0:300.0:-1
ipc-2014-agile-childsnack-19.pddl,TIMEOUT:301.0:-1.0:300.0:-1
ipc-2014-agile-citycar-p3-2-2-0-1.pddl,SAT:138.0:201.0:300.0:-1
ipc-2014-agile-citycar-p3-3-2-0-1.pddl,SAT:166.0:191.0:300.0:-1
ipc-2014-agile-citycar-p3-4-2-0-1.pddl,SAT:167.0:311.0:300.0:-1
ipc-2014-agile-citycar-p3-5-2-0-1.pddl,TIMEOUT:301.0:-1.0:300.0:-1
ipc-2014-agile-citycar-p3-5-2-0-2.pddl,SAT:179.0:194.0:300.0:-1
ipc-2014-agile-citycar-p4-2-2-0-1.pddl,TIMEOUT:301.0:-1.0:300.0:-1
ipc-2014-agile-citycar-p4-2-3-0-1.pddl,TIMEOUT:301.0:-1.0:300.0:-1
ipc-2014-agile-citycar-p4-2-3-0-2.pddl,TIMEOUT:301.0:-1.0:300.0:-1
ipc-2014-agile-citycar-p4-3-2-0-1.pddl,TIMEOUT:301.0:-1.0:300.0:-1
ipc-2014-agile-citycar-p4-3-2-0-2.pddl,TIMEOUT:301.0:-1.0:300.0:-1
ipc-2014-agile-citycar-p4-3-3-0-1.pddl,TIMEOUT:301.0:-1.0:300.0:-1
ipc-2014-agile-citycar-p4-3-3-0-2.pddl,TIMEOUT:301.0:-1.0:300.0:-1
ipc-2014-agile-citycar-p4-4-2-0-1.pddl,TIMEOUT:301.01:-1.0:300.0:-1
ipc-2014-agile-citycar-p4-4-2-0-2.pddl,TIMEOUT:301.1:-1.0:300.0:-1
ipc-2014-agile-citycar-p4-4-3-0-1.pddl,TIMEOUT:301.09:-1.0:300.0:-1
ipc-2014-agile-citycar-p4-4-3-0-2.pddl,TIMEOUT:301.01:-1.0:300.0:-1
ipc-2014-agile-citycar-p4-5-2-0-1.pddl,TIMEOUT:301.09:-1.0:300.0:-1
ipc-2014-agile-citycar-p4-5-2-0-2.pddl,TIMEOUT:301.04:-1.0:300.0:-1
ipc-2014-agile-citycar-p4-5-3-0-1.pddl,TIMEOUT:301.07:-1.0:300.0:-1
ipc-2014-agile-citycar-p4-5-3-0-2.pddl,TIMEOUT:301.01:-1.0:300.0:-1
ipc-2014-agile-floortile-p01-4-3-2.pddl,SAT:44.0:74.0:300.0:-1
ipc-2014-agile-floortile-p01-5-4-2.pddl,TIMEOUT:301.01:-1.0:300.0:-1
ipc-2014-agile-floortile-p01-5-5-2.pddl,TIMEOUT:301.02:-1.0:300.0:-1
ipc-2014-agile-floortile-p01-6-4-2.pddl,TIMEOUT:301.01:-1.0:300.0:-1
ipc-2014-agile-floortile-p01-6-5-2.pddl,TIMEOUT:301.04:-1.0:300.0:-1
ipc-2014-agile-floortile-p01-6-5-3.pddl,TIMEOUT:301.04:-1.0:300.0:-1
ipc-2014-agile-floortile-p02-5-4-2.pddl,TIMEOUT:301.01:-1.0:300.0:-1
ipc-2014-agile-floortile-p02-6-4-2.pddl,TIMEOUT:301.07:-1.0:300.0:-1
ipc-2014-agile-floortile-p02-6-5-2.pddl,TIMEOUT:301.07:-1.0:300.0:-1
ipc-2014-agile-floortile-p02-6-5-3.pddl,TIMEOUT:301.08:-1.0:300.0:-1
ipc-2014-agile-floortile-p03-6-4-2.pddl,TIMEOUT:301.0:-1.0:300.0:-1
ipc-2014-agile-floortile-p03-6-5-2.pddl,TIMEOUT:301.01:-1.0:300.0:-1
ipc-2014-agile-floortile-p03-6-5-3.pddl,TIMEOUT:301.0:-1.0:300.0:-1
ipc-2014-agile-floortile-p04-5-4-2.pddl,TIMEOUT:301.09:-1.0:300.0:-1
ipc-2014-agile-floortile-p04-5-5-2.pddl,TIMEOUT:301.0:-1.0:300.0:-1
ipc-2014-agile-floortile-p04-6-5-2.pddl,TIMEOUT:301.03:-1.0:300.0:-1
ipc-2014-agile-floortile-p04-6-5-3.pddl,TIMEOUT:301.04:-1.0:300.0:-1
ipc-2014-agile-floortile-p05-4-3-2.pddl,SAT:29.0:77.0:300.0:-1
ipc-2014-agile-floortile-p05-6-5-2.pddl,TIMEOUT:301.01:-1.0:300.0:-1
ipc-2014-agile-floortile-p05-6-5-3.pddl,TIMEOUT:301.08:-1.0:300.0:-1
ipc-2014-agile-ged-d-10-1.pddl,SAT:50.0:81.0:300.0:-1
ipc-2014-agile-ged-d-10-2.pddl,SAT:40.0:38.0:300.0:-1
ipc-2014-agile-ged-d-10-3.pddl,SAT:36.0:28.0:300.0:-1
ipc-2014-agile-ged-d-10-4.pddl,SAT:50.0:72.0:300.0:-1
ipc-2014-agile-ged-d-10-5.pddl,SAT:64.0:63.0:300.0:-1
ipc-2014-agile-ged-d-10-6.pddl,SAT:49.0:50.0:300.0:-1
ipc-2014-agile-ged-d-11-1.pddl,SAT:42.0:61.0:300.0:-1
ipc-2014-agile-ged-d-11-3.pddl,SAT:52.0:58.0:300.0:-1
ipc-2014-agile-ged-d-11-5.pddl,SAT:89.0:71.0:300.0:-1
ipc-2014-agile-ged-d-11-6.pddl,SAT:41.0:88.0:300.0:-1
ipc-2014-agile-ged-d-12-11.pddl,SAT:71.0:93.0:300.0:-1
ipc-2014-agile-ged-d-12-2.pddl,SAT:60.0:89.0:300.0:-1
ipc-2014-agile-ged-d-12-3.pddl,SAT:92.0:104.0:300.0:-1
ipc-2014-agile-ged-d-12-5.pddl,SAT:123.0:40.0:300.0:-1
ipc-2014-agile-ged-d-12-6.pddl,SAT:90.0:124.0:300.0:-1
ipc-2014-agile-ged-d-12-7.pddl,SAT:127.0:50.0:300.0:-1
ipc-2014-agile-ged-d-12-8.pddl,SAT:125.0:51.0:300.0:-1
ipc-2014-agile-ged-d-12-9.pddl,SAT:125.0:54.0:300.0:-1
ipc-2014-agile-ged-d-3-6.pddl,SAT:45.0:101.0:300.0:-1
ipc-2014-agile-ged-d-9-5.pddl,SAT:41.0:61.0:300.0:-1
ipc-2014-agile-hiking-3-4-3.pddl,SAT:32.0:14.0:300.0:-1
ipc-2014-agile-hiking-3-4-4.pddl,SAT:35.0:44.0:300.0:-1
ipc-2014-agile-hiking-3-4-5.pddl,SAT:44.0:27.0:300.0:-1
ipc-2014-agile-hiking-3-4-6.pddl,SAT:195.0:42.0:300.0:-1
ipc-2014-agile-hiking-3-4-7.pddl,SAT:276.0:54.0:300.0:-1
ipc-2014-agile-hiking-3-4-8.pddl,SAT:288.0:90.0:300.0:-1
ipc-2014-agile-hiking-3-4-9.pddl,SAT:166.0:75.0:300.0:-1
ipc-2014-agile-hiking-4-5-3.pddl,SAT:44.0:21.0:300.0:-1
ipc-2014-agile-hiking-4-5-4.pddl,SAT:138.0:24.0:300.0:-1
ipc-2014-agile-hiking-4-5-5.pddl,SAT:74.0:40.0:300.0:-1
ipc-2014-agile-hiking-4-5-6.pddl,SAT:169.0:58.0:300.0:-1
ipc-2014-agile-hiking-4-5-7.pddl,SAT:203.0:54.0:300.0:-1
ipc-2014-agile-hiking-4-5-8.pddl,SAT:175.0:71.0:300.0:-1
ipc-2014-agile-hiking-4-5-9.pddl,TIMEOUT:301.0:-1.0:300.0:-1
ipc-2014-agile-hiking-5-6-3.pddl,SAT:62.0:16.0:300.0:-1
ipc-2014-agile-hiking-5-6-4.pddl,SAT:92.0:24.0:300.0:-1
ipc-2014-agile-hiking-5-6-5.pddl,SAT:265.0:32.0:300.0:-1
ipc-2014-agile-hiking-5-6-6.pddl,SAT:319.0:43.0:300.0:-1
ipc-2014-agile-hiking-5-6-7.pddl,TIMEOUT:301.0:-1.0:300.0:-1
ipc-2014-agile-hiking-5-6-8.pddl,TIMEOUT:301.08:-1.0:300.0:-1
ipc-2014-agile-maintenance-1.3.060.180.5-000.pddl,SAT:254.0:48.0:300.0:-1
ipc-2014-agile-maintenance-1.3.060.180.5-001.pddl,SAT:229.0:55.0:300.0:-1
ipc-2014-agile-maintenance-1.3.060.180.5-002.pddl,SAT:269.0:48.0:300.0:-1
ipc-2014-agile-maintenance-1.3.100.300.5-000.pddl,SAT:183.0:92.0:300.0:-1
ipc-2014-agile-maintenance-1.3.100.300.5-001.pddl,SAT:233.0:72.0:300.0:-1
ipc-2014-agile-maintenance-1.3.100.300.7-000.pddl,SAT:40.0:83.0:300.0:-1
ipc-2014-agile-maintenance-1.3.100.300.7-001.pddl,SAT:40.0:89.0:300.0:-1
ipc-2014-agile-maintenance-1.3.100.300.7-002.pddl,SAT:40.0:83.0:300.0:-1
ipc-2014-agile-maintenance-1.3.150.500.6-001.pddl,SAT:195.0:129.0:300.0:-1
ipc-2014-agile-maintenance-1.3.200.500.5-001.pddl,SAT:178.0:139.0:300.0:-1
ipc-2014-agile-maintenance-1.3.200.500.5-002.pddl,TIMEOUT:301.04:-1.0:300.0:-1
ipc-2014-agile-maintenance-1.3.200.700.7-000.pddl,SAT:201.0:178.0:300.0:-1
ipc-2014-agile-maintenance-1.3.200.700.7-001.pddl,SAT:136.0:172.0:300.0:-1
ipc-2014-agile-maintenance-1.3.200.700.7-002.pddl,SAT:217.0:170.0:300.0:-1
ipc-2014-agile-maintenance-1.3.200.900.5-000.pddl,TIMEOUT:301.0:-1.0:300.0:-1
ipc-2014-agile-maintenance-1.3.200.900.5-001.pddl,TIMEOUT:301.0:-1.0:300.0:-1
ipc-2014-agile-maintenance-1.3.200.900.5-002.pddl,TIMEOUT:301.0:-1.0:300.0:-1
ipc-2014-agile-maintenance-1.3.200.900.8-000.pddl,SAT:142.0:174.0:300.0:-1
ipc-2014-agile-maintenance-1.3.200.900.8-001.pddl,SAT:146.0:171.0:300.0:-1
ipc-2014-agile-maintenance-1.3.200.900.8-002.pddl,SAT:163.0:169.0:300.0:-1
ipc-2014-agile-openstacks-p130_2.pddl,SAT:91.0:78.0:300.0:-1
ipc-2014-agile-openstacks-p130_3.pddl,SAT:105.0:117.0:300.0:-1
ipc-2014-agile-openstacks-p150_2.pddl,SAT:175.0:81.0:300.0:-1
ipc-2014-agile-openstacks-p150_3.pddl,SAT:163.0:136.0:300.0:-1
ipc-2014-agile-openstacks-p170_1.pddl,SAT:147.0:127.0:300.0:-1
ipc-2014-agile-openstacks-p170_2.pddl,TIMEOUT:301.0:-1.0:300.0:-1
ipc-2014-agile-openstacks-p170_3.pddl,SAT:237.0:170.0:300.0:-1
ipc-2014-agile-openstacks-p190_1.pddl,SAT:208.0:113.0:300.0:-1
ipc-2014-agile-openstacks-p190_2.pddl,SAT:314.0:154.0:300.0:-1
ipc-2014-agile-openstacks-p190_3.pddl,TIMEOUT:301.0:-1.0:300.0:-1
ipc-2014-agile-openstacks-p210_1.pddl,SAT:209.0:121.0:300.0:-1
ipc-2014-agile-openstacks-p210_2.pddl,SAT:212.0:144.0:300.0:-1
ipc-2014-agile-openstacks-p230_1.pddl,SAT:258.0:135.0:300.0:-1
ipc-2014-agile-openstacks-p230_2.pddl,SAT:274.0:162.0:300.0:-1
ipc-2014-agile-openstacks-p250_1.pddl,TIMEOUT:301.1:-1.0:300.0:-1
ipc-2014-agile-openstacks-p250_2.pddl,TIMEOUT:301.09:-1.0:300.0:-1
ipc-2014-agile-openstacks-p270_1.pddl,TIMEOUT:301.04:-1.0:300.0:-1
ipc-2014-agile-openstacks-p270_2.pddl,TIMEOUT:301.04:-1.0:300.0:-1
ipc-2014-agile-openstacks-p290_1.pddl,TIMEOUT:301.138:-1.0:300.0:-1
ipc-2014-agile-openstacks-p290_2.pddl,TIMEOUT:301.03:-1.0:300.0:-1
ipc-2014-agile-parking-28_2.pddl,SAT:146.0:104.0:300.0:-1
ipc-2014-agile-parking-28_3.pddl,SAT:261.0:68.0:300.0:-1
ipc-2014-agile-parking-30_1.pddl,SAT:282.0:63.0:300.0:-1
ipc-2014-agile-parking-30_2.pddl,SAT:152.0:112.0:300.0:-1
ipc-2014-agile-parking-30_3.pddl,SAT:226.0:73.0:300.0:-1
ipc-2014-agile-parking-32_1.pddl,TIMEOUT:301.0:-1.0:300.0:-1
ipc-2014-agile-parking-32_2.pddl,TIMEOUT:301.0:-1.0:300.0:-1
ipc-2014-agile-parking-32_3.pddl,TIMEOUT:301.0:-1.0:300.0:-1
ipc-2014-agile-parking-34_1.pddl,TIMEOUT:301.0:-1.0:300.0:-1
ipc-2014-agile-parking-34_2.pddl,TIMEOUT:301.0:-1.0:300.0:-1
ipc-2014-agile-parking-34_3.pddl,TIMEOUT:301.0:-1.0:300.0:-1
ipc-2014-agile-parking-36_1.pddl,TIMEOUT:301.0:-1.0:300.0:-1
ipc-2014-agile-parking-36_2.pddl,TIMEOUT:301.0:-1.0:300.0:-1
ipc-2014-agile-parking-36_3.pddl,TIMEOUT:301.0:-1.0:300.0:-1
ipc-2014-agile-parking-38_1.pddl,TIMEOUT:301.0:-1.0:300.0:-1
ipc-2014-agile-parking-38_2.pddl,TIMEOUT:301.0:-1.0:300.0:-1
ipc-2014-agile-parking-38_3.pddl,TIMEOUT:301.0:-1.0:300.0:-1
ipc-2014-agile-parking-40_1.pddl,TIMEOUT:301.09:-1.0:300.0:-1
ipc-2014-agile-parking-40_2.pddl,TIMEOUT:301.29:-1.0:300.0:-1
ipc-2014-agile-parking-40_3.pddl,TIMEOUT:301.18:-1.0:300.0:-1
ipc-2014-agile-tetris-020.pddl,TIMEOUT:301.055:-1.0:300.0:-1
ipc-2014-agile-tetris-021.pddl,TIMEOUT:301.043:-1.0:300.0:-1
ipc-2014-agile-tetris-022.pddl,TIMEOUT:301.063:-1.0:300.0:-1
ipc-2014-agile-tetris-023.pddl,TIMEOUT:301.126:-1.0:300.0:-1
ipc-2014-agile-tetris-024.pddl,TIMEOUT:301.075:-1.0:300.0:-1
ipc-2014-agile-tetris-025.pddl,TIMEOUT:301.11:-1.0:300.0:-1
ipc-2014-agile-tetris-026.pddl,TIMEOUT:301.0:-1.0:300.0:-1
ipc-2014-agile-tetris-027.pddl,TIMEOUT:301.057:-1.0:300.0:-1
ipc-2014-agile-tetris-028.pddl,TIMEOUT:301.113:-1.0:300.0:-1
ipc-2014-agile-tetris-029.pddl,TIMEOUT:301.065:-1.0:300.0:-1
ipc-2014-agile-tetris-031.pddl,TIMEOUT:301.03:-1.0:300.0:-1
ipc-2014-agile-tetris-032.pddl,TIMEOUT:301.103:-1.0:300.0:-1
ipc-2014-agile-tetris-033.pddl,TIMEOUT:301.02:-1.0:300.0:-1
ipc-2014-agile-tetris-034.pddl,TIMEOUT:301.0:-1.0:300.0:-1
ipc-2014-agile-tetris-035.pddl,TIMEOUT:301.0:-1.0:300.0:-1
ipc-2014-agile-tetris-036.pddl,TIMEOUT:301.0:-1.0:300.0:-1
ipc-2014-agile-tetris-037.pddl,TIMEOUT:301.071:-1.0:300.0:-1
ipc-2014-agile-tetris-038.pddl,TIMEOUT:301.107:-1.0:300.0:-1
ipc-2014-agile-tetris-039.pddl,TIMEOUT:301.08:-1.0:300.0:-1
ipc-2014-agile-tetris-040.pddl,TIMEOUT:301.091:-1.0:300.0:-1
ipc-2014-agile-thoughtful-bootstrap-typed-01.pddl,SAT:30.0:36.0:300.0:-1
ipc-2014-agile-thoughtful-bootstrap-typed-02.pddl,SAT:29.0:35.0:300.0:-1
ipc-2014-agile-thoughtful-bootstrap-typed-03.pddl,SAT:29.0:44.0:300.0:-1
ipc-2014-agile-thoughtful-bootstrap-typed-04.pddl,SAT:29.0:37.0:300.0:-1
ipc-2014-agile-thoughtful-bootstrap-typed-05.pddl,SAT:29.0:34.0:300.0:-1
ipc-2014-agile-thoughtful-p11_6_53-typed.pddl,CRASHED:360.0:1000000000.0:300.0:-1
ipc-2014-agile-thoughtful-p11_6_59-typed.pddl,SAT:35.0:126.0:300.0:-1
ipc-2014-agile-thoughtful-p11_6_62-typed.pddl,SAT:55.0:141.0:300.0:-1
ipc-2014-agile-thoughtful-p13_7_78-typed.pddl,CRASHED:360.0:1000000000.0:300.0:-1
ipc-2014-agile-thoughtful-p13_7_79-typed.pddl,CRASHED:360.0:1000000000.0:300.0:-1
ipc-2014-agile-thoughtful-p13_7_86-typed.pddl,SAT:40.0:171.0:300.0:-1
ipc-2014-agile-thoughtful-target-typed-20.pddl,SAT:41.0:170.0:300.0:-1
ipc-2014-agile-thoughtful-target-typed-21.pddl,SAT:55.0:186.0:300.0:-1
ipc-2014-agile-thoughtful-target-typed-22.pddl,SAT:60.0:155.0:300.0:-1
ipc-2014-agile-thoughtful-target-typed-23.pddl,SAT:45.0:138.0:300.0:-1
ipc-2014-agile-thoughtful-target-typed-24.pddl,CRASHED:360.0:1000000000.0:300.0:-1
ipc-2014-agile-thoughtful-target-typed-25.pddl,SAT:40.0:160.0:300.0:-1
ipc-2014-agile-thoughtful-target-typed-26.pddl,SAT:45.0:190.0:300.0:-1
ipc-2014-agile-thoughtful-target-typed-27.pddl,SAT:45.0:184.0:300.0:-1
ipc-2014-agile-thoughtful-target-typed-28.pddl,SAT:55.0:153.0:300.0:-1
ipc-2014-agile-transport-01.pddl,SAT:95.0:2047.0:300.0:-1
ipc-2014-agile-transport-02.pddl,TIMEOUT:301.0:-1.0:300.0:-1
ipc-2014-agile-transport-03.pddl,SAT:187.0:2640.0:300.0:-1
ipc-2014-agile-transport-04.pddl,SAT:171.0:10154.0:300.0:-1
ipc-2014-agile-transport-05.pddl,SAT:201.0:14037.0:300.0:-1
ipc-2014-agile-transport-06.pddl,SAT:170.0:10154.0:300.0:-1
ipc-2014-agile-transport-07.pddl,SAT:259.0:12462.0:300.0:-1
ipc-2014-agile-transport-08.pddl,TIMEOUT:301.02:-1.0:300.0:-1
ipc-2014-agile-transport-09.pddl,SAT:259.0:12462.0:300.0:-1
ipc-2014-agile-transport-10.pddl,SAT:249.0:8231.0:300.0:-1
ipc-2014-agile-transport-11.pddl,TIMEOUT:301.0:-1.0:300.0:-1
ipc-2014-agile-transport-12.pddl,SAT:86.0:4033.0:300.0:-1
ipc-2014-agile-transport-13.pddl,SAT:102.0:2658.0:300.0:-1
ipc-2014-agile-transport-14.pddl,SAT:164.0:10703.0:300.0:-1
ipc-2014-agile-transport-15.pddl,SAT:179.0:13193.0:300.0:-1
ipc-2014-agile-transport-16.pddl,SAT:122.0:14380.0:300.0:-1
ipc-2014-agile-transport-17.pddl,SAT:264.0:9968.0:300.0:-1
ipc-2014-agile-transport-18.pddl,SAT:285.0:10720.0:300.0:-1
ipc-2014-agile-transport-19.pddl,SAT:169.0:10844.0:300.0:-1
ipc-2014-agile-transport-20.pddl,SAT:300.0:9577.0:300.0:-1
ipc-2014-agile-visitall-30.pddl,SAT:119.0:2488.0:300.0:-1
ipc-2014-agile-visitall-31.pddl,SAT:123.0:2518.0:300.0:-1
ipc-2014-agile-visitall-32.pddl,SAT:66.0:1253.0:300.0:-1
ipc-2014-agile-visitall-33.pddl,SAT:72.0:1264.0:300.0:-1
ipc-2014-agile-visitall-50.pddl,TIMEOUT:301.055:-1.0:300.0:-1
ipc-2014-agile-visitall-51.pddl,TIMEOUT:301.086:-1.0:300.0:-1
ipc-2014-agile-visitall-52.pddl,TIMEOUT:301.142:-1.0:300.0:-1
ipc-2014-agile-visitall-53.pddl,TIMEOUT:301.075:-1.0:300.0:-1
ipc-2014-agile-visitall-54.pddl,TIMEOUT:301.05:-1.0:300.0:-1
ipc-2014-agile-visitall-55.pddl,TIMEOUT:301.094:-1.0:300.0:-1
ipc-2014-agile-visitall-56.pddl,TIMEOUT:301.054:-1.0:300.0:-1
ipc-2014-agile-visitall-57.pddl,TIMEOUT:301.117:-1.0:300.0:-1
ipc-2014-agile-visitall-58.pddl,TIMEOUT:301.138:-1.0:300.0:-1
ipc-2014-agile-visitall-59.pddl,TIMEOUT:301.076:-1.0:300.0:-1
ipc-2014-agile-visitall-60.pddl,TIMEOUT:301.147:-1.0:300.0:-1
ipc-2014-agile-visitall-61.pddl,TIMEOUT:301.121:-1.0:300.0:-1
ipc-2014-agile-visitall-62.pddl,TIMEOUT:301.058:-1.0:300.0:-1
ipc-2014-agile-visitall-63.pddl,TIMEOUT:301.113:-1.0:300.0:-1
ipc-2014-agile-visitall-64.pddl,TIMEOUT:301.117:-1.0:300.0:-1
ipc-2014-agile-visitall-65.pddl,TIMEOUT:301.109:-1.0:300.0:-1
