instance,ipc-2014-optimal-cedalion
ipc-2014-optimal-barman-p433.1.pddl,CRASHED:0.895863:1000000000.0:1800.0:-1
ipc-2014-optimal-barman-p433.2.pddl,CRASHED:0.825873:1000000000.0:1800.0:-1
ipc-2014-optimal-barman-p433.3.pddl,CRASHED:0.813875:1000000000.0:1800.0:-1
ipc-2014-optimal-barman-p435.1.pddl,CRASHED:1800.37:1000000000.0:1800.0:-1
ipc-2014-optimal-barman-p435.2.pddl,CRASHED:1800.09:1000000000.0:1800.0:-1
ipc-2014-optimal-barman-p435.3.pddl,CRASHED:1800.29:1000000000.0:1800.0:-1
ipc-2014-optimal-barman-p443.1.pddl,CRASHED:0.863867:1000000000.0:1800.0:-1
ipc-2014-optimal-barman-p443.2.pddl,CRASHED:0.991849:1000000000.0:1800.0:-1
ipc-2014-optimal-barman-p443.3.pddl,CRASHED:0.84387:1000000000.0:1800.0:-1
ipc-2014-optimal-barman-p536.1.pddl,CRASHED:1800.37:1000000000.0:1800.0:-1
ipc-2014-optimal-barman-p536.2.pddl,CRASHED:1800.48:1000000000.0:1800.0:-1
ipc-2014-optimal-barman-p536.3.pddl,CRASHED:1800.42:1000000000.0:1800.0:-1
ipc-2014-optimal-barman-p638.1.pddl,CRASHED:1800.16:1000000000.0:1800.0:-1
ipc-2014-optimal-barman-p638.2.pddl,CRASHED:1800.29:1000000000.0:1800.0:-1
ipc-2014-optimal-barman-p638.3.pddl,CRASHED:1801.01:1000000000.0:1800.0:-1
ipc-2014-optimal-barman-p739.1.pddl,CRASHED:1800.39:1000000000.0:1800.0:-1
ipc-2014-optimal-barman-p739.2.pddl,CRASHED:1800.32:1000000000.0:1800.0:-1
ipc-2014-optimal-barman-p739.3.pddl,CRASHED:1800.39:1000000000.0:1800.0:-1
ipc-2014-optimal-barman-p839.1.pddl,CRASHED:1800.52:1000000000.0:1800.0:-1
ipc-2014-optimal-barman-p839.2.pddl,CRASHED:1800.35:1000000000.0:1800.0:-1
ipc-2014-optimal-cavediving-01.pddl,CRASHED:299.063:1000000000.0:1800.0:-1
ipc-2014-optimal-cavediving-01_easy.pddl,CRASHED:298.547:1000000000.0:1800.0:-1
ipc-2014-optimal-cavediving-02_easy.pddl,CRASHED:298.854:1000000000.0:1800.0:-1
ipc-2014-optimal-cavediving-03_easy.pddl,CRASHED:298.75:1000000000.0:1800.0:-1
ipc-2014-optimal-cavediving-04_easy.pddl,CRASHED:299.053:1000000000.0:1800.0:-1
ipc-2014-optimal-cavediving-05A_easy.pddl,SAT:10.6824:94.0:1800.0:-1
ipc-2014-optimal-cavediving-06A_easy.pddl,SAT:10.5374:95.0:1800.0:-1
ipc-2014-optimal-cavediving-07_easy.pddl,SAT:62.0136:131.0:1800.0:-1
ipc-2014-optimal-cavediving-08_easy.pddl,SAT:10.8533:90.0:1800.0:-1
ipc-2014-optimal-cavediving-09_easy.pddl,CRASHED:1796.18:1000000000.0:1800.0:-1
ipc-2014-optimal-cavediving-10_easy.pddl,CRASHED:1800.96:1000000000.0:1800.0:-1
ipc-2014-optimal-cavediving-11_easy.pddl,TIMEOUT:1801.1:-1.0:1800.0:-1
ipc-2014-optimal-cavediving-12_easy.pddl,CRASHED:1796.2:1000000000.0:1800.0:-1
ipc-2014-optimal-cavediving-13_easy.pddl,CRASHED:1795.94:1000000000.0:1800.0:-1
ipc-2014-optimal-cavediving-14_easy.pddl,TIMEOUT:1801.08:-1.0:1800.0:-1
ipc-2014-optimal-cavediving-15_easy.pddl,CRASHED:301.484:1000000000.0:1800.0:-1
ipc-2014-optimal-cavediving-16_easy.pddl,CRASHED:300.086:1000000000.0:1800.0:-1
ipc-2014-optimal-cavediving-18A_easy.pddl,SAT:108.878:131.0:1800.0:-1
ipc-2014-optimal-cavediving-18_easy.pddl,SAT:197.939:131.0:1800.0:-1
ipc-2014-optimal-cavediving-20A_easy.pddl,SAT:16.2235:98.0:1800.0:-1
ipc-2014-optimal-childsnack-01-2.pddl,CRASHED:1800.25:1000000000.0:1800.0:-1
ipc-2014-optimal-childsnack-01.pddl,CRASHED:1800.86:1000000000.0:1800.0:-1
ipc-2014-optimal-childsnack-02-2.pddl,CRASHED:1800.67:1000000000.0:1800.0:-1
ipc-2014-optimal-childsnack-02.pddl,CRASHED:1800.19:1000000000.0:1800.0:-1
ipc-2014-optimal-childsnack-03-2.pddl,CRASHED:1780.24:1000000000.0:1800.0:-1
ipc-2014-optimal-childsnack-03.pddl,CRASHED:1770.3:1000000000.0:1800.0:-1
ipc-2014-optimal-childsnack-04-2.pddl,CRASHED:1743.71:1000000000.0:1800.0:-1
ipc-2014-optimal-childsnack-04.pddl,CRASHED:1737.71:1000000000.0:1800.0:-1
ipc-2014-optimal-childsnack-05-2.pddl,CRASHED:1780.25:1000000000.0:1800.0:-1
ipc-2014-optimal-childsnack-05.pddl,CRASHED:1774.98:1000000000.0:1800.0:-1
ipc-2014-optimal-childsnack-06-2.pddl,CRASHED:1800.42:1000000000.0:1800.0:-1
ipc-2014-optimal-childsnack-06.pddl,CRASHED:1800.91:1000000000.0:1800.0:-1
ipc-2014-optimal-childsnack-07-2.pddl,CRASHED:1800.41:1000000000.0:1800.0:-1
ipc-2014-optimal-childsnack-07.pddl,CRASHED:1800.84:1000000000.0:1800.0:-1
ipc-2014-optimal-childsnack-08-2.pddl,CRASHED:1451.6:1000000000.0:1800.0:-1
ipc-2014-optimal-childsnack-08.pddl,CRASHED:1458.73:1000000000.0:1800.0:-1
ipc-2014-optimal-childsnack-09-2.pddl,CRASHED:1468.84:1000000000.0:1800.0:-1
ipc-2014-optimal-childsnack-09.pddl,CRASHED:1456.05:1000000000.0:1800.0:-1
ipc-2014-optimal-childsnack-10-2.pddl,CRASHED:1433.19:1000000000.0:1800.0:-1
ipc-2014-optimal-childsnack-10.pddl,CRASHED:1422.43:1000000000.0:1800.0:-1
ipc-2014-optimal-citycar-p2-2-2-1-2.pddl,SAT:2.93555:46.0:1800.0:-1
ipc-2014-optimal-citycar-p2-2-2-2-1.pddl,SAT:4.46932:64.0:1800.0:-1
ipc-2014-optimal-citycar-p2-2-3-1-2.pddl,SAT:6.69598:50.0:1800.0:-1
ipc-2014-optimal-citycar-p2-2-3-2-1.pddl,SAT:5.2442:48.0:1800.0:-1
ipc-2014-optimal-citycar-p2-2-3-2-2.pddl,SAT:5.32219:50.0:1800.0:-1
ipc-2014-optimal-citycar-p2-2-4-1-2.pddl,SAT:14.0279:52.0:1800.0:-1
ipc-2014-optimal-citycar-p2-2-4-2-1.pddl,SAT:14.9927:52.0:1800.0:-1
ipc-2014-optimal-citycar-p2-2-5-2-2.pddl,SAT:254.32:76.0:1800.0:-1
ipc-2014-optimal-citycar-p2-2-6-1-1.pddl,SAT:202.499:58.0:1800.0:-1
ipc-2014-optimal-citycar-p2-2-6-2-2.pddl,SAT:190.654:58.0:1800.0:-1
ipc-2014-optimal-citycar-p2-3-2-3-1.pddl,SAT:14.9587:68.0:1800.0:-1
ipc-2014-optimal-citycar-p2-3-3-3-1.pddl,SAT:66.8628:78.0:1800.0:-1
ipc-2014-optimal-citycar-p2-3-4-3-1.pddl,CRASHED:310.123:1000000000.0:1800.0:-1
ipc-2014-optimal-citycar-p2-3-6-3-2.pddl,CRASHED:607.152:1000000000.0:1800.0:-1
ipc-2014-optimal-citycar-p3-3-2-2-1.pddl,CRASHED:1507.73:1000000000.0:1800.0:-1
ipc-2014-optimal-citycar-p3-3-2-2-2.pddl,CRASHED:1294.14:1000000000.0:1800.0:-1
ipc-2014-optimal-citycar-p3-3-2-3-1.pddl,SAT:42.1806:48.0:1800.0:-1
ipc-2014-optimal-citycar-p3-3-2-3-2.pddl,SAT:220.577:70.0:1800.0:-1
ipc-2014-optimal-citycar-p3-3-3-3-1.pddl,CRASHED:1796.83:1000000000.0:1800.0:-1
ipc-2014-optimal-citycar-p3-3-3-3-2.pddl,CRASHED:1795.91:1000000000.0:1800.0:-1
ipc-2014-optimal-floortile-p01-4-3-2.pddl,SAT:172.839:56.0:1800.0:-1
ipc-2014-optimal-floortile-p01-4-4-2.pddl,CRASHED:1800.38:1000000000.0:1800.0:-1
ipc-2014-optimal-floortile-p01-5-3-2.pddl,SAT:355.797:63.0:1800.0:-1
ipc-2014-optimal-floortile-p01-5-4-2.pddl,CRASHED:1800.16:1000000000.0:1800.0:-1
ipc-2014-optimal-floortile-p01-5-5-2.pddl,CRASHED:1800.32:1000000000.0:1800.0:-1
ipc-2014-optimal-floortile-p01-6-4-2.pddl,CRASHED:1800.97:1000000000.0:1800.0:-1
ipc-2014-optimal-floortile-p01-6-5-2.pddl,CRASHED:1801.09:1000000000.0:1800.0:-1
ipc-2014-optimal-floortile-p02-4-4-2.pddl,CRASHED:1800.87:1000000000.0:1800.0:-1
ipc-2014-optimal-floortile-p02-5-3-2.pddl,SAT:488.909:65.0:1800.0:-1
ipc-2014-optimal-floortile-p02-5-4-2.pddl,CRASHED:10.8601:1000000000.0:1800.0:-1
ipc-2014-optimal-floortile-p02-5-5-2.pddl,CRASHED:1800.39:1000000000.0:1800.0:-1
ipc-2014-optimal-floortile-p02-6-4-2.pddl,CRASHED:1800.87:1000000000.0:1800.0:-1
ipc-2014-optimal-floortile-p02-6-5-2.pddl,CRASHED:1800.42:1000000000.0:1800.0:-1
ipc-2014-optimal-floortile-p03-4-3-2.pddl,SAT:163.074:56.0:1800.0:-1
ipc-2014-optimal-floortile-p03-4-4-2.pddl,CRASHED:1800.19:1000000000.0:1800.0:-1
ipc-2014-optimal-floortile-p03-5-3-2.pddl,SAT:533.008:65.0:1800.0:-1
ipc-2014-optimal-floortile-p03-5-4-2.pddl,CRASHED:1800.8:1000000000.0:1800.0:-1
ipc-2014-optimal-floortile-p03-5-5-2.pddl,CRASHED:1800.96:1000000000.0:1800.0:-1
ipc-2014-optimal-floortile-p03-6-4-2.pddl,CRASHED:1800.69:1000000000.0:1800.0:-1
ipc-2014-optimal-floortile-p03-6-5-2.pddl,CRASHED:1800.85:1000000000.0:1800.0:-1
ipc-2014-optimal-ged-d-1-2.pddl,SAT:1.88771:1.0:1800.0:-1
ipc-2014-optimal-ged-d-1-3.pddl,SAT:14.9257:4.0:1800.0:-1
ipc-2014-optimal-ged-d-1-4.pddl,SAT:1.93071:1.0:1800.0:-1
ipc-2014-optimal-ged-d-1-8.pddl,SAT:41.4507:4.0:1800.0:-1
ipc-2014-optimal-ged-d-2-1.pddl,SAT:2.00369:1.0:1800.0:-1
ipc-2014-optimal-ged-d-2-3.pddl,SAT:2.57761:3.0:1800.0:-1
ipc-2014-optimal-ged-d-2-4.pddl,SAT:1.9927:2.0:1800.0:-1
ipc-2014-optimal-ged-d-2-8.pddl,CRASHED:1295.9:1000000000.0:1800.0:-1
ipc-2014-optimal-ged-d-3-1.pddl,SAT:10.9543:4.0:1800.0:-1
ipc-2014-optimal-ged-d-3-2.pddl,SAT:2.5926:3.0:1800.0:-1
ipc-2014-optimal-ged-d-3-4.pddl,SAT:377.248:5.0:1800.0:-1
ipc-2014-optimal-ged-d-4-2.pddl,SAT:2.10568:2.0:1800.0:-1
ipc-2014-optimal-ged-d-4-3.pddl,SAT:123.71:5.0:1800.0:-1
ipc-2014-optimal-ged-d-4-8.pddl,CRASHED:1302.86:1000000000.0:1800.0:-1
ipc-2014-optimal-ged-d-7-5.pddl,SAT:30.5893:4.0:1800.0:-1
ipc-2014-optimal-ged-d-7-6.pddl,SAT:66.1069:4.0:1800.0:-1
ipc-2014-optimal-ged-d-8-1.pddl,SAT:30.3254:4.0:1800.0:-1
ipc-2014-optimal-ged-d-8-2.pddl,CRASHED:1296.5:1000000000.0:1800.0:-1
ipc-2014-optimal-ged-d-8-4.pddl,CRASHED:1295.17:1000000000.0:1800.0:-1
ipc-2014-optimal-ged-d-8-9.pddl,CRASHED:1295.2:1000000000.0:1800.0:-1
ipc-2014-optimal-hiking-1-2-3.pddl,SAT:0.771882:11.0:1800.0:-1
ipc-2014-optimal-hiking-1-2-4.pddl,SAT:1.11783:17.0:1800.0:-1
ipc-2014-optimal-hiking-1-2-5.pddl,SAT:2.22766:25.0:1800.0:-1
ipc-2014-optimal-hiking-1-2-7.pddl,SAT:15.5956:38.0:1800.0:-1
ipc-2014-optimal-hiking-1-2-8.pddl,SAT:42.4425:45.0:1800.0:-1
ipc-2014-optimal-hiking-2-2-3.pddl,SAT:3.17052:10.0:1800.0:-1
ipc-2014-optimal-hiking-2-2-4.pddl,SAT:205.402:16.0:1800.0:-1
ipc-2014-optimal-hiking-2-2-5.pddl,SAT:1079.22:22.0:1800.0:-1
ipc-2014-optimal-hiking-2-2-6.pddl,SAT:1147.42:30.0:1800.0:-1
ipc-2014-optimal-hiking-2-2-7.pddl,CRASHED:1801.12:1000000000.0:1800.0:-1
ipc-2014-optimal-hiking-2-2-8.pddl,CRASHED:1800.37:1000000000.0:1800.0:-1
ipc-2014-optimal-hiking-2-3-4.pddl,SAT:946.309:17.0:1800.0:-1
ipc-2014-optimal-hiking-2-3-5.pddl,SAT:1147.07:24.0:1800.0:-1
ipc-2014-optimal-hiking-2-3-6.pddl,CRASHED:1800.67:1000000000.0:1800.0:-1
ipc-2014-optimal-hiking-2-3-7.pddl,CRASHED:1800.8:1000000000.0:1800.0:-1
ipc-2014-optimal-hiking-2-4-3.pddl,SAT:20.1409:10.0:1800.0:-1
ipc-2014-optimal-hiking-2-4-4.pddl,SAT:994.744:17.0:1800.0:-1
ipc-2014-optimal-hiking-2-4-5.pddl,CRASHED:1800.66:1000000000.0:1800.0:-1
ipc-2014-optimal-hiking-2-4-6.pddl,CRASHED:1800.45:1000000000.0:1800.0:-1
ipc-2014-optimal-hiking-2-4-7.pddl,CRASHED:1785.21:1000000000.0:1800.0:-1
ipc-2014-optimal-maintenance-1.3.010.010.1-001.pddl,CRASHED:0.965852:1000000000.0:1800.0:-1
ipc-2014-optimal-maintenance-1.3.010.010.1-002.pddl,CRASHED:1.37879:1000000000.0:1800.0:-1
ipc-2014-optimal-maintenance-1.3.010.010.2-000.pddl,SAT:0.532918:4.0:1800.0:-1
ipc-2014-optimal-maintenance-1.3.010.010.2-001.pddl,SAT:0.512921:7.0:1800.0:-1
ipc-2014-optimal-maintenance-1.3.010.010.2-002.pddl,SAT:0.543917:6.0:1800.0:-1
ipc-2014-optimal-maintenance-1.3.015.020.1-000.pddl,CRASHED:71.1452:1000000000.0:1800.0:-1
ipc-2014-optimal-maintenance-1.3.015.020.1-001.pddl,CRASHED:39.464:1000000000.0:1800.0:-1
ipc-2014-optimal-maintenance-1.3.015.020.1-002.pddl,CRASHED:41.0568:1000000000.0:1800.0:-1
ipc-2014-optimal-maintenance-1.3.015.020.2-000.pddl,CRASHED:194.163:1000000000.0:1800.0:-1
ipc-2014-optimal-maintenance-1.3.015.020.2-001.pddl,SAT:0.573912:11.0:1800.0:-1
ipc-2014-optimal-maintenance-1.3.015.020.2-002.pddl,SAT:0.532918:9.0:1800.0:-1
ipc-2014-optimal-maintenance-1.3.025.050.1-000.pddl,CRASHED:1394.05:1000000000.0:1800.0:-1
ipc-2014-optimal-maintenance-1.3.025.050.1-001.pddl,CRASHED:1738.08:1000000000.0:1800.0:-1
ipc-2014-optimal-maintenance-1.3.025.050.1-002.pddl,CRASHED:1741.17:1000000000.0:1800.0:-1
ipc-2014-optimal-maintenance-1.3.025.100.1-000.pddl,CRASHED:28.98:1000000000.0:1800.0:-1
ipc-2014-optimal-maintenance-1.3.025.100.1-001.pddl,CRASHED:27.8:1000000000.0:1800.0:-1
ipc-2014-optimal-maintenance-1.3.025.100.1-002.pddl,CRASHED:29.19:1000000000.0:1800.0:-1
ipc-2014-optimal-maintenance-1.3.025.100.2-000.pddl,CRASHED:73.19:1000000000.0:1800.0:-1
ipc-2014-optimal-maintenance-1.3.025.100.2-001.pddl,CRASHED:64.52:1000000000.0:1800.0:-1
ipc-2014-optimal-maintenance-1.3.025.100.2-002.pddl,CRASHED:59.15:1000000000.0:1800.0:-1
ipc-2014-optimal-openstacks-p20_1.pddl,SAT:1171.27:3.0:1800.0:-1
ipc-2014-optimal-openstacks-p20_2.pddl,SAT:1218.11:4.0:1800.0:-1
ipc-2014-optimal-openstacks-p20_3.pddl,SAT:64.6852:6.0:1800.0:-1
ipc-2014-optimal-openstacks-p25_1.pddl,CRASHED:1464.7:1000000000.0:1800.0:-1
ipc-2014-optimal-openstacks-p25_3.pddl,CRASHED:1469.5:1000000000.0:1800.0:-1
ipc-2014-optimal-openstacks-p30_1.pddl,CRASHED:1491.92:1000000000.0:1800.0:-1
ipc-2014-optimal-openstacks-p30_2.pddl,CRASHED:1583.85:1000000000.0:1800.0:-1
ipc-2014-optimal-openstacks-p30_3.pddl,CRASHED:1439.42:1000000000.0:1800.0:-1
ipc-2014-optimal-openstacks-p35_1.pddl,CRASHED:1504.92:1000000000.0:1800.0:-1
ipc-2014-optimal-openstacks-p35_2.pddl,CRASHED:1607.84:1000000000.0:1800.0:-1
ipc-2014-optimal-openstacks-p35_3.pddl,CRASHED:1456.61:1000000000.0:1800.0:-1
ipc-2014-optimal-openstacks-p40_1.pddl,CRASHED:1472.98:1000000000.0:1800.0:-1
ipc-2014-optimal-openstacks-p40_2.pddl,CRASHED:1469.31:1000000000.0:1800.0:-1
ipc-2014-optimal-openstacks-p40_3.pddl,CRASHED:1465.28:1000000000.0:1800.0:-1
ipc-2014-optimal-openstacks-p45_1.pddl,CRASHED:1545.98:1000000000.0:1800.0:-1
ipc-2014-optimal-openstacks-p45_2.pddl,CRASHED:1478.51:1000000000.0:1800.0:-1
ipc-2014-optimal-openstacks-p45_3.pddl,CRASHED:1468.07:1000000000.0:1800.0:-1
ipc-2014-optimal-openstacks-p50_1.pddl,CRASHED:1536.35:1000000000.0:1800.0:-1
ipc-2014-optimal-openstacks-p50_2.pddl,CRASHED:1556.3:1000000000.0:1800.0:-1
ipc-2014-optimal-openstacks-p50_3.pddl,CRASHED:1486.92:1000000000.0:1800.0:-1
ipc-2014-optimal-parking-12_7-01.pddl,SAT:229.179:18.0:1800.0:-1
ipc-2014-optimal-parking-12_7-02.pddl,CRASHED:1800.85:1000000000.0:1800.0:-1
ipc-2014-optimal-parking-12_7-03.pddl,SAT:177.472:17.0:1800.0:-1
ipc-2014-optimal-parking-12_7-04.pddl,CRASHED:1800.72:1000000000.0:1800.0:-1
ipc-2014-optimal-parking-14_8-01.pddl,CRASHED:1467.02:1000000000.0:1800.0:-1
ipc-2014-optimal-parking-14_8-02.pddl,CRASHED:1486.82:1000000000.0:1800.0:-1
ipc-2014-optimal-parking-14_8-03.pddl,CRASHED:1488.1:1000000000.0:1800.0:-1
ipc-2014-optimal-parking-14_8-04.pddl,CRASHED:1492.52:1000000000.0:1800.0:-1
ipc-2014-optimal-parking-16_9-01.pddl,CRASHED:1637.11:1000000000.0:1800.0:-1
ipc-2014-optimal-parking-16_9-02.pddl,CRASHED:1639.46:1000000000.0:1800.0:-1
ipc-2014-optimal-parking-16_9-03.pddl,CRASHED:1620.63:1000000000.0:1800.0:-1
ipc-2014-optimal-parking-16_9-04.pddl,CRASHED:1626.75:1000000000.0:1800.0:-1
ipc-2014-optimal-parking-18_10-01.pddl,CRASHED:1800.76:1000000000.0:1800.0:-1
ipc-2014-optimal-parking-18_10-02.pddl,CRASHED:1800.44:1000000000.0:1800.0:-1
ipc-2014-optimal-parking-18_10-03.pddl,CRASHED:1800.83:1000000000.0:1800.0:-1
ipc-2014-optimal-parking-18_10-04.pddl,CRASHED:1800.58:1000000000.0:1800.0:-1
ipc-2014-optimal-parking-20_11-01.pddl,CRASHED:1800.24:1000000000.0:1800.0:-1
ipc-2014-optimal-parking-20_11-02.pddl,CRASHED:1800.78:1000000000.0:1800.0:-1
ipc-2014-optimal-parking-20_11-03.pddl,CRASHED:1800.72:1000000000.0:1800.0:-1
ipc-2014-optimal-parking-20_11-04.pddl,CRASHED:1800.79:1000000000.0:1800.0:-1
ipc-2014-optimal-tetris-01-10.pddl,CRASHED:1800.47:1000000000.0:1800.0:-1
ipc-2014-optimal-tetris-01-04.pddl,CRASHED:1510.3:1000000000.0:1800.0:-1
ipc-2014-optimal-tetris-01-06.pddl,CRASHED:1800.98:1000000000.0:1800.0:-1
ipc-2014-optimal-tetris-01-08.pddl,CRASHED:1800.83:1000000000.0:1800.0:-1
ipc-2014-optimal-tetris-02-10.pddl,CRASHED:1801.04:1000000000.0:1800.0:-1
ipc-2014-optimal-tetris-02-04.pddl,SAT:3.54146:10.0:1800.0:-1
ipc-2014-optimal-tetris-02-06.pddl,SAT:810.481:30.0:1800.0:-1
ipc-2014-optimal-tetris-02-08.pddl,CRASHED:1800.56:1000000000.0:1800.0:-1
ipc-2014-optimal-tetris-03-10.pddl,CRASHED:1800.98:1000000000.0:1800.0:-1
ipc-2014-optimal-tetris-03-04.pddl,SAT:82.0675:11.0:1800.0:-1
ipc-2014-optimal-tetris-03-06.pddl,SAT:477.077:21.0:1800.0:-1
ipc-2014-optimal-tetris-03-08.pddl,TIMEOUT:1801.05:-1.0:1800.0:-1
ipc-2014-optimal-tetris-04-10.pddl,CRASHED:1800.52:1000000000.0:1800.0:-1
ipc-2014-optimal-tetris-04-04.pddl,CRASHED:1541.35:1000000000.0:1800.0:-1
ipc-2014-optimal-tetris-04-06.pddl,CRASHED:1800.67:1000000000.0:1800.0:-1
ipc-2014-optimal-tetris-04-08.pddl,CRASHED:1800.55:1000000000.0:1800.0:-1
ipc-2014-optimal-tetris-05-10.pddl,TIMEOUT:1801.1:-1.0:1800.0:-1
ipc-2014-optimal-tetris-05-04.pddl,CRASHED:1319.63:1000000000.0:1800.0:-1
ipc-2014-optimal-tetris-05-06.pddl,SAT:81.7316:19.0:1800.0:-1
ipc-2014-optimal-tetris-05-08.pddl,TIMEOUT:1801.03:-1.0:1800.0:-1
ipc-2014-optimal-tidybot-01.pddl,CRASHED:1801.0:1000000000.0:1800.0:-1
ipc-2014-optimal-tidybot-02.pddl,SAT:293.321:35.0:1800.0:-1
ipc-2014-optimal-tidybot-03.pddl,SAT:297.526:30.0:1800.0:-1
ipc-2014-optimal-tidybot-04.pddl,SAT:276.968:24.0:1800.0:-1
ipc-2014-optimal-tidybot-05.pddl,TIMEOUT:1801.0:-1.0:1800.0:-1
ipc-2014-optimal-tidybot-06.pddl,CRASHED:1800.41:1000000000.0:1800.0:-1
ipc-2014-optimal-tidybot-07.pddl,CRASHED:1801.03:1000000000.0:1800.0:-1
ipc-2014-optimal-tidybot-08.pddl,SAT:198.427:25.0:1800.0:-1
ipc-2014-optimal-tidybot-09.pddl,CRASHED:1800.27:1000000000.0:1800.0:-1
ipc-2014-optimal-tidybot-10.pddl,CRASHED:1800.23:1000000000.0:1800.0:-1
ipc-2014-optimal-tidybot-11.pddl,SAT:144.85:29.0:1800.0:-1
ipc-2014-optimal-tidybot-12.pddl,CRASHED:1800.2:1000000000.0:1800.0:-1
ipc-2014-optimal-tidybot-13.pddl,SAT:344.946:30.0:1800.0:-1
ipc-2014-optimal-tidybot-14.pddl,SAT:68.3326:25.0:1800.0:-1
ipc-2014-optimal-tidybot-15.pddl,CRASHED:1801.01:1000000000.0:1800.0:-1
ipc-2014-optimal-tidybot-16.pddl,CRASHED:1801.12:1000000000.0:1800.0:-1
ipc-2014-optimal-tidybot-17.pddl,CRASHED:1800.36:1000000000.0:1800.0:-1
ipc-2014-optimal-tidybot-18.pddl,CRASHED:1800.68:1000000000.0:1800.0:-1
ipc-2014-optimal-tidybot-19.pddl,CRASHED:1800.48:1000000000.0:1800.0:-1
ipc-2014-optimal-tidybot-20.pddl,CRASHED:1800.22:1000000000.0:1800.0:-1
ipc-2014-optimal-transport-01.pddl,SAT:1.08383:148.0:1800.0:-1
ipc-2014-optimal-transport-02.pddl,SAT:25.5431:191.0:1800.0:-1
ipc-2014-optimal-transport-03.pddl,SAT:94.5816:300.0:1800.0:-1
ipc-2014-optimal-transport-04.pddl,CRASHED:1801.01:1000000000.0:1800.0:-1
ipc-2014-optimal-transport-05.pddl,CRASHED:1741.77:1000000000.0:1800.0:-1
ipc-2014-optimal-transport-06.pddl,CRASHED:1743.52:1000000000.0:1800.0:-1
ipc-2014-optimal-transport-07.pddl,SAT:319.348:967.0:1800.0:-1
ipc-2014-optimal-transport-08.pddl,CRASHED:1800.24:1000000000.0:1800.0:-1
ipc-2014-optimal-transport-09.pddl,CRASHED:1800.78:1000000000.0:1800.0:-1
ipc-2014-optimal-transport-10.pddl,CRASHED:1800.81:1000000000.0:1800.0:-1
ipc-2014-optimal-transport-11.pddl,CRASHED:1800.82:1000000000.0:1800.0:-1
ipc-2014-optimal-transport-12.pddl,CRASHED:1800.16:1000000000.0:1800.0:-1
ipc-2014-optimal-transport-13.pddl,SAT:9.96248:594.0:1800.0:-1
ipc-2014-optimal-transport-14.pddl,SAT:312.11:526.0:1800.0:-1
ipc-2014-optimal-transport-15.pddl,CRASHED:1800.88:1000000000.0:1800.0:-1
ipc-2014-optimal-transport-16.pddl,CRASHED:1800.18:1000000000.0:1800.0:-1
ipc-2014-optimal-transport-17.pddl,CRASHED:1744.69:1000000000.0:1800.0:-1
ipc-2014-optimal-transport-18.pddl,CRASHED:1773.38:1000000000.0:1800.0:-1
ipc-2014-optimal-transport-19.pddl,CRASHED:1788.36:1000000000.0:1800.0:-1
ipc-2014-optimal-transport-20.pddl,CRASHED:1788.82:1000000000.0:1800.0:-1
ipc-2014-optimal-visitall-05-10.pddl,CRASHED:1800.15:1000000000.0:1800.0:-1
ipc-2014-optimal-visitall-05-05.pddl,SAT:0.661898:21.0:1800.0:-1
ipc-2014-optimal-visitall-05-06.pddl,SAT:0.835872:25.0:1800.0:-1
ipc-2014-optimal-visitall-05-07.pddl,SAT:19.588:34.0:1800.0:-1
ipc-2014-optimal-visitall-05-08.pddl,SAT:58.3881:43.0:1800.0:-1
ipc-2014-optimal-visitall-05-09.pddl,CRASHED:1800.17:1000000000.0:1800.0:-1
ipc-2014-optimal-visitall-01-10.pddl,SAT:0.939856:99.0:1800.0:-1
ipc-2014-optimal-visitall-01-11.pddl,SAT:1.15482:120.0:1800.0:-1
ipc-2014-optimal-visitall-01-12.pddl,SAT:23.6384:143.0:1800.0:-1
ipc-2014-optimal-visitall-01-13.pddl,SAT:1.39379:168.0:1800.0:-1
ipc-2014-optimal-visitall-01-14.pddl,CRASHED:1800.99:1000000000.0:1800.0:-1
ipc-2014-optimal-visitall-01-15.pddl,CRASHED:1801.03:1000000000.0:1800.0:-1
ipc-2014-optimal-visitall-01-16.pddl,CRASHED:1801.09:1000000000.0:1800.0:-1
ipc-2014-optimal-visitall-01-17.pddl,CRASHED:1801.07:1000000000.0:1800.0:-1
ipc-2014-optimal-visitall-01-18.pddl,CRASHED:1800.22:1000000000.0:1800.0:-1
ipc-2014-optimal-visitall-01-05.pddl,SAT:0.543916:24.0:1800.0:-1
ipc-2014-optimal-visitall-01-06.pddl,SAT:0.750885:35.0:1800.0:-1
ipc-2014-optimal-visitall-01-07.pddl,SAT:0.827873:48.0:1800.0:-1
ipc-2014-optimal-visitall-01-08.pddl,SAT:0.943856:63.0:1800.0:-1
ipc-2014-optimal-visitall-01-09.pddl,SAT:1.13083:80.0:1800.0:-1
