instance,ipc-2014-optimal-nucelar
ipc-2014-optimal-barman-p433.1.pddl,CRASHED:1.19382:1000000000.0:1800.0:-1
ipc-2014-optimal-barman-p433.2.pddl,CRASHED:1.21781:1000000000.0:1800.0:-1
ipc-2014-optimal-barman-p433.3.pddl,CRASHED:1.23081:1000000000.0:1800.0:-1
ipc-2014-optimal-barman-p435.1.pddl,CRASHED:1778.32:1000000000.0:1800.0:-1
ipc-2014-optimal-barman-p435.2.pddl,CRASHED:34.17:1000000000.0:1800.0:-1
ipc-2014-optimal-barman-p435.3.pddl,CRASHED:501.43:1000000000.0:1800.0:-1
ipc-2014-optimal-barman-p443.1.pddl,CRASHED:1.53577:1000000000.0:1800.0:-1
ipc-2014-optimal-barman-p443.2.pddl,CRASHED:1.22881:1000000000.0:1800.0:-1
ipc-2014-optimal-barman-p443.3.pddl,CRASHED:1.23881:1000000000.0:1800.0:-1
ipc-2014-optimal-barman-p536.1.pddl,TIMEOUT:1801.07:-1.0:1800.0:-1
ipc-2014-optimal-barman-p536.2.pddl,TIMEOUT:1801.08:-1.0:1800.0:-1
ipc-2014-optimal-barman-p536.3.pddl,TIMEOUT:1801.04:-1.0:1800.0:-1
ipc-2014-optimal-barman-p638.1.pddl,CRASHED:1797.5:1000000000.0:1800.0:-1
ipc-2014-optimal-barman-p638.2.pddl,CRASHED:1259.57:1000000000.0:1800.0:-1
ipc-2014-optimal-barman-p638.3.pddl,CRASHED:325.99:1000000000.0:1800.0:-1
ipc-2014-optimal-barman-p739.1.pddl,CRASHED:326.0:1000000000.0:1800.0:-1
ipc-2014-optimal-barman-p739.2.pddl,CRASHED:1264.75:1000000000.0:1800.0:-1
ipc-2014-optimal-barman-p739.3.pddl,CRASHED:1795.92:1000000000.0:1800.0:-1
ipc-2014-optimal-barman-p839.1.pddl,CRASHED:1798.68:1000000000.0:1800.0:-1
ipc-2014-optimal-barman-p839.2.pddl,CRASHED:1799.13:1000000000.0:1800.0:-1
ipc-2014-optimal-cavediving-01.pddl,CRASHED:42.4915:1000000000.0:1800.0:-1
ipc-2014-optimal-cavediving-01_easy.pddl,CRASHED:29.3335:1000000000.0:1800.0:-1
ipc-2014-optimal-cavediving-02_easy.pddl,CRASHED:29.4325:1000000000.0:1800.0:-1
ipc-2014-optimal-cavediving-03_easy.pddl,CRASHED:29.4005:1000000000.0:1800.0:-1
ipc-2014-optimal-cavediving-04_easy.pddl,CRASHED:30.6343:1000000000.0:1800.0:-1
ipc-2014-optimal-cavediving-05A_easy.pddl,CRASHED:5.8961:1000000000.0:1800.0:-1
ipc-2014-optimal-cavediving-06A_easy.pddl,CRASHED:5.9001:1000000000.0:1800.0:-1
ipc-2014-optimal-cavediving-07_easy.pddl,CRASHED:5.87111:1000000000.0:1800.0:-1
ipc-2014-optimal-cavediving-08_easy.pddl,CRASHED:5.8901:1000000000.0:1800.0:-1
ipc-2014-optimal-cavediving-09_easy.pddl,CRASHED:148.751:1000000000.0:1800.0:-1
ipc-2014-optimal-cavediving-10_easy.pddl,CRASHED:148.387:1000000000.0:1800.0:-1
ipc-2014-optimal-cavediving-11_easy.pddl,CRASHED:162.033:1000000000.0:1800.0:-1
ipc-2014-optimal-cavediving-12_easy.pddl,CRASHED:160.96:1000000000.0:1800.0:-1
ipc-2014-optimal-cavediving-13_easy.pddl,CRASHED:46.281:1000000000.0:1800.0:-1
ipc-2014-optimal-cavediving-14_easy.pddl,CRASHED:46.5099:1000000000.0:1800.0:-1
ipc-2014-optimal-cavediving-15_easy.pddl,CRASHED:39.0821:1000000000.0:1800.0:-1
ipc-2014-optimal-cavediving-16_easy.pddl,CRASHED:44.8262:1000000000.0:1800.0:-1
ipc-2014-optimal-cavediving-18A_easy.pddl,CRASHED:9.04862:1000000000.0:1800.0:-1
ipc-2014-optimal-cavediving-18_easy.pddl,CRASHED:10.6614:1000000000.0:1800.0:-1
ipc-2014-optimal-cavediving-20A_easy.pddl,CRASHED:9.07262:1000000000.0:1800.0:-1
ipc-2014-optimal-childsnack-01-2.pddl,CRASHED:330.34:1000000000.0:1800.0:-1
ipc-2014-optimal-childsnack-01.pddl,CRASHED:1790.52:1000000000.0:1800.0:-1
ipc-2014-optimal-childsnack-02-2.pddl,CRASHED:133.99:1000000000.0:1800.0:-1
ipc-2014-optimal-childsnack-02.pddl,CRASHED:1781.98:1000000000.0:1800.0:-1
ipc-2014-optimal-childsnack-03-2.pddl,CRASHED:1794.91:1000000000.0:1800.0:-1
ipc-2014-optimal-childsnack-03.pddl,CRASHED:188.35:1000000000.0:1800.0:-1
ipc-2014-optimal-childsnack-04-2.pddl,CRASHED:1265.9:1000000000.0:1800.0:-1
ipc-2014-optimal-childsnack-04.pddl,CRASHED:1265.41:1000000000.0:1800.0:-1
ipc-2014-optimal-childsnack-05-2.pddl,CRASHED:1790.97:1000000000.0:1800.0:-1
ipc-2014-optimal-childsnack-05.pddl,TIMEOUT:1801.07:-1.0:1800.0:-1
ipc-2014-optimal-childsnack-06-2.pddl,CRASHED:1260.63:1000000000.0:1800.0:-1
ipc-2014-optimal-childsnack-06.pddl,CRASHED:1794.43:1000000000.0:1800.0:-1
ipc-2014-optimal-childsnack-07-2.pddl,CRASHED:188.3:1000000000.0:1800.0:-1
ipc-2014-optimal-childsnack-07.pddl,CRASHED:1793.44:1000000000.0:1800.0:-1
ipc-2014-optimal-childsnack-08-2.pddl,CRASHED:1796.98:1000000000.0:1800.0:-1
ipc-2014-optimal-childsnack-08.pddl,CRASHED:1795.52:1000000000.0:1800.0:-1
ipc-2014-optimal-childsnack-09-2.pddl,TIMEOUT:1801.07:-1.0:1800.0:-1
ipc-2014-optimal-childsnack-09.pddl,TIMEOUT:1801.0:-1.0:1800.0:-1
ipc-2014-optimal-childsnack-10-2.pddl,TIMEOUT:1801.04:-1.0:1800.0:-1
ipc-2014-optimal-childsnack-10.pddl,TIMEOUT:1801.06:-1.0:1800.0:-1
ipc-2014-optimal-citycar-p2-2-2-1-2.pddl,SAT:44.6702:46.0:1800.0:-1
ipc-2014-optimal-citycar-p2-2-2-2-1.pddl,SAT:45.736:64.0:1800.0:-1
ipc-2014-optimal-citycar-p2-2-3-1-2.pddl,SAT:96.0004:50.0:1800.0:-1
ipc-2014-optimal-citycar-p2-2-3-2-1.pddl,CRASHED:63.7103:48.0:1800.0:-1
ipc-2014-optimal-citycar-p2-2-3-2-2.pddl,CRASHED:106.179:50.0:1800.0:-1
ipc-2014-optimal-citycar-p2-2-4-1-2.pddl,CRASHED:93.7847:52.0:1800.0:-1
ipc-2014-optimal-citycar-p2-2-4-2-1.pddl,SAT:9.53674e-07:52.0:1800.0:-1
ipc-2014-optimal-citycar-p2-2-5-2-2.pddl,SAT:521.84:76.0:1800.0:-1
ipc-2014-optimal-citycar-p2-2-6-1-1.pddl,CRASHED:454.22:58.0:1800.0:-1
ipc-2014-optimal-citycar-p2-2-6-2-2.pddl,CRASHED:423.17:58.0:1800.0:-1
ipc-2014-optimal-citycar-p2-3-2-3-1.pddl,SAT:209.567:68.0:1800.0:-1
ipc-2014-optimal-citycar-p2-3-3-3-1.pddl,SAT:522.3:78.0:1800.0:-1
ipc-2014-optimal-citycar-p2-3-4-3-1.pddl,TIMEOUT:1801.0:-1.0:1800.0:-1
ipc-2014-optimal-citycar-p2-3-6-3-2.pddl,TIMEOUT:1801.0:-1.0:1800.0:-1
ipc-2014-optimal-citycar-p3-3-2-2-1.pddl,SAT:331.46:70.0:1800.0:-1
ipc-2014-optimal-citycar-p3-3-2-2-2.pddl,TIMEOUT:1801.04:-1.0:1800.0:-1
ipc-2014-optimal-citycar-p3-3-2-3-1.pddl,SAT:126.523:48.0:1800.0:-1
ipc-2014-optimal-citycar-p3-3-2-3-2.pddl,TIMEOUT:1801.07:-1.0:1800.0:-1
ipc-2014-optimal-citycar-p3-3-3-3-1.pddl,TIMEOUT:1801.09:-1.0:1800.0:-1
ipc-2014-optimal-citycar-p3-3-3-3-2.pddl,TIMEOUT:1801.0:-1.0:1800.0:-1
ipc-2014-optimal-floortile-p01-4-3-2.pddl,SAT:40.4279:56.0:1800.0:-1
ipc-2014-optimal-floortile-p01-4-4-2.pddl,CRASHED:399.883:68.0:1800.0:-1
ipc-2014-optimal-floortile-p01-5-3-2.pddl,CRASHED:307.612:63.0:1800.0:-1
ipc-2014-optimal-floortile-p01-5-4-2.pddl,CRASHED:1400.48:1000000000.0:1800.0:-1
ipc-2014-optimal-floortile-p01-5-5-2.pddl,TIMEOUT:1801.07:-1.0:1800.0:-1
ipc-2014-optimal-floortile-p01-6-4-2.pddl,TIMEOUT:1801.02:-1.0:1800.0:-1
ipc-2014-optimal-floortile-p01-6-5-2.pddl,TIMEOUT:1801.09:-1.0:1800.0:-1
ipc-2014-optimal-floortile-p02-4-4-2.pddl,CRASHED:1337.39:1000000000.0:1800.0:-1
ipc-2014-optimal-floortile-p02-5-3-2.pddl,CRASHED:349.477:65.0:1800.0:-1
ipc-2014-optimal-floortile-p02-5-4-2.pddl,CRASHED:1399.04:1000000000.0:1800.0:-1
ipc-2014-optimal-floortile-p02-5-5-2.pddl,TIMEOUT:1801.01:-1.0:1800.0:-1
ipc-2014-optimal-floortile-p02-6-4-2.pddl,TIMEOUT:1801.08:-1.0:1800.0:-1
ipc-2014-optimal-floortile-p02-6-5-2.pddl,TIMEOUT:1801.05:-1.0:1800.0:-1
ipc-2014-optimal-floortile-p03-4-3-2.pddl,SAT:55.7935:56.0:1800.0:-1
ipc-2014-optimal-floortile-p03-4-4-2.pddl,CRASHED:1790.02:1000000000.0:1800.0:-1
ipc-2014-optimal-floortile-p03-5-3-2.pddl,CRASHED:361.442:65.0:1800.0:-1
ipc-2014-optimal-floortile-p03-5-4-2.pddl,CRASHED:1791.14:1000000000.0:1800.0:-1
ipc-2014-optimal-floortile-p03-5-5-2.pddl,TIMEOUT:1801.07:-1.0:1800.0:-1
ipc-2014-optimal-floortile-p03-6-4-2.pddl,TIMEOUT:1801.03:-1.0:1800.0:-1
ipc-2014-optimal-floortile-p03-6-5-2.pddl,TIMEOUT:1801.02:-1.0:1800.0:-1
ipc-2014-optimal-ged-d-1-2.pddl,CRASHED:2.92955:1.0:1800.0:-1
ipc-2014-optimal-ged-d-1-3.pddl,SAT:8.15276:4.0:1800.0:-1
ipc-2014-optimal-ged-d-1-4.pddl,CRASHED:2.72658:1.0:1800.0:-1
ipc-2014-optimal-ged-d-1-8.pddl,SAT:23.4864:4.0:1800.0:-1
ipc-2014-optimal-ged-d-2-1.pddl,CRASHED:2.73758:1.0:1800.0:-1
ipc-2014-optimal-ged-d-2-3.pddl,CRASHED:3.32949:3.0:1800.0:-1
ipc-2014-optimal-ged-d-2-4.pddl,CRASHED:3.02254:2.0:1800.0:-1
ipc-2014-optimal-ged-d-2-8.pddl,CRASHED:1782.59:1000000000.0:1800.0:-1
ipc-2014-optimal-ged-d-3-1.pddl,SAT:8.10377:4.0:1800.0:-1
ipc-2014-optimal-ged-d-3-2.pddl,CRASHED:3.32949:3.0:1800.0:-1
ipc-2014-optimal-ged-d-3-4.pddl,CRASHED:324.349:5.0:1800.0:-1
ipc-2014-optimal-ged-d-4-2.pddl,CRASHED:2.95855:2.0:1800.0:-1
ipc-2014-optimal-ged-d-4-3.pddl,CRASHED:322.519:5.0:1800.0:-1
ipc-2014-optimal-ged-d-4-8.pddl,CRASHED:1778.22:1000000000.0:1800.0:-1
ipc-2014-optimal-ged-d-7-5.pddl,SAT:23.3385:4.0:1800.0:-1
ipc-2014-optimal-ged-d-7-6.pddl,SAT:8.09877:4.0:1800.0:-1
ipc-2014-optimal-ged-d-8-1.pddl,SAT:23.7084:4.0:1800.0:-1
ipc-2014-optimal-ged-d-8-2.pddl,CRASHED:0.00012207:1000000000.0:1800.0:-1
ipc-2014-optimal-ged-d-8-4.pddl,CRASHED:1752.22:1000000000.0:1800.0:-1
ipc-2014-optimal-ged-d-8-9.pddl,CRASHED:1768.74:1000000000.0:1800.0:-1
ipc-2014-optimal-hiking-1-2-3.pddl,SAT:2.36564:11.0:1800.0:-1
ipc-2014-optimal-hiking-1-2-4.pddl,SAT:133.902:17.0:1800.0:-1
ipc-2014-optimal-hiking-1-2-5.pddl,SAT:134.093:25.0:1800.0:-1
ipc-2014-optimal-hiking-1-2-7.pddl,SAT:134.55:38.0:1800.0:-1
ipc-2014-optimal-hiking-1-2-8.pddl,CRASHED:134.785:45.0:1800.0:-1
ipc-2014-optimal-hiking-2-2-3.pddl,SAT:4.88426:10.0:1800.0:-1
ipc-2014-optimal-hiking-2-2-4.pddl,CRASHED:168.404:16.0:1800.0:-1
ipc-2014-optimal-hiking-2-2-5.pddl,CRASHED:220.486:22.0:1800.0:-1
ipc-2014-optimal-hiking-2-2-6.pddl,SAT:417.496:30.0:1800.0:-1
ipc-2014-optimal-hiking-2-2-7.pddl,TIMEOUT:1801.07:-1.0:1800.0:-1
ipc-2014-optimal-hiking-2-2-8.pddl,TIMEOUT:1801.01:-1.0:1800.0:-1
ipc-2014-optimal-hiking-2-3-4.pddl,SAT:204.513:17.0:1800.0:-1
ipc-2014-optimal-hiking-2-3-5.pddl,SAT:310.471:24.0:1800.0:-1
ipc-2014-optimal-hiking-2-3-6.pddl,CRASHED:324.97:1000000000.0:1800.0:-1
ipc-2014-optimal-hiking-2-3-7.pddl,CRASHED:192.65:1000000000.0:1800.0:-1
ipc-2014-optimal-hiking-2-4-3.pddl,CRASHED:25.3202:10.0:1800.0:-1
ipc-2014-optimal-hiking-2-4-4.pddl,SAT:211.356:17.0:1800.0:-1
ipc-2014-optimal-hiking-2-4-5.pddl,CRASHED:324.87:1000000000.0:1800.0:-1
ipc-2014-optimal-hiking-2-4-6.pddl,TIMEOUT:1801.03:-1.0:1800.0:-1
ipc-2014-optimal-hiking-2-4-7.pddl,TIMEOUT:1801.0:-1.0:1800.0:-1
ipc-2014-optimal-maintenance-1.3.010.010.1-001.pddl,CRASHED:3.12652:1000000000.0:1800.0:-1
ipc-2014-optimal-maintenance-1.3.010.010.1-002.pddl,CRASHED:3.38348:1000000000.0:1800.0:-1
ipc-2014-optimal-maintenance-1.3.010.010.2-000.pddl,SAT:1.74673:4.0:1800.0:-1
ipc-2014-optimal-maintenance-1.3.010.010.2-001.pddl,CRASHED:1.35079:7.0:1800.0:-1
ipc-2014-optimal-maintenance-1.3.010.010.2-002.pddl,CRASHED:1.35679:6.0:1800.0:-1
ipc-2014-optimal-maintenance-1.3.015.020.1-000.pddl,CRASHED:5.84211:1000000000.0:1800.0:-1
ipc-2014-optimal-maintenance-1.3.015.020.1-001.pddl,CRASHED:15.8816:1000000000.0:1800.0:-1
ipc-2014-optimal-maintenance-1.3.015.020.1-002.pddl,CRASHED:24.7252:1000000000.0:1800.0:-1
ipc-2014-optimal-maintenance-1.3.015.020.2-000.pddl,CRASHED:661.144:1000000000.0:1800.0:-1
ipc-2014-optimal-maintenance-1.3.015.020.2-001.pddl,SAT:2.00569:11.0:1800.0:-1
ipc-2014-optimal-maintenance-1.3.015.020.2-002.pddl,SAT:2.13268:9.0:1800.0:-1
ipc-2014-optimal-maintenance-1.3.025.050.1-000.pddl,CRASHED:172.588:1000000000.0:1800.0:-1
ipc-2014-optimal-maintenance-1.3.025.050.1-001.pddl,CRASHED:187.907:1000000000.0:1800.0:-1
ipc-2014-optimal-maintenance-1.3.025.050.1-002.pddl,CRASHED:179.248:1000000000.0:1800.0:-1
ipc-2014-optimal-maintenance-1.3.025.100.1-000.pddl,CRASHED:160.374:1000000000.0:1800.0:-1
ipc-2014-optimal-maintenance-1.3.025.100.1-001.pddl,CRASHED:155.973:1000000000.0:1800.0:-1
ipc-2014-optimal-maintenance-1.3.025.100.1-002.pddl,CRASHED:161.078:1000000000.0:1800.0:-1
ipc-2014-optimal-maintenance-1.3.025.100.2-000.pddl,CRASHED:1213.0:1000000000.0:1800.0:-1
ipc-2014-optimal-maintenance-1.3.025.100.2-001.pddl,CRASHED:1417.59:1000000000.0:1800.0:-1
ipc-2014-optimal-maintenance-1.3.025.100.2-002.pddl,CRASHED:1160.68:1000000000.0:1800.0:-1
ipc-2014-optimal-openstacks-p20_1.pddl,CRASHED:1401.64:3.0:1800.0:-1
ipc-2014-optimal-openstacks-p20_2.pddl,CRASHED:434.114:4.0:1800.0:-1
ipc-2014-optimal-openstacks-p20_3.pddl,CRASHED:20.5029:6.0:1800.0:-1
ipc-2014-optimal-openstacks-p25_1.pddl,CRASHED:1798.99:1000000000.0:1800.0:-1
ipc-2014-optimal-openstacks-p25_3.pddl,CRASHED:1794.98:1000000000.0:1800.0:-1
ipc-2014-optimal-openstacks-p30_1.pddl,CRASHED:1392.4:1000000000.0:1800.0:-1
ipc-2014-optimal-openstacks-p30_2.pddl,CRASHED:3.77002:1000000000.0:1800.0:-1
ipc-2014-optimal-openstacks-p30_3.pddl,TIMEOUT:1801.07:-1.0:1800.0:-1
ipc-2014-optimal-openstacks-p35_1.pddl,TIMEOUT:1801.01:-1.0:1800.0:-1
ipc-2014-optimal-openstacks-p35_2.pddl,TIMEOUT:1801.08:-1.0:1800.0:-1
ipc-2014-optimal-openstacks-p35_3.pddl,TIMEOUT:1801.01:-1.0:1800.0:-1
ipc-2014-optimal-openstacks-p40_1.pddl,TIMEOUT:1801.06:-1.0:1800.0:-1
ipc-2014-optimal-openstacks-p40_2.pddl,TIMEOUT:1801.03:-1.0:1800.0:-1
ipc-2014-optimal-openstacks-p40_3.pddl,TIMEOUT:1801.07:-1.0:1800.0:-1
ipc-2014-optimal-openstacks-p45_1.pddl,TIMEOUT:1801.02:-1.0:1800.0:-1
ipc-2014-optimal-openstacks-p45_2.pddl,TIMEOUT:1801.02:-1.0:1800.0:-1
ipc-2014-optimal-openstacks-p45_3.pddl,TIMEOUT:1801.05:-1.0:1800.0:-1
ipc-2014-optimal-openstacks-p50_1.pddl,TIMEOUT:1801.04:-1.0:1800.0:-1
ipc-2014-optimal-openstacks-p50_2.pddl,TIMEOUT:1801.01:-1.0:1800.0:-1
ipc-2014-optimal-openstacks-p50_3.pddl,TIMEOUT:1801.08:-1.0:1800.0:-1
ipc-2014-optimal-parking-12_7-01.pddl,SAT:115.967:18.0:1800.0:-1
ipc-2014-optimal-parking-12_7-02.pddl,CRASHED:119.207:18.0:1800.0:-1
ipc-2014-optimal-parking-12_7-03.pddl,CRASHED:115.079:17.0:1800.0:-1
ipc-2014-optimal-parking-12_7-04.pddl,CRASHED:135.797:19.0:1800.0:-1
ipc-2014-optimal-parking-14_8-01.pddl,CRASHED:1800.26:1000000000.0:1800.0:-1
ipc-2014-optimal-parking-14_8-02.pddl,CRASHED:271.092:22.0:1800.0:-1
ipc-2014-optimal-parking-14_8-03.pddl,CRASHED:152.278:21.0:1800.0:-1
ipc-2014-optimal-parking-14_8-04.pddl,TIMEOUT:1801.03:-1.0:1800.0:-1
ipc-2014-optimal-parking-16_9-01.pddl,TIMEOUT:1801.11:-1.0:1800.0:-1
ipc-2014-optimal-parking-16_9-02.pddl,TIMEOUT:1801.0:-1.0:1800.0:-1
ipc-2014-optimal-parking-16_9-03.pddl,TIMEOUT:1801.0:-1.0:1800.0:-1
ipc-2014-optimal-parking-16_9-04.pddl,TIMEOUT:1801.08:-1.0:1800.0:-1
ipc-2014-optimal-parking-18_10-01.pddl,TIMEOUT:1801.0:-1.0:1800.0:-1
ipc-2014-optimal-parking-18_10-02.pddl,TIMEOUT:1801.0:-1.0:1800.0:-1
ipc-2014-optimal-parking-18_10-03.pddl,TIMEOUT:1801.0:-1.0:1800.0:-1
ipc-2014-optimal-parking-18_10-04.pddl,TIMEOUT:1801.0:-1.0:1800.0:-1
ipc-2014-optimal-parking-20_11-01.pddl,TIMEOUT:1801.0:-1.0:1800.0:-1
ipc-2014-optimal-parking-20_11-02.pddl,TIMEOUT:1801.0:-1.0:1800.0:-1
ipc-2014-optimal-parking-20_11-03.pddl,TIMEOUT:1801.0:-1.0:1800.0:-1
ipc-2014-optimal-parking-20_11-04.pddl,TIMEOUT:1801.0:-1.0:1800.0:-1
ipc-2014-optimal-tetris-01-10.pddl,TIMEOUT:1801.09:-1.0:1800.0:-1
ipc-2014-optimal-tetris-01-04.pddl,CRASHED:759.996:1000000000.0:1800.0:-1
ipc-2014-optimal-tetris-01-06.pddl,CRASHED:936.817:30.0:1800.0:-1
ipc-2014-optimal-tetris-01-08.pddl,CRASHED:71.6521:36.0:1800.0:-1
ipc-2014-optimal-tetris-02-10.pddl,CRASHED:1325.15:1000000000.0:1800.0:-1
ipc-2014-optimal-tetris-02-04.pddl,CRASHED:4.71028:10.0:1800.0:-1
ipc-2014-optimal-tetris-02-06.pddl,SAT:600.624:30.0:1800.0:-1
ipc-2014-optimal-tetris-02-08.pddl,TIMEOUT:1801.0:-1.0:1800.0:-1
ipc-2014-optimal-tetris-03-10.pddl,TIMEOUT:1801.0:-1.0:1800.0:-1
ipc-2014-optimal-tetris-03-04.pddl,SAT:24.9402:11.0:1800.0:-1
ipc-2014-optimal-tetris-03-06.pddl,SAT:651.602:21.0:1800.0:-1
ipc-2014-optimal-tetris-03-08.pddl,CRASHED:599.62:48.0:1800.0:-1
ipc-2014-optimal-tetris-04-10.pddl,TIMEOUT:1801.0:-1.0:1800.0:-1
ipc-2014-optimal-tetris-04-04.pddl,CRASHED:636.879:1000000000.0:1800.0:-1
ipc-2014-optimal-tetris-04-06.pddl,CRASHED:994.016:27.0:1800.0:-1
ipc-2014-optimal-tetris-04-08.pddl,TIMEOUT:1801.0:-1.0:1800.0:-1
ipc-2014-optimal-tetris-05-10.pddl,TIMEOUT:1801.0:-1.0:1800.0:-1
ipc-2014-optimal-tetris-05-04.pddl,CRASHED:662.105:1000000000.0:1800.0:-1
ipc-2014-optimal-tetris-05-06.pddl,SAT:550.26:19.0:1800.0:-1
ipc-2014-optimal-tetris-05-08.pddl,TIMEOUT:1801.0:-1.0:1800.0:-1
ipc-2014-optimal-tidybot-01.pddl,TIMEOUT:1801.0:-1.0:1800.0:-1
ipc-2014-optimal-tidybot-02.pddl,CRASHED:317.25:35.0:1800.0:-1
ipc-2014-optimal-tidybot-03.pddl,CRASHED:115.341:30.0:1800.0:-1
ipc-2014-optimal-tidybot-04.pddl,SAT:313.776:24.0:1800.0:-1
ipc-2014-optimal-tidybot-05.pddl,TIMEOUT:1801.0:-1.0:1800.0:-1
ipc-2014-optimal-tidybot-06.pddl,TIMEOUT:1801.0:-1.0:1800.0:-1
ipc-2014-optimal-tidybot-07.pddl,TIMEOUT:1801.0:-1.0:1800.0:-1
ipc-2014-optimal-tidybot-08.pddl,SAT:127.042:25.0:1800.0:-1
ipc-2014-optimal-tidybot-09.pddl,TIMEOUT:1801.0:-1.0:1800.0:-1
ipc-2014-optimal-tidybot-10.pddl,TIMEOUT:1801.0:-1.0:1800.0:-1
ipc-2014-optimal-tidybot-11.pddl,CRASHED:67.0668:29.0:1800.0:-1
ipc-2014-optimal-tidybot-12.pddl,CRASHED:191.887:35.0:1800.0:-1
ipc-2014-optimal-tidybot-13.pddl,CRASHED:106.03:30.0:1800.0:-1
ipc-2014-optimal-tidybot-14.pddl,SAT:86.43:25.0:1800.0:-1
ipc-2014-optimal-tidybot-15.pddl,TIMEOUT:1801.0:-1.0:1800.0:-1
ipc-2014-optimal-tidybot-16.pddl,TIMEOUT:1801.0:-1.0:1800.0:-1
ipc-2014-optimal-tidybot-17.pddl,TIMEOUT:1801.0:-1.0:1800.0:-1
ipc-2014-optimal-tidybot-18.pddl,TIMEOUT:1801.0:-1.0:1800.0:-1
ipc-2014-optimal-tidybot-19.pddl,TIMEOUT:1801.0:-1.0:1800.0:-1
ipc-2014-optimal-tidybot-20.pddl,TIMEOUT:1801.0:-1.0:1800.0:-1
ipc-2014-optimal-transport-01.pddl,CRASHED:134.534:148.0:1800.0:-1
ipc-2014-optimal-transport-02.pddl,SAT:137.789:191.0:1800.0:-1
ipc-2014-optimal-transport-03.pddl,CRASHED:146.078:300.0:1800.0:-1
ipc-2014-optimal-transport-04.pddl,CRASHED:1795.12:1000000000.0:1800.0:-1
ipc-2014-optimal-transport-05.pddl,CRASHED:1.19209e-07:1000000000.0:1800.0:-1
ipc-2014-optimal-transport-06.pddl,CRASHED:1797.22:1000000000.0:1800.0:-1
ipc-2014-optimal-transport-07.pddl,SAT:139.129:967.0:1800.0:-1
ipc-2014-optimal-transport-08.pddl,CRASHED:290.85:1173.0:1800.0:-1
ipc-2014-optimal-transport-09.pddl,CRASHED:1790.08:1000000000.0:1800.0:-1
ipc-2014-optimal-transport-10.pddl,CRASHED:1793.2:1000000000.0:1800.0:-1
ipc-2014-optimal-transport-11.pddl,TIMEOUT:1801.04:-1.0:1800.0:-1
ipc-2014-optimal-transport-12.pddl,CRASHED:1800.17:1000000000.0:1800.0:-1
ipc-2014-optimal-transport-13.pddl,SAT:137.968:594.0:1800.0:-1
ipc-2014-optimal-transport-14.pddl,SAT:258.833:526.0:1800.0:-1
ipc-2014-optimal-transport-15.pddl,CRASHED:1360.63:1000000000.0:1800.0:-1
ipc-2014-optimal-transport-16.pddl,CRASHED:34.2201:1000000000.0:1800.0:-1
ipc-2014-optimal-transport-17.pddl,CRASHED:191.85:1000000000.0:1800.0:-1
ipc-2014-optimal-transport-18.pddl,CRASHED:191.82:1000000000.0:1800.0:-1
ipc-2014-optimal-transport-19.pddl,TIMEOUT:1801.0:-1.0:1800.0:-1
ipc-2014-optimal-transport-20.pddl,TIMEOUT:1801.0:-1.0:1800.0:-1
ipc-2014-optimal-visitall-05-10.pddl,CRASHED:1791.16:1000000000.0:1800.0:-1
ipc-2014-optimal-visitall-05-05.pddl,CRASHED:4.71228:21.0:1800.0:-1
ipc-2014-optimal-visitall-05-06.pddl,CRASHED:7.2179:25.0:1800.0:-1
ipc-2014-optimal-visitall-05-07.pddl,CRASHED:360.328:34.0:1800.0:-1
ipc-2014-optimal-visitall-05-08.pddl,CRASHED:1223.3:43.0:1800.0:-1
ipc-2014-optimal-visitall-05-09.pddl,CRASHED:1794.88:1000000000.0:1800.0:-1
ipc-2014-optimal-visitall-01-10.pddl,CRASHED:1156.32:99.0:1800.0:-1
ipc-2014-optimal-visitall-01-11.pddl,CRASHED:1155.58:120.0:1800.0:-1
ipc-2014-optimal-visitall-01-12.pddl,SAT:1198.36:143.0:1800.0:-1
ipc-2014-optimal-visitall-01-13.pddl,CRASHED:601.32:168.0:1800.0:-1
ipc-2014-optimal-visitall-01-14.pddl,TIMEOUT:1801.0:-1.0:1800.0:-1
ipc-2014-optimal-visitall-01-15.pddl,CRASHED:1794.61:1000000000.0:1800.0:-1
ipc-2014-optimal-visitall-01-16.pddl,CRASHED:541.98:1000000000.0:1800.0:-1
ipc-2014-optimal-visitall-01-17.pddl,CRASHED:598.14:1000000000.0:1800.0:-1
ipc-2014-optimal-visitall-01-18.pddl,CRASHED:1786.48:1000000000.0:1800.0:-1
ipc-2014-optimal-visitall-01-05.pddl,CRASHED:20.9618:24.0:1800.0:-1
ipc-2014-optimal-visitall-01-06.pddl,CRASHED:937.924:35.0:1800.0:-1
ipc-2014-optimal-visitall-01-07.pddl,CRASHED:551.44:48.0:1800.0:-1
ipc-2014-optimal-visitall-01-08.pddl,CRASHED:1126.94:63.0:1800.0:-1
ipc-2014-optimal-visitall-01-09.pddl,CRASHED:1157.39:80.0:1800.0:-1
