instance,ipc-2014-agile-use
ipc-2014-agile-barman-p1-11-4-15.pddl,SAT:3.06453:243.0:300.0:-1
ipc-2014-agile-barman-p1-11-5-15.pddl,SAT:2.81657:241.0:300.0:-1
ipc-2014-agile-barman-p1-11-5-16.pddl,SAT:2.67959:228.0:300.0:-1
ipc-2014-agile-barman-p2-10-4-13.pddl,SAT:4.71228:217.0:300.0:-1
ipc-2014-agile-barman-p2-11-4-15.pddl,SAT:4.45232:265.0:300.0:-1
ipc-2014-agile-barman-p2-11-5-15.pddl,SAT:3.46947:234.0:300.0:-1
ipc-2014-agile-barman-p2-11-5-16.pddl,SAT:5.9091:250.0:300.0:-1
ipc-2014-agile-barman-p2-11-5-17.pddl,SAT:10.3364:250.0:300.0:-1
ipc-2014-agile-barman-p3-10-4-13.pddl,SAT:3.12852:188.0:300.0:-1
ipc-2014-agile-barman-p3-11-4-15.pddl,SAT:4.20236:255.0:300.0:-1
ipc-2014-agile-barman-p3-11-5-15.pddl,SAT:2.80157:227.0:300.0:-1
ipc-2014-agile-barman-p3-11-5-16.pddl,SAT:3.44048:236.0:300.0:-1
ipc-2014-agile-barman-p3-11-5-17.pddl,SAT:5.8991:255.0:300.0:-1
ipc-2014-agile-barman-p4-11-4-14.pddl,SAT:1.9327:233.0:300.0:-1
ipc-2014-agile-barman-p4-11-4-15.pddl,SAT:3.60445:249.0:300.0:-1
ipc-2014-agile-barman-p4-11-5-15.pddl,SAT:8.32473:282.0:300.0:-1
ipc-2014-agile-barman-p5-10-4-13.pddl,SAT:2.30665:244.0:300.0:-1
ipc-2014-agile-barman-p5-11-4-15.pddl,SAT:3.22451:258.0:300.0:-1
ipc-2014-agile-barman-p5-11-5-15.pddl,SAT:3.50147:229.0:300.0:-1
ipc-2014-agile-barman-p5-11-5-16.pddl,SAT:4.00339:237.0:300.0:-1
ipc-2014-agile-cavediving-01_easy.pddl,TIMEOUT:301.104:-1.0:300.0:-1
ipc-2014-agile-cavediving-01.pddl,TIMEOUT:301.1:-1.0:300.0:-1
ipc-2014-agile-cavediving-02_easy.pddl,TIMEOUT:301.02:-1.0:300.0:-1
ipc-2014-agile-cavediving-03_easy.pddl,TIMEOUT:301.05:-1.0:300.0:-1
ipc-2014-agile-cavediving-04_easy.pddl,CRASHED:290.232:1000000000.0:300.0:-1
ipc-2014-agile-cavediving-05A_easy.pddl,TIMEOUT:301.09:-1.0:300.0:-1
ipc-2014-agile-cavediving-06A_easy.pddl,CRASHED:288.791:1000000000.0:300.0:-1
ipc-2014-agile-cavediving-07_easy.pddl,CRASHED:297.553:1000000000.0:300.0:-1
ipc-2014-agile-cavediving-08_easy.pddl,TIMEOUT:301.04:-1.0:300.0:-1
ipc-2014-agile-cavediving-09_easy.pddl,TIMEOUT:301.09:-1.0:300.0:-1
ipc-2014-agile-cavediving-10_easy.pddl,TIMEOUT:301.08:-1.0:300.0:-1
ipc-2014-agile-cavediving-11_easy.pddl,TIMEOUT:301.11:-1.0:300.0:-1
ipc-2014-agile-cavediving-12_easy.pddl,TIMEOUT:301.05:-1.0:300.0:-1
ipc-2014-agile-cavediving-13_easy.pddl,TIMEOUT:301.03:-1.0:300.0:-1
ipc-2014-agile-cavediving-14_easy.pddl,TIMEOUT:301.02:-1.0:300.0:-1
ipc-2014-agile-cavediving-15_easy.pddl,TIMEOUT:301.1:-1.0:300.0:-1
ipc-2014-agile-cavediving-16_easy.pddl,TIMEOUT:301.03:-1.0:300.0:-1
ipc-2014-agile-cavediving-18A_easy.pddl,TIMEOUT:301.0:-1.0:300.0:-1
ipc-2014-agile-cavediving-18_easy.pddl,TIMEOUT:301.01:-1.0:300.0:-1
ipc-2014-agile-cavediving-20A_easy.pddl,TIMEOUT:301.08:-1.0:300.0:-1
ipc-2014-agile-childsnack-05-2.pddl,SAT:1.73274:54.0:300.0:-1
ipc-2014-agile-childsnack-05.pddl,SAT:6.36903:60.0:300.0:-1
ipc-2014-agile-childsnack-06-2.pddl,SAT:3.74743:64.0:300.0:-1
ipc-2014-agile-childsnack-07-2.pddl,SAT:16.8144:66.0:300.0:-1
ipc-2014-agile-childsnack-08-2.pddl,SAT:7.82881:82.0:300.0:-1
ipc-2014-agile-childsnack-08.pddl,SAT:182.165:79.0:300.0:-1
ipc-2014-agile-childsnack-09-2.pddl,SAT:99.0119:80.0:300.0:-1
ipc-2014-agile-childsnack-09.pddl,SAT:217.701:76.0:300.0:-1
ipc-2014-agile-childsnack-10-2.pddl,CRASHED:289.407:1000000000.0:300.0:-1
ipc-2014-agile-childsnack-10.pddl,CRASHED:289.245:1000000000.0:300.0:-1
ipc-2014-agile-childsnack-11-2.pddl,SAT:51.0162:93.0:300.0:-1
ipc-2014-agile-childsnack-11.pddl,CRASHED:289.323:1000000000.0:300.0:-1
ipc-2014-agile-childsnack-12.pddl,CRASHED:291.095:1000000000.0:300.0:-1
ipc-2014-agile-childsnack-13-2.pddl,CRASHED:291.137:1000000000.0:300.0:-1
ipc-2014-agile-childsnack-13.pddl,CRASHED:289.617:1000000000.0:300.0:-1
ipc-2014-agile-childsnack-14.pddl,CRASHED:291.407:1000000000.0:300.0:-1
ipc-2014-agile-childsnack-15-2.pddl,CRASHED:289.794:1000000000.0:300.0:-1
ipc-2014-agile-childsnack-16-2.pddl,CRASHED:289.679:1000000000.0:300.0:-1
ipc-2014-agile-childsnack-19-2.pddl,CRASHED:292.45:1000000000.0:300.0:-1
ipc-2014-agile-childsnack-19.pddl,CRASHED:292.296:1000000000.0:300.0:-1
ipc-2014-agile-citycar-p3-2-2-0-1.pddl,CRASHED:291.805:1000000000.0:300.0:-1
ipc-2014-agile-citycar-p3-3-2-0-1.pddl,SAT:156.909:310.0:300.0:-1
ipc-2014-agile-citycar-p3-4-2-0-1.pddl,CRASHED:289.156:1000000000.0:300.0:-1
ipc-2014-agile-citycar-p3-5-2-0-1.pddl,CRASHED:289.386:1000000000.0:300.0:-1
ipc-2014-agile-citycar-p3-5-2-0-2.pddl,CRASHED:298.4:1000000000.0:300.0:-1
ipc-2014-agile-citycar-p4-2-2-0-1.pddl,CRASHED:288.894:1000000000.0:300.0:-1
ipc-2014-agile-citycar-p4-2-3-0-1.pddl,TIMEOUT:301.02:-1.0:300.0:-1
ipc-2014-agile-citycar-p4-2-3-0-2.pddl,CRASHED:291.014:1000000000.0:300.0:-1
ipc-2014-agile-citycar-p4-3-2-0-1.pddl,CRASHED:289.452:1000000000.0:300.0:-1
ipc-2014-agile-citycar-p4-3-2-0-2.pddl,CRASHED:289.047:1000000000.0:300.0:-1
ipc-2014-agile-citycar-p4-3-3-0-1.pddl,CRASHED:288.908:1000000000.0:300.0:-1
ipc-2014-agile-citycar-p4-3-3-0-2.pddl,CRASHED:289.474:1000000000.0:300.0:-1
ipc-2014-agile-citycar-p4-4-2-0-1.pddl,CRASHED:290.758:1000000000.0:300.0:-1
ipc-2014-agile-citycar-p4-4-2-0-2.pddl,CRASHED:290.715:1000000000.0:300.0:-1
ipc-2014-agile-citycar-p4-4-3-0-1.pddl,TIMEOUT:301.04:-1.0:300.0:-1
ipc-2014-agile-citycar-p4-4-3-0-2.pddl,CRASHED:289.616:1000000000.0:300.0:-1
ipc-2014-agile-citycar-p4-5-2-0-1.pddl,CRASHED:288.708:1000000000.0:300.0:-1
ipc-2014-agile-citycar-p4-5-2-0-2.pddl,CRASHED:289.225:1000000000.0:300.0:-1
ipc-2014-agile-citycar-p4-5-3-0-1.pddl,CRASHED:288.779:1000000000.0:300.0:-1
ipc-2014-agile-citycar-p4-5-3-0-2.pddl,CRASHED:288.935:1000000000.0:300.0:-1
ipc-2014-agile-floortile-p01-4-3-2.pddl,SAT:61.2547:126.0:300.0:-1
ipc-2014-agile-floortile-p01-5-4-2.pddl,SAT:290.936:163.0:300.0:-1
ipc-2014-agile-floortile-p01-5-5-2.pddl,SAT:288.69:251.0:300.0:-1
ipc-2014-agile-floortile-p01-6-4-2.pddl,SAT:288.609:194.0:300.0:-1
ipc-2014-agile-floortile-p01-6-5-2.pddl,SAT:288.884:258.0:300.0:-1
ipc-2014-agile-floortile-p01-6-5-3.pddl,SAT:289.0:259.0:300.0:-1
ipc-2014-agile-floortile-p02-5-4-2.pddl,SAT:290.629:184.0:300.0:-1
ipc-2014-agile-floortile-p02-6-4-2.pddl,SAT:288.716:227.0:300.0:-1
ipc-2014-agile-floortile-p02-6-5-2.pddl,SAT:289.148:309.0:300.0:-1
ipc-2014-agile-floortile-p02-6-5-3.pddl,TIMEOUT:301.04:-1.0:300.0:-1
ipc-2014-agile-floortile-p03-6-4-2.pddl,SAT:288.905:210.0:300.0:-1
ipc-2014-agile-floortile-p03-6-5-2.pddl,SAT:291.018:288.0:300.0:-1
ipc-2014-agile-floortile-p03-6-5-3.pddl,SAT:291.163:259.0:300.0:-1
ipc-2014-agile-floortile-p04-5-4-2.pddl,SAT:291.429:213.0:300.0:-1
ipc-2014-agile-floortile-p04-5-5-2.pddl,SAT:290.745:244.0:300.0:-1
ipc-2014-agile-floortile-p04-6-5-2.pddl,SAT:288.659:305.0:300.0:-1
ipc-2014-agile-floortile-p04-6-5-3.pddl,SAT:288.834:295.0:300.0:-1
ipc-2014-agile-floortile-p05-4-3-2.pddl,SAT:9.16261:122.0:300.0:-1
ipc-2014-agile-floortile-p05-6-5-2.pddl,SAT:288.66:271.0:300.0:-1
ipc-2014-agile-floortile-p05-6-5-3.pddl,TIMEOUT:301.04:-1.0:300.0:-1
ipc-2014-agile-ged-d-10-1.pddl,SAT:4.92125:38.0:300.0:-1
ipc-2014-agile-ged-d-10-2.pddl,SAT:5.72813:43.0:300.0:-1
ipc-2014-agile-ged-d-10-3.pddl,SAT:8.15576:59.0:300.0:-1
ipc-2014-agile-ged-d-10-4.pddl,SAT:4.76827:36.0:300.0:-1
ipc-2014-agile-ged-d-10-5.pddl,SAT:8.94864:53.0:300.0:-1
ipc-2014-agile-ged-d-10-6.pddl,SAT:11.2703:52.0:300.0:-1
ipc-2014-agile-ged-d-11-1.pddl,SAT:5.31719:27.0:300.0:-1
ipc-2014-agile-ged-d-11-3.pddl,SAT:5.08123:29.0:300.0:-1
ipc-2014-agile-ged-d-11-5.pddl,SAT:6.24805:30.0:300.0:-1
ipc-2014-agile-ged-d-11-6.pddl,SAT:8.81266:55.0:300.0:-1
ipc-2014-agile-ged-d-12-11.pddl,SAT:6.53501:37.0:300.0:-1
ipc-2014-agile-ged-d-12-2.pddl,SAT:10.0135:38.0:300.0:-1
ipc-2014-agile-ged-d-12-3.pddl,SAT:19.1691:67.0:300.0:-1
ipc-2014-agile-ged-d-12-5.pddl,SAT:21.9217:72.0:300.0:-1
ipc-2014-agile-ged-d-12-6.pddl,SAT:11.9152:47.0:300.0:-1
ipc-2014-agile-ged-d-12-7.pddl,SAT:12.2501:48.0:300.0:-1
ipc-2014-agile-ged-d-12-8.pddl,SAT:26.146:59.0:300.0:-1
ipc-2014-agile-ged-d-12-9.pddl,SAT:19.557:56.0:300.0:-1
ipc-2014-agile-ged-d-3-6.pddl,SAT:5.12122:29.0:300.0:-1
ipc-2014-agile-ged-d-9-5.pddl,SAT:5.77412:32.0:300.0:-1
ipc-2014-agile-hiking-3-4-3.pddl,SAT:2.13367:18.0:300.0:-1
ipc-2014-agile-hiking-3-4-4.pddl,SAT:3.50347:22.0:300.0:-1
ipc-2014-agile-hiking-3-4-5.pddl,SAT:15.4846:54.0:300.0:-1
ipc-2014-agile-hiking-3-4-6.pddl,SAT:85.9929:66.0:300.0:-1
ipc-2014-agile-hiking-3-4-7.pddl,SAT:30.6703:85.0:300.0:-1
ipc-2014-agile-hiking-3-4-8.pddl,SAT:207.718:114.0:300.0:-1
ipc-2014-agile-hiking-3-4-9.pddl,TIMEOUT:301.03:-1.0:300.0:-1
ipc-2014-agile-hiking-4-5-3.pddl,SAT:9.38057:25.0:300.0:-1
ipc-2014-agile-hiking-4-5-4.pddl,SAT:14.2638:30.0:300.0:-1
ipc-2014-agile-hiking-4-5-5.pddl,SAT:30.7843:40.0:300.0:-1
ipc-2014-agile-hiking-4-5-6.pddl,TIMEOUT:301.07:-1.0:300.0:-1
ipc-2014-agile-hiking-4-5-7.pddl,TIMEOUT:301.04:-1.0:300.0:-1
ipc-2014-agile-hiking-4-5-8.pddl,TIMEOUT:301.05:-1.0:300.0:-1
ipc-2014-agile-hiking-4-5-9.pddl,TIMEOUT:301.05:-1.0:300.0:-1
ipc-2014-agile-hiking-5-6-3.pddl,SAT:14.1189:19.0:300.0:-1
ipc-2014-agile-hiking-5-6-4.pddl,TIMEOUT:301.09:-1.0:300.0:-1
ipc-2014-agile-hiking-5-6-5.pddl,TIMEOUT:301.02:-1.0:300.0:-1
ipc-2014-agile-hiking-5-6-6.pddl,TIMEOUT:301.01:-1.0:300.0:-1
ipc-2014-agile-hiking-5-6-7.pddl,TIMEOUT:301.05:-1.0:300.0:-1
ipc-2014-agile-hiking-5-6-8.pddl,TIMEOUT:301.02:-1.0:300.0:-1
ipc-2014-agile-maintenance-1.3.060.180.5-000.pddl,SAT:1.38679:56.0:300.0:-1
ipc-2014-agile-maintenance-1.3.060.180.5-001.pddl,SAT:2.95655:56.0:300.0:-1
ipc-2014-agile-maintenance-1.3.060.180.5-002.pddl,SAT:1.14782:60.0:300.0:-1
ipc-2014-agile-maintenance-1.3.100.300.5-000.pddl,SAT:52.67:95.0:300.0:-1
ipc-2014-agile-maintenance-1.3.100.300.5-001.pddl,SAT:60.5648:91.0:300.0:-1
ipc-2014-agile-maintenance-1.3.100.300.7-000.pddl,SAT:3.17052:88.0:300.0:-1
ipc-2014-agile-maintenance-1.3.100.300.7-001.pddl,SAT:3.80742:89.0:300.0:-1
ipc-2014-agile-maintenance-1.3.100.300.7-002.pddl,SAT:3.71543:82.0:300.0:-1
ipc-2014-agile-maintenance-1.3.150.500.6-001.pddl,SAT:40.6588:138.0:300.0:-1
ipc-2014-agile-maintenance-1.3.200.500.5-001.pddl,SAT:181.717:177.0:300.0:-1
ipc-2014-agile-maintenance-1.3.200.500.5-002.pddl,SAT:195.893:178.0:300.0:-1
ipc-2014-agile-maintenance-1.3.200.700.7-000.pddl,SAT:22.5366:171.0:300.0:-1
ipc-2014-agile-maintenance-1.3.200.700.7-001.pddl,SAT:25.5751:175.0:300.0:-1
ipc-2014-agile-maintenance-1.3.200.700.7-002.pddl,SAT:14.6548:181.0:300.0:-1
ipc-2014-agile-maintenance-1.3.200.900.5-000.pddl,TIMEOUT:301.09:-1.0:300.0:-1
ipc-2014-agile-maintenance-1.3.200.900.5-001.pddl,TIMEOUT:301.133:-1.0:300.0:-1
ipc-2014-agile-maintenance-1.3.200.900.5-002.pddl,TIMEOUT:301.055:-1.0:300.0:-1
ipc-2014-agile-maintenance-1.3.200.900.8-000.pddl,SAT:21.7047:183.0:300.0:-1
ipc-2014-agile-maintenance-1.3.200.900.8-001.pddl,SAT:29.8375:188.0:300.0:-1
ipc-2014-agile-maintenance-1.3.200.900.8-002.pddl,SAT:35.5076:175.0:300.0:-1
ipc-2014-agile-openstacks-p130_2.pddl,SAT:28.9226:81.0:300.0:-1
ipc-2014-agile-openstacks-p130_3.pddl,SAT:38.4002:118.0:300.0:-1
ipc-2014-agile-openstacks-p150_2.pddl,SAT:43.0774:90.0:300.0:-1
ipc-2014-agile-openstacks-p150_3.pddl,SAT:60.9897:140.0:300.0:-1
ipc-2014-agile-openstacks-p170_1.pddl,SAT:60.3528:98.0:300.0:-1
ipc-2014-agile-openstacks-p170_2.pddl,SAT:63.2374:110.0:300.0:-1
ipc-2014-agile-openstacks-p170_3.pddl,SAT:88.5375:159.0:300.0:-1
ipc-2014-agile-openstacks-p190_1.pddl,SAT:85.0321:127.0:300.0:-1
ipc-2014-agile-openstacks-p190_2.pddl,SAT:89.5214:133.0:300.0:-1
ipc-2014-agile-openstacks-p190_3.pddl,SAT:125.889:177.0:300.0:-1
ipc-2014-agile-openstacks-p210_1.pddl,SAT:107.843:130.0:300.0:-1
ipc-2014-agile-openstacks-p210_2.pddl,SAT:111.972:143.0:300.0:-1
ipc-2014-agile-openstacks-p230_1.pddl,SAT:141.062:143.0:300.0:-1
ipc-2014-agile-openstacks-p230_2.pddl,SAT:157.287:168.0:300.0:-1
ipc-2014-agile-openstacks-p250_1.pddl,SAT:188.55:174.0:300.0:-1
ipc-2014-agile-openstacks-p250_2.pddl,SAT:200.242:193.0:300.0:-1
ipc-2014-agile-openstacks-p270_1.pddl,SAT:241.083:192.0:300.0:-1
ipc-2014-agile-openstacks-p270_2.pddl,SAT:256.662:217.0:300.0:-1
ipc-2014-agile-openstacks-p290_1.pddl,SAT:289.382:205.0:300.0:-1
ipc-2014-agile-openstacks-p290_2.pddl,SAT:290.601:237.0:300.0:-1
ipc-2014-agile-parking-28_2.pddl,TIMEOUT:301.07:-1.0:300.0:-1
ipc-2014-agile-parking-28_3.pddl,TIMEOUT:301.03:-1.0:300.0:-1
ipc-2014-agile-parking-30_1.pddl,TIMEOUT:301.06:-1.0:300.0:-1
ipc-2014-agile-parking-30_2.pddl,SAT:260.648:135.0:300.0:-1
ipc-2014-agile-parking-30_3.pddl,SAT:278.947:146.0:300.0:-1
ipc-2014-agile-parking-32_1.pddl,SAT:228.429:123.0:300.0:-1
ipc-2014-agile-parking-32_2.pddl,SAT:65.2951:97.0:300.0:-1
ipc-2014-agile-parking-32_3.pddl,SAT:205.664:171.0:300.0:-1
ipc-2014-agile-parking-34_1.pddl,SAT:77.0013:98.0:300.0:-1
ipc-2014-agile-parking-34_2.pddl,TIMEOUT:301.02:-1.0:300.0:-1
ipc-2014-agile-parking-34_3.pddl,TIMEOUT:301.1:-1.0:300.0:-1
ipc-2014-agile-parking-36_1.pddl,SAT:265.75:134.0:300.0:-1
ipc-2014-agile-parking-36_2.pddl,TIMEOUT:301.03:-1.0:300.0:-1
ipc-2014-agile-parking-36_3.pddl,TIMEOUT:301.07:-1.0:300.0:-1
ipc-2014-agile-parking-38_1.pddl,SAT:247.634:144.0:300.0:-1
ipc-2014-agile-parking-38_2.pddl,TIMEOUT:301.05:-1.0:300.0:-1
ipc-2014-agile-parking-38_3.pddl,TIMEOUT:301.01:-1.0:300.0:-1
ipc-2014-agile-parking-40_1.pddl,TIMEOUT:301.03:-1.0:300.0:-1
ipc-2014-agile-parking-40_2.pddl,SAT:202.816:124.0:300.0:-1
ipc-2014-agile-parking-40_3.pddl,TIMEOUT:301.1:-1.0:300.0:-1
ipc-2014-agile-tetris-020.pddl,SAT:14.0529:104.0:300.0:-1
ipc-2014-agile-tetris-021.pddl,SAT:285.626:298.0:300.0:-1
ipc-2014-agile-tetris-022.pddl,SAT:289.787:192.0:300.0:-1
ipc-2014-agile-tetris-023.pddl,SAT:130.141:310.0:300.0:-1
ipc-2014-agile-tetris-024.pddl,TIMEOUT:301.07:-1.0:300.0:-1
ipc-2014-agile-tetris-025.pddl,SAT:245.437:279.0:300.0:-1
ipc-2014-agile-tetris-026.pddl,TIMEOUT:301.02:-1.0:300.0:-1
ipc-2014-agile-tetris-027.pddl,TIMEOUT:301.01:-1.0:300.0:-1
ipc-2014-agile-tetris-028.pddl,TIMEOUT:301.07:-1.0:300.0:-1
ipc-2014-agile-tetris-029.pddl,SAT:288.887:259.0:300.0:-1
ipc-2014-agile-tetris-031.pddl,TIMEOUT:301.05:-1.0:300.0:-1
ipc-2014-agile-tetris-032.pddl,TIMEOUT:301.04:-1.0:300.0:-1
ipc-2014-agile-tetris-033.pddl,TIMEOUT:301.04:-1.0:300.0:-1
ipc-2014-agile-tetris-034.pddl,TIMEOUT:301.05:-1.0:300.0:-1
ipc-2014-agile-tetris-035.pddl,TIMEOUT:301.05:-1.0:300.0:-1
ipc-2014-agile-tetris-036.pddl,SAT:289.611:316.0:300.0:-1
ipc-2014-agile-tetris-037.pddl,TIMEOUT:301.0:-1.0:300.0:-1
ipc-2014-agile-tetris-038.pddl,TIMEOUT:301.02:-1.0:300.0:-1
ipc-2014-agile-tetris-039.pddl,TIMEOUT:301.08:-1.0:300.0:-1
ipc-2014-agile-tetris-040.pddl,TIMEOUT:301.1:-1.0:300.0:-1
ipc-2014-agile-thoughtful-bootstrap-typed-01.pddl,CRASHED:0.143977:1000000000.0:300.0:-1
ipc-2014-agile-thoughtful-bootstrap-typed-02.pddl,CRASHED:0.134979:1000000000.0:300.0:-1
ipc-2014-agile-thoughtful-bootstrap-typed-03.pddl,CRASHED:0.132979:1000000000.0:300.0:-1
ipc-2014-agile-thoughtful-bootstrap-typed-04.pddl,CRASHED:0.134979:1000000000.0:300.0:-1
ipc-2014-agile-thoughtful-bootstrap-typed-05.pddl,CRASHED:0.133978:1000000000.0:300.0:-1
ipc-2014-agile-thoughtful-p11_6_53-typed.pddl,CRASHED:0.170973:1000000000.0:300.0:-1
ipc-2014-agile-thoughtful-p11_6_59-typed.pddl,CRASHED:0.137978:1000000000.0:300.0:-1
ipc-2014-agile-thoughtful-p11_6_62-typed.pddl,CRASHED:0.160975:1000000000.0:300.0:-1
ipc-2014-agile-thoughtful-p13_7_78-typed.pddl,CRASHED:0.168974:1000000000.0:300.0:-1
ipc-2014-agile-thoughtful-p13_7_79-typed.pddl,CRASHED:0.150977:1000000000.0:300.0:-1
ipc-2014-agile-thoughtful-p13_7_86-typed.pddl,CRASHED:0.164974:1000000000.0:300.0:-1
ipc-2014-agile-thoughtful-target-typed-20.pddl,CRASHED:0.141977:1000000000.0:300.0:-1
ipc-2014-agile-thoughtful-target-typed-21.pddl,CRASHED:0.163974:1000000000.0:300.0:-1
ipc-2014-agile-thoughtful-target-typed-22.pddl,CRASHED:0.141978:1000000000.0:300.0:-1
ipc-2014-agile-thoughtful-target-typed-23.pddl,CRASHED:0.164974:1000000000.0:300.0:-1
ipc-2014-agile-thoughtful-target-typed-24.pddl,CRASHED:0.153976:1000000000.0:300.0:-1
ipc-2014-agile-thoughtful-target-typed-25.pddl,CRASHED:0.164973:1000000000.0:300.0:-1
ipc-2014-agile-thoughtful-target-typed-26.pddl,CRASHED:0.161974:1000000000.0:300.0:-1
ipc-2014-agile-thoughtful-target-typed-27.pddl,CRASHED:0.148977:1000000000.0:300.0:-1
ipc-2014-agile-thoughtful-target-typed-28.pddl,CRASHED:0.163974:1000000000.0:300.0:-1
ipc-2014-agile-transport-01.pddl,SAT:34.5997:2645.0:300.0:-1
ipc-2014-agile-transport-02.pddl,SAT:117.627:5812.0:300.0:-1
ipc-2014-agile-transport-03.pddl,SAT:73.6098:3977.0:300.0:-1
ipc-2014-agile-transport-04.pddl,TIMEOUT:301.03:-1.0:300.0:-1
ipc-2014-agile-transport-05.pddl,TIMEOUT:301.05:-1.0:300.0:-1
ipc-2014-agile-transport-06.pddl,TIMEOUT:301.06:-1.0:300.0:-1
ipc-2014-agile-transport-07.pddl,TIMEOUT:301.07:-1.0:300.0:-1
ipc-2014-agile-transport-08.pddl,TIMEOUT:301.05:-1.0:300.0:-1
ipc-2014-agile-transport-09.pddl,TIMEOUT:301.03:-1.0:300.0:-1
ipc-2014-agile-transport-10.pddl,TIMEOUT:301.09:-1.0:300.0:-1
ipc-2014-agile-transport-11.pddl,SAT:167.143:4431.0:300.0:-1
ipc-2014-agile-transport-12.pddl,SAT:112.753:4163.0:300.0:-1
ipc-2014-agile-transport-13.pddl,SAT:38.1832:3498.0:300.0:-1
ipc-2014-agile-transport-14.pddl,TIMEOUT:301.02:-1.0:300.0:-1
ipc-2014-agile-transport-15.pddl,TIMEOUT:301.06:-1.0:300.0:-1
ipc-2014-agile-transport-16.pddl,SAT:289.233:13253.0:300.0:-1
ipc-2014-agile-transport-17.pddl,TIMEOUT:301.05:-1.0:300.0:-1
ipc-2014-agile-transport-18.pddl,TIMEOUT:301.05:-1.0:300.0:-1
ipc-2014-agile-transport-19.pddl,SAT:289.094:10463.0:300.0:-1
ipc-2014-agile-transport-20.pddl,TIMEOUT:301.07:-1.0:300.0:-1
ipc-2014-agile-visitall-30.pddl,SAT:9.47656:1250.0:300.0:-1
ipc-2014-agile-visitall-31.pddl,SAT:17.9143:1442.0:300.0:-1
ipc-2014-agile-visitall-32.pddl,SAT:16.9744:1408.0:300.0:-1
ipc-2014-agile-visitall-33.pddl,SAT:20.6749:1571.0:300.0:-1
ipc-2014-agile-visitall-50.pddl,SAT:122.347:3501.0:300.0:-1
ipc-2014-agile-visitall-51.pddl,SAT:141.672:3471.0:300.0:-1
ipc-2014-agile-visitall-52.pddl,SAT:140.034:3747.0:300.0:-1
ipc-2014-agile-visitall-53.pddl,SAT:169.083:3752.0:300.0:-1
ipc-2014-agile-visitall-54.pddl,SAT:166.884:4118.0:300.0:-1
ipc-2014-agile-visitall-55.pddl,SAT:195.319:4255.0:300.0:-1
ipc-2014-agile-visitall-56.pddl,SAT:259.56:4375.0:300.0:-1
ipc-2014-agile-visitall-57.pddl,SAT:219.237:4465.0:300.0:-1
ipc-2014-agile-visitall-58.pddl,TIMEOUT:301.06:-1.0:300.0:-1
ipc-2014-agile-visitall-59.pddl,SAT:277.663:4943.0:300.0:-1
ipc-2014-agile-visitall-60.pddl,SAT:270.126:4921.0:300.0:-1
ipc-2014-agile-visitall-61.pddl,TIMEOUT:301.02:-1.0:300.0:-1
ipc-2014-agile-visitall-62.pddl,TIMEOUT:301.09:-1.0:300.0:-1
ipc-2014-agile-visitall-63.pddl,TIMEOUT:301.05:-1.0:300.0:-1
ipc-2014-agile-visitall-64.pddl,TIMEOUT:301.02:-1.0:300.0:-1
ipc-2014-agile-visitall-65.pddl,TIMEOUT:301.06:-1.0:300.0:-1
