instance,ipc-2014-optimal-symba-2
ipc-2014-optimal-barman-p433.1.pddl,TIMEOUT:1801.1:-1.0:1800.0:-1
ipc-2014-optimal-barman-p433.2.pddl,TIMEOUT:1801.15:-1.0:1800.0:-1
ipc-2014-optimal-barman-p433.3.pddl,TIMEOUT:1801.12:-1.0:1800.0:-1
ipc-2014-optimal-barman-p435.1.pddl,SAT:32.3001:49.0:1800.0:-1
ipc-2014-optimal-barman-p435.2.pddl,CRASHED:49.4525:1000000000.0:1800.0:-1
ipc-2014-optimal-barman-p435.3.pddl,SAT:51.7431:49.0:1800.0:-1
ipc-2014-optimal-barman-p443.1.pddl,TIMEOUT:1801.07:-1.0:1800.0:-1
ipc-2014-optimal-barman-p443.2.pddl,TIMEOUT:1801.16:-1.0:1800.0:-1
ipc-2014-optimal-barman-p443.3.pddl,TIMEOUT:1801.12:-1.0:1800.0:-1
ipc-2014-optimal-barman-p536.1.pddl,CRASHED:46.5589:1000000000.0:1800.0:-1
ipc-2014-optimal-barman-p536.2.pddl,CRASHED:49.9334:1000000000.0:1800.0:-1
ipc-2014-optimal-barman-p536.3.pddl,TIMEOUT:1801.02:-1.0:1800.0:-1
ipc-2014-optimal-barman-p638.1.pddl,TIMEOUT:1801.03:-1.0:1800.0:-1
ipc-2014-optimal-barman-p638.2.pddl,TIMEOUT:1801.09:-1.0:1800.0:-1
ipc-2014-optimal-barman-p638.3.pddl,TIMEOUT:1801.08:-1.0:1800.0:-1
ipc-2014-optimal-barman-p739.1.pddl,TIMEOUT:1801.04:-1.0:1800.0:-1
ipc-2014-optimal-barman-p739.2.pddl,TIMEOUT:1801.04:-1.0:1800.0:-1
ipc-2014-optimal-barman-p739.3.pddl,CRASHED:119.005:1000000000.0:1800.0:-1
ipc-2014-optimal-barman-p839.1.pddl,TIMEOUT:1801.05:-1.0:1800.0:-1
ipc-2014-optimal-barman-p839.2.pddl,TIMEOUT:1801.06:-1.0:1800.0:-1
ipc-2014-optimal-cavediving-01.pddl,TIMEOUT:1801.15:-1.0:1800.0:-1
ipc-2014-optimal-cavediving-01_easy.pddl,TIMEOUT:1801.11:-1.0:1800.0:-1
ipc-2014-optimal-cavediving-02_easy.pddl,TIMEOUT:1801.14:-1.0:1800.0:-1
ipc-2014-optimal-cavediving-03_easy.pddl,TIMEOUT:1801.18:-1.0:1800.0:-1
ipc-2014-optimal-cavediving-04_easy.pddl,TIMEOUT:1801.15:-1.0:1800.0:-1
ipc-2014-optimal-cavediving-05A_easy.pddl,TIMEOUT:1801.11:-1.0:1800.0:-1
ipc-2014-optimal-cavediving-06A_easy.pddl,TIMEOUT:1801.09:-1.0:1800.0:-1
ipc-2014-optimal-cavediving-07_easy.pddl,SAT:4.16637:131.0:1800.0:-1
ipc-2014-optimal-cavediving-08_easy.pddl,TIMEOUT:1801.13:-1.0:1800.0:-1
ipc-2014-optimal-cavediving-09_easy.pddl,TIMEOUT:1801.1:-1.0:1800.0:-1
ipc-2014-optimal-cavediving-10_easy.pddl,TIMEOUT:1801.05:-1.0:1800.0:-1
ipc-2014-optimal-cavediving-11_easy.pddl,TIMEOUT:1801.17:-1.0:1800.0:-1
ipc-2014-optimal-cavediving-12_easy.pddl,TIMEOUT:1801.17:-1.0:1800.0:-1
ipc-2014-optimal-cavediving-13_easy.pddl,TIMEOUT:1801.13:-1.0:1800.0:-1
ipc-2014-optimal-cavediving-14_easy.pddl,TIMEOUT:1801.16:-1.0:1800.0:-1
ipc-2014-optimal-cavediving-15_easy.pddl,TIMEOUT:1801.16:-1.0:1800.0:-1
ipc-2014-optimal-cavediving-16_easy.pddl,TIMEOUT:1801.18:-1.0:1800.0:-1
ipc-2014-optimal-cavediving-18A_easy.pddl,SAT:4.47232:131.0:1800.0:-1
ipc-2014-optimal-cavediving-18_easy.pddl,SAT:9.98348:131.0:1800.0:-1
ipc-2014-optimal-cavediving-20A_easy.pddl,TIMEOUT:1801.09:-1.0:1800.0:-1
ipc-2014-optimal-childsnack-01-2.pddl,TIMEOUT:1801.01:-1.0:1800.0:-1
ipc-2014-optimal-childsnack-01.pddl,TIMEOUT:1801.06:-1.0:1800.0:-1
ipc-2014-optimal-childsnack-02-2.pddl,CRASHED:42.3946:1000000000.0:1800.0:-1
ipc-2014-optimal-childsnack-02.pddl,CRASHED:39.481:1000000000.0:1800.0:-1
ipc-2014-optimal-childsnack-03-2.pddl,TIMEOUT:1801.07:-1.0:1800.0:-1
ipc-2014-optimal-childsnack-03.pddl,TIMEOUT:1801.09:-1.0:1800.0:-1
ipc-2014-optimal-childsnack-04-2.pddl,CRASHED:83.8892:1000000000.0:1800.0:-1
ipc-2014-optimal-childsnack-04.pddl,TIMEOUT:1801.0:-1.0:1800.0:-1
ipc-2014-optimal-childsnack-05-2.pddl,CRASHED:16.7055:1000000000.0:1800.0:-1
ipc-2014-optimal-childsnack-05.pddl,TIMEOUT:1801.05:-1.0:1800.0:-1
ipc-2014-optimal-childsnack-06-2.pddl,TIMEOUT:1801.01:-1.0:1800.0:-1
ipc-2014-optimal-childsnack-06.pddl,TIMEOUT:1801.04:-1.0:1800.0:-1
ipc-2014-optimal-childsnack-07-2.pddl,TIMEOUT:1801.05:-1.0:1800.0:-1
ipc-2014-optimal-childsnack-07.pddl,TIMEOUT:1801.05:-1.0:1800.0:-1
ipc-2014-optimal-childsnack-08-2.pddl,CRASHED:87.1188:1000000000.0:1800.0:-1
ipc-2014-optimal-childsnack-08.pddl,TIMEOUT:1801.11:-1.0:1800.0:-1
ipc-2014-optimal-childsnack-09-2.pddl,CRASHED:10.5934:1000000000.0:1800.0:-1
ipc-2014-optimal-childsnack-09.pddl,TIMEOUT:1801.05:-1.0:1800.0:-1
ipc-2014-optimal-childsnack-10-2.pddl,TIMEOUT:1801.09:-1.0:1800.0:-1
ipc-2014-optimal-childsnack-10.pddl,CRASHED:38.3672:1000000000.0:1800.0:-1
ipc-2014-optimal-citycar-p2-2-2-1-2.pddl,SAT:2.56561:46.0:1800.0:-1
ipc-2014-optimal-citycar-p2-2-2-2-1.pddl,SAT:3.15652:64.0:1800.0:-1
ipc-2014-optimal-citycar-p2-2-3-1-2.pddl,SAT:5.41618:50.0:1800.0:-1
ipc-2014-optimal-citycar-p2-2-3-2-1.pddl,SAT:4.41833:48.0:1800.0:-1
ipc-2014-optimal-citycar-p2-2-3-2-2.pddl,SAT:4.52331:50.0:1800.0:-1
ipc-2014-optimal-citycar-p2-2-4-1-2.pddl,SAT:11.5412:52.0:1800.0:-1
ipc-2014-optimal-citycar-p2-2-4-2-1.pddl,SAT:9.78151:52.0:1800.0:-1
ipc-2014-optimal-citycar-p2-2-5-2-2.pddl,SAT:165.214:76.0:1800.0:-1
ipc-2014-optimal-citycar-p2-2-6-1-1.pddl,TIMEOUT:1801.04:-1.0:1800.0:-1
ipc-2014-optimal-citycar-p2-2-6-2-2.pddl,SAT:155.36:58.0:1800.0:-1
ipc-2014-optimal-citycar-p2-3-2-3-1.pddl,SAT:9.80151:68.0:1800.0:-1
ipc-2014-optimal-citycar-p2-3-3-3-1.pddl,SAT:43.6984:78.0:1800.0:-1
ipc-2014-optimal-citycar-p2-3-4-3-1.pddl,CRASHED:176.502:1000000000.0:1800.0:-1
ipc-2014-optimal-citycar-p2-3-6-3-2.pddl,TIMEOUT:1801.07:-1.0:1800.0:-1
ipc-2014-optimal-citycar-p3-3-2-2-1.pddl,SAT:113.082:70.0:1800.0:-1
ipc-2014-optimal-citycar-p3-3-2-2-2.pddl,CRASHED:174.184:1000000000.0:1800.0:-1
ipc-2014-optimal-citycar-p3-3-2-3-1.pddl,SAT:46.4269:48.0:1800.0:-1
ipc-2014-optimal-citycar-p3-3-2-3-2.pddl,SAT:101.692:70.0:1800.0:-1
ipc-2014-optimal-citycar-p3-3-3-3-1.pddl,TIMEOUT:1801.04:-1.0:1800.0:-1
ipc-2014-optimal-citycar-p3-3-3-3-2.pddl,TIMEOUT:1801.09:-1.0:1800.0:-1
ipc-2014-optimal-floortile-p01-4-3-2.pddl,SAT:1.72674:56.0:1800.0:-1
ipc-2014-optimal-floortile-p01-4-4-2.pddl,SAT:5.59415:68.0:1800.0:-1
ipc-2014-optimal-floortile-p01-5-3-2.pddl,SAT:2.28665:63.0:1800.0:-1
ipc-2014-optimal-floortile-p01-5-4-2.pddl,SAT:11.2463:91.0:1800.0:-1
ipc-2014-optimal-floortile-p01-5-5-2.pddl,SAT:60.9987:111.0:1800.0:-1
ipc-2014-optimal-floortile-p01-6-4-2.pddl,SAT:23.5754:104.0:1800.0:-1
ipc-2014-optimal-floortile-p01-6-5-2.pddl,TIMEOUT:1801.09:-1.0:1800.0:-1
ipc-2014-optimal-floortile-p02-4-4-2.pddl,SAT:5.8931:75.0:1800.0:-1
ipc-2014-optimal-floortile-p02-5-3-2.pddl,SAT:2.38664:65.0:1800.0:-1
ipc-2014-optimal-floortile-p02-5-4-2.pddl,SAT:12.0692:98.0:1800.0:-1
ipc-2014-optimal-floortile-p02-5-5-2.pddl,SAT:59.307:106.0:1800.0:-1
ipc-2014-optimal-floortile-p02-6-4-2.pddl,SAT:24.6633:109.0:1800.0:-1
ipc-2014-optimal-floortile-p02-6-5-2.pddl,TIMEOUT:1801.11:-1.0:1800.0:-1
ipc-2014-optimal-floortile-p03-4-3-2.pddl,SAT:1.73074:56.0:1800.0:-1
ipc-2014-optimal-floortile-p03-4-4-2.pddl,SAT:6.12807:72.0:1800.0:-1
ipc-2014-optimal-floortile-p03-5-3-2.pddl,SAT:2.42763:65.0:1800.0:-1
ipc-2014-optimal-floortile-p03-5-4-2.pddl,SAT:11.3703:83.0:1800.0:-1
ipc-2014-optimal-floortile-p03-5-5-2.pddl,SAT:60.6528:100.0:1800.0:-1
ipc-2014-optimal-floortile-p03-6-4-2.pddl,SAT:27.1009:116.0:1800.0:-1
ipc-2014-optimal-floortile-p03-6-5-2.pddl,TIMEOUT:1801.07:-1.0:1800.0:-1
ipc-2014-optimal-ged-d-1-2.pddl,SAT:0.942855:1.0:1800.0:-1
ipc-2014-optimal-ged-d-1-3.pddl,SAT:2.69659:4.0:1800.0:-1
ipc-2014-optimal-ged-d-1-4.pddl,SAT:0.985849:1.0:1800.0:-1
ipc-2014-optimal-ged-d-1-8.pddl,SAT:4.51331:4.0:1800.0:-1
ipc-2014-optimal-ged-d-2-1.pddl,SAT:1.11683:1.0:1800.0:-1
ipc-2014-optimal-ged-d-2-3.pddl,SAT:1.46378:3.0:1800.0:-1
ipc-2014-optimal-ged-d-2-4.pddl,SAT:1.3298:2.0:1800.0:-1
ipc-2014-optimal-ged-d-2-8.pddl,CRASHED:52.933:1000000000.0:1800.0:-1
ipc-2014-optimal-ged-d-3-1.pddl,SAT:2.6366:4.0:1800.0:-1
ipc-2014-optimal-ged-d-3-2.pddl,SAT:1.52777:3.0:1800.0:-1
ipc-2014-optimal-ged-d-3-4.pddl,SAT:10.5634:5.0:1800.0:-1
ipc-2014-optimal-ged-d-4-2.pddl,SAT:1.21881:2.0:1800.0:-1
ipc-2014-optimal-ged-d-4-3.pddl,SAT:10.8014:5.0:1800.0:-1
ipc-2014-optimal-ged-d-4-8.pddl,TIMEOUT:1801.06:-1.0:1800.0:-1
ipc-2014-optimal-ged-d-7-5.pddl,SAT:4.49132:4.0:1800.0:-1
ipc-2014-optimal-ged-d-7-6.pddl,SAT:3.17052:4.0:1800.0:-1
ipc-2014-optimal-ged-d-8-1.pddl,SAT:4.75727:4.0:1800.0:-1
ipc-2014-optimal-ged-d-8-2.pddl,TIMEOUT:1801.09:-1.0:1800.0:-1
ipc-2014-optimal-ged-d-8-4.pddl,TIMEOUT:1801.04:-1.0:1800.0:-1
ipc-2014-optimal-ged-d-8-9.pddl,TIMEOUT:1801.03:-1.0:1800.0:-1
ipc-2014-optimal-hiking-1-2-3.pddl,SAT:0.635902:11.0:1800.0:-1
ipc-2014-optimal-hiking-1-2-4.pddl,SAT:0.859868:17.0:1800.0:-1
ipc-2014-optimal-hiking-1-2-5.pddl,SAT:0.909861:25.0:1800.0:-1
ipc-2014-optimal-hiking-1-2-7.pddl,SAT:1.3368:38.0:1800.0:-1
ipc-2014-optimal-hiking-1-2-8.pddl,SAT:1.82272:45.0:1800.0:-1
ipc-2014-optimal-hiking-2-2-3.pddl,SAT:1.25081:10.0:1800.0:-1
ipc-2014-optimal-hiking-2-2-4.pddl,SAT:2.6146:16.0:1800.0:-1
ipc-2014-optimal-hiking-2-2-5.pddl,SAT:16.6665:22.0:1800.0:-1
ipc-2014-optimal-hiking-2-2-6.pddl,SAT:105.581:30.0:1800.0:-1
ipc-2014-optimal-hiking-2-2-7.pddl,CRASHED:244.816:1000000000.0:1800.0:-1
ipc-2014-optimal-hiking-2-2-8.pddl,TIMEOUT:1801.09:-1.0:1800.0:-1
ipc-2014-optimal-hiking-2-3-4.pddl,SAT:6.32104:17.0:1800.0:-1
ipc-2014-optimal-hiking-2-3-5.pddl,SAT:103.767:24.0:1800.0:-1
ipc-2014-optimal-hiking-2-3-6.pddl,CRASHED:199.534:1000000000.0:1800.0:-1
ipc-2014-optimal-hiking-2-3-7.pddl,TIMEOUT:1801.01:-1.0:1800.0:-1
ipc-2014-optimal-hiking-2-4-3.pddl,SAT:1.71574:10.0:1800.0:-1
ipc-2014-optimal-hiking-2-4-4.pddl,SAT:7.83081:17.0:1800.0:-1
ipc-2014-optimal-hiking-2-4-5.pddl,SAT:142.515:23.0:1800.0:-1
ipc-2014-optimal-hiking-2-4-6.pddl,CRASHED:126.114:1000000000.0:1800.0:-1
ipc-2014-optimal-hiking-2-4-7.pddl,TIMEOUT:1801.01:-1.0:1800.0:-1
ipc-2014-optimal-maintenance-1.3.010.010.1-001.pddl,TIMEOUT:1801.13:-1.0:1800.0:-1
ipc-2014-optimal-maintenance-1.3.010.010.1-002.pddl,TIMEOUT:1801.09:-1.0:1800.0:-1
ipc-2014-optimal-maintenance-1.3.010.010.2-000.pddl,SAT:0.799878:4.0:1800.0:-1
ipc-2014-optimal-maintenance-1.3.010.010.2-001.pddl,TIMEOUT:1801.09:-1.0:1800.0:-1
ipc-2014-optimal-maintenance-1.3.010.010.2-002.pddl,SAT:0.816875:6.0:1800.0:-1
ipc-2014-optimal-maintenance-1.3.015.020.1-000.pddl,TIMEOUT:1801.15:-1.0:1800.0:-1
ipc-2014-optimal-maintenance-1.3.015.020.1-001.pddl,TIMEOUT:1801.1:-1.0:1800.0:-1
ipc-2014-optimal-maintenance-1.3.015.020.1-002.pddl,TIMEOUT:1801.12:-1.0:1800.0:-1
ipc-2014-optimal-maintenance-1.3.015.020.2-000.pddl,CRASHED:1.37879:1000000000.0:1800.0:-1
ipc-2014-optimal-maintenance-1.3.015.020.2-001.pddl,SAT:1.42478:11.0:1800.0:-1
ipc-2014-optimal-maintenance-1.3.015.020.2-002.pddl,SAT:1.23281:9.0:1800.0:-1
ipc-2014-optimal-maintenance-1.3.025.050.1-000.pddl,TIMEOUT:1801.16:-1.0:1800.0:-1
ipc-2014-optimal-maintenance-1.3.025.050.1-001.pddl,TIMEOUT:1801.1:-1.0:1800.0:-1
ipc-2014-optimal-maintenance-1.3.025.050.1-002.pddl,TIMEOUT:1801.1:-1.0:1800.0:-1
ipc-2014-optimal-maintenance-1.3.025.100.1-000.pddl,TIMEOUT:1801.11:-1.0:1800.0:-1
ipc-2014-optimal-maintenance-1.3.025.100.1-001.pddl,TIMEOUT:1801.12:-1.0:1800.0:-1
ipc-2014-optimal-maintenance-1.3.025.100.1-002.pddl,TIMEOUT:1801.09:-1.0:1800.0:-1
ipc-2014-optimal-maintenance-1.3.025.100.2-000.pddl,TIMEOUT:1801.12:-1.0:1800.0:-1
ipc-2014-optimal-maintenance-1.3.025.100.2-001.pddl,TIMEOUT:1801.13:-1.0:1800.0:-1
ipc-2014-optimal-maintenance-1.3.025.100.2-002.pddl,TIMEOUT:1801.12:-1.0:1800.0:-1
ipc-2014-optimal-openstacks-p20_1.pddl,SAT:2.28665:3.0:1800.0:-1
ipc-2014-optimal-openstacks-p20_2.pddl,SAT:2.45163:4.0:1800.0:-1
ipc-2014-optimal-openstacks-p20_3.pddl,SAT:2.6046:6.0:1800.0:-1
ipc-2014-optimal-openstacks-p25_1.pddl,SAT:4.14437:4.0:1800.0:-1
ipc-2014-optimal-openstacks-p25_3.pddl,SAT:4.85926:9.0:1800.0:-1
ipc-2014-optimal-openstacks-p30_1.pddl,SAT:5.58315:4.0:1800.0:-1
ipc-2014-optimal-openstacks-p30_2.pddl,SAT:6.32004:4.0:1800.0:-1
ipc-2014-optimal-openstacks-p30_3.pddl,SAT:13.5109:12.0:1800.0:-1
ipc-2014-optimal-openstacks-p35_1.pddl,SAT:8.76567:4.0:1800.0:-1
ipc-2014-optimal-openstacks-p35_2.pddl,SAT:11.0833:5.0:1800.0:-1
ipc-2014-optimal-openstacks-p35_3.pddl,SAT:53.7268:14.0:1800.0:-1
ipc-2014-optimal-openstacks-p40_1.pddl,SAT:17.0554:3.0:1800.0:-1
ipc-2014-optimal-openstacks-p40_2.pddl,SAT:18.0013:4.0:1800.0:-1
ipc-2014-optimal-openstacks-p40_3.pddl,SAT:92.6079:15.0:1800.0:-1
ipc-2014-optimal-openstacks-p45_1.pddl,SAT:23.1475:4.0:1800.0:-1
ipc-2014-optimal-openstacks-p45_2.pddl,SAT:28.6716:5.0:1800.0:-1
ipc-2014-optimal-openstacks-p45_3.pddl,TIMEOUT:1801.01:-1.0:1800.0:-1
ipc-2014-optimal-openstacks-p50_1.pddl,SAT:37.2793:4.0:1800.0:-1
ipc-2014-optimal-openstacks-p50_2.pddl,SAT:51.6351:5.0:1800.0:-1
ipc-2014-optimal-openstacks-p50_3.pddl,TIMEOUT:1801.02:-1.0:1800.0:-1
ipc-2014-optimal-parking-12_7-01.pddl,CRASHED:174.42:1000000000.0:1800.0:-1
ipc-2014-optimal-parking-12_7-02.pddl,TIMEOUT:1801.05:-1.0:1800.0:-1
ipc-2014-optimal-parking-12_7-03.pddl,TIMEOUT:1801.05:-1.0:1800.0:-1
ipc-2014-optimal-parking-12_7-04.pddl,CRASHED:212.358:1000000000.0:1800.0:-1
ipc-2014-optimal-parking-14_8-01.pddl,TIMEOUT:1801.05:-1.0:1800.0:-1
ipc-2014-optimal-parking-14_8-02.pddl,CRASHED:255.338:1000000000.0:1800.0:-1
ipc-2014-optimal-parking-14_8-03.pddl,TIMEOUT:1801.1:-1.0:1800.0:-1
ipc-2014-optimal-parking-14_8-04.pddl,TIMEOUT:1801.09:-1.0:1800.0:-1
ipc-2014-optimal-parking-16_9-01.pddl,TIMEOUT:1801.03:-1.0:1800.0:-1
ipc-2014-optimal-parking-16_9-02.pddl,TIMEOUT:1801.06:-1.0:1800.0:-1
ipc-2014-optimal-parking-16_9-03.pddl,CRASHED:583.548:1000000000.0:1800.0:-1
ipc-2014-optimal-parking-16_9-04.pddl,TIMEOUT:1801.08:-1.0:1800.0:-1
ipc-2014-optimal-parking-18_10-01.pddl,CRASHED:308.748:1000000000.0:1800.0:-1
ipc-2014-optimal-parking-18_10-02.pddl,CRASHED:357.622:1000000000.0:1800.0:-1
ipc-2014-optimal-parking-18_10-03.pddl,TIMEOUT:1801.05:-1.0:1800.0:-1
ipc-2014-optimal-parking-18_10-04.pddl,TIMEOUT:1801.05:-1.0:1800.0:-1
ipc-2014-optimal-parking-20_11-01.pddl,CRASHED:708.884:1000000000.0:1800.0:-1
ipc-2014-optimal-parking-20_11-02.pddl,TIMEOUT:1801.03:-1.0:1800.0:-1
ipc-2014-optimal-parking-20_11-03.pddl,TIMEOUT:1801.02:-1.0:1800.0:-1
ipc-2014-optimal-parking-20_11-04.pddl,CRASHED:756.033:1000000000.0:1800.0:-1
ipc-2014-optimal-tetris-01-10.pddl,CRASHED:97.8991:1000000000.0:1800.0:-1
ipc-2014-optimal-tetris-01-04.pddl,CRASHED:8.74467:1000000000.0:1800.0:-1
ipc-2014-optimal-tetris-01-06.pddl,CRASHED:69.3935:1000000000.0:1800.0:-1
ipc-2014-optimal-tetris-01-08.pddl,SAT:19.59:36.0:1800.0:-1
ipc-2014-optimal-tetris-02-10.pddl,TIMEOUT:1801.08:-1.0:1800.0:-1
ipc-2014-optimal-tetris-02-04.pddl,SAT:3.60245:10.0:1800.0:-1
ipc-2014-optimal-tetris-02-06.pddl,SAT:28.4677:30.0:1800.0:-1
ipc-2014-optimal-tetris-02-08.pddl,CRASHED:71.2272:1000000000.0:1800.0:-1
ipc-2014-optimal-tetris-03-10.pddl,TIMEOUT:1801.02:-1.0:1800.0:-1
ipc-2014-optimal-tetris-03-04.pddl,SAT:2.87156:11.0:1800.0:-1
ipc-2014-optimal-tetris-03-06.pddl,TIMEOUT:1801.05:-1.0:1800.0:-1
ipc-2014-optimal-tetris-03-08.pddl,SAT:149.02:48.0:1800.0:-1
ipc-2014-optimal-tetris-04-10.pddl,TIMEOUT:1801.03:-1.0:1800.0:-1
ipc-2014-optimal-tetris-04-04.pddl,CRASHED:5.83011:1000000000.0:1800.0:-1
ipc-2014-optimal-tetris-04-06.pddl,TIMEOUT:1801.05:-1.0:1800.0:-1
ipc-2014-optimal-tetris-04-08.pddl,TIMEOUT:1801.0:-1.0:1800.0:-1
ipc-2014-optimal-tetris-05-10.pddl,CRASHED:167.787:1000000000.0:1800.0:-1
ipc-2014-optimal-tetris-05-04.pddl,CRASHED:5.81312:1000000000.0:1800.0:-1
ipc-2014-optimal-tetris-05-06.pddl,SAT:11.5612:19.0:1800.0:-1
ipc-2014-optimal-tetris-05-08.pddl,CRASHED:123.223:1000000000.0:1800.0:-1
ipc-2014-optimal-tidybot-01.pddl,TIMEOUT:1801.04:-1.0:1800.0:-1
ipc-2014-optimal-tidybot-02.pddl,CRASHED:165.722:1000000000.0:1800.0:-1
ipc-2014-optimal-tidybot-03.pddl,SAT:120.928:30.0:1800.0:-1
ipc-2014-optimal-tidybot-04.pddl,CRASHED:136.925:1000000000.0:1800.0:-1
ipc-2014-optimal-tidybot-05.pddl,CRASHED:172.131:1000000000.0:1800.0:-1
ipc-2014-optimal-tidybot-06.pddl,TIMEOUT:1801.1:-1.0:1800.0:-1
ipc-2014-optimal-tidybot-07.pddl,TIMEOUT:1801.08:-1.0:1800.0:-1
ipc-2014-optimal-tidybot-08.pddl,TIMEOUT:1801.02:-1.0:1800.0:-1
ipc-2014-optimal-tidybot-09.pddl,TIMEOUT:1801.07:-1.0:1800.0:-1
ipc-2014-optimal-tidybot-10.pddl,TIMEOUT:1801.01:-1.0:1800.0:-1
ipc-2014-optimal-tidybot-11.pddl,CRASHED:117.48:1000000000.0:1800.0:-1
ipc-2014-optimal-tidybot-12.pddl,TIMEOUT:1801.07:-1.0:1800.0:-1
ipc-2014-optimal-tidybot-13.pddl,TIMEOUT:1801.04:-1.0:1800.0:-1
ipc-2014-optimal-tidybot-14.pddl,TIMEOUT:1801.03:-1.0:1800.0:-1
ipc-2014-optimal-tidybot-15.pddl,TIMEOUT:1801.1:-1.0:1800.0:-1
ipc-2014-optimal-tidybot-16.pddl,CRASHED:184.142:1000000000.0:1800.0:-1
ipc-2014-optimal-tidybot-17.pddl,SAT:188.272:40.0:1800.0:-1
ipc-2014-optimal-tidybot-18.pddl,CRASHED:196.545:1000000000.0:1800.0:-1
ipc-2014-optimal-tidybot-19.pddl,CRASHED:198.282:1000000000.0:1800.0:-1
ipc-2014-optimal-tidybot-20.pddl,SAT:145.335:46.0:1800.0:-1
ipc-2014-optimal-transport-01.pddl,SAT:1.2948:148.0:1800.0:-1
ipc-2014-optimal-transport-02.pddl,SAT:10.5724:191.0:1800.0:-1
ipc-2014-optimal-transport-03.pddl,SAT:29.8525:300.0:1800.0:-1
ipc-2014-optimal-transport-04.pddl,SAT:555.133:250.0:1800.0:-1
ipc-2014-optimal-transport-05.pddl,TIMEOUT:1801.06:-1.0:1800.0:-1
ipc-2014-optimal-transport-06.pddl,TIMEOUT:1801.08:-1.0:1800.0:-1
ipc-2014-optimal-transport-07.pddl,SAT:33.9098:967.0:1800.0:-1
ipc-2014-optimal-transport-08.pddl,TIMEOUT:1801.08:-1.0:1800.0:-1
ipc-2014-optimal-transport-09.pddl,TIMEOUT:1801.08:-1.0:1800.0:-1
ipc-2014-optimal-transport-10.pddl,TIMEOUT:1801.0:-1.0:1800.0:-1
ipc-2014-optimal-transport-11.pddl,TIMEOUT:1801.03:-1.0:1800.0:-1
ipc-2014-optimal-transport-12.pddl,CRASHED:682.274:1000000000.0:1800.0:-1
ipc-2014-optimal-transport-13.pddl,SAT:9.25259:594.0:1800.0:-1
ipc-2014-optimal-transport-14.pddl,SAT:175.673:526.0:1800.0:-1
ipc-2014-optimal-transport-15.pddl,TIMEOUT:1801.05:-1.0:1800.0:-1
ipc-2014-optimal-transport-16.pddl,TIMEOUT:1801.06:-1.0:1800.0:-1
ipc-2014-optimal-transport-17.pddl,TIMEOUT:1801.02:-1.0:1800.0:-1
ipc-2014-optimal-transport-18.pddl,CRASHED:1160.14:1000000000.0:1800.0:-1
ipc-2014-optimal-transport-19.pddl,TIMEOUT:1801.08:-1.0:1800.0:-1
ipc-2014-optimal-transport-20.pddl,CRASHED:1041.09:1000000000.0:1800.0:-1
ipc-2014-optimal-visitall-05-10.pddl,TIMEOUT:1801.09:-1.0:1800.0:-1
ipc-2014-optimal-visitall-05-05.pddl,SAT:1.09383:21.0:1800.0:-1
ipc-2014-optimal-visitall-05-06.pddl,SAT:1.39379:25.0:1800.0:-1
ipc-2014-optimal-visitall-05-07.pddl,SAT:3.9454:34.0:1800.0:-1
ipc-2014-optimal-visitall-05-08.pddl,SAT:36.5504:43.0:1800.0:-1
ipc-2014-optimal-visitall-05-09.pddl,TIMEOUT:1801.05:-1.0:1800.0:-1
ipc-2014-optimal-visitall-01-10.pddl,TIMEOUT:1801.0:-1.0:1800.0:-1
ipc-2014-optimal-visitall-01-11.pddl,CRASHED:87.8566:1000000000.0:1800.0:-1
ipc-2014-optimal-visitall-01-12.pddl,TIMEOUT:1801.02:-1.0:1800.0:-1
ipc-2014-optimal-visitall-01-13.pddl,TIMEOUT:1801.01:-1.0:1800.0:-1
ipc-2014-optimal-visitall-01-14.pddl,CRASHED:75.9415:1000000000.0:1800.0:-1
ipc-2014-optimal-visitall-01-15.pddl,TIMEOUT:1801.06:-1.0:1800.0:-1
ipc-2014-optimal-visitall-01-16.pddl,TIMEOUT:1801.01:-1.0:1800.0:-1
ipc-2014-optimal-visitall-01-17.pddl,TIMEOUT:1801.0:-1.0:1800.0:-1
ipc-2014-optimal-visitall-01-18.pddl,TIMEOUT:1801.06:-1.0:1800.0:-1
ipc-2014-optimal-visitall-01-05.pddl,SAT:2.27165:24.0:1800.0:-1
ipc-2014-optimal-visitall-01-06.pddl,TIMEOUT:1801.05:-1.0:1800.0:-1
ipc-2014-optimal-visitall-01-07.pddl,TIMEOUT:1801.02:-1.0:1800.0:-1
ipc-2014-optimal-visitall-01-08.pddl,CRASHED:43.8263:1000000000.0:1800.0:-1
ipc-2014-optimal-visitall-01-09.pddl,TIMEOUT:1801.03:-1.0:1800.0:-1
