94
45
14
81
72
32
29
97
70
62
80
39
4
76
44
26
36
30
21
54
73
56
99
42
28
7
96
1
66
71
90
92
25
27
22
83
38
5
86
11
58
69
89
88
17
98
74
63
75
67
0
41
46
40
8
50
35
43
87
47
15
78
13
68
65
52
6
2
9
60
100
18
59
85
20
55
77
37
51
91
34
61
19
49
23
31
82
48
84
12
57
93
53
64
95
16
3
79
33
10
24
