instance,ipc-2014-optimal-symba-2
ipc-2014-optimal-barman-p433.1.pddl,TIMEOUT:1801.09:-1.0:1800.0:-1
ipc-2014-optimal-barman-p433.2.pddl,TIMEOUT:1801.15:-1.0:1800.0:-1
ipc-2014-optimal-barman-p433.3.pddl,TIMEOUT:1801.09:-1.0:1800.0:-1
ipc-2014-optimal-barman-p435.1.pddl,SAT:29.3335:49.0:1800.0:-1
ipc-2014-optimal-barman-p435.2.pddl,TIMEOUT:1801.05:-1.0:1800.0:-1
ipc-2014-optimal-barman-p435.3.pddl,SAT:36.8504:49.0:1800.0:-1
ipc-2014-optimal-barman-p443.1.pddl,TIMEOUT:1801.09:-1.0:1800.0:-1
ipc-2014-optimal-barman-p443.2.pddl,TIMEOUT:1801.07:-1.0:1800.0:-1
ipc-2014-optimal-barman-p443.3.pddl,TIMEOUT:1801.11:-1.0:1800.0:-1
ipc-2014-optimal-barman-p536.1.pddl,TIMEOUT:1801.06:-1.0:1800.0:-1
ipc-2014-optimal-barman-p536.2.pddl,TIMEOUT:1801.0:-1.0:1800.0:-1
ipc-2014-optimal-barman-p536.3.pddl,CRASHED:75.6015:1000000000.0:1800.0:-1
ipc-2014-optimal-barman-p638.1.pddl,TIMEOUT:1801.03:-1.0:1800.0:-1
ipc-2014-optimal-barman-p638.2.pddl,TIMEOUT:1801.04:-1.0:1800.0:-1
ipc-2014-optimal-barman-p638.3.pddl,CRASHED:32.2991:1000000000.0:1800.0:-1
ipc-2014-optimal-barman-p739.1.pddl,TIMEOUT:1801.09:-1.0:1800.0:-1
ipc-2014-optimal-barman-p739.2.pddl,CRASHED:38.9061:1000000000.0:1800.0:-1
ipc-2014-optimal-barman-p739.3.pddl,TIMEOUT:1801.03:-1.0:1800.0:-1
ipc-2014-optimal-barman-p839.1.pddl,CRASHED:34.7477:1000000000.0:1800.0:-1
ipc-2014-optimal-barman-p839.2.pddl,CRASHED:102.033:1000000000.0:1800.0:-1
ipc-2014-optimal-cavediving-01.pddl,TIMEOUT:1801.17:-1.0:1800.0:-1
ipc-2014-optimal-cavediving-01_easy.pddl,TIMEOUT:1801.14:-1.0:1800.0:-1
ipc-2014-optimal-cavediving-02_easy.pddl,TIMEOUT:1801.12:-1.0:1800.0:-1
ipc-2014-optimal-cavediving-03_easy.pddl,TIMEOUT:1801.12:-1.0:1800.0:-1
ipc-2014-optimal-cavediving-04_easy.pddl,TIMEOUT:1801.13:-1.0:1800.0:-1
ipc-2014-optimal-cavediving-05A_easy.pddl,TIMEOUT:1801.1:-1.0:1800.0:-1
ipc-2014-optimal-cavediving-06A_easy.pddl,TIMEOUT:1801.15:-1.0:1800.0:-1
ipc-2014-optimal-cavediving-07_easy.pddl,SAT:3.91041:131.0:1800.0:-1
ipc-2014-optimal-cavediving-08_easy.pddl,TIMEOUT:1801.12:-1.0:1800.0:-1
ipc-2014-optimal-cavediving-09_easy.pddl,TIMEOUT:1801.07:-1.0:1800.0:-1
ipc-2014-optimal-cavediving-10_easy.pddl,TIMEOUT:1801.13:-1.0:1800.0:-1
ipc-2014-optimal-cavediving-11_easy.pddl,TIMEOUT:1801.11:-1.0:1800.0:-1
ipc-2014-optimal-cavediving-12_easy.pddl,TIMEOUT:1801.12:-1.0:1800.0:-1
ipc-2014-optimal-cavediving-13_easy.pddl,TIMEOUT:1801.14:-1.0:1800.0:-1
ipc-2014-optimal-cavediving-14_easy.pddl,TIMEOUT:1801.09:-1.0:1800.0:-1
ipc-2014-optimal-cavediving-15_easy.pddl,TIMEOUT:1801.07:-1.0:1800.0:-1
ipc-2014-optimal-cavediving-16_easy.pddl,TIMEOUT:1801.15:-1.0:1800.0:-1
ipc-2014-optimal-cavediving-18A_easy.pddl,SAT:4.53131:131.0:1800.0:-1
ipc-2014-optimal-cavediving-18_easy.pddl,SAT:9.8285:131.0:1800.0:-1
ipc-2014-optimal-cavediving-20A_easy.pddl,TIMEOUT:1801.11:-1.0:1800.0:-1
ipc-2014-optimal-childsnack-01-2.pddl,CRASHED:33.4419:1000000000.0:1800.0:-1
ipc-2014-optimal-childsnack-01.pddl,TIMEOUT:1801.04:-1.0:1800.0:-1
ipc-2014-optimal-childsnack-02-2.pddl,TIMEOUT:1801.06:-1.0:1800.0:-1
ipc-2014-optimal-childsnack-02.pddl,CRASHED:49.5545:1000000000.0:1800.0:-1
ipc-2014-optimal-childsnack-03-2.pddl,TIMEOUT:1801.04:-1.0:1800.0:-1
ipc-2014-optimal-childsnack-03.pddl,TIMEOUT:1801.0:-1.0:1800.0:-1
ipc-2014-optimal-childsnack-04-2.pddl,TIMEOUT:1801.05:-1.0:1800.0:-1
ipc-2014-optimal-childsnack-04.pddl,TIMEOUT:1801.04:-1.0:1800.0:-1
ipc-2014-optimal-childsnack-05-2.pddl,TIMEOUT:1801.06:-1.0:1800.0:-1
ipc-2014-optimal-childsnack-05.pddl,CRASHED:17.5053:1000000000.0:1800.0:-1
ipc-2014-optimal-childsnack-06-2.pddl,CRASHED:79.6149:1000000000.0:1800.0:-1
ipc-2014-optimal-childsnack-06.pddl,TIMEOUT:1801.02:-1.0:1800.0:-1
ipc-2014-optimal-childsnack-07-2.pddl,CRASHED:79.2729:1000000000.0:1800.0:-1
ipc-2014-optimal-childsnack-07.pddl,TIMEOUT:1801.02:-1.0:1800.0:-1
ipc-2014-optimal-childsnack-08-2.pddl,TIMEOUT:1801.1:-1.0:1800.0:-1
ipc-2014-optimal-childsnack-08.pddl,CRASHED:88.9875:1000000000.0:1800.0:-1
ipc-2014-optimal-childsnack-09-2.pddl,TIMEOUT:1801.09:-1.0:1800.0:-1
ipc-2014-optimal-childsnack-09.pddl,TIMEOUT:1801.07:-1.0:1800.0:-1
ipc-2014-optimal-childsnack-10-2.pddl,CRASHED:53.8508:1000000000.0:1800.0:-1
ipc-2014-optimal-childsnack-10.pddl,TIMEOUT:1801.06:-1.0:1800.0:-1
ipc-2014-optimal-citycar-p2-2-2-1-2.pddl,SAT:3.07953:46.0:1800.0:-1
ipc-2014-optimal-citycar-p2-2-2-2-1.pddl,SAT:3.47447:64.0:1800.0:-1
ipc-2014-optimal-citycar-p2-2-3-1-2.pddl,SAT:5.47117:50.0:1800.0:-1
ipc-2014-optimal-citycar-p2-2-3-2-1.pddl,SAT:4.70628:48.0:1800.0:-1
ipc-2014-optimal-citycar-p2-2-3-2-2.pddl,SAT:4.83326:50.0:1800.0:-1
ipc-2014-optimal-citycar-p2-2-4-1-2.pddl,SAT:12.6761:52.0:1800.0:-1
ipc-2014-optimal-citycar-p2-2-4-2-1.pddl,SAT:10.7394:52.0:1800.0:-1
ipc-2014-optimal-citycar-p2-2-5-2-2.pddl,SAT:181.976:76.0:1800.0:-1
ipc-2014-optimal-citycar-p2-2-6-1-1.pddl,TIMEOUT:1801.07:-1.0:1800.0:-1
ipc-2014-optimal-citycar-p2-2-6-2-2.pddl,SAT:179.291:58.0:1800.0:-1
ipc-2014-optimal-citycar-p2-3-2-3-1.pddl,SAT:10.1245:68.0:1800.0:-1
ipc-2014-optimal-citycar-p2-3-3-3-1.pddl,SAT:44.9712:78.0:1800.0:-1
ipc-2014-optimal-citycar-p2-3-4-3-1.pddl,TIMEOUT:1801.08:-1.0:1800.0:-1
ipc-2014-optimal-citycar-p2-3-6-3-2.pddl,TIMEOUT:1801.11:-1.0:1800.0:-1
ipc-2014-optimal-citycar-p3-3-2-2-1.pddl,SAT:110.602:70.0:1800.0:-1
ipc-2014-optimal-citycar-p3-3-2-2-2.pddl,TIMEOUT:1801.03:-1.0:1800.0:-1
ipc-2014-optimal-citycar-p3-3-2-3-1.pddl,SAT:51.2472:48.0:1800.0:-1
ipc-2014-optimal-citycar-p3-3-2-3-2.pddl,SAT:86.0779:70.0:1800.0:-1
ipc-2014-optimal-citycar-p3-3-3-3-1.pddl,TIMEOUT:1801.01:-1.0:1800.0:-1
ipc-2014-optimal-citycar-p3-3-3-3-2.pddl,TIMEOUT:1801.1:-1.0:1800.0:-1
ipc-2014-optimal-floortile-p01-4-3-2.pddl,SAT:1.86372:56.0:1800.0:-1
ipc-2014-optimal-floortile-p01-4-4-2.pddl,SAT:6.39603:68.0:1800.0:-1
ipc-2014-optimal-floortile-p01-5-3-2.pddl,SAT:2.51762:63.0:1800.0:-1
ipc-2014-optimal-floortile-p01-5-4-2.pddl,SAT:12.944:91.0:1800.0:-1
ipc-2014-optimal-floortile-p01-5-5-2.pddl,SAT:71.3671:111.0:1800.0:-1
ipc-2014-optimal-floortile-p01-6-4-2.pddl,SAT:27.5028:104.0:1800.0:-1
ipc-2014-optimal-floortile-p01-6-5-2.pddl,TIMEOUT:1801.05:-1.0:1800.0:-1
ipc-2014-optimal-floortile-p02-4-4-2.pddl,SAT:7.03193:75.0:1800.0:-1
ipc-2014-optimal-floortile-p02-5-3-2.pddl,SAT:2.74758:65.0:1800.0:-1
ipc-2014-optimal-floortile-p02-5-4-2.pddl,SAT:12.3701:98.0:1800.0:-1
ipc-2014-optimal-floortile-p02-5-5-2.pddl,SAT:60.9457:106.0:1800.0:-1
ipc-2014-optimal-floortile-p02-6-4-2.pddl,SAT:25.3361:109.0:1800.0:-1
ipc-2014-optimal-floortile-p02-6-5-2.pddl,TIMEOUT:1801.01:-1.0:1800.0:-1
ipc-2014-optimal-floortile-p03-4-3-2.pddl,SAT:1.65575:56.0:1800.0:-1
ipc-2014-optimal-floortile-p03-4-4-2.pddl,SAT:5.9291:72.0:1800.0:-1
ipc-2014-optimal-floortile-p03-5-3-2.pddl,SAT:2.48562:65.0:1800.0:-1
ipc-2014-optimal-floortile-p03-5-4-2.pddl,SAT:10.6334:83.0:1800.0:-1
ipc-2014-optimal-floortile-p03-5-5-2.pddl,SAT:58.5231:100.0:1800.0:-1
ipc-2014-optimal-floortile-p03-6-4-2.pddl,SAT:26.377:116.0:1800.0:-1
ipc-2014-optimal-floortile-p03-6-5-2.pddl,TIMEOUT:1801.02:-1.0:1800.0:-1
ipc-2014-optimal-ged-d-1-2.pddl,SAT:0.996847:1.0:1800.0:-1
ipc-2014-optimal-ged-d-1-3.pddl,SAT:2.6006:4.0:1800.0:-1
ipc-2014-optimal-ged-d-1-4.pddl,SAT:1.14083:1.0:1800.0:-1
ipc-2014-optimal-ged-d-1-8.pddl,SAT:4.71028:4.0:1800.0:-1
ipc-2014-optimal-ged-d-2-1.pddl,SAT:1.11683:1.0:1800.0:-1
ipc-2014-optimal-ged-d-2-3.pddl,SAT:1.55576:3.0:1800.0:-1
ipc-2014-optimal-ged-d-2-4.pddl,SAT:1.23181:2.0:1800.0:-1
ipc-2014-optimal-ged-d-2-8.pddl,TIMEOUT:1801.01:-1.0:1800.0:-1
ipc-2014-optimal-ged-d-3-1.pddl,SAT:2.6486:4.0:1800.0:-1
ipc-2014-optimal-ged-d-3-2.pddl,SAT:1.61475:3.0:1800.0:-1
ipc-2014-optimal-ged-d-3-4.pddl,SAT:10.7704:5.0:1800.0:-1
ipc-2014-optimal-ged-d-4-2.pddl,SAT:1.16882:2.0:1800.0:-1
ipc-2014-optimal-ged-d-4-3.pddl,SAT:11.1063:5.0:1800.0:-1
ipc-2014-optimal-ged-d-4-8.pddl,CRASHED:54.5467:1000000000.0:1800.0:-1
ipc-2014-optimal-ged-d-7-5.pddl,SAT:4.6173:4.0:1800.0:-1
ipc-2014-optimal-ged-d-7-6.pddl,SAT:3.09753:4.0:1800.0:-1
ipc-2014-optimal-ged-d-8-1.pddl,SAT:4.70428:4.0:1800.0:-1
ipc-2014-optimal-ged-d-8-2.pddl,TIMEOUT:1801.05:-1.0:1800.0:-1
ipc-2014-optimal-ged-d-8-4.pddl,TIMEOUT:1801.08:-1.0:1800.0:-1
ipc-2014-optimal-ged-d-8-9.pddl,CRASHED:51.3192:1000000000.0:1800.0:-1
ipc-2014-optimal-hiking-1-2-3.pddl,SAT:0.640902:11.0:1800.0:-1
ipc-2014-optimal-hiking-1-2-4.pddl,SAT:0.684895:17.0:1800.0:-1
ipc-2014-optimal-hiking-1-2-5.pddl,SAT:0.837871:25.0:1800.0:-1
ipc-2014-optimal-hiking-1-2-7.pddl,SAT:1.40479:38.0:1800.0:-1
ipc-2014-optimal-hiking-1-2-8.pddl,SAT:1.65075:45.0:1800.0:-1
ipc-2014-optimal-hiking-2-2-3.pddl,SAT:1.11583:10.0:1800.0:-1
ipc-2014-optimal-hiking-2-2-4.pddl,SAT:2.58561:16.0:1800.0:-1
ipc-2014-optimal-hiking-2-2-5.pddl,SAT:17.5793:22.0:1800.0:-1
ipc-2014-optimal-hiking-2-2-6.pddl,SAT:112.201:30.0:1800.0:-1
ipc-2014-optimal-hiking-2-2-7.pddl,TIMEOUT:1801.04:-1.0:1800.0:-1
ipc-2014-optimal-hiking-2-2-8.pddl,TIMEOUT:1801.06:-1.0:1800.0:-1
ipc-2014-optimal-hiking-2-3-4.pddl,SAT:6.37303:17.0:1800.0:-1
ipc-2014-optimal-hiking-2-3-5.pddl,SAT:105.846:24.0:1800.0:-1
ipc-2014-optimal-hiking-2-3-6.pddl,TIMEOUT:1801.04:-1.0:1800.0:-1
ipc-2014-optimal-hiking-2-3-7.pddl,TIMEOUT:1801.08:-1.0:1800.0:-1
ipc-2014-optimal-hiking-2-4-3.pddl,SAT:1.84272:10.0:1800.0:-1
ipc-2014-optimal-hiking-2-4-4.pddl,SAT:6.91595:17.0:1800.0:-1
ipc-2014-optimal-hiking-2-4-5.pddl,SAT:129.99:23.0:1800.0:-1
ipc-2014-optimal-hiking-2-4-6.pddl,CRASHED:111.508:1000000000.0:1800.0:-1
ipc-2014-optimal-hiking-2-4-7.pddl,TIMEOUT:1801.02:-1.0:1800.0:-1
ipc-2014-optimal-maintenance-1.3.010.010.1-001.pddl,TIMEOUT:1801.15:-1.0:1800.0:-1
ipc-2014-optimal-maintenance-1.3.010.010.1-002.pddl,TIMEOUT:1801.13:-1.0:1800.0:-1
ipc-2014-optimal-maintenance-1.3.010.010.2-000.pddl,SAT:0.739887:4.0:1800.0:-1
ipc-2014-optimal-maintenance-1.3.010.010.2-001.pddl,TIMEOUT:1801.1:-1.0:1800.0:-1
ipc-2014-optimal-maintenance-1.3.010.010.2-002.pddl,SAT:0.813876:6.0:1800.0:-1
ipc-2014-optimal-maintenance-1.3.015.020.1-000.pddl,TIMEOUT:1801.14:-1.0:1800.0:-1
ipc-2014-optimal-maintenance-1.3.015.020.1-001.pddl,TIMEOUT:1801.09:-1.0:1800.0:-1
ipc-2014-optimal-maintenance-1.3.015.020.1-002.pddl,TIMEOUT:1801.06:-1.0:1800.0:-1
ipc-2014-optimal-maintenance-1.3.015.020.2-000.pddl,CRASHED:1.38379:1000000000.0:1800.0:-1
ipc-2014-optimal-maintenance-1.3.015.020.2-001.pddl,SAT:1.19582:11.0:1800.0:-1
ipc-2014-optimal-maintenance-1.3.015.020.2-002.pddl,SAT:1.11083:9.0:1800.0:-1
ipc-2014-optimal-maintenance-1.3.025.050.1-000.pddl,TIMEOUT:1801.11:-1.0:1800.0:-1
ipc-2014-optimal-maintenance-1.3.025.050.1-001.pddl,TIMEOUT:1801.07:-1.0:1800.0:-1
ipc-2014-optimal-maintenance-1.3.025.050.1-002.pddl,TIMEOUT:1801.14:-1.0:1800.0:-1
ipc-2014-optimal-maintenance-1.3.025.100.1-000.pddl,TIMEOUT:1801.12:-1.0:1800.0:-1
ipc-2014-optimal-maintenance-1.3.025.100.1-001.pddl,TIMEOUT:1801.15:-1.0:1800.0:-1
ipc-2014-optimal-maintenance-1.3.025.100.1-002.pddl,TIMEOUT:1801.16:-1.0:1800.0:-1
ipc-2014-optimal-maintenance-1.3.025.100.2-000.pddl,TIMEOUT:1801.1:-1.0:1800.0:-1
ipc-2014-optimal-maintenance-1.3.025.100.2-001.pddl,TIMEOUT:1801.08:-1.0:1800.0:-1
ipc-2014-optimal-maintenance-1.3.025.100.2-002.pddl,TIMEOUT:1801.15:-1.0:1800.0:-1
ipc-2014-optimal-openstacks-p20_1.pddl,SAT:2.67859:3.0:1800.0:-1
ipc-2014-optimal-openstacks-p20_2.pddl,SAT:2.75258:4.0:1800.0:-1
ipc-2014-optimal-openstacks-p20_3.pddl,SAT:2.81157:6.0:1800.0:-1
ipc-2014-optimal-openstacks-p25_1.pddl,SAT:4.49332:4.0:1800.0:-1
ipc-2014-optimal-openstacks-p25_3.pddl,SAT:5.45817:9.0:1800.0:-1
ipc-2014-optimal-openstacks-p30_1.pddl,SAT:6.47202:4.0:1800.0:-1
ipc-2014-optimal-openstacks-p30_2.pddl,SAT:7.26989:4.0:1800.0:-1
ipc-2014-optimal-openstacks-p30_3.pddl,SAT:15.1087:12.0:1800.0:-1
ipc-2014-optimal-openstacks-p35_1.pddl,SAT:10.2984:4.0:1800.0:-1
ipc-2014-optimal-openstacks-p35_2.pddl,SAT:13.292:5.0:1800.0:-1
ipc-2014-optimal-openstacks-p35_3.pddl,SAT:55.6105:14.0:1800.0:-1
ipc-2014-optimal-openstacks-p40_1.pddl,SAT:17.6023:3.0:1800.0:-1
ipc-2014-optimal-openstacks-p40_2.pddl,SAT:18.5672:4.0:1800.0:-1
ipc-2014-optimal-openstacks-p40_3.pddl,SAT:106.128:15.0:1800.0:-1
ipc-2014-optimal-openstacks-p45_1.pddl,SAT:26.069:4.0:1800.0:-1
ipc-2014-optimal-openstacks-p45_2.pddl,SAT:40.9338:5.0:1800.0:-1
ipc-2014-optimal-openstacks-p45_3.pddl,TIMEOUT:1801.01:-1.0:1800.0:-1
ipc-2014-optimal-openstacks-p50_1.pddl,SAT:43.8683:4.0:1800.0:-1
ipc-2014-optimal-openstacks-p50_2.pddl,SAT:60.6598:5.0:1800.0:-1
ipc-2014-optimal-openstacks-p50_3.pddl,TIMEOUT:1801.01:-1.0:1800.0:-1
ipc-2014-optimal-parking-12_7-01.pddl,TIMEOUT:1801.07:-1.0:1800.0:-1
ipc-2014-optimal-parking-12_7-02.pddl,CRASHED:198.056:1000000000.0:1800.0:-1
ipc-2014-optimal-parking-12_7-03.pddl,TIMEOUT:1801.1:-1.0:1800.0:-1
ipc-2014-optimal-parking-12_7-04.pddl,TIMEOUT:1801.05:-1.0:1800.0:-1
ipc-2014-optimal-parking-14_8-01.pddl,TIMEOUT:1801.1:-1.0:1800.0:-1
ipc-2014-optimal-parking-14_8-02.pddl,TIMEOUT:1801.03:-1.0:1800.0:-1
ipc-2014-optimal-parking-14_8-03.pddl,TIMEOUT:1801.02:-1.0:1800.0:-1
ipc-2014-optimal-parking-14_8-04.pddl,TIMEOUT:1801.07:-1.0:1800.0:-1
ipc-2014-optimal-parking-16_9-01.pddl,TIMEOUT:1801.07:-1.0:1800.0:-1
ipc-2014-optimal-parking-16_9-02.pddl,CRASHED:702.835:1000000000.0:1800.0:-1
ipc-2014-optimal-parking-16_9-03.pddl,TIMEOUT:1801.01:-1.0:1800.0:-1
ipc-2014-optimal-parking-16_9-04.pddl,TIMEOUT:1801.03:-1.0:1800.0:-1
ipc-2014-optimal-parking-18_10-01.pddl,CRASHED:310.615:1000000000.0:1800.0:-1
ipc-2014-optimal-parking-18_10-02.pddl,CRASHED:341.025:1000000000.0:1800.0:-1
ipc-2014-optimal-parking-18_10-03.pddl,TIMEOUT:1801.03:-1.0:1800.0:-1
ipc-2014-optimal-parking-18_10-04.pddl,TIMEOUT:1801.01:-1.0:1800.0:-1
ipc-2014-optimal-parking-20_11-01.pddl,TIMEOUT:1801.01:-1.0:1800.0:-1
ipc-2014-optimal-parking-20_11-02.pddl,TIMEOUT:1801.01:-1.0:1800.0:-1
ipc-2014-optimal-parking-20_11-03.pddl,CRASHED:588.306:1000000000.0:1800.0:-1
ipc-2014-optimal-parking-20_11-04.pddl,CRASHED:582.847:1000000000.0:1800.0:-1
ipc-2014-optimal-tetris-01-10.pddl,CRASHED:86.0429:1000000000.0:1800.0:-1
ipc-2014-optimal-tetris-01-04.pddl,CRASHED:8.97163:1000000000.0:1800.0:-1
ipc-2014-optimal-tetris-01-06.pddl,TIMEOUT:1801.03:-1.0:1800.0:-1
ipc-2014-optimal-tetris-01-08.pddl,SAT:20.1739:36.0:1800.0:-1
ipc-2014-optimal-tetris-02-10.pddl,CRASHED:93.7468:1000000000.0:1800.0:-1
ipc-2014-optimal-tetris-02-04.pddl,SAT:3.75743:10.0:1800.0:-1
ipc-2014-optimal-tetris-02-06.pddl,SAT:29.0156:30.0:1800.0:-1
ipc-2014-optimal-tetris-02-08.pddl,TIMEOUT:1801.05:-1.0:1800.0:-1
ipc-2014-optimal-tetris-03-10.pddl,TIMEOUT:1801.02:-1.0:1800.0:-1
ipc-2014-optimal-tetris-03-04.pddl,SAT:3.00454:11.0:1800.0:-1
ipc-2014-optimal-tetris-03-06.pddl,TIMEOUT:1801.08:-1.0:1800.0:-1
ipc-2014-optimal-tetris-03-08.pddl,SAT:152.974:48.0:1800.0:-1
ipc-2014-optimal-tetris-04-10.pddl,CRASHED:160.793:1000000000.0:1800.0:-1
ipc-2014-optimal-tetris-04-04.pddl,CRASHED:5.8761:1000000000.0:1800.0:-1
ipc-2014-optimal-tetris-04-06.pddl,TIMEOUT:1801.01:-1.0:1800.0:-1
ipc-2014-optimal-tetris-04-08.pddl,CRASHED:92.6489:1000000000.0:1800.0:-1
ipc-2014-optimal-tetris-05-10.pddl,CRASHED:176.583:1000000000.0:1800.0:-1
ipc-2014-optimal-tetris-05-04.pddl,CRASHED:5.95509:1000000000.0:1800.0:-1
ipc-2014-optimal-tetris-05-06.pddl,SAT:11.9282:19.0:1800.0:-1
ipc-2014-optimal-tetris-05-08.pddl,TIMEOUT:1801.08:-1.0:1800.0:-1
ipc-2014-optimal-tidybot-01.pddl,TIMEOUT:1801.08:-1.0:1800.0:-1
ipc-2014-optimal-tidybot-02.pddl,TIMEOUT:1801.03:-1.0:1800.0:-1
ipc-2014-optimal-tidybot-03.pddl,SAT:144.567:30.0:1800.0:-1
ipc-2014-optimal-tidybot-04.pddl,TIMEOUT:1801.02:-1.0:1800.0:-1
ipc-2014-optimal-tidybot-05.pddl,TIMEOUT:1801.0:-1.0:1800.0:-1
ipc-2014-optimal-tidybot-06.pddl,CRASHED:257.662:1000000000.0:1800.0:-1
ipc-2014-optimal-tidybot-07.pddl,CRASHED:220.576:1000000000.0:1800.0:-1
ipc-2014-optimal-tidybot-08.pddl,TIMEOUT:1801.06:-1.0:1800.0:-1
ipc-2014-optimal-tidybot-09.pddl,CRASHED:276.757:1000000000.0:1800.0:-1
ipc-2014-optimal-tidybot-10.pddl,TIMEOUT:1801.08:-1.0:1800.0:-1
ipc-2014-optimal-tidybot-11.pddl,TIMEOUT:1801.06:-1.0:1800.0:-1
ipc-2014-optimal-tidybot-12.pddl,TIMEOUT:1801.01:-1.0:1800.0:-1
ipc-2014-optimal-tidybot-13.pddl,TIMEOUT:1801.06:-1.0:1800.0:-1
ipc-2014-optimal-tidybot-14.pddl,TIMEOUT:1801.03:-1.0:1800.0:-1
ipc-2014-optimal-tidybot-15.pddl,CRASHED:171.375:1000000000.0:1800.0:-1
ipc-2014-optimal-tidybot-16.pddl,CRASHED:162.936:1000000000.0:1800.0:-1
ipc-2014-optimal-tidybot-17.pddl,SAT:178.26:40.0:1800.0:-1
ipc-2014-optimal-tidybot-18.pddl,CRASHED:187.257:1000000000.0:1800.0:-1
ipc-2014-optimal-tidybot-19.pddl,TIMEOUT:1801.07:-1.0:1800.0:-1
ipc-2014-optimal-tidybot-20.pddl,SAT:163.971:46.0:1800.0:-1
ipc-2014-optimal-transport-01.pddl,SAT:1.3308:148.0:1800.0:-1
ipc-2014-optimal-transport-02.pddl,SAT:9.66353:191.0:1800.0:-1
ipc-2014-optimal-transport-03.pddl,SAT:25.4431:300.0:1800.0:-1
ipc-2014-optimal-transport-04.pddl,SAT:488.119:250.0:1800.0:-1
ipc-2014-optimal-transport-05.pddl,CRASHED:372.838:1000000000.0:1800.0:-1
ipc-2014-optimal-transport-06.pddl,TIMEOUT:1801.09:-1.0:1800.0:-1
ipc-2014-optimal-transport-07.pddl,SAT:31.6482:967.0:1800.0:-1
ipc-2014-optimal-transport-08.pddl,SAT:1674.41:1173.0:1800.0:-1
ipc-2014-optimal-transport-09.pddl,CRASHED:741.267:1000000000.0:1800.0:-1
ipc-2014-optimal-transport-10.pddl,TIMEOUT:1801.01:-1.0:1800.0:-1
ipc-2014-optimal-transport-11.pddl,TIMEOUT:1801.03:-1.0:1800.0:-1
ipc-2014-optimal-transport-12.pddl,TIMEOUT:1801.03:-1.0:1800.0:-1
ipc-2014-optimal-transport-13.pddl,SAT:8.21875:594.0:1800.0:-1
ipc-2014-optimal-transport-14.pddl,SAT:143.304:526.0:1800.0:-1
ipc-2014-optimal-transport-15.pddl,TIMEOUT:1801.09:-1.0:1800.0:-1
ipc-2014-optimal-transport-16.pddl,TIMEOUT:1801.07:-1.0:1800.0:-1
ipc-2014-optimal-transport-17.pddl,TIMEOUT:1801.01:-1.0:1800.0:-1
ipc-2014-optimal-transport-18.pddl,TIMEOUT:1801.06:-1.0:1800.0:-1
ipc-2014-optimal-transport-19.pddl,TIMEOUT:1801.05:-1.0:1800.0:-1
ipc-2014-optimal-transport-20.pddl,CRASHED:967.853:1000000000.0:1800.0:-1
ipc-2014-optimal-visitall-05-10.pddl,CRASHED:25.0682:1000000000.0:1800.0:-1
ipc-2014-optimal-visitall-05-05.pddl,SAT:0.98385:21.0:1800.0:-1
ipc-2014-optimal-visitall-05-06.pddl,SAT:1.35479:25.0:1800.0:-1
ipc-2014-optimal-visitall-05-07.pddl,SAT:4.09738:34.0:1800.0:-1
ipc-2014-optimal-visitall-05-08.pddl,SAT:41.0788:43.0:1800.0:-1
ipc-2014-optimal-visitall-05-09.pddl,TIMEOUT:1801.0:-1.0:1800.0:-1
ipc-2014-optimal-visitall-01-10.pddl,CRASHED:61.4367:1000000000.0:1800.0:-1
ipc-2014-optimal-visitall-01-11.pddl,CRASHED:79.7389:1000000000.0:1800.0:-1
ipc-2014-optimal-visitall-01-12.pddl,CRASHED:87.7617:1000000000.0:1800.0:-1
ipc-2014-optimal-visitall-01-13.pddl,CRASHED:106.903:1000000000.0:1800.0:-1
ipc-2014-optimal-visitall-01-14.pddl,CRASHED:104.415:1000000000.0:1800.0:-1
ipc-2014-optimal-visitall-01-15.pddl,CRASHED:51.2402:1000000000.0:1800.0:-1
ipc-2014-optimal-visitall-01-16.pddl,TIMEOUT:1801.04:-1.0:1800.0:-1
ipc-2014-optimal-visitall-01-17.pddl,TIMEOUT:1801.08:-1.0:1800.0:-1
ipc-2014-optimal-visitall-01-18.pddl,CRASHED:122.031:1000000000.0:1800.0:-1
ipc-2014-optimal-visitall-01-05.pddl,SAT:2.13767:24.0:1800.0:-1
ipc-2014-optimal-visitall-01-06.pddl,TIMEOUT:1801.01:-1.0:1800.0:-1
ipc-2014-optimal-visitall-01-07.pddl,TIMEOUT:1801.09:-1.0:1800.0:-1
ipc-2014-optimal-visitall-01-08.pddl,CRASHED:39.151:1000000000.0:1800.0:-1
ipc-2014-optimal-visitall-01-09.pddl,CRASHED:74.9936:1000000000.0:1800.0:-1
