instance,ipc-2014-agile-bfs-f
ipc-2014-agile-barman-p1-11-4-15.pddl,SAT:36.1315:183.0:300.0:-1
ipc-2014-agile-barman-p1-11-5-15.pddl,SAT:41.6647:185.0:300.0:-1
ipc-2014-agile-barman-p1-11-5-16.pddl,SAT:1.42978:154.0:300.0:-1
ipc-2014-agile-barman-p2-10-4-13.pddl,SAT:2.40763:144.0:300.0:-1
ipc-2014-agile-barman-p2-11-4-15.pddl,SAT:2.80557:165.0:300.0:-1
ipc-2014-agile-barman-p2-11-5-15.pddl,SAT:1.09183:153.0:300.0:-1
ipc-2014-agile-barman-p2-11-5-16.pddl,SAT:4.6253:173.0:300.0:-1
ipc-2014-agile-barman-p2-11-5-17.pddl,SAT:18.5012:203.0:300.0:-1
ipc-2014-agile-barman-p3-10-4-13.pddl,SAT:1.56376:141.0:300.0:-1
ipc-2014-agile-barman-p3-11-4-15.pddl,SAT:2.02769:166.0:300.0:-1
ipc-2014-agile-barman-p3-11-5-15.pddl,SAT:7.04193:178.0:300.0:-1
ipc-2014-agile-barman-p3-11-5-16.pddl,SAT:1.58576:168.0:300.0:-1
ipc-2014-agile-barman-p3-11-5-17.pddl,SAT:5.79212:175.0:300.0:-1
ipc-2014-agile-barman-p4-11-4-14.pddl,SAT:3.04154:161.0:300.0:-1
ipc-2014-agile-barman-p4-11-4-15.pddl,SAT:6.15306:159.0:300.0:-1
ipc-2014-agile-barman-p4-11-5-15.pddl,SAT:4.68829:156.0:300.0:-1
ipc-2014-agile-barman-p5-10-4-13.pddl,SAT:1.69474:142.0:300.0:-1
ipc-2014-agile-barman-p5-11-4-15.pddl,SAT:5.37418:176.0:300.0:-1
ipc-2014-agile-barman-p5-11-5-15.pddl,SAT:7.83981:157.0:300.0:-1
ipc-2014-agile-barman-p5-11-5-16.pddl,SAT:3.83442:160.0:300.0:-1
ipc-2014-agile-cavediving-01_easy.pddl,TIMEOUT:301.169:-1.0:300.0:-1
ipc-2014-agile-cavediving-01.pddl,TIMEOUT:301.147:-1.0:300.0:-1
ipc-2014-agile-cavediving-02_easy.pddl,TIMEOUT:301.134:-1.0:300.0:-1
ipc-2014-agile-cavediving-03_easy.pddl,TIMEOUT:301.165:-1.0:300.0:-1
ipc-2014-agile-cavediving-04_easy.pddl,TIMEOUT:301.194:-1.0:300.0:-1
ipc-2014-agile-cavediving-05A_easy.pddl,SAT:0.303952:94.0:300.0:-1
ipc-2014-agile-cavediving-06A_easy.pddl,SAT:0.304952:95.0:300.0:-1
ipc-2014-agile-cavediving-07_easy.pddl,SAT:0.528918:131.0:300.0:-1
ipc-2014-agile-cavediving-08_easy.pddl,SAT:0.307952:90.0:300.0:-1
ipc-2014-agile-cavediving-09_easy.pddl,TIMEOUT:301.211:-1.0:300.0:-1
ipc-2014-agile-cavediving-10_easy.pddl,TIMEOUT:301.143:-1.0:300.0:-1
ipc-2014-agile-cavediving-11_easy.pddl,TIMEOUT:301.149:-1.0:300.0:-1
ipc-2014-agile-cavediving-12_easy.pddl,TIMEOUT:301.21:-1.0:300.0:-1
ipc-2014-agile-cavediving-13_easy.pddl,TIMEOUT:301.196:-1.0:300.0:-1
ipc-2014-agile-cavediving-14_easy.pddl,TIMEOUT:301.168:-1.0:300.0:-1
ipc-2014-agile-cavediving-15_easy.pddl,TIMEOUT:301.218:-1.0:300.0:-1
ipc-2014-agile-cavediving-16_easy.pddl,TIMEOUT:301.229:-1.0:300.0:-1
ipc-2014-agile-cavediving-18A_easy.pddl,SAT:0.871867:131.0:300.0:-1
ipc-2014-agile-cavediving-18_easy.pddl,SAT:2.36364:131.0:300.0:-1
ipc-2014-agile-cavediving-20A_easy.pddl,SAT:0.764882:98.0:300.0:-1
ipc-2014-agile-childsnack-05-2.pddl,SAT:32.2041:46.0:300.0:-1
ipc-2014-agile-childsnack-05.pddl,SAT:0.540917:47.0:300.0:-1
ipc-2014-agile-childsnack-06-2.pddl,SAT:55.9415:50.0:300.0:-1
ipc-2014-agile-childsnack-07-2.pddl,SAT:1.59676:57.0:300.0:-1
ipc-2014-agile-childsnack-08-2.pddl,TIMEOUT:301.25:-1.0:300.0:-1
ipc-2014-agile-childsnack-08.pddl,SAT:215.395:61.0:300.0:-1
ipc-2014-agile-childsnack-09-2.pddl,TIMEOUT:301.251:-1.0:300.0:-1
ipc-2014-agile-childsnack-09.pddl,SAT:9.8405:67.0:300.0:-1
ipc-2014-agile-childsnack-10-2.pddl,SAT:8.42172:72.0:300.0:-1
ipc-2014-agile-childsnack-10.pddl,SAT:6.18506:72.0:300.0:-1
ipc-2014-agile-childsnack-11-2.pddl,SAT:8.90464:77.0:300.0:-1
ipc-2014-agile-childsnack-11.pddl,TIMEOUT:301.276:-1.0:300.0:-1
ipc-2014-agile-childsnack-12.pddl,TIMEOUT:301.314:-1.0:300.0:-1
ipc-2014-agile-childsnack-13-2.pddl,TIMEOUT:301.283:-1.0:300.0:-1
ipc-2014-agile-childsnack-13.pddl,TIMEOUT:301.304:-1.0:300.0:-1
ipc-2014-agile-childsnack-14.pddl,TIMEOUT:301.288:-1.0:300.0:-1
ipc-2014-agile-childsnack-15-2.pddl,TIMEOUT:301.286:-1.0:300.0:-1
ipc-2014-agile-childsnack-16-2.pddl,TIMEOUT:301.332:-1.0:300.0:-1
ipc-2014-agile-childsnack-19-2.pddl,TIMEOUT:301.332:-1.0:300.0:-1
ipc-2014-agile-childsnack-19.pddl,TIMEOUT:301.326:-1.0:300.0:-1
ipc-2014-agile-citycar-p3-2-2-0-1.pddl,SAT:1.39079:110.0:300.0:-1
ipc-2014-agile-citycar-p3-3-2-0-1.pddl,SAT:19.3991:285.0:300.0:-1
ipc-2014-agile-citycar-p3-4-2-0-1.pddl,SAT:7.80581:240.0:300.0:-1
ipc-2014-agile-citycar-p3-5-2-0-1.pddl,SAT:9.61354:241.0:300.0:-1
ipc-2014-agile-citycar-p3-5-2-0-2.pddl,SAT:26.7769:273.0:300.0:-1
ipc-2014-agile-citycar-p4-2-2-0-1.pddl,TIMEOUT:301.226:-1.0:300.0:-1
ipc-2014-agile-citycar-p4-2-3-0-1.pddl,TIMEOUT:301.165:-1.0:300.0:-1
ipc-2014-agile-citycar-p4-2-3-0-2.pddl,TIMEOUT:301.178:-1.0:300.0:-1
ipc-2014-agile-citycar-p4-3-2-0-1.pddl,TIMEOUT:301.174:-1.0:300.0:-1
ipc-2014-agile-citycar-p4-3-2-0-2.pddl,TIMEOUT:301.415:-1.0:300.0:-1
ipc-2014-agile-citycar-p4-3-3-0-1.pddl,TIMEOUT:301.41:-1.0:300.0:-1
ipc-2014-agile-citycar-p4-3-3-0-2.pddl,TIMEOUT:301.139:-1.0:300.0:-1
ipc-2014-agile-citycar-p4-4-2-0-1.pddl,TIMEOUT:301.366:-1.0:300.0:-1
ipc-2014-agile-citycar-p4-4-2-0-2.pddl,TIMEOUT:301.159:-1.0:300.0:-1
ipc-2014-agile-citycar-p4-4-3-0-1.pddl,TIMEOUT:301.146:-1.0:300.0:-1
ipc-2014-agile-citycar-p4-4-3-0-2.pddl,TIMEOUT:301.176:-1.0:300.0:-1
ipc-2014-agile-citycar-p4-5-2-0-1.pddl,TIMEOUT:301.379:-1.0:300.0:-1
ipc-2014-agile-citycar-p4-5-2-0-2.pddl,TIMEOUT:301.152:-1.0:300.0:-1
ipc-2014-agile-citycar-p4-5-3-0-1.pddl,TIMEOUT:301.222:-1.0:300.0:-1
ipc-2014-agile-citycar-p4-5-3-0-2.pddl,TIMEOUT:301.217:-1.0:300.0:-1
ipc-2014-agile-floortile-p01-4-3-2.pddl,SAT:2.43663:101.0:300.0:-1
ipc-2014-agile-floortile-p01-5-4-2.pddl,TIMEOUT:301.14:-1.0:300.0:-1
ipc-2014-agile-floortile-p01-5-5-2.pddl,TIMEOUT:301.185:-1.0:300.0:-1
ipc-2014-agile-floortile-p01-6-4-2.pddl,TIMEOUT:301.123:-1.0:300.0:-1
ipc-2014-agile-floortile-p01-6-5-2.pddl,TIMEOUT:301.216:-1.0:300.0:-1
ipc-2014-agile-floortile-p01-6-5-3.pddl,TIMEOUT:301.149:-1.0:300.0:-1
ipc-2014-agile-floortile-p02-5-4-2.pddl,TIMEOUT:301.124:-1.0:300.0:-1
ipc-2014-agile-floortile-p02-6-4-2.pddl,TIMEOUT:301.169:-1.0:300.0:-1
ipc-2014-agile-floortile-p02-6-5-2.pddl,TIMEOUT:301.178:-1.0:300.0:-1
ipc-2014-agile-floortile-p02-6-5-3.pddl,TIMEOUT:301.183:-1.0:300.0:-1
ipc-2014-agile-floortile-p03-6-4-2.pddl,TIMEOUT:301.177:-1.0:300.0:-1
ipc-2014-agile-floortile-p03-6-5-2.pddl,TIMEOUT:301.178:-1.0:300.0:-1
ipc-2014-agile-floortile-p03-6-5-3.pddl,TIMEOUT:301.179:-1.0:300.0:-1
ipc-2014-agile-floortile-p04-5-4-2.pddl,TIMEOUT:301.227:-1.0:300.0:-1
ipc-2014-agile-floortile-p04-5-5-2.pddl,TIMEOUT:301.203:-1.0:300.0:-1
ipc-2014-agile-floortile-p04-6-5-2.pddl,TIMEOUT:301.215:-1.0:300.0:-1
ipc-2014-agile-floortile-p04-6-5-3.pddl,TIMEOUT:301.15:-1.0:300.0:-1
ipc-2014-agile-floortile-p05-4-3-2.pddl,SAT:0.276957:72.0:300.0:-1
ipc-2014-agile-floortile-p05-6-5-2.pddl,TIMEOUT:301.157:-1.0:300.0:-1
ipc-2014-agile-floortile-p05-6-5-3.pddl,TIMEOUT:301.237:-1.0:300.0:-1
ipc-2014-agile-ged-d-10-1.pddl,SAT:5.09322:39.0:300.0:-1
ipc-2014-agile-ged-d-10-2.pddl,SAT:5.14722:40.0:300.0:-1
ipc-2014-agile-ged-d-10-3.pddl,SAT:7.18891:41.0:300.0:-1
ipc-2014-agile-ged-d-10-4.pddl,SAT:3.68444:34.0:300.0:-1
ipc-2014-agile-ged-d-10-5.pddl,TIMEOUT:301.116:-1.0:300.0:-1
ipc-2014-agile-ged-d-10-6.pddl,TIMEOUT:301.09:-1.0:300.0:-1
ipc-2014-agile-ged-d-11-1.pddl,SAT:6.68998:45.0:300.0:-1
ipc-2014-agile-ged-d-11-3.pddl,TIMEOUT:301.151:-1.0:300.0:-1
ipc-2014-agile-ged-d-11-5.pddl,SAT:14.1958:55.0:300.0:-1
ipc-2014-agile-ged-d-11-6.pddl,TIMEOUT:301.076:-1.0:300.0:-1
ipc-2014-agile-ged-d-12-11.pddl,TIMEOUT:301.124:-1.0:300.0:-1
ipc-2014-agile-ged-d-12-2.pddl,TIMEOUT:301.123:-1.0:300.0:-1
ipc-2014-agile-ged-d-12-3.pddl,TIMEOUT:301.059:-1.0:300.0:-1
ipc-2014-agile-ged-d-12-5.pddl,TIMEOUT:301.061:-1.0:300.0:-1
ipc-2014-agile-ged-d-12-6.pddl,TIMEOUT:301.109:-1.0:300.0:-1
ipc-2014-agile-ged-d-12-7.pddl,SAT:29.4845:62.0:300.0:-1
ipc-2014-agile-ged-d-12-8.pddl,TIMEOUT:301.066:-1.0:300.0:-1
ipc-2014-agile-ged-d-12-9.pddl,TIMEOUT:301.116:-1.0:300.0:-1
ipc-2014-agile-ged-d-3-6.pddl,SAT:3.17252:32.0:300.0:-1
ipc-2014-agile-ged-d-9-5.pddl,SAT:244.836:31.0:300.0:-1
ipc-2014-agile-hiking-3-4-3.pddl,SAT:12.1701:17.0:300.0:-1
ipc-2014-agile-hiking-3-4-4.pddl,SAT:41.8736:23.0:300.0:-1
ipc-2014-agile-hiking-3-4-5.pddl,SAT:236.331:45.0:300.0:-1
ipc-2014-agile-hiking-3-4-6.pddl,TIMEOUT:301.06:-1.0:300.0:-1
ipc-2014-agile-hiking-3-4-7.pddl,TIMEOUT:301.055:-1.0:300.0:-1
ipc-2014-agile-hiking-3-4-8.pddl,TIMEOUT:301.06:-1.0:300.0:-1
ipc-2014-agile-hiking-3-4-9.pddl,TIMEOUT:301.119:-1.0:300.0:-1
ipc-2014-agile-hiking-4-5-3.pddl,SAT:156.846:20.0:300.0:-1
ipc-2014-agile-hiking-4-5-4.pddl,TIMEOUT:301.131:-1.0:300.0:-1
ipc-2014-agile-hiking-4-5-5.pddl,TIMEOUT:301.084:-1.0:300.0:-1
ipc-2014-agile-hiking-4-5-6.pddl,TIMEOUT:301.132:-1.0:300.0:-1
ipc-2014-agile-hiking-4-5-7.pddl,TIMEOUT:301.141:-1.0:300.0:-1
ipc-2014-agile-hiking-4-5-8.pddl,TIMEOUT:301.147:-1.0:300.0:-1
ipc-2014-agile-hiking-4-5-9.pddl,TIMEOUT:301.071:-1.0:300.0:-1
ipc-2014-agile-hiking-5-6-3.pddl,TIMEOUT:301.122:-1.0:300.0:-1
ipc-2014-agile-hiking-5-6-4.pddl,TIMEOUT:301.051:-1.0:300.0:-1
ipc-2014-agile-hiking-5-6-5.pddl,TIMEOUT:301.077:-1.0:300.0:-1
ipc-2014-agile-hiking-5-6-6.pddl,TIMEOUT:301.145:-1.0:300.0:-1
ipc-2014-agile-hiking-5-6-7.pddl,TIMEOUT:301.094:-1.0:300.0:-1
ipc-2014-agile-hiking-5-6-8.pddl,TIMEOUT:301.143:-1.0:300.0:-1
ipc-2014-agile-maintenance-1.3.060.180.5-000.pddl,SAT:3.63845:40.0:300.0:-1
ipc-2014-agile-maintenance-1.3.060.180.5-001.pddl,SAT:8.38072:44.0:300.0:-1
ipc-2014-agile-maintenance-1.3.060.180.5-002.pddl,SAT:3.69844:43.0:300.0:-1
ipc-2014-agile-maintenance-1.3.100.300.5-000.pddl,SAT:28.9286:68.0:300.0:-1
ipc-2014-agile-maintenance-1.3.100.300.5-001.pddl,SAT:30.0694:72.0:300.0:-1
ipc-2014-agile-maintenance-1.3.100.300.7-000.pddl,SAT:30.1184:56.0:300.0:-1
ipc-2014-agile-maintenance-1.3.100.300.7-001.pddl,SAT:29.4465:54.0:300.0:-1
ipc-2014-agile-maintenance-1.3.100.300.7-002.pddl,SAT:29.1986:56.0:300.0:-1
ipc-2014-agile-maintenance-1.3.150.500.6-001.pddl,SAT:5.58415:98.0:300.0:-1
ipc-2014-agile-maintenance-1.3.200.500.5-001.pddl,CRASHED:43.2354:1000000000.0:300.0:-1
ipc-2014-agile-maintenance-1.3.200.500.5-002.pddl,SAT:8.93364:127.0:300.0:-1
ipc-2014-agile-maintenance-1.3.200.700.7-000.pddl,CRASHED:3.61945:1000000000.0:300.0:-1
ipc-2014-agile-maintenance-1.3.200.700.7-001.pddl,CRASHED:3.62945:1000000000.0:300.0:-1
ipc-2014-agile-maintenance-1.3.200.700.7-002.pddl,CRASHED:3.61345:1000000000.0:300.0:-1
ipc-2014-agile-maintenance-1.3.200.900.5-000.pddl,CRASHED:2.58561:1000000000.0:300.0:-1
ipc-2014-agile-maintenance-1.3.200.900.5-001.pddl,CRASHED:2.53861:1000000000.0:300.0:-1
ipc-2014-agile-maintenance-1.3.200.900.5-002.pddl,CRASHED:2.56661:1000000000.0:300.0:-1
ipc-2014-agile-maintenance-1.3.200.900.8-000.pddl,CRASHED:2.57961:1000000000.0:300.0:-1
ipc-2014-agile-maintenance-1.3.200.900.8-001.pddl,CRASHED:2.5896:1000000000.0:300.0:-1
ipc-2014-agile-maintenance-1.3.200.900.8-002.pddl,CRASHED:2.57061:1000000000.0:300.0:-1
ipc-2014-agile-openstacks-p130_2.pddl,SAT:205.079:64.0:300.0:-1
ipc-2014-agile-openstacks-p130_3.pddl,SAT:287.149:108.0:300.0:-1
ipc-2014-agile-openstacks-p150_2.pddl,TIMEOUT:301.067:-1.0:300.0:-1
ipc-2014-agile-openstacks-p150_3.pddl,TIMEOUT:301.092:-1.0:300.0:-1
ipc-2014-agile-openstacks-p170_1.pddl,TIMEOUT:301.111:-1.0:300.0:-1
ipc-2014-agile-openstacks-p170_2.pddl,TIMEOUT:301.083:-1.0:300.0:-1
ipc-2014-agile-openstacks-p170_3.pddl,TIMEOUT:301.101:-1.0:300.0:-1
ipc-2014-agile-openstacks-p190_1.pddl,TIMEOUT:301.108:-1.0:300.0:-1
ipc-2014-agile-openstacks-p190_2.pddl,TIMEOUT:301.092:-1.0:300.0:-1
ipc-2014-agile-openstacks-p190_3.pddl,TIMEOUT:301.141:-1.0:300.0:-1
ipc-2014-agile-openstacks-p210_1.pddl,TIMEOUT:301.162:-1.0:300.0:-1
ipc-2014-agile-openstacks-p210_2.pddl,TIMEOUT:301.134:-1.0:300.0:-1
ipc-2014-agile-openstacks-p230_1.pddl,TIMEOUT:301.108:-1.0:300.0:-1
ipc-2014-agile-openstacks-p230_2.pddl,TIMEOUT:301.168:-1.0:300.0:-1
ipc-2014-agile-openstacks-p250_1.pddl,TIMEOUT:301.116:-1.0:300.0:-1
ipc-2014-agile-openstacks-p250_2.pddl,TIMEOUT:301.167:-1.0:300.0:-1
ipc-2014-agile-openstacks-p270_1.pddl,TIMEOUT:301.174:-1.0:300.0:-1
ipc-2014-agile-openstacks-p270_2.pddl,TIMEOUT:301.169:-1.0:300.0:-1
ipc-2014-agile-openstacks-p290_1.pddl,TIMEOUT:301.145:-1.0:300.0:-1
ipc-2014-agile-openstacks-p290_2.pddl,TIMEOUT:301.203:-1.0:300.0:-1
ipc-2014-agile-parking-28_2.pddl,SAT:184.332:96.0:300.0:-1
ipc-2014-agile-parking-28_3.pddl,SAT:174.018:90.0:300.0:-1
ipc-2014-agile-parking-30_1.pddl,SAT:89.0135:58.0:300.0:-1
ipc-2014-agile-parking-30_2.pddl,SAT:258.142:98.0:300.0:-1
ipc-2014-agile-parking-30_3.pddl,SAT:193.087:96.0:300.0:-1
ipc-2014-agile-parking-32_1.pddl,TIMEOUT:301.121:-1.0:300.0:-1
ipc-2014-agile-parking-32_2.pddl,TIMEOUT:301.145:-1.0:300.0:-1
ipc-2014-agile-parking-32_3.pddl,TIMEOUT:301.13:-1.0:300.0:-1
ipc-2014-agile-parking-34_1.pddl,TIMEOUT:301.133:-1.0:300.0:-1
ipc-2014-agile-parking-34_2.pddl,TIMEOUT:301.107:-1.0:300.0:-1
ipc-2014-agile-parking-34_3.pddl,TIMEOUT:301.195:-1.0:300.0:-1
ipc-2014-agile-parking-36_1.pddl,TIMEOUT:301.094:-1.0:300.0:-1
ipc-2014-agile-parking-36_2.pddl,TIMEOUT:301.151:-1.0:300.0:-1
ipc-2014-agile-parking-36_3.pddl,TIMEOUT:301.17:-1.0:300.0:-1
ipc-2014-agile-parking-38_1.pddl,TIMEOUT:301.132:-1.0:300.0:-1
ipc-2014-agile-parking-38_2.pddl,TIMEOUT:301.141:-1.0:300.0:-1
ipc-2014-agile-parking-38_3.pddl,TIMEOUT:301.17:-1.0:300.0:-1
ipc-2014-agile-parking-40_1.pddl,TIMEOUT:301.127:-1.0:300.0:-1
ipc-2014-agile-parking-40_2.pddl,TIMEOUT:301.173:-1.0:300.0:-1
ipc-2014-agile-parking-40_3.pddl,TIMEOUT:301.174:-1.0:300.0:-1
ipc-2014-agile-tetris-020.pddl,SAT:111.851:55.0:300.0:-1
ipc-2014-agile-tetris-021.pddl,TIMEOUT:301.053:-1.0:300.0:-1
ipc-2014-agile-tetris-022.pddl,TIMEOUT:301.042:-1.0:300.0:-1
ipc-2014-agile-tetris-023.pddl,TIMEOUT:301.109:-1.0:300.0:-1
ipc-2014-agile-tetris-024.pddl,TIMEOUT:301.109:-1.0:300.0:-1
ipc-2014-agile-tetris-025.pddl,TIMEOUT:301.063:-1.0:300.0:-1
ipc-2014-agile-tetris-026.pddl,TIMEOUT:301.099:-1.0:300.0:-1
ipc-2014-agile-tetris-027.pddl,TIMEOUT:301.051:-1.0:300.0:-1
ipc-2014-agile-tetris-028.pddl,TIMEOUT:301.089:-1.0:300.0:-1
ipc-2014-agile-tetris-029.pddl,TIMEOUT:301.096:-1.0:300.0:-1
ipc-2014-agile-tetris-031.pddl,TIMEOUT:301.058:-1.0:300.0:-1
ipc-2014-agile-tetris-032.pddl,TIMEOUT:301.037:-1.0:300.0:-1
ipc-2014-agile-tetris-033.pddl,TIMEOUT:301.06:-1.0:300.0:-1
ipc-2014-agile-tetris-034.pddl,TIMEOUT:301.111:-1.0:300.0:-1
ipc-2014-agile-tetris-035.pddl,TIMEOUT:301.08:-1.0:300.0:-1
ipc-2014-agile-tetris-036.pddl,TIMEOUT:301.04:-1.0:300.0:-1
ipc-2014-agile-tetris-037.pddl,TIMEOUT:301.041:-1.0:300.0:-1
ipc-2014-agile-tetris-038.pddl,TIMEOUT:301.074:-1.0:300.0:-1
ipc-2014-agile-tetris-039.pddl,TIMEOUT:301.034:-1.0:300.0:-1
ipc-2014-agile-tetris-040.pddl,TIMEOUT:301.116:-1.0:300.0:-1
ipc-2014-agile-thoughtful-bootstrap-typed-01.pddl,SAT:0.116982:29.0:300.0:-1
ipc-2014-agile-thoughtful-bootstrap-typed-02.pddl,SAT:0.105983:31.0:300.0:-1
ipc-2014-agile-thoughtful-bootstrap-typed-03.pddl,SAT:0.122981:34.0:300.0:-1
ipc-2014-agile-thoughtful-bootstrap-typed-04.pddl,SAT:0.118981:32.0:300.0:-1
ipc-2014-agile-thoughtful-bootstrap-typed-05.pddl,SAT:0.137978:35.0:300.0:-1
ipc-2014-agile-thoughtful-p11_6_53-typed.pddl,SAT:4.99724:114.0:300.0:-1
ipc-2014-agile-thoughtful-p11_6_59-typed.pddl,TIMEOUT:301.142:-1.0:300.0:-1
ipc-2014-agile-thoughtful-p11_6_62-typed.pddl,TIMEOUT:301.115:-1.0:300.0:-1
ipc-2014-agile-thoughtful-p13_7_78-typed.pddl,SAT:9.25659:149.0:300.0:-1
ipc-2014-agile-thoughtful-p13_7_79-typed.pddl,SAT:5.97109:123.0:300.0:-1
ipc-2014-agile-thoughtful-p13_7_86-typed.pddl,SAT:6.71398:143.0:300.0:-1
ipc-2014-agile-thoughtful-target-typed-20.pddl,SAT:9.05762:126.0:300.0:-1
ipc-2014-agile-thoughtful-target-typed-21.pddl,TIMEOUT:301.104:-1.0:300.0:-1
ipc-2014-agile-thoughtful-target-typed-22.pddl,SAT:10.4644:154.0:300.0:-1
ipc-2014-agile-thoughtful-target-typed-23.pddl,SAT:7.38588:141.0:300.0:-1
ipc-2014-agile-thoughtful-target-typed-24.pddl,SAT:9.8715:153.0:300.0:-1
ipc-2014-agile-thoughtful-target-typed-25.pddl,SAT:22.3206:146.0:300.0:-1
ipc-2014-agile-thoughtful-target-typed-26.pddl,TIMEOUT:301.094:-1.0:300.0:-1
ipc-2014-agile-thoughtful-target-typed-27.pddl,SAT:15.3667:140.0:300.0:-1
ipc-2014-agile-thoughtful-target-typed-28.pddl,SAT:21.2468:137.0:300.0:-1
ipc-2014-agile-transport-01.pddl,SAT:94.3037:3106.0:300.0:-1
ipc-2014-agile-transport-02.pddl,SAT:210.147:3526.0:300.0:-1
ipc-2014-agile-transport-03.pddl,SAT:136.814:2949.0:300.0:-1
ipc-2014-agile-transport-04.pddl,TIMEOUT:301.154:-1.0:300.0:-1
ipc-2014-agile-transport-05.pddl,TIMEOUT:301.212:-1.0:300.0:-1
ipc-2014-agile-transport-06.pddl,TIMEOUT:301.155:-1.0:300.0:-1
ipc-2014-agile-transport-07.pddl,TIMEOUT:301.167:-1.0:300.0:-1
ipc-2014-agile-transport-08.pddl,TIMEOUT:301.233:-1.0:300.0:-1
ipc-2014-agile-transport-09.pddl,TIMEOUT:301.204:-1.0:300.0:-1
ipc-2014-agile-transport-10.pddl,TIMEOUT:301.128:-1.0:300.0:-1
ipc-2014-agile-transport-11.pddl,SAT:264.548:2366.0:300.0:-1
ipc-2014-agile-transport-12.pddl,SAT:248.166:3603.0:300.0:-1
ipc-2014-agile-transport-13.pddl,SAT:78.5541:2762.0:300.0:-1
ipc-2014-agile-transport-14.pddl,TIMEOUT:301.116:-1.0:300.0:-1
ipc-2014-agile-transport-15.pddl,TIMEOUT:301.123:-1.0:300.0:-1
ipc-2014-agile-transport-16.pddl,TIMEOUT:301.133:-1.0:300.0:-1
ipc-2014-agile-transport-17.pddl,TIMEOUT:301.172:-1.0:300.0:-1
ipc-2014-agile-transport-18.pddl,TIMEOUT:301.159:-1.0:300.0:-1
ipc-2014-agile-transport-19.pddl,TIMEOUT:301.159:-1.0:300.0:-1
ipc-2014-agile-transport-20.pddl,TIMEOUT:301.151:-1.0:300.0:-1
ipc-2014-agile-visitall-30.pddl,SAT:9.37657:899.0:300.0:-1
ipc-2014-agile-visitall-31.pddl,SAT:11.0143:960.0:300.0:-1
ipc-2014-agile-visitall-32.pddl,SAT:13.066:1023.0:300.0:-1
ipc-2014-agile-visitall-33.pddl,SAT:15.3497:1088.0:300.0:-1
ipc-2014-agile-visitall-50.pddl,SAT:144.851:2499.0:300.0:-1
ipc-2014-agile-visitall-51.pddl,SAT:141.607:2600.0:300.0:-1
ipc-2014-agile-visitall-52.pddl,SAT:157.358:2703.0:300.0:-1
ipc-2014-agile-visitall-53.pddl,SAT:175.221:2808.0:300.0:-1
ipc-2014-agile-visitall-54.pddl,SAT:193.884:2915.0:300.0:-1
ipc-2014-agile-visitall-55.pddl,SAT:215.389:3024.0:300.0:-1
ipc-2014-agile-visitall-56.pddl,SAT:238.238:3135.0:300.0:-1
ipc-2014-agile-visitall-57.pddl,SAT:261.976:3248.0:300.0:-1
ipc-2014-agile-visitall-58.pddl,TIMEOUT:301.18:-1.0:300.0:-1
ipc-2014-agile-visitall-59.pddl,TIMEOUT:301.188:-1.0:300.0:-1
ipc-2014-agile-visitall-60.pddl,TIMEOUT:301.131:-1.0:300.0:-1
ipc-2014-agile-visitall-61.pddl,TIMEOUT:301.158:-1.0:300.0:-1
ipc-2014-agile-visitall-62.pddl,TIMEOUT:301.133:-1.0:300.0:-1
ipc-2014-agile-visitall-63.pddl,TIMEOUT:301.129:-1.0:300.0:-1
ipc-2014-agile-visitall-64.pddl,TIMEOUT:301.129:-1.0:300.0:-1
ipc-2014-agile-visitall-65.pddl,TIMEOUT:301.136:-1.0:300.0:-1
