instance,ipc-2014-agile-madagascar-pc
ipc-2014-agile-barman-p1-11-4-15.pddl,TIMEOUT:301.172:-1.0:300.0:-1
ipc-2014-agile-barman-p1-11-5-15.pddl,TIMEOUT:301.207:-1.0:300.0:-1
ipc-2014-agile-barman-p1-11-5-16.pddl,TIMEOUT:301.239:-1.0:300.0:-1
ipc-2014-agile-barman-p2-10-4-13.pddl,TIMEOUT:301.172:-1.0:300.0:-1
ipc-2014-agile-barman-p2-11-4-15.pddl,TIMEOUT:301.16:-1.0:300.0:-1
ipc-2014-agile-barman-p2-11-5-15.pddl,TIMEOUT:301.18:-1.0:300.0:-1
ipc-2014-agile-barman-p2-11-5-16.pddl,TIMEOUT:301.23:-1.0:300.0:-1
ipc-2014-agile-barman-p2-11-5-17.pddl,TIMEOUT:301.245:-1.0:300.0:-1
ipc-2014-agile-barman-p3-10-4-13.pddl,TIMEOUT:301.18:-1.0:300.0:-1
ipc-2014-agile-barman-p3-11-4-15.pddl,TIMEOUT:301.176:-1.0:300.0:-1
ipc-2014-agile-barman-p3-11-5-15.pddl,TIMEOUT:301.269:-1.0:300.0:-1
ipc-2014-agile-barman-p3-11-5-16.pddl,TIMEOUT:301.201:-1.0:300.0:-1
ipc-2014-agile-barman-p3-11-5-17.pddl,TIMEOUT:301.3:-1.0:300.0:-1
ipc-2014-agile-barman-p4-11-4-14.pddl,TIMEOUT:301.215:-1.0:300.0:-1
ipc-2014-agile-barman-p4-11-4-15.pddl,TIMEOUT:301.166:-1.0:300.0:-1
ipc-2014-agile-barman-p4-11-5-15.pddl,SAT:122.815:441.0:300.0:-1
ipc-2014-agile-barman-p5-10-4-13.pddl,TIMEOUT:301.187:-1.0:300.0:-1
ipc-2014-agile-barman-p5-11-4-15.pddl,TIMEOUT:301.215:-1.0:300.0:-1
ipc-2014-agile-barman-p5-11-5-15.pddl,TIMEOUT:301.261:-1.0:300.0:-1
ipc-2014-agile-barman-p5-11-5-16.pddl,TIMEOUT:301.266:-1.0:300.0:-1
ipc-2014-agile-cavediving-01_easy.pddl,TIMEOUT:301.279:-1.0:300.0:-1
ipc-2014-agile-cavediving-01.pddl,TIMEOUT:301.368:-1.0:300.0:-1
ipc-2014-agile-cavediving-02_easy.pddl,TIMEOUT:301.32:-1.0:300.0:-1
ipc-2014-agile-cavediving-03_easy.pddl,TIMEOUT:301.339:-1.0:300.0:-1
ipc-2014-agile-cavediving-04_easy.pddl,TIMEOUT:301.246:-1.0:300.0:-1
ipc-2014-agile-cavediving-05A_easy.pddl,SAT:99.7118:94.0:300.0:-1
ipc-2014-agile-cavediving-06A_easy.pddl,SAT:99.6678:95.0:300.0:-1
ipc-2014-agile-cavediving-07_easy.pddl,TIMEOUT:301.132:-1.0:300.0:-1
ipc-2014-agile-cavediving-08_easy.pddl,SAT:104.446:90.0:300.0:-1
ipc-2014-agile-cavediving-09_easy.pddl,TIMEOUT:301.407:-1.0:300.0:-1
ipc-2014-agile-cavediving-10_easy.pddl,TIMEOUT:301.389:-1.0:300.0:-1
ipc-2014-agile-cavediving-11_easy.pddl,TIMEOUT:301.403:-1.0:300.0:-1
ipc-2014-agile-cavediving-12_easy.pddl,TIMEOUT:301.34:-1.0:300.0:-1
ipc-2014-agile-cavediving-13_easy.pddl,TIMEOUT:301.368:-1.0:300.0:-1
ipc-2014-agile-cavediving-14_easy.pddl,TIMEOUT:301.38:-1.0:300.0:-1
ipc-2014-agile-cavediving-15_easy.pddl,TIMEOUT:301.317:-1.0:300.0:-1
ipc-2014-agile-cavediving-16_easy.pddl,TIMEOUT:301.318:-1.0:300.0:-1
ipc-2014-agile-cavediving-18A_easy.pddl,TIMEOUT:301.121:-1.0:300.0:-1
ipc-2014-agile-cavediving-18_easy.pddl,SAT:0.115981:132.0:300.0:-1
ipc-2014-agile-cavediving-20A_easy.pddl,TIMEOUT:301.166:-1.0:300.0:-1
ipc-2014-agile-childsnack-05-2.pddl,SAT:0.091985:36.0:300.0:-1
ipc-2014-agile-childsnack-05.pddl,SAT:0.092984:38.0:300.0:-1
ipc-2014-agile-childsnack-06-2.pddl,SAT:0.134979:38.0:300.0:-1
ipc-2014-agile-childsnack-07-2.pddl,SAT:0.167973:43.0:300.0:-1
ipc-2014-agile-childsnack-08-2.pddl,CRASHED:93.0359:1000000000.0:300.0:-1
ipc-2014-agile-childsnack-08.pddl,SAT:0.224965:47.0:300.0:-1
ipc-2014-agile-childsnack-09-2.pddl,SAT:0.399938:47.0:300.0:-1
ipc-2014-agile-childsnack-09.pddl,CRASHED:28.2587:1000000000.0:300.0:-1
ipc-2014-agile-childsnack-10-2.pddl,CRASHED:29.9614:1000000000.0:300.0:-1
ipc-2014-agile-childsnack-10.pddl,CRASHED:26.437:1000000000.0:300.0:-1
ipc-2014-agile-childsnack-11-2.pddl,CRASHED:166.899:1000000000.0:300.0:-1
ipc-2014-agile-childsnack-11.pddl,CRASHED:140.756:1000000000.0:300.0:-1
ipc-2014-agile-childsnack-12.pddl,CRASHED:36.0025:1000000000.0:300.0:-1
ipc-2014-agile-childsnack-13-2.pddl,CRASHED:105.078:1000000000.0:300.0:-1
ipc-2014-agile-childsnack-13.pddl,CRASHED:116.571:1000000000.0:300.0:-1
ipc-2014-agile-childsnack-14.pddl,CRASHED:44.5362:1000000000.0:300.0:-1
ipc-2014-agile-childsnack-15-2.pddl,CRASHED:23.8344:1000000000.0:300.0:-1
ipc-2014-agile-childsnack-16-2.pddl,CRASHED:61.8756:1000000000.0:300.0:-1
ipc-2014-agile-childsnack-19-2.pddl,CRASHED:41.8776:1000000000.0:300.0:-1
ipc-2014-agile-childsnack-19.pddl,CRASHED:48.0297:1000000000.0:300.0:-1
ipc-2014-agile-citycar-p3-2-2-0-1.pddl,SAT:0.12398:291.0:300.0:-1
ipc-2014-agile-citycar-p3-3-2-0-1.pddl,SAT:0.764883:651.0:300.0:-1
ipc-2014-agile-citycar-p3-4-2-0-1.pddl,SAT:0.360945:722.0:300.0:-1
ipc-2014-agile-citycar-p3-5-2-0-1.pddl,SAT:57.8722:694.0:300.0:-1
ipc-2014-agile-citycar-p3-5-2-0-2.pddl,SAT:9.70052:1041.0:300.0:-1
ipc-2014-agile-citycar-p4-2-2-0-1.pddl,SAT:49.5405:336.0:300.0:-1
ipc-2014-agile-citycar-p4-2-3-0-1.pddl,SAT:64.8971:417.0:300.0:-1
ipc-2014-agile-citycar-p4-2-3-0-2.pddl,SAT:296.406:494.0:300.0:-1
ipc-2014-agile-citycar-p4-3-2-0-1.pddl,SAT:51.0212:1185.0:300.0:-1
ipc-2014-agile-citycar-p4-3-2-0-2.pddl,TIMEOUT:301.396:-1.0:300.0:-1
ipc-2014-agile-citycar-p4-3-3-0-1.pddl,TIMEOUT:301.315:-1.0:300.0:-1
ipc-2014-agile-citycar-p4-3-3-0-2.pddl,TIMEOUT:301.268:-1.0:300.0:-1
ipc-2014-agile-citycar-p4-4-2-0-1.pddl,TIMEOUT:301.401:-1.0:300.0:-1
ipc-2014-agile-citycar-p4-4-2-0-2.pddl,TIMEOUT:301.36:-1.0:300.0:-1
ipc-2014-agile-citycar-p4-4-3-0-1.pddl,TIMEOUT:301.31:-1.0:300.0:-1
ipc-2014-agile-citycar-p4-4-3-0-2.pddl,TIMEOUT:301.335:-1.0:300.0:-1
ipc-2014-agile-citycar-p4-5-2-0-1.pddl,TIMEOUT:301.362:-1.0:300.0:-1
ipc-2014-agile-citycar-p4-5-2-0-2.pddl,TIMEOUT:301.318:-1.0:300.0:-1
ipc-2014-agile-citycar-p4-5-3-0-1.pddl,TIMEOUT:301.324:-1.0:300.0:-1
ipc-2014-agile-citycar-p4-5-3-0-2.pddl,TIMEOUT:301.331:-1.0:300.0:-1
ipc-2014-agile-floortile-p01-4-3-2.pddl,SAT:0.014997:94.0:300.0:-1
ipc-2014-agile-floortile-p01-5-4-2.pddl,SAT:0.025995:173.0:300.0:-1
ipc-2014-agile-floortile-p01-5-5-2.pddl,SAT:0.039993:197.0:300.0:-1
ipc-2014-agile-floortile-p01-6-4-2.pddl,SAT:0.030995:190.0:300.0:-1
ipc-2014-agile-floortile-p01-6-5-2.pddl,SAT:0.052991:230.0:300.0:-1
ipc-2014-agile-floortile-p01-6-5-3.pddl,SAT:0.065989:223.0:300.0:-1
ipc-2014-agile-floortile-p02-5-4-2.pddl,SAT:0.030994:178.0:300.0:-1
ipc-2014-agile-floortile-p02-6-4-2.pddl,SAT:0.037993:207.0:300.0:-1
ipc-2014-agile-floortile-p02-6-5-2.pddl,SAT:0.065989:251.0:300.0:-1
ipc-2014-agile-floortile-p02-6-5-3.pddl,SAT:0.06499:235.0:300.0:-1
ipc-2014-agile-floortile-p03-6-4-2.pddl,SAT:0.036993:214.0:300.0:-1
ipc-2014-agile-floortile-p03-6-5-2.pddl,SAT:0.049992:248.0:300.0:-1
ipc-2014-agile-floortile-p03-6-5-3.pddl,SAT:0.05899:253.0:300.0:-1
ipc-2014-agile-floortile-p04-5-4-2.pddl,SAT:0.029994:175.0:300.0:-1
ipc-2014-agile-floortile-p04-5-5-2.pddl,SAT:0.041993:214.0:300.0:-1
ipc-2014-agile-floortile-p04-6-5-2.pddl,SAT:0.065989:261.0:300.0:-1
ipc-2014-agile-floortile-p04-6-5-3.pddl,SAT:0.066988:231.0:300.0:-1
ipc-2014-agile-floortile-p05-4-3-2.pddl,SAT:0.013996:96.0:300.0:-1
ipc-2014-agile-floortile-p05-6-5-2.pddl,SAT:0.052991:223.0:300.0:-1
ipc-2014-agile-floortile-p05-6-5-3.pddl,SAT:0.06299:243.0:300.0:-1
ipc-2014-agile-ged-d-10-1.pddl,SAT:12.7621:99.0:300.0:-1
ipc-2014-agile-ged-d-10-2.pddl,SAT:26.7079:212.0:300.0:-1
ipc-2014-agile-ged-d-10-3.pddl,SAT:32.0111:130.0:300.0:-1
ipc-2014-agile-ged-d-10-4.pddl,SAT:60.7838:193.0:300.0:-1
ipc-2014-agile-ged-d-10-5.pddl,TIMEOUT:301.29:-1.0:300.0:-1
ipc-2014-agile-ged-d-10-6.pddl,SAT:226.82:139.0:300.0:-1
ipc-2014-agile-ged-d-11-1.pddl,SAT:70.7712:110.0:300.0:-1
ipc-2014-agile-ged-d-11-3.pddl,SAT:47.3798:75.0:300.0:-1
ipc-2014-agile-ged-d-11-5.pddl,SAT:66.4429:116.0:300.0:-1
ipc-2014-agile-ged-d-11-6.pddl,TIMEOUT:301.257:-1.0:300.0:-1
ipc-2014-agile-ged-d-12-11.pddl,SAT:82.9724:190.0:300.0:-1
ipc-2014-agile-ged-d-12-2.pddl,TIMEOUT:301.285:-1.0:300.0:-1
ipc-2014-agile-ged-d-12-3.pddl,TIMEOUT:301.366:-1.0:300.0:-1
ipc-2014-agile-ged-d-12-5.pddl,TIMEOUT:301.294:-1.0:300.0:-1
ipc-2014-agile-ged-d-12-6.pddl,TIMEOUT:301.332:-1.0:300.0:-1
ipc-2014-agile-ged-d-12-7.pddl,TIMEOUT:301.277:-1.0:300.0:-1
ipc-2014-agile-ged-d-12-8.pddl,TIMEOUT:301.332:-1.0:300.0:-1
ipc-2014-agile-ged-d-12-9.pddl,TIMEOUT:301.318:-1.0:300.0:-1
ipc-2014-agile-ged-d-3-6.pddl,SAT:52.2581:102.0:300.0:-1
ipc-2014-agile-ged-d-9-5.pddl,SAT:199.944:167.0:300.0:-1
ipc-2014-agile-hiking-3-4-3.pddl,SAT:0.32195:18.0:300.0:-1
ipc-2014-agile-hiking-3-4-4.pddl,CRASHED:32.5041:1000000000.0:300.0:-1
ipc-2014-agile-hiking-3-4-5.pddl,CRASHED:28.0447:1000000000.0:300.0:-1
ipc-2014-agile-hiking-3-4-6.pddl,TIMEOUT:301.308:-1.0:300.0:-1
ipc-2014-agile-hiking-3-4-7.pddl,TIMEOUT:301.325:-1.0:300.0:-1
ipc-2014-agile-hiking-3-4-8.pddl,CRASHED:30.3054:1000000000.0:300.0:-1
ipc-2014-agile-hiking-3-4-9.pddl,CRASHED:31.7542:1000000000.0:300.0:-1
ipc-2014-agile-hiking-4-5-3.pddl,SAT:1.23681:29.0:300.0:-1
ipc-2014-agile-hiking-4-5-4.pddl,SAT:3.61545:47.0:300.0:-1
ipc-2014-agile-hiking-4-5-5.pddl,CRASHED:33.3689:1000000000.0:300.0:-1
ipc-2014-agile-hiking-4-5-6.pddl,TIMEOUT:301.387:-1.0:300.0:-1
ipc-2014-agile-hiking-4-5-7.pddl,TIMEOUT:301.338:-1.0:300.0:-1
ipc-2014-agile-hiking-4-5-8.pddl,TIMEOUT:301.407:-1.0:300.0:-1
ipc-2014-agile-hiking-4-5-9.pddl,CRASHED:69.8434:1000000000.0:300.0:-1
ipc-2014-agile-hiking-5-6-3.pddl,SAT:4.01039:36.0:300.0:-1
ipc-2014-agile-hiking-5-6-4.pddl,CRASHED:37.2293:1000000000.0:300.0:-1
ipc-2014-agile-hiking-5-6-5.pddl,CRASHED:43.1644:1000000000.0:300.0:-1
ipc-2014-agile-hiking-5-6-6.pddl,CRASHED:62.0736:1000000000.0:300.0:-1
ipc-2014-agile-hiking-5-6-7.pddl,CRASHED:91.5591:1000000000.0:300.0:-1
ipc-2014-agile-hiking-5-6-8.pddl,CRASHED:129.854:1000000000.0:300.0:-1
ipc-2014-agile-maintenance-1.3.060.180.5-000.pddl,SAT:0.085986:54.0:300.0:-1
ipc-2014-agile-maintenance-1.3.060.180.5-001.pddl,TIMEOUT:301.131:-1.0:300.0:-1
ipc-2014-agile-maintenance-1.3.060.180.5-002.pddl,SAT:69.9974:55.0:300.0:-1
ipc-2014-agile-maintenance-1.3.100.300.5-000.pddl,TIMEOUT:301.126:-1.0:300.0:-1
ipc-2014-agile-maintenance-1.3.100.300.5-001.pddl,TIMEOUT:301.13:-1.0:300.0:-1
ipc-2014-agile-maintenance-1.3.100.300.7-000.pddl,SAT:0.263959:83.0:300.0:-1
ipc-2014-agile-maintenance-1.3.100.300.7-001.pddl,SAT:0.262959:80.0:300.0:-1
ipc-2014-agile-maintenance-1.3.100.300.7-002.pddl,SAT:0.262959:77.0:300.0:-1
ipc-2014-agile-maintenance-1.3.150.500.6-001.pddl,SAT:0.969852:133.0:300.0:-1
ipc-2014-agile-maintenance-1.3.200.500.5-001.pddl,SAT:1.37979:180.0:300.0:-1
ipc-2014-agile-maintenance-1.3.200.500.5-002.pddl,TIMEOUT:301.131:-1.0:300.0:-1
ipc-2014-agile-maintenance-1.3.200.700.7-000.pddl,SAT:2.53861:176.0:300.0:-1
ipc-2014-agile-maintenance-1.3.200.700.7-001.pddl,SAT:2.49462:171.0:300.0:-1
ipc-2014-agile-maintenance-1.3.200.700.7-002.pddl,SAT:2.46762:170.0:300.0:-1
ipc-2014-agile-maintenance-1.3.200.900.5-000.pddl,TIMEOUT:301.15:-1.0:300.0:-1
ipc-2014-agile-maintenance-1.3.200.900.5-001.pddl,TIMEOUT:301.145:-1.0:300.0:-1
ipc-2014-agile-maintenance-1.3.200.900.5-002.pddl,TIMEOUT:301.213:-1.0:300.0:-1
ipc-2014-agile-maintenance-1.3.200.900.8-000.pddl,SAT:4.6083:186.0:300.0:-1
ipc-2014-agile-maintenance-1.3.200.900.8-001.pddl,SAT:4.52931:172.0:300.0:-1
ipc-2014-agile-maintenance-1.3.200.900.8-002.pddl,SAT:4.54731:179.0:300.0:-1
ipc-2014-agile-openstacks-p130_2.pddl,TIMEOUT:301.377:-1.0:300.0:-1
ipc-2014-agile-openstacks-p130_3.pddl,TIMEOUT:301.386:-1.0:300.0:-1
ipc-2014-agile-openstacks-p150_2.pddl,TIMEOUT:301.336:-1.0:300.0:-1
ipc-2014-agile-openstacks-p150_3.pddl,TIMEOUT:301.324:-1.0:300.0:-1
ipc-2014-agile-openstacks-p170_1.pddl,CRASHED:66.9038:1000000000.0:300.0:-1
ipc-2014-agile-openstacks-p170_2.pddl,CRASHED:70.9762:1000000000.0:300.0:-1
ipc-2014-agile-openstacks-p170_3.pddl,TIMEOUT:301.367:-1.0:300.0:-1
ipc-2014-agile-openstacks-p190_1.pddl,CRASHED:147.179:1000000000.0:300.0:-1
ipc-2014-agile-openstacks-p190_2.pddl,CRASHED:136.139:1000000000.0:300.0:-1
ipc-2014-agile-openstacks-p190_3.pddl,CRASHED:155.632:1000000000.0:300.0:-1
ipc-2014-agile-openstacks-p210_1.pddl,TIMEOUT:301.432:-1.0:300.0:-1
ipc-2014-agile-openstacks-p210_2.pddl,TIMEOUT:301.395:-1.0:300.0:-1
ipc-2014-agile-openstacks-p230_1.pddl,CRASHED:178.128:1000000000.0:300.0:-1
ipc-2014-agile-openstacks-p230_2.pddl,CRASHED:197.314:1000000000.0:300.0:-1
ipc-2014-agile-openstacks-p250_1.pddl,CRASHED:237.87:1000000000.0:300.0:-1
ipc-2014-agile-openstacks-p250_2.pddl,CRASHED:254.583:1000000000.0:300.0:-1
ipc-2014-agile-openstacks-p270_1.pddl,TIMEOUT:301.267:-1.0:300.0:-1
ipc-2014-agile-openstacks-p270_2.pddl,TIMEOUT:301.285:-1.0:300.0:-1
ipc-2014-agile-openstacks-p290_1.pddl,TIMEOUT:301.264:-1.0:300.0:-1
ipc-2014-agile-openstacks-p290_2.pddl,TIMEOUT:301.122:-1.0:300.0:-1
ipc-2014-agile-parking-28_2.pddl,SAT:107.801:127.0:300.0:-1
ipc-2014-agile-parking-28_3.pddl,SAT:95.6995:86.0:300.0:-1
ipc-2014-agile-parking-30_1.pddl,SAT:156.084:135.0:300.0:-1
ipc-2014-agile-parking-30_2.pddl,TIMEOUT:301.373:-1.0:300.0:-1
ipc-2014-agile-parking-30_3.pddl,SAT:194.759:163.0:300.0:-1
ipc-2014-agile-parking-32_1.pddl,SAT:245.646:161.0:300.0:-1
ipc-2014-agile-parking-32_2.pddl,SAT:248.26:138.0:300.0:-1
ipc-2014-agile-parking-32_3.pddl,SAT:232.596:178.0:300.0:-1
ipc-2014-agile-parking-34_1.pddl,TIMEOUT:301.395:-1.0:300.0:-1
ipc-2014-agile-parking-34_2.pddl,SAT:292.609:131.0:300.0:-1
ipc-2014-agile-parking-34_3.pddl,TIMEOUT:301.353:-1.0:300.0:-1
ipc-2014-agile-parking-36_1.pddl,TIMEOUT:301.196:-1.0:300.0:-1
ipc-2014-agile-parking-36_2.pddl,TIMEOUT:301.161:-1.0:300.0:-1
ipc-2014-agile-parking-36_3.pddl,TIMEOUT:301.114:-1.0:300.0:-1
ipc-2014-agile-parking-38_1.pddl,TIMEOUT:301.139:-1.0:300.0:-1
ipc-2014-agile-parking-38_2.pddl,TIMEOUT:301.147:-1.0:300.0:-1
ipc-2014-agile-parking-38_3.pddl,TIMEOUT:301.213:-1.0:300.0:-1
ipc-2014-agile-parking-40_1.pddl,TIMEOUT:301.203:-1.0:300.0:-1
ipc-2014-agile-parking-40_2.pddl,TIMEOUT:301.179:-1.0:300.0:-1
ipc-2014-agile-parking-40_3.pddl,TIMEOUT:301.227:-1.0:300.0:-1
ipc-2014-agile-tetris-020.pddl,SAT:43.0345:56.0:300.0:-1
ipc-2014-agile-tetris-021.pddl,SAT:164.904:145.0:300.0:-1
ipc-2014-agile-tetris-022.pddl,SAT:149.443:102.0:300.0:-1
ipc-2014-agile-tetris-023.pddl,SAT:121.085:105.0:300.0:-1
ipc-2014-agile-tetris-024.pddl,SAT:158.694:161.0:300.0:-1
ipc-2014-agile-tetris-025.pddl,CRASHED:180.464:1000000000.0:300.0:-1
ipc-2014-agile-tetris-026.pddl,CRASHED:239.482:1000000000.0:300.0:-1
ipc-2014-agile-tetris-027.pddl,CRASHED:241.905:1000000000.0:300.0:-1
ipc-2014-agile-tetris-028.pddl,CRASHED:210.256:1000000000.0:300.0:-1
ipc-2014-agile-tetris-029.pddl,CRASHED:190.491:1000000000.0:300.0:-1
ipc-2014-agile-tetris-031.pddl,CRASHED:277.875:1000000000.0:300.0:-1
ipc-2014-agile-tetris-032.pddl,CRASHED:274.922:1000000000.0:300.0:-1
ipc-2014-agile-tetris-033.pddl,TIMEOUT:301.487:-1.0:300.0:-1
ipc-2014-agile-tetris-034.pddl,TIMEOUT:301.43:-1.0:300.0:-1
ipc-2014-agile-tetris-035.pddl,CRASHED:272.553:1000000000.0:300.0:-1
ipc-2014-agile-tetris-036.pddl,CRASHED:243.507:1000000000.0:300.0:-1
ipc-2014-agile-tetris-037.pddl,SAT:182.33:147.0:300.0:-1
ipc-2014-agile-tetris-038.pddl,TIMEOUT:301.387:-1.0:300.0:-1
ipc-2014-agile-tetris-039.pddl,CRASHED:286.199:1000000000.0:300.0:-1
ipc-2014-agile-tetris-040.pddl,TIMEOUT:301.393:-1.0:300.0:-1
ipc-2014-agile-thoughtful-bootstrap-typed-01.pddl,SAT:1.91371:42.0:300.0:-1
ipc-2014-agile-thoughtful-bootstrap-typed-02.pddl,SAT:1.75673:31.0:300.0:-1
ipc-2014-agile-thoughtful-bootstrap-typed-03.pddl,SAT:2.02769:49.0:300.0:-1
ipc-2014-agile-thoughtful-bootstrap-typed-04.pddl,SAT:2.08068:46.0:300.0:-1
ipc-2014-agile-thoughtful-bootstrap-typed-05.pddl,SAT:1.89771:68.0:300.0:-1
ipc-2014-agile-thoughtful-p11_6_53-typed.pddl,TIMEOUT:301.369:-1.0:300.0:-1
ipc-2014-agile-thoughtful-p11_6_59-typed.pddl,CRASHED:110.478:1000000000.0:300.0:-1
ipc-2014-agile-thoughtful-p11_6_62-typed.pddl,TIMEOUT:301.426:-1.0:300.0:-1
ipc-2014-agile-thoughtful-p13_7_78-typed.pddl,CRASHED:189.995:1000000000.0:300.0:-1
ipc-2014-agile-thoughtful-p13_7_79-typed.pddl,CRASHED:185.637:1000000000.0:300.0:-1
ipc-2014-agile-thoughtful-p13_7_86-typed.pddl,CRASHED:188.021:1000000000.0:300.0:-1
ipc-2014-agile-thoughtful-target-typed-20.pddl,CRASHED:190.882:1000000000.0:300.0:-1
ipc-2014-agile-thoughtful-target-typed-21.pddl,CRASHED:188.26:1000000000.0:300.0:-1
ipc-2014-agile-thoughtful-target-typed-22.pddl,TIMEOUT:301.415:-1.0:300.0:-1
ipc-2014-agile-thoughtful-target-typed-23.pddl,CRASHED:193.565:1000000000.0:300.0:-1
ipc-2014-agile-thoughtful-target-typed-24.pddl,TIMEOUT:301.418:-1.0:300.0:-1
ipc-2014-agile-thoughtful-target-typed-25.pddl,CRASHED:194.526:1000000000.0:300.0:-1
ipc-2014-agile-thoughtful-target-typed-26.pddl,TIMEOUT:301.393:-1.0:300.0:-1
ipc-2014-agile-thoughtful-target-typed-27.pddl,TIMEOUT:301.38:-1.0:300.0:-1
ipc-2014-agile-thoughtful-target-typed-28.pddl,CRASHED:202.086:1000000000.0:300.0:-1
ipc-2014-agile-transport-01.pddl,CRASHED:85.442:1000000000.0:300.0:-1
ipc-2014-agile-transport-02.pddl,TIMEOUT:301.388:-1.0:300.0:-1
ipc-2014-agile-transport-03.pddl,TIMEOUT:301.356:-1.0:300.0:-1
ipc-2014-agile-transport-04.pddl,TIMEOUT:301.498:-1.0:300.0:-1
ipc-2014-agile-transport-05.pddl,CRASHED:118.108:1000000000.0:300.0:-1
ipc-2014-agile-transport-06.pddl,TIMEOUT:301.423:-1.0:300.0:-1
ipc-2014-agile-transport-07.pddl,CRASHED:300.222:1000000000.0:300.0:-1
ipc-2014-agile-transport-08.pddl,TIMEOUT:301.444:-1.0:300.0:-1
ipc-2014-agile-transport-09.pddl,TIMEOUT:301.39:-1.0:300.0:-1
ipc-2014-agile-transport-10.pddl,TIMEOUT:301.551:-1.0:300.0:-1
ipc-2014-agile-transport-11.pddl,TIMEOUT:301.345:-1.0:300.0:-1
ipc-2014-agile-transport-12.pddl,TIMEOUT:301.346:-1.0:300.0:-1
ipc-2014-agile-transport-13.pddl,TIMEOUT:301.42:-1.0:300.0:-1
ipc-2014-agile-transport-14.pddl,CRASHED:104.982:1000000000.0:300.0:-1
ipc-2014-agile-transport-15.pddl,CRASHED:127.768:1000000000.0:300.0:-1
ipc-2014-agile-transport-16.pddl,CRASHED:85.491:1000000000.0:300.0:-1
ipc-2014-agile-transport-17.pddl,CRASHED:295.837:1000000000.0:300.0:-1
ipc-2014-agile-transport-18.pddl,TIMEOUT:301.406:-1.0:300.0:-1
ipc-2014-agile-transport-19.pddl,TIMEOUT:301.211:-1.0:300.0:-1
ipc-2014-agile-transport-20.pddl,TIMEOUT:301.424:-1.0:300.0:-1
ipc-2014-agile-visitall-30.pddl,TIMEOUT:301.15:-1.0:300.0:-1
ipc-2014-agile-visitall-31.pddl,TIMEOUT:301.131:-1.0:300.0:-1
ipc-2014-agile-visitall-32.pddl,TIMEOUT:301.213:-1.0:300.0:-1
ipc-2014-agile-visitall-33.pddl,TIMEOUT:301.24:-1.0:300.0:-1
ipc-2014-agile-visitall-50.pddl,TIMEOUT:301.033:-1.0:300.0:-1
ipc-2014-agile-visitall-51.pddl,TIMEOUT:301.081:-1.0:300.0:-1
ipc-2014-agile-visitall-52.pddl,TIMEOUT:301.065:-1.0:300.0:-1
ipc-2014-agile-visitall-53.pddl,TIMEOUT:301.081:-1.0:300.0:-1
ipc-2014-agile-visitall-54.pddl,TIMEOUT:301.057:-1.0:300.0:-1
ipc-2014-agile-visitall-55.pddl,TIMEOUT:301.064:-1.0:300.0:-1
ipc-2014-agile-visitall-56.pddl,TIMEOUT:301.046:-1.0:300.0:-1
ipc-2014-agile-visitall-57.pddl,TIMEOUT:301.029:-1.0:300.0:-1
ipc-2014-agile-visitall-58.pddl,TIMEOUT:301.052:-1.0:300.0:-1
ipc-2014-agile-visitall-59.pddl,TIMEOUT:301.088:-1.0:300.0:-1
ipc-2014-agile-visitall-60.pddl,TIMEOUT:301.073:-1.0:300.0:-1
ipc-2014-agile-visitall-61.pddl,TIMEOUT:301.077:-1.0:300.0:-1
ipc-2014-agile-visitall-62.pddl,TIMEOUT:301.021:-1.0:300.0:-1
ipc-2014-agile-visitall-63.pddl,TIMEOUT:301.039:-1.0:300.0:-1
ipc-2014-agile-visitall-64.pddl,TIMEOUT:301.084:-1.0:300.0:-1
ipc-2014-agile-visitall-65.pddl,TIMEOUT:301.076:-1.0:300.0:-1
