instance,ipc-2014-agile-siw
ipc-2014-agile-barman-p1-11-4-15.pddl,TIMEOUT:301.17:-1.0:300.0:-1
ipc-2014-agile-barman-p1-11-5-15.pddl,TIMEOUT:301.088:-1.0:300.0:-1
ipc-2014-agile-barman-p1-11-5-16.pddl,CRASHED:0.559913:1000000000.0:300.0:-1
ipc-2014-agile-barman-p2-10-4-13.pddl,TIMEOUT:301.107:-1.0:300.0:-1
ipc-2014-agile-barman-p2-11-4-15.pddl,TIMEOUT:301.089:-1.0:300.0:-1
ipc-2014-agile-barman-p2-11-5-15.pddl,TIMEOUT:301.084:-1.0:300.0:-1
ipc-2014-agile-barman-p2-11-5-16.pddl,CRASHED:0.603907:1000000000.0:300.0:-1
ipc-2014-agile-barman-p2-11-5-17.pddl,CRASHED:0.694893:1000000000.0:300.0:-1
ipc-2014-agile-barman-p3-10-4-13.pddl,TIMEOUT:301.11:-1.0:300.0:-1
ipc-2014-agile-barman-p3-11-4-15.pddl,TIMEOUT:301.079:-1.0:300.0:-1
ipc-2014-agile-barman-p3-11-5-15.pddl,TIMEOUT:301.102:-1.0:300.0:-1
ipc-2014-agile-barman-p3-11-5-16.pddl,CRASHED:0.576911:1000000000.0:300.0:-1
ipc-2014-agile-barman-p3-11-5-17.pddl,CRASHED:0.698892:1000000000.0:300.0:-1
ipc-2014-agile-barman-p4-11-4-14.pddl,TIMEOUT:301.101:-1.0:300.0:-1
ipc-2014-agile-barman-p4-11-4-15.pddl,TIMEOUT:301.156:-1.0:300.0:-1
ipc-2014-agile-barman-p4-11-5-15.pddl,TIMEOUT:301.11:-1.0:300.0:-1
ipc-2014-agile-barman-p5-10-4-13.pddl,TIMEOUT:301.051:-1.0:300.0:-1
ipc-2014-agile-barman-p5-11-4-15.pddl,TIMEOUT:301.162:-1.0:300.0:-1
ipc-2014-agile-barman-p5-11-5-15.pddl,TIMEOUT:301.18:-1.0:300.0:-1
ipc-2014-agile-barman-p5-11-5-16.pddl,CRASHED:0.58491:1000000000.0:300.0:-1
ipc-2014-agile-cavediving-01_easy.pddl,CRASHED:0.327949:1000000000.0:300.0:-1
ipc-2014-agile-cavediving-01.pddl,CRASHED:0.367943:1000000000.0:300.0:-1
ipc-2014-agile-cavediving-02_easy.pddl,CRASHED:0.315951:1000000000.0:300.0:-1
ipc-2014-agile-cavediving-03_easy.pddl,CRASHED:0.310952:1000000000.0:300.0:-1
ipc-2014-agile-cavediving-04_easy.pddl,CRASHED:0.316951:1000000000.0:300.0:-1
ipc-2014-agile-cavediving-05A_easy.pddl,CRASHED:0.210967:1000000000.0:300.0:-1
ipc-2014-agile-cavediving-06A_easy.pddl,CRASHED:0.211967:1000000000.0:300.0:-1
ipc-2014-agile-cavediving-07_easy.pddl,CRASHED:0.210967:1000000000.0:300.0:-1
ipc-2014-agile-cavediving-08_easy.pddl,CRASHED:0.210967:1000000000.0:300.0:-1
ipc-2014-agile-cavediving-09_easy.pddl,CRASHED:3.73543:1000000000.0:300.0:-1
ipc-2014-agile-cavediving-10_easy.pddl,CRASHED:3.78642:1000000000.0:300.0:-1
ipc-2014-agile-cavediving-11_easy.pddl,CRASHED:3.79442:1000000000.0:300.0:-1
ipc-2014-agile-cavediving-12_easy.pddl,CRASHED:3.76343:1000000000.0:300.0:-1
ipc-2014-agile-cavediving-13_easy.pddl,CRASHED:0.551915:1000000000.0:300.0:-1
ipc-2014-agile-cavediving-14_easy.pddl,CRASHED:0.52492:1000000000.0:300.0:-1
ipc-2014-agile-cavediving-15_easy.pddl,CRASHED:0.418935:1000000000.0:300.0:-1
ipc-2014-agile-cavediving-16_easy.pddl,CRASHED:0.543916:1000000000.0:300.0:-1
ipc-2014-agile-cavediving-18A_easy.pddl,CRASHED:0.041993:1000000000.0:300.0:-1
ipc-2014-agile-cavediving-18_easy.pddl,CRASHED:0.048992:1000000000.0:300.0:-1
ipc-2014-agile-cavediving-20A_easy.pddl,CRASHED:0.041992:1000000000.0:300.0:-1
ipc-2014-agile-childsnack-05-2.pddl,CRASHED:65.998:1000000000.0:300.0:-1
ipc-2014-agile-childsnack-05.pddl,CRASHED:66.2359:1000000000.0:300.0:-1
ipc-2014-agile-childsnack-06-2.pddl,CRASHED:217.728:1000000000.0:300.0:-1
ipc-2014-agile-childsnack-07-2.pddl,TIMEOUT:301.085:-1.0:300.0:-1
ipc-2014-agile-childsnack-08-2.pddl,TIMEOUT:301.079:-1.0:300.0:-1
ipc-2014-agile-childsnack-08.pddl,TIMEOUT:301.03:-1.0:300.0:-1
ipc-2014-agile-childsnack-09-2.pddl,TIMEOUT:301.047:-1.0:300.0:-1
ipc-2014-agile-childsnack-09.pddl,TIMEOUT:301.017:-1.0:300.0:-1
ipc-2014-agile-childsnack-10-2.pddl,TIMEOUT:301.116:-1.0:300.0:-1
ipc-2014-agile-childsnack-10.pddl,TIMEOUT:301.042:-1.0:300.0:-1
ipc-2014-agile-childsnack-11-2.pddl,TIMEOUT:301.116:-1.0:300.0:-1
ipc-2014-agile-childsnack-11.pddl,TIMEOUT:301.092:-1.0:300.0:-1
ipc-2014-agile-childsnack-12.pddl,TIMEOUT:301.108:-1.0:300.0:-1
ipc-2014-agile-childsnack-13-2.pddl,TIMEOUT:301.073:-1.0:300.0:-1
ipc-2014-agile-childsnack-13.pddl,TIMEOUT:301.102:-1.0:300.0:-1
ipc-2014-agile-childsnack-14.pddl,TIMEOUT:301.136:-1.0:300.0:-1
ipc-2014-agile-childsnack-15-2.pddl,TIMEOUT:301.053:-1.0:300.0:-1
ipc-2014-agile-childsnack-16-2.pddl,TIMEOUT:301.121:-1.0:300.0:-1
ipc-2014-agile-childsnack-19-2.pddl,TIMEOUT:301.065:-1.0:300.0:-1
ipc-2014-agile-childsnack-19.pddl,TIMEOUT:301.115:-1.0:300.0:-1
ipc-2014-agile-citycar-p3-2-2-0-1.pddl,SAT:12.1192:88.0:300.0:-1
ipc-2014-agile-citycar-p3-3-2-0-1.pddl,SAT:18.9001:142.0:300.0:-1
ipc-2014-agile-citycar-p3-4-2-0-1.pddl,SAT:15.0897:106.0:300.0:-1
ipc-2014-agile-citycar-p3-5-2-0-1.pddl,SAT:21.2828:150.0:300.0:-1
ipc-2014-agile-citycar-p3-5-2-0-2.pddl,SAT:19.2641:90.0:300.0:-1
ipc-2014-agile-citycar-p4-2-2-0-1.pddl,SAT:282.715:152.0:300.0:-1
ipc-2014-agile-citycar-p4-2-3-0-1.pddl,SAT:290.127:142.0:300.0:-1
ipc-2014-agile-citycar-p4-2-3-0-2.pddl,SAT:274.744:122.0:300.0:-1
ipc-2014-agile-citycar-p4-3-2-0-1.pddl,TIMEOUT:301.029:-1.0:300.0:-1
ipc-2014-agile-citycar-p4-3-2-0-2.pddl,TIMEOUT:301.053:-1.0:300.0:-1
ipc-2014-agile-citycar-p4-3-3-0-1.pddl,TIMEOUT:301.056:-1.0:300.0:-1
ipc-2014-agile-citycar-p4-3-3-0-2.pddl,TIMEOUT:301.095:-1.0:300.0:-1
ipc-2014-agile-citycar-p4-4-2-0-1.pddl,TIMEOUT:301.046:-1.0:300.0:-1
ipc-2014-agile-citycar-p4-4-2-0-2.pddl,TIMEOUT:301.068:-1.0:300.0:-1
ipc-2014-agile-citycar-p4-4-3-0-1.pddl,TIMEOUT:301.115:-1.0:300.0:-1
ipc-2014-agile-citycar-p4-4-3-0-2.pddl,TIMEOUT:301.059:-1.0:300.0:-1
ipc-2014-agile-citycar-p4-5-2-0-1.pddl,TIMEOUT:301.086:-1.0:300.0:-1
ipc-2014-agile-citycar-p4-5-2-0-2.pddl,TIMEOUT:301.04:-1.0:300.0:-1
ipc-2014-agile-citycar-p4-5-3-0-1.pddl,TIMEOUT:301.132:-1.0:300.0:-1
ipc-2014-agile-citycar-p4-5-3-0-2.pddl,TIMEOUT:301.097:-1.0:300.0:-1
ipc-2014-agile-floortile-p01-4-3-2.pddl,CRASHED:1.07484:1000000000.0:300.0:-1
ipc-2014-agile-floortile-p01-5-4-2.pddl,CRASHED:0.31795:1000000000.0:300.0:-1
ipc-2014-agile-floortile-p01-5-5-2.pddl,CRASHED:1.13683:1000000000.0:300.0:-1
ipc-2014-agile-floortile-p01-6-4-2.pddl,CRASHED:1.14882:1000000000.0:300.0:-1
ipc-2014-agile-floortile-p01-6-5-2.pddl,CRASHED:5.39318:1000000000.0:300.0:-1
ipc-2014-agile-floortile-p01-6-5-3.pddl,CRASHED:36.3965:1000000000.0:300.0:-1
ipc-2014-agile-floortile-p02-5-4-2.pddl,CRASHED:0.312952:1000000000.0:300.0:-1
ipc-2014-agile-floortile-p02-6-4-2.pddl,CRASHED:2.34364:1000000000.0:300.0:-1
ipc-2014-agile-floortile-p02-6-5-2.pddl,CRASHED:1.20781:1000000000.0:300.0:-1
ipc-2014-agile-floortile-p02-6-5-3.pddl,CRASHED:8.93364:1000000000.0:300.0:-1
ipc-2014-agile-floortile-p03-6-4-2.pddl,CRASHED:0.770882:1000000000.0:300.0:-1
ipc-2014-agile-floortile-p03-6-5-2.pddl,CRASHED:6.04508:1000000000.0:300.0:-1
ipc-2014-agile-floortile-p03-6-5-3.pddl,CRASHED:5.03023:1000000000.0:300.0:-1
ipc-2014-agile-floortile-p04-5-4-2.pddl,CRASHED:0.233964:1000000000.0:300.0:-1
ipc-2014-agile-floortile-p04-5-5-2.pddl,CRASHED:0.808876:1000000000.0:300.0:-1
ipc-2014-agile-floortile-p04-6-5-2.pddl,CRASHED:1.81172:1000000000.0:300.0:-1
ipc-2014-agile-floortile-p04-6-5-3.pddl,CRASHED:9.62054:1000000000.0:300.0:-1
ipc-2014-agile-floortile-p05-4-3-2.pddl,CRASHED:0.52192:1000000000.0:300.0:-1
ipc-2014-agile-floortile-p05-6-5-2.pddl,CRASHED:3.00154:1000000000.0:300.0:-1
ipc-2014-agile-floortile-p05-6-5-3.pddl,CRASHED:6.35003:1000000000.0:300.0:-1
ipc-2014-agile-ged-d-10-1.pddl,CRASHED:2.41563:1000000000.0:300.0:-1
ipc-2014-agile-ged-d-10-2.pddl,CRASHED:2.40963:1000000000.0:300.0:-1
ipc-2014-agile-ged-d-10-3.pddl,CRASHED:3.20651:1000000000.0:300.0:-1
ipc-2014-agile-ged-d-10-4.pddl,CRASHED:2.56661:1000000000.0:300.0:-1
ipc-2014-agile-ged-d-10-5.pddl,CRASHED:6.69898:1000000000.0:300.0:-1
ipc-2014-agile-ged-d-10-6.pddl,CRASHED:6.92195:1000000000.0:300.0:-1
ipc-2014-agile-ged-d-11-1.pddl,CRASHED:3.22551:1000000000.0:300.0:-1
ipc-2014-agile-ged-d-11-3.pddl,CRASHED:3.34549:1000000000.0:300.0:-1
ipc-2014-agile-ged-d-11-5.pddl,CRASHED:5.06823:1000000000.0:300.0:-1
ipc-2014-agile-ged-d-11-6.pddl,CRASHED:4.13037:1000000000.0:300.0:-1
ipc-2014-agile-ged-d-12-11.pddl,CRASHED:4.15337:1000000000.0:300.0:-1
ipc-2014-agile-ged-d-12-2.pddl,CRASHED:10.2524:1000000000.0:300.0:-1
ipc-2014-agile-ged-d-12-3.pddl,CRASHED:12.2181:1000000000.0:300.0:-1
ipc-2014-agile-ged-d-12-5.pddl,CRASHED:22.4246:1000000000.0:300.0:-1
ipc-2014-agile-ged-d-12-6.pddl,CRASHED:10.7344:1000000000.0:300.0:-1
ipc-2014-agile-ged-d-12-7.pddl,CRASHED:12.7971:1000000000.0:300.0:-1
ipc-2014-agile-ged-d-12-8.pddl,CRASHED:18.7681:1000000000.0:300.0:-1
ipc-2014-agile-ged-d-12-9.pddl,CRASHED:19.0371:1000000000.0:300.0:-1
ipc-2014-agile-ged-d-3-6.pddl,CRASHED:2.97455:1000000000.0:300.0:-1
ipc-2014-agile-ged-d-9-5.pddl,SAT:1.9717:20.0:300.0:-1
ipc-2014-agile-hiking-3-4-3.pddl,SAT:0.367943:13.0:300.0:-1
ipc-2014-agile-hiking-3-4-4.pddl,SAT:139.061:27.0:300.0:-1
ipc-2014-agile-hiking-3-4-5.pddl,TIMEOUT:301.046:-1.0:300.0:-1
ipc-2014-agile-hiking-3-4-6.pddl,TIMEOUT:301.109:-1.0:300.0:-1
ipc-2014-agile-hiking-3-4-7.pddl,TIMEOUT:301.123:-1.0:300.0:-1
ipc-2014-agile-hiking-3-4-8.pddl,TIMEOUT:301.096:-1.0:300.0:-1
ipc-2014-agile-hiking-3-4-9.pddl,TIMEOUT:301.046:-1.0:300.0:-1
ipc-2014-agile-hiking-4-5-3.pddl,SAT:2.02869:15.0:300.0:-1
ipc-2014-agile-hiking-4-5-4.pddl,TIMEOUT:301.07:-1.0:300.0:-1
ipc-2014-agile-hiking-4-5-5.pddl,TIMEOUT:301.044:-1.0:300.0:-1
ipc-2014-agile-hiking-4-5-6.pddl,TIMEOUT:301.059:-1.0:300.0:-1
ipc-2014-agile-hiking-4-5-7.pddl,TIMEOUT:301.068:-1.0:300.0:-1
ipc-2014-agile-hiking-4-5-8.pddl,TIMEOUT:301.076:-1.0:300.0:-1
ipc-2014-agile-hiking-4-5-9.pddl,TIMEOUT:301.067:-1.0:300.0:-1
ipc-2014-agile-hiking-5-6-3.pddl,SAT:10.8404:17.0:300.0:-1
ipc-2014-agile-hiking-5-6-4.pddl,TIMEOUT:301.094:-1.0:300.0:-1
ipc-2014-agile-hiking-5-6-5.pddl,TIMEOUT:301.085:-1.0:300.0:-1
ipc-2014-agile-hiking-5-6-6.pddl,TIMEOUT:301.161:-1.0:300.0:-1
ipc-2014-agile-hiking-5-6-7.pddl,TIMEOUT:301.081:-1.0:300.0:-1
ipc-2014-agile-hiking-5-6-8.pddl,TIMEOUT:301.182:-1.0:300.0:-1
ipc-2014-agile-maintenance-1.3.060.180.5-000.pddl,CRASHED:0.19497:1000000000.0:300.0:-1
ipc-2014-agile-maintenance-1.3.060.180.5-001.pddl,CRASHED:33.3429:1000000000.0:300.0:-1
ipc-2014-agile-maintenance-1.3.060.180.5-002.pddl,CRASHED:2.24366:1000000000.0:300.0:-1
ipc-2014-agile-maintenance-1.3.100.300.5-000.pddl,CRASHED:292.822:1000000000.0:300.0:-1
ipc-2014-agile-maintenance-1.3.100.300.5-001.pddl,CRASHED:168.455:1000000000.0:300.0:-1
ipc-2014-agile-maintenance-1.3.100.300.7-000.pddl,CRASHED:111.913:1000000000.0:300.0:-1
ipc-2014-agile-maintenance-1.3.100.300.7-001.pddl,CRASHED:52.395:1000000000.0:300.0:-1
ipc-2014-agile-maintenance-1.3.100.300.7-002.pddl,TIMEOUT:301.169:-1.0:300.0:-1
ipc-2014-agile-maintenance-1.3.150.500.6-001.pddl,CRASHED:6.15306:1000000000.0:300.0:-1
ipc-2014-agile-maintenance-1.3.200.500.5-001.pddl,CRASHED:10.1685:1000000000.0:300.0:-1
ipc-2014-agile-maintenance-1.3.200.500.5-002.pddl,CRASHED:9.38757:1000000000.0:300.0:-1
ipc-2014-agile-maintenance-1.3.200.700.7-000.pddl,CRASHED:3.80442:1000000000.0:300.0:-1
ipc-2014-agile-maintenance-1.3.200.700.7-001.pddl,CRASHED:3.80042:1000000000.0:300.0:-1
ipc-2014-agile-maintenance-1.3.200.700.7-002.pddl,CRASHED:3.80942:1000000000.0:300.0:-1
ipc-2014-agile-maintenance-1.3.200.900.5-000.pddl,CRASHED:2.74558:1000000000.0:300.0:-1
ipc-2014-agile-maintenance-1.3.200.900.5-001.pddl,CRASHED:2.41063:1000000000.0:300.0:-1
ipc-2014-agile-maintenance-1.3.200.900.5-002.pddl,CRASHED:2.40763:1000000000.0:300.0:-1
ipc-2014-agile-maintenance-1.3.200.900.8-000.pddl,CRASHED:2.47162:1000000000.0:300.0:-1
ipc-2014-agile-maintenance-1.3.200.900.8-001.pddl,CRASHED:2.44363:1000000000.0:300.0:-1
ipc-2014-agile-maintenance-1.3.200.900.8-002.pddl,CRASHED:2.46862:1000000000.0:300.0:-1
ipc-2014-agile-openstacks-p130_2.pddl,CRASHED:174.054:1000000000.0:300.0:-1
ipc-2014-agile-openstacks-p130_3.pddl,CRASHED:44.0333:1000000000.0:300.0:-1
ipc-2014-agile-openstacks-p150_2.pddl,TIMEOUT:301.084:-1.0:300.0:-1
ipc-2014-agile-openstacks-p150_3.pddl,CRASHED:81.8366:1000000000.0:300.0:-1
ipc-2014-agile-openstacks-p170_1.pddl,TIMEOUT:301.065:-1.0:300.0:-1
ipc-2014-agile-openstacks-p170_2.pddl,TIMEOUT:301.081:-1.0:300.0:-1
ipc-2014-agile-openstacks-p170_3.pddl,CRASHED:132.841:1000000000.0:300.0:-1
ipc-2014-agile-openstacks-p190_1.pddl,TIMEOUT:301.099:-1.0:300.0:-1
ipc-2014-agile-openstacks-p190_2.pddl,TIMEOUT:301.113:-1.0:300.0:-1
ipc-2014-agile-openstacks-p190_3.pddl,CRASHED:215.673:1000000000.0:300.0:-1
ipc-2014-agile-openstacks-p210_1.pddl,TIMEOUT:301.182:-1.0:300.0:-1
ipc-2014-agile-openstacks-p210_2.pddl,TIMEOUT:301.119:-1.0:300.0:-1
ipc-2014-agile-openstacks-p230_1.pddl,TIMEOUT:301.129:-1.0:300.0:-1
ipc-2014-agile-openstacks-p230_2.pddl,TIMEOUT:301.119:-1.0:300.0:-1
ipc-2014-agile-openstacks-p250_1.pddl,TIMEOUT:301.191:-1.0:300.0:-1
ipc-2014-agile-openstacks-p250_2.pddl,TIMEOUT:301.128:-1.0:300.0:-1
ipc-2014-agile-openstacks-p270_1.pddl,TIMEOUT:301.21:-1.0:300.0:-1
ipc-2014-agile-openstacks-p270_2.pddl,TIMEOUT:301.198:-1.0:300.0:-1
ipc-2014-agile-openstacks-p290_1.pddl,TIMEOUT:301.247:-1.0:300.0:-1
ipc-2014-agile-openstacks-p290_2.pddl,TIMEOUT:301.153:-1.0:300.0:-1
ipc-2014-agile-parking-28_2.pddl,SAT:24.2013:52.0:300.0:-1
ipc-2014-agile-parking-28_3.pddl,SAT:23.7394:53.0:300.0:-1
ipc-2014-agile-parking-30_1.pddl,SAT:33.2979:50.0:300.0:-1
ipc-2014-agile-parking-30_2.pddl,SAT:34.0328:57.0:300.0:-1
ipc-2014-agile-parking-30_3.pddl,SAT:34.5947:56.0:300.0:-1
ipc-2014-agile-parking-32_1.pddl,SAT:50.5373:60.0:300.0:-1
ipc-2014-agile-parking-32_2.pddl,SAT:47.3128:61.0:300.0:-1
ipc-2014-agile-parking-32_3.pddl,SAT:48.2287:63.0:300.0:-1
ipc-2014-agile-parking-34_1.pddl,SAT:69.4424:69.0:300.0:-1
ipc-2014-agile-parking-34_2.pddl,SAT:67.6557:66.0:300.0:-1
ipc-2014-agile-parking-34_3.pddl,SAT:70.3523:70.0:300.0:-1
ipc-2014-agile-parking-36_1.pddl,SAT:96.1894:74.0:300.0:-1
ipc-2014-agile-parking-36_2.pddl,SAT:90.1453:75.0:300.0:-1
ipc-2014-agile-parking-36_3.pddl,SAT:84.8801:66.0:300.0:-1
ipc-2014-agile-parking-38_1.pddl,SAT:111.934:73.0:300.0:-1
ipc-2014-agile-parking-38_2.pddl,SAT:114.913:71.0:300.0:-1
ipc-2014-agile-parking-38_3.pddl,SAT:114.465:75.0:300.0:-1
ipc-2014-agile-parking-40_1.pddl,SAT:152.713:77.0:300.0:-1
ipc-2014-agile-parking-40_2.pddl,SAT:154.43:79.0:300.0:-1
ipc-2014-agile-parking-40_3.pddl,SAT:149.227:83.0:300.0:-1
ipc-2014-agile-tetris-020.pddl,SAT:108.97:54.0:300.0:-1
ipc-2014-agile-tetris-021.pddl,TIMEOUT:301.103:-1.0:300.0:-1
ipc-2014-agile-tetris-022.pddl,TIMEOUT:301.1:-1.0:300.0:-1
ipc-2014-agile-tetris-023.pddl,TIMEOUT:301.098:-1.0:300.0:-1
ipc-2014-agile-tetris-024.pddl,TIMEOUT:301.061:-1.0:300.0:-1
ipc-2014-agile-tetris-025.pddl,TIMEOUT:301.083:-1.0:300.0:-1
ipc-2014-agile-tetris-026.pddl,TIMEOUT:301.042:-1.0:300.0:-1
ipc-2014-agile-tetris-027.pddl,TIMEOUT:301.113:-1.0:300.0:-1
ipc-2014-agile-tetris-028.pddl,TIMEOUT:301.06:-1.0:300.0:-1
ipc-2014-agile-tetris-029.pddl,TIMEOUT:301.066:-1.0:300.0:-1
ipc-2014-agile-tetris-031.pddl,TIMEOUT:301.044:-1.0:300.0:-1
ipc-2014-agile-tetris-032.pddl,TIMEOUT:301.084:-1.0:300.0:-1
ipc-2014-agile-tetris-033.pddl,TIMEOUT:301.03:-1.0:300.0:-1
ipc-2014-agile-tetris-034.pddl,TIMEOUT:301.056:-1.0:300.0:-1
ipc-2014-agile-tetris-035.pddl,TIMEOUT:301.109:-1.0:300.0:-1
ipc-2014-agile-tetris-036.pddl,TIMEOUT:301.059:-1.0:300.0:-1
ipc-2014-agile-tetris-037.pddl,TIMEOUT:301.093:-1.0:300.0:-1
ipc-2014-agile-tetris-038.pddl,TIMEOUT:301.07:-1.0:300.0:-1
ipc-2014-agile-tetris-039.pddl,TIMEOUT:301.074:-1.0:300.0:-1
ipc-2014-agile-tetris-040.pddl,TIMEOUT:301.052:-1.0:300.0:-1
ipc-2014-agile-thoughtful-bootstrap-typed-01.pddl,SAT:0.101983:33.0:300.0:-1
ipc-2014-agile-thoughtful-bootstrap-typed-02.pddl,SAT:0.089985:28.0:300.0:-1
ipc-2014-agile-thoughtful-bootstrap-typed-03.pddl,SAT:0.12598:35.0:300.0:-1
ipc-2014-agile-thoughtful-bootstrap-typed-04.pddl,SAT:0.119981:31.0:300.0:-1
ipc-2014-agile-thoughtful-bootstrap-typed-05.pddl,SAT:0.120981:33.0:300.0:-1
ipc-2014-agile-thoughtful-p11_6_53-typed.pddl,SAT:4.45332:115.0:300.0:-1
ipc-2014-agile-thoughtful-p11_6_59-typed.pddl,SAT:3.32849:111.0:300.0:-1
ipc-2014-agile-thoughtful-p11_6_62-typed.pddl,SAT:3.65644:106.0:300.0:-1
ipc-2014-agile-thoughtful-p13_7_78-typed.pddl,SAT:6.20806:131.0:300.0:-1
ipc-2014-agile-thoughtful-p13_7_79-typed.pddl,SAT:5.35019:126.0:300.0:-1
ipc-2014-agile-thoughtful-p13_7_86-typed.pddl,SAT:5.54916:144.0:300.0:-1
ipc-2014-agile-thoughtful-target-typed-20.pddl,SAT:5.05023:109.0:300.0:-1
ipc-2014-agile-thoughtful-target-typed-21.pddl,CRASHED:6.34304:1000000000.0:300.0:-1
ipc-2014-agile-thoughtful-target-typed-22.pddl,SAT:5.35519:151.0:300.0:-1
ipc-2014-agile-thoughtful-target-typed-23.pddl,SAT:6.27604:136.0:300.0:-1
ipc-2014-agile-thoughtful-target-typed-24.pddl,SAT:5.54516:139.0:300.0:-1
ipc-2014-agile-thoughtful-target-typed-25.pddl,SAT:6.541:113.0:300.0:-1
ipc-2014-agile-thoughtful-target-typed-26.pddl,SAT:5.41617:135.0:300.0:-1
ipc-2014-agile-thoughtful-target-typed-27.pddl,SAT:5.34719:112.0:300.0:-1
ipc-2014-agile-thoughtful-target-typed-28.pddl,CRASHED:4.96824:1000000000.0:300.0:-1
ipc-2014-agile-transport-01.pddl,SAT:53.6138:2274.0:300.0:-1
ipc-2014-agile-transport-02.pddl,SAT:252.653:3144.0:300.0:-1
ipc-2014-agile-transport-03.pddl,SAT:146.982:2783.0:300.0:-1
ipc-2014-agile-transport-04.pddl,TIMEOUT:301.177:-1.0:300.0:-1
ipc-2014-agile-transport-05.pddl,TIMEOUT:301.128:-1.0:300.0:-1
ipc-2014-agile-transport-06.pddl,TIMEOUT:301.213:-1.0:300.0:-1
ipc-2014-agile-transport-07.pddl,TIMEOUT:301.195:-1.0:300.0:-1
ipc-2014-agile-transport-08.pddl,TIMEOUT:301.158:-1.0:300.0:-1
ipc-2014-agile-transport-09.pddl,TIMEOUT:301.199:-1.0:300.0:-1
ipc-2014-agile-transport-10.pddl,TIMEOUT:301.201:-1.0:300.0:-1
ipc-2014-agile-transport-11.pddl,SAT:281.189:2069.0:300.0:-1
ipc-2014-agile-transport-12.pddl,SAT:275.032:2936.0:300.0:-1
ipc-2014-agile-transport-13.pddl,SAT:99.6249:2178.0:300.0:-1
ipc-2014-agile-transport-14.pddl,TIMEOUT:301.207:-1.0:300.0:-1
ipc-2014-agile-transport-15.pddl,TIMEOUT:301.114:-1.0:300.0:-1
ipc-2014-agile-transport-16.pddl,TIMEOUT:301.159:-1.0:300.0:-1
ipc-2014-agile-transport-17.pddl,TIMEOUT:301.212:-1.0:300.0:-1
ipc-2014-agile-transport-18.pddl,TIMEOUT:301.193:-1.0:300.0:-1
ipc-2014-agile-transport-19.pddl,TIMEOUT:301.129:-1.0:300.0:-1
ipc-2014-agile-transport-20.pddl,TIMEOUT:301.166:-1.0:300.0:-1
ipc-2014-agile-visitall-30.pddl,SAT:10.9233:919.0:300.0:-1
ipc-2014-agile-visitall-31.pddl,SAT:12.6931:1004.0:300.0:-1
ipc-2014-agile-visitall-32.pddl,SAT:15.1267:1046.0:300.0:-1
ipc-2014-agile-visitall-33.pddl,SAT:17.9203:1136.0:300.0:-1
ipc-2014-agile-visitall-50.pddl,SAT:185.925:2534.0:300.0:-1
ipc-2014-agile-visitall-51.pddl,SAT:208.176:2674.0:300.0:-1
ipc-2014-agile-visitall-52.pddl,SAT:231.565:2741.0:300.0:-1
ipc-2014-agile-visitall-53.pddl,SAT:258.598:2886.0:300.0:-1
ipc-2014-agile-visitall-54.pddl,SAT:287.264:2953.0:300.0:-1
ipc-2014-agile-visitall-55.pddl,TIMEOUT:301.158:-1.0:300.0:-1
ipc-2014-agile-visitall-56.pddl,TIMEOUT:301.173:-1.0:300.0:-1
ipc-2014-agile-visitall-57.pddl,TIMEOUT:301.147:-1.0:300.0:-1
ipc-2014-agile-visitall-58.pddl,TIMEOUT:301.151:-1.0:300.0:-1
ipc-2014-agile-visitall-59.pddl,TIMEOUT:301.15:-1.0:300.0:-1
ipc-2014-agile-visitall-60.pddl,TIMEOUT:301.145:-1.0:300.0:-1
ipc-2014-agile-visitall-61.pddl,TIMEOUT:301.087:-1.0:300.0:-1
ipc-2014-agile-visitall-62.pddl,TIMEOUT:301.078:-1.0:300.0:-1
ipc-2014-agile-visitall-63.pddl,TIMEOUT:301.153:-1.0:300.0:-1
ipc-2014-agile-visitall-64.pddl,TIMEOUT:301.145:-1.0:300.0:-1
ipc-2014-agile-visitall-65.pddl,TIMEOUT:301.157:-1.0:300.0:-1
