instance,ipc-2014-optimal-nucelar
ipc-2014-optimal-barman-p433.1.pddl,CRASHED:1.07384:1000000000.0:1800.0:-1
ipc-2014-optimal-barman-p433.2.pddl,CRASHED:1.03484:1000000000.0:1800.0:-1
ipc-2014-optimal-barman-p433.3.pddl,CRASHED:1.03484:1000000000.0:1800.0:-1
ipc-2014-optimal-barman-p435.1.pddl,CRASHED:435.95:1000000000.0:1800.0:-1
ipc-2014-optimal-barman-p435.2.pddl,CRASHED:1791.76:1000000000.0:1800.0:-1
ipc-2014-optimal-barman-p435.3.pddl,CRASHED:1791.82:1000000000.0:1800.0:-1
ipc-2014-optimal-barman-p443.1.pddl,CRASHED:1.05284:1000000000.0:1800.0:-1
ipc-2014-optimal-barman-p443.2.pddl,CRASHED:1.07384:1000000000.0:1800.0:-1
ipc-2014-optimal-barman-p443.3.pddl,CRASHED:1.04984:1000000000.0:1800.0:-1
ipc-2014-optimal-barman-p536.1.pddl,TIMEOUT:1801.0:-1.0:1800.0:-1
ipc-2014-optimal-barman-p536.2.pddl,TIMEOUT:1801.04:-1.0:1800.0:-1
ipc-2014-optimal-barman-p536.3.pddl,TIMEOUT:1801.08:-1.0:1800.0:-1
ipc-2014-optimal-barman-p638.1.pddl,TIMEOUT:1801.05:-1.0:1800.0:-1
ipc-2014-optimal-barman-p638.2.pddl,CRASHED:1797.99:1000000000.0:1800.0:-1
ipc-2014-optimal-barman-p638.3.pddl,CRASHED:1795.31:1000000000.0:1800.0:-1
ipc-2014-optimal-barman-p739.1.pddl,CRASHED:1796.7:1000000000.0:1800.0:-1
ipc-2014-optimal-barman-p739.2.pddl,CRASHED:327.41:1000000000.0:1800.0:-1
ipc-2014-optimal-barman-p739.3.pddl,CRASHED:1795.81:1000000000.0:1800.0:-1
ipc-2014-optimal-barman-p839.1.pddl,CRASHED:327.44:1000000000.0:1800.0:-1
ipc-2014-optimal-barman-p839.2.pddl,CRASHED:1796.44:1000000000.0:1800.0:-1
ipc-2014-optimal-cavediving-01.pddl,CRASHED:40.2369:1000000000.0:1800.0:-1
ipc-2014-optimal-cavediving-01_easy.pddl,CRASHED:27.9308:1000000000.0:1800.0:-1
ipc-2014-optimal-cavediving-02_easy.pddl,CRASHED:27.6388:1000000000.0:1800.0:-1
ipc-2014-optimal-cavediving-03_easy.pddl,CRASHED:29.6115:1000000000.0:1800.0:-1
ipc-2014-optimal-cavediving-04_easy.pddl,CRASHED:30.0404:1000000000.0:1800.0:-1
ipc-2014-optimal-cavediving-05A_easy.pddl,CRASHED:5.79012:1000000000.0:1800.0:-1
ipc-2014-optimal-cavediving-06A_easy.pddl,CRASHED:5.52516:1000000000.0:1800.0:-1
ipc-2014-optimal-cavediving-07_easy.pddl,CRASHED:5.56815:1000000000.0:1800.0:-1
ipc-2014-optimal-cavediving-08_easy.pddl,CRASHED:5.53816:1000000000.0:1800.0:-1
ipc-2014-optimal-cavediving-09_easy.pddl,CRASHED:154.491:1000000000.0:1800.0:-1
ipc-2014-optimal-cavediving-10_easy.pddl,CRASHED:154.495:1000000000.0:1800.0:-1
ipc-2014-optimal-cavediving-11_easy.pddl,CRASHED:153.573:1000000000.0:1800.0:-1
ipc-2014-optimal-cavediving-12_easy.pddl,CRASHED:147.436:1000000000.0:1800.0:-1
ipc-2014-optimal-cavediving-13_easy.pddl,CRASHED:42.0726:1000000000.0:1800.0:-1
ipc-2014-optimal-cavediving-14_easy.pddl,CRASHED:42.2416:1000000000.0:1800.0:-1
ipc-2014-optimal-cavediving-15_easy.pddl,CRASHED:34.2828:1000000000.0:1800.0:-1
ipc-2014-optimal-cavediving-16_easy.pddl,CRASHED:40.5248:1000000000.0:1800.0:-1
ipc-2014-optimal-cavediving-18A_easy.pddl,CRASHED:8.48571:1000000000.0:1800.0:-1
ipc-2014-optimal-cavediving-18_easy.pddl,CRASHED:10.1345:1000000000.0:1800.0:-1
ipc-2014-optimal-cavediving-20A_easy.pddl,CRASHED:8.64968:1000000000.0:1800.0:-1
ipc-2014-optimal-childsnack-01-2.pddl,CRASHED:1792.46:1000000000.0:1800.0:-1
ipc-2014-optimal-childsnack-01.pddl,CRASHED:1787.79:1000000000.0:1800.0:-1
ipc-2014-optimal-childsnack-02-2.pddl,CRASHED:1252.71:1000000000.0:1800.0:-1
ipc-2014-optimal-childsnack-02.pddl,CRASHED:1784.46:1000000000.0:1800.0:-1
ipc-2014-optimal-childsnack-03-2.pddl,CRASHED:1795.86:1000000000.0:1800.0:-1
ipc-2014-optimal-childsnack-03.pddl,CRASHED:1795.36:1000000000.0:1800.0:-1
ipc-2014-optimal-childsnack-04-2.pddl,CRASHED:188.56:1000000000.0:1800.0:-1
ipc-2014-optimal-childsnack-04.pddl,CRASHED:1427.11:1000000000.0:1800.0:-1
ipc-2014-optimal-childsnack-05-2.pddl,CRASHED:188.22:1000000000.0:1800.0:-1
ipc-2014-optimal-childsnack-05.pddl,CRASHED:1796.67:1000000000.0:1800.0:-1
ipc-2014-optimal-childsnack-06-2.pddl,CRASHED:1785.06:1000000000.0:1800.0:-1
ipc-2014-optimal-childsnack-06.pddl,CRASHED:1785.96:1000000000.0:1800.0:-1
ipc-2014-optimal-childsnack-07-2.pddl,TIMEOUT:1801.09:-1.0:1800.0:-1
ipc-2014-optimal-childsnack-07.pddl,CRASHED:1793.25:1000000000.0:1800.0:-1
ipc-2014-optimal-childsnack-08-2.pddl,CRASHED:1462.87:1000000000.0:1800.0:-1
ipc-2014-optimal-childsnack-08.pddl,TIMEOUT:1801.09:-1.0:1800.0:-1
ipc-2014-optimal-childsnack-09-2.pddl,TIMEOUT:1801.01:-1.0:1800.0:-1
ipc-2014-optimal-childsnack-09.pddl,TIMEOUT:1801.07:-1.0:1800.0:-1
ipc-2014-optimal-childsnack-10-2.pddl,TIMEOUT:1801.06:-1.0:1800.0:-1
ipc-2014-optimal-childsnack-10.pddl,TIMEOUT:1801.02:-1.0:1800.0:-1
ipc-2014-optimal-citycar-p2-2-2-1-2.pddl,CRASHED:54.5327:46.0:1800.0:-1
ipc-2014-optimal-citycar-p2-2-2-2-1.pddl,SAT:54.5007:64.0:1800.0:-1
ipc-2014-optimal-citycar-p2-2-3-1-2.pddl,SAT:76.8323:50.0:1800.0:-1
ipc-2014-optimal-citycar-p2-2-3-2-1.pddl,CRASHED:80.3558:48.0:1800.0:-1
ipc-2014-optimal-citycar-p2-2-3-2-2.pddl,SAT:88.7845:50.0:1800.0:-1
ipc-2014-optimal-citycar-p2-2-4-1-2.pddl,SAT:101.212:52.0:1800.0:-1
ipc-2014-optimal-citycar-p2-2-4-2-1.pddl,SAT:118.368:52.0:1800.0:-1
ipc-2014-optimal-citycar-p2-2-5-2-2.pddl,CRASHED:522.75:76.0:1800.0:-1
ipc-2014-optimal-citycar-p2-2-6-1-1.pddl,CRASHED:522.35:1000000000.0:1800.0:-1
ipc-2014-optimal-citycar-p2-2-6-2-2.pddl,CRASHED:523.41:58.0:1800.0:-1
ipc-2014-optimal-citycar-p2-3-2-3-1.pddl,SAT:200.672:68.0:1800.0:-1
ipc-2014-optimal-citycar-p2-3-3-3-1.pddl,CRASHED:523.28:78.0:1800.0:-1
ipc-2014-optimal-citycar-p2-3-4-3-1.pddl,TIMEOUT:1801.0:-1.0:1800.0:-1
ipc-2014-optimal-citycar-p2-3-6-3-2.pddl,TIMEOUT:1801.0:-1.0:1800.0:-1
ipc-2014-optimal-citycar-p3-3-2-2-1.pddl,TIMEOUT:1801.01:-1.0:1800.0:-1
ipc-2014-optimal-citycar-p3-3-2-2-2.pddl,TIMEOUT:1801.0:-1.0:1800.0:-1
ipc-2014-optimal-citycar-p3-3-2-3-1.pddl,SAT:202.258:48.0:1800.0:-1
ipc-2014-optimal-citycar-p3-3-2-3-2.pddl,TIMEOUT:1801.0:-1.0:1800.0:-1
ipc-2014-optimal-citycar-p3-3-3-3-1.pddl,TIMEOUT:1801.09:-1.0:1800.0:-1
ipc-2014-optimal-citycar-p3-3-3-3-2.pddl,TIMEOUT:1801.02:-1.0:1800.0:-1
ipc-2014-optimal-floortile-p01-4-3-2.pddl,SAT:41.1127:56.0:1800.0:-1
ipc-2014-optimal-floortile-p01-4-4-2.pddl,CRASHED:395.686:68.0:1800.0:-1
ipc-2014-optimal-floortile-p01-5-3-2.pddl,CRASHED:309.082:63.0:1800.0:-1
ipc-2014-optimal-floortile-p01-5-4-2.pddl,CRASHED:1795.17:1000000000.0:1800.0:-1
ipc-2014-optimal-floortile-p01-5-5-2.pddl,TIMEOUT:1801.05:-1.0:1800.0:-1
ipc-2014-optimal-floortile-p01-6-4-2.pddl,CRASHED:1799.57:1000000000.0:1800.0:-1
ipc-2014-optimal-floortile-p01-6-5-2.pddl,TIMEOUT:1801.03:-1.0:1800.0:-1
ipc-2014-optimal-floortile-p02-4-4-2.pddl,CRASHED:1795.83:1000000000.0:1800.0:-1
ipc-2014-optimal-floortile-p02-5-3-2.pddl,CRASHED:345.958:65.0:1800.0:-1
ipc-2014-optimal-floortile-p02-5-4-2.pddl,CRASHED:1326.32:1000000000.0:1800.0:-1
ipc-2014-optimal-floortile-p02-5-5-2.pddl,TIMEOUT:1801.1:-1.0:1800.0:-1
ipc-2014-optimal-floortile-p02-6-4-2.pddl,TIMEOUT:1801.03:-1.0:1800.0:-1
ipc-2014-optimal-floortile-p02-6-5-2.pddl,TIMEOUT:1801.04:-1.0:1800.0:-1
ipc-2014-optimal-floortile-p03-4-3-2.pddl,CRASHED:59.7949:56.0:1800.0:-1
ipc-2014-optimal-floortile-p03-4-4-2.pddl,CRASHED:1789.89:1000000000.0:1800.0:-1
ipc-2014-optimal-floortile-p03-5-3-2.pddl,CRASHED:356.273:65.0:1800.0:-1
ipc-2014-optimal-floortile-p03-5-4-2.pddl,CRASHED:1794.78:1000000000.0:1800.0:-1
ipc-2014-optimal-floortile-p03-5-5-2.pddl,TIMEOUT:1801.09:-1.0:1800.0:-1
ipc-2014-optimal-floortile-p03-6-4-2.pddl,TIMEOUT:1801.02:-1.0:1800.0:-1
ipc-2014-optimal-floortile-p03-6-5-2.pddl,TIMEOUT:1801.0:-1.0:1800.0:-1
ipc-2014-optimal-ged-d-1-2.pddl,SAT:2.28165:1.0:1800.0:-1
ipc-2014-optimal-ged-d-1-3.pddl,CRASHED:7.72683:4.0:1800.0:-1
ipc-2014-optimal-ged-d-1-4.pddl,CRASHED:2.85656:1.0:1800.0:-1
ipc-2014-optimal-ged-d-1-8.pddl,SAT:23.0495:4.0:1800.0:-1
ipc-2014-optimal-ged-d-2-1.pddl,SAT:2.52561:1.0:1800.0:-1
ipc-2014-optimal-ged-d-2-3.pddl,CRASHED:3.10553:3.0:1800.0:-1
ipc-2014-optimal-ged-d-2-4.pddl,CRASHED:2.75258:2.0:1800.0:-1
ipc-2014-optimal-ged-d-2-8.pddl,CRASHED:1775.65:1000000000.0:1800.0:-1
ipc-2014-optimal-ged-d-3-1.pddl,CRASHED:7.95879:4.0:1800.0:-1
ipc-2014-optimal-ged-d-3-2.pddl,CRASHED:2.79657:3.0:1800.0:-1
ipc-2014-optimal-ged-d-3-4.pddl,CRASHED:326.05:5.0:1800.0:-1
ipc-2014-optimal-ged-d-4-2.pddl,CRASHED:2.99254:2.0:1800.0:-1
ipc-2014-optimal-ged-d-4-3.pddl,CRASHED:320.786:5.0:1800.0:-1
ipc-2014-optimal-ged-d-4-8.pddl,CRASHED:1769.26:1000000000.0:1800.0:-1
ipc-2014-optimal-ged-d-7-5.pddl,SAT:23.3814:4.0:1800.0:-1
ipc-2014-optimal-ged-d-7-6.pddl,SAT:7.9088:4.0:1800.0:-1
ipc-2014-optimal-ged-d-8-1.pddl,SAT:23.0525:4.0:1800.0:-1
ipc-2014-optimal-ged-d-8-2.pddl,CRASHED:1777.72:1000000000.0:1800.0:-1
ipc-2014-optimal-ged-d-8-4.pddl,CRASHED:1754.97:1000000000.0:1800.0:-1
ipc-2014-optimal-ged-d-8-9.pddl,CRASHED:1763.3:1000000000.0:1800.0:-1
ipc-2014-optimal-hiking-1-2-3.pddl,CRASHED:2.15867:11.0:1800.0:-1
ipc-2014-optimal-hiking-1-2-4.pddl,SAT:133.492:17.0:1800.0:-1
ipc-2014-optimal-hiking-1-2-5.pddl,CRASHED:133.594:25.0:1800.0:-1
ipc-2014-optimal-hiking-1-2-7.pddl,SAT:134.229:38.0:1800.0:-1
ipc-2014-optimal-hiking-1-2-8.pddl,SAT:134.647:45.0:1800.0:-1
ipc-2014-optimal-hiking-2-2-3.pddl,SAT:4.49631:10.0:1800.0:-1
ipc-2014-optimal-hiking-2-2-4.pddl,CRASHED:178.275:16.0:1800.0:-1
ipc-2014-optimal-hiking-2-2-5.pddl,SAT:220.375:22.0:1800.0:-1
ipc-2014-optimal-hiking-2-2-6.pddl,SAT:425.059:30.0:1800.0:-1
ipc-2014-optimal-hiking-2-2-7.pddl,TIMEOUT:1801.02:-1.0:1800.0:-1
ipc-2014-optimal-hiking-2-2-8.pddl,TIMEOUT:1801.0:-1.0:1800.0:-1
ipc-2014-optimal-hiking-2-3-4.pddl,SAT:205.564:17.0:1800.0:-1
ipc-2014-optimal-hiking-2-3-5.pddl,SAT:192.8:24.0:1800.0:-1
ipc-2014-optimal-hiking-2-3-6.pddl,CRASHED:1741.53:1000000000.0:1800.0:-1
ipc-2014-optimal-hiking-2-3-7.pddl,TIMEOUT:1801.0:-1.0:1800.0:-1
ipc-2014-optimal-hiking-2-4-3.pddl,CRASHED:25.7841:10.0:1800.0:-1
ipc-2014-optimal-hiking-2-4-4.pddl,CRASHED:213.241:17.0:1800.0:-1
ipc-2014-optimal-hiking-2-4-5.pddl,CRASHED:1621.83:1000000000.0:1800.0:-1
ipc-2014-optimal-hiking-2-4-6.pddl,TIMEOUT:1801.0:-1.0:1800.0:-1
ipc-2014-optimal-hiking-2-4-7.pddl,TIMEOUT:1801.0:-1.0:1800.0:-1
ipc-2014-optimal-maintenance-1.3.010.010.1-001.pddl,CRASHED:2.03569:1000000000.0:1800.0:-1
ipc-2014-optimal-maintenance-1.3.010.010.1-002.pddl,CRASHED:2.13168:1000000000.0:1800.0:-1
ipc-2014-optimal-maintenance-1.3.010.010.2-000.pddl,CRASHED:1.17682:4.0:1800.0:-1
ipc-2014-optimal-maintenance-1.3.010.010.2-001.pddl,CRASHED:1.17582:7.0:1800.0:-1
ipc-2014-optimal-maintenance-1.3.010.010.2-002.pddl,CRASHED:1.21181:6.0:1800.0:-1
ipc-2014-optimal-maintenance-1.3.015.020.1-000.pddl,CRASHED:1300.04:1000000000.0:1800.0:-1
ipc-2014-optimal-maintenance-1.3.015.020.1-001.pddl,CRASHED:1300.45:1000000000.0:1800.0:-1
ipc-2014-optimal-maintenance-1.3.015.020.1-002.pddl,CRASHED:1315.71:1000000000.0:1800.0:-1
ipc-2014-optimal-maintenance-1.3.015.020.2-000.pddl,CRASHED:652.566:1000000000.0:1800.0:-1
ipc-2014-optimal-maintenance-1.3.015.020.2-001.pddl,SAT:1.78273:11.0:1800.0:-1
ipc-2014-optimal-maintenance-1.3.015.020.2-002.pddl,SAT:1.38979:9.0:1800.0:-1
ipc-2014-optimal-maintenance-1.3.025.050.1-000.pddl,CRASHED:1427.25:1000000000.0:1800.0:-1
ipc-2014-optimal-maintenance-1.3.025.050.1-001.pddl,CRASHED:1439.69:1000000000.0:1800.0:-1
ipc-2014-optimal-maintenance-1.3.025.050.1-002.pddl,CRASHED:1418.23:1000000000.0:1800.0:-1
ipc-2014-optimal-maintenance-1.3.025.100.1-000.pddl,CRASHED:166.299:1000000000.0:1800.0:-1
ipc-2014-optimal-maintenance-1.3.025.100.1-001.pddl,CRASHED:160.659:1000000000.0:1800.0:-1
ipc-2014-optimal-maintenance-1.3.025.100.1-002.pddl,CRASHED:172.553:1000000000.0:1800.0:-1
ipc-2014-optimal-maintenance-1.3.025.100.2-000.pddl,CRASHED:1254.37:1000000000.0:1800.0:-1
ipc-2014-optimal-maintenance-1.3.025.100.2-001.pddl,CRASHED:1520.4:1000000000.0:1800.0:-1
ipc-2014-optimal-maintenance-1.3.025.100.2-002.pddl,CRASHED:1249.5:1000000000.0:1800.0:-1
ipc-2014-optimal-openstacks-p20_1.pddl,CRASHED:521.723:3.0:1800.0:-1
ipc-2014-optimal-openstacks-p20_2.pddl,CRASHED:520.12:4.0:1800.0:-1
ipc-2014-optimal-openstacks-p20_3.pddl,SAT:21.4627:6.0:1800.0:-1
ipc-2014-optimal-openstacks-p25_1.pddl,CRASHED:556.929:4.0:1800.0:-1
ipc-2014-optimal-openstacks-p25_3.pddl,CRASHED:545.451:9.0:1800.0:-1
ipc-2014-optimal-openstacks-p30_1.pddl,CRASHED:35.5806:4.0:1800.0:-1
ipc-2014-optimal-openstacks-p30_2.pddl,CRASHED:41.4887:4.0:1800.0:-1
ipc-2014-optimal-openstacks-p30_3.pddl,CRASHED:1801.07:12.0:1800.0:-1
ipc-2014-optimal-openstacks-p35_1.pddl,CRASHED:175.045:4.0:1800.0:-1
ipc-2014-optimal-openstacks-p35_2.pddl,CRASHED:136.536:5.0:1800.0:-1
ipc-2014-optimal-openstacks-p35_3.pddl,TIMEOUT:1801.1:-1.0:1800.0:-1
ipc-2014-optimal-openstacks-p40_1.pddl,CRASHED:75.0906:3.0:1800.0:-1
ipc-2014-optimal-openstacks-p40_2.pddl,CRASHED:219.803:4.0:1800.0:-1
ipc-2014-optimal-openstacks-p40_3.pddl,TIMEOUT:1801.01:-1.0:1800.0:-1
ipc-2014-optimal-openstacks-p45_1.pddl,CRASHED:319.269:4.0:1800.0:-1
ipc-2014-optimal-openstacks-p45_2.pddl,TIMEOUT:1801.04:-1.0:1800.0:-1
ipc-2014-optimal-openstacks-p45_3.pddl,TIMEOUT:1801.06:-1.0:1800.0:-1
ipc-2014-optimal-openstacks-p50_1.pddl,TIMEOUT:1801.04:-1.0:1800.0:-1
ipc-2014-optimal-openstacks-p50_2.pddl,TIMEOUT:1801.05:-1.0:1800.0:-1
ipc-2014-optimal-openstacks-p50_3.pddl,TIMEOUT:1801.08:-1.0:1800.0:-1
ipc-2014-optimal-parking-12_7-01.pddl,CRASHED:115.936:18.0:1800.0:-1
ipc-2014-optimal-parking-12_7-02.pddl,CRASHED:119.642:18.0:1800.0:-1
ipc-2014-optimal-parking-12_7-03.pddl,CRASHED:115.52:17.0:1800.0:-1
ipc-2014-optimal-parking-12_7-04.pddl,CRASHED:137.618:19.0:1800.0:-1
ipc-2014-optimal-parking-14_8-01.pddl,TIMEOUT:1801.06:-1.0:1800.0:-1
ipc-2014-optimal-parking-14_8-02.pddl,SAT:273.098:22.0:1800.0:-1
ipc-2014-optimal-parking-14_8-03.pddl,SAT:154.811:21.0:1800.0:-1
ipc-2014-optimal-parking-14_8-04.pddl,TIMEOUT:1801.04:-1.0:1800.0:-1
ipc-2014-optimal-parking-16_9-01.pddl,TIMEOUT:1801.06:-1.0:1800.0:-1
ipc-2014-optimal-parking-16_9-02.pddl,TIMEOUT:1801.08:-1.0:1800.0:-1
ipc-2014-optimal-parking-16_9-03.pddl,TIMEOUT:1801.07:-1.0:1800.0:-1
ipc-2014-optimal-parking-16_9-04.pddl,TIMEOUT:1801.06:-1.0:1800.0:-1
ipc-2014-optimal-parking-18_10-01.pddl,TIMEOUT:1801.0:-1.0:1800.0:-1
ipc-2014-optimal-parking-18_10-02.pddl,CRASHED:297.55:1000000000.0:1800.0:-1
ipc-2014-optimal-parking-18_10-03.pddl,TIMEOUT:1801.0:-1.0:1800.0:-1
ipc-2014-optimal-parking-18_10-04.pddl,TIMEOUT:1801.0:-1.0:1800.0:-1
ipc-2014-optimal-parking-20_11-01.pddl,TIMEOUT:1801.0:-1.0:1800.0:-1
ipc-2014-optimal-parking-20_11-02.pddl,TIMEOUT:1801.0:-1.0:1800.0:-1
ipc-2014-optimal-parking-20_11-03.pddl,TIMEOUT:1801.0:-1.0:1800.0:-1
ipc-2014-optimal-parking-20_11-04.pddl,TIMEOUT:1801.0:-1.0:1800.0:-1
ipc-2014-optimal-tetris-01-10.pddl,TIMEOUT:1801.08:-1.0:1800.0:-1
ipc-2014-optimal-tetris-01-04.pddl,CRASHED:753.085:1000000000.0:1800.0:-1
ipc-2014-optimal-tetris-01-06.pddl,CRASHED:925.296:30.0:1800.0:-1
ipc-2014-optimal-tetris-01-08.pddl,CRASHED:3.8147e-06:36.0:1800.0:-1
ipc-2014-optimal-tetris-02-10.pddl,TIMEOUT:1801.01:-1.0:1800.0:-1
ipc-2014-optimal-tetris-02-04.pddl,CRASHED:4.74528:10.0:1800.0:-1
ipc-2014-optimal-tetris-02-06.pddl,SAT:596.639:30.0:1800.0:-1
ipc-2014-optimal-tetris-02-08.pddl,TIMEOUT:1801.0:-1.0:1800.0:-1
ipc-2014-optimal-tetris-03-10.pddl,TIMEOUT:1801.0:-1.0:1800.0:-1
ipc-2014-optimal-tetris-03-04.pddl,CRASHED:25.1992:11.0:1800.0:-1
ipc-2014-optimal-tetris-03-06.pddl,SAT:648.636:21.0:1800.0:-1
ipc-2014-optimal-tetris-03-08.pddl,CRASHED:585.85:48.0:1800.0:-1
ipc-2014-optimal-tetris-04-10.pddl,TIMEOUT:1801.0:-1.0:1800.0:-1
ipc-2014-optimal-tetris-04-04.pddl,CRASHED:609.367:1000000000.0:1800.0:-1
ipc-2014-optimal-tetris-04-06.pddl,CRASHED:899.131:27.0:1800.0:-1
ipc-2014-optimal-tetris-04-08.pddl,TIMEOUT:1801.0:-1.0:1800.0:-1
ipc-2014-optimal-tetris-05-10.pddl,TIMEOUT:1801.0:-1.0:1800.0:-1
ipc-2014-optimal-tetris-05-04.pddl,CRASHED:665.656:1000000000.0:1800.0:-1
ipc-2014-optimal-tetris-05-06.pddl,SAT:564.264:19.0:1800.0:-1
ipc-2014-optimal-tetris-05-08.pddl,TIMEOUT:1801.0:-1.0:1800.0:-1
ipc-2014-optimal-tidybot-01.pddl,TIMEOUT:1801.0:-1.0:1800.0:-1
ipc-2014-optimal-tidybot-02.pddl,SAT:323.692:35.0:1800.0:-1
ipc-2014-optimal-tidybot-03.pddl,CRASHED:115.234:30.0:1800.0:-1
ipc-2014-optimal-tidybot-04.pddl,SAT:183.478:24.0:1800.0:-1
ipc-2014-optimal-tidybot-05.pddl,TIMEOUT:1801.0:-1.0:1800.0:-1
ipc-2014-optimal-tidybot-06.pddl,TIMEOUT:1801.0:-1.0:1800.0:-1
ipc-2014-optimal-tidybot-07.pddl,TIMEOUT:1801.0:-1.0:1800.0:-1
ipc-2014-optimal-tidybot-08.pddl,SAT:124.867:25.0:1800.0:-1
ipc-2014-optimal-tidybot-09.pddl,TIMEOUT:1801.0:-1.0:1800.0:-1
ipc-2014-optimal-tidybot-10.pddl,TIMEOUT:1801.0:-1.0:1800.0:-1
ipc-2014-optimal-tidybot-11.pddl,SAT:75.4895:29.0:1800.0:-1
ipc-2014-optimal-tidybot-12.pddl,CRASHED:233.348:35.0:1800.0:-1
ipc-2014-optimal-tidybot-13.pddl,SAT:124.97:30.0:1800.0:-1
ipc-2014-optimal-tidybot-14.pddl,SAT:105.111:25.0:1800.0:-1
ipc-2014-optimal-tidybot-15.pddl,TIMEOUT:1801.0:-1.0:1800.0:-1
ipc-2014-optimal-tidybot-16.pddl,TIMEOUT:1801.0:-1.0:1800.0:-1
ipc-2014-optimal-tidybot-17.pddl,TIMEOUT:1801.0:-1.0:1800.0:-1
ipc-2014-optimal-tidybot-18.pddl,TIMEOUT:1801.0:-1.0:1800.0:-1
ipc-2014-optimal-tidybot-19.pddl,TIMEOUT:1801.0:-1.0:1800.0:-1
ipc-2014-optimal-tidybot-20.pddl,TIMEOUT:1801.0:-1.0:1800.0:-1
ipc-2014-optimal-transport-01.pddl,CRASHED:134.478:148.0:1800.0:-1
ipc-2014-optimal-transport-02.pddl,SAT:138.694:191.0:1800.0:-1
ipc-2014-optimal-transport-03.pddl,SAT:146.749:300.0:1800.0:-1
ipc-2014-optimal-transport-04.pddl,CRASHED:1795.77:1000000000.0:1800.0:-1
ipc-2014-optimal-transport-05.pddl,CRASHED:1792.2:1000000000.0:1800.0:-1
ipc-2014-optimal-transport-06.pddl,CRASHED:1795.67:1000000000.0:1800.0:-1
ipc-2014-optimal-transport-07.pddl,SAT:139.002:967.0:1800.0:-1
ipc-2014-optimal-transport-08.pddl,SAT:296.858:1173.0:1800.0:-1
ipc-2014-optimal-transport-09.pddl,CRASHED:1794.79:1000000000.0:1800.0:-1
ipc-2014-optimal-transport-10.pddl,CRASHED:1792.76:1000000000.0:1800.0:-1
ipc-2014-optimal-transport-11.pddl,TIMEOUT:1801.0:-1.0:1800.0:-1
ipc-2014-optimal-transport-12.pddl,CRASHED:1155.99:1000000000.0:1800.0:-1
ipc-2014-optimal-transport-13.pddl,SAT:138.695:594.0:1800.0:-1
ipc-2014-optimal-transport-14.pddl,SAT:244.744:526.0:1800.0:-1
ipc-2014-optimal-transport-15.pddl,CRASHED:1493.37:1000000000.0:1800.0:-1
ipc-2014-optimal-transport-16.pddl,CRASHED:1428.27:1000000000.0:1800.0:-1
ipc-2014-optimal-transport-17.pddl,TIMEOUT:1801.0:-1.0:1800.0:-1
ipc-2014-optimal-transport-18.pddl,CRASHED:218.75:1000000000.0:1800.0:-1
ipc-2014-optimal-transport-19.pddl,CRASHED:1395.29:1000000000.0:1800.0:-1
ipc-2014-optimal-transport-20.pddl,CRASHED:1395.87:1000000000.0:1800.0:-1
ipc-2014-optimal-visitall-05-10.pddl,CRASHED:1795.18:1000000000.0:1800.0:-1
ipc-2014-optimal-visitall-05-05.pddl,CRASHED:4.84226:21.0:1800.0:-1
ipc-2014-optimal-visitall-05-06.pddl,CRASHED:7.46386:25.0:1800.0:-1
ipc-2014-optimal-visitall-05-07.pddl,CRASHED:379.673:34.0:1800.0:-1
ipc-2014-optimal-visitall-05-08.pddl,CRASHED:1259.46:43.0:1800.0:-1
ipc-2014-optimal-visitall-05-09.pddl,CRASHED:1795.88:1000000000.0:1800.0:-1
ipc-2014-optimal-visitall-01-10.pddl,SAT:1158.02:99.0:1800.0:-1
ipc-2014-optimal-visitall-01-11.pddl,CRASHED:1156.05:120.0:1800.0:-1
ipc-2014-optimal-visitall-01-12.pddl,SAT:1197.8:143.0:1800.0:-1
ipc-2014-optimal-visitall-01-13.pddl,SAT:1156.95:168.0:1800.0:-1
ipc-2014-optimal-visitall-01-14.pddl,CRASHED:1784.1:1000000000.0:1800.0:-1
ipc-2014-optimal-visitall-01-15.pddl,CRASHED:1794.74:1000000000.0:1800.0:-1
ipc-2014-optimal-visitall-01-16.pddl,CRASHED:1152.56:1000000000.0:1800.0:-1
ipc-2014-optimal-visitall-01-17.pddl,CRASHED:1796.8:1000000000.0:1800.0:-1
ipc-2014-optimal-visitall-01-18.pddl,CRASHED:599.49:1000000000.0:1800.0:-1
ipc-2014-optimal-visitall-01-05.pddl,CRASHED:21.1808:24.0:1800.0:-1
ipc-2014-optimal-visitall-01-06.pddl,CRASHED:921.943:35.0:1800.0:-1
ipc-2014-optimal-visitall-01-07.pddl,CRASHED:997.812:48.0:1800.0:-1
ipc-2014-optimal-visitall-01-08.pddl,CRASHED:1089.77:63.0:1800.0:-1
ipc-2014-optimal-visitall-01-09.pddl,CRASHED:1154.73:80.0:1800.0:-1
