instance,ipc-2014-optimal-spmas
ipc-2014-optimal-barman-p433.1.pddl,TIMEOUT:1801.1:-1.0:1800.0:-1
ipc-2014-optimal-barman-p433.2.pddl,TIMEOUT:1801.11:-1.0:1800.0:-1
ipc-2014-optimal-barman-p433.3.pddl,TIMEOUT:1801.1:-1.0:1800.0:-1
ipc-2014-optimal-barman-p435.1.pddl,SAT:87.1887:49.0:1800.0:-1
ipc-2014-optimal-barman-p435.2.pddl,TIMEOUT:1801.01:-1.0:1800.0:-1
ipc-2014-optimal-barman-p435.3.pddl,TIMEOUT:1801.0:-1.0:1800.0:-1
ipc-2014-optimal-barman-p443.1.pddl,TIMEOUT:1801.09:-1.0:1800.0:-1
ipc-2014-optimal-barman-p443.2.pddl,TIMEOUT:1801.1:-1.0:1800.0:-1
ipc-2014-optimal-barman-p443.3.pddl,TIMEOUT:1801.18:-1.0:1800.0:-1
ipc-2014-optimal-barman-p536.1.pddl,TIMEOUT:1801.08:-1.0:1800.0:-1
ipc-2014-optimal-barman-p536.2.pddl,CRASHED:41.3837:1000000000.0:1800.0:-1
ipc-2014-optimal-barman-p536.3.pddl,TIMEOUT:1801.03:-1.0:1800.0:-1
ipc-2014-optimal-barman-p638.1.pddl,TIMEOUT:1801.03:-1.0:1800.0:-1
ipc-2014-optimal-barman-p638.2.pddl,TIMEOUT:1801.0:-1.0:1800.0:-1
ipc-2014-optimal-barman-p638.3.pddl,TIMEOUT:1801.07:-1.0:1800.0:-1
ipc-2014-optimal-barman-p739.1.pddl,TIMEOUT:1801.05:-1.0:1800.0:-1
ipc-2014-optimal-barman-p739.2.pddl,TIMEOUT:1801.07:-1.0:1800.0:-1
ipc-2014-optimal-barman-p739.3.pddl,TIMEOUT:1801.04:-1.0:1800.0:-1
ipc-2014-optimal-barman-p839.1.pddl,TIMEOUT:1801.11:-1.0:1800.0:-1
ipc-2014-optimal-barman-p839.2.pddl,TIMEOUT:1801.1:-1.0:1800.0:-1
ipc-2014-optimal-cavediving-01.pddl,TIMEOUT:1801.1:-1.0:1800.0:-1
ipc-2014-optimal-cavediving-01_easy.pddl,TIMEOUT:1801.09:-1.0:1800.0:-1
ipc-2014-optimal-cavediving-02_easy.pddl,TIMEOUT:1801.06:-1.0:1800.0:-1
ipc-2014-optimal-cavediving-03_easy.pddl,TIMEOUT:1801.13:-1.0:1800.0:-1
ipc-2014-optimal-cavediving-04_easy.pddl,TIMEOUT:1801.1:-1.0:1800.0:-1
ipc-2014-optimal-cavediving-05A_easy.pddl,TIMEOUT:1801.13:-1.0:1800.0:-1
ipc-2014-optimal-cavediving-06A_easy.pddl,TIMEOUT:1801.15:-1.0:1800.0:-1
ipc-2014-optimal-cavediving-07_easy.pddl,SAT:12.7321:131.0:1800.0:-1
ipc-2014-optimal-cavediving-08_easy.pddl,TIMEOUT:1801.11:-1.0:1800.0:-1
ipc-2014-optimal-cavediving-09_easy.pddl,TIMEOUT:1801.09:-1.0:1800.0:-1
ipc-2014-optimal-cavediving-10_easy.pddl,TIMEOUT:1801.13:-1.0:1800.0:-1
ipc-2014-optimal-cavediving-11_easy.pddl,TIMEOUT:1801.09:-1.0:1800.0:-1
ipc-2014-optimal-cavediving-12_easy.pddl,TIMEOUT:1801.09:-1.0:1800.0:-1
ipc-2014-optimal-cavediving-13_easy.pddl,TIMEOUT:1801.11:-1.0:1800.0:-1
ipc-2014-optimal-cavediving-14_easy.pddl,TIMEOUT:1801.06:-1.0:1800.0:-1
ipc-2014-optimal-cavediving-15_easy.pddl,TIMEOUT:1801.17:-1.0:1800.0:-1
ipc-2014-optimal-cavediving-16_easy.pddl,TIMEOUT:1801.11:-1.0:1800.0:-1
ipc-2014-optimal-cavediving-18A_easy.pddl,SAT:18.6302:131.0:1800.0:-1
ipc-2014-optimal-cavediving-18_easy.pddl,SAT:33.5049:131.0:1800.0:-1
ipc-2014-optimal-cavediving-20A_easy.pddl,TIMEOUT:1801.12:-1.0:1800.0:-1
ipc-2014-optimal-childsnack-01-2.pddl,TIMEOUT:1801.06:-1.0:1800.0:-1
ipc-2014-optimal-childsnack-01.pddl,TIMEOUT:1801.02:-1.0:1800.0:-1
ipc-2014-optimal-childsnack-02-2.pddl,CRASHED:114.282:1000000000.0:1800.0:-1
ipc-2014-optimal-childsnack-02.pddl,TIMEOUT:1801.08:-1.0:1800.0:-1
ipc-2014-optimal-childsnack-03-2.pddl,CRASHED:1062.77:1000000000.0:1800.0:-1
ipc-2014-optimal-childsnack-03.pddl,TIMEOUT:1801.02:-1.0:1800.0:-1
ipc-2014-optimal-childsnack-04-2.pddl,CRASHED:1161.35:1000000000.0:1800.0:-1
ipc-2014-optimal-childsnack-04.pddl,CRASHED:1256.05:1000000000.0:1800.0:-1
ipc-2014-optimal-childsnack-05-2.pddl,TIMEOUT:1801.04:-1.0:1800.0:-1
ipc-2014-optimal-childsnack-05.pddl,TIMEOUT:1801.0:-1.0:1800.0:-1
ipc-2014-optimal-childsnack-06-2.pddl,CRASHED:992.56:1000000000.0:1800.0:-1
ipc-2014-optimal-childsnack-06.pddl,CRASHED:1508.23:1000000000.0:1800.0:-1
ipc-2014-optimal-childsnack-07-2.pddl,CRASHED:1789.69:1000000000.0:1800.0:-1
ipc-2014-optimal-childsnack-07.pddl,CRASHED:1761.0:1000000000.0:1800.0:-1
ipc-2014-optimal-childsnack-08-2.pddl,CRASHED:1595.88:1000000000.0:1800.0:-1
ipc-2014-optimal-childsnack-08.pddl,CRASHED:1659.79:1000000000.0:1800.0:-1
ipc-2014-optimal-childsnack-09-2.pddl,CRASHED:9.98048:1000000000.0:1800.0:-1
ipc-2014-optimal-childsnack-09.pddl,TIMEOUT:1801.03:-1.0:1800.0:-1
ipc-2014-optimal-childsnack-10-2.pddl,CRASHED:710.055:1000000000.0:1800.0:-1
ipc-2014-optimal-childsnack-10.pddl,CRASHED:547.991:1000000000.0:1800.0:-1
ipc-2014-optimal-citycar-p2-2-2-1-2.pddl,CRASHED:96.0924:1000000000.0:1800.0:-1
ipc-2014-optimal-citycar-p2-2-2-2-1.pddl,CRASHED:721.579:64.0:1800.0:-1
ipc-2014-optimal-citycar-p2-2-3-1-2.pddl,TIMEOUT:1801.06:-1.0:1800.0:-1
ipc-2014-optimal-citycar-p2-2-3-2-1.pddl,CRASHED:285.516:1000000000.0:1800.0:-1
ipc-2014-optimal-citycar-p2-2-3-2-2.pddl,TIMEOUT:1801.05:-1.0:1800.0:-1
ipc-2014-optimal-citycar-p2-2-4-1-2.pddl,CRASHED:1690.61:52.0:1800.0:-1
ipc-2014-optimal-citycar-p2-2-4-2-1.pddl,SAT:183.131:52.0:1800.0:-1
ipc-2014-optimal-citycar-p2-2-5-2-2.pddl,CRASHED:505.31:1000000000.0:1800.0:-1
ipc-2014-optimal-citycar-p2-2-6-1-1.pddl,TIMEOUT:1801.02:-1.0:1800.0:-1
ipc-2014-optimal-citycar-p2-2-6-2-2.pddl,CRASHED:449.35:1000000000.0:1800.0:-1
ipc-2014-optimal-citycar-p2-3-2-3-1.pddl,CRASHED:19.479:1000000000.0:1800.0:-1
ipc-2014-optimal-citycar-p2-3-3-3-1.pddl,CRASHED:728.19:78.0:1800.0:-1
ipc-2014-optimal-citycar-p2-3-4-3-1.pddl,CRASHED:575.43:1000000000.0:1800.0:-1
ipc-2014-optimal-citycar-p2-3-6-3-2.pddl,CRASHED:366.47:1000000000.0:1800.0:-1
ipc-2014-optimal-citycar-p3-3-2-2-1.pddl,TIMEOUT:1801.04:-1.0:1800.0:-1
ipc-2014-optimal-citycar-p3-3-2-2-2.pddl,CRASHED:894.01:1000000000.0:1800.0:-1
ipc-2014-optimal-citycar-p3-3-2-3-1.pddl,CRASHED:1130.42:48.0:1800.0:-1
ipc-2014-optimal-citycar-p3-3-2-3-2.pddl,CRASHED:515.54:1000000000.0:1800.0:-1
ipc-2014-optimal-citycar-p3-3-3-3-1.pddl,CRASHED:371.21:1000000000.0:1800.0:-1
ipc-2014-optimal-citycar-p3-3-3-3-2.pddl,CRASHED:637.41:1000000000.0:1800.0:-1
ipc-2014-optimal-floortile-p01-4-3-2.pddl,SAT:2.71059:56.0:1800.0:-1
ipc-2014-optimal-floortile-p01-4-4-2.pddl,SAT:13.6039:68.0:1800.0:-1
ipc-2014-optimal-floortile-p01-5-3-2.pddl,SAT:4.46632:63.0:1800.0:-1
ipc-2014-optimal-floortile-p01-5-4-2.pddl,SAT:34.6307:91.0:1800.0:-1
ipc-2014-optimal-floortile-p01-5-5-2.pddl,TIMEOUT:1801.08:-1.0:1800.0:-1
ipc-2014-optimal-floortile-p01-6-4-2.pddl,SAT:73.6338:104.0:1800.0:-1
ipc-2014-optimal-floortile-p01-6-5-2.pddl,TIMEOUT:1801.06:-1.0:1800.0:-1
ipc-2014-optimal-floortile-p02-4-4-2.pddl,SAT:13.464:75.0:1800.0:-1
ipc-2014-optimal-floortile-p02-5-3-2.pddl,SAT:4.30335:65.0:1800.0:-1
ipc-2014-optimal-floortile-p02-5-4-2.pddl,SAT:32.5001:98.0:1800.0:-1
ipc-2014-optimal-floortile-p02-5-5-2.pddl,TIMEOUT:1801.09:-1.0:1800.0:-1
ipc-2014-optimal-floortile-p02-6-4-2.pddl,SAT:69.1075:109.0:1800.0:-1
ipc-2014-optimal-floortile-p02-6-5-2.pddl,TIMEOUT:1801.09:-1.0:1800.0:-1
ipc-2014-optimal-floortile-p03-4-3-2.pddl,SAT:3.12252:56.0:1800.0:-1
ipc-2014-optimal-floortile-p03-4-4-2.pddl,SAT:16.0956:72.0:1800.0:-1
ipc-2014-optimal-floortile-p03-5-3-2.pddl,SAT:5.2772:65.0:1800.0:-1
ipc-2014-optimal-floortile-p03-5-4-2.pddl,SAT:36.3805:83.0:1800.0:-1
ipc-2014-optimal-floortile-p03-5-5-2.pddl,TIMEOUT:1801.04:-1.0:1800.0:-1
ipc-2014-optimal-floortile-p03-6-4-2.pddl,SAT:86.9508:116.0:1800.0:-1
ipc-2014-optimal-floortile-p03-6-5-2.pddl,TIMEOUT:1801.05:-1.0:1800.0:-1
ipc-2014-optimal-ged-d-1-2.pddl,SAT:1.07284:1.0:1800.0:-1
ipc-2014-optimal-ged-d-1-3.pddl,TIMEOUT:1801.0:-1.0:1800.0:-1
ipc-2014-optimal-ged-d-1-4.pddl,SAT:1.05984:1.0:1800.0:-1
ipc-2014-optimal-ged-d-1-8.pddl,CRASHED:26.41:1000000000.0:1800.0:-1
ipc-2014-optimal-ged-d-2-1.pddl,SAT:1.01484:1.0:1800.0:-1
ipc-2014-optimal-ged-d-2-3.pddl,SAT:5.75113:3.0:1800.0:-1
ipc-2014-optimal-ged-d-2-4.pddl,SAT:1.24381:2.0:1800.0:-1
ipc-2014-optimal-ged-d-2-8.pddl,TIMEOUT:1801.04:-1.0:1800.0:-1
ipc-2014-optimal-ged-d-3-1.pddl,CRASHED:27.8678:1000000000.0:1800.0:-1
ipc-2014-optimal-ged-d-3-2.pddl,SAT:4.97524:3.0:1800.0:-1
ipc-2014-optimal-ged-d-3-4.pddl,TIMEOUT:1801.06:-1.0:1800.0:-1
ipc-2014-optimal-ged-d-4-2.pddl,SAT:1.2818:2.0:1800.0:-1
ipc-2014-optimal-ged-d-4-3.pddl,CRASHED:34.5817:1000000000.0:1800.0:-1
ipc-2014-optimal-ged-d-4-8.pddl,TIMEOUT:1801.06:-1.0:1800.0:-1
ipc-2014-optimal-ged-d-7-5.pddl,TIMEOUT:1801.1:-1.0:1800.0:-1
ipc-2014-optimal-ged-d-7-6.pddl,CRASHED:36.9334:1000000000.0:1800.0:-1
ipc-2014-optimal-ged-d-8-1.pddl,CRASHED:27.8818:1000000000.0:1800.0:-1
ipc-2014-optimal-ged-d-8-2.pddl,TIMEOUT:1801.09:-1.0:1800.0:-1
ipc-2014-optimal-ged-d-8-4.pddl,TIMEOUT:1801.1:-1.0:1800.0:-1
ipc-2014-optimal-ged-d-8-9.pddl,TIMEOUT:1801.04:-1.0:1800.0:-1
ipc-2014-optimal-hiking-1-2-3.pddl,SAT:0.679895:11.0:1800.0:-1
ipc-2014-optimal-hiking-1-2-4.pddl,SAT:0.724889:17.0:1800.0:-1
ipc-2014-optimal-hiking-1-2-5.pddl,SAT:0.841871:25.0:1800.0:-1
ipc-2014-optimal-hiking-1-2-7.pddl,SAT:1.3198:38.0:1800.0:-1
ipc-2014-optimal-hiking-1-2-8.pddl,SAT:1.71074:45.0:1800.0:-1
ipc-2014-optimal-hiking-2-2-3.pddl,SAT:1.53577:10.0:1800.0:-1
ipc-2014-optimal-hiking-2-2-4.pddl,SAT:5.9321:16.0:1800.0:-1
ipc-2014-optimal-hiking-2-2-5.pddl,SAT:83.7053:22.0:1800.0:-1
ipc-2014-optimal-hiking-2-2-6.pddl,TIMEOUT:1801.01:-1.0:1800.0:-1
ipc-2014-optimal-hiking-2-2-7.pddl,CRASHED:100.306:1000000000.0:1800.0:-1
ipc-2014-optimal-hiking-2-2-8.pddl,TIMEOUT:1801.07:-1.0:1800.0:-1
ipc-2014-optimal-hiking-2-3-4.pddl,SAT:23.7354:17.0:1800.0:-1
ipc-2014-optimal-hiking-2-3-5.pddl,CRASHED:332.142:24.0:1800.0:-1
ipc-2014-optimal-hiking-2-3-6.pddl,CRASHED:973.58:1000000000.0:1800.0:-1
ipc-2014-optimal-hiking-2-3-7.pddl,TIMEOUT:1801.06:-1.0:1800.0:-1
ipc-2014-optimal-hiking-2-4-3.pddl,SAT:2.69759:10.0:1800.0:-1
ipc-2014-optimal-hiking-2-4-4.pddl,SAT:21.3747:17.0:1800.0:-1
ipc-2014-optimal-hiking-2-4-5.pddl,TIMEOUT:1801.1:-1.0:1800.0:-1
ipc-2014-optimal-hiking-2-4-6.pddl,SAT:343.639:30.0:1800.0:-1
ipc-2014-optimal-hiking-2-4-7.pddl,SAT:468.05:34.0:1800.0:-1
ipc-2014-optimal-maintenance-1.3.010.010.1-001.pddl,TIMEOUT:1801.07:-1.0:1800.0:-1
ipc-2014-optimal-maintenance-1.3.010.010.1-002.pddl,TIMEOUT:1801.14:-1.0:1800.0:-1
ipc-2014-optimal-maintenance-1.3.010.010.2-000.pddl,SAT:0.760884:4.0:1800.0:-1
ipc-2014-optimal-maintenance-1.3.010.010.2-001.pddl,TIMEOUT:1801.12:-1.0:1800.0:-1
ipc-2014-optimal-maintenance-1.3.010.010.2-002.pddl,SAT:0.831872:6.0:1800.0:-1
ipc-2014-optimal-maintenance-1.3.015.020.1-000.pddl,TIMEOUT:1801.1:-1.0:1800.0:-1
ipc-2014-optimal-maintenance-1.3.015.020.1-001.pddl,TIMEOUT:1801.09:-1.0:1800.0:-1
ipc-2014-optimal-maintenance-1.3.015.020.1-002.pddl,TIMEOUT:1801.08:-1.0:1800.0:-1
ipc-2014-optimal-maintenance-1.3.015.020.2-000.pddl,CRASHED:1.34879:1000000000.0:1800.0:-1
ipc-2014-optimal-maintenance-1.3.015.020.2-001.pddl,SAT:1.2928:11.0:1800.0:-1
ipc-2014-optimal-maintenance-1.3.015.020.2-002.pddl,SAT:1.41079:9.0:1800.0:-1
ipc-2014-optimal-maintenance-1.3.025.050.1-000.pddl,TIMEOUT:1801.08:-1.0:1800.0:-1
ipc-2014-optimal-maintenance-1.3.025.050.1-001.pddl,TIMEOUT:1801.08:-1.0:1800.0:-1
ipc-2014-optimal-maintenance-1.3.025.050.1-002.pddl,TIMEOUT:1801.15:-1.0:1800.0:-1
ipc-2014-optimal-maintenance-1.3.025.100.1-000.pddl,TIMEOUT:1801.1:-1.0:1800.0:-1
ipc-2014-optimal-maintenance-1.3.025.100.1-001.pddl,TIMEOUT:1801.12:-1.0:1800.0:-1
ipc-2014-optimal-maintenance-1.3.025.100.1-002.pddl,TIMEOUT:1801.13:-1.0:1800.0:-1
ipc-2014-optimal-maintenance-1.3.025.100.2-000.pddl,TIMEOUT:1801.17:-1.0:1800.0:-1
ipc-2014-optimal-maintenance-1.3.025.100.2-001.pddl,TIMEOUT:1801.16:-1.0:1800.0:-1
ipc-2014-optimal-maintenance-1.3.025.100.2-002.pddl,TIMEOUT:1801.14:-1.0:1800.0:-1
ipc-2014-optimal-openstacks-p20_1.pddl,SAT:8.40472:3.0:1800.0:-1
ipc-2014-optimal-openstacks-p20_2.pddl,SAT:10.5354:4.0:1800.0:-1
ipc-2014-optimal-openstacks-p20_3.pddl,SAT:17.9343:6.0:1800.0:-1
ipc-2014-optimal-openstacks-p25_1.pddl,SAT:23.0565:4.0:1800.0:-1
ipc-2014-optimal-openstacks-p25_3.pddl,CRASHED:38.6121:1000000000.0:1800.0:-1
ipc-2014-optimal-openstacks-p30_1.pddl,SAT:35.6686:4.0:1800.0:-1
ipc-2014-optimal-openstacks-p30_2.pddl,SAT:43.7983:4.0:1800.0:-1
ipc-2014-optimal-openstacks-p30_3.pddl,TIMEOUT:1801.02:-1.0:1800.0:-1
ipc-2014-optimal-openstacks-p35_1.pddl,SAT:59.6339:4.0:1800.0:-1
ipc-2014-optimal-openstacks-p35_2.pddl,SAT:72.7219:5.0:1800.0:-1
ipc-2014-optimal-openstacks-p35_3.pddl,TIMEOUT:1801.04:-1.0:1800.0:-1
ipc-2014-optimal-openstacks-p40_1.pddl,SAT:123.25:3.0:1800.0:-1
ipc-2014-optimal-openstacks-p40_2.pddl,SAT:144.16:4.0:1800.0:-1
ipc-2014-optimal-openstacks-p40_3.pddl,TIMEOUT:1801.09:-1.0:1800.0:-1
ipc-2014-optimal-openstacks-p45_1.pddl,CRASHED:222.122:4.0:1800.0:-1
ipc-2014-optimal-openstacks-p45_2.pddl,TIMEOUT:1801.11:-1.0:1800.0:-1
ipc-2014-optimal-openstacks-p45_3.pddl,TIMEOUT:1801.08:-1.0:1800.0:-1
ipc-2014-optimal-openstacks-p50_1.pddl,TIMEOUT:1801.0:-1.0:1800.0:-1
ipc-2014-optimal-openstacks-p50_2.pddl,CRASHED:25.8271:1000000000.0:1800.0:-1
ipc-2014-optimal-openstacks-p50_3.pddl,TIMEOUT:1801.02:-1.0:1800.0:-1
ipc-2014-optimal-parking-12_7-01.pddl,TIMEOUT:1801.05:-1.0:1800.0:-1
ipc-2014-optimal-parking-12_7-02.pddl,TIMEOUT:1801.04:-1.0:1800.0:-1
ipc-2014-optimal-parking-12_7-03.pddl,CRASHED:136.598:1000000000.0:1800.0:-1
ipc-2014-optimal-parking-12_7-04.pddl,CRASHED:136.626:1000000000.0:1800.0:-1
ipc-2014-optimal-parking-14_8-01.pddl,CRASHED:1044.99:1000000000.0:1800.0:-1
ipc-2014-optimal-parking-14_8-02.pddl,CRASHED:1028.34:1000000000.0:1800.0:-1
ipc-2014-optimal-parking-14_8-03.pddl,CRASHED:1070.14:1000000000.0:1800.0:-1
ipc-2014-optimal-parking-14_8-04.pddl,CRASHED:1053.57:1000000000.0:1800.0:-1
ipc-2014-optimal-parking-16_9-01.pddl,CRASHED:1476.11:1000000000.0:1800.0:-1
ipc-2014-optimal-parking-16_9-02.pddl,CRASHED:1150.68:1000000000.0:1800.0:-1
ipc-2014-optimal-parking-16_9-03.pddl,CRASHED:1129.0:1000000000.0:1800.0:-1
ipc-2014-optimal-parking-16_9-04.pddl,CRASHED:1465.76:1000000000.0:1800.0:-1
ipc-2014-optimal-parking-18_10-01.pddl,CRASHED:1204.15:1000000000.0:1800.0:-1
ipc-2014-optimal-parking-18_10-02.pddl,CRASHED:1238.6:1000000000.0:1800.0:-1
ipc-2014-optimal-parking-18_10-03.pddl,CRASHED:1192.43:1000000000.0:1800.0:-1
ipc-2014-optimal-parking-18_10-04.pddl,CRASHED:1305.82:1000000000.0:1800.0:-1
ipc-2014-optimal-parking-20_11-01.pddl,CRASHED:1510.29:1000000000.0:1800.0:-1
ipc-2014-optimal-parking-20_11-02.pddl,CRASHED:1627.56:1000000000.0:1800.0:-1
ipc-2014-optimal-parking-20_11-03.pddl,CRASHED:1633.89:1000000000.0:1800.0:-1
ipc-2014-optimal-parking-20_11-04.pddl,CRASHED:1624.99:1000000000.0:1800.0:-1
ipc-2014-optimal-tetris-01-10.pddl,TIMEOUT:1801.09:-1.0:1800.0:-1
ipc-2014-optimal-tetris-01-04.pddl,CRASHED:22.2586:1000000000.0:1800.0:-1
ipc-2014-optimal-tetris-01-06.pddl,TIMEOUT:1801.03:-1.0:1800.0:-1
ipc-2014-optimal-tetris-01-08.pddl,TIMEOUT:1801.07:-1.0:1800.0:-1
ipc-2014-optimal-tetris-02-10.pddl,TIMEOUT:1801.06:-1.0:1800.0:-1
ipc-2014-optimal-tetris-02-04.pddl,SAT:3.91241:10.0:1800.0:-1
ipc-2014-optimal-tetris-02-06.pddl,TIMEOUT:1801.1:-1.0:1800.0:-1
ipc-2014-optimal-tetris-02-08.pddl,TIMEOUT:1801.02:-1.0:1800.0:-1
ipc-2014-optimal-tetris-03-10.pddl,CRASHED:99.0059:1000000000.0:1800.0:-1
ipc-2014-optimal-tetris-03-04.pddl,SAT:11.7952:11.0:1800.0:-1
ipc-2014-optimal-tetris-03-06.pddl,CRASHED:1120.04:1000000000.0:1800.0:-1
ipc-2014-optimal-tetris-03-08.pddl,CRASHED:1073.78:1000000000.0:1800.0:-1
ipc-2014-optimal-tetris-04-10.pddl,TIMEOUT:1801.03:-1.0:1800.0:-1
ipc-2014-optimal-tetris-04-04.pddl,CRASHED:8.32074:1000000000.0:1800.0:-1
ipc-2014-optimal-tetris-04-06.pddl,TIMEOUT:1801.01:-1.0:1800.0:-1
ipc-2014-optimal-tetris-04-08.pddl,TIMEOUT:1801.02:-1.0:1800.0:-1
ipc-2014-optimal-tetris-05-10.pddl,CRASHED:1476.94:1000000000.0:1800.0:-1
ipc-2014-optimal-tetris-05-04.pddl,CRASHED:9.8535:1000000000.0:1800.0:-1
ipc-2014-optimal-tetris-05-06.pddl,TIMEOUT:1801.01:-1.0:1800.0:-1
ipc-2014-optimal-tetris-05-08.pddl,TIMEOUT:1801.05:-1.0:1800.0:-1
ipc-2014-optimal-tidybot-01.pddl,CRASHED:767.709:1000000000.0:1800.0:-1
ipc-2014-optimal-tidybot-02.pddl,CRASHED:985.318:1000000000.0:1800.0:-1
ipc-2014-optimal-tidybot-03.pddl,TIMEOUT:1801.08:-1.0:1800.0:-1
ipc-2014-optimal-tidybot-04.pddl,CRASHED:892.08:24.0:1800.0:-1
ipc-2014-optimal-tidybot-05.pddl,CRASHED:816.685:1000000000.0:1800.0:-1
ipc-2014-optimal-tidybot-06.pddl,CRASHED:427.351:1000000000.0:1800.0:-1
ipc-2014-optimal-tidybot-07.pddl,CRASHED:1609.72:1000000000.0:1800.0:-1
ipc-2014-optimal-tidybot-08.pddl,CRASHED:934.519:1000000000.0:1800.0:-1
ipc-2014-optimal-tidybot-09.pddl,TIMEOUT:1801.02:-1.0:1800.0:-1
ipc-2014-optimal-tidybot-10.pddl,CRASHED:234.113:1000000000.0:1800.0:-1
ipc-2014-optimal-tidybot-11.pddl,CRASHED:746.503:29.0:1800.0:-1
ipc-2014-optimal-tidybot-12.pddl,CRASHED:835.464:35.0:1800.0:-1
ipc-2014-optimal-tidybot-13.pddl,CRASHED:790.652:30.0:1800.0:-1
ipc-2014-optimal-tidybot-14.pddl,CRASHED:674.769:1000000000.0:1800.0:-1
ipc-2014-optimal-tidybot-15.pddl,CRASHED:823.453:1000000000.0:1800.0:-1
ipc-2014-optimal-tidybot-16.pddl,CRASHED:830.683:1000000000.0:1800.0:-1
ipc-2014-optimal-tidybot-17.pddl,TIMEOUT:1801.05:-1.0:1800.0:-1
ipc-2014-optimal-tidybot-18.pddl,CRASHED:390.629:1000000000.0:1800.0:-1
ipc-2014-optimal-tidybot-19.pddl,CRASHED:648.024:1000000000.0:1800.0:-1
ipc-2014-optimal-tidybot-20.pddl,TIMEOUT:1801.01:-1.0:1800.0:-1
ipc-2014-optimal-transport-01.pddl,SAT:6.22405:148.0:1800.0:-1
ipc-2014-optimal-transport-02.pddl,SAT:334.771:191.0:1800.0:-1
ipc-2014-optimal-transport-03.pddl,TIMEOUT:1801.09:-1.0:1800.0:-1
ipc-2014-optimal-transport-04.pddl,TIMEOUT:1801.05:-1.0:1800.0:-1
ipc-2014-optimal-transport-05.pddl,TIMEOUT:1801.01:-1.0:1800.0:-1
ipc-2014-optimal-transport-06.pddl,TIMEOUT:1801.1:-1.0:1800.0:-1
ipc-2014-optimal-transport-07.pddl,SAT:720.724:967.0:1800.0:-1
ipc-2014-optimal-transport-08.pddl,CRASHED:1441.18:1173.0:1800.0:-1
ipc-2014-optimal-transport-09.pddl,TIMEOUT:1801.05:-1.0:1800.0:-1
ipc-2014-optimal-transport-10.pddl,CRASHED:1546.05:1000000000.0:1800.0:-1
ipc-2014-optimal-transport-11.pddl,CRASHED:1271.15:1000000000.0:1800.0:-1
ipc-2014-optimal-transport-12.pddl,TIMEOUT:1801.05:-1.0:1800.0:-1
ipc-2014-optimal-transport-13.pddl,SAT:1339.4:594.0:1800.0:-1
ipc-2014-optimal-transport-14.pddl,SAT:1267.48:526.0:1800.0:-1
ipc-2014-optimal-transport-15.pddl,CRASHED:1588.5:1000000000.0:1800.0:-1
ipc-2014-optimal-transport-16.pddl,CRASHED:1487.42:1000000000.0:1800.0:-1
ipc-2014-optimal-transport-17.pddl,CRASHED:1477.78:1000000000.0:1800.0:-1
ipc-2014-optimal-transport-18.pddl,TIMEOUT:1801.1:-1.0:1800.0:-1
ipc-2014-optimal-transport-19.pddl,CRASHED:1175.99:1000000000.0:1800.0:-1
ipc-2014-optimal-transport-20.pddl,CRASHED:1090.32:1000000000.0:1800.0:-1
ipc-2014-optimal-visitall-05-10.pddl,TIMEOUT:1801.07:-1.0:1800.0:-1
ipc-2014-optimal-visitall-05-05.pddl,SAT:1.73673:21.0:1800.0:-1
ipc-2014-optimal-visitall-05-06.pddl,SAT:2.86256:25.0:1800.0:-1
ipc-2014-optimal-visitall-05-07.pddl,SAT:27.0389:34.0:1800.0:-1
ipc-2014-optimal-visitall-05-08.pddl,CRASHED:23.3434:1000000000.0:1800.0:-1
ipc-2014-optimal-visitall-05-09.pddl,TIMEOUT:1801.01:-1.0:1800.0:-1
ipc-2014-optimal-visitall-01-10.pddl,CRASHED:46.8929:1000000000.0:1800.0:-1
ipc-2014-optimal-visitall-01-11.pddl,TIMEOUT:1801.07:-1.0:1800.0:-1
ipc-2014-optimal-visitall-01-12.pddl,TIMEOUT:1801.01:-1.0:1800.0:-1
ipc-2014-optimal-visitall-01-13.pddl,CRASHED:144.041:1000000000.0:1800.0:-1
ipc-2014-optimal-visitall-01-14.pddl,CRASHED:240.523:1000000000.0:1800.0:-1
ipc-2014-optimal-visitall-01-15.pddl,TIMEOUT:1801.05:-1.0:1800.0:-1
ipc-2014-optimal-visitall-01-16.pddl,CRASHED:302.614:1000000000.0:1800.0:-1
ipc-2014-optimal-visitall-01-17.pddl,CRASHED:83.1164:1000000000.0:1800.0:-1
ipc-2014-optimal-visitall-01-18.pddl,TIMEOUT:1801.01:-1.0:1800.0:-1
ipc-2014-optimal-visitall-01-05.pddl,SAT:8.70967:24.0:1800.0:-1
ipc-2014-optimal-visitall-01-06.pddl,CRASHED:9.90749:1000000000.0:1800.0:-1
ipc-2014-optimal-visitall-01-07.pddl,TIMEOUT:1801.09:-1.0:1800.0:-1
ipc-2014-optimal-visitall-01-08.pddl,TIMEOUT:1801.0:-1.0:1800.0:-1
ipc-2014-optimal-visitall-01-09.pddl,CRASHED:44.4032:1000000000.0:1800.0:-1
