instance,ipc-2014-optimal-metis
ipc-2014-optimal-barman-p433.1.pddl,CRASHED:0.750884:1000000000.0:1800.0:-1
ipc-2014-optimal-barman-p433.2.pddl,CRASHED:0.742886:1000000000.0:1800.0:-1
ipc-2014-optimal-barman-p433.3.pddl,CRASHED:0.747885:1000000000.0:1800.0:-1
ipc-2014-optimal-barman-p435.1.pddl,SAT:432.627:49.0:1800.0:-1
ipc-2014-optimal-barman-p435.2.pddl,SAT:719.711:49.0:1800.0:-1
ipc-2014-optimal-barman-p435.3.pddl,SAT:429.685:49.0:1800.0:-1
ipc-2014-optimal-barman-p443.1.pddl,CRASHED:0.808876:1000000000.0:1800.0:-1
ipc-2014-optimal-barman-p443.2.pddl,CRASHED:0.807876:1000000000.0:1800.0:-1
ipc-2014-optimal-barman-p443.3.pddl,CRASHED:0.795878:1000000000.0:1800.0:-1
ipc-2014-optimal-barman-p536.1.pddl,TIMEOUT:1801.06:-1.0:1800.0:-1
ipc-2014-optimal-barman-p536.2.pddl,TIMEOUT:1801.02:-1.0:1800.0:-1
ipc-2014-optimal-barman-p536.3.pddl,TIMEOUT:1801.06:-1.0:1800.0:-1
ipc-2014-optimal-barman-p638.1.pddl,TIMEOUT:1801.02:-1.0:1800.0:-1
ipc-2014-optimal-barman-p638.2.pddl,TIMEOUT:1801.08:-1.0:1800.0:-1
ipc-2014-optimal-barman-p638.3.pddl,TIMEOUT:1801.1:-1.0:1800.0:-1
ipc-2014-optimal-barman-p739.1.pddl,TIMEOUT:1801.07:-1.0:1800.0:-1
ipc-2014-optimal-barman-p739.2.pddl,TIMEOUT:1801.04:-1.0:1800.0:-1
ipc-2014-optimal-barman-p739.3.pddl,TIMEOUT:1801.0:-1.0:1800.0:-1
ipc-2014-optimal-barman-p839.1.pddl,TIMEOUT:1801.09:-1.0:1800.0:-1
ipc-2014-optimal-barman-p839.2.pddl,TIMEOUT:1801.1:-1.0:1800.0:-1
ipc-2014-optimal-cavediving-01.pddl,TIMEOUT:1801.08:-1.0:1800.0:-1
ipc-2014-optimal-cavediving-01_easy.pddl,TIMEOUT:1801.07:-1.0:1800.0:-1
ipc-2014-optimal-cavediving-02_easy.pddl,TIMEOUT:1801.08:-1.0:1800.0:-1
ipc-2014-optimal-cavediving-03_easy.pddl,TIMEOUT:1801.06:-1.0:1800.0:-1
ipc-2014-optimal-cavediving-04_easy.pddl,TIMEOUT:1801.09:-1.0:1800.0:-1
ipc-2014-optimal-cavediving-05A_easy.pddl,SAT:18.4622:94.0:1800.0:-1
ipc-2014-optimal-cavediving-06A_easy.pddl,SAT:18.4622:95.0:1800.0:-1
ipc-2014-optimal-cavediving-07_easy.pddl,SAT:17.6563:131.0:1800.0:-1
ipc-2014-optimal-cavediving-08_easy.pddl,SAT:18.5272:90.0:1800.0:-1
ipc-2014-optimal-cavediving-09_easy.pddl,TIMEOUT:1801.01:-1.0:1800.0:-1
ipc-2014-optimal-cavediving-10_easy.pddl,TIMEOUT:1801.07:-1.0:1800.0:-1
ipc-2014-optimal-cavediving-11_easy.pddl,TIMEOUT:1801.1:-1.0:1800.0:-1
ipc-2014-optimal-cavediving-12_easy.pddl,TIMEOUT:1801.02:-1.0:1800.0:-1
ipc-2014-optimal-cavediving-13_easy.pddl,TIMEOUT:1801.06:-1.0:1800.0:-1
ipc-2014-optimal-cavediving-14_easy.pddl,TIMEOUT:1801.05:-1.0:1800.0:-1
ipc-2014-optimal-cavediving-15_easy.pddl,TIMEOUT:1801.03:-1.0:1800.0:-1
ipc-2014-optimal-cavediving-16_easy.pddl,TIMEOUT:1801.01:-1.0:1800.0:-1
ipc-2014-optimal-cavediving-18A_easy.pddl,SAT:29.5625:131.0:1800.0:-1
ipc-2014-optimal-cavediving-18_easy.pddl,SAT:50.9463:131.0:1800.0:-1
ipc-2014-optimal-cavediving-20A_easy.pddl,SAT:34.0788:98.0:1800.0:-1
ipc-2014-optimal-childsnack-01-2.pddl,SAT:6.48101:21.0:1800.0:-1
ipc-2014-optimal-childsnack-01.pddl,SAT:4.25735:20.0:1800.0:-1
ipc-2014-optimal-childsnack-02-2.pddl,SAT:12.993:24.0:1800.0:-1
ipc-2014-optimal-childsnack-02.pddl,SAT:13.7629:23.0:1800.0:-1
ipc-2014-optimal-childsnack-03-2.pddl,SAT:168.929:27.0:1800.0:-1
ipc-2014-optimal-childsnack-03.pddl,SAT:138.766:27.0:1800.0:-1
ipc-2014-optimal-childsnack-04-2.pddl,TIMEOUT:1801.09:-1.0:1800.0:-1
ipc-2014-optimal-childsnack-04.pddl,TIMEOUT:1801.0:-1.0:1800.0:-1
ipc-2014-optimal-childsnack-05-2.pddl,TIMEOUT:1801.01:-1.0:1800.0:-1
ipc-2014-optimal-childsnack-05.pddl,TIMEOUT:1801.06:-1.0:1800.0:-1
ipc-2014-optimal-childsnack-06-2.pddl,TIMEOUT:1801.02:-1.0:1800.0:-1
ipc-2014-optimal-childsnack-06.pddl,TIMEOUT:1801.07:-1.0:1800.0:-1
ipc-2014-optimal-childsnack-07-2.pddl,TIMEOUT:1801.06:-1.0:1800.0:-1
ipc-2014-optimal-childsnack-07.pddl,TIMEOUT:1801.06:-1.0:1800.0:-1
ipc-2014-optimal-childsnack-08-2.pddl,TIMEOUT:1801.09:-1.0:1800.0:-1
ipc-2014-optimal-childsnack-08.pddl,TIMEOUT:1801.05:-1.0:1800.0:-1
ipc-2014-optimal-childsnack-09-2.pddl,TIMEOUT:1801.02:-1.0:1800.0:-1
ipc-2014-optimal-childsnack-09.pddl,TIMEOUT:1801.03:-1.0:1800.0:-1
ipc-2014-optimal-childsnack-10-2.pddl,TIMEOUT:1801.03:-1.0:1800.0:-1
ipc-2014-optimal-childsnack-10.pddl,TIMEOUT:1801.09:-1.0:1800.0:-1
ipc-2014-optimal-citycar-p2-2-2-1-2.pddl,SAT:1.10283:46.0:1800.0:-1
ipc-2014-optimal-citycar-p2-2-2-2-1.pddl,SAT:1.09383:64.0:1800.0:-1
ipc-2014-optimal-citycar-p2-2-3-1-2.pddl,SAT:1.2908:50.0:1800.0:-1
ipc-2014-optimal-citycar-p2-2-3-2-1.pddl,SAT:1.3348:48.0:1800.0:-1
ipc-2014-optimal-citycar-p2-2-3-2-2.pddl,SAT:1.24381:50.0:1800.0:-1
ipc-2014-optimal-citycar-p2-2-4-1-2.pddl,SAT:1.54376:52.0:1800.0:-1
ipc-2014-optimal-citycar-p2-2-4-2-1.pddl,SAT:1.52077:52.0:1800.0:-1
ipc-2014-optimal-citycar-p2-2-5-2-2.pddl,SAT:15.0637:76.0:1800.0:-1
ipc-2014-optimal-citycar-p2-2-6-1-1.pddl,SAT:2.48562:58.0:1800.0:-1
ipc-2014-optimal-citycar-p2-2-6-2-2.pddl,SAT:2.55061:58.0:1800.0:-1
ipc-2014-optimal-citycar-p2-3-2-3-1.pddl,SAT:5.03523:68.0:1800.0:-1
ipc-2014-optimal-citycar-p2-3-3-3-1.pddl,SAT:22.8515:78.0:1800.0:-1
ipc-2014-optimal-citycar-p2-3-4-3-1.pddl,SAT:112.613:82.0:1800.0:-1
ipc-2014-optimal-citycar-p2-3-6-3-2.pddl,TIMEOUT:1801.1:-1.0:1800.0:-1
ipc-2014-optimal-citycar-p3-3-2-2-1.pddl,SAT:42.9855:70.0:1800.0:-1
ipc-2014-optimal-citycar-p3-3-2-2-2.pddl,SAT:452.893:92.0:1800.0:-1
ipc-2014-optimal-citycar-p3-3-2-3-1.pddl,SAT:3.33049:48.0:1800.0:-1
ipc-2014-optimal-citycar-p3-3-2-3-2.pddl,SAT:37.6293:70.0:1800.0:-1
ipc-2014-optimal-citycar-p3-3-3-3-1.pddl,TIMEOUT:1801.08:-1.0:1800.0:-1
ipc-2014-optimal-citycar-p3-3-3-3-2.pddl,SAT:101.917:76.0:1800.0:-1
ipc-2014-optimal-floortile-p01-4-3-2.pddl,SAT:13.8369:56.0:1800.0:-1
ipc-2014-optimal-floortile-p01-4-4-2.pddl,SAT:534.271:68.0:1800.0:-1
ipc-2014-optimal-floortile-p01-5-3-2.pddl,SAT:59.8559:63.0:1800.0:-1
ipc-2014-optimal-floortile-p01-5-4-2.pddl,TIMEOUT:1801.02:-1.0:1800.0:-1
ipc-2014-optimal-floortile-p01-5-5-2.pddl,TIMEOUT:1801.06:-1.0:1800.0:-1
ipc-2014-optimal-floortile-p01-6-4-2.pddl,TIMEOUT:1801.09:-1.0:1800.0:-1
ipc-2014-optimal-floortile-p01-6-5-2.pddl,TIMEOUT:1801.03:-1.0:1800.0:-1
ipc-2014-optimal-floortile-p02-4-4-2.pddl,SAT:904.462:75.0:1800.0:-1
ipc-2014-optimal-floortile-p02-5-3-2.pddl,SAT:85.826:65.0:1800.0:-1
ipc-2014-optimal-floortile-p02-5-4-2.pddl,TIMEOUT:1801.02:-1.0:1800.0:-1
ipc-2014-optimal-floortile-p02-5-5-2.pddl,TIMEOUT:1801.09:-1.0:1800.0:-1
ipc-2014-optimal-floortile-p02-6-4-2.pddl,TIMEOUT:1801.06:-1.0:1800.0:-1
ipc-2014-optimal-floortile-p02-6-5-2.pddl,TIMEOUT:1801.01:-1.0:1800.0:-1
ipc-2014-optimal-floortile-p03-4-3-2.pddl,SAT:18.3682:56.0:1800.0:-1
ipc-2014-optimal-floortile-p03-4-4-2.pddl,SAT:776.709:72.0:1800.0:-1
ipc-2014-optimal-floortile-p03-5-3-2.pddl,SAT:92.413:65.0:1800.0:-1
ipc-2014-optimal-floortile-p03-5-4-2.pddl,TIMEOUT:1801.1:-1.0:1800.0:-1
ipc-2014-optimal-floortile-p03-5-5-2.pddl,TIMEOUT:1801.03:-1.0:1800.0:-1
ipc-2014-optimal-floortile-p03-6-4-2.pddl,TIMEOUT:1801.01:-1.0:1800.0:-1
ipc-2014-optimal-floortile-p03-6-5-2.pddl,TIMEOUT:1801.07:-1.0:1800.0:-1
ipc-2014-optimal-ged-d-1-2.pddl,SAT:1.92171:1.0:1800.0:-1
ipc-2014-optimal-ged-d-1-3.pddl,SAT:9.94449:4.0:1800.0:-1
ipc-2014-optimal-ged-d-1-4.pddl,SAT:1.92371:1.0:1800.0:-1
ipc-2014-optimal-ged-d-1-8.pddl,SAT:43.8603:4.0:1800.0:-1
ipc-2014-optimal-ged-d-2-1.pddl,SAT:1.81572:1.0:1800.0:-1
ipc-2014-optimal-ged-d-2-3.pddl,SAT:2.46662:3.0:1800.0:-1
ipc-2014-optimal-ged-d-2-4.pddl,SAT:1.9557:2.0:1800.0:-1
ipc-2014-optimal-ged-d-2-8.pddl,TIMEOUT:1801.04:-1.0:1800.0:-1
ipc-2014-optimal-ged-d-3-1.pddl,SAT:9.64853:4.0:1800.0:-1
ipc-2014-optimal-ged-d-3-2.pddl,SAT:2.44563:3.0:1800.0:-1
ipc-2014-optimal-ged-d-3-4.pddl,SAT:328.061:5.0:1800.0:-1
ipc-2014-optimal-ged-d-4-2.pddl,SAT:1.9577:2.0:1800.0:-1
ipc-2014-optimal-ged-d-4-3.pddl,SAT:380.667:5.0:1800.0:-1
ipc-2014-optimal-ged-d-4-8.pddl,TIMEOUT:1801.08:-1.0:1800.0:-1
ipc-2014-optimal-ged-d-7-5.pddl,SAT:49.6435:4.0:1800.0:-1
ipc-2014-optimal-ged-d-7-6.pddl,SAT:9.41057:4.0:1800.0:-1
ipc-2014-optimal-ged-d-8-1.pddl,SAT:44.9212:4.0:1800.0:-1
ipc-2014-optimal-ged-d-8-2.pddl,TIMEOUT:1801.09:-1.0:1800.0:-1
ipc-2014-optimal-ged-d-8-4.pddl,TIMEOUT:1801.08:-1.0:1800.0:-1
ipc-2014-optimal-ged-d-8-9.pddl,TIMEOUT:1801.03:-1.0:1800.0:-1
ipc-2014-optimal-hiking-1-2-3.pddl,SAT:0.712891:11.0:1800.0:-1
ipc-2014-optimal-hiking-1-2-4.pddl,SAT:0.953854:17.0:1800.0:-1
ipc-2014-optimal-hiking-1-2-5.pddl,SAT:1.27081:25.0:1800.0:-1
ipc-2014-optimal-hiking-1-2-7.pddl,SAT:3.18052:38.0:1800.0:-1
ipc-2014-optimal-hiking-1-2-8.pddl,SAT:5.99609:45.0:1800.0:-1
ipc-2014-optimal-hiking-2-2-3.pddl,SAT:1.68274:10.0:1800.0:-1
ipc-2014-optimal-hiking-2-2-4.pddl,SAT:8.59169:16.0:1800.0:-1
ipc-2014-optimal-hiking-2-2-5.pddl,SAT:125.534:22.0:1800.0:-1
ipc-2014-optimal-hiking-2-2-6.pddl,SAT:1444.4:30.0:1800.0:-1
ipc-2014-optimal-hiking-2-2-7.pddl,TIMEOUT:1801.06:-1.0:1800.0:-1
ipc-2014-optimal-hiking-2-2-8.pddl,TIMEOUT:1801.04:-1.0:1800.0:-1
ipc-2014-optimal-hiking-2-3-4.pddl,SAT:20.2869:17.0:1800.0:-1
ipc-2014-optimal-hiking-2-3-5.pddl,SAT:385.227:24.0:1800.0:-1
ipc-2014-optimal-hiking-2-3-6.pddl,TIMEOUT:1801.04:-1.0:1800.0:-1
ipc-2014-optimal-hiking-2-3-7.pddl,TIMEOUT:1801.09:-1.0:1800.0:-1
ipc-2014-optimal-hiking-2-4-3.pddl,SAT:2.37364:10.0:1800.0:-1
ipc-2014-optimal-hiking-2-4-4.pddl,SAT:31.6902:17.0:1800.0:-1
ipc-2014-optimal-hiking-2-4-5.pddl,SAT:731.37:23.0:1800.0:-1
ipc-2014-optimal-hiking-2-4-6.pddl,TIMEOUT:1801.03:-1.0:1800.0:-1
ipc-2014-optimal-hiking-2-4-7.pddl,TIMEOUT:1801.02:-1.0:1800.0:-1
ipc-2014-optimal-maintenance-1.3.010.010.1-001.pddl,CRASHED:0.464928:1000000000.0:1800.0:-1
ipc-2014-optimal-maintenance-1.3.010.010.1-002.pddl,CRASHED:0.441932:1000000000.0:1800.0:-1
ipc-2014-optimal-maintenance-1.3.010.010.2-000.pddl,SAT:0.485925:4.0:1800.0:-1
ipc-2014-optimal-maintenance-1.3.010.010.2-001.pddl,SAT:0.493924:7.0:1800.0:-1
ipc-2014-optimal-maintenance-1.3.010.010.2-002.pddl,SAT:0.493924:6.0:1800.0:-1
ipc-2014-optimal-maintenance-1.3.015.020.1-000.pddl,CRASHED:0.52092:1000000000.0:1800.0:-1
ipc-2014-optimal-maintenance-1.3.015.020.1-001.pddl,CRASHED:0.527919:1000000000.0:1800.0:-1
ipc-2014-optimal-maintenance-1.3.015.020.1-002.pddl,CRASHED:0.527919:1000000000.0:1800.0:-1
ipc-2014-optimal-maintenance-1.3.015.020.2-000.pddl,CRASHED:0.529918:1000000000.0:1800.0:-1
ipc-2014-optimal-maintenance-1.3.015.020.2-001.pddl,SAT:0.540917:11.0:1800.0:-1
ipc-2014-optimal-maintenance-1.3.015.020.2-002.pddl,SAT:0.513921:9.0:1800.0:-1
ipc-2014-optimal-maintenance-1.3.025.050.1-000.pddl,CRASHED:0.601907:1000000000.0:1800.0:-1
ipc-2014-optimal-maintenance-1.3.025.050.1-001.pddl,CRASHED:0.663898:1000000000.0:1800.0:-1
ipc-2014-optimal-maintenance-1.3.025.050.1-002.pddl,CRASHED:0.672896:1000000000.0:1800.0:-1
ipc-2014-optimal-maintenance-1.3.025.100.1-000.pddl,CRASHED:0.752885:1000000000.0:1800.0:-1
ipc-2014-optimal-maintenance-1.3.025.100.1-001.pddl,CRASHED:0.692894:1000000000.0:1800.0:-1
ipc-2014-optimal-maintenance-1.3.025.100.1-002.pddl,CRASHED:0.687895:1000000000.0:1800.0:-1
ipc-2014-optimal-maintenance-1.3.025.100.2-000.pddl,CRASHED:0.987849:1000000000.0:1800.0:-1
ipc-2014-optimal-maintenance-1.3.025.100.2-001.pddl,CRASHED:0.856869:1000000000.0:1800.0:-1
ipc-2014-optimal-maintenance-1.3.025.100.2-002.pddl,CRASHED:0.879865:1000000000.0:1800.0:-1
ipc-2014-optimal-openstacks-p20_1.pddl,SAT:25.8311:3.0:1800.0:-1
ipc-2014-optimal-openstacks-p20_2.pddl,SAT:160.26:4.0:1800.0:-1
ipc-2014-optimal-openstacks-p20_3.pddl,SAT:24.2373:6.0:1800.0:-1
ipc-2014-optimal-openstacks-p25_1.pddl,TIMEOUT:1801.01:-1.0:1800.0:-1
ipc-2014-optimal-openstacks-p25_3.pddl,TIMEOUT:1801.1:-1.0:1800.0:-1
ipc-2014-optimal-openstacks-p30_1.pddl,TIMEOUT:1801.06:-1.0:1800.0:-1
ipc-2014-optimal-openstacks-p30_2.pddl,TIMEOUT:1801.08:-1.0:1800.0:-1
ipc-2014-optimal-openstacks-p30_3.pddl,TIMEOUT:1801.04:-1.0:1800.0:-1
ipc-2014-optimal-openstacks-p35_1.pddl,TIMEOUT:1801.07:-1.0:1800.0:-1
ipc-2014-optimal-openstacks-p35_2.pddl,TIMEOUT:1801.07:-1.0:1800.0:-1
ipc-2014-optimal-openstacks-p35_3.pddl,TIMEOUT:1801.06:-1.0:1800.0:-1
ipc-2014-optimal-openstacks-p40_1.pddl,TIMEOUT:1801.05:-1.0:1800.0:-1
ipc-2014-optimal-openstacks-p40_2.pddl,TIMEOUT:1801.01:-1.0:1800.0:-1
ipc-2014-optimal-openstacks-p40_3.pddl,TIMEOUT:1801.01:-1.0:1800.0:-1
ipc-2014-optimal-openstacks-p45_1.pddl,TIMEOUT:1801.04:-1.0:1800.0:-1
ipc-2014-optimal-openstacks-p45_2.pddl,TIMEOUT:1801.11:-1.0:1800.0:-1
ipc-2014-optimal-openstacks-p45_3.pddl,TIMEOUT:1801.12:-1.0:1800.0:-1
ipc-2014-optimal-openstacks-p50_1.pddl,TIMEOUT:1801.01:-1.0:1800.0:-1
ipc-2014-optimal-openstacks-p50_2.pddl,TIMEOUT:1801.02:-1.0:1800.0:-1
ipc-2014-optimal-openstacks-p50_3.pddl,TIMEOUT:1801.02:-1.0:1800.0:-1
ipc-2014-optimal-parking-12_7-01.pddl,SAT:148.857:18.0:1800.0:-1
ipc-2014-optimal-parking-12_7-02.pddl,SAT:395.087:18.0:1800.0:-1
ipc-2014-optimal-parking-12_7-03.pddl,SAT:93.7827:17.0:1800.0:-1
ipc-2014-optimal-parking-12_7-04.pddl,SAT:1279.73:19.0:1800.0:-1
ipc-2014-optimal-parking-14_8-01.pddl,TIMEOUT:1801.05:-1.0:1800.0:-1
ipc-2014-optimal-parking-14_8-02.pddl,TIMEOUT:1801.01:-1.0:1800.0:-1
ipc-2014-optimal-parking-14_8-03.pddl,TIMEOUT:1801.07:-1.0:1800.0:-1
ipc-2014-optimal-parking-14_8-04.pddl,TIMEOUT:1801.03:-1.0:1800.0:-1
ipc-2014-optimal-parking-16_9-01.pddl,TIMEOUT:1801.12:-1.0:1800.0:-1
ipc-2014-optimal-parking-16_9-02.pddl,TIMEOUT:1801.06:-1.0:1800.0:-1
ipc-2014-optimal-parking-16_9-03.pddl,TIMEOUT:1801.04:-1.0:1800.0:-1
ipc-2014-optimal-parking-16_9-04.pddl,TIMEOUT:1801.1:-1.0:1800.0:-1
ipc-2014-optimal-parking-18_10-01.pddl,TIMEOUT:1801.04:-1.0:1800.0:-1
ipc-2014-optimal-parking-18_10-02.pddl,TIMEOUT:1801.02:-1.0:1800.0:-1
ipc-2014-optimal-parking-18_10-03.pddl,TIMEOUT:1801.02:-1.0:1800.0:-1
ipc-2014-optimal-parking-18_10-04.pddl,TIMEOUT:1801.07:-1.0:1800.0:-1
ipc-2014-optimal-parking-20_11-01.pddl,TIMEOUT:1801.07:-1.0:1800.0:-1
ipc-2014-optimal-parking-20_11-02.pddl,TIMEOUT:1801.02:-1.0:1800.0:-1
ipc-2014-optimal-parking-20_11-03.pddl,TIMEOUT:1801.07:-1.0:1800.0:-1
ipc-2014-optimal-parking-20_11-04.pddl,TIMEOUT:1801.01:-1.0:1800.0:-1
ipc-2014-optimal-tetris-01-10.pddl,TIMEOUT:1801.02:-1.0:1800.0:-1
ipc-2014-optimal-tetris-01-04.pddl,CRASHED:31.4102:1000000000.0:1800.0:-1
ipc-2014-optimal-tetris-01-06.pddl,SAT:1086.8:30.0:1800.0:-1
ipc-2014-optimal-tetris-01-08.pddl,SAT:632.935:36.0:1800.0:-1
ipc-2014-optimal-tetris-02-10.pddl,TIMEOUT:1801.02:-1.0:1800.0:-1
ipc-2014-optimal-tetris-02-04.pddl,SAT:2.97155:10.0:1800.0:-1
ipc-2014-optimal-tetris-02-06.pddl,SAT:340.803:30.0:1800.0:-1
ipc-2014-optimal-tetris-02-08.pddl,TIMEOUT:1801.02:-1.0:1800.0:-1
ipc-2014-optimal-tetris-03-10.pddl,TIMEOUT:1801.04:-1.0:1800.0:-1
ipc-2014-optimal-tetris-03-04.pddl,SAT:3.84542:11.0:1800.0:-1
ipc-2014-optimal-tetris-03-06.pddl,SAT:207.763:21.0:1800.0:-1
ipc-2014-optimal-tetris-03-08.pddl,TIMEOUT:1801.1:-1.0:1800.0:-1
ipc-2014-optimal-tetris-04-10.pddl,TIMEOUT:1801.02:-1.0:1800.0:-1
ipc-2014-optimal-tetris-04-04.pddl,CRASHED:13.5879:1000000000.0:1800.0:-1
ipc-2014-optimal-tetris-04-06.pddl,SAT:916.03:27.0:1800.0:-1
ipc-2014-optimal-tetris-04-08.pddl,TIMEOUT:1801.07:-1.0:1800.0:-1
ipc-2014-optimal-tetris-05-10.pddl,TIMEOUT:1801.04:-1.0:1800.0:-1
ipc-2014-optimal-tetris-05-04.pddl,CRASHED:10.7754:1000000000.0:1800.0:-1
ipc-2014-optimal-tetris-05-06.pddl,SAT:19.2481:19.0:1800.0:-1
ipc-2014-optimal-tetris-05-08.pddl,TIMEOUT:1801.01:-1.0:1800.0:-1
ipc-2014-optimal-tidybot-01.pddl,TIMEOUT:1801.0:-1.0:1800.0:-1
ipc-2014-optimal-tidybot-02.pddl,SAT:276.766:35.0:1800.0:-1
ipc-2014-optimal-tidybot-03.pddl,SAT:398.097:30.0:1800.0:-1
ipc-2014-optimal-tidybot-04.pddl,SAT:57.5702:24.0:1800.0:-1
ipc-2014-optimal-tidybot-05.pddl,TIMEOUT:1801.03:-1.0:1800.0:-1
ipc-2014-optimal-tidybot-06.pddl,TIMEOUT:1801.09:-1.0:1800.0:-1
ipc-2014-optimal-tidybot-07.pddl,SAT:1255.72:38.0:1800.0:-1
ipc-2014-optimal-tidybot-08.pddl,SAT:124.96:25.0:1800.0:-1
ipc-2014-optimal-tidybot-09.pddl,TIMEOUT:1801.02:-1.0:1800.0:-1
ipc-2014-optimal-tidybot-10.pddl,TIMEOUT:1801.02:-1.0:1800.0:-1
ipc-2014-optimal-tidybot-11.pddl,SAT:111.373:29.0:1800.0:-1
ipc-2014-optimal-tidybot-12.pddl,SAT:848.732:35.0:1800.0:-1
ipc-2014-optimal-tidybot-13.pddl,SAT:307.57:30.0:1800.0:-1
ipc-2014-optimal-tidybot-14.pddl,SAT:54.6697:25.0:1800.0:-1
ipc-2014-optimal-tidybot-15.pddl,TIMEOUT:1801.05:-1.0:1800.0:-1
ipc-2014-optimal-tidybot-16.pddl,TIMEOUT:1801.09:-1.0:1800.0:-1
ipc-2014-optimal-tidybot-17.pddl,TIMEOUT:1801.08:-1.0:1800.0:-1
ipc-2014-optimal-tidybot-18.pddl,TIMEOUT:1801.04:-1.0:1800.0:-1
ipc-2014-optimal-tidybot-19.pddl,TIMEOUT:1801.06:-1.0:1800.0:-1
ipc-2014-optimal-tidybot-20.pddl,TIMEOUT:1801.0:-1.0:1800.0:-1
ipc-2014-optimal-transport-01.pddl,SAT:0.978851:148.0:1800.0:-1
ipc-2014-optimal-transport-02.pddl,SAT:14.7997:191.0:1800.0:-1
ipc-2014-optimal-transport-03.pddl,SAT:47.4898:300.0:1800.0:-1
ipc-2014-optimal-transport-04.pddl,TIMEOUT:1801.01:-1.0:1800.0:-1
ipc-2014-optimal-transport-05.pddl,TIMEOUT:1801.07:-1.0:1800.0:-1
ipc-2014-optimal-transport-06.pddl,TIMEOUT:1801.02:-1.0:1800.0:-1
ipc-2014-optimal-transport-07.pddl,SAT:100.289:967.0:1800.0:-1
ipc-2014-optimal-transport-08.pddl,TIMEOUT:1801.02:-1.0:1800.0:-1
ipc-2014-optimal-transport-09.pddl,TIMEOUT:1801.06:-1.0:1800.0:-1
ipc-2014-optimal-transport-10.pddl,TIMEOUT:1801.01:-1.0:1800.0:-1
ipc-2014-optimal-transport-11.pddl,TIMEOUT:1801.07:-1.0:1800.0:-1
ipc-2014-optimal-transport-12.pddl,TIMEOUT:1801.08:-1.0:1800.0:-1
ipc-2014-optimal-transport-13.pddl,SAT:5.05923:594.0:1800.0:-1
ipc-2014-optimal-transport-14.pddl,SAT:152.916:526.0:1800.0:-1
ipc-2014-optimal-transport-15.pddl,TIMEOUT:1801.03:-1.0:1800.0:-1
ipc-2014-optimal-transport-16.pddl,TIMEOUT:1801.0:-1.0:1800.0:-1
ipc-2014-optimal-transport-17.pddl,TIMEOUT:1801.13:-1.0:1800.0:-1
ipc-2014-optimal-transport-18.pddl,TIMEOUT:1801.12:-1.0:1800.0:-1
ipc-2014-optimal-transport-19.pddl,TIMEOUT:1801.07:-1.0:1800.0:-1
ipc-2014-optimal-transport-20.pddl,TIMEOUT:1801.02:-1.0:1800.0:-1
ipc-2014-optimal-visitall-05-10.pddl,TIMEOUT:1801.04:-1.0:1800.0:-1
ipc-2014-optimal-visitall-05-05.pddl,SAT:0.752885:21.0:1800.0:-1
ipc-2014-optimal-visitall-05-06.pddl,SAT:1.08183:25.0:1800.0:-1
ipc-2014-optimal-visitall-05-07.pddl,SAT:13.7679:34.0:1800.0:-1
ipc-2014-optimal-visitall-05-08.pddl,SAT:94.5416:43.0:1800.0:-1
ipc-2014-optimal-visitall-05-09.pddl,TIMEOUT:1801.07:-1.0:1800.0:-1
ipc-2014-optimal-visitall-01-10.pddl,TIMEOUT:1801.07:-1.0:1800.0:-1
ipc-2014-optimal-visitall-01-11.pddl,TIMEOUT:1801.04:-1.0:1800.0:-1
ipc-2014-optimal-visitall-01-12.pddl,TIMEOUT:1801.01:-1.0:1800.0:-1
ipc-2014-optimal-visitall-01-13.pddl,TIMEOUT:1801.03:-1.0:1800.0:-1
ipc-2014-optimal-visitall-01-14.pddl,TIMEOUT:1801.01:-1.0:1800.0:-1
ipc-2014-optimal-visitall-01-15.pddl,TIMEOUT:1801.11:-1.0:1800.0:-1
ipc-2014-optimal-visitall-01-16.pddl,TIMEOUT:1801.06:-1.0:1800.0:-1
ipc-2014-optimal-visitall-01-17.pddl,TIMEOUT:1801.0:-1.0:1800.0:-1
ipc-2014-optimal-visitall-01-18.pddl,TIMEOUT:1801.08:-1.0:1800.0:-1
ipc-2014-optimal-visitall-01-05.pddl,SAT:0.961853:24.0:1800.0:-1
ipc-2014-optimal-visitall-01-06.pddl,SAT:1008.85:35.0:1800.0:-1
ipc-2014-optimal-visitall-01-07.pddl,TIMEOUT:1801.07:-1.0:1800.0:-1
ipc-2014-optimal-visitall-01-08.pddl,TIMEOUT:1801.04:-1.0:1800.0:-1
ipc-2014-optimal-visitall-01-09.pddl,TIMEOUT:1801.1:-1.0:1800.0:-1
