instance,ipc-2014-optimal-miplan
ipc-2014-optimal-barman-p433.1.pddl,CRASHED:2.91256:1000000000.0:1800.0:-1
ipc-2014-optimal-barman-p433.2.pddl,CRASHED:2.97055:1000000000.0:1800.0:-1
ipc-2014-optimal-barman-p433.3.pddl,CRASHED:3.06653:1000000000.0:1800.0:-1
ipc-2014-optimal-barman-p435.1.pddl,CRASHED:1788.73:1000000000.0:1800.0:-1
ipc-2014-optimal-barman-p435.2.pddl,CRASHED:1783.98:1000000000.0:1800.0:-1
ipc-2014-optimal-barman-p435.3.pddl,CRASHED:1179.7:1000000000.0:1800.0:-1
ipc-2014-optimal-barman-p443.1.pddl,CRASHED:2.89856:1000000000.0:1800.0:-1
ipc-2014-optimal-barman-p443.2.pddl,CRASHED:2.88556:1000000000.0:1800.0:-1
ipc-2014-optimal-barman-p443.3.pddl,CRASHED:3.15252:1000000000.0:1800.0:-1
ipc-2014-optimal-barman-p536.1.pddl,CRASHED:1784.21:1000000000.0:1800.0:-1
ipc-2014-optimal-barman-p536.2.pddl,TIMEOUT:1801.0:-1.0:1800.0:-1
ipc-2014-optimal-barman-p536.3.pddl,CRASHED:1785.03:1000000000.0:1800.0:-1
ipc-2014-optimal-barman-p638.1.pddl,CRASHED:1784.94:1000000000.0:1800.0:-1
ipc-2014-optimal-barman-p638.2.pddl,CRASHED:1787.64:1000000000.0:1800.0:-1
ipc-2014-optimal-barman-p638.3.pddl,CRASHED:1789.99:1000000000.0:1800.0:-1
ipc-2014-optimal-barman-p739.1.pddl,CRASHED:1239.33:1000000000.0:1800.0:-1
ipc-2014-optimal-barman-p739.2.pddl,CRASHED:1780.94:1000000000.0:1800.0:-1
ipc-2014-optimal-barman-p739.3.pddl,CRASHED:1786.09:1000000000.0:1800.0:-1
ipc-2014-optimal-barman-p839.1.pddl,CRASHED:1239.53:1000000000.0:1800.0:-1
ipc-2014-optimal-barman-p839.2.pddl,CRASHED:1785.99:1000000000.0:1800.0:-1
ipc-2014-optimal-cavediving-01.pddl,CRASHED:176.139:1000000000.0:1800.0:-1
ipc-2014-optimal-cavediving-01_easy.pddl,CRASHED:167.124:1000000000.0:1800.0:-1
ipc-2014-optimal-cavediving-02_easy.pddl,CRASHED:169.084:1000000000.0:1800.0:-1
ipc-2014-optimal-cavediving-03_easy.pddl,CRASHED:165.957:1000000000.0:1800.0:-1
ipc-2014-optimal-cavediving-04_easy.pddl,CRASHED:185.02:1000000000.0:1800.0:-1
ipc-2014-optimal-cavediving-05A_easy.pddl,SAT:25.8771:94.0:1800.0:-1
ipc-2014-optimal-cavediving-06A_easy.pddl,SAT:25.8141:95.0:1800.0:-1
ipc-2014-optimal-cavediving-07_easy.pddl,SAT:43.3934:131.0:1800.0:-1
ipc-2014-optimal-cavediving-08_easy.pddl,SAT:25.8551:90.0:1800.0:-1
ipc-2014-optimal-cavediving-09_easy.pddl,CRASHED:321.704:1000000000.0:1800.0:-1
ipc-2014-optimal-cavediving-10_easy.pddl,CRASHED:325.075:1000000000.0:1800.0:-1
ipc-2014-optimal-cavediving-11_easy.pddl,CRASHED:310.753:1000000000.0:1800.0:-1
ipc-2014-optimal-cavediving-12_easy.pddl,CRASHED:314.818:1000000000.0:1800.0:-1
ipc-2014-optimal-cavediving-13_easy.pddl,CRASHED:170.076:1000000000.0:1800.0:-1
ipc-2014-optimal-cavediving-14_easy.pddl,CRASHED:168.214:1000000000.0:1800.0:-1
ipc-2014-optimal-cavediving-15_easy.pddl,CRASHED:158.069:1000000000.0:1800.0:-1
ipc-2014-optimal-cavediving-16_easy.pddl,CRASHED:166.843:1000000000.0:1800.0:-1
ipc-2014-optimal-cavediving-18A_easy.pddl,SAT:64.8551:131.0:1800.0:-1
ipc-2014-optimal-cavediving-18_easy.pddl,CRASHED:125.009:131.0:1800.0:-1
ipc-2014-optimal-cavediving-20A_easy.pddl,SAT:41.8656:98.0:1800.0:-1
ipc-2014-optimal-childsnack-01-2.pddl,CRASHED:1774.17:1000000000.0:1800.0:-1
ipc-2014-optimal-childsnack-01.pddl,CRASHED:1772.09:1000000000.0:1800.0:-1
ipc-2014-optimal-childsnack-02-2.pddl,CRASHED:1780.88:1000000000.0:1800.0:-1
ipc-2014-optimal-childsnack-02.pddl,CRASHED:1774.32:1000000000.0:1800.0:-1
ipc-2014-optimal-childsnack-03-2.pddl,CRASHED:1781.47:1000000000.0:1800.0:-1
ipc-2014-optimal-childsnack-03.pddl,CRASHED:1242.49:1000000000.0:1800.0:-1
ipc-2014-optimal-childsnack-04-2.pddl,CRASHED:1241.97:1000000000.0:1800.0:-1
ipc-2014-optimal-childsnack-04.pddl,CRASHED:1784.57:1000000000.0:1800.0:-1
ipc-2014-optimal-childsnack-05-2.pddl,CRASHED:1218.99:1000000000.0:1800.0:-1
ipc-2014-optimal-childsnack-05.pddl,CRASHED:1782.78:1000000000.0:1800.0:-1
ipc-2014-optimal-childsnack-06-2.pddl,CRASHED:1780.01:1000000000.0:1800.0:-1
ipc-2014-optimal-childsnack-06.pddl,CRASHED:1777.45:1000000000.0:1800.0:-1
ipc-2014-optimal-childsnack-07-2.pddl,CRASHED:1781.03:1000000000.0:1800.0:-1
ipc-2014-optimal-childsnack-07.pddl,CRASHED:1236.24:1000000000.0:1800.0:-1
ipc-2014-optimal-childsnack-08-2.pddl,CRASHED:1231.76:1000000000.0:1800.0:-1
ipc-2014-optimal-childsnack-08.pddl,CRASHED:1232.16:1000000000.0:1800.0:-1
ipc-2014-optimal-childsnack-09-2.pddl,CRASHED:1785.56:1000000000.0:1800.0:-1
ipc-2014-optimal-childsnack-09.pddl,CRASHED:1.02002:1000000000.0:1800.0:-1
ipc-2014-optimal-childsnack-10-2.pddl,CRASHED:1791.01:1000000000.0:1800.0:-1
ipc-2014-optimal-childsnack-10.pddl,CRASHED:1554.67:1000000000.0:1800.0:-1
ipc-2014-optimal-citycar-p2-2-2-1-2.pddl,SAT:8.16176:46.0:1800.0:-1
ipc-2014-optimal-citycar-p2-2-2-2-1.pddl,SAT:13.36:64.0:1800.0:-1
ipc-2014-optimal-citycar-p2-2-3-1-2.pddl,SAT:11.1303:50.0:1800.0:-1
ipc-2014-optimal-citycar-p2-2-3-2-1.pddl,SAT:10.9833:48.0:1800.0:-1
ipc-2014-optimal-citycar-p2-2-3-2-2.pddl,SAT:11.0333:50.0:1800.0:-1
ipc-2014-optimal-citycar-p2-2-4-1-2.pddl,SAT:14.3998:52.0:1800.0:-1
ipc-2014-optimal-citycar-p2-2-4-2-1.pddl,SAT:13.9549:52.0:1800.0:-1
ipc-2014-optimal-citycar-p2-2-5-2-2.pddl,CRASHED:514.05:76.0:1800.0:-1
ipc-2014-optimal-citycar-p2-2-6-1-1.pddl,SAT:35.5256:58.0:1800.0:-1
ipc-2014-optimal-citycar-p2-2-6-2-2.pddl,SAT:35.5306:58.0:1800.0:-1
ipc-2014-optimal-citycar-p2-3-2-3-1.pddl,CRASHED:520.06:68.0:1800.0:-1
ipc-2014-optimal-citycar-p2-3-3-3-1.pddl,CRASHED:520.41:78.0:1800.0:-1
ipc-2014-optimal-citycar-p2-3-4-3-1.pddl,CRASHED:1714.41:1000000000.0:1800.0:-1
ipc-2014-optimal-citycar-p2-3-6-3-2.pddl,CRASHED:1701.31:1000000000.0:1800.0:-1
ipc-2014-optimal-citycar-p3-3-2-2-1.pddl,CRASHED:1702.58:1000000000.0:1800.0:-1
ipc-2014-optimal-citycar-p3-3-2-2-2.pddl,CRASHED:1705.71:1000000000.0:1800.0:-1
ipc-2014-optimal-citycar-p3-3-2-3-1.pddl,SAT:46.213:48.0:1800.0:-1
ipc-2014-optimal-citycar-p3-3-2-3-2.pddl,CRASHED:1705.73:1000000000.0:1800.0:-1
ipc-2014-optimal-citycar-p3-3-3-3-1.pddl,CRASHED:1584.48:1000000000.0:1800.0:-1
ipc-2014-optimal-citycar-p3-3-3-3-2.pddl,CRASHED:1593.48:1000000000.0:1800.0:-1
ipc-2014-optimal-floortile-p01-4-3-2.pddl,SAT:133.338:56.0:1800.0:-1
ipc-2014-optimal-floortile-p01-4-4-2.pddl,CRASHED:456.208:68.0:1800.0:-1
ipc-2014-optimal-floortile-p01-5-3-2.pddl,CRASHED:372.177:63.0:1800.0:-1
ipc-2014-optimal-floortile-p01-5-4-2.pddl,CRASHED:1781.09:1000000000.0:1800.0:-1
ipc-2014-optimal-floortile-p01-5-5-2.pddl,CRASHED:1780.76:1000000000.0:1800.0:-1
ipc-2014-optimal-floortile-p01-6-4-2.pddl,CRASHED:1785.4:1000000000.0:1800.0:-1
ipc-2014-optimal-floortile-p01-6-5-2.pddl,CRASHED:1779.2:1000000000.0:1800.0:-1
ipc-2014-optimal-floortile-p02-4-4-2.pddl,CRASHED:1782.1:1000000000.0:1800.0:-1
ipc-2014-optimal-floortile-p02-5-3-2.pddl,CRASHED:425.451:65.0:1800.0:-1
ipc-2014-optimal-floortile-p02-5-4-2.pddl,CRASHED:1262.23:1000000000.0:1800.0:-1
ipc-2014-optimal-floortile-p02-5-5-2.pddl,CRASHED:1787.39:1000000000.0:1800.0:-1
ipc-2014-optimal-floortile-p02-6-4-2.pddl,CRASHED:1787.12:1000000000.0:1800.0:-1
ipc-2014-optimal-floortile-p02-6-5-2.pddl,CRASHED:1778.54:1000000000.0:1800.0:-1
ipc-2014-optimal-floortile-p03-4-3-2.pddl,SAT:148.812:56.0:1800.0:-1
ipc-2014-optimal-floortile-p03-4-4-2.pddl,CRASHED:1781.93:1000000000.0:1800.0:-1
ipc-2014-optimal-floortile-p03-5-3-2.pddl,CRASHED:406.133:65.0:1800.0:-1
ipc-2014-optimal-floortile-p03-5-4-2.pddl,CRASHED:1782.87:1000000000.0:1800.0:-1
ipc-2014-optimal-floortile-p03-5-5-2.pddl,CRASHED:1166.74:1000000000.0:1800.0:-1
ipc-2014-optimal-floortile-p03-6-4-2.pddl,CRASHED:1781.47:1000000000.0:1800.0:-1
ipc-2014-optimal-floortile-p03-6-5-2.pddl,CRASHED:1779.08:1000000000.0:1800.0:-1
ipc-2014-optimal-ged-d-1-2.pddl,SAT:1.19782:1.0:1800.0:-1
ipc-2014-optimal-ged-d-1-3.pddl,SAT:6.19006:4.0:1800.0:-1
ipc-2014-optimal-ged-d-1-4.pddl,SAT:1.18882:1.0:1800.0:-1
ipc-2014-optimal-ged-d-1-8.pddl,SAT:26.449:4.0:1800.0:-1
ipc-2014-optimal-ged-d-2-1.pddl,SAT:1.16582:1.0:1800.0:-1
ipc-2014-optimal-ged-d-2-3.pddl,SAT:1.45978:3.0:1800.0:-1
ipc-2014-optimal-ged-d-2-4.pddl,SAT:1.57476:2.0:1800.0:-1
ipc-2014-optimal-ged-d-2-8.pddl,CRASHED:1285.74:1000000000.0:1800.0:-1
ipc-2014-optimal-ged-d-3-1.pddl,SAT:6.12007:4.0:1800.0:-1
ipc-2014-optimal-ged-d-3-2.pddl,SAT:1.81072:3.0:1800.0:-1
ipc-2014-optimal-ged-d-3-4.pddl,CRASHED:337.827:5.0:1800.0:-1
ipc-2014-optimal-ged-d-4-2.pddl,SAT:1.27381:2.0:1800.0:-1
ipc-2014-optimal-ged-d-4-3.pddl,CRASHED:342.588:5.0:1800.0:-1
ipc-2014-optimal-ged-d-4-8.pddl,CRASHED:1786.61:1000000000.0:1800.0:-1
ipc-2014-optimal-ged-d-7-5.pddl,SAT:27.8208:4.0:1800.0:-1
ipc-2014-optimal-ged-d-7-6.pddl,SAT:7.98579:4.0:1800.0:-1
ipc-2014-optimal-ged-d-8-1.pddl,SAT:27.7598:4.0:1800.0:-1
ipc-2014-optimal-ged-d-8-2.pddl,CRASHED:1782.9:1000000000.0:1800.0:-1
ipc-2014-optimal-ged-d-8-4.pddl,CRASHED:1781.75:1000000000.0:1800.0:-1
ipc-2014-optimal-ged-d-8-9.pddl,CRASHED:1787.27:1000000000.0:1800.0:-1
ipc-2014-optimal-hiking-1-2-3.pddl,SAT:1.26981:11.0:1800.0:-1
ipc-2014-optimal-hiking-1-2-4.pddl,SAT:21.0298:17.0:1800.0:-1
ipc-2014-optimal-hiking-1-2-5.pddl,SAT:21.3578:25.0:1800.0:-1
ipc-2014-optimal-hiking-1-2-7.pddl,SAT:25.2522:38.0:1800.0:-1
ipc-2014-optimal-hiking-1-2-8.pddl,SAT:32.866:45.0:1800.0:-1
ipc-2014-optimal-hiking-2-2-3.pddl,SAT:21.5867:10.0:1800.0:-1
ipc-2014-optimal-hiking-2-2-4.pddl,SAT:60.9947:16.0:1800.0:-1
ipc-2014-optimal-hiking-2-2-5.pddl,SAT:300.072:22.0:1800.0:-1
ipc-2014-optimal-hiking-2-2-6.pddl,CRASHED:1195.37:1000000000.0:1800.0:-1
ipc-2014-optimal-hiking-2-2-7.pddl,CRASHED:1396.92:1000000000.0:1800.0:-1
ipc-2014-optimal-hiking-2-2-8.pddl,CRASHED:1357.75:1000000000.0:1800.0:-1
ipc-2014-optimal-hiking-2-3-4.pddl,SAT:214.139:17.0:1800.0:-1
ipc-2014-optimal-hiking-2-3-5.pddl,SAT:460.769:24.0:1800.0:-1
ipc-2014-optimal-hiking-2-3-6.pddl,CRASHED:1790.33:1000000000.0:1800.0:-1
ipc-2014-optimal-hiking-2-3-7.pddl,CRASHED:1791.46:1000000000.0:1800.0:-1
ipc-2014-optimal-hiking-2-4-3.pddl,SAT:25.1092:10.0:1800.0:-1
ipc-2014-optimal-hiking-2-4-4.pddl,SAT:318.93:17.0:1800.0:-1
ipc-2014-optimal-hiking-2-4-5.pddl,CRASHED:1789.11:1000000000.0:1800.0:-1
ipc-2014-optimal-hiking-2-4-6.pddl,CRASHED:1792.54:1000000000.0:1800.0:-1
ipc-2014-optimal-hiking-2-4-7.pddl,CRASHED:1385.29:1000000000.0:1800.0:-1
ipc-2014-optimal-maintenance-1.3.010.010.1-001.pddl,CRASHED:1275.53:1000000000.0:1800.0:-1
ipc-2014-optimal-maintenance-1.3.010.010.1-002.pddl,CRASHED:1285.68:1000000000.0:1800.0:-1
ipc-2014-optimal-maintenance-1.3.010.010.2-000.pddl,SAT:0.658899:4.0:1800.0:-1
ipc-2014-optimal-maintenance-1.3.010.010.2-001.pddl,SAT:0.641901:7.0:1800.0:-1
ipc-2014-optimal-maintenance-1.3.010.010.2-002.pddl,SAT:0.642902:6.0:1800.0:-1
ipc-2014-optimal-maintenance-1.3.015.020.1-000.pddl,CRASHED:1276.53:1000000000.0:1800.0:-1
ipc-2014-optimal-maintenance-1.3.015.020.1-001.pddl,CRASHED:1292.22:1000000000.0:1800.0:-1
ipc-2014-optimal-maintenance-1.3.015.020.1-002.pddl,CRASHED:1275.88:1000000000.0:1800.0:-1
ipc-2014-optimal-maintenance-1.3.015.020.2-000.pddl,CRASHED:1418.56:1000000000.0:1800.0:-1
ipc-2014-optimal-maintenance-1.3.015.020.2-001.pddl,SAT:0.78588:11.0:1800.0:-1
ipc-2014-optimal-maintenance-1.3.015.020.2-002.pddl,SAT:0.768882:9.0:1800.0:-1
ipc-2014-optimal-maintenance-1.3.025.050.1-000.pddl,CRASHED:1461.43:1000000000.0:1800.0:-1
ipc-2014-optimal-maintenance-1.3.025.050.1-001.pddl,CRASHED:1497.73:1000000000.0:1800.0:-1
ipc-2014-optimal-maintenance-1.3.025.050.1-002.pddl,CRASHED:1450.79:1000000000.0:1800.0:-1
ipc-2014-optimal-maintenance-1.3.025.100.1-000.pddl,CRASHED:156.962:1000000000.0:1800.0:-1
ipc-2014-optimal-maintenance-1.3.025.100.1-001.pddl,CRASHED:168.351:1000000000.0:1800.0:-1
ipc-2014-optimal-maintenance-1.3.025.100.1-002.pddl,CRASHED:172.289:1000000000.0:1800.0:-1
ipc-2014-optimal-maintenance-1.3.025.100.2-000.pddl,CRASHED:1110.8:1000000000.0:1800.0:-1
ipc-2014-optimal-maintenance-1.3.025.100.2-001.pddl,CRASHED:1378.69:1000000000.0:1800.0:-1
ipc-2014-optimal-maintenance-1.3.025.100.2-002.pddl,CRASHED:1112.43:1000000000.0:1800.0:-1
ipc-2014-optimal-openstacks-p20_1.pddl,CRASHED:533.651:3.0:1800.0:-1
ipc-2014-optimal-openstacks-p20_2.pddl,CRASHED:532.144:4.0:1800.0:-1
ipc-2014-optimal-openstacks-p20_3.pddl,SAT:45.1661:6.0:1800.0:-1
ipc-2014-optimal-openstacks-p25_1.pddl,CRASHED:554.487:4.0:1800.0:-1
ipc-2014-optimal-openstacks-p25_3.pddl,CRASHED:535.775:9.0:1800.0:-1
ipc-2014-optimal-openstacks-p30_1.pddl,CRASHED:489.944:4.0:1800.0:-1
ipc-2014-optimal-openstacks-p30_2.pddl,CRASHED:504.466:4.0:1800.0:-1
ipc-2014-optimal-openstacks-p30_3.pddl,CRASHED:607.957:12.0:1800.0:-1
ipc-2014-optimal-openstacks-p35_1.pddl,CRASHED:709.724:4.0:1800.0:-1
ipc-2014-optimal-openstacks-p35_2.pddl,CRASHED:665.258:5.0:1800.0:-1
ipc-2014-optimal-openstacks-p35_3.pddl,CRASHED:1784.24:1000000000.0:1800.0:-1
ipc-2014-optimal-openstacks-p40_1.pddl,CRASHED:585.885:3.0:1800.0:-1
ipc-2014-optimal-openstacks-p40_2.pddl,CRASHED:718.869:4.0:1800.0:-1
ipc-2014-optimal-openstacks-p40_3.pddl,CRASHED:1780.57:1000000000.0:1800.0:-1
ipc-2014-optimal-openstacks-p45_1.pddl,CRASHED:897.166:4.0:1800.0:-1
ipc-2014-optimal-openstacks-p45_2.pddl,CRASHED:1102.21:1000000000.0:1800.0:-1
ipc-2014-optimal-openstacks-p45_3.pddl,CRASHED:1291.05:1000000000.0:1800.0:-1
ipc-2014-optimal-openstacks-p50_1.pddl,CRASHED:1371.45:1000000000.0:1800.0:-1
ipc-2014-optimal-openstacks-p50_2.pddl,CRASHED:1787.27:1000000000.0:1800.0:-1
ipc-2014-optimal-openstacks-p50_3.pddl,CRASHED:1786.48:1000000000.0:1800.0:-1
ipc-2014-optimal-parking-12_7-01.pddl,SAT:181.452:18.0:1800.0:-1
ipc-2014-optimal-parking-12_7-02.pddl,SAT:182.927:18.0:1800.0:-1
ipc-2014-optimal-parking-12_7-03.pddl,SAT:178.584:17.0:1800.0:-1
ipc-2014-optimal-parking-12_7-04.pddl,SAT:201.598:19.0:1800.0:-1
ipc-2014-optimal-parking-14_8-01.pddl,CRASHED:1798.39:1000000000.0:1800.0:-1
ipc-2014-optimal-parking-14_8-02.pddl,TIMEOUT:1801.0:-1.0:1800.0:-1
ipc-2014-optimal-parking-14_8-03.pddl,SAT:219.346:21.0:1800.0:-1
ipc-2014-optimal-parking-14_8-04.pddl,CRASHED:1479.8:1000000000.0:1800.0:-1
ipc-2014-optimal-parking-16_9-01.pddl,CRASHED:1554.82:1000000000.0:1800.0:-1
ipc-2014-optimal-parking-16_9-02.pddl,CRASHED:234.9:1000000000.0:1800.0:-1
ipc-2014-optimal-parking-16_9-03.pddl,CRASHED:1628.18:1000000000.0:1800.0:-1
ipc-2014-optimal-parking-16_9-04.pddl,CRASHED:1477.61:1000000000.0:1800.0:-1
ipc-2014-optimal-parking-18_10-01.pddl,CRASHED:319.45:1000000000.0:1800.0:-1
ipc-2014-optimal-parking-18_10-02.pddl,CRASHED:318.48:1000000000.0:1800.0:-1
ipc-2014-optimal-parking-18_10-03.pddl,CRASHED:322.24:1000000000.0:1800.0:-1
ipc-2014-optimal-parking-18_10-04.pddl,CRASHED:1601.23:1000000000.0:1800.0:-1
ipc-2014-optimal-parking-20_11-01.pddl,CRASHED:1471.45:1000000000.0:1800.0:-1
ipc-2014-optimal-parking-20_11-02.pddl,CRASHED:1516.35:1000000000.0:1800.0:-1
ipc-2014-optimal-parking-20_11-03.pddl,CRASHED:1517.84:1000000000.0:1800.0:-1
ipc-2014-optimal-parking-20_11-04.pddl,CRASHED:316.93:1000000000.0:1800.0:-1
ipc-2014-optimal-tetris-01-10.pddl,CRASHED:515.78:1000000000.0:1800.0:-1
ipc-2014-optimal-tetris-01-04.pddl,CRASHED:514.937:1000000000.0:1800.0:-1
ipc-2014-optimal-tetris-01-06.pddl,SAT:256.013:30.0:1800.0:-1
ipc-2014-optimal-tetris-01-08.pddl,CRASHED:52.0801:36.0:1800.0:-1
ipc-2014-optimal-tetris-02-10.pddl,CRASHED:516.87:1000000000.0:1800.0:-1
ipc-2014-optimal-tetris-02-04.pddl,SAT:1.12483:10.0:1800.0:-1
ipc-2014-optimal-tetris-02-06.pddl,SAT:53.7528:30.0:1800.0:-1
ipc-2014-optimal-tetris-02-08.pddl,CRASHED:708.64:1000000000.0:1800.0:-1
ipc-2014-optimal-tetris-03-10.pddl,CRASHED:485.09:1000000000.0:1800.0:-1
ipc-2014-optimal-tetris-03-04.pddl,SAT:22.6975:11.0:1800.0:-1
ipc-2014-optimal-tetris-03-06.pddl,SAT:194.161:21.0:1800.0:-1
ipc-2014-optimal-tetris-03-08.pddl,CRASHED:1712.4:1000000000.0:1800.0:-1
ipc-2014-optimal-tetris-04-10.pddl,CRASHED:520.13:1000000000.0:1800.0:-1
ipc-2014-optimal-tetris-04-04.pddl,CRASHED:302.191:1000000000.0:1800.0:-1
ipc-2014-optimal-tetris-04-06.pddl,SAT:234.316:27.0:1800.0:-1
ipc-2014-optimal-tetris-04-08.pddl,CRASHED:712.8:1000000000.0:1800.0:-1
ipc-2014-optimal-tetris-05-10.pddl,CRASHED:1589.28:1000000000.0:1800.0:-1
ipc-2014-optimal-tetris-05-04.pddl,CRASHED:196.41:1000000000.0:1800.0:-1
ipc-2014-optimal-tetris-05-06.pddl,SAT:25.2702:19.0:1800.0:-1
ipc-2014-optimal-tetris-05-08.pddl,CRASHED:1711.61:1000000000.0:1800.0:-1
ipc-2014-optimal-tidybot-01.pddl,CRASHED:1691.33:1000000000.0:1800.0:-1
ipc-2014-optimal-tidybot-02.pddl,CRASHED:319.57:35.0:1800.0:-1
ipc-2014-optimal-tidybot-03.pddl,CRASHED:319.32:30.0:1800.0:-1
ipc-2014-optimal-tidybot-04.pddl,CRASHED:319.59:24.0:1800.0:-1
ipc-2014-optimal-tidybot-05.pddl,CRASHED:1644.31:1000000000.0:1800.0:-1
ipc-2014-optimal-tidybot-06.pddl,CRASHED:1688.13:1000000000.0:1800.0:-1
ipc-2014-optimal-tidybot-07.pddl,CRASHED:1697.93:1000000000.0:1800.0:-1
ipc-2014-optimal-tidybot-08.pddl,SAT:57.1603:25.0:1800.0:-1
ipc-2014-optimal-tidybot-09.pddl,CRASHED:1662.9:1000000000.0:1800.0:-1
ipc-2014-optimal-tidybot-10.pddl,CRASHED:1662.57:1000000000.0:1800.0:-1
ipc-2014-optimal-tidybot-11.pddl,SAT:53.4749:29.0:1800.0:-1
ipc-2014-optimal-tidybot-12.pddl,CRASHED:319.58:35.0:1800.0:-1
ipc-2014-optimal-tidybot-13.pddl,CRASHED:320.2:30.0:1800.0:-1
ipc-2014-optimal-tidybot-14.pddl,SAT:56.1815:25.0:1800.0:-1
ipc-2014-optimal-tidybot-15.pddl,CRASHED:1644.39:1000000000.0:1800.0:-1
ipc-2014-optimal-tidybot-16.pddl,CRASHED:1692.48:1000000000.0:1800.0:-1
ipc-2014-optimal-tidybot-17.pddl,CRASHED:1687.61:1000000000.0:1800.0:-1
ipc-2014-optimal-tidybot-18.pddl,CRASHED:1689.89:1000000000.0:1800.0:-1
ipc-2014-optimal-tidybot-19.pddl,CRASHED:1688.28:1000000000.0:1800.0:-1
ipc-2014-optimal-tidybot-20.pddl,CRASHED:1686.01:1000000000.0:1800.0:-1
ipc-2014-optimal-transport-01.pddl,SAT:21.5197:148.0:1800.0:-1
ipc-2014-optimal-transport-02.pddl,SAT:25.4851:191.0:1800.0:-1
ipc-2014-optimal-transport-03.pddl,SAT:76.2704:300.0:1800.0:-1
ipc-2014-optimal-transport-04.pddl,CRASHED:1777.28:1000000000.0:1800.0:-1
ipc-2014-optimal-transport-05.pddl,CRASHED:1774.61:1000000000.0:1800.0:-1
ipc-2014-optimal-transport-06.pddl,CRASHED:1776.62:1000000000.0:1800.0:-1
ipc-2014-optimal-transport-07.pddl,SAT:68.3016:967.0:1800.0:-1
ipc-2014-optimal-transport-08.pddl,CRASHED:504.728:1173.0:1800.0:-1
ipc-2014-optimal-transport-09.pddl,CRASHED:1782.86:1000000000.0:1800.0:-1
ipc-2014-optimal-transport-10.pddl,CRASHED:1778.61:1000000000.0:1800.0:-1
ipc-2014-optimal-transport-11.pddl,CRASHED:54.1499:1000000000.0:1800.0:-1
ipc-2014-optimal-transport-12.pddl,CRASHED:1777.5:1000000000.0:1800.0:-1
ipc-2014-optimal-transport-13.pddl,SAT:32.784:594.0:1800.0:-1
ipc-2014-optimal-transport-14.pddl,SAT:301.161:526.0:1800.0:-1
ipc-2014-optimal-transport-15.pddl,CRASHED:350.3:1000000000.0:1800.0:-1
ipc-2014-optimal-transport-16.pddl,CRASHED:19.47:1000000000.0:1800.0:-1
ipc-2014-optimal-transport-17.pddl,TIMEOUT:1801.02:-1.0:1800.0:-1
ipc-2014-optimal-transport-18.pddl,TIMEOUT:1801.08:-1.0:1800.0:-1
ipc-2014-optimal-transport-19.pddl,CRASHED:1334.84:1000000000.0:1800.0:-1
ipc-2014-optimal-transport-20.pddl,CRASHED:1280.44:1000000000.0:1800.0:-1
ipc-2014-optimal-visitall-05-10.pddl,CRASHED:1297.29:1000000000.0:1800.0:-1
ipc-2014-optimal-visitall-05-05.pddl,SAT:4.20536:21.0:1800.0:-1
ipc-2014-optimal-visitall-05-06.pddl,SAT:6.561:25.0:1800.0:-1
ipc-2014-optimal-visitall-05-07.pddl,SAT:116.136:34.0:1800.0:-1
ipc-2014-optimal-visitall-05-08.pddl,CRASHED:719.774:43.0:1800.0:-1
ipc-2014-optimal-visitall-05-09.pddl,CRASHED:1782.25:1000000000.0:1800.0:-1
ipc-2014-optimal-visitall-01-10.pddl,SAT:172.618:99.0:1800.0:-1
ipc-2014-optimal-visitall-01-11.pddl,SAT:172.888:120.0:1800.0:-1
ipc-2014-optimal-visitall-01-12.pddl,SAT:217.384:143.0:1800.0:-1
ipc-2014-optimal-visitall-01-13.pddl,SAT:175.159:168.0:1800.0:-1
ipc-2014-optimal-visitall-01-14.pddl,CRASHED:1779.75:1000000000.0:1800.0:-1
ipc-2014-optimal-visitall-01-15.pddl,CRASHED:1781.13:1000000000.0:1800.0:-1
ipc-2014-optimal-visitall-01-16.pddl,CRASHED:1569.88:1000000000.0:1800.0:-1
ipc-2014-optimal-visitall-01-17.pddl,CRASHED:1779.46:1000000000.0:1800.0:-1
ipc-2014-optimal-visitall-01-18.pddl,CRASHED:1285.86:1000000000.0:1800.0:-1
ipc-2014-optimal-visitall-01-05.pddl,SAT:20.4669:24.0:1800.0:-1
ipc-2014-optimal-visitall-01-06.pddl,SAT:173.484:35.0:1800.0:-1
ipc-2014-optimal-visitall-01-07.pddl,SAT:172.66:48.0:1800.0:-1
ipc-2014-optimal-visitall-01-08.pddl,SAT:172.854:63.0:1800.0:-1
ipc-2014-optimal-visitall-01-09.pddl,SAT:174.251:80.0:1800.0:-1
