instance,ipc-2014-agile-jasper
ipc-2014-agile-barman-p1-11-4-15.pddl,SAT:9.01163:330.0:300.0:-1
ipc-2014-agile-barman-p1-11-5-15.pddl,SAT:6.91995:289.0:300.0:-1
ipc-2014-agile-barman-p1-11-5-16.pddl,SAT:6.99094:257.0:300.0:-1
ipc-2014-agile-barman-p2-10-4-13.pddl,SAT:9.51355:310.0:300.0:-1
ipc-2014-agile-barman-p2-11-4-15.pddl,SAT:11.4843:321.0:300.0:-1
ipc-2014-agile-barman-p2-11-5-15.pddl,SAT:4.41433:225.0:300.0:-1
ipc-2014-agile-barman-p2-11-5-16.pddl,SAT:11.1433:266.0:300.0:-1
ipc-2014-agile-barman-p2-11-5-17.pddl,SAT:18.1532:332.0:300.0:-1
ipc-2014-agile-barman-p3-10-4-13.pddl,SAT:16.0246:339.0:300.0:-1
ipc-2014-agile-barman-p3-11-4-15.pddl,SAT:5.29919:244.0:300.0:-1
ipc-2014-agile-barman-p3-11-5-15.pddl,SAT:21.6817:284.0:300.0:-1
ipc-2014-agile-barman-p3-11-5-16.pddl,SAT:9.62854:263.0:300.0:-1
ipc-2014-agile-barman-p3-11-5-17.pddl,SAT:14.0799:288.0:300.0:-1
ipc-2014-agile-barman-p4-11-4-14.pddl,SAT:3.06053:242.0:300.0:-1
ipc-2014-agile-barman-p4-11-4-15.pddl,SAT:20.8188:295.0:300.0:-1
ipc-2014-agile-barman-p4-11-5-15.pddl,SAT:222.016:383.0:300.0:-1
ipc-2014-agile-barman-p5-10-4-13.pddl,SAT:57.2803:373.0:300.0:-1
ipc-2014-agile-barman-p5-11-4-15.pddl,SAT:8.83766:272.0:300.0:-1
ipc-2014-agile-barman-p5-11-5-15.pddl,SAT:8.29674:259.0:300.0:-1
ipc-2014-agile-barman-p5-11-5-16.pddl,SAT:10.5164:213.0:300.0:-1
ipc-2014-agile-cavediving-01_easy.pddl,TIMEOUT:301.06:-1.0:300.0:-1
ipc-2014-agile-cavediving-01.pddl,TIMEOUT:301.06:-1.0:300.0:-1
ipc-2014-agile-cavediving-02_easy.pddl,TIMEOUT:301.08:-1.0:300.0:-1
ipc-2014-agile-cavediving-03_easy.pddl,TIMEOUT:301.0:-1.0:300.0:-1
ipc-2014-agile-cavediving-04_easy.pddl,TIMEOUT:301.06:-1.0:300.0:-1
ipc-2014-agile-cavediving-05A_easy.pddl,SAT:1.70474:97.0:300.0:-1
ipc-2014-agile-cavediving-06A_easy.pddl,SAT:1.2928:98.0:300.0:-1
ipc-2014-agile-cavediving-07_easy.pddl,SAT:0.494924:134.0:300.0:-1
ipc-2014-agile-cavediving-08_easy.pddl,SAT:0.438933:91.0:300.0:-1
ipc-2014-agile-cavediving-09_easy.pddl,TIMEOUT:301.08:-1.0:300.0:-1
ipc-2014-agile-cavediving-10_easy.pddl,TIMEOUT:301.06:-1.0:300.0:-1
ipc-2014-agile-cavediving-11_easy.pddl,TIMEOUT:301.04:-1.0:300.0:-1
ipc-2014-agile-cavediving-12_easy.pddl,TIMEOUT:301.06:-1.0:300.0:-1
ipc-2014-agile-cavediving-13_easy.pddl,TIMEOUT:301.09:-1.0:300.0:-1
ipc-2014-agile-cavediving-14_easy.pddl,TIMEOUT:301.06:-1.0:300.0:-1
ipc-2014-agile-cavediving-15_easy.pddl,TIMEOUT:301.03:-1.0:300.0:-1
ipc-2014-agile-cavediving-16_easy.pddl,TIMEOUT:301.07:-1.0:300.0:-1
ipc-2014-agile-cavediving-18A_easy.pddl,SAT:7.66583:131.0:300.0:-1
ipc-2014-agile-cavediving-18_easy.pddl,SAT:0.574912:137.0:300.0:-1
ipc-2014-agile-cavediving-20A_easy.pddl,SAT:0.447931:98.0:300.0:-1
ipc-2014-agile-childsnack-05-2.pddl,TIMEOUT:301.03:-1.0:300.0:-1
ipc-2014-agile-childsnack-05.pddl,TIMEOUT:301.01:-1.0:300.0:-1
ipc-2014-agile-childsnack-06-2.pddl,TIMEOUT:301.02:-1.0:300.0:-1
ipc-2014-agile-childsnack-07-2.pddl,TIMEOUT:301.04:-1.0:300.0:-1
ipc-2014-agile-childsnack-08-2.pddl,CRASHED:274.95:1000000000.0:300.0:-1
ipc-2014-agile-childsnack-08.pddl,TIMEOUT:301.04:-1.0:300.0:-1
ipc-2014-agile-childsnack-09-2.pddl,TIMEOUT:301.08:-1.0:300.0:-1
ipc-2014-agile-childsnack-09.pddl,CRASHED:299.42:1000000000.0:300.0:-1
ipc-2014-agile-childsnack-10-2.pddl,CRASHED:286.77:1000000000.0:300.0:-1
ipc-2014-agile-childsnack-10.pddl,CRASHED:299.09:1000000000.0:300.0:-1
ipc-2014-agile-childsnack-11-2.pddl,TIMEOUT:301.09:-1.0:300.0:-1
ipc-2014-agile-childsnack-11.pddl,TIMEOUT:301.1:-1.0:300.0:-1
ipc-2014-agile-childsnack-12.pddl,TIMEOUT:301.0:-1.0:300.0:-1
ipc-2014-agile-childsnack-13-2.pddl,TIMEOUT:301.07:-1.0:300.0:-1
ipc-2014-agile-childsnack-13.pddl,CRASHED:284.44:1000000000.0:300.0:-1
ipc-2014-agile-childsnack-14.pddl,CRASHED:228.53:1000000000.0:300.0:-1
ipc-2014-agile-childsnack-15-2.pddl,CRASHED:266.52:1000000000.0:300.0:-1
ipc-2014-agile-childsnack-16-2.pddl,CRASHED:263.51:1000000000.0:300.0:-1
ipc-2014-agile-childsnack-19-2.pddl,CRASHED:238.96:1000000000.0:300.0:-1
ipc-2014-agile-childsnack-19.pddl,TIMEOUT:301.05:-1.0:300.0:-1
ipc-2014-agile-citycar-p3-2-2-0-1.pddl,SAT:3.41548:1681.0:300.0:-1
ipc-2014-agile-citycar-p3-3-2-0-1.pddl,SAT:22.9165:877.0:300.0:-1
ipc-2014-agile-citycar-p3-4-2-0-1.pddl,SAT:88.6025:1035.0:300.0:-1
ipc-2014-agile-citycar-p3-5-2-0-1.pddl,SAT:26.7529:494.0:300.0:-1
ipc-2014-agile-citycar-p3-5-2-0-2.pddl,SAT:43.5354:342.0:300.0:-1
ipc-2014-agile-citycar-p4-2-2-0-1.pddl,TIMEOUT:301.07:-1.0:300.0:-1
ipc-2014-agile-citycar-p4-2-3-0-1.pddl,TIMEOUT:301.09:-1.0:300.0:-1
ipc-2014-agile-citycar-p4-2-3-0-2.pddl,TIMEOUT:301.09:-1.0:300.0:-1
ipc-2014-agile-citycar-p4-3-2-0-1.pddl,TIMEOUT:301.01:-1.0:300.0:-1
ipc-2014-agile-citycar-p4-3-2-0-2.pddl,TIMEOUT:301.0:-1.0:300.0:-1
ipc-2014-agile-citycar-p4-3-3-0-1.pddl,TIMEOUT:301.07:-1.0:300.0:-1
ipc-2014-agile-citycar-p4-3-3-0-2.pddl,TIMEOUT:301.05:-1.0:300.0:-1
ipc-2014-agile-citycar-p4-4-2-0-1.pddl,TIMEOUT:301.09:-1.0:300.0:-1
ipc-2014-agile-citycar-p4-4-2-0-2.pddl,TIMEOUT:301.03:-1.0:300.0:-1
ipc-2014-agile-citycar-p4-4-3-0-1.pddl,TIMEOUT:301.03:-1.0:300.0:-1
ipc-2014-agile-citycar-p4-4-3-0-2.pddl,TIMEOUT:301.02:-1.0:300.0:-1
ipc-2014-agile-citycar-p4-5-2-0-1.pddl,TIMEOUT:301.08:-1.0:300.0:-1
ipc-2014-agile-citycar-p4-5-2-0-2.pddl,TIMEOUT:301.11:-1.0:300.0:-1
ipc-2014-agile-citycar-p4-5-3-0-1.pddl,TIMEOUT:301.03:-1.0:300.0:-1
ipc-2014-agile-citycar-p4-5-3-0-2.pddl,TIMEOUT:301.03:-1.0:300.0:-1
ipc-2014-agile-floortile-p01-4-3-2.pddl,SAT:9.30858:102.0:300.0:-1
ipc-2014-agile-floortile-p01-5-4-2.pddl,TIMEOUT:301.09:-1.0:300.0:-1
ipc-2014-agile-floortile-p01-5-5-2.pddl,TIMEOUT:301.01:-1.0:300.0:-1
ipc-2014-agile-floortile-p01-6-4-2.pddl,TIMEOUT:301.03:-1.0:300.0:-1
ipc-2014-agile-floortile-p01-6-5-2.pddl,TIMEOUT:301.09:-1.0:300.0:-1
ipc-2014-agile-floortile-p01-6-5-3.pddl,TIMEOUT:301.01:-1.0:300.0:-1
ipc-2014-agile-floortile-p02-5-4-2.pddl,TIMEOUT:301.07:-1.0:300.0:-1
ipc-2014-agile-floortile-p02-6-4-2.pddl,TIMEOUT:301.0:-1.0:300.0:-1
ipc-2014-agile-floortile-p02-6-5-2.pddl,TIMEOUT:301.1:-1.0:300.0:-1
ipc-2014-agile-floortile-p02-6-5-3.pddl,TIMEOUT:301.0:-1.0:300.0:-1
ipc-2014-agile-floortile-p03-6-4-2.pddl,TIMEOUT:301.02:-1.0:300.0:-1
ipc-2014-agile-floortile-p03-6-5-2.pddl,TIMEOUT:301.09:-1.0:300.0:-1
ipc-2014-agile-floortile-p03-6-5-3.pddl,TIMEOUT:301.02:-1.0:300.0:-1
ipc-2014-agile-floortile-p04-5-4-2.pddl,TIMEOUT:301.06:-1.0:300.0:-1
ipc-2014-agile-floortile-p04-5-5-2.pddl,TIMEOUT:301.1:-1.0:300.0:-1
ipc-2014-agile-floortile-p04-6-5-2.pddl,TIMEOUT:301.08:-1.0:300.0:-1
ipc-2014-agile-floortile-p04-6-5-3.pddl,TIMEOUT:301.09:-1.0:300.0:-1
ipc-2014-agile-floortile-p05-4-3-2.pddl,SAT:4.73828:114.0:300.0:-1
ipc-2014-agile-floortile-p05-6-5-2.pddl,TIMEOUT:301.01:-1.0:300.0:-1
ipc-2014-agile-floortile-p05-6-5-3.pddl,TIMEOUT:301.05:-1.0:300.0:-1
ipc-2014-agile-ged-d-10-1.pddl,SAT:4.46132:40.0:300.0:-1
ipc-2014-agile-ged-d-10-2.pddl,SAT:4.43333:41.0:300.0:-1
ipc-2014-agile-ged-d-10-3.pddl,SAT:4.70928:55.0:300.0:-1
ipc-2014-agile-ged-d-10-4.pddl,SAT:3.63745:38.0:300.0:-1
ipc-2014-agile-ged-d-10-5.pddl,SAT:7.55785:57.0:300.0:-1
ipc-2014-agile-ged-d-10-6.pddl,SAT:6.70698:48.0:300.0:-1
ipc-2014-agile-ged-d-11-1.pddl,SAT:4.30734:33.0:300.0:-1
ipc-2014-agile-ged-d-11-3.pddl,SAT:3.87141:29.0:300.0:-1
ipc-2014-agile-ged-d-11-5.pddl,SAT:5.72513:40.0:300.0:-1
ipc-2014-agile-ged-d-11-6.pddl,SAT:4.5983:35.0:300.0:-1
ipc-2014-agile-ged-d-12-11.pddl,SAT:5.29619:37.0:300.0:-1
ipc-2014-agile-ged-d-12-2.pddl,SAT:11.5712:66.0:300.0:-1
ipc-2014-agile-ged-d-12-3.pddl,SAT:10.4304:63.0:300.0:-1
ipc-2014-agile-ged-d-12-5.pddl,SAT:12.3571:66.0:300.0:-1
ipc-2014-agile-ged-d-12-6.pddl,SAT:8.30774:63.0:300.0:-1
ipc-2014-agile-ged-d-12-7.pddl,SAT:9.74052:66.0:300.0:-1
ipc-2014-agile-ged-d-12-8.pddl,SAT:17.0334:89.0:300.0:-1
ipc-2014-agile-ged-d-12-9.pddl,SAT:16.9774:72.0:300.0:-1
ipc-2014-agile-ged-d-3-6.pddl,SAT:5.10022:29.0:300.0:-1
ipc-2014-agile-ged-d-9-5.pddl,SAT:5.69013:28.0:300.0:-1
ipc-2014-agile-hiking-3-4-3.pddl,SAT:2.25266:12.0:300.0:-1
ipc-2014-agile-hiking-3-4-4.pddl,SAT:4.10037:21.0:300.0:-1
ipc-2014-agile-hiking-3-4-5.pddl,SAT:21.4437:62.0:300.0:-1
ipc-2014-agile-hiking-3-4-6.pddl,SAT:46.8709:106.0:300.0:-1
ipc-2014-agile-hiking-3-4-7.pddl,TIMEOUT:301.0:-1.0:300.0:-1
ipc-2014-agile-hiking-3-4-8.pddl,SAT:189.941:190.0:300.0:-1
ipc-2014-agile-hiking-3-4-9.pddl,TIMEOUT:301.07:-1.0:300.0:-1
ipc-2014-agile-hiking-4-5-3.pddl,SAT:4.97824:15.0:300.0:-1
ipc-2014-agile-hiking-4-5-4.pddl,SAT:12.4071:27.0:300.0:-1
ipc-2014-agile-hiking-4-5-5.pddl,SAT:22.9815:32.0:300.0:-1
ipc-2014-agile-hiking-4-5-6.pddl,SAT:83.6473:74.0:300.0:-1
ipc-2014-agile-hiking-4-5-7.pddl,TIMEOUT:301.07:-1.0:300.0:-1
ipc-2014-agile-hiking-4-5-8.pddl,TIMEOUT:301.04:-1.0:300.0:-1
ipc-2014-agile-hiking-4-5-9.pddl,TIMEOUT:301.09:-1.0:300.0:-1
ipc-2014-agile-hiking-5-6-3.pddl,SAT:22.87:22.0:300.0:-1
ipc-2014-agile-hiking-5-6-4.pddl,SAT:96.0434:31.0:300.0:-1
ipc-2014-agile-hiking-5-6-5.pddl,SAT:187.921:53.0:300.0:-1
ipc-2014-agile-hiking-5-6-6.pddl,TIMEOUT:301.04:-1.0:300.0:-1
ipc-2014-agile-hiking-5-6-7.pddl,TIMEOUT:301.0:-1.0:300.0:-1
ipc-2014-agile-hiking-5-6-8.pddl,TIMEOUT:301.02:-1.0:300.0:-1
ipc-2014-agile-maintenance-1.3.060.180.5-000.pddl,SAT:1.04284:53.0:300.0:-1
ipc-2014-agile-maintenance-1.3.060.180.5-001.pddl,SAT:22.3246:55.0:300.0:-1
ipc-2014-agile-maintenance-1.3.060.180.5-002.pddl,SAT:25.6311:55.0:300.0:-1
ipc-2014-agile-maintenance-1.3.100.300.5-000.pddl,TIMEOUT:301.04:-1.0:300.0:-1
ipc-2014-agile-maintenance-1.3.100.300.5-001.pddl,TIMEOUT:301.04:-1.0:300.0:-1
ipc-2014-agile-maintenance-1.3.100.300.7-000.pddl,SAT:3.35749:74.0:300.0:-1
ipc-2014-agile-maintenance-1.3.100.300.7-001.pddl,SAT:73.5618:83.0:300.0:-1
ipc-2014-agile-maintenance-1.3.100.300.7-002.pddl,SAT:3.18551:76.0:300.0:-1
ipc-2014-agile-maintenance-1.3.150.500.6-001.pddl,SAT:6.72798:122.0:300.0:-1
ipc-2014-agile-maintenance-1.3.200.500.5-001.pddl,TIMEOUT:301.01:-1.0:300.0:-1
ipc-2014-agile-maintenance-1.3.200.500.5-002.pddl,TIMEOUT:301.08:-1.0:300.0:-1
ipc-2014-agile-maintenance-1.3.200.700.7-000.pddl,TIMEOUT:301.06:-1.0:300.0:-1
ipc-2014-agile-maintenance-1.3.200.700.7-001.pddl,SAT:12.7071:153.0:300.0:-1
ipc-2014-agile-maintenance-1.3.200.700.7-002.pddl,TIMEOUT:301.06:-1.0:300.0:-1
ipc-2014-agile-maintenance-1.3.200.900.5-000.pddl,TIMEOUT:301.04:-1.0:300.0:-1
ipc-2014-agile-maintenance-1.3.200.900.5-001.pddl,TIMEOUT:301.02:-1.0:300.0:-1
ipc-2014-agile-maintenance-1.3.200.900.5-002.pddl,TIMEOUT:301.04:-1.0:300.0:-1
ipc-2014-agile-maintenance-1.3.200.900.8-000.pddl,SAT:22.3276:170.0:300.0:-1
ipc-2014-agile-maintenance-1.3.200.900.8-001.pddl,SAT:22.4676:162.0:300.0:-1
ipc-2014-agile-maintenance-1.3.200.900.8-002.pddl,TIMEOUT:301.11:-1.0:300.0:-1
ipc-2014-agile-openstacks-p130_2.pddl,SAT:16.9104:62.0:300.0:-1
ipc-2014-agile-openstacks-p130_3.pddl,SAT:24.5063:108.0:300.0:-1
ipc-2014-agile-openstacks-p150_2.pddl,SAT:25.6461:75.0:300.0:-1
ipc-2014-agile-openstacks-p150_3.pddl,SAT:35.0887:131.0:300.0:-1
ipc-2014-agile-openstacks-p170_1.pddl,SAT:41.1817:72.0:300.0:-1
ipc-2014-agile-openstacks-p170_2.pddl,SAT:43.2394:103.0:300.0:-1
ipc-2014-agile-openstacks-p170_3.pddl,SAT:59.7379:146.0:300.0:-1
ipc-2014-agile-openstacks-p190_1.pddl,SAT:56.5364:103.0:300.0:-1
ipc-2014-agile-openstacks-p190_2.pddl,SAT:60.4658:113.0:300.0:-1
ipc-2014-agile-openstacks-p190_3.pddl,SAT:77.2602:170.0:300.0:-1
ipc-2014-agile-openstacks-p210_1.pddl,SAT:71.3262:107.0:300.0:-1
ipc-2014-agile-openstacks-p210_2.pddl,SAT:74.7176:128.0:300.0:-1
ipc-2014-agile-openstacks-p230_1.pddl,SAT:92.176:119.0:300.0:-1
ipc-2014-agile-openstacks-p230_2.pddl,SAT:101.148:140.0:300.0:-1
ipc-2014-agile-openstacks-p250_1.pddl,SAT:119.9:144.0:300.0:-1
ipc-2014-agile-openstacks-p250_2.pddl,SAT:127.97:160.0:300.0:-1
ipc-2014-agile-openstacks-p270_1.pddl,SAT:153.66:154.0:300.0:-1
ipc-2014-agile-openstacks-p270_2.pddl,SAT:163.536:177.0:300.0:-1
ipc-2014-agile-openstacks-p290_1.pddl,SAT:196.066:171.0:300.0:-1
ipc-2014-agile-openstacks-p290_2.pddl,SAT:214.499:205.0:300.0:-1
ipc-2014-agile-parking-28_2.pddl,SAT:105.055:157.0:300.0:-1
ipc-2014-agile-parking-28_3.pddl,SAT:52.0921:92.0:300.0:-1
ipc-2014-agile-parking-30_1.pddl,SAT:51.9801:83.0:300.0:-1
ipc-2014-agile-parking-30_2.pddl,SAT:156.613:175.0:300.0:-1
ipc-2014-agile-parking-30_3.pddl,SAT:62.8284:92.0:300.0:-1
ipc-2014-agile-parking-32_1.pddl,SAT:102.567:121.0:300.0:-1
ipc-2014-agile-parking-32_2.pddl,SAT:108.436:112.0:300.0:-1
ipc-2014-agile-parking-32_3.pddl,SAT:244.992:165.0:300.0:-1
ipc-2014-agile-parking-34_1.pddl,SAT:142.829:119.0:300.0:-1
ipc-2014-agile-parking-34_2.pddl,SAT:126.454:112.0:300.0:-1
ipc-2014-agile-parking-34_3.pddl,SAT:176.258:118.0:300.0:-1
ipc-2014-agile-parking-36_1.pddl,SAT:166.639:106.0:300.0:-1
ipc-2014-agile-parking-36_2.pddl,TIMEOUT:301.08:-1.0:300.0:-1
ipc-2014-agile-parking-36_3.pddl,TIMEOUT:301.06:-1.0:300.0:-1
ipc-2014-agile-parking-38_1.pddl,SAT:269.341:115.0:300.0:-1
ipc-2014-agile-parking-38_2.pddl,TIMEOUT:301.03:-1.0:300.0:-1
ipc-2014-agile-parking-38_3.pddl,TIMEOUT:301.03:-1.0:300.0:-1
ipc-2014-agile-parking-40_1.pddl,TIMEOUT:301.07:-1.0:300.0:-1
ipc-2014-agile-parking-40_2.pddl,TIMEOUT:301.03:-1.0:300.0:-1
ipc-2014-agile-parking-40_3.pddl,SAT:245.32:144.0:300.0:-1
ipc-2014-agile-tetris-020.pddl,SAT:10.5294:121.0:300.0:-1
ipc-2014-agile-tetris-021.pddl,SAT:60.8627:215.0:300.0:-1
ipc-2014-agile-tetris-022.pddl,SAT:115.806:215.0:300.0:-1
ipc-2014-agile-tetris-023.pddl,SAT:128.316:323.0:300.0:-1
ipc-2014-agile-tetris-024.pddl,TIMEOUT:301.09:-1.0:300.0:-1
ipc-2014-agile-tetris-025.pddl,SAT:31.8412:161.0:300.0:-1
ipc-2014-agile-tetris-026.pddl,TIMEOUT:301.01:-1.0:300.0:-1
ipc-2014-agile-tetris-027.pddl,TIMEOUT:301.09:-1.0:300.0:-1
ipc-2014-agile-tetris-028.pddl,SAT:298.633:308.0:300.0:-1
ipc-2014-agile-tetris-029.pddl,TIMEOUT:301.05:-1.0:300.0:-1
ipc-2014-agile-tetris-031.pddl,TIMEOUT:301.05:-1.0:300.0:-1
ipc-2014-agile-tetris-032.pddl,TIMEOUT:301.04:-1.0:300.0:-1
ipc-2014-agile-tetris-033.pddl,TIMEOUT:301.02:-1.0:300.0:-1
ipc-2014-agile-tetris-034.pddl,SAT:152.648:315.0:300.0:-1
ipc-2014-agile-tetris-035.pddl,TIMEOUT:301.07:-1.0:300.0:-1
ipc-2014-agile-tetris-036.pddl,TIMEOUT:301.02:-1.0:300.0:-1
ipc-2014-agile-tetris-037.pddl,TIMEOUT:301.03:-1.0:300.0:-1
ipc-2014-agile-tetris-038.pddl,TIMEOUT:301.07:-1.0:300.0:-1
ipc-2014-agile-tetris-039.pddl,TIMEOUT:301.03:-1.0:300.0:-1
ipc-2014-agile-tetris-040.pddl,TIMEOUT:301.01:-1.0:300.0:-1
ipc-2014-agile-thoughtful-bootstrap-typed-01.pddl,CRASHED:0.215966:1000000000.0:300.0:-1
ipc-2014-agile-thoughtful-bootstrap-typed-02.pddl,CRASHED:0.203968:1000000000.0:300.0:-1
ipc-2014-agile-thoughtful-bootstrap-typed-03.pddl,CRASHED:0.216966:1000000000.0:300.0:-1
ipc-2014-agile-thoughtful-bootstrap-typed-04.pddl,CRASHED:0.203968:1000000000.0:300.0:-1
ipc-2014-agile-thoughtful-bootstrap-typed-05.pddl,CRASHED:0.202968:1000000000.0:300.0:-1
ipc-2014-agile-thoughtful-p11_6_53-typed.pddl,CRASHED:0.226964:1000000000.0:300.0:-1
ipc-2014-agile-thoughtful-p11_6_59-typed.pddl,CRASHED:0.219965:1000000000.0:300.0:-1
ipc-2014-agile-thoughtful-p11_6_62-typed.pddl,CRASHED:0.141977:1000000000.0:300.0:-1
ipc-2014-agile-thoughtful-p13_7_78-typed.pddl,CRASHED:0.135979:1000000000.0:300.0:-1
ipc-2014-agile-thoughtful-p13_7_79-typed.pddl,CRASHED:0.147976:1000000000.0:300.0:-1
ipc-2014-agile-thoughtful-p13_7_86-typed.pddl,CRASHED:0.141978:1000000000.0:300.0:-1
ipc-2014-agile-thoughtful-target-typed-20.pddl,CRASHED:0.140978:1000000000.0:300.0:-1
ipc-2014-agile-thoughtful-target-typed-21.pddl,CRASHED:0.240963:1000000000.0:300.0:-1
ipc-2014-agile-thoughtful-target-typed-22.pddl,CRASHED:0.226965:1000000000.0:300.0:-1
ipc-2014-agile-thoughtful-target-typed-23.pddl,CRASHED:0.226964:1000000000.0:300.0:-1
ipc-2014-agile-thoughtful-target-typed-24.pddl,CRASHED:0.231964:1000000000.0:300.0:-1
ipc-2014-agile-thoughtful-target-typed-25.pddl,CRASHED:0.225965:1000000000.0:300.0:-1
ipc-2014-agile-thoughtful-target-typed-26.pddl,CRASHED:0.225965:1000000000.0:300.0:-1
ipc-2014-agile-thoughtful-target-typed-27.pddl,CRASHED:0.226965:1000000000.0:300.0:-1
ipc-2014-agile-thoughtful-target-typed-28.pddl,CRASHED:0.227965:1000000000.0:300.0:-1
ipc-2014-agile-transport-01.pddl,SAT:26.5:2104.0:300.0:-1
ipc-2014-agile-transport-02.pddl,SAT:94.6466:3913.0:300.0:-1
ipc-2014-agile-transport-03.pddl,SAT:36.1365:3076.0:300.0:-1
ipc-2014-agile-transport-04.pddl,TIMEOUT:301.06:-1.0:300.0:-1
ipc-2014-agile-transport-05.pddl,TIMEOUT:301.09:-1.0:300.0:-1
ipc-2014-agile-transport-06.pddl,TIMEOUT:301.02:-1.0:300.0:-1
ipc-2014-agile-transport-07.pddl,TIMEOUT:301.0:-1.0:300.0:-1
ipc-2014-agile-transport-08.pddl,TIMEOUT:301.0:-1.0:300.0:-1
ipc-2014-agile-transport-09.pddl,TIMEOUT:301.0:-1.0:300.0:-1
ipc-2014-agile-transport-10.pddl,TIMEOUT:301.01:-1.0:300.0:-1
ipc-2014-agile-transport-11.pddl,SAT:198.378:3189.0:300.0:-1
ipc-2014-agile-transport-12.pddl,SAT:71.4101:2371.0:300.0:-1
ipc-2014-agile-transport-13.pddl,SAT:47.4328:2647.0:300.0:-1
ipc-2014-agile-transport-14.pddl,TIMEOUT:301.04:-1.0:300.0:-1
ipc-2014-agile-transport-15.pddl,TIMEOUT:301.07:-1.0:300.0:-1
ipc-2014-agile-transport-16.pddl,TIMEOUT:301.07:-1.0:300.0:-1
ipc-2014-agile-transport-17.pddl,TIMEOUT:301.1:-1.0:300.0:-1
ipc-2014-agile-transport-18.pddl,TIMEOUT:301.0:-1.0:300.0:-1
ipc-2014-agile-transport-19.pddl,SAT:244.384:6860.0:300.0:-1
ipc-2014-agile-transport-20.pddl,TIMEOUT:301.05:-1.0:300.0:-1
ipc-2014-agile-visitall-30.pddl,SAT:12.6451:1238.0:300.0:-1
ipc-2014-agile-visitall-31.pddl,SAT:10.5524:1300.0:300.0:-1
ipc-2014-agile-visitall-32.pddl,SAT:17.0344:1447.0:300.0:-1
ipc-2014-agile-visitall-33.pddl,SAT:18.3002:1458.0:300.0:-1
ipc-2014-agile-visitall-50.pddl,SAT:129.436:3283.0:300.0:-1
ipc-2014-agile-visitall-51.pddl,SAT:141.635:3518.0:300.0:-1
ipc-2014-agile-visitall-52.pddl,SAT:171.363:3631.0:300.0:-1
ipc-2014-agile-visitall-53.pddl,SAT:239.22:3687.0:300.0:-1
ipc-2014-agile-visitall-54.pddl,SAT:164.663:3860.0:300.0:-1
ipc-2014-agile-visitall-55.pddl,SAT:237.128:4145.0:300.0:-1
ipc-2014-agile-visitall-56.pddl,SAT:215.809:4265.0:300.0:-1
ipc-2014-agile-visitall-57.pddl,SAT:289.717:4520.0:300.0:-1
ipc-2014-agile-visitall-58.pddl,SAT:287.469:4578.0:300.0:-1
ipc-2014-agile-visitall-59.pddl,SAT:280.475:4790.0:300.0:-1
ipc-2014-agile-visitall-60.pddl,SAT:292.505:4768.0:300.0:-1
ipc-2014-agile-visitall-61.pddl,TIMEOUT:301.02:-1.0:300.0:-1
ipc-2014-agile-visitall-62.pddl,TIMEOUT:301.04:-1.0:300.0:-1
ipc-2014-agile-visitall-63.pddl,TIMEOUT:301.1:-1.0:300.0:-1
ipc-2014-agile-visitall-64.pddl,TIMEOUT:301.0:-1.0:300.0:-1
ipc-2014-agile-visitall-65.pddl,TIMEOUT:301.02:-1.0:300.0:-1
