instance,ipc-2014-agile-cedalion
ipc-2014-agile-barman-p1-11-4-15.pddl,SAT:1.8754:344.0:300.0:-1
ipc-2014-agile-barman-p1-11-5-15.pddl,SAT:1.9311:329.0:300.0:-1
ipc-2014-agile-barman-p1-11-5-16.pddl,SAT:2.36172:441.0:300.0:-1
ipc-2014-agile-barman-p2-10-4-13.pddl,SAT:1.74954:317.0:300.0:-1
ipc-2014-agile-barman-p2-11-4-15.pddl,SAT:1.94458:400.0:300.0:-1
ipc-2014-agile-barman-p2-11-5-15.pddl,SAT:2.12097:417.0:300.0:-1
ipc-2014-agile-barman-p2-11-5-16.pddl,SAT:2.21046:446.0:300.0:-1
ipc-2014-agile-barman-p2-11-5-17.pddl,SAT:2.37174:392.0:300.0:-1
ipc-2014-agile-barman-p3-10-4-13.pddl,SAT:1.76058:289.0:300.0:-1
ipc-2014-agile-barman-p3-11-4-15.pddl,SAT:2.06929:369.0:300.0:-1
ipc-2014-agile-barman-p3-11-5-15.pddl,SAT:2.15897:336.0:300.0:-1
ipc-2014-agile-barman-p3-11-5-16.pddl,SAT:2.30158:435.0:300.0:-1
ipc-2014-agile-barman-p3-11-5-17.pddl,SAT:2.34936:429.0:300.0:-1
ipc-2014-agile-barman-p4-11-4-14.pddl,SAT:1.92719:337.0:300.0:-1
ipc-2014-agile-barman-p4-11-4-15.pddl,SAT:2.03592:349.0:300.0:-1
ipc-2014-agile-barman-p4-11-5-15.pddl,SAT:2.09132:379.0:300.0:-1
ipc-2014-agile-barman-p5-10-4-13.pddl,SAT:1.80062:293.0:300.0:-1
ipc-2014-agile-barman-p5-11-4-15.pddl,SAT:2.01686:378.0:300.0:-1
ipc-2014-agile-barman-p5-11-5-15.pddl,SAT:2.04877:359.0:300.0:-1
ipc-2014-agile-barman-p5-11-5-16.pddl,SAT:2.26028:410.0:300.0:-1
ipc-2014-agile-cavediving-01_easy.pddl,TIMEOUT:300.311:-1.0:300.0:-1
ipc-2014-agile-cavediving-01.pddl,TIMEOUT:300.408:-1.0:300.0:-1
ipc-2014-agile-cavediving-02_easy.pddl,TIMEOUT:300.774:-1.0:300.0:-1
ipc-2014-agile-cavediving-03_easy.pddl,TIMEOUT:300.683:-1.0:300.0:-1
ipc-2014-agile-cavediving-04_easy.pddl,TIMEOUT:300.411:-1.0:300.0:-1
ipc-2014-agile-cavediving-05A_easy.pddl,SAT:32.276:94.0:300.0:-1
ipc-2014-agile-cavediving-06A_easy.pddl,SAT:31.9688:95.0:300.0:-1
ipc-2014-agile-cavediving-07_easy.pddl,SAT:51.2636:131.0:300.0:-1
ipc-2014-agile-cavediving-08_easy.pddl,SAT:31.1484:90.0:300.0:-1
ipc-2014-agile-cavediving-09_easy.pddl,TIMEOUT:300.908:-1.0:300.0:-1
ipc-2014-agile-cavediving-10_easy.pddl,TIMEOUT:300.435:-1.0:300.0:-1
ipc-2014-agile-cavediving-11_easy.pddl,TIMEOUT:300.206:-1.0:300.0:-1
ipc-2014-agile-cavediving-12_easy.pddl,TIMEOUT:301.07:-1.0:300.0:-1
ipc-2014-agile-cavediving-13_easy.pddl,TIMEOUT:300.63:-1.0:300.0:-1
ipc-2014-agile-cavediving-14_easy.pddl,TIMEOUT:300.483:-1.0:300.0:-1
ipc-2014-agile-cavediving-15_easy.pddl,TIMEOUT:300.03:-1.0:300.0:-1
ipc-2014-agile-cavediving-16_easy.pddl,TIMEOUT:300.614:-1.0:300.0:-1
ipc-2014-agile-cavediving-18A_easy.pddl,SAT:82.6067:131.0:300.0:-1
ipc-2014-agile-cavediving-18_easy.pddl,SAT:93.9238:131.0:300.0:-1
ipc-2014-agile-cavediving-20A_easy.pddl,SAT:70.8044:98.0:300.0:-1
ipc-2014-agile-childsnack-05-2.pddl,CRASHED:203.29:1000000000.0:300.0:-1
ipc-2014-agile-childsnack-05.pddl,CRASHED:204.66:1000000000.0:300.0:-1
ipc-2014-agile-childsnack-06-2.pddl,CRASHED:201.45:1000000000.0:300.0:-1
ipc-2014-agile-childsnack-07-2.pddl,CRASHED:199.41:1000000000.0:300.0:-1
ipc-2014-agile-childsnack-08-2.pddl,CRASHED:198.11:1000000000.0:300.0:-1
ipc-2014-agile-childsnack-08.pddl,CRASHED:198.44:1000000000.0:300.0:-1
ipc-2014-agile-childsnack-09-2.pddl,CRASHED:197.4:1000000000.0:300.0:-1
ipc-2014-agile-childsnack-09.pddl,CRASHED:197.56:1000000000.0:300.0:-1
ipc-2014-agile-childsnack-10-2.pddl,CRASHED:198.26:1000000000.0:300.0:-1
ipc-2014-agile-childsnack-10.pddl,CRASHED:197.38:1000000000.0:300.0:-1
ipc-2014-agile-childsnack-11-2.pddl,CRASHED:197.62:1000000000.0:300.0:-1
ipc-2014-agile-childsnack-11.pddl,CRASHED:196.68:1000000000.0:300.0:-1
ipc-2014-agile-childsnack-12.pddl,CRASHED:197.34:1000000000.0:300.0:-1
ipc-2014-agile-childsnack-13-2.pddl,CRASHED:200.31:1000000000.0:300.0:-1
ipc-2014-agile-childsnack-13.pddl,CRASHED:196.6:1000000000.0:300.0:-1
ipc-2014-agile-childsnack-14.pddl,CRASHED:198.69:1000000000.0:300.0:-1
ipc-2014-agile-childsnack-15-2.pddl,CRASHED:206.11:1000000000.0:300.0:-1
ipc-2014-agile-childsnack-16-2.pddl,CRASHED:197.8:1000000000.0:300.0:-1
ipc-2014-agile-childsnack-19-2.pddl,CRASHED:210.52:1000000000.0:300.0:-1
ipc-2014-agile-childsnack-19.pddl,CRASHED:214.25:1000000000.0:300.0:-1
ipc-2014-agile-citycar-p3-2-2-0-1.pddl,SAT:1.43289:330.0:300.0:-1
ipc-2014-agile-citycar-p3-3-2-0-1.pddl,SAT:1.92533:858.0:300.0:-1
ipc-2014-agile-citycar-p3-4-2-0-1.pddl,SAT:79.0809:703.0:300.0:-1
ipc-2014-agile-citycar-p3-5-2-0-1.pddl,SAT:236.499:285.0:300.0:-1
ipc-2014-agile-citycar-p3-5-2-0-2.pddl,SAT:81.4384:730.0:300.0:-1
ipc-2014-agile-citycar-p4-2-2-0-1.pddl,CRASHED:212.95:1000000000.0:300.0:-1
ipc-2014-agile-citycar-p4-2-3-0-1.pddl,CRASHED:215.64:1000000000.0:300.0:-1
ipc-2014-agile-citycar-p4-2-3-0-2.pddl,CRASHED:221.37:1000000000.0:300.0:-1
ipc-2014-agile-citycar-p4-3-2-0-1.pddl,CRASHED:222.78:1000000000.0:300.0:-1
ipc-2014-agile-citycar-p4-3-2-0-2.pddl,CRASHED:222.76:1000000000.0:300.0:-1
ipc-2014-agile-citycar-p4-3-3-0-1.pddl,CRASHED:215.81:1000000000.0:300.0:-1
ipc-2014-agile-citycar-p4-3-3-0-2.pddl,CRASHED:215.17:1000000000.0:300.0:-1
ipc-2014-agile-citycar-p4-4-2-0-1.pddl,CRASHED:216.92:1000000000.0:300.0:-1
ipc-2014-agile-citycar-p4-4-2-0-2.pddl,CRASHED:216.52:1000000000.0:300.0:-1
ipc-2014-agile-citycar-p4-4-3-0-1.pddl,CRASHED:216.94:1000000000.0:300.0:-1
ipc-2014-agile-citycar-p4-4-3-0-2.pddl,CRASHED:217.87:1000000000.0:300.0:-1
ipc-2014-agile-citycar-p4-5-2-0-1.pddl,CRASHED:217.92:1000000000.0:300.0:-1
ipc-2014-agile-citycar-p4-5-2-0-2.pddl,CRASHED:219.89:1000000000.0:300.0:-1
ipc-2014-agile-citycar-p4-5-3-0-1.pddl,CRASHED:220.66:1000000000.0:300.0:-1
ipc-2014-agile-citycar-p4-5-3-0-2.pddl,CRASHED:219.15:1000000000.0:300.0:-1
ipc-2014-agile-floortile-p01-4-3-2.pddl,SAT:39.4767:88.0:300.0:-1
ipc-2014-agile-floortile-p01-5-4-2.pddl,TIMEOUT:300.291:-1.0:300.0:-1
ipc-2014-agile-floortile-p01-5-5-2.pddl,TIMEOUT:300.38:-1.0:300.0:-1
ipc-2014-agile-floortile-p01-6-4-2.pddl,TIMEOUT:300.426:-1.0:300.0:-1
ipc-2014-agile-floortile-p01-6-5-2.pddl,TIMEOUT:300.507:-1.0:300.0:-1
ipc-2014-agile-floortile-p01-6-5-3.pddl,TIMEOUT:300.31:-1.0:300.0:-1
ipc-2014-agile-floortile-p02-5-4-2.pddl,TIMEOUT:301.021:-1.0:300.0:-1
ipc-2014-agile-floortile-p02-6-4-2.pddl,TIMEOUT:300.684:-1.0:300.0:-1
ipc-2014-agile-floortile-p02-6-5-2.pddl,TIMEOUT:300.413:-1.0:300.0:-1
ipc-2014-agile-floortile-p02-6-5-3.pddl,TIMEOUT:300.489:-1.0:300.0:-1
ipc-2014-agile-floortile-p03-6-4-2.pddl,TIMEOUT:300.719:-1.0:300.0:-1
ipc-2014-agile-floortile-p03-6-5-2.pddl,TIMEOUT:300.548:-1.0:300.0:-1
ipc-2014-agile-floortile-p03-6-5-3.pddl,TIMEOUT:301.02:-1.0:300.0:-1
ipc-2014-agile-floortile-p04-5-4-2.pddl,TIMEOUT:300.346:-1.0:300.0:-1
ipc-2014-agile-floortile-p04-5-5-2.pddl,TIMEOUT:300.417:-1.0:300.0:-1
ipc-2014-agile-floortile-p04-6-5-2.pddl,TIMEOUT:300.833:-1.0:300.0:-1
ipc-2014-agile-floortile-p04-6-5-3.pddl,TIMEOUT:301.002:-1.0:300.0:-1
ipc-2014-agile-floortile-p05-4-3-2.pddl,SAT:20.6522:95.0:300.0:-1
ipc-2014-agile-floortile-p05-6-5-2.pddl,TIMEOUT:300.526:-1.0:300.0:-1
ipc-2014-agile-floortile-p05-6-5-3.pddl,TIMEOUT:300.681:-1.0:300.0:-1
ipc-2014-agile-ged-d-10-1.pddl,SAT:6.91054:32.0:300.0:-1
ipc-2014-agile-ged-d-10-2.pddl,SAT:7.0335:33.0:300.0:-1
ipc-2014-agile-ged-d-10-3.pddl,SAT:6.01692:25.0:300.0:-1
ipc-2014-agile-ged-d-10-4.pddl,SAT:6.22942:28.0:300.0:-1
ipc-2014-agile-ged-d-10-5.pddl,SAT:14.1605:45.0:300.0:-1
ipc-2014-agile-ged-d-10-6.pddl,SAT:9.20929:40.0:300.0:-1
ipc-2014-agile-ged-d-11-1.pddl,SAT:6.72538:31.0:300.0:-1
ipc-2014-agile-ged-d-11-3.pddl,SAT:6.11098:27.0:300.0:-1
ipc-2014-agile-ged-d-11-5.pddl,SAT:14.0796:34.0:300.0:-1
ipc-2014-agile-ged-d-11-6.pddl,SAT:8.38545:33.0:300.0:-1
ipc-2014-agile-ged-d-12-11.pddl,SAT:6.4876:27.0:300.0:-1
ipc-2014-agile-ged-d-12-2.pddl,SAT:9.79079:34.0:300.0:-1
ipc-2014-agile-ged-d-12-3.pddl,SAT:46.5231:47.0:300.0:-1
ipc-2014-agile-ged-d-12-5.pddl,SAT:20.3824:42.0:300.0:-1
ipc-2014-agile-ged-d-12-6.pddl,SAT:10.7491:45.0:300.0:-1
ipc-2014-agile-ged-d-12-7.pddl,SAT:39.9761:48.0:300.0:-1
ipc-2014-agile-ged-d-12-8.pddl,SAT:16.4117:51.0:300.0:-1
ipc-2014-agile-ged-d-12-9.pddl,SAT:81.7904:210.0:300.0:-1
ipc-2014-agile-ged-d-3-6.pddl,SAT:5.73555:19.0:300.0:-1
ipc-2014-agile-ged-d-9-5.pddl,SAT:5.95919:22.0:300.0:-1
ipc-2014-agile-hiking-3-4-3.pddl,SAT:1.48451:41.0:300.0:-1
ipc-2014-agile-hiking-3-4-4.pddl,SAT:2.1673:30.0:300.0:-1
ipc-2014-agile-hiking-3-4-5.pddl,SAT:3.73587:67.0:300.0:-1
ipc-2014-agile-hiking-3-4-6.pddl,SAT:205.958:71.0:300.0:-1
ipc-2014-agile-hiking-3-4-7.pddl,TIMEOUT:301.024:-1.0:300.0:-1
ipc-2014-agile-hiking-3-4-8.pddl,TIMEOUT:300.202:-1.0:300.0:-1
ipc-2014-agile-hiking-3-4-9.pddl,TIMEOUT:300.945:-1.0:300.0:-1
ipc-2014-agile-hiking-4-5-3.pddl,SAT:2.51619:17.0:300.0:-1
ipc-2014-agile-hiking-4-5-4.pddl,SAT:4.94725:34.0:300.0:-1
ipc-2014-agile-hiking-4-5-5.pddl,CRASHED:233.12:1000000000.0:300.0:-1
ipc-2014-agile-hiking-4-5-6.pddl,SAT:241.548:45.0:300.0:-1
ipc-2014-agile-hiking-4-5-7.pddl,TIMEOUT:300.991:-1.0:300.0:-1
ipc-2014-agile-hiking-4-5-8.pddl,TIMEOUT:300.28:-1.0:300.0:-1
ipc-2014-agile-hiking-4-5-9.pddl,TIMEOUT:300.519:-1.0:300.0:-1
ipc-2014-agile-hiking-5-6-3.pddl,SAT:5.03522:35.0:300.0:-1
ipc-2014-agile-hiking-5-6-4.pddl,CRASHED:233.22:1000000000.0:300.0:-1
ipc-2014-agile-hiking-5-6-5.pddl,CRASHED:225.4:1000000000.0:300.0:-1
ipc-2014-agile-hiking-5-6-6.pddl,CRASHED:233.93:1000000000.0:300.0:-1
ipc-2014-agile-hiking-5-6-7.pddl,SAT:263.25:64.0:300.0:-1
ipc-2014-agile-hiking-5-6-8.pddl,SAT:279.689:69.0:300.0:-1
ipc-2014-agile-maintenance-1.3.060.180.5-000.pddl,SAT:126.416:58.0:300.0:-1
ipc-2014-agile-maintenance-1.3.060.180.5-001.pddl,SAT:0.831841:55.0:300.0:-1
ipc-2014-agile-maintenance-1.3.060.180.5-002.pddl,TIMEOUT:301.101:-1.0:300.0:-1
ipc-2014-agile-maintenance-1.3.100.300.5-000.pddl,TIMEOUT:300.349:-1.0:300.0:-1
ipc-2014-agile-maintenance-1.3.100.300.5-001.pddl,TIMEOUT:300.273:-1.0:300.0:-1
ipc-2014-agile-maintenance-1.3.100.300.7-000.pddl,SAT:1.29211:89.0:300.0:-1
ipc-2014-agile-maintenance-1.3.100.300.7-001.pddl,SAT:1.29281:94.0:300.0:-1
ipc-2014-agile-maintenance-1.3.100.300.7-002.pddl,SAT:1.2272:85.0:300.0:-1
ipc-2014-agile-maintenance-1.3.150.500.6-001.pddl,SAT:3.4172:144.0:300.0:-1
ipc-2014-agile-maintenance-1.3.200.500.5-001.pddl,TIMEOUT:300.825:-1.0:300.0:-1
ipc-2014-agile-maintenance-1.3.200.500.5-002.pddl,TIMEOUT:300.514:-1.0:300.0:-1
ipc-2014-agile-maintenance-1.3.200.700.7-000.pddl,SAT:77.1149:168.0:300.0:-1
ipc-2014-agile-maintenance-1.3.200.700.7-001.pddl,SAT:232.892:172.0:300.0:-1
ipc-2014-agile-maintenance-1.3.200.700.7-002.pddl,SAT:66.6076:179.0:300.0:-1
ipc-2014-agile-maintenance-1.3.200.900.5-000.pddl,TIMEOUT:301.103:-1.0:300.0:-1
ipc-2014-agile-maintenance-1.3.200.900.5-001.pddl,TIMEOUT:300.442:-1.0:300.0:-1
ipc-2014-agile-maintenance-1.3.200.900.5-002.pddl,TIMEOUT:300.315:-1.0:300.0:-1
ipc-2014-agile-maintenance-1.3.200.900.8-000.pddl,SAT:4.2104:181.0:300.0:-1
ipc-2014-agile-maintenance-1.3.200.900.8-001.pddl,SAT:4.14655:181.0:300.0:-1
ipc-2014-agile-maintenance-1.3.200.900.8-002.pddl,SAT:73.1028:181.0:300.0:-1
ipc-2014-agile-openstacks-p130_2.pddl,SAT:6.1543:50.0:300.0:-1
ipc-2014-agile-openstacks-p130_3.pddl,SAT:7.53815:103.0:300.0:-1
ipc-2014-agile-openstacks-p150_2.pddl,SAT:8.01784:54.0:300.0:-1
ipc-2014-agile-openstacks-p150_3.pddl,SAT:10.1252:128.0:300.0:-1
ipc-2014-agile-openstacks-p170_1.pddl,SAT:10.0355:55.0:300.0:-1
ipc-2014-agile-openstacks-p170_2.pddl,SAT:10.3656:80.0:300.0:-1
ipc-2014-agile-openstacks-p170_3.pddl,SAT:32.3616:156.0:300.0:-1
ipc-2014-agile-openstacks-p190_1.pddl,SAT:34.8739:118.0:300.0:-1
ipc-2014-agile-openstacks-p190_2.pddl,SAT:35.5513:121.0:300.0:-1
ipc-2014-agile-openstacks-p190_3.pddl,SAT:42.7009:180.0:300.0:-1
ipc-2014-agile-openstacks-p210_1.pddl,SAT:43.0019:134.0:300.0:-1
ipc-2014-agile-openstacks-p210_2.pddl,SAT:42.8181:141.0:300.0:-1
ipc-2014-agile-openstacks-p230_1.pddl,SAT:57.3984:137.0:300.0:-1
ipc-2014-agile-openstacks-p230_2.pddl,SAT:56.566:159.0:300.0:-1
ipc-2014-agile-openstacks-p250_1.pddl,SAT:69.7957:153.0:300.0:-1
ipc-2014-agile-openstacks-p250_2.pddl,SAT:80.9686:136.0:300.0:-1
ipc-2014-agile-openstacks-p270_1.pddl,SAT:85.7097:130.0:300.0:-1
ipc-2014-agile-openstacks-p270_2.pddl,SAT:85.7203:157.0:300.0:-1
ipc-2014-agile-openstacks-p290_1.pddl,SAT:83.1785:138.0:300.0:-1
ipc-2014-agile-openstacks-p290_2.pddl,SAT:90.2156:178.0:300.0:-1
ipc-2014-agile-parking-28_2.pddl,SAT:78.7274:91.0:300.0:-1
ipc-2014-agile-parking-28_3.pddl,SAT:29.2015:68.0:300.0:-1
ipc-2014-agile-parking-30_1.pddl,SAT:34.1547:75.0:300.0:-1
ipc-2014-agile-parking-30_2.pddl,SAT:28.2208:73.0:300.0:-1
ipc-2014-agile-parking-30_3.pddl,SAT:50.5417:94.0:300.0:-1
ipc-2014-agile-parking-32_1.pddl,SAT:49.2154:93.0:300.0:-1
ipc-2014-agile-parking-32_2.pddl,TIMEOUT:300.1:-1.0:300.0:-1
ipc-2014-agile-parking-32_3.pddl,TIMEOUT:301.02:-1.0:300.0:-1
ipc-2014-agile-parking-34_1.pddl,SAT:61.8899:95.0:300.0:-1
ipc-2014-agile-parking-34_2.pddl,TIMEOUT:300.385:-1.0:300.0:-1
ipc-2014-agile-parking-34_3.pddl,TIMEOUT:300.561:-1.0:300.0:-1
ipc-2014-agile-parking-36_1.pddl,TIMEOUT:301.134:-1.0:300.0:-1
ipc-2014-agile-parking-36_2.pddl,TIMEOUT:301.02:-1.0:300.0:-1
ipc-2014-agile-parking-36_3.pddl,TIMEOUT:300.448:-1.0:300.0:-1
ipc-2014-agile-parking-38_1.pddl,TIMEOUT:301.048:-1.0:300.0:-1
ipc-2014-agile-parking-38_2.pddl,TIMEOUT:300.762:-1.0:300.0:-1
ipc-2014-agile-parking-38_3.pddl,SAT:74.5445:103.0:300.0:-1
ipc-2014-agile-parking-40_1.pddl,TIMEOUT:301.112:-1.0:300.0:-1
ipc-2014-agile-parking-40_2.pddl,TIMEOUT:300.295:-1.0:300.0:-1
ipc-2014-agile-parking-40_3.pddl,TIMEOUT:300.448:-1.0:300.0:-1
ipc-2014-agile-tetris-020.pddl,SAT:25.9298:106.0:300.0:-1
ipc-2014-agile-tetris-021.pddl,SAT:71.8016:596.0:300.0:-1
ipc-2014-agile-tetris-022.pddl,SAT:191.048:89.0:300.0:-1
ipc-2014-agile-tetris-023.pddl,SAT:182.905:95.0:300.0:-1
ipc-2014-agile-tetris-024.pddl,SAT:225.848:104.0:300.0:-1
ipc-2014-agile-tetris-025.pddl,SAT:185.603:61.0:300.0:-1
ipc-2014-agile-tetris-026.pddl,SAT:189.256:131.0:300.0:-1
ipc-2014-agile-tetris-027.pddl,SAT:190.197:120.0:300.0:-1
ipc-2014-agile-tetris-028.pddl,SAT:195.522:126.0:300.0:-1
ipc-2014-agile-tetris-029.pddl,SAT:228.989:98.0:300.0:-1
ipc-2014-agile-tetris-031.pddl,TIMEOUT:300.079:-1.0:300.0:-1
ipc-2014-agile-tetris-032.pddl,TIMEOUT:300.837:-1.0:300.0:-1
ipc-2014-agile-tetris-033.pddl,SAT:207.909:155.0:300.0:-1
ipc-2014-agile-tetris-034.pddl,SAT:80.5781:243.0:300.0:-1
ipc-2014-agile-tetris-035.pddl,SAT:197.117:134.0:300.0:-1
ipc-2014-agile-tetris-036.pddl,SAT:201.031:111.0:300.0:-1
ipc-2014-agile-tetris-037.pddl,TIMEOUT:300.117:-1.0:300.0:-1
ipc-2014-agile-tetris-038.pddl,TIMEOUT:300.258:-1.0:300.0:-1
ipc-2014-agile-tetris-039.pddl,SAT:232.555:174.0:300.0:-1
ipc-2014-agile-tetris-040.pddl,TIMEOUT:300.609:-1.0:300.0:-1
ipc-2014-agile-thoughtful-bootstrap-typed-01.pddl,CRASHED:0.272333:1000000000.0:300.0:-1
ipc-2014-agile-thoughtful-bootstrap-typed-02.pddl,CRASHED:0.270934:1000000000.0:300.0:-1
ipc-2014-agile-thoughtful-bootstrap-typed-03.pddl,CRASHED:0.279752:1000000000.0:300.0:-1
ipc-2014-agile-thoughtful-bootstrap-typed-04.pddl,CRASHED:0.288966:1000000000.0:300.0:-1
ipc-2014-agile-thoughtful-bootstrap-typed-05.pddl,CRASHED:0.289629:1000000000.0:300.0:-1
ipc-2014-agile-thoughtful-p11_6_53-typed.pddl,CRASHED:0.314487:1000000000.0:300.0:-1
ipc-2014-agile-thoughtful-p11_6_59-typed.pddl,CRASHED:0.313087:1000000000.0:300.0:-1
ipc-2014-agile-thoughtful-p11_6_62-typed.pddl,CRASHED:0.317415:1000000000.0:300.0:-1
ipc-2014-agile-thoughtful-p13_7_78-typed.pddl,CRASHED:0.319437:1000000000.0:300.0:-1
ipc-2014-agile-thoughtful-p13_7_79-typed.pddl,CRASHED:0.318738:1000000000.0:300.0:-1
ipc-2014-agile-thoughtful-p13_7_86-typed.pddl,CRASHED:0.317523:1000000000.0:300.0:-1
ipc-2014-agile-thoughtful-target-typed-20.pddl,CRASHED:0.322853:1000000000.0:300.0:-1
ipc-2014-agile-thoughtful-target-typed-21.pddl,CRASHED:0.31872:1000000000.0:300.0:-1
ipc-2014-agile-thoughtful-target-typed-22.pddl,CRASHED:0.324607:1000000000.0:300.0:-1
ipc-2014-agile-thoughtful-target-typed-23.pddl,CRASHED:0.325798:1000000000.0:300.0:-1
ipc-2014-agile-thoughtful-target-typed-24.pddl,CRASHED:0.337093:1000000000.0:300.0:-1
ipc-2014-agile-thoughtful-target-typed-25.pddl,CRASHED:0.327066:1000000000.0:300.0:-1
ipc-2014-agile-thoughtful-target-typed-26.pddl,CRASHED:0.32622:1000000000.0:300.0:-1
ipc-2014-agile-thoughtful-target-typed-27.pddl,CRASHED:0.331809:1000000000.0:300.0:-1
ipc-2014-agile-thoughtful-target-typed-28.pddl,CRASHED:0.330645:1000000000.0:300.0:-1
ipc-2014-agile-transport-01.pddl,SAT:6.95334:4890.0:300.0:-1
ipc-2014-agile-transport-02.pddl,SAT:8.70824:8048.0:300.0:-1
ipc-2014-agile-transport-03.pddl,SAT:7.22682:6191.0:300.0:-1
ipc-2014-agile-transport-04.pddl,SAT:76.0206:15020.0:300.0:-1
ipc-2014-agile-transport-05.pddl,SAT:78.5234:19671.0:300.0:-1
ipc-2014-agile-transport-06.pddl,SAT:76.0476:15020.0:300.0:-1
ipc-2014-agile-transport-07.pddl,SAT:89.4607:18693.0:300.0:-1
ipc-2014-agile-transport-08.pddl,SAT:89.864:16523.0:300.0:-1
ipc-2014-agile-transport-09.pddl,SAT:87.4708:18693.0:300.0:-1
ipc-2014-agile-transport-10.pddl,SAT:83.2529:21018.0:300.0:-1
ipc-2014-agile-transport-11.pddl,SAT:9.20689:5047.0:300.0:-1
ipc-2014-agile-transport-12.pddl,SAT:9.19807:7427.0:300.0:-1
ipc-2014-agile-transport-13.pddl,SAT:6.13353:5516.0:300.0:-1
ipc-2014-agile-transport-14.pddl,SAT:76.1445:16616.0:300.0:-1
ipc-2014-agile-transport-15.pddl,SAT:77.3866:19430.0:300.0:-1
ipc-2014-agile-transport-16.pddl,SAT:69.7736:15016.0:300.0:-1
ipc-2014-agile-transport-17.pddl,SAT:87.2679:14692.0:300.0:-1
ipc-2014-agile-transport-18.pddl,SAT:86.5006:18819.0:300.0:-1
ipc-2014-agile-transport-19.pddl,SAT:76.7756:18949.0:300.0:-1
ipc-2014-agile-transport-20.pddl,SAT:88.213:14402.0:300.0:-1
ipc-2014-agile-visitall-30.pddl,SAT:1.33488:1879.0:300.0:-1
ipc-2014-agile-visitall-31.pddl,SAT:1.345:2184.0:300.0:-1
ipc-2014-agile-visitall-32.pddl,SAT:1.5089:1972.0:300.0:-1
ipc-2014-agile-visitall-33.pddl,SAT:1.49255:2550.0:300.0:-1
ipc-2014-agile-visitall-50.pddl,SAT:2.34211:4799.0:300.0:-1
ipc-2014-agile-visitall-51.pddl,SAT:2.40802:5092.0:300.0:-1
ipc-2014-agile-visitall-52.pddl,SAT:2.30406:4533.0:300.0:-1
ipc-2014-agile-visitall-53.pddl,SAT:2.3583:6046.0:300.0:-1
ipc-2014-agile-visitall-54.pddl,SAT:3.17291:5920.0:300.0:-1
ipc-2014-agile-visitall-55.pddl,SAT:3.19794:6093.0:300.0:-1
ipc-2014-agile-visitall-56.pddl,SAT:3.25556:6084.0:300.0:-1
ipc-2014-agile-visitall-57.pddl,SAT:3.5888:6223.0:300.0:-1
ipc-2014-agile-visitall-58.pddl,SAT:3.53465:6579.0:300.0:-1
ipc-2014-agile-visitall-59.pddl,SAT:3.70718:6718.0:300.0:-1
ipc-2014-agile-visitall-60.pddl,SAT:3.51986:6537.0:300.0:-1
ipc-2014-agile-visitall-61.pddl,SAT:3.55745:6927.0:300.0:-1
ipc-2014-agile-visitall-62.pddl,SAT:3.58547:7404.0:300.0:-1
ipc-2014-agile-visitall-63.pddl,SAT:3.77009:7749.0:300.0:-1
ipc-2014-agile-visitall-64.pddl,SAT:3.83183:7074.0:300.0:-1
ipc-2014-agile-visitall-65.pddl,SAT:3.88836:7875.0:300.0:-1
