instance,ipc-2014-agile-ibacop
ipc-2014-agile-barman-p1-11-4-15.pddl,SAT:71.0:200.0:300.0:-1
ipc-2014-agile-barman-p1-11-5-15.pddl,SAT:316.0:216.0:300.0:-1
ipc-2014-agile-barman-p1-11-5-16.pddl,SAT:241.0:185.0:300.0:-1
ipc-2014-agile-barman-p2-10-4-13.pddl,SAT:241.0:158.0:300.0:-1
ipc-2014-agile-barman-p2-11-4-15.pddl,SAT:321.0:195.0:300.0:-1
ipc-2014-agile-barman-p2-11-5-15.pddl,SAT:246.0:165.0:300.0:-1
ipc-2014-agile-barman-p2-11-5-16.pddl,SAT:251.0:238.0:300.0:-1
ipc-2014-agile-barman-p2-11-5-17.pddl,SAT:326.0:227.0:300.0:-1
ipc-2014-agile-barman-p3-10-4-13.pddl,SAT:316.0:208.0:300.0:-1
ipc-2014-agile-barman-p3-11-4-15.pddl,TIMEOUT:301.04:-1.0:300.0:-1
ipc-2014-agile-barman-p3-11-5-15.pddl,SAT:246.0:204.0:300.0:-1
ipc-2014-agile-barman-p3-11-5-16.pddl,SAT:246.0:189.0:300.0:-1
ipc-2014-agile-barman-p3-11-5-17.pddl,SAT:336.0:299.0:300.0:-1
ipc-2014-agile-barman-p4-11-4-14.pddl,SAT:246.0:212.0:300.0:-1
ipc-2014-agile-barman-p4-11-4-15.pddl,TIMEOUT:301.08:-1.0:300.0:-1
ipc-2014-agile-barman-p4-11-5-15.pddl,SAT:326.0:209.0:300.0:-1
ipc-2014-agile-barman-p5-10-4-13.pddl,SAT:106.0:154.0:300.0:-1
ipc-2014-agile-barman-p5-11-4-15.pddl,SAT:246.0:202.0:300.0:-1
ipc-2014-agile-barman-p5-11-5-15.pddl,SAT:326.0:220.0:300.0:-1
ipc-2014-agile-barman-p5-11-5-16.pddl,SAT:246.0:197.0:300.0:-1
ipc-2014-agile-cavediving-01_easy.pddl,CRASHED:307.0:1000000000.0:300.0:-1
ipc-2014-agile-cavediving-01.pddl,CRASHED:305.0:1000000000.0:300.0:-1
ipc-2014-agile-cavediving-02_easy.pddl,CRASHED:307.0:1000000000.0:300.0:-1
ipc-2014-agile-cavediving-03_easy.pddl,CRASHED:303.0:1000000000.0:300.0:-1
ipc-2014-agile-cavediving-04_easy.pddl,CRASHED:307.0:1000000000.0:300.0:-1
ipc-2014-agile-cavediving-05A_easy.pddl,SAT:19.0:113.0:300.0:-1
ipc-2014-agile-cavediving-06A_easy.pddl,SAT:19.0:114.0:300.0:-1
ipc-2014-agile-cavediving-07_easy.pddl,SAT:14.0:136.0:300.0:-1
ipc-2014-agile-cavediving-08_easy.pddl,SAT:19.0:109.0:300.0:-1
ipc-2014-agile-cavediving-09_easy.pddl,CRASHED:309.0:1000000000.0:300.0:-1
ipc-2014-agile-cavediving-10_easy.pddl,CRASHED:309.0:1000000000.0:300.0:-1
ipc-2014-agile-cavediving-11_easy.pddl,CRASHED:305.0:1000000000.0:300.0:-1
ipc-2014-agile-cavediving-12_easy.pddl,CRASHED:309.0:1000000000.0:300.0:-1
ipc-2014-agile-cavediving-13_easy.pddl,CRASHED:307.0:1000000000.0:300.0:-1
ipc-2014-agile-cavediving-14_easy.pddl,CRASHED:306.0:1000000000.0:300.0:-1
ipc-2014-agile-cavediving-15_easy.pddl,CRASHED:307.0:1000000000.0:300.0:-1
ipc-2014-agile-cavediving-16_easy.pddl,CRASHED:306.0:1000000000.0:300.0:-1
ipc-2014-agile-cavediving-18A_easy.pddl,SAT:31.0:138.0:300.0:-1
ipc-2014-agile-cavediving-18_easy.pddl,SAT:16.0:138.0:300.0:-1
ipc-2014-agile-cavediving-20A_easy.pddl,SAT:20.0:103.0:300.0:-1
ipc-2014-agile-childsnack-05-2.pddl,SAT:11.0:54.0:300.0:-1
ipc-2014-agile-childsnack-05.pddl,SAT:11.0:38.0:300.0:-1
ipc-2014-agile-childsnack-06-2.pddl,SAT:11.0:49.0:300.0:-1
ipc-2014-agile-childsnack-07-2.pddl,SAT:11.0:43.0:300.0:-1
ipc-2014-agile-childsnack-08-2.pddl,SAT:11.0:56.0:300.0:-1
ipc-2014-agile-childsnack-08.pddl,SAT:11.0:49.0:300.0:-1
ipc-2014-agile-childsnack-09-2.pddl,SAT:11.0:65.0:300.0:-1
ipc-2014-agile-childsnack-09.pddl,SAT:11.0:62.0:300.0:-1
ipc-2014-agile-childsnack-10-2.pddl,SAT:11.0:55.0:300.0:-1
ipc-2014-agile-childsnack-10.pddl,SAT:16.0:63.0:300.0:-1
ipc-2014-agile-childsnack-11-2.pddl,SAT:16.0:56.0:300.0:-1
ipc-2014-agile-childsnack-11.pddl,SAT:11.0:56.0:300.0:-1
ipc-2014-agile-childsnack-12.pddl,SAT:21.0:118.0:300.0:-1
ipc-2014-agile-childsnack-13-2.pddl,SAT:41.0:65.0:300.0:-1
ipc-2014-agile-childsnack-13.pddl,SAT:21.0:106.0:300.0:-1
ipc-2014-agile-childsnack-14.pddl,SAT:51.0:134.0:300.0:-1
ipc-2014-agile-childsnack-15-2.pddl,SAT:36.0:146.0:300.0:-1
ipc-2014-agile-childsnack-16-2.pddl,SAT:26.0:128.0:300.0:-1
ipc-2014-agile-childsnack-19-2.pddl,TIMEOUT:301.0:-1.0:300.0:-1
ipc-2014-agile-childsnack-19.pddl,SAT:51.0:81.0:300.0:-1
ipc-2014-agile-citycar-p3-2-2-0-1.pddl,SAT:29.0:166.0:300.0:-1
ipc-2014-agile-citycar-p3-3-2-0-1.pddl,SAT:51.0:235.0:300.0:-1
ipc-2014-agile-citycar-p3-4-2-0-1.pddl,SAT:66.0:284.0:300.0:-1
ipc-2014-agile-citycar-p3-5-2-0-1.pddl,SAT:177.0:336.0:300.0:-1
ipc-2014-agile-citycar-p3-5-2-0-2.pddl,SAT:57.0:166.0:300.0:-1
ipc-2014-agile-citycar-p4-2-2-0-1.pddl,SAT:96.0:385.0:300.0:-1
ipc-2014-agile-citycar-p4-2-3-0-1.pddl,SAT:66.0:224.0:300.0:-1
ipc-2014-agile-citycar-p4-2-3-0-2.pddl,SAT:79.0:204.0:300.0:-1
ipc-2014-agile-citycar-p4-3-2-0-1.pddl,SAT:298.0:1196.0:300.0:-1
ipc-2014-agile-citycar-p4-3-2-0-2.pddl,TIMEOUT:301.0:-1.0:300.0:-1
ipc-2014-agile-citycar-p4-3-3-0-1.pddl,TIMEOUT:301.0:-1.0:300.0:-1
ipc-2014-agile-citycar-p4-3-3-0-2.pddl,TIMEOUT:301.0:-1.0:300.0:-1
ipc-2014-agile-citycar-p4-4-2-0-1.pddl,TIMEOUT:301.0:-1.0:300.0:-1
ipc-2014-agile-citycar-p4-4-2-0-2.pddl,TIMEOUT:301.0:-1.0:300.0:-1
ipc-2014-agile-citycar-p4-4-3-0-1.pddl,SAT:302.0:2315.0:300.0:-1
ipc-2014-agile-citycar-p4-4-3-0-2.pddl,TIMEOUT:301.0:-1.0:300.0:-1
ipc-2014-agile-citycar-p4-5-2-0-1.pddl,TIMEOUT:301.0:-1.0:300.0:-1
ipc-2014-agile-citycar-p4-5-2-0-2.pddl,TIMEOUT:301.0:-1.0:300.0:-1
ipc-2014-agile-citycar-p4-5-3-0-1.pddl,TIMEOUT:301.0:-1.0:300.0:-1
ipc-2014-agile-citycar-p4-5-3-0-2.pddl,TIMEOUT:301.0:-1.0:300.0:-1
ipc-2014-agile-floortile-p01-4-3-2.pddl,SAT:31.0:99.0:300.0:-1
ipc-2014-agile-floortile-p01-5-4-2.pddl,TIMEOUT:301.1:-1.0:300.0:-1
ipc-2014-agile-floortile-p01-5-5-2.pddl,TIMEOUT:301.06:-1.0:300.0:-1
ipc-2014-agile-floortile-p01-6-4-2.pddl,TIMEOUT:301.0:-1.0:300.0:-1
ipc-2014-agile-floortile-p01-6-5-2.pddl,TIMEOUT:301.06:-1.0:300.0:-1
ipc-2014-agile-floortile-p01-6-5-3.pddl,TIMEOUT:301.09:-1.0:300.0:-1
ipc-2014-agile-floortile-p02-5-4-2.pddl,TIMEOUT:301.03:-1.0:300.0:-1
ipc-2014-agile-floortile-p02-6-4-2.pddl,TIMEOUT:301.02:-1.0:300.0:-1
ipc-2014-agile-floortile-p02-6-5-2.pddl,TIMEOUT:301.0:-1.0:300.0:-1
ipc-2014-agile-floortile-p02-6-5-3.pddl,TIMEOUT:301.07:-1.0:300.0:-1
ipc-2014-agile-floortile-p03-6-4-2.pddl,TIMEOUT:301.06:-1.0:300.0:-1
ipc-2014-agile-floortile-p03-6-5-2.pddl,TIMEOUT:301.06:-1.0:300.0:-1
ipc-2014-agile-floortile-p03-6-5-3.pddl,TIMEOUT:301.04:-1.0:300.0:-1
ipc-2014-agile-floortile-p04-5-4-2.pddl,TIMEOUT:301.04:-1.0:300.0:-1
ipc-2014-agile-floortile-p04-5-5-2.pddl,TIMEOUT:301.02:-1.0:300.0:-1
ipc-2014-agile-floortile-p04-6-5-2.pddl,TIMEOUT:301.07:-1.0:300.0:-1
ipc-2014-agile-floortile-p04-6-5-3.pddl,TIMEOUT:301.03:-1.0:300.0:-1
ipc-2014-agile-floortile-p05-4-3-2.pddl,SAT:21.0:91.0:300.0:-1
ipc-2014-agile-floortile-p05-6-5-2.pddl,TIMEOUT:301.07:-1.0:300.0:-1
ipc-2014-agile-floortile-p05-6-5-3.pddl,TIMEOUT:301.1:-1.0:300.0:-1
ipc-2014-agile-ged-d-10-1.pddl,SAT:21.0:22.0:300.0:-1
ipc-2014-agile-ged-d-10-2.pddl,SAT:21.0:23.0:300.0:-1
ipc-2014-agile-ged-d-10-3.pddl,SAT:21.0:35.0:300.0:-1
ipc-2014-agile-ged-d-10-4.pddl,SAT:21.0:22.0:300.0:-1
ipc-2014-agile-ged-d-10-5.pddl,SAT:21.0:41.0:300.0:-1
ipc-2014-agile-ged-d-10-6.pddl,SAT:26.0:42.0:300.0:-1
ipc-2014-agile-ged-d-11-1.pddl,SAT:21.0:29.0:300.0:-1
ipc-2014-agile-ged-d-11-3.pddl,SAT:21.0:27.0:300.0:-1
ipc-2014-agile-ged-d-11-5.pddl,SAT:21.0:30.0:300.0:-1
ipc-2014-agile-ged-d-11-6.pddl,SAT:21.0:37.0:300.0:-1
ipc-2014-agile-ged-d-12-11.pddl,SAT:21.0:31.0:300.0:-1
ipc-2014-agile-ged-d-12-2.pddl,SAT:31.0:42.0:300.0:-1
ipc-2014-agile-ged-d-12-3.pddl,SAT:26.0:39.0:300.0:-1
ipc-2014-agile-ged-d-12-5.pddl,SAT:26.0:40.0:300.0:-1
ipc-2014-agile-ged-d-12-6.pddl,SAT:26.0:49.0:300.0:-1
ipc-2014-agile-ged-d-12-7.pddl,SAT:31.0:50.0:300.0:-1
ipc-2014-agile-ged-d-12-8.pddl,SAT:26.0:51.0:300.0:-1
ipc-2014-agile-ged-d-12-9.pddl,SAT:26.0:54.0:300.0:-1
ipc-2014-agile-ged-d-3-6.pddl,SAT:21.0:29.0:300.0:-1
ipc-2014-agile-ged-d-9-5.pddl,SAT:21.0:30.0:300.0:-1
ipc-2014-agile-hiking-3-4-3.pddl,SAT:11.0:45.0:300.0:-1
ipc-2014-agile-hiking-3-4-4.pddl,SAT:66.0:24.0:300.0:-1
ipc-2014-agile-hiking-3-4-5.pddl,SAT:71.0:44.0:300.0:-1
ipc-2014-agile-hiking-3-4-6.pddl,SAT:71.0:56.0:300.0:-1
ipc-2014-agile-hiking-3-4-7.pddl,SAT:76.0:76.0:300.0:-1
ipc-2014-agile-hiking-3-4-8.pddl,SAT:81.0:90.0:300.0:-1
ipc-2014-agile-hiking-3-4-9.pddl,SAT:221.0:2459.0:300.0:-1
ipc-2014-agile-hiking-4-5-3.pddl,SAT:11.0:36.0:300.0:-1
ipc-2014-agile-hiking-4-5-4.pddl,SAT:71.0:23.0:300.0:-1
ipc-2014-agile-hiking-4-5-5.pddl,SAT:76.0:39.0:300.0:-1
ipc-2014-agile-hiking-4-5-6.pddl,SAT:106.0:58.0:300.0:-1
ipc-2014-agile-hiking-4-5-7.pddl,SAT:236.0:1677.0:300.0:-1
ipc-2014-agile-hiking-4-5-8.pddl,TIMEOUT:301.0:-1.0:300.0:-1
ipc-2014-agile-hiking-4-5-9.pddl,TIMEOUT:301.0:-1.0:300.0:-1
ipc-2014-agile-hiking-5-6-3.pddl,SAT:36.0:18.0:300.0:-1
ipc-2014-agile-hiking-5-6-4.pddl,SAT:81.0:30.0:300.0:-1
ipc-2014-agile-hiking-5-6-5.pddl,SAT:81.0:42.0:300.0:-1
ipc-2014-agile-hiking-5-6-6.pddl,SAT:101.0:55.0:300.0:-1
ipc-2014-agile-hiking-5-6-7.pddl,TIMEOUT:301.0:-1.0:300.0:-1
ipc-2014-agile-hiking-5-6-8.pddl,TIMEOUT:301.0:-1.0:300.0:-1
ipc-2014-agile-maintenance-1.3.060.180.5-000.pddl,SAT:187.0:51.0:300.0:-1
ipc-2014-agile-maintenance-1.3.060.180.5-001.pddl,SAT:187.0:54.0:300.0:-1
ipc-2014-agile-maintenance-1.3.060.180.5-002.pddl,SAT:187.0:53.0:300.0:-1
ipc-2014-agile-maintenance-1.3.100.300.5-000.pddl,SAT:234.0:89.0:300.0:-1
ipc-2014-agile-maintenance-1.3.100.300.5-001.pddl,SAT:199.0:90.0:300.0:-1
ipc-2014-agile-maintenance-1.3.100.300.7-000.pddl,SAT:24.0:82.0:300.0:-1
ipc-2014-agile-maintenance-1.3.100.300.7-001.pddl,SAT:24.0:77.0:300.0:-1
ipc-2014-agile-maintenance-1.3.100.300.7-002.pddl,SAT:24.0:74.0:300.0:-1
ipc-2014-agile-maintenance-1.3.150.500.6-001.pddl,SAT:27.0:133.0:300.0:-1
ipc-2014-agile-maintenance-1.3.200.500.5-001.pddl,TIMEOUT:301.08:-1.0:300.0:-1
ipc-2014-agile-maintenance-1.3.200.500.5-002.pddl,SAT:207.0:159.0:300.0:-1
ipc-2014-agile-maintenance-1.3.200.700.7-000.pddl,SAT:31.0:173.0:300.0:-1
ipc-2014-agile-maintenance-1.3.200.700.7-001.pddl,SAT:31.0:168.0:300.0:-1
ipc-2014-agile-maintenance-1.3.200.700.7-002.pddl,SAT:31.0:169.0:300.0:-1
ipc-2014-agile-maintenance-1.3.200.900.5-000.pddl,TIMEOUT:301.0:-1.0:300.0:-1
ipc-2014-agile-maintenance-1.3.200.900.5-001.pddl,TIMEOUT:301.0:-1.0:300.0:-1
ipc-2014-agile-maintenance-1.3.200.900.5-002.pddl,TIMEOUT:301.0:-1.0:300.0:-1
ipc-2014-agile-maintenance-1.3.200.900.8-000.pddl,SAT:39.0:166.0:300.0:-1
ipc-2014-agile-maintenance-1.3.200.900.8-001.pddl,SAT:39.0:160.0:300.0:-1
ipc-2014-agile-maintenance-1.3.200.900.8-002.pddl,SAT:39.0:168.0:300.0:-1
ipc-2014-agile-openstacks-p130_2.pddl,SAT:43.0:50.0:300.0:-1
ipc-2014-agile-openstacks-p130_3.pddl,SAT:58.0:104.0:300.0:-1
ipc-2014-agile-openstacks-p150_2.pddl,SAT:48.0:54.0:300.0:-1
ipc-2014-agile-openstacks-p150_3.pddl,SAT:169.0:150.0:300.0:-1
ipc-2014-agile-openstacks-p170_1.pddl,SAT:73.0:55.0:300.0:-1
ipc-2014-agile-openstacks-p170_2.pddl,SAT:163.0:139.0:300.0:-1
ipc-2014-agile-openstacks-p170_3.pddl,SAT:175.0:170.0:300.0:-1
ipc-2014-agile-openstacks-p190_1.pddl,SAT:169.0:158.0:300.0:-1
ipc-2014-agile-openstacks-p190_2.pddl,SAT:174.0:154.0:300.0:-1
ipc-2014-agile-openstacks-p190_3.pddl,SAT:185.0:190.0:300.0:-1
ipc-2014-agile-openstacks-p210_1.pddl,SAT:179.0:167.0:300.0:-1
ipc-2014-agile-openstacks-p210_2.pddl,SAT:179.0:165.0:300.0:-1
ipc-2014-agile-openstacks-p230_1.pddl,SAT:179.0:172.0:300.0:-1
ipc-2014-agile-openstacks-p230_2.pddl,SAT:184.0:195.0:300.0:-1
ipc-2014-agile-openstacks-p250_1.pddl,SAT:190.0:190.0:300.0:-1
ipc-2014-agile-openstacks-p250_2.pddl,SAT:195.0:227.0:300.0:-1
ipc-2014-agile-openstacks-p270_1.pddl,SAT:205.0:200.0:300.0:-1
ipc-2014-agile-openstacks-p270_2.pddl,SAT:206.0:235.0:300.0:-1
ipc-2014-agile-openstacks-p290_1.pddl,TIMEOUT:301.0:-1.0:300.0:-1
ipc-2014-agile-openstacks-p290_2.pddl,TIMEOUT:301.0:-1.0:300.0:-1
ipc-2014-agile-parking-28_2.pddl,TIMEOUT:301.0:-1.0:300.0:-1
ipc-2014-agile-parking-28_3.pddl,TIMEOUT:301.0:-1.0:300.0:-1
ipc-2014-agile-parking-30_1.pddl,TIMEOUT:301.0:-1.0:300.0:-1
ipc-2014-agile-parking-30_2.pddl,TIMEOUT:301.0:-1.0:300.0:-1
ipc-2014-agile-parking-30_3.pddl,TIMEOUT:301.0:-1.0:300.0:-1
ipc-2014-agile-parking-32_1.pddl,TIMEOUT:301.0:-1.0:300.0:-1
ipc-2014-agile-parking-32_2.pddl,TIMEOUT:301.0:-1.0:300.0:-1
ipc-2014-agile-parking-32_3.pddl,TIMEOUT:301.0:-1.0:300.0:-1
ipc-2014-agile-parking-34_1.pddl,TIMEOUT:301.0:-1.0:300.0:-1
ipc-2014-agile-parking-34_2.pddl,TIMEOUT:301.0:-1.0:300.0:-1
ipc-2014-agile-parking-34_3.pddl,TIMEOUT:301.0:-1.0:300.0:-1
ipc-2014-agile-parking-36_1.pddl,TIMEOUT:301.0:-1.0:300.0:-1
ipc-2014-agile-parking-36_2.pddl,TIMEOUT:301.0:-1.0:300.0:-1
ipc-2014-agile-parking-36_3.pddl,SAT:296.0:72.0:300.0:-1
ipc-2014-agile-parking-38_1.pddl,TIMEOUT:301.0:-1.0:300.0:-1
ipc-2014-agile-parking-38_2.pddl,TIMEOUT:301.0:-1.0:300.0:-1
ipc-2014-agile-parking-38_3.pddl,TIMEOUT:301.0:-1.0:300.0:-1
ipc-2014-agile-parking-40_1.pddl,TIMEOUT:301.0:-1.0:300.0:-1
ipc-2014-agile-parking-40_2.pddl,TIMEOUT:301.0:-1.0:300.0:-1
ipc-2014-agile-parking-40_3.pddl,TIMEOUT:301.0:-1.0:300.0:-1
ipc-2014-agile-tetris-020.pddl,SAT:71.0:56.0:300.0:-1
ipc-2014-agile-tetris-021.pddl,SAT:186.0:206.0:300.0:-1
ipc-2014-agile-tetris-022.pddl,SAT:211.0:685.0:300.0:-1
ipc-2014-agile-tetris-023.pddl,SAT:206.0:801.0:300.0:-1
ipc-2014-agile-tetris-024.pddl,TIMEOUT:301.0:-1.0:300.0:-1
ipc-2014-agile-tetris-025.pddl,SAT:161.0:88.0:300.0:-1
ipc-2014-agile-tetris-026.pddl,TIMEOUT:301.0:-1.0:300.0:-1
ipc-2014-agile-tetris-027.pddl,TIMEOUT:301.0:-1.0:300.0:-1
ipc-2014-agile-tetris-028.pddl,SAT:231.0:869.0:300.0:-1
ipc-2014-agile-tetris-029.pddl,SAT:201.0:875.0:300.0:-1
ipc-2014-agile-tetris-031.pddl,TIMEOUT:301.0:-1.0:300.0:-1
ipc-2014-agile-tetris-032.pddl,SAT:206.0:460.0:300.0:-1
ipc-2014-agile-tetris-033.pddl,TIMEOUT:301.0:-1.0:300.0:-1
ipc-2014-agile-tetris-034.pddl,TIMEOUT:301.0:-1.0:300.0:-1
ipc-2014-agile-tetris-035.pddl,TIMEOUT:301.0:-1.0:300.0:-1
ipc-2014-agile-tetris-036.pddl,TIMEOUT:301.0:-1.0:300.0:-1
ipc-2014-agile-tetris-037.pddl,SAT:211.0:1295.0:300.0:-1
ipc-2014-agile-tetris-038.pddl,TIMEOUT:301.0:-1.0:300.0:-1
ipc-2014-agile-tetris-039.pddl,TIMEOUT:301.0:-1.0:300.0:-1
ipc-2014-agile-tetris-040.pddl,TIMEOUT:301.0:-1.0:300.0:-1
ipc-2014-agile-thoughtful-bootstrap-typed-01.pddl,SAT:101.0:36.0:300.0:-1
ipc-2014-agile-thoughtful-bootstrap-typed-02.pddl,SAT:11.0:34.0:300.0:-1
ipc-2014-agile-thoughtful-bootstrap-typed-03.pddl,SAT:46.0:43.0:300.0:-1
ipc-2014-agile-thoughtful-bootstrap-typed-04.pddl,SAT:26.0:37.0:300.0:-1
ipc-2014-agile-thoughtful-bootstrap-typed-05.pddl,SAT:101.0:34.0:300.0:-1
ipc-2014-agile-thoughtful-p11_6_53-typed.pddl,CRASHED:316.0:1000000000.0:300.0:-1
ipc-2014-agile-thoughtful-p11_6_59-typed.pddl,SAT:106.0:126.0:300.0:-1
ipc-2014-agile-thoughtful-p11_6_62-typed.pddl,SAT:106.0:139.0:300.0:-1
ipc-2014-agile-thoughtful-p13_7_78-typed.pddl,CRASHED:316.0:1000000000.0:300.0:-1
ipc-2014-agile-thoughtful-p13_7_79-typed.pddl,CRASHED:316.0:1000000000.0:300.0:-1
ipc-2014-agile-thoughtful-p13_7_86-typed.pddl,SAT:111.0:155.0:300.0:-1
ipc-2014-agile-thoughtful-target-typed-20.pddl,SAT:111.0:170.0:300.0:-1
ipc-2014-agile-thoughtful-target-typed-21.pddl,CRASHED:316.0:1000000000.0:300.0:-1
ipc-2014-agile-thoughtful-target-typed-22.pddl,CRASHED:316.0:1000000000.0:300.0:-1
ipc-2014-agile-thoughtful-target-typed-23.pddl,SAT:121.0:137.0:300.0:-1
ipc-2014-agile-thoughtful-target-typed-24.pddl,CRASHED:201.0:1000000000.0:300.0:-1
ipc-2014-agile-thoughtful-target-typed-25.pddl,SAT:111.0:142.0:300.0:-1
ipc-2014-agile-thoughtful-target-typed-26.pddl,SAT:106.0:153.0:300.0:-1
ipc-2014-agile-thoughtful-target-typed-27.pddl,SAT:116.0:210.0:300.0:-1
ipc-2014-agile-thoughtful-target-typed-28.pddl,SAT:126.0:152.0:300.0:-1
ipc-2014-agile-transport-01.pddl,SAT:101.0:2990.0:300.0:-1
ipc-2014-agile-transport-02.pddl,SAT:101.0:4067.0:300.0:-1
ipc-2014-agile-transport-03.pddl,SAT:81.0:3299.0:300.0:-1
ipc-2014-agile-transport-04.pddl,TIMEOUT:301.0:-1.0:300.0:-1
ipc-2014-agile-transport-05.pddl,TIMEOUT:301.0:-1.0:300.0:-1
ipc-2014-agile-transport-06.pddl,TIMEOUT:301.0:-1.0:300.0:-1
ipc-2014-agile-transport-07.pddl,TIMEOUT:301.0:-1.0:300.0:-1
ipc-2014-agile-transport-08.pddl,TIMEOUT:301.0:-1.0:300.0:-1
ipc-2014-agile-transport-09.pddl,TIMEOUT:301.0:-1.0:300.0:-1
ipc-2014-agile-transport-10.pddl,TIMEOUT:301.0:-1.0:300.0:-1
ipc-2014-agile-transport-11.pddl,SAT:101.0:2625.0:300.0:-1
ipc-2014-agile-transport-12.pddl,SAT:111.0:3271.0:300.0:-1
ipc-2014-agile-transport-13.pddl,SAT:91.0:3004.0:300.0:-1
ipc-2014-agile-transport-14.pddl,TIMEOUT:301.0:-1.0:300.0:-1
ipc-2014-agile-transport-15.pddl,TIMEOUT:301.0:-1.0:300.0:-1
ipc-2014-agile-transport-16.pddl,TIMEOUT:301.0:-1.0:300.0:-1
ipc-2014-agile-transport-17.pddl,TIMEOUT:301.0:-1.0:300.0:-1
ipc-2014-agile-transport-18.pddl,TIMEOUT:301.0:-1.0:300.0:-1
ipc-2014-agile-transport-19.pddl,TIMEOUT:301.0:-1.0:300.0:-1
ipc-2014-agile-transport-20.pddl,TIMEOUT:301.0:-1.0:300.0:-1
ipc-2014-agile-visitall-30.pddl,SAT:144.0:5105.0:300.0:-1
ipc-2014-agile-visitall-31.pddl,SAT:145.0:6017.0:300.0:-1
ipc-2014-agile-visitall-32.pddl,SAT:115.0:1431.0:300.0:-1
ipc-2014-agile-visitall-33.pddl,SAT:110.0:1388.0:300.0:-1
ipc-2014-agile-visitall-50.pddl,TIMEOUT:301.04:-1.0:300.0:-1
ipc-2014-agile-visitall-51.pddl,TIMEOUT:301.01:-1.0:300.0:-1
ipc-2014-agile-visitall-52.pddl,TIMEOUT:301.08:-1.0:300.0:-1
ipc-2014-agile-visitall-53.pddl,TIMEOUT:301.03:-1.0:300.0:-1
ipc-2014-agile-visitall-54.pddl,TIMEOUT:301.01:-1.0:300.0:-1
ipc-2014-agile-visitall-55.pddl,TIMEOUT:301.0:-1.0:300.0:-1
ipc-2014-agile-visitall-56.pddl,TIMEOUT:301.04:-1.0:300.0:-1
ipc-2014-agile-visitall-57.pddl,TIMEOUT:301.0:-1.0:300.0:-1
ipc-2014-agile-visitall-58.pddl,TIMEOUT:301.02:-1.0:300.0:-1
ipc-2014-agile-visitall-59.pddl,TIMEOUT:301.03:-1.0:300.0:-1
ipc-2014-agile-visitall-60.pddl,TIMEOUT:301.0:-1.0:300.0:-1
ipc-2014-agile-visitall-61.pddl,TIMEOUT:301.03:-1.0:300.0:-1
ipc-2014-agile-visitall-62.pddl,TIMEOUT:301.05:-1.0:300.0:-1
ipc-2014-agile-visitall-63.pddl,TIMEOUT:301.08:-1.0:300.0:-1
ipc-2014-agile-visitall-64.pddl,TIMEOUT:301.0:-1.0:300.0:-1
ipc-2014-agile-visitall-65.pddl,TIMEOUT:301.0:-1.0:300.0:-1
