instance,ipc-2014-optimal-rida-fixed
ipc-2014-optimal-barman-p433.1.pddl,CRASHED:0.382941:1000000000.0:1800.0:-1
ipc-2014-optimal-barman-p433.2.pddl,CRASHED:0.303953:1000000000.0:1800.0:-1
ipc-2014-optimal-barman-p433.3.pddl,CRASHED:0.293954:1000000000.0:1800.0:-1
ipc-2014-optimal-barman-p435.1.pddl,TIMEOUT:1801.08:-1.0:1800.0:-1
ipc-2014-optimal-barman-p435.2.pddl,TIMEOUT:1801.09:-1.0:1800.0:-1
ipc-2014-optimal-barman-p435.3.pddl,CRASHED:692.54:1000000000.0:1800.0:-1
ipc-2014-optimal-barman-p443.1.pddl,CRASHED:0.439933:1000000000.0:1800.0:-1
ipc-2014-optimal-barman-p443.2.pddl,CRASHED:0.447931:1000000000.0:1800.0:-1
ipc-2014-optimal-barman-p443.3.pddl,CRASHED:0.412936:1000000000.0:1800.0:-1
ipc-2014-optimal-barman-p536.1.pddl,CRASHED:492.47:1000000000.0:1800.0:-1
ipc-2014-optimal-barman-p536.2.pddl,CRASHED:485.06:1000000000.0:1800.0:-1
ipc-2014-optimal-barman-p536.3.pddl,CRASHED:483.05:1000000000.0:1800.0:-1
ipc-2014-optimal-barman-p638.1.pddl,CRASHED:509.41:1000000000.0:1800.0:-1
ipc-2014-optimal-barman-p638.2.pddl,TIMEOUT:1801.04:-1.0:1800.0:-1
ipc-2014-optimal-barman-p638.3.pddl,TIMEOUT:1801.08:-1.0:1800.0:-1
ipc-2014-optimal-barman-p739.1.pddl,CRASHED:468.88:1000000000.0:1800.0:-1
ipc-2014-optimal-barman-p739.2.pddl,CRASHED:485.62:1000000000.0:1800.0:-1
ipc-2014-optimal-barman-p739.3.pddl,TIMEOUT:1801.01:-1.0:1800.0:-1
ipc-2014-optimal-barman-p839.1.pddl,CRASHED:506.43:1000000000.0:1800.0:-1
ipc-2014-optimal-barman-p839.2.pddl,CRASHED:469.23:1000000000.0:1800.0:-1
ipc-2014-optimal-cavediving-01.pddl,CRASHED:1.53477:1000000000.0:1800.0:-1
ipc-2014-optimal-cavediving-01_easy.pddl,CRASHED:1.50077:1000000000.0:1800.0:-1
ipc-2014-optimal-cavediving-02_easy.pddl,CRASHED:1.43978:1000000000.0:1800.0:-1
ipc-2014-optimal-cavediving-03_easy.pddl,CRASHED:1.46178:1000000000.0:1800.0:-1
ipc-2014-optimal-cavediving-04_easy.pddl,CRASHED:1.39279:1000000000.0:1800.0:-1
ipc-2014-optimal-cavediving-05A_easy.pddl,CRASHED:0.486925:1000000000.0:1800.0:-1
ipc-2014-optimal-cavediving-06A_easy.pddl,CRASHED:0.465928:1000000000.0:1800.0:-1
ipc-2014-optimal-cavediving-07_easy.pddl,SAT:302.453:131.0:1800.0:-1
ipc-2014-optimal-cavediving-08_easy.pddl,CRASHED:0.483926:1000000000.0:1800.0:-1
ipc-2014-optimal-cavediving-09_easy.pddl,CRASHED:6.36103:1000000000.0:1800.0:-1
ipc-2014-optimal-cavediving-10_easy.pddl,CRASHED:6.44602:1000000000.0:1800.0:-1
ipc-2014-optimal-cavediving-11_easy.pddl,CRASHED:6.70798:1000000000.0:1800.0:-1
ipc-2014-optimal-cavediving-12_easy.pddl,CRASHED:6.561:1000000000.0:1800.0:-1
ipc-2014-optimal-cavediving-13_easy.pddl,CRASHED:1.88571:1000000000.0:1800.0:-1
ipc-2014-optimal-cavediving-14_easy.pddl,CRASHED:1.88571:1000000000.0:1800.0:-1
ipc-2014-optimal-cavediving-15_easy.pddl,CRASHED:1.63675:1000000000.0:1800.0:-1
ipc-2014-optimal-cavediving-16_easy.pddl,CRASHED:1.62375:1000000000.0:1800.0:-1
ipc-2014-optimal-cavediving-18A_easy.pddl,SAT:216.78:131.0:1800.0:-1
ipc-2014-optimal-cavediving-18_easy.pddl,SAT:251.766:131.0:1800.0:-1
ipc-2014-optimal-cavediving-20A_easy.pddl,CRASHED:0.58591:1000000000.0:1800.0:-1
ipc-2014-optimal-childsnack-01-2.pddl,TIMEOUT:1801.03:-1.0:1800.0:-1
ipc-2014-optimal-childsnack-01.pddl,TIMEOUT:1801.1:-1.0:1800.0:-1
ipc-2014-optimal-childsnack-02-2.pddl,TIMEOUT:1801.05:-1.0:1800.0:-1
ipc-2014-optimal-childsnack-02.pddl,TIMEOUT:1801.07:-1.0:1800.0:-1
ipc-2014-optimal-childsnack-03-2.pddl,TIMEOUT:1801.06:-1.0:1800.0:-1
ipc-2014-optimal-childsnack-03.pddl,TIMEOUT:1801.05:-1.0:1800.0:-1
ipc-2014-optimal-childsnack-04-2.pddl,TIMEOUT:1801.05:-1.0:1800.0:-1
ipc-2014-optimal-childsnack-04.pddl,TIMEOUT:1801.04:-1.0:1800.0:-1
ipc-2014-optimal-childsnack-05-2.pddl,TIMEOUT:1801.09:-1.0:1800.0:-1
ipc-2014-optimal-childsnack-05.pddl,TIMEOUT:1801.08:-1.0:1800.0:-1
ipc-2014-optimal-childsnack-06-2.pddl,TIMEOUT:1801.03:-1.0:1800.0:-1
ipc-2014-optimal-childsnack-06.pddl,TIMEOUT:1801.05:-1.0:1800.0:-1
ipc-2014-optimal-childsnack-07-2.pddl,TIMEOUT:1801.04:-1.0:1800.0:-1
ipc-2014-optimal-childsnack-07.pddl,TIMEOUT:1801.02:-1.0:1800.0:-1
ipc-2014-optimal-childsnack-08-2.pddl,TIMEOUT:1801.02:-1.0:1800.0:-1
ipc-2014-optimal-childsnack-08.pddl,TIMEOUT:1801.05:-1.0:1800.0:-1
ipc-2014-optimal-childsnack-09-2.pddl,TIMEOUT:1801.02:-1.0:1800.0:-1
ipc-2014-optimal-childsnack-09.pddl,TIMEOUT:1801.04:-1.0:1800.0:-1
ipc-2014-optimal-childsnack-10-2.pddl,TIMEOUT:1801.1:-1.0:1800.0:-1
ipc-2014-optimal-childsnack-10.pddl,TIMEOUT:1801.01:-1.0:1800.0:-1
ipc-2014-optimal-citycar-p2-2-2-1-2.pddl,SAT:1.65175:46.0:1800.0:-1
ipc-2014-optimal-citycar-p2-2-2-2-1.pddl,SAT:2.16767:64.0:1800.0:-1
ipc-2014-optimal-citycar-p2-2-3-1-2.pddl,SAT:2.55261:50.0:1800.0:-1
ipc-2014-optimal-citycar-p2-2-3-2-1.pddl,SAT:2.32465:48.0:1800.0:-1
ipc-2014-optimal-citycar-p2-2-3-2-2.pddl,SAT:2.51262:50.0:1800.0:-1
ipc-2014-optimal-citycar-p2-2-4-1-2.pddl,SAT:5.99009:52.0:1800.0:-1
ipc-2014-optimal-citycar-p2-2-4-2-1.pddl,SAT:5.95609:52.0:1800.0:-1
ipc-2014-optimal-citycar-p2-2-5-2-2.pddl,SAT:206.635:76.0:1800.0:-1
ipc-2014-optimal-citycar-p2-2-6-1-1.pddl,SAT:158.234:58.0:1800.0:-1
ipc-2014-optimal-citycar-p2-2-6-2-2.pddl,SAT:155.405:58.0:1800.0:-1
ipc-2014-optimal-citycar-p2-3-2-3-1.pddl,SAT:7.9048:68.0:1800.0:-1
ipc-2014-optimal-citycar-p2-3-3-3-1.pddl,SAT:51.9781:78.0:1800.0:-1
ipc-2014-optimal-citycar-p2-3-4-3-1.pddl,SAT:245.429:82.0:1800.0:-1
ipc-2014-optimal-citycar-p2-3-6-3-2.pddl,TIMEOUT:1801.08:-1.0:1800.0:-1
ipc-2014-optimal-citycar-p3-3-2-2-1.pddl,SAT:194.333:70.0:1800.0:-1
ipc-2014-optimal-citycar-p3-3-2-2-2.pddl,CRASHED:1632.42:1000000000.0:1800.0:-1
ipc-2014-optimal-citycar-p3-3-2-3-1.pddl,SAT:8.21775:48.0:1800.0:-1
ipc-2014-optimal-citycar-p3-3-2-3-2.pddl,SAT:171.237:70.0:1800.0:-1
ipc-2014-optimal-citycar-p3-3-3-3-1.pddl,TIMEOUT:1801.1:-1.0:1800.0:-1
ipc-2014-optimal-citycar-p3-3-3-3-2.pddl,SAT:1457.22:76.0:1800.0:-1
ipc-2014-optimal-floortile-p01-4-3-2.pddl,SAT:247.215:56.0:1800.0:-1
ipc-2014-optimal-floortile-p01-4-4-2.pddl,SAT:1384.64:68.0:1800.0:-1
ipc-2014-optimal-floortile-p01-5-3-2.pddl,SAT:405.76:63.0:1800.0:-1
ipc-2014-optimal-floortile-p01-5-4-2.pddl,TIMEOUT:1801.05:-1.0:1800.0:-1
ipc-2014-optimal-floortile-p01-5-5-2.pddl,TIMEOUT:1801.03:-1.0:1800.0:-1
ipc-2014-optimal-floortile-p01-6-4-2.pddl,TIMEOUT:1801.04:-1.0:1800.0:-1
ipc-2014-optimal-floortile-p01-6-5-2.pddl,TIMEOUT:1801.0:-1.0:1800.0:-1
ipc-2014-optimal-floortile-p02-4-4-2.pddl,TIMEOUT:1801.08:-1.0:1800.0:-1
ipc-2014-optimal-floortile-p02-5-3-2.pddl,SAT:460.386:65.0:1800.0:-1
ipc-2014-optimal-floortile-p02-5-4-2.pddl,TIMEOUT:1801.02:-1.0:1800.0:-1
ipc-2014-optimal-floortile-p02-5-5-2.pddl,TIMEOUT:1801.01:-1.0:1800.0:-1
ipc-2014-optimal-floortile-p02-6-4-2.pddl,TIMEOUT:1801.0:-1.0:1800.0:-1
ipc-2014-optimal-floortile-p02-6-5-2.pddl,TIMEOUT:1801.01:-1.0:1800.0:-1
ipc-2014-optimal-floortile-p03-4-3-2.pddl,SAT:247.361:56.0:1800.0:-1
ipc-2014-optimal-floortile-p03-4-4-2.pddl,TIMEOUT:1801.09:-1.0:1800.0:-1
ipc-2014-optimal-floortile-p03-5-3-2.pddl,SAT:491.164:65.0:1800.0:-1
ipc-2014-optimal-floortile-p03-5-4-2.pddl,TIMEOUT:1801.04:-1.0:1800.0:-1
ipc-2014-optimal-floortile-p03-5-5-2.pddl,TIMEOUT:1801.06:-1.0:1800.0:-1
ipc-2014-optimal-floortile-p03-6-4-2.pddl,TIMEOUT:1801.03:-1.0:1800.0:-1
ipc-2014-optimal-floortile-p03-6-5-2.pddl,TIMEOUT:1801.03:-1.0:1800.0:-1
ipc-2014-optimal-ged-d-1-2.pddl,SAT:48.9326:1.0:1800.0:-1
ipc-2014-optimal-ged-d-1-3.pddl,SAT:192.571:4.0:1800.0:-1
ipc-2014-optimal-ged-d-1-4.pddl,SAT:51.9331:1.0:1800.0:-1
ipc-2014-optimal-ged-d-1-8.pddl,SAT:291.033:4.0:1800.0:-1
ipc-2014-optimal-ged-d-2-1.pddl,SAT:49.0325:1.0:1800.0:-1
ipc-2014-optimal-ged-d-2-3.pddl,SAT:136.53:3.0:1800.0:-1
ipc-2014-optimal-ged-d-2-4.pddl,SAT:128.293:2.0:1800.0:-1
ipc-2014-optimal-ged-d-2-8.pddl,TIMEOUT:1801.01:-1.0:1800.0:-1
ipc-2014-optimal-ged-d-3-1.pddl,SAT:235.349:4.0:1800.0:-1
ipc-2014-optimal-ged-d-3-2.pddl,SAT:146.184:3.0:1800.0:-1
ipc-2014-optimal-ged-d-3-4.pddl,SAT:298.591:5.0:1800.0:-1
ipc-2014-optimal-ged-d-4-2.pddl,SAT:128.919:2.0:1800.0:-1
ipc-2014-optimal-ged-d-4-3.pddl,SAT:336.605:5.0:1800.0:-1
ipc-2014-optimal-ged-d-4-8.pddl,SAT:393.101:5.0:1800.0:-1
ipc-2014-optimal-ged-d-7-5.pddl,SAT:292.177:4.0:1800.0:-1
ipc-2014-optimal-ged-d-7-6.pddl,SAT:235.232:4.0:1800.0:-1
ipc-2014-optimal-ged-d-8-1.pddl,SAT:293.255:4.0:1800.0:-1
ipc-2014-optimal-ged-d-8-2.pddl,TIMEOUT:1801.08:-1.0:1800.0:-1
ipc-2014-optimal-ged-d-8-4.pddl,SAT:302.296:5.0:1800.0:-1
ipc-2014-optimal-ged-d-8-9.pddl,CRASHED:462.92:1000000000.0:1800.0:-1
ipc-2014-optimal-hiking-1-2-3.pddl,SAT:7.93579:11.0:1800.0:-1
ipc-2014-optimal-hiking-1-2-4.pddl,SAT:10.8204:17.0:1800.0:-1
ipc-2014-optimal-hiking-1-2-5.pddl,SAT:17.4084:25.0:1800.0:-1
ipc-2014-optimal-hiking-1-2-7.pddl,SAT:37.6453:38.0:1800.0:-1
ipc-2014-optimal-hiking-1-2-8.pddl,SAT:59.117:45.0:1800.0:-1
ipc-2014-optimal-hiking-2-2-3.pddl,SAT:132.859:10.0:1800.0:-1
ipc-2014-optimal-hiking-2-2-4.pddl,SAT:201.828:16.0:1800.0:-1
ipc-2014-optimal-hiking-2-2-5.pddl,SAT:299.286:22.0:1800.0:-1
ipc-2014-optimal-hiking-2-2-6.pddl,SAT:411.93:30.0:1800.0:-1
ipc-2014-optimal-hiking-2-2-7.pddl,SAT:437.204:34.0:1800.0:-1
ipc-2014-optimal-hiking-2-2-8.pddl,SAT:868.126:42.0:1800.0:-1
ipc-2014-optimal-hiking-2-3-4.pddl,SAT:327.766:17.0:1800.0:-1
ipc-2014-optimal-hiking-2-3-5.pddl,SAT:509.471:24.0:1800.0:-1
ipc-2014-optimal-hiking-2-3-6.pddl,SAT:595.586:28.0:1800.0:-1
ipc-2014-optimal-hiking-2-3-7.pddl,CRASHED:973.74:1000000000.0:1800.0:-1
ipc-2014-optimal-hiking-2-4-3.pddl,SAT:251.357:10.0:1800.0:-1
ipc-2014-optimal-hiking-2-4-4.pddl,SAT:473.508:17.0:1800.0:-1
ipc-2014-optimal-hiking-2-4-5.pddl,SAT:808.41:23.0:1800.0:-1
ipc-2014-optimal-hiking-2-4-6.pddl,SAT:1065.08:30.0:1800.0:-1
ipc-2014-optimal-hiking-2-4-7.pddl,CRASHED:758.77:1000000000.0:1800.0:-1
ipc-2014-optimal-maintenance-1.3.010.010.1-001.pddl,CRASHED:7.75182:1000000000.0:1800.0:-1
ipc-2014-optimal-maintenance-1.3.010.010.1-002.pddl,CRASHED:11.7482:1000000000.0:1800.0:-1
ipc-2014-optimal-maintenance-1.3.010.010.2-000.pddl,SAT:21.8527:4.0:1800.0:-1
ipc-2014-optimal-maintenance-1.3.010.010.2-001.pddl,SAT:25.8421:7.0:1800.0:-1
ipc-2014-optimal-maintenance-1.3.010.010.2-002.pddl,SAT:36.8494:6.0:1800.0:-1
ipc-2014-optimal-maintenance-1.3.015.020.1-000.pddl,CRASHED:25.5321:1000000000.0:1800.0:-1
ipc-2014-optimal-maintenance-1.3.015.020.1-001.pddl,CRASHED:19.3581:1000000000.0:1800.0:-1
ipc-2014-optimal-maintenance-1.3.015.020.1-002.pddl,CRASHED:23.5584:1000000000.0:1800.0:-1
ipc-2014-optimal-maintenance-1.3.015.020.2-000.pddl,CRASHED:328.527:1000000000.0:1800.0:-1
ipc-2014-optimal-maintenance-1.3.015.020.2-001.pddl,SAT:122.271:11.0:1800.0:-1
ipc-2014-optimal-maintenance-1.3.015.020.2-002.pddl,SAT:117.972:9.0:1800.0:-1
ipc-2014-optimal-maintenance-1.3.025.050.1-000.pddl,CRASHED:83.8792:1000000000.0:1800.0:-1
ipc-2014-optimal-maintenance-1.3.025.050.1-001.pddl,CRASHED:170.154:1000000000.0:1800.0:-1
ipc-2014-optimal-maintenance-1.3.025.050.1-002.pddl,CRASHED:170.581:1000000000.0:1800.0:-1
ipc-2014-optimal-maintenance-1.3.025.100.1-000.pddl,CRASHED:77.1383:1000000000.0:1800.0:-1
ipc-2014-optimal-maintenance-1.3.025.100.1-001.pddl,CRASHED:74.7816:1000000000.0:1800.0:-1
ipc-2014-optimal-maintenance-1.3.025.100.1-002.pddl,CRASHED:81.8975:1000000000.0:1800.0:-1
ipc-2014-optimal-maintenance-1.3.025.100.2-000.pddl,TIMEOUT:1801.08:-1.0:1800.0:-1
ipc-2014-optimal-maintenance-1.3.025.100.2-001.pddl,CRASHED:1377.86:1000000000.0:1800.0:-1
ipc-2014-optimal-maintenance-1.3.025.100.2-002.pddl,TIMEOUT:1801.08:-1.0:1800.0:-1
ipc-2014-optimal-openstacks-p20_1.pddl,SAT:331.435:3.0:1800.0:-1
ipc-2014-optimal-openstacks-p20_2.pddl,SAT:287.194:4.0:1800.0:-1
ipc-2014-optimal-openstacks-p20_3.pddl,SAT:182.166:6.0:1800.0:-1
ipc-2014-optimal-openstacks-p25_1.pddl,CRASHED:661.97:1000000000.0:1800.0:-1
ipc-2014-optimal-openstacks-p25_3.pddl,CRASHED:643.55:1000000000.0:1800.0:-1
ipc-2014-optimal-openstacks-p30_1.pddl,TIMEOUT:1801.04:-1.0:1800.0:-1
ipc-2014-optimal-openstacks-p30_2.pddl,TIMEOUT:1801.1:-1.0:1800.0:-1
ipc-2014-optimal-openstacks-p30_3.pddl,TIMEOUT:1801.09:-1.0:1800.0:-1
ipc-2014-optimal-openstacks-p35_1.pddl,TIMEOUT:1801.01:-1.0:1800.0:-1
ipc-2014-optimal-openstacks-p35_2.pddl,TIMEOUT:1801.01:-1.0:1800.0:-1
ipc-2014-optimal-openstacks-p35_3.pddl,CRASHED:601.55:1000000000.0:1800.0:-1
ipc-2014-optimal-openstacks-p40_1.pddl,CRASHED:447.06:1000000000.0:1800.0:-1
ipc-2014-optimal-openstacks-p40_2.pddl,CRASHED:436.23:1000000000.0:1800.0:-1
ipc-2014-optimal-openstacks-p40_3.pddl,CRASHED:640.64:1000000000.0:1800.0:-1
ipc-2014-optimal-openstacks-p45_1.pddl,CRASHED:569.36:1000000000.0:1800.0:-1
ipc-2014-optimal-openstacks-p45_2.pddl,CRASHED:526.71:1000000000.0:1800.0:-1
ipc-2014-optimal-openstacks-p45_3.pddl,CRASHED:675.95:1000000000.0:1800.0:-1
ipc-2014-optimal-openstacks-p50_1.pddl,CRASHED:666.28:1000000000.0:1800.0:-1
ipc-2014-optimal-openstacks-p50_2.pddl,CRASHED:717.72:1000000000.0:1800.0:-1
ipc-2014-optimal-openstacks-p50_3.pddl,CRASHED:656.81:1000000000.0:1800.0:-1
ipc-2014-optimal-parking-12_7-01.pddl,SAT:854.829:18.0:1800.0:-1
ipc-2014-optimal-parking-12_7-02.pddl,SAT:881.527:18.0:1800.0:-1
ipc-2014-optimal-parking-12_7-03.pddl,SAT:879.125:17.0:1800.0:-1
ipc-2014-optimal-parking-12_7-04.pddl,SAT:878.091:19.0:1800.0:-1
ipc-2014-optimal-parking-14_8-01.pddl,CRASHED:1431.27:1000000000.0:1800.0:-1
ipc-2014-optimal-parking-14_8-02.pddl,SAT:1277.79:22.0:1800.0:-1
ipc-2014-optimal-parking-14_8-03.pddl,SAT:1299.91:21.0:1800.0:-1
ipc-2014-optimal-parking-14_8-04.pddl,CRASHED:1638.82:1000000000.0:1800.0:-1
ipc-2014-optimal-parking-16_9-01.pddl,CRASHED:1506.55:1000000000.0:1800.0:-1
ipc-2014-optimal-parking-16_9-02.pddl,CRASHED:1462.26:1000000000.0:1800.0:-1
ipc-2014-optimal-parking-16_9-03.pddl,CRASHED:1454.49:1000000000.0:1800.0:-1
ipc-2014-optimal-parking-16_9-04.pddl,CRASHED:1352.9:1000000000.0:1800.0:-1
ipc-2014-optimal-parking-18_10-01.pddl,CRASHED:1518.04:1000000000.0:1800.0:-1
ipc-2014-optimal-parking-18_10-02.pddl,CRASHED:1778.86:1000000000.0:1800.0:-1
ipc-2014-optimal-parking-18_10-03.pddl,CRASHED:1486.28:1000000000.0:1800.0:-1
ipc-2014-optimal-parking-18_10-04.pddl,CRASHED:1459.83:1000000000.0:1800.0:-1
ipc-2014-optimal-parking-20_11-01.pddl,CRASHED:1740.28:1000000000.0:1800.0:-1
ipc-2014-optimal-parking-20_11-02.pddl,CRASHED:1759.45:1000000000.0:1800.0:-1
ipc-2014-optimal-parking-20_11-03.pddl,CRASHED:1748.0:1000000000.0:1800.0:-1
ipc-2014-optimal-parking-20_11-04.pddl,CRASHED:1460.43:1000000000.0:1800.0:-1
ipc-2014-optimal-tetris-01-10.pddl,TIMEOUT:1801.05:-1.0:1800.0:-1
ipc-2014-optimal-tetris-01-04.pddl,CRASHED:292.22:1000000000.0:1800.0:-1
ipc-2014-optimal-tetris-01-06.pddl,SAT:205.821:30.0:1800.0:-1
ipc-2014-optimal-tetris-01-08.pddl,SAT:1008.76:36.0:1800.0:-1
ipc-2014-optimal-tetris-02-10.pddl,TIMEOUT:1801.09:-1.0:1800.0:-1
ipc-2014-optimal-tetris-02-04.pddl,SAT:519.991:10.0:1800.0:-1
ipc-2014-optimal-tetris-02-06.pddl,SAT:280.768:30.0:1800.0:-1
ipc-2014-optimal-tetris-02-08.pddl,TIMEOUT:1801.05:-1.0:1800.0:-1
ipc-2014-optimal-tetris-03-10.pddl,TIMEOUT:1801.07:-1.0:1800.0:-1
ipc-2014-optimal-tetris-03-04.pddl,SAT:749.212:11.0:1800.0:-1
ipc-2014-optimal-tetris-03-06.pddl,SAT:255.066:21.0:1800.0:-1
ipc-2014-optimal-tetris-03-08.pddl,TIMEOUT:1801.08:-1.0:1800.0:-1
ipc-2014-optimal-tetris-04-10.pddl,TIMEOUT:1801.01:-1.0:1800.0:-1
ipc-2014-optimal-tetris-04-04.pddl,CRASHED:331.107:1000000000.0:1800.0:-1
ipc-2014-optimal-tetris-04-06.pddl,SAT:248.206:27.0:1800.0:-1
ipc-2014-optimal-tetris-04-08.pddl,TIMEOUT:1801.05:-1.0:1800.0:-1
ipc-2014-optimal-tetris-05-10.pddl,TIMEOUT:1801.04:-1.0:1800.0:-1
ipc-2014-optimal-tetris-05-04.pddl,CRASHED:417.832:1000000000.0:1800.0:-1
ipc-2014-optimal-tetris-05-06.pddl,SAT:222.177:19.0:1800.0:-1
ipc-2014-optimal-tetris-05-08.pddl,TIMEOUT:1801.02:-1.0:1800.0:-1
ipc-2014-optimal-tidybot-01.pddl,TIMEOUT:1801.03:-1.0:1800.0:-1
ipc-2014-optimal-tidybot-02.pddl,SAT:403.111:35.0:1800.0:-1
ipc-2014-optimal-tidybot-03.pddl,SAT:375.102:30.0:1800.0:-1
ipc-2014-optimal-tidybot-04.pddl,SAT:316.069:24.0:1800.0:-1
ipc-2014-optimal-tidybot-05.pddl,TIMEOUT:1801.07:-1.0:1800.0:-1
ipc-2014-optimal-tidybot-06.pddl,TIMEOUT:1801.09:-1.0:1800.0:-1
ipc-2014-optimal-tidybot-07.pddl,SAT:1355.42:38.0:1800.0:-1
ipc-2014-optimal-tidybot-08.pddl,SAT:330.276:25.0:1800.0:-1
ipc-2014-optimal-tidybot-09.pddl,SAT:1605.11:35.0:1800.0:-1
ipc-2014-optimal-tidybot-10.pddl,TIMEOUT:1801.02:-1.0:1800.0:-1
ipc-2014-optimal-tidybot-11.pddl,SAT:196.096:29.0:1800.0:-1
ipc-2014-optimal-tidybot-12.pddl,SAT:750.984:35.0:1800.0:-1
ipc-2014-optimal-tidybot-13.pddl,SAT:317.607:30.0:1800.0:-1
ipc-2014-optimal-tidybot-14.pddl,SAT:256.919:25.0:1800.0:-1
ipc-2014-optimal-tidybot-15.pddl,TIMEOUT:1801.07:-1.0:1800.0:-1
ipc-2014-optimal-tidybot-16.pddl,TIMEOUT:1801.09:-1.0:1800.0:-1
ipc-2014-optimal-tidybot-17.pddl,TIMEOUT:1801.08:-1.0:1800.0:-1
ipc-2014-optimal-tidybot-18.pddl,TIMEOUT:1801.05:-1.0:1800.0:-1
ipc-2014-optimal-tidybot-19.pddl,TIMEOUT:1801.0:-1.0:1800.0:-1
ipc-2014-optimal-tidybot-20.pddl,TIMEOUT:1801.07:-1.0:1800.0:-1
ipc-2014-optimal-transport-01.pddl,SAT:55.4866:148.0:1800.0:-1
ipc-2014-optimal-transport-02.pddl,SAT:100.128:191.0:1800.0:-1
ipc-2014-optimal-transport-03.pddl,SAT:205.584:300.0:1800.0:-1
ipc-2014-optimal-transport-04.pddl,TIMEOUT:1801.03:-1.0:1800.0:-1
ipc-2014-optimal-transport-05.pddl,TIMEOUT:1801.0:-1.0:1800.0:-1
ipc-2014-optimal-transport-06.pddl,TIMEOUT:1801.05:-1.0:1800.0:-1
ipc-2014-optimal-transport-07.pddl,SAT:101.517:967.0:1800.0:-1
ipc-2014-optimal-transport-08.pddl,SAT:212.103:1173.0:1800.0:-1
ipc-2014-optimal-transport-09.pddl,CRASHED:720.58:1000000000.0:1800.0:-1
ipc-2014-optimal-transport-10.pddl,CRASHED:733.28:1000000000.0:1800.0:-1
ipc-2014-optimal-transport-11.pddl,TIMEOUT:1801.08:-1.0:1800.0:-1
ipc-2014-optimal-transport-12.pddl,TIMEOUT:1801.09:-1.0:1800.0:-1
ipc-2014-optimal-transport-13.pddl,SAT:118.464:594.0:1800.0:-1
ipc-2014-optimal-transport-14.pddl,SAT:333.373:526.0:1800.0:-1
ipc-2014-optimal-transport-15.pddl,SAT:287.739:753.0:1800.0:-1
ipc-2014-optimal-transport-16.pddl,CRASHED:767.64:1000000000.0:1800.0:-1
ipc-2014-optimal-transport-17.pddl,TIMEOUT:1801.09:-1.0:1800.0:-1
ipc-2014-optimal-transport-18.pddl,TIMEOUT:1801.04:-1.0:1800.0:-1
ipc-2014-optimal-transport-19.pddl,CRASHED:863.08:1000000000.0:1800.0:-1
ipc-2014-optimal-transport-20.pddl,CRASHED:864.04:1000000000.0:1800.0:-1
ipc-2014-optimal-visitall-05-10.pddl,SAT:250.315:60.0:1800.0:-1
ipc-2014-optimal-visitall-05-05.pddl,SAT:34.1978:21.0:1800.0:-1
ipc-2014-optimal-visitall-05-06.pddl,SAT:43.2794:25.0:1800.0:-1
ipc-2014-optimal-visitall-05-07.pddl,SAT:101.531:34.0:1800.0:-1
ipc-2014-optimal-visitall-05-08.pddl,SAT:204.282:43.0:1800.0:-1
ipc-2014-optimal-visitall-05-09.pddl,SAT:191.634:54.0:1800.0:-1
ipc-2014-optimal-visitall-01-10.pddl,SAT:232.376:99.0:1800.0:-1
ipc-2014-optimal-visitall-01-11.pddl,SAT:278.583:120.0:1800.0:-1
ipc-2014-optimal-visitall-01-12.pddl,SAT:664.726:143.0:1800.0:-1
ipc-2014-optimal-visitall-01-13.pddl,SAT:557.915:168.0:1800.0:-1
ipc-2014-optimal-visitall-01-14.pddl,CRASHED:1000.7:1000000000.0:1800.0:-1
ipc-2014-optimal-visitall-01-15.pddl,CRASHED:1021.13:1000000000.0:1800.0:-1
ipc-2014-optimal-visitall-01-16.pddl,CRASHED:999.76:1000000000.0:1800.0:-1
ipc-2014-optimal-visitall-01-17.pddl,CRASHED:1066.75:1000000000.0:1800.0:-1
ipc-2014-optimal-visitall-01-18.pddl,CRASHED:925.7:1000000000.0:1800.0:-1
ipc-2014-optimal-visitall-01-05.pddl,SAT:122.187:24.0:1800.0:-1
ipc-2014-optimal-visitall-01-06.pddl,SAT:271.035:35.0:1800.0:-1
ipc-2014-optimal-visitall-01-07.pddl,SAT:216.393:48.0:1800.0:-1
ipc-2014-optimal-visitall-01-08.pddl,SAT:255.985:63.0:1800.0:-1
ipc-2014-optimal-visitall-01-09.pddl,SAT:287.061:80.0:1800.0:-1
