instance,ipc-2014-optimal-cgamer-bd
ipc-2014-optimal-barman-p433.1.pddl,CRASHED:0.530031:1000000000.0:1800.0:-1
ipc-2014-optimal-barman-p433.2.pddl,CRASHED:0.501686:1000000000.0:1800.0:-1
ipc-2014-optimal-barman-p433.3.pddl,CRASHED:0.503359:1000000000.0:1800.0:-1
ipc-2014-optimal-barman-p435.1.pddl,SAT:18.3185:49.0:1800.0:-1
ipc-2014-optimal-barman-p435.2.pddl,SAT:29.8305:49.0:1800.0:-1
ipc-2014-optimal-barman-p435.3.pddl,SAT:18.5098:49.0:1800.0:-1
ipc-2014-optimal-barman-p443.1.pddl,CRASHED:0.51196:1000000000.0:1800.0:-1
ipc-2014-optimal-barman-p443.2.pddl,CRASHED:0.512981:1000000000.0:1800.0:-1
ipc-2014-optimal-barman-p443.3.pddl,CRASHED:0.513726:1000000000.0:1800.0:-1
ipc-2014-optimal-barman-p536.1.pddl,SAT:146.273:62.0:1800.0:-1
ipc-2014-optimal-barman-p536.2.pddl,SAT:155.536:62.0:1800.0:-1
ipc-2014-optimal-barman-p536.3.pddl,SAT:140.85:62.0:1800.0:-1
ipc-2014-optimal-barman-p638.1.pddl,TIMEOUT:1801.0:-1.0:1800.0:-1
ipc-2014-optimal-barman-p638.2.pddl,TIMEOUT:1801.09:-1.0:1800.0:-1
ipc-2014-optimal-barman-p638.3.pddl,TIMEOUT:1801.06:-1.0:1800.0:-1
ipc-2014-optimal-barman-p739.1.pddl,TIMEOUT:1801.0:-1.0:1800.0:-1
ipc-2014-optimal-barman-p739.2.pddl,CRASHED:1738.45:1000000000.0:1800.0:-1
ipc-2014-optimal-barman-p739.3.pddl,TIMEOUT:1801.05:-1.0:1800.0:-1
ipc-2014-optimal-barman-p839.1.pddl,TIMEOUT:1801.08:-1.0:1800.0:-1
ipc-2014-optimal-barman-p839.2.pddl,TIMEOUT:1801.04:-1.0:1800.0:-1
ipc-2014-optimal-cavediving-01.pddl,CRASHED:28.3285:1000000000.0:1800.0:-1
ipc-2014-optimal-cavediving-01_easy.pddl,CRASHED:19.1998:1000000000.0:1800.0:-1
ipc-2014-optimal-cavediving-02_easy.pddl,CRASHED:19.2211:1000000000.0:1800.0:-1
ipc-2014-optimal-cavediving-03_easy.pddl,CRASHED:19.2694:1000000000.0:1800.0:-1
ipc-2014-optimal-cavediving-04_easy.pddl,CRASHED:19.2328:1000000000.0:1800.0:-1
ipc-2014-optimal-cavediving-05A_easy.pddl,CRASHED:3.86901:1000000000.0:1800.0:-1
ipc-2014-optimal-cavediving-06A_easy.pddl,CRASHED:3.8323:1000000000.0:1800.0:-1
ipc-2014-optimal-cavediving-07_easy.pddl,CRASHED:3.83206:1000000000.0:1800.0:-1
ipc-2014-optimal-cavediving-08_easy.pddl,CRASHED:3.81094:1000000000.0:1800.0:-1
ipc-2014-optimal-cavediving-09_easy.pddl,CRASHED:100.334:1000000000.0:1800.0:-1
ipc-2014-optimal-cavediving-10_easy.pddl,CRASHED:98.3703:1000000000.0:1800.0:-1
ipc-2014-optimal-cavediving-11_easy.pddl,CRASHED:99.4017:1000000000.0:1800.0:-1
ipc-2014-optimal-cavediving-12_easy.pddl,CRASHED:97.8586:1000000000.0:1800.0:-1
ipc-2014-optimal-cavediving-13_easy.pddl,CRASHED:28.3118:1000000000.0:1800.0:-1
ipc-2014-optimal-cavediving-14_easy.pddl,CRASHED:28.4321:1000000000.0:1800.0:-1
ipc-2014-optimal-cavediving-15_easy.pddl,CRASHED:23.6625:1000000000.0:1800.0:-1
ipc-2014-optimal-cavediving-16_easy.pddl,CRASHED:28.0718:1000000000.0:1800.0:-1
ipc-2014-optimal-cavediving-18A_easy.pddl,CRASHED:5.84417:1000000000.0:1800.0:-1
ipc-2014-optimal-cavediving-18_easy.pddl,CRASHED:6.8321:1000000000.0:1800.0:-1
ipc-2014-optimal-cavediving-20A_easy.pddl,CRASHED:5.77163:1000000000.0:1800.0:-1
ipc-2014-optimal-childsnack-01-2.pddl,SAT:172.218:21.0:1800.0:-1
ipc-2014-optimal-childsnack-01.pddl,SAT:104.215:20.0:1800.0:-1
ipc-2014-optimal-childsnack-02-2.pddl,TIMEOUT:1801.03:-1.0:1800.0:-1
ipc-2014-optimal-childsnack-02.pddl,TIMEOUT:1801.07:-1.0:1800.0:-1
ipc-2014-optimal-childsnack-03-2.pddl,TIMEOUT:1801.01:-1.0:1800.0:-1
ipc-2014-optimal-childsnack-03.pddl,TIMEOUT:1801.05:-1.0:1800.0:-1
ipc-2014-optimal-childsnack-04-2.pddl,CRASHED:1171.76:1000000000.0:1800.0:-1
ipc-2014-optimal-childsnack-04.pddl,CRASHED:1315.81:1000000000.0:1800.0:-1
ipc-2014-optimal-childsnack-05-2.pddl,CRASHED:420.29:1000000000.0:1800.0:-1
ipc-2014-optimal-childsnack-05.pddl,CRASHED:727.53:1000000000.0:1800.0:-1
ipc-2014-optimal-childsnack-06-2.pddl,CRASHED:1441.49:1000000000.0:1800.0:-1
ipc-2014-optimal-childsnack-06.pddl,CRASHED:1363.43:1000000000.0:1800.0:-1
ipc-2014-optimal-childsnack-07-2.pddl,CRASHED:1449.63:1000000000.0:1800.0:-1
ipc-2014-optimal-childsnack-07.pddl,CRASHED:174.74:1000000000.0:1800.0:-1
ipc-2014-optimal-childsnack-08-2.pddl,CRASHED:427.84:1000000000.0:1800.0:-1
ipc-2014-optimal-childsnack-08.pddl,CRASHED:404.09:1000000000.0:1800.0:-1
ipc-2014-optimal-childsnack-09-2.pddl,CRASHED:1030.82:1000000000.0:1800.0:-1
ipc-2014-optimal-childsnack-09.pddl,CRASHED:1055.1:1000000000.0:1800.0:-1
ipc-2014-optimal-childsnack-10-2.pddl,TIMEOUT:1801.09:-1.0:1800.0:-1
ipc-2014-optimal-childsnack-10.pddl,TIMEOUT:1801.04:-1.0:1800.0:-1
ipc-2014-optimal-citycar-p2-2-2-1-2.pddl,SAT:15.3757:46.0:1800.0:-1
ipc-2014-optimal-citycar-p2-2-2-2-1.pddl,SAT:15.1604:64.0:1800.0:-1
ipc-2014-optimal-citycar-p2-2-3-1-2.pddl,SAT:37.567:50.0:1800.0:-1
ipc-2014-optimal-citycar-p2-2-3-2-1.pddl,SAT:33.2514:48.0:1800.0:-1
ipc-2014-optimal-citycar-p2-2-3-2-2.pddl,SAT:32.4489:50.0:1800.0:-1
ipc-2014-optimal-citycar-p2-2-4-1-2.pddl,SAT:36.7218:52.0:1800.0:-1
ipc-2014-optimal-citycar-p2-2-4-2-1.pddl,SAT:32.638:52.0:1800.0:-1
ipc-2014-optimal-citycar-p2-2-5-2-2.pddl,SAT:269.055:76.0:1800.0:-1
ipc-2014-optimal-citycar-p2-2-6-1-1.pddl,SAT:498.557:58.0:1800.0:-1
ipc-2014-optimal-citycar-p2-2-6-2-2.pddl,SAT:1256.25:58.0:1800.0:-1
ipc-2014-optimal-citycar-p2-3-2-3-1.pddl,SAT:54.2261:68.0:1800.0:-1
ipc-2014-optimal-citycar-p2-3-3-3-1.pddl,SAT:53.4262:78.0:1800.0:-1
ipc-2014-optimal-citycar-p2-3-4-3-1.pddl,SAT:158.529:82.0:1800.0:-1
ipc-2014-optimal-citycar-p2-3-6-3-2.pddl,TIMEOUT:1801.04:-1.0:1800.0:-1
ipc-2014-optimal-citycar-p3-3-2-2-1.pddl,SAT:91.5767:70.0:1800.0:-1
ipc-2014-optimal-citycar-p3-3-2-2-2.pddl,SAT:139.671:92.0:1800.0:-1
ipc-2014-optimal-citycar-p3-3-2-3-1.pddl,SAT:84.1926:48.0:1800.0:-1
ipc-2014-optimal-citycar-p3-3-2-3-2.pddl,SAT:96.5317:70.0:1800.0:-1
ipc-2014-optimal-citycar-p3-3-3-3-1.pddl,CRASHED:1484.53:1000000000.0:1800.0:-1
ipc-2014-optimal-citycar-p3-3-3-3-2.pddl,SAT:303.066:76.0:1800.0:-1
ipc-2014-optimal-floortile-p01-4-3-2.pddl,SAT:1.72349:56.0:1800.0:-1
ipc-2014-optimal-floortile-p01-4-4-2.pddl,SAT:2.8803:68.0:1800.0:-1
ipc-2014-optimal-floortile-p01-5-3-2.pddl,SAT:2.09292:63.0:1800.0:-1
ipc-2014-optimal-floortile-p01-5-4-2.pddl,SAT:6.02197:91.0:1800.0:-1
ipc-2014-optimal-floortile-p01-5-5-2.pddl,SAT:27.9845:111.0:1800.0:-1
ipc-2014-optimal-floortile-p01-6-4-2.pddl,SAT:7.87594:104.0:1800.0:-1
ipc-2014-optimal-floortile-p01-6-5-2.pddl,SAT:83.3589:122.0:1800.0:-1
ipc-2014-optimal-floortile-p02-4-4-2.pddl,SAT:3.07751:75.0:1800.0:-1
ipc-2014-optimal-floortile-p02-5-3-2.pddl,SAT:2.09397:65.0:1800.0:-1
ipc-2014-optimal-floortile-p02-5-4-2.pddl,SAT:5.75261:98.0:1800.0:-1
ipc-2014-optimal-floortile-p02-5-5-2.pddl,SAT:25.5677:106.0:1800.0:-1
ipc-2014-optimal-floortile-p02-6-4-2.pddl,SAT:7.86061:109.0:1800.0:-1
ipc-2014-optimal-floortile-p02-6-5-2.pddl,SAT:95.5835:141.0:1800.0:-1
ipc-2014-optimal-floortile-p03-4-3-2.pddl,SAT:1.70195:56.0:1800.0:-1
ipc-2014-optimal-floortile-p03-4-4-2.pddl,SAT:2.91362:72.0:1800.0:-1
ipc-2014-optimal-floortile-p03-5-3-2.pddl,SAT:2.03078:65.0:1800.0:-1
ipc-2014-optimal-floortile-p03-5-4-2.pddl,SAT:5.5746:83.0:1800.0:-1
ipc-2014-optimal-floortile-p03-5-5-2.pddl,SAT:24.7024:100.0:1800.0:-1
ipc-2014-optimal-floortile-p03-6-4-2.pddl,SAT:8.29584:116.0:1800.0:-1
ipc-2014-optimal-floortile-p03-6-5-2.pddl,SAT:88.0344:130.0:1800.0:-1
ipc-2014-optimal-ged-d-1-2.pddl,CRASHED:0.84631:1000000000.0:1800.0:-1
ipc-2014-optimal-ged-d-1-3.pddl,CRASHED:0.990495:1000000000.0:1800.0:-1
ipc-2014-optimal-ged-d-1-4.pddl,CRASHED:0.828093:1000000000.0:1800.0:-1
ipc-2014-optimal-ged-d-1-8.pddl,CRASHED:1.08445:1000000000.0:1800.0:-1
ipc-2014-optimal-ged-d-2-1.pddl,CRASHED:0.82415:1000000000.0:1800.0:-1
ipc-2014-optimal-ged-d-2-3.pddl,CRASHED:0.931835:1000000000.0:1800.0:-1
ipc-2014-optimal-ged-d-2-4.pddl,CRASHED:0.849829:1000000000.0:1800.0:-1
ipc-2014-optimal-ged-d-2-8.pddl,CRASHED:1.32528:1000000000.0:1800.0:-1
ipc-2014-optimal-ged-d-3-1.pddl,CRASHED:1.04121:1000000000.0:1800.0:-1
ipc-2014-optimal-ged-d-3-2.pddl,CRASHED:0.929738:1000000000.0:1800.0:-1
ipc-2014-optimal-ged-d-3-4.pddl,CRASHED:1.0601:1000000000.0:1800.0:-1
ipc-2014-optimal-ged-d-4-2.pddl,CRASHED:0.850788:1000000000.0:1800.0:-1
ipc-2014-optimal-ged-d-4-3.pddl,CRASHED:1.07957:1000000000.0:1800.0:-1
ipc-2014-optimal-ged-d-4-8.pddl,CRASHED:1.33445:1000000000.0:1800.0:-1
ipc-2014-optimal-ged-d-7-5.pddl,CRASHED:1.09626:1000000000.0:1800.0:-1
ipc-2014-optimal-ged-d-7-6.pddl,CRASHED:1.00338:1000000000.0:1800.0:-1
ipc-2014-optimal-ged-d-8-1.pddl,CRASHED:1.0477:1000000000.0:1800.0:-1
ipc-2014-optimal-ged-d-8-2.pddl,CRASHED:1.30671:1000000000.0:1800.0:-1
ipc-2014-optimal-ged-d-8-4.pddl,CRASHED:1.30832:1000000000.0:1800.0:-1
ipc-2014-optimal-ged-d-8-9.pddl,CRASHED:1.32611:1000000000.0:1800.0:-1
ipc-2014-optimal-hiking-1-2-3.pddl,SAT:1.269:11.0:1800.0:-1
ipc-2014-optimal-hiking-1-2-4.pddl,SAT:1.53246:17.0:1800.0:-1
ipc-2014-optimal-hiking-1-2-5.pddl,SAT:1.72447:25.0:1800.0:-1
ipc-2014-optimal-hiking-1-2-7.pddl,SAT:4.66825:38.0:1800.0:-1
ipc-2014-optimal-hiking-1-2-8.pddl,SAT:5.43151:45.0:1800.0:-1
ipc-2014-optimal-hiking-2-2-3.pddl,SAT:4.79087:10.0:1800.0:-1
ipc-2014-optimal-hiking-2-2-4.pddl,SAT:6.81665:16.0:1800.0:-1
ipc-2014-optimal-hiking-2-2-5.pddl,SAT:19.3828:22.0:1800.0:-1
ipc-2014-optimal-hiking-2-2-6.pddl,SAT:93.428:30.0:1800.0:-1
ipc-2014-optimal-hiking-2-2-7.pddl,SAT:388.105:34.0:1800.0:-1
ipc-2014-optimal-hiking-2-2-8.pddl,SAT:1356.04:42.0:1800.0:-1
ipc-2014-optimal-hiking-2-3-4.pddl,SAT:10.5232:17.0:1800.0:-1
ipc-2014-optimal-hiking-2-3-5.pddl,SAT:93.1975:24.0:1800.0:-1
ipc-2014-optimal-hiking-2-3-6.pddl,SAT:738.34:28.0:1800.0:-1
ipc-2014-optimal-hiking-2-3-7.pddl,TIMEOUT:1801.05:-1.0:1800.0:-1
ipc-2014-optimal-hiking-2-4-3.pddl,SAT:5.9644:10.0:1800.0:-1
ipc-2014-optimal-hiking-2-4-4.pddl,SAT:11.193:17.0:1800.0:-1
ipc-2014-optimal-hiking-2-4-5.pddl,SAT:114.891:23.0:1800.0:-1
ipc-2014-optimal-hiking-2-4-6.pddl,SAT:1350.65:30.0:1800.0:-1
ipc-2014-optimal-hiking-2-4-7.pddl,TIMEOUT:1801.04:-1.0:1800.0:-1
ipc-2014-optimal-maintenance-1.3.010.010.1-001.pddl,CRASHED:0.577785:1000000000.0:1800.0:-1
ipc-2014-optimal-maintenance-1.3.010.010.1-002.pddl,CRASHED:0.573789:1000000000.0:1800.0:-1
ipc-2014-optimal-maintenance-1.3.010.010.2-000.pddl,SAT:1.12293:4.0:1800.0:-1
ipc-2014-optimal-maintenance-1.3.010.010.2-001.pddl,SAT:1.19619:7.0:1800.0:-1
ipc-2014-optimal-maintenance-1.3.010.010.2-002.pddl,SAT:1.17016:6.0:1800.0:-1
ipc-2014-optimal-maintenance-1.3.015.020.1-000.pddl,CRASHED:0.670092:1000000000.0:1800.0:-1
ipc-2014-optimal-maintenance-1.3.015.020.1-001.pddl,CRASHED:0.684401:1000000000.0:1800.0:-1
ipc-2014-optimal-maintenance-1.3.015.020.1-002.pddl,CRASHED:0.673166:1000000000.0:1800.0:-1
ipc-2014-optimal-maintenance-1.3.015.020.2-000.pddl,CRASHED:0.719858:1000000000.0:1800.0:-1
ipc-2014-optimal-maintenance-1.3.015.020.2-001.pddl,SAT:1.51862:11.0:1800.0:-1
ipc-2014-optimal-maintenance-1.3.015.020.2-002.pddl,SAT:1.47179:9.0:1800.0:-1
ipc-2014-optimal-maintenance-1.3.025.050.1-000.pddl,CRASHED:0.900742:1000000000.0:1800.0:-1
ipc-2014-optimal-maintenance-1.3.025.050.1-001.pddl,CRASHED:0.891884:1000000000.0:1800.0:-1
ipc-2014-optimal-maintenance-1.3.025.050.1-002.pddl,CRASHED:0.902483:1000000000.0:1800.0:-1
ipc-2014-optimal-maintenance-1.3.025.100.1-000.pddl,CRASHED:1.10704:1000000000.0:1800.0:-1
ipc-2014-optimal-maintenance-1.3.025.100.1-001.pddl,CRASHED:1.10259:1000000000.0:1800.0:-1
ipc-2014-optimal-maintenance-1.3.025.100.1-002.pddl,CRASHED:1.10259:1000000000.0:1800.0:-1
ipc-2014-optimal-maintenance-1.3.025.100.2-000.pddl,CRASHED:1.29248:1000000000.0:1800.0:-1
ipc-2014-optimal-maintenance-1.3.025.100.2-001.pddl,CRASHED:1.26401:1000000000.0:1800.0:-1
ipc-2014-optimal-maintenance-1.3.025.100.2-002.pddl,CRASHED:1.29822:1000000000.0:1800.0:-1
ipc-2014-optimal-openstacks-p20_1.pddl,SAT:3.14453:3.0:1800.0:-1
ipc-2014-optimal-openstacks-p20_2.pddl,SAT:5.79716:4.0:1800.0:-1
ipc-2014-optimal-openstacks-p20_3.pddl,SAT:6.79307:6.0:1800.0:-1
ipc-2014-optimal-openstacks-p25_1.pddl,SAT:7.88636:4.0:1800.0:-1
ipc-2014-optimal-openstacks-p25_3.pddl,SAT:15.1576:9.0:1800.0:-1
ipc-2014-optimal-openstacks-p30_1.pddl,SAT:10.2784:4.0:1800.0:-1
ipc-2014-optimal-openstacks-p30_2.pddl,SAT:10.8991:4.0:1800.0:-1
ipc-2014-optimal-openstacks-p30_3.pddl,SAT:18.1712:12.0:1800.0:-1
ipc-2014-optimal-openstacks-p35_1.pddl,SAT:14.7245:4.0:1800.0:-1
ipc-2014-optimal-openstacks-p35_2.pddl,SAT:19.1299:5.0:1800.0:-1
ipc-2014-optimal-openstacks-p35_3.pddl,SAT:237.852:14.0:1800.0:-1
ipc-2014-optimal-openstacks-p40_1.pddl,SAT:18.4628:3.0:1800.0:-1
ipc-2014-optimal-openstacks-p40_2.pddl,SAT:18.5058:4.0:1800.0:-1
ipc-2014-optimal-openstacks-p40_3.pddl,SAT:272.356:15.0:1800.0:-1
ipc-2014-optimal-openstacks-p45_1.pddl,SAT:20.7769:4.0:1800.0:-1
ipc-2014-optimal-openstacks-p45_2.pddl,SAT:25.1988:5.0:1800.0:-1
ipc-2014-optimal-openstacks-p45_3.pddl,SAT:422.484:19.0:1800.0:-1
ipc-2014-optimal-openstacks-p50_1.pddl,SAT:25.4722:4.0:1800.0:-1
ipc-2014-optimal-openstacks-p50_2.pddl,SAT:24.4926:5.0:1800.0:-1
ipc-2014-optimal-openstacks-p50_3.pddl,SAT:643.847:18.0:1800.0:-1
ipc-2014-optimal-parking-12_7-01.pddl,SAT:882.15:18.0:1800.0:-1
ipc-2014-optimal-parking-12_7-02.pddl,SAT:729.521:18.0:1800.0:-1
ipc-2014-optimal-parking-12_7-03.pddl,SAT:476.272:17.0:1800.0:-1
ipc-2014-optimal-parking-12_7-04.pddl,SAT:1431.32:19.0:1800.0:-1
ipc-2014-optimal-parking-14_8-01.pddl,CRASHED:1147.44:1000000000.0:1800.0:-1
ipc-2014-optimal-parking-14_8-02.pddl,CRASHED:1173.24:1000000000.0:1800.0:-1
ipc-2014-optimal-parking-14_8-03.pddl,TIMEOUT:1801.08:-1.0:1800.0:-1
ipc-2014-optimal-parking-14_8-04.pddl,TIMEOUT:1801.05:-1.0:1800.0:-1
ipc-2014-optimal-parking-16_9-01.pddl,TIMEOUT:1801.08:-1.0:1800.0:-1
ipc-2014-optimal-parking-16_9-02.pddl,CRASHED:1274.99:1000000000.0:1800.0:-1
ipc-2014-optimal-parking-16_9-03.pddl,TIMEOUT:1801.05:-1.0:1800.0:-1
ipc-2014-optimal-parking-16_9-04.pddl,CRASHED:1243.41:1000000000.0:1800.0:-1
ipc-2014-optimal-parking-18_10-01.pddl,CRASHED:1638.63:1000000000.0:1800.0:-1
ipc-2014-optimal-parking-18_10-02.pddl,CRASHED:1618.21:1000000000.0:1800.0:-1
ipc-2014-optimal-parking-18_10-03.pddl,CRASHED:1637.22:1000000000.0:1800.0:-1
ipc-2014-optimal-parking-18_10-04.pddl,TIMEOUT:1801.05:-1.0:1800.0:-1
ipc-2014-optimal-parking-20_11-01.pddl,TIMEOUT:1801.08:-1.0:1800.0:-1
ipc-2014-optimal-parking-20_11-02.pddl,TIMEOUT:1801.07:-1.0:1800.0:-1
ipc-2014-optimal-parking-20_11-03.pddl,TIMEOUT:1801.07:-1.0:1800.0:-1
ipc-2014-optimal-parking-20_11-04.pddl,TIMEOUT:1801.02:-1.0:1800.0:-1
ipc-2014-optimal-tetris-01-10.pddl,CRASHED:1126.81:1000000000.0:1800.0:-1
ipc-2014-optimal-tetris-01-04.pddl,CRASHED:10.4211:1000000000.0:1800.0:-1
ipc-2014-optimal-tetris-01-06.pddl,SAT:103.61:30.0:1800.0:-1
ipc-2014-optimal-tetris-01-08.pddl,SAT:27.1973:36.0:1800.0:-1
ipc-2014-optimal-tetris-02-10.pddl,CRASHED:1401.75:1000000000.0:1800.0:-1
ipc-2014-optimal-tetris-02-04.pddl,SAT:11.1895:10.0:1800.0:-1
ipc-2014-optimal-tetris-02-06.pddl,SAT:45.3687:30.0:1800.0:-1
ipc-2014-optimal-tetris-02-08.pddl,SAT:465.015:39.0:1800.0:-1
ipc-2014-optimal-tetris-03-10.pddl,TIMEOUT:1801.04:-1.0:1800.0:-1
ipc-2014-optimal-tetris-03-04.pddl,SAT:9.12955:11.0:1800.0:-1
ipc-2014-optimal-tetris-03-06.pddl,SAT:68.1266:21.0:1800.0:-1
ipc-2014-optimal-tetris-03-08.pddl,SAT:64.324:48.0:1800.0:-1
ipc-2014-optimal-tetris-04-10.pddl,CRASHED:1311.56:1000000000.0:1800.0:-1
ipc-2014-optimal-tetris-04-04.pddl,CRASHED:9.45659:1000000000.0:1800.0:-1
ipc-2014-optimal-tetris-04-06.pddl,SAT:82.8177:27.0:1800.0:-1
ipc-2014-optimal-tetris-04-08.pddl,TIMEOUT:1801.08:-1.0:1800.0:-1
ipc-2014-optimal-tetris-05-10.pddl,SAT:851.331:66.0:1800.0:-1
ipc-2014-optimal-tetris-05-04.pddl,CRASHED:8.62607:1000000000.0:1800.0:-1
ipc-2014-optimal-tetris-05-06.pddl,SAT:10.6068:19.0:1800.0:-1
ipc-2014-optimal-tetris-05-08.pddl,TIMEOUT:1801.03:-1.0:1800.0:-1
ipc-2014-optimal-tidybot-01.pddl,CRASHED:547.55:1000000000.0:1800.0:-1
ipc-2014-optimal-tidybot-02.pddl,SAT:406.94:35.0:1800.0:-1
ipc-2014-optimal-tidybot-03.pddl,SAT:127.471:30.0:1800.0:-1
ipc-2014-optimal-tidybot-04.pddl,SAT:283.746:24.0:1800.0:-1
ipc-2014-optimal-tidybot-05.pddl,TIMEOUT:1801.05:-1.0:1800.0:-1
ipc-2014-optimal-tidybot-06.pddl,SAT:764.806:63.0:1800.0:-1
ipc-2014-optimal-tidybot-07.pddl,SAT:122.734:38.0:1800.0:-1
ipc-2014-optimal-tidybot-08.pddl,SAT:215.702:25.0:1800.0:-1
ipc-2014-optimal-tidybot-09.pddl,CRASHED:1592.09:1000000000.0:1800.0:-1
ipc-2014-optimal-tidybot-10.pddl,SAT:1189.63:47.0:1800.0:-1
ipc-2014-optimal-tidybot-11.pddl,SAT:139.644:29.0:1800.0:-1
ipc-2014-optimal-tidybot-12.pddl,SAT:448.13:35.0:1800.0:-1
ipc-2014-optimal-tidybot-13.pddl,SAT:202.655:30.0:1800.0:-1
ipc-2014-optimal-tidybot-14.pddl,SAT:364.869:25.0:1800.0:-1
ipc-2014-optimal-tidybot-15.pddl,CRASHED:1052.23:1000000000.0:1800.0:-1
ipc-2014-optimal-tidybot-16.pddl,CRASHED:1122.37:1000000000.0:1800.0:-1
ipc-2014-optimal-tidybot-17.pddl,SAT:75.1723:40.0:1800.0:-1
ipc-2014-optimal-tidybot-18.pddl,SAT:182.008:44.0:1800.0:-1
ipc-2014-optimal-tidybot-19.pddl,CRASHED:1072.5:1000000000.0:1800.0:-1
ipc-2014-optimal-tidybot-20.pddl,SAT:81.152:46.0:1800.0:-1
ipc-2014-optimal-transport-01.pddl,SAT:1.7989:148.0:1800.0:-1
ipc-2014-optimal-transport-02.pddl,SAT:4.12124:191.0:1800.0:-1
ipc-2014-optimal-transport-03.pddl,SAT:13.0638:300.0:1800.0:-1
ipc-2014-optimal-transport-04.pddl,SAT:542.746:250.0:1800.0:-1
ipc-2014-optimal-transport-05.pddl,TIMEOUT:1801.01:-1.0:1800.0:-1
ipc-2014-optimal-transport-06.pddl,TIMEOUT:1801.06:-1.0:1800.0:-1
ipc-2014-optimal-transport-07.pddl,SAT:8.61855:967.0:1800.0:-1
ipc-2014-optimal-transport-08.pddl,SAT:781.774:1173.0:1800.0:-1
ipc-2014-optimal-transport-09.pddl,TIMEOUT:1801.03:-1.0:1800.0:-1
ipc-2014-optimal-transport-10.pddl,TIMEOUT:1801.07:-1.0:1800.0:-1
ipc-2014-optimal-transport-11.pddl,TIMEOUT:1801.06:-1.0:1800.0:-1
ipc-2014-optimal-transport-12.pddl,TIMEOUT:1801.07:-1.0:1800.0:-1
ipc-2014-optimal-transport-13.pddl,SAT:6.62238:594.0:1800.0:-1
ipc-2014-optimal-transport-14.pddl,SAT:48.7891:526.0:1800.0:-1
ipc-2014-optimal-transport-15.pddl,SAT:1608.25:753.0:1800.0:-1
ipc-2014-optimal-transport-16.pddl,TIMEOUT:1801.03:-1.0:1800.0:-1
ipc-2014-optimal-transport-17.pddl,TIMEOUT:1801.07:-1.0:1800.0:-1
ipc-2014-optimal-transport-18.pddl,TIMEOUT:1801.08:-1.0:1800.0:-1
ipc-2014-optimal-transport-19.pddl,TIMEOUT:1801.05:-1.0:1800.0:-1
ipc-2014-optimal-transport-20.pddl,TIMEOUT:1801.02:-1.0:1800.0:-1
ipc-2014-optimal-visitall-05-10.pddl,CRASHED:942.26:1000000000.0:1800.0:-1
ipc-2014-optimal-visitall-05-05.pddl,SAT:1.46737:21.0:1800.0:-1
ipc-2014-optimal-visitall-05-06.pddl,SAT:1.64558:25.0:1800.0:-1
ipc-2014-optimal-visitall-05-07.pddl,SAT:5.31633:34.0:1800.0:-1
ipc-2014-optimal-visitall-05-08.pddl,SAT:109.271:43.0:1800.0:-1
ipc-2014-optimal-visitall-05-09.pddl,CRASHED:826.46:1000000000.0:1800.0:-1
ipc-2014-optimal-visitall-01-10.pddl,CRASHED:854.55:1000000000.0:1800.0:-1
ipc-2014-optimal-visitall-01-11.pddl,CRASHED:926.01:1000000000.0:1800.0:-1
ipc-2014-optimal-visitall-01-12.pddl,CRASHED:1054.34:1000000000.0:1800.0:-1
ipc-2014-optimal-visitall-01-13.pddl,CRASHED:1018.16:1000000000.0:1800.0:-1
ipc-2014-optimal-visitall-01-14.pddl,CRASHED:1164.98:1000000000.0:1800.0:-1
ipc-2014-optimal-visitall-01-15.pddl,CRASHED:924.89:1000000000.0:1800.0:-1
ipc-2014-optimal-visitall-01-16.pddl,CRASHED:1116.26:1000000000.0:1800.0:-1
ipc-2014-optimal-visitall-01-17.pddl,CRASHED:940.47:1000000000.0:1800.0:-1
ipc-2014-optimal-visitall-01-18.pddl,CRASHED:1137.42:1000000000.0:1800.0:-1
ipc-2014-optimal-visitall-01-05.pddl,SAT:2.65434:24.0:1800.0:-1
ipc-2014-optimal-visitall-01-06.pddl,SAT:442.823:35.0:1800.0:-1
ipc-2014-optimal-visitall-01-07.pddl,CRASHED:849.03:1000000000.0:1800.0:-1
ipc-2014-optimal-visitall-01-08.pddl,CRASHED:730.61:1000000000.0:1800.0:-1
ipc-2014-optimal-visitall-01-09.pddl,CRASHED:825.87:1000000000.0:1800.0:-1
