instance,ipc-2014-agile-bfs-f
ipc-2014-agile-barman-p1-11-4-15.pddl,SAT:33.9878:199.0:300.0:-1
ipc-2014-agile-barman-p1-11-5-15.pddl,SAT:40.0839:185.0:300.0:-1
ipc-2014-agile-barman-p1-11-5-16.pddl,SAT:1.36579:154.0:300.0:-1
ipc-2014-agile-barman-p2-10-4-13.pddl,SAT:2.34564:144.0:300.0:-1
ipc-2014-agile-barman-p2-11-4-15.pddl,SAT:2.84757:165.0:300.0:-1
ipc-2014-agile-barman-p2-11-5-15.pddl,SAT:1.09283:153.0:300.0:-1
ipc-2014-agile-barman-p2-11-5-16.pddl,SAT:4.5853:173.0:300.0:-1
ipc-2014-agile-barman-p2-11-5-17.pddl,SAT:18.5932:203.0:300.0:-1
ipc-2014-agile-barman-p3-10-4-13.pddl,SAT:1.58076:141.0:300.0:-1
ipc-2014-agile-barman-p3-11-4-15.pddl,SAT:2.02569:166.0:300.0:-1
ipc-2014-agile-barman-p3-11-5-15.pddl,SAT:7.43387:178.0:300.0:-1
ipc-2014-agile-barman-p3-11-5-16.pddl,SAT:1.64575:168.0:300.0:-1
ipc-2014-agile-barman-p3-11-5-17.pddl,SAT:5.98109:175.0:300.0:-1
ipc-2014-agile-barman-p4-11-4-14.pddl,SAT:3.13352:161.0:300.0:-1
ipc-2014-agile-barman-p4-11-4-15.pddl,SAT:6.41002:159.0:300.0:-1
ipc-2014-agile-barman-p4-11-5-15.pddl,SAT:4.85926:156.0:300.0:-1
ipc-2014-agile-barman-p5-10-4-13.pddl,SAT:1.72674:142.0:300.0:-1
ipc-2014-agile-barman-p5-11-4-15.pddl,SAT:5.58415:176.0:300.0:-1
ipc-2014-agile-barman-p5-11-5-15.pddl,SAT:8.29274:157.0:300.0:-1
ipc-2014-agile-barman-p5-11-5-16.pddl,SAT:4.00039:160.0:300.0:-1
ipc-2014-agile-cavediving-01_easy.pddl,TIMEOUT:301.115:-1.0:300.0:-1
ipc-2014-agile-cavediving-01.pddl,TIMEOUT:301.128:-1.0:300.0:-1
ipc-2014-agile-cavediving-02_easy.pddl,TIMEOUT:301.134:-1.0:300.0:-1
ipc-2014-agile-cavediving-03_easy.pddl,TIMEOUT:301.166:-1.0:300.0:-1
ipc-2014-agile-cavediving-04_easy.pddl,TIMEOUT:301.175:-1.0:300.0:-1
ipc-2014-agile-cavediving-05A_easy.pddl,SAT:0.312952:94.0:300.0:-1
ipc-2014-agile-cavediving-06A_easy.pddl,SAT:0.307952:95.0:300.0:-1
ipc-2014-agile-cavediving-07_easy.pddl,SAT:0.533917:131.0:300.0:-1
ipc-2014-agile-cavediving-08_easy.pddl,SAT:0.303952:90.0:300.0:-1
ipc-2014-agile-cavediving-09_easy.pddl,TIMEOUT:301.186:-1.0:300.0:-1
ipc-2014-agile-cavediving-10_easy.pddl,TIMEOUT:301.17:-1.0:300.0:-1
ipc-2014-agile-cavediving-11_easy.pddl,TIMEOUT:301.217:-1.0:300.0:-1
ipc-2014-agile-cavediving-12_easy.pddl,TIMEOUT:301.16:-1.0:300.0:-1
ipc-2014-agile-cavediving-13_easy.pddl,TIMEOUT:301.209:-1.0:300.0:-1
ipc-2014-agile-cavediving-14_easy.pddl,TIMEOUT:301.19:-1.0:300.0:-1
ipc-2014-agile-cavediving-15_easy.pddl,TIMEOUT:301.156:-1.0:300.0:-1
ipc-2014-agile-cavediving-16_easy.pddl,TIMEOUT:301.123:-1.0:300.0:-1
ipc-2014-agile-cavediving-18A_easy.pddl,SAT:0.868867:131.0:300.0:-1
ipc-2014-agile-cavediving-18_easy.pddl,SAT:2.26665:133.0:300.0:-1
ipc-2014-agile-cavediving-20A_easy.pddl,SAT:0.657899:98.0:300.0:-1
ipc-2014-agile-childsnack-05-2.pddl,SAT:32.626:45.0:300.0:-1
ipc-2014-agile-childsnack-05.pddl,SAT:0.544916:47.0:300.0:-1
ipc-2014-agile-childsnack-06-2.pddl,SAT:55.5456:51.0:300.0:-1
ipc-2014-agile-childsnack-07-2.pddl,SAT:1.57176:57.0:300.0:-1
ipc-2014-agile-childsnack-08-2.pddl,TIMEOUT:301.287:-1.0:300.0:-1
ipc-2014-agile-childsnack-08.pddl,SAT:214.178:61.0:300.0:-1
ipc-2014-agile-childsnack-09-2.pddl,TIMEOUT:301.287:-1.0:300.0:-1
ipc-2014-agile-childsnack-09.pddl,SAT:9.65553:67.0:300.0:-1
ipc-2014-agile-childsnack-10-2.pddl,SAT:8.19175:72.0:300.0:-1
ipc-2014-agile-childsnack-10.pddl,SAT:6.08907:72.0:300.0:-1
ipc-2014-agile-childsnack-11-2.pddl,SAT:8.5657:77.0:300.0:-1
ipc-2014-agile-childsnack-11.pddl,TIMEOUT:301.291:-1.0:300.0:-1
ipc-2014-agile-childsnack-12.pddl,TIMEOUT:301.291:-1.0:300.0:-1
ipc-2014-agile-childsnack-13-2.pddl,TIMEOUT:301.312:-1.0:300.0:-1
ipc-2014-agile-childsnack-13.pddl,TIMEOUT:301.311:-1.0:300.0:-1
ipc-2014-agile-childsnack-14.pddl,TIMEOUT:301.24:-1.0:300.0:-1
ipc-2014-agile-childsnack-15-2.pddl,TIMEOUT:301.278:-1.0:300.0:-1
ipc-2014-agile-childsnack-16-2.pddl,TIMEOUT:301.233:-1.0:300.0:-1
ipc-2014-agile-childsnack-19-2.pddl,TIMEOUT:301.301:-1.0:300.0:-1
ipc-2014-agile-childsnack-19.pddl,TIMEOUT:301.367:-1.0:300.0:-1
ipc-2014-agile-citycar-p3-2-2-0-1.pddl,SAT:1.2808:110.0:300.0:-1
ipc-2014-agile-citycar-p3-3-2-0-1.pddl,SAT:2.07368:244.0:300.0:-1
ipc-2014-agile-citycar-p3-4-2-0-1.pddl,SAT:11.9062:271.0:300.0:-1
ipc-2014-agile-citycar-p3-5-2-0-1.pddl,SAT:9.08362:241.0:300.0:-1
ipc-2014-agile-citycar-p3-5-2-0-2.pddl,SAT:32.665:280.0:300.0:-1
ipc-2014-agile-citycar-p4-2-2-0-1.pddl,TIMEOUT:301.183:-1.0:300.0:-1
ipc-2014-agile-citycar-p4-2-3-0-1.pddl,TIMEOUT:301.201:-1.0:300.0:-1
ipc-2014-agile-citycar-p4-2-3-0-2.pddl,TIMEOUT:301.162:-1.0:300.0:-1
ipc-2014-agile-citycar-p4-3-2-0-1.pddl,SAT:282.425:230.0:300.0:-1
ipc-2014-agile-citycar-p4-3-2-0-2.pddl,TIMEOUT:301.305:-1.0:300.0:-1
ipc-2014-agile-citycar-p4-3-3-0-1.pddl,TIMEOUT:301.389:-1.0:300.0:-1
ipc-2014-agile-citycar-p4-3-3-0-2.pddl,TIMEOUT:301.111:-1.0:300.0:-1
ipc-2014-agile-citycar-p4-4-2-0-1.pddl,TIMEOUT:301.381:-1.0:300.0:-1
ipc-2014-agile-citycar-p4-4-2-0-2.pddl,TIMEOUT:301.301:-1.0:300.0:-1
ipc-2014-agile-citycar-p4-4-3-0-1.pddl,TIMEOUT:301.12:-1.0:300.0:-1
ipc-2014-agile-citycar-p4-4-3-0-2.pddl,TIMEOUT:301.179:-1.0:300.0:-1
ipc-2014-agile-citycar-p4-5-2-0-1.pddl,TIMEOUT:301.277:-1.0:300.0:-1
ipc-2014-agile-citycar-p4-5-2-0-2.pddl,TIMEOUT:301.143:-1.0:300.0:-1
ipc-2014-agile-citycar-p4-5-3-0-1.pddl,TIMEOUT:301.213:-1.0:300.0:-1
ipc-2014-agile-citycar-p4-5-3-0-2.pddl,TIMEOUT:301.156:-1.0:300.0:-1
ipc-2014-agile-floortile-p01-4-3-2.pddl,SAT:2.46163:101.0:300.0:-1
ipc-2014-agile-floortile-p01-5-4-2.pddl,TIMEOUT:301.2:-1.0:300.0:-1
ipc-2014-agile-floortile-p01-5-5-2.pddl,TIMEOUT:301.128:-1.0:300.0:-1
ipc-2014-agile-floortile-p01-6-4-2.pddl,TIMEOUT:301.172:-1.0:300.0:-1
ipc-2014-agile-floortile-p01-6-5-2.pddl,TIMEOUT:301.171:-1.0:300.0:-1
ipc-2014-agile-floortile-p01-6-5-3.pddl,TIMEOUT:301.226:-1.0:300.0:-1
ipc-2014-agile-floortile-p02-5-4-2.pddl,TIMEOUT:301.134:-1.0:300.0:-1
ipc-2014-agile-floortile-p02-6-4-2.pddl,TIMEOUT:301.194:-1.0:300.0:-1
ipc-2014-agile-floortile-p02-6-5-2.pddl,TIMEOUT:301.202:-1.0:300.0:-1
ipc-2014-agile-floortile-p02-6-5-3.pddl,TIMEOUT:301.124:-1.0:300.0:-1
ipc-2014-agile-floortile-p03-6-4-2.pddl,TIMEOUT:301.125:-1.0:300.0:-1
ipc-2014-agile-floortile-p03-6-5-2.pddl,TIMEOUT:301.175:-1.0:300.0:-1
ipc-2014-agile-floortile-p03-6-5-3.pddl,TIMEOUT:301.218:-1.0:300.0:-1
ipc-2014-agile-floortile-p04-5-4-2.pddl,TIMEOUT:301.164:-1.0:300.0:-1
ipc-2014-agile-floortile-p04-5-5-2.pddl,TIMEOUT:301.146:-1.0:300.0:-1
ipc-2014-agile-floortile-p04-6-5-2.pddl,TIMEOUT:301.139:-1.0:300.0:-1
ipc-2014-agile-floortile-p04-6-5-3.pddl,TIMEOUT:301.133:-1.0:300.0:-1
ipc-2014-agile-floortile-p05-4-3-2.pddl,SAT:0.272957:72.0:300.0:-1
ipc-2014-agile-floortile-p05-6-5-2.pddl,TIMEOUT:301.168:-1.0:300.0:-1
ipc-2014-agile-floortile-p05-6-5-3.pddl,TIMEOUT:301.159:-1.0:300.0:-1
ipc-2014-agile-ged-d-10-1.pddl,SAT:4.92725:39.0:300.0:-1
ipc-2014-agile-ged-d-10-2.pddl,SAT:5.54416:40.0:300.0:-1
ipc-2014-agile-ged-d-10-3.pddl,SAT:7.81081:41.0:300.0:-1
ipc-2014-agile-ged-d-10-4.pddl,SAT:3.89441:34.0:300.0:-1
ipc-2014-agile-ged-d-10-5.pddl,TIMEOUT:301.168:-1.0:300.0:-1
ipc-2014-agile-ged-d-10-6.pddl,TIMEOUT:301.095:-1.0:300.0:-1
ipc-2014-agile-ged-d-11-1.pddl,SAT:7.42287:45.0:300.0:-1
ipc-2014-agile-ged-d-11-3.pddl,TIMEOUT:301.088:-1.0:300.0:-1
ipc-2014-agile-ged-d-11-5.pddl,SAT:15.1037:55.0:300.0:-1
ipc-2014-agile-ged-d-11-6.pddl,TIMEOUT:301.083:-1.0:300.0:-1
ipc-2014-agile-ged-d-12-11.pddl,TIMEOUT:301.128:-1.0:300.0:-1
ipc-2014-agile-ged-d-12-2.pddl,TIMEOUT:301.093:-1.0:300.0:-1
ipc-2014-agile-ged-d-12-3.pddl,TIMEOUT:301.048:-1.0:300.0:-1
ipc-2014-agile-ged-d-12-5.pddl,TIMEOUT:301.092:-1.0:300.0:-1
ipc-2014-agile-ged-d-12-6.pddl,TIMEOUT:301.078:-1.0:300.0:-1
ipc-2014-agile-ged-d-12-7.pddl,SAT:32.0731:62.0:300.0:-1
ipc-2014-agile-ged-d-12-8.pddl,TIMEOUT:301.074:-1.0:300.0:-1
ipc-2014-agile-ged-d-12-9.pddl,TIMEOUT:301.063:-1.0:300.0:-1
ipc-2014-agile-ged-d-3-6.pddl,SAT:2.81257:32.0:300.0:-1
ipc-2014-agile-ged-d-9-5.pddl,SAT:213.294:31.0:300.0:-1
ipc-2014-agile-hiking-3-4-3.pddl,SAT:10.7264:17.0:300.0:-1
ipc-2014-agile-hiking-3-4-4.pddl,SAT:33.3409:23.0:300.0:-1
ipc-2014-agile-hiking-3-4-5.pddl,SAT:199.219:45.0:300.0:-1
ipc-2014-agile-hiking-3-4-6.pddl,TIMEOUT:301.061:-1.0:300.0:-1
ipc-2014-agile-hiking-3-4-7.pddl,TIMEOUT:301.093:-1.0:300.0:-1
ipc-2014-agile-hiking-3-4-8.pddl,TIMEOUT:301.086:-1.0:300.0:-1
ipc-2014-agile-hiking-3-4-9.pddl,TIMEOUT:301.045:-1.0:300.0:-1
ipc-2014-agile-hiking-4-5-3.pddl,SAT:120.514:20.0:300.0:-1
ipc-2014-agile-hiking-4-5-4.pddl,TIMEOUT:301.04:-1.0:300.0:-1
ipc-2014-agile-hiking-4-5-5.pddl,TIMEOUT:301.127:-1.0:300.0:-1
ipc-2014-agile-hiking-4-5-6.pddl,TIMEOUT:301.1:-1.0:300.0:-1
ipc-2014-agile-hiking-4-5-7.pddl,TIMEOUT:301.083:-1.0:300.0:-1
ipc-2014-agile-hiking-4-5-8.pddl,TIMEOUT:301.094:-1.0:300.0:-1
ipc-2014-agile-hiking-4-5-9.pddl,TIMEOUT:301.083:-1.0:300.0:-1
ipc-2014-agile-hiking-5-6-3.pddl,TIMEOUT:301.127:-1.0:300.0:-1
ipc-2014-agile-hiking-5-6-4.pddl,TIMEOUT:301.105:-1.0:300.0:-1
ipc-2014-agile-hiking-5-6-5.pddl,TIMEOUT:301.069:-1.0:300.0:-1
ipc-2014-agile-hiking-5-6-6.pddl,TIMEOUT:301.087:-1.0:300.0:-1
ipc-2014-agile-hiking-5-6-7.pddl,TIMEOUT:301.131:-1.0:300.0:-1
ipc-2014-agile-hiking-5-6-8.pddl,TIMEOUT:301.187:-1.0:300.0:-1
ipc-2014-agile-maintenance-1.3.060.180.5-000.pddl,SAT:3.55246:40.0:300.0:-1
ipc-2014-agile-maintenance-1.3.060.180.5-001.pddl,SAT:8.07377:44.0:300.0:-1
ipc-2014-agile-maintenance-1.3.060.180.5-002.pddl,SAT:3.63145:43.0:300.0:-1
ipc-2014-agile-maintenance-1.3.100.300.5-000.pddl,SAT:29.2036:68.0:300.0:-1
ipc-2014-agile-maintenance-1.3.100.300.5-001.pddl,SAT:30.2954:72.0:300.0:-1
ipc-2014-agile-maintenance-1.3.100.300.7-000.pddl,SAT:30.2164:56.0:300.0:-1
ipc-2014-agile-maintenance-1.3.100.300.7-001.pddl,SAT:29.5345:54.0:300.0:-1
ipc-2014-agile-maintenance-1.3.100.300.7-002.pddl,SAT:31.0733:56.0:300.0:-1
ipc-2014-agile-maintenance-1.3.150.500.6-001.pddl,SAT:5.73113:98.0:300.0:-1
ipc-2014-agile-maintenance-1.3.200.500.5-001.pddl,CRASHED:43.9523:1000000000.0:300.0:-1
ipc-2014-agile-maintenance-1.3.200.500.5-002.pddl,SAT:9.02163:127.0:300.0:-1
ipc-2014-agile-maintenance-1.3.200.700.7-000.pddl,CRASHED:3.3175:1000000000.0:300.0:-1
ipc-2014-agile-maintenance-1.3.200.700.7-001.pddl,CRASHED:3.3035:1000000000.0:300.0:-1
ipc-2014-agile-maintenance-1.3.200.700.7-002.pddl,CRASHED:3.3145:1000000000.0:300.0:-1
ipc-2014-agile-maintenance-1.3.200.900.5-000.pddl,CRASHED:3.10953:1000000000.0:300.0:-1
ipc-2014-agile-maintenance-1.3.200.900.5-001.pddl,CRASHED:3.05253:1000000000.0:300.0:-1
ipc-2014-agile-maintenance-1.3.200.900.5-002.pddl,CRASHED:3.04753:1000000000.0:300.0:-1
ipc-2014-agile-maintenance-1.3.200.900.8-000.pddl,CRASHED:3.2745:1000000000.0:300.0:-1
ipc-2014-agile-maintenance-1.3.200.900.8-001.pddl,CRASHED:3.2915:1000000000.0:300.0:-1
ipc-2014-agile-maintenance-1.3.200.900.8-002.pddl,CRASHED:3.39148:1000000000.0:300.0:-1
ipc-2014-agile-openstacks-p130_2.pddl,SAT:181.622:64.0:300.0:-1
ipc-2014-agile-openstacks-p130_3.pddl,SAT:255.968:108.0:300.0:-1
ipc-2014-agile-openstacks-p150_2.pddl,TIMEOUT:301.114:-1.0:300.0:-1
ipc-2014-agile-openstacks-p150_3.pddl,TIMEOUT:301.143:-1.0:300.0:-1
ipc-2014-agile-openstacks-p170_1.pddl,TIMEOUT:301.109:-1.0:300.0:-1
ipc-2014-agile-openstacks-p170_2.pddl,TIMEOUT:301.107:-1.0:300.0:-1
ipc-2014-agile-openstacks-p170_3.pddl,TIMEOUT:301.128:-1.0:300.0:-1
ipc-2014-agile-openstacks-p190_1.pddl,TIMEOUT:301.08:-1.0:300.0:-1
ipc-2014-agile-openstacks-p190_2.pddl,TIMEOUT:301.121:-1.0:300.0:-1
ipc-2014-agile-openstacks-p190_3.pddl,TIMEOUT:301.136:-1.0:300.0:-1
ipc-2014-agile-openstacks-p210_1.pddl,TIMEOUT:301.122:-1.0:300.0:-1
ipc-2014-agile-openstacks-p210_2.pddl,TIMEOUT:301.156:-1.0:300.0:-1
ipc-2014-agile-openstacks-p230_1.pddl,TIMEOUT:301.174:-1.0:300.0:-1
ipc-2014-agile-openstacks-p230_2.pddl,TIMEOUT:301.141:-1.0:300.0:-1
ipc-2014-agile-openstacks-p250_1.pddl,TIMEOUT:301.173:-1.0:300.0:-1
ipc-2014-agile-openstacks-p250_2.pddl,TIMEOUT:301.135:-1.0:300.0:-1
ipc-2014-agile-openstacks-p270_1.pddl,TIMEOUT:301.125:-1.0:300.0:-1
ipc-2014-agile-openstacks-p270_2.pddl,TIMEOUT:301.121:-1.0:300.0:-1
ipc-2014-agile-openstacks-p290_1.pddl,TIMEOUT:301.171:-1.0:300.0:-1
ipc-2014-agile-openstacks-p290_2.pddl,TIMEOUT:301.155:-1.0:300.0:-1
ipc-2014-agile-parking-28_2.pddl,SAT:164.505:96.0:300.0:-1
ipc-2014-agile-parking-28_3.pddl,SAT:151.421:90.0:300.0:-1
ipc-2014-agile-parking-30_1.pddl,SAT:78.956:58.0:300.0:-1
ipc-2014-agile-parking-30_2.pddl,SAT:228.716:98.0:300.0:-1
ipc-2014-agile-parking-30_3.pddl,SAT:173.068:96.0:300.0:-1
ipc-2014-agile-parking-32_1.pddl,TIMEOUT:301.102:-1.0:300.0:-1
ipc-2014-agile-parking-32_2.pddl,TIMEOUT:301.12:-1.0:300.0:-1
ipc-2014-agile-parking-32_3.pddl,TIMEOUT:301.127:-1.0:300.0:-1
ipc-2014-agile-parking-34_1.pddl,TIMEOUT:301.127:-1.0:300.0:-1
ipc-2014-agile-parking-34_2.pddl,TIMEOUT:301.125:-1.0:300.0:-1
ipc-2014-agile-parking-34_3.pddl,TIMEOUT:301.147:-1.0:300.0:-1
ipc-2014-agile-parking-36_1.pddl,TIMEOUT:301.127:-1.0:300.0:-1
ipc-2014-agile-parking-36_2.pddl,TIMEOUT:301.126:-1.0:300.0:-1
ipc-2014-agile-parking-36_3.pddl,TIMEOUT:301.165:-1.0:300.0:-1
ipc-2014-agile-parking-38_1.pddl,TIMEOUT:301.152:-1.0:300.0:-1
ipc-2014-agile-parking-38_2.pddl,TIMEOUT:301.173:-1.0:300.0:-1
ipc-2014-agile-parking-38_3.pddl,TIMEOUT:301.18:-1.0:300.0:-1
ipc-2014-agile-parking-40_1.pddl,TIMEOUT:301.144:-1.0:300.0:-1
ipc-2014-agile-parking-40_2.pddl,TIMEOUT:301.123:-1.0:300.0:-1
ipc-2014-agile-parking-40_3.pddl,TIMEOUT:301.159:-1.0:300.0:-1
ipc-2014-agile-tetris-020.pddl,SAT:107.538:55.0:300.0:-1
ipc-2014-agile-tetris-021.pddl,TIMEOUT:301.025:-1.0:300.0:-1
ipc-2014-agile-tetris-022.pddl,TIMEOUT:301.081:-1.0:300.0:-1
ipc-2014-agile-tetris-023.pddl,TIMEOUT:301.102:-1.0:300.0:-1
ipc-2014-agile-tetris-024.pddl,TIMEOUT:301.097:-1.0:300.0:-1
ipc-2014-agile-tetris-025.pddl,TIMEOUT:301.028:-1.0:300.0:-1
ipc-2014-agile-tetris-026.pddl,TIMEOUT:301.041:-1.0:300.0:-1
ipc-2014-agile-tetris-027.pddl,TIMEOUT:301.034:-1.0:300.0:-1
ipc-2014-agile-tetris-028.pddl,TIMEOUT:301.107:-1.0:300.0:-1
ipc-2014-agile-tetris-029.pddl,TIMEOUT:301.095:-1.0:300.0:-1
ipc-2014-agile-tetris-031.pddl,TIMEOUT:301.019:-1.0:300.0:-1
ipc-2014-agile-tetris-032.pddl,TIMEOUT:301.081:-1.0:300.0:-1
ipc-2014-agile-tetris-033.pddl,TIMEOUT:301.064:-1.0:300.0:-1
ipc-2014-agile-tetris-034.pddl,TIMEOUT:301.057:-1.0:300.0:-1
ipc-2014-agile-tetris-035.pddl,TIMEOUT:301.122:-1.0:300.0:-1
ipc-2014-agile-tetris-036.pddl,TIMEOUT:301.106:-1.0:300.0:-1
ipc-2014-agile-tetris-037.pddl,TIMEOUT:301.04:-1.0:300.0:-1
ipc-2014-agile-tetris-038.pddl,TIMEOUT:301.091:-1.0:300.0:-1
ipc-2014-agile-tetris-039.pddl,TIMEOUT:301.122:-1.0:300.0:-1
ipc-2014-agile-tetris-040.pddl,TIMEOUT:301.029:-1.0:300.0:-1
ipc-2014-agile-thoughtful-bootstrap-typed-01.pddl,SAT:0.111982:29.0:300.0:-1
ipc-2014-agile-thoughtful-bootstrap-typed-02.pddl,SAT:0.104983:31.0:300.0:-1
ipc-2014-agile-thoughtful-bootstrap-typed-03.pddl,SAT:0.118981:34.0:300.0:-1
ipc-2014-agile-thoughtful-bootstrap-typed-04.pddl,SAT:0.114982:32.0:300.0:-1
ipc-2014-agile-thoughtful-bootstrap-typed-05.pddl,SAT:0.132979:35.0:300.0:-1
ipc-2014-agile-thoughtful-p11_6_53-typed.pddl,SAT:4.84126:114.0:300.0:-1
ipc-2014-agile-thoughtful-p11_6_59-typed.pddl,TIMEOUT:301.114:-1.0:300.0:-1
ipc-2014-agile-thoughtful-p11_6_62-typed.pddl,TIMEOUT:301.164:-1.0:300.0:-1
ipc-2014-agile-thoughtful-p13_7_78-typed.pddl,SAT:9.61454:149.0:300.0:-1
ipc-2014-agile-thoughtful-p13_7_79-typed.pddl,SAT:6.02708:123.0:300.0:-1
ipc-2014-agile-thoughtful-p13_7_86-typed.pddl,SAT:6.27804:143.0:300.0:-1
ipc-2014-agile-thoughtful-target-typed-20.pddl,SAT:8.32173:126.0:300.0:-1
ipc-2014-agile-thoughtful-target-typed-21.pddl,TIMEOUT:301.172:-1.0:300.0:-1
ipc-2014-agile-thoughtful-target-typed-22.pddl,SAT:10.9843:154.0:300.0:-1
ipc-2014-agile-thoughtful-target-typed-23.pddl,SAT:7.53585:141.0:300.0:-1
ipc-2014-agile-thoughtful-target-typed-24.pddl,SAT:10.2734:153.0:300.0:-1
ipc-2014-agile-thoughtful-target-typed-25.pddl,SAT:22.0966:146.0:300.0:-1
ipc-2014-agile-thoughtful-target-typed-26.pddl,TIMEOUT:301.116:-1.0:300.0:-1
ipc-2014-agile-thoughtful-target-typed-27.pddl,SAT:14.7018:140.0:300.0:-1
ipc-2014-agile-thoughtful-target-typed-28.pddl,SAT:20.8578:137.0:300.0:-1
ipc-2014-agile-transport-01.pddl,SAT:94.1717:3106.0:300.0:-1
ipc-2014-agile-transport-02.pddl,SAT:210.848:3526.0:300.0:-1
ipc-2014-agile-transport-03.pddl,SAT:126.56:2949.0:300.0:-1
ipc-2014-agile-transport-04.pddl,TIMEOUT:301.129:-1.0:300.0:-1
ipc-2014-agile-transport-05.pddl,TIMEOUT:301.191:-1.0:300.0:-1
ipc-2014-agile-transport-06.pddl,TIMEOUT:301.126:-1.0:300.0:-1
ipc-2014-agile-transport-07.pddl,TIMEOUT:301.205:-1.0:300.0:-1
ipc-2014-agile-transport-08.pddl,TIMEOUT:301.23:-1.0:300.0:-1
ipc-2014-agile-transport-09.pddl,TIMEOUT:301.214:-1.0:300.0:-1
ipc-2014-agile-transport-10.pddl,TIMEOUT:301.127:-1.0:300.0:-1
ipc-2014-agile-transport-11.pddl,SAT:289.429:2366.0:300.0:-1
ipc-2014-agile-transport-12.pddl,SAT:299.571:3603.0:300.0:-1
ipc-2014-agile-transport-13.pddl,SAT:66.014:2762.0:300.0:-1
ipc-2014-agile-transport-14.pddl,TIMEOUT:301.126:-1.0:300.0:-1
ipc-2014-agile-transport-15.pddl,TIMEOUT:301.192:-1.0:300.0:-1
ipc-2014-agile-transport-16.pddl,TIMEOUT:301.186:-1.0:300.0:-1
ipc-2014-agile-transport-17.pddl,TIMEOUT:301.251:-1.0:300.0:-1
ipc-2014-agile-transport-18.pddl,TIMEOUT:301.196:-1.0:300.0:-1
ipc-2014-agile-transport-19.pddl,TIMEOUT:301.198:-1.0:300.0:-1
ipc-2014-agile-transport-20.pddl,TIMEOUT:301.237:-1.0:300.0:-1
ipc-2014-agile-visitall-30.pddl,SAT:9.41757:899.0:300.0:-1
ipc-2014-agile-visitall-31.pddl,SAT:11.1033:960.0:300.0:-1
ipc-2014-agile-visitall-32.pddl,SAT:12.4211:1023.0:300.0:-1
ipc-2014-agile-visitall-33.pddl,SAT:15.4926:1088.0:300.0:-1
ipc-2014-agile-visitall-50.pddl,SAT:138.011:2499.0:300.0:-1
ipc-2014-agile-visitall-51.pddl,SAT:151.953:2600.0:300.0:-1
ipc-2014-agile-visitall-52.pddl,SAT:164.357:2703.0:300.0:-1
ipc-2014-agile-visitall-53.pddl,SAT:185.2:2808.0:300.0:-1
ipc-2014-agile-visitall-54.pddl,SAT:204.266:2915.0:300.0:-1
ipc-2014-agile-visitall-55.pddl,SAT:225.649:3024.0:300.0:-1
ipc-2014-agile-visitall-56.pddl,SAT:255.834:3135.0:300.0:-1
ipc-2014-agile-visitall-57.pddl,SAT:284.688:3248.0:300.0:-1
ipc-2014-agile-visitall-58.pddl,TIMEOUT:301.152:-1.0:300.0:-1
ipc-2014-agile-visitall-59.pddl,TIMEOUT:301.136:-1.0:300.0:-1
ipc-2014-agile-visitall-60.pddl,TIMEOUT:301.158:-1.0:300.0:-1
ipc-2014-agile-visitall-61.pddl,TIMEOUT:301.162:-1.0:300.0:-1
ipc-2014-agile-visitall-62.pddl,TIMEOUT:301.153:-1.0:300.0:-1
ipc-2014-agile-visitall-63.pddl,TIMEOUT:301.175:-1.0:300.0:-1
ipc-2014-agile-visitall-64.pddl,TIMEOUT:301.152:-1.0:300.0:-1
ipc-2014-agile-visitall-65.pddl,TIMEOUT:301.121:-1.0:300.0:-1
