instance,ipc-2014-optimal-symba-1
ipc-2014-optimal-barman-p433.1.pddl,TIMEOUT:1801.08:-1.0:1800.0:-1
ipc-2014-optimal-barman-p433.2.pddl,TIMEOUT:1801.11:-1.0:1800.0:-1
ipc-2014-optimal-barman-p433.3.pddl,TIMEOUT:1801.12:-1.0:1800.0:-1
ipc-2014-optimal-barman-p435.1.pddl,SAT:29.0356:49.0:1800.0:-1
ipc-2014-optimal-barman-p435.2.pddl,CRASHED:43.8303:1000000000.0:1800.0:-1
ipc-2014-optimal-barman-p435.3.pddl,CRASHED:36.9334:49.0:1800.0:-1
ipc-2014-optimal-barman-p443.1.pddl,TIMEOUT:1801.05:-1.0:1800.0:-1
ipc-2014-optimal-barman-p443.2.pddl,TIMEOUT:1801.13:-1.0:1800.0:-1
ipc-2014-optimal-barman-p443.3.pddl,TIMEOUT:1801.08:-1.0:1800.0:-1
ipc-2014-optimal-barman-p536.1.pddl,TIMEOUT:1801.09:-1.0:1800.0:-1
ipc-2014-optimal-barman-p536.2.pddl,TIMEOUT:1801.0:-1.0:1800.0:-1
ipc-2014-optimal-barman-p536.3.pddl,CRASHED:62.5345:1000000000.0:1800.0:-1
ipc-2014-optimal-barman-p638.1.pddl,CRASHED:24.9092:1000000000.0:1800.0:-1
ipc-2014-optimal-barman-p638.2.pddl,TIMEOUT:1801.03:-1.0:1800.0:-1
ipc-2014-optimal-barman-p638.3.pddl,TIMEOUT:1801.07:-1.0:1800.0:-1
ipc-2014-optimal-barman-p739.1.pddl,CRASHED:23.5354:1000000000.0:1800.0:-1
ipc-2014-optimal-barman-p739.2.pddl,CRASHED:37.0084:1000000000.0:1800.0:-1
ipc-2014-optimal-barman-p739.3.pddl,TIMEOUT:1801.02:-1.0:1800.0:-1
ipc-2014-optimal-barman-p839.1.pddl,TIMEOUT:1801.06:-1.0:1800.0:-1
ipc-2014-optimal-barman-p839.2.pddl,CRASHED:65.1351:1000000000.0:1800.0:-1
ipc-2014-optimal-cavediving-01.pddl,TIMEOUT:1801.1:-1.0:1800.0:-1
ipc-2014-optimal-cavediving-01_easy.pddl,TIMEOUT:1801.08:-1.0:1800.0:-1
ipc-2014-optimal-cavediving-02_easy.pddl,TIMEOUT:1801.1:-1.0:1800.0:-1
ipc-2014-optimal-cavediving-03_easy.pddl,TIMEOUT:1801.07:-1.0:1800.0:-1
ipc-2014-optimal-cavediving-04_easy.pddl,TIMEOUT:1801.14:-1.0:1800.0:-1
ipc-2014-optimal-cavediving-05A_easy.pddl,TIMEOUT:1801.11:-1.0:1800.0:-1
ipc-2014-optimal-cavediving-06A_easy.pddl,TIMEOUT:1801.1:-1.0:1800.0:-1
ipc-2014-optimal-cavediving-07_easy.pddl,SAT:3.9614:131.0:1800.0:-1
ipc-2014-optimal-cavediving-08_easy.pddl,TIMEOUT:1801.13:-1.0:1800.0:-1
ipc-2014-optimal-cavediving-09_easy.pddl,TIMEOUT:1801.13:-1.0:1800.0:-1
ipc-2014-optimal-cavediving-10_easy.pddl,TIMEOUT:1801.1:-1.0:1800.0:-1
ipc-2014-optimal-cavediving-11_easy.pddl,TIMEOUT:1801.14:-1.0:1800.0:-1
ipc-2014-optimal-cavediving-12_easy.pddl,TIMEOUT:1801.08:-1.0:1800.0:-1
ipc-2014-optimal-cavediving-13_easy.pddl,TIMEOUT:1801.08:-1.0:1800.0:-1
ipc-2014-optimal-cavediving-14_easy.pddl,TIMEOUT:1801.12:-1.0:1800.0:-1
ipc-2014-optimal-cavediving-15_easy.pddl,TIMEOUT:1801.12:-1.0:1800.0:-1
ipc-2014-optimal-cavediving-16_easy.pddl,TIMEOUT:1801.15:-1.0:1800.0:-1
ipc-2014-optimal-cavediving-18A_easy.pddl,SAT:4.82727:131.0:1800.0:-1
ipc-2014-optimal-cavediving-18_easy.pddl,SAT:10.7044:131.0:1800.0:-1
ipc-2014-optimal-cavediving-20A_easy.pddl,TIMEOUT:1801.08:-1.0:1800.0:-1
ipc-2014-optimal-childsnack-01-2.pddl,TIMEOUT:1801.01:-1.0:1800.0:-1
ipc-2014-optimal-childsnack-01.pddl,TIMEOUT:1801.02:-1.0:1800.0:-1
ipc-2014-optimal-childsnack-02-2.pddl,TIMEOUT:1801.09:-1.0:1800.0:-1
ipc-2014-optimal-childsnack-02.pddl,CRASHED:45.4771:1000000000.0:1800.0:-1
ipc-2014-optimal-childsnack-03-2.pddl,TIMEOUT:1801.05:-1.0:1800.0:-1
ipc-2014-optimal-childsnack-03.pddl,TIMEOUT:1801.05:-1.0:1800.0:-1
ipc-2014-optimal-childsnack-04-2.pddl,TIMEOUT:1801.03:-1.0:1800.0:-1
ipc-2014-optimal-childsnack-04.pddl,CRASHED:83.9392:1000000000.0:1800.0:-1
ipc-2014-optimal-childsnack-05-2.pddl,TIMEOUT:1801.03:-1.0:1800.0:-1
ipc-2014-optimal-childsnack-05.pddl,CRASHED:19.439:1000000000.0:1800.0:-1
ipc-2014-optimal-childsnack-06-2.pddl,CRASHED:89.3624:1000000000.0:1800.0:-1
ipc-2014-optimal-childsnack-06.pddl,CRASHED:72.7289:1000000000.0:1800.0:-1
ipc-2014-optimal-childsnack-07-2.pddl,TIMEOUT:1801.09:-1.0:1800.0:-1
ipc-2014-optimal-childsnack-07.pddl,TIMEOUT:1801.06:-1.0:1800.0:-1
ipc-2014-optimal-childsnack-08-2.pddl,CRASHED:86.7018:1000000000.0:1800.0:-1
ipc-2014-optimal-childsnack-08.pddl,CRASHED:83.6173:1000000000.0:1800.0:-1
ipc-2014-optimal-childsnack-09-2.pddl,TIMEOUT:1801.03:-1.0:1800.0:-1
ipc-2014-optimal-childsnack-09.pddl,TIMEOUT:1801.03:-1.0:1800.0:-1
ipc-2014-optimal-childsnack-10-2.pddl,TIMEOUT:1801.08:-1.0:1800.0:-1
ipc-2014-optimal-childsnack-10.pddl,TIMEOUT:1801.01:-1.0:1800.0:-1
ipc-2014-optimal-citycar-p2-2-2-1-2.pddl,SAT:2.70659:46.0:1800.0:-1
ipc-2014-optimal-citycar-p2-2-2-2-1.pddl,SAT:3.22751:64.0:1800.0:-1
ipc-2014-optimal-citycar-p2-2-3-1-2.pddl,SAT:4.95725:50.0:1800.0:-1
ipc-2014-optimal-citycar-p2-2-3-2-1.pddl,SAT:4.33534:48.0:1800.0:-1
ipc-2014-optimal-citycar-p2-2-3-2-2.pddl,SAT:4.42433:50.0:1800.0:-1
ipc-2014-optimal-citycar-p2-2-4-1-2.pddl,SAT:11.0003:52.0:1800.0:-1
ipc-2014-optimal-citycar-p2-2-4-2-1.pddl,SAT:9.34258:52.0:1800.0:-1
ipc-2014-optimal-citycar-p2-2-5-2-2.pddl,SAT:155.974:76.0:1800.0:-1
ipc-2014-optimal-citycar-p2-2-6-1-1.pddl,CRASHED:64.9251:1000000000.0:1800.0:-1
ipc-2014-optimal-citycar-p2-2-6-2-2.pddl,SAT:140.713:58.0:1800.0:-1
ipc-2014-optimal-citycar-p2-3-2-3-1.pddl,SAT:9.47756:68.0:1800.0:-1
ipc-2014-optimal-citycar-p2-3-3-3-1.pddl,SAT:40.9648:78.0:1800.0:-1
ipc-2014-optimal-citycar-p2-3-4-3-1.pddl,TIMEOUT:1801.06:-1.0:1800.0:-1
ipc-2014-optimal-citycar-p2-3-6-3-2.pddl,TIMEOUT:1801.01:-1.0:1800.0:-1
ipc-2014-optimal-citycar-p3-3-2-2-1.pddl,CRASHED:99.0939:70.0:1800.0:-1
ipc-2014-optimal-citycar-p3-3-2-2-2.pddl,CRASHED:174.446:1000000000.0:1800.0:-1
ipc-2014-optimal-citycar-p3-3-2-3-1.pddl,SAT:47.1938:48.0:1800.0:-1
ipc-2014-optimal-citycar-p3-3-2-3-2.pddl,SAT:78.596:70.0:1800.0:-1
ipc-2014-optimal-citycar-p3-3-3-3-1.pddl,TIMEOUT:1801.09:-1.0:1800.0:-1
ipc-2014-optimal-citycar-p3-3-3-3-2.pddl,CRASHED:271.503:1000000000.0:1800.0:-1
ipc-2014-optimal-floortile-p01-4-3-2.pddl,SAT:1.68074:56.0:1800.0:-1
ipc-2014-optimal-floortile-p01-4-4-2.pddl,SAT:5.64414:68.0:1800.0:-1
ipc-2014-optimal-floortile-p01-5-3-2.pddl,SAT:2.47662:63.0:1800.0:-1
ipc-2014-optimal-floortile-p01-5-4-2.pddl,SAT:11.3203:91.0:1800.0:-1
ipc-2014-optimal-floortile-p01-5-5-2.pddl,SAT:61.2687:111.0:1800.0:-1
ipc-2014-optimal-floortile-p01-6-4-2.pddl,SAT:23.7374:104.0:1800.0:-1
ipc-2014-optimal-floortile-p01-6-5-2.pddl,TIMEOUT:1801.01:-1.0:1800.0:-1
ipc-2014-optimal-floortile-p02-4-4-2.pddl,SAT:5.9441:75.0:1800.0:-1
ipc-2014-optimal-floortile-p02-5-3-2.pddl,SAT:2.47262:65.0:1800.0:-1
ipc-2014-optimal-floortile-p02-5-4-2.pddl,SAT:12.0222:98.0:1800.0:-1
ipc-2014-optimal-floortile-p02-5-5-2.pddl,SAT:59.5469:106.0:1800.0:-1
ipc-2014-optimal-floortile-p02-6-4-2.pddl,SAT:24.6782:109.0:1800.0:-1
ipc-2014-optimal-floortile-p02-6-5-2.pddl,TIMEOUT:1801.02:-1.0:1800.0:-1
ipc-2014-optimal-floortile-p03-4-3-2.pddl,SAT:1.72174:56.0:1800.0:-1
ipc-2014-optimal-floortile-p03-4-4-2.pddl,SAT:5.9081:72.0:1800.0:-1
ipc-2014-optimal-floortile-p03-5-3-2.pddl,SAT:2.49162:65.0:1800.0:-1
ipc-2014-optimal-floortile-p03-5-4-2.pddl,SAT:10.9173:83.0:1800.0:-1
ipc-2014-optimal-floortile-p03-5-5-2.pddl,SAT:57.1223:100.0:1800.0:-1
ipc-2014-optimal-floortile-p03-6-4-2.pddl,SAT:25.5611:116.0:1800.0:-1
ipc-2014-optimal-floortile-p03-6-5-2.pddl,TIMEOUT:1801.04:-1.0:1800.0:-1
ipc-2014-optimal-ged-d-1-2.pddl,SAT:1.17182:1.0:1800.0:-1
ipc-2014-optimal-ged-d-1-3.pddl,SAT:2.71659:4.0:1800.0:-1
ipc-2014-optimal-ged-d-1-4.pddl,SAT:1.09683:1.0:1800.0:-1
ipc-2014-optimal-ged-d-1-8.pddl,SAT:4.77027:4.0:1800.0:-1
ipc-2014-optimal-ged-d-2-1.pddl,SAT:1.15182:1.0:1800.0:-1
ipc-2014-optimal-ged-d-2-3.pddl,SAT:1.57576:3.0:1800.0:-1
ipc-2014-optimal-ged-d-2-4.pddl,SAT:1.27881:2.0:1800.0:-1
ipc-2014-optimal-ged-d-2-8.pddl,TIMEOUT:1801.06:-1.0:1800.0:-1
ipc-2014-optimal-ged-d-3-1.pddl,SAT:2.70059:4.0:1800.0:-1
ipc-2014-optimal-ged-d-3-2.pddl,SAT:1.60976:3.0:1800.0:-1
ipc-2014-optimal-ged-d-3-4.pddl,SAT:10.6954:5.0:1800.0:-1
ipc-2014-optimal-ged-d-4-2.pddl,SAT:1.2808:2.0:1800.0:-1
ipc-2014-optimal-ged-d-4-3.pddl,SAT:11.0003:5.0:1800.0:-1
ipc-2014-optimal-ged-d-4-8.pddl,CRASHED:53.2809:1000000000.0:1800.0:-1
ipc-2014-optimal-ged-d-7-5.pddl,SAT:4.66829:4.0:1800.0:-1
ipc-2014-optimal-ged-d-7-6.pddl,SAT:3.2945:4.0:1800.0:-1
ipc-2014-optimal-ged-d-8-1.pddl,SAT:4.81027:4.0:1800.0:-1
ipc-2014-optimal-ged-d-8-2.pddl,TIMEOUT:1801.04:-1.0:1800.0:-1
ipc-2014-optimal-ged-d-8-4.pddl,TIMEOUT:1801.03:-1.0:1800.0:-1
ipc-2014-optimal-ged-d-8-9.pddl,TIMEOUT:1801.07:-1.0:1800.0:-1
ipc-2014-optimal-hiking-1-2-3.pddl,SAT:0.58891:11.0:1800.0:-1
ipc-2014-optimal-hiking-1-2-4.pddl,SAT:0.634903:17.0:1800.0:-1
ipc-2014-optimal-hiking-1-2-5.pddl,SAT:0.798878:25.0:1800.0:-1
ipc-2014-optimal-hiking-1-2-7.pddl,SAT:1.41678:38.0:1800.0:-1
ipc-2014-optimal-hiking-1-2-8.pddl,SAT:1.69874:45.0:1800.0:-1
ipc-2014-optimal-hiking-2-2-3.pddl,SAT:1.24581:10.0:1800.0:-1
ipc-2014-optimal-hiking-2-2-4.pddl,SAT:2.6226:16.0:1800.0:-1
ipc-2014-optimal-hiking-2-2-5.pddl,SAT:16.7345:22.0:1800.0:-1
ipc-2014-optimal-hiking-2-2-6.pddl,SAT:104.734:30.0:1800.0:-1
ipc-2014-optimal-hiking-2-2-7.pddl,TIMEOUT:1801.06:-1.0:1800.0:-1
ipc-2014-optimal-hiking-2-2-8.pddl,TIMEOUT:1801.09:-1.0:1800.0:-1
ipc-2014-optimal-hiking-2-3-4.pddl,SAT:6.27205:17.0:1800.0:-1
ipc-2014-optimal-hiking-2-3-5.pddl,SAT:103.304:24.0:1800.0:-1
ipc-2014-optimal-hiking-2-3-6.pddl,TIMEOUT:1801.02:-1.0:1800.0:-1
ipc-2014-optimal-hiking-2-3-7.pddl,TIMEOUT:1801.0:-1.0:1800.0:-1
ipc-2014-optimal-hiking-2-4-3.pddl,SAT:1.78173:10.0:1800.0:-1
ipc-2014-optimal-hiking-2-4-4.pddl,SAT:6.84796:17.0:1800.0:-1
ipc-2014-optimal-hiking-2-4-5.pddl,CRASHED:126.538:23.0:1800.0:-1
ipc-2014-optimal-hiking-2-4-6.pddl,TIMEOUT:1801.06:-1.0:1800.0:-1
ipc-2014-optimal-hiking-2-4-7.pddl,CRASHED:71.3611:1000000000.0:1800.0:-1
ipc-2014-optimal-maintenance-1.3.010.010.1-001.pddl,TIMEOUT:1801.1:-1.0:1800.0:-1
ipc-2014-optimal-maintenance-1.3.010.010.1-002.pddl,TIMEOUT:1801.17:-1.0:1800.0:-1
ipc-2014-optimal-maintenance-1.3.010.010.2-000.pddl,SAT:0.91286:4.0:1800.0:-1
ipc-2014-optimal-maintenance-1.3.010.010.2-001.pddl,TIMEOUT:1801.11:-1.0:1800.0:-1
ipc-2014-optimal-maintenance-1.3.010.010.2-002.pddl,SAT:0.940856:6.0:1800.0:-1
ipc-2014-optimal-maintenance-1.3.015.020.1-000.pddl,TIMEOUT:1801.11:-1.0:1800.0:-1
ipc-2014-optimal-maintenance-1.3.015.020.1-001.pddl,TIMEOUT:1801.14:-1.0:1800.0:-1
ipc-2014-optimal-maintenance-1.3.015.020.1-002.pddl,TIMEOUT:1801.16:-1.0:1800.0:-1
ipc-2014-optimal-maintenance-1.3.015.020.2-000.pddl,CRASHED:1.37879:1000000000.0:1800.0:-1
ipc-2014-optimal-maintenance-1.3.015.020.2-001.pddl,SAT:1.3008:11.0:1800.0:-1
ipc-2014-optimal-maintenance-1.3.015.020.2-002.pddl,SAT:1.18882:9.0:1800.0:-1
ipc-2014-optimal-maintenance-1.3.025.050.1-000.pddl,TIMEOUT:1801.08:-1.0:1800.0:-1
ipc-2014-optimal-maintenance-1.3.025.050.1-001.pddl,TIMEOUT:1801.08:-1.0:1800.0:-1
ipc-2014-optimal-maintenance-1.3.025.050.1-002.pddl,TIMEOUT:1801.11:-1.0:1800.0:-1
ipc-2014-optimal-maintenance-1.3.025.100.1-000.pddl,TIMEOUT:1801.16:-1.0:1800.0:-1
ipc-2014-optimal-maintenance-1.3.025.100.1-001.pddl,TIMEOUT:1801.15:-1.0:1800.0:-1
ipc-2014-optimal-maintenance-1.3.025.100.1-002.pddl,TIMEOUT:1801.15:-1.0:1800.0:-1
ipc-2014-optimal-maintenance-1.3.025.100.2-000.pddl,TIMEOUT:1801.07:-1.0:1800.0:-1
ipc-2014-optimal-maintenance-1.3.025.100.2-001.pddl,TIMEOUT:1801.08:-1.0:1800.0:-1
ipc-2014-optimal-maintenance-1.3.025.100.2-002.pddl,TIMEOUT:1801.17:-1.0:1800.0:-1
ipc-2014-optimal-openstacks-p20_1.pddl,SAT:2.31665:3.0:1800.0:-1
ipc-2014-optimal-openstacks-p20_2.pddl,SAT:2.56361:4.0:1800.0:-1
ipc-2014-optimal-openstacks-p20_3.pddl,SAT:2.5966:6.0:1800.0:-1
ipc-2014-optimal-openstacks-p25_1.pddl,SAT:4.08438:4.0:1800.0:-1
ipc-2014-optimal-openstacks-p25_3.pddl,SAT:4.84526:9.0:1800.0:-1
ipc-2014-optimal-openstacks-p30_1.pddl,SAT:5.56315:4.0:1800.0:-1
ipc-2014-optimal-openstacks-p30_2.pddl,SAT:6.26005:4.0:1800.0:-1
ipc-2014-optimal-openstacks-p30_3.pddl,SAT:13.404:12.0:1800.0:-1
ipc-2014-optimal-openstacks-p35_1.pddl,SAT:8.80266:4.0:1800.0:-1
ipc-2014-optimal-openstacks-p35_2.pddl,SAT:11.0063:5.0:1800.0:-1
ipc-2014-optimal-openstacks-p35_3.pddl,CRASHED:49.1495:14.0:1800.0:-1
ipc-2014-optimal-openstacks-p40_1.pddl,SAT:14.7238:3.0:1800.0:-1
ipc-2014-optimal-openstacks-p40_2.pddl,SAT:15.7356:4.0:1800.0:-1
ipc-2014-optimal-openstacks-p40_3.pddl,CRASHED:84.7641:15.0:1800.0:-1
ipc-2014-optimal-openstacks-p45_1.pddl,SAT:19.3111:4.0:1800.0:-1
ipc-2014-optimal-openstacks-p45_2.pddl,SAT:28.5657:5.0:1800.0:-1
ipc-2014-optimal-openstacks-p45_3.pddl,TIMEOUT:1801.0:-1.0:1800.0:-1
ipc-2014-optimal-openstacks-p50_1.pddl,SAT:36.5704:4.0:1800.0:-1
ipc-2014-optimal-openstacks-p50_2.pddl,CRASHED:51.7741:5.0:1800.0:-1
ipc-2014-optimal-openstacks-p50_3.pddl,TIMEOUT:1801.02:-1.0:1800.0:-1
ipc-2014-optimal-parking-12_7-01.pddl,TIMEOUT:1801.04:-1.0:1800.0:-1
ipc-2014-optimal-parking-12_7-02.pddl,CRASHED:161.934:1000000000.0:1800.0:-1
ipc-2014-optimal-parking-12_7-03.pddl,TIMEOUT:1801.0:-1.0:1800.0:-1
ipc-2014-optimal-parking-12_7-04.pddl,CRASHED:173.995:1000000000.0:1800.0:-1
ipc-2014-optimal-parking-14_8-01.pddl,TIMEOUT:1801.0:-1.0:1800.0:-1
ipc-2014-optimal-parking-14_8-02.pddl,TIMEOUT:1801.07:-1.0:1800.0:-1
ipc-2014-optimal-parking-14_8-03.pddl,TIMEOUT:1801.05:-1.0:1800.0:-1
ipc-2014-optimal-parking-14_8-04.pddl,TIMEOUT:1801.02:-1.0:1800.0:-1
ipc-2014-optimal-parking-16_9-01.pddl,TIMEOUT:1801.01:-1.0:1800.0:-1
ipc-2014-optimal-parking-16_9-02.pddl,CRASHED:484.06:1000000000.0:1800.0:-1
ipc-2014-optimal-parking-16_9-03.pddl,CRASHED:505.027:1000000000.0:1800.0:-1
ipc-2014-optimal-parking-16_9-04.pddl,TIMEOUT:1801.04:-1.0:1800.0:-1
ipc-2014-optimal-parking-18_10-01.pddl,TIMEOUT:1801.09:-1.0:1800.0:-1
ipc-2014-optimal-parking-18_10-02.pddl,TIMEOUT:1801.02:-1.0:1800.0:-1
ipc-2014-optimal-parking-18_10-03.pddl,CRASHED:477.635:1000000000.0:1800.0:-1
ipc-2014-optimal-parking-18_10-04.pddl,TIMEOUT:1801.05:-1.0:1800.0:-1
ipc-2014-optimal-parking-20_11-01.pddl,TIMEOUT:1801.02:-1.0:1800.0:-1
ipc-2014-optimal-parking-20_11-02.pddl,CRASHED:448.809:1000000000.0:1800.0:-1
ipc-2014-optimal-parking-20_11-03.pddl,TIMEOUT:1801.02:-1.0:1800.0:-1
ipc-2014-optimal-parking-20_11-04.pddl,TIMEOUT:1801.06:-1.0:1800.0:-1
ipc-2014-optimal-tetris-01-10.pddl,TIMEOUT:1801.0:-1.0:1800.0:-1
ipc-2014-optimal-tetris-01-04.pddl,CRASHED:8.70168:1000000000.0:1800.0:-1
ipc-2014-optimal-tetris-01-06.pddl,CRASHED:70.4653:1000000000.0:1800.0:-1
ipc-2014-optimal-tetris-01-08.pddl,SAT:19.82:36.0:1800.0:-1
ipc-2014-optimal-tetris-02-10.pddl,CRASHED:91.0172:1000000000.0:1800.0:-1
ipc-2014-optimal-tetris-02-04.pddl,SAT:3.61645:10.0:1800.0:-1
ipc-2014-optimal-tetris-02-06.pddl,SAT:28.6456:30.0:1800.0:-1
ipc-2014-optimal-tetris-02-08.pddl,CRASHED:71.2532:1000000000.0:1800.0:-1
ipc-2014-optimal-tetris-03-10.pddl,TIMEOUT:1801.03:-1.0:1800.0:-1
ipc-2014-optimal-tetris-03-04.pddl,SAT:2.89156:11.0:1800.0:-1
ipc-2014-optimal-tetris-03-06.pddl,CRASHED:63.9583:1000000000.0:1800.0:-1
ipc-2014-optimal-tetris-03-08.pddl,CRASHED:149.581:48.0:1800.0:-1
ipc-2014-optimal-tetris-04-10.pddl,TIMEOUT:1801.05:-1.0:1800.0:-1
ipc-2014-optimal-tetris-04-04.pddl,CRASHED:5.78112:1000000000.0:1800.0:-1
ipc-2014-optimal-tetris-04-06.pddl,CRASHED:79.5409:1000000000.0:1800.0:-1
ipc-2014-optimal-tetris-04-08.pddl,TIMEOUT:1801.07:-1.0:1800.0:-1
ipc-2014-optimal-tetris-05-10.pddl,CRASHED:177.47:1000000000.0:1800.0:-1
ipc-2014-optimal-tetris-05-04.pddl,CRASHED:5.87811:1000000000.0:1800.0:-1
ipc-2014-optimal-tetris-05-06.pddl,SAT:11.7352:19.0:1800.0:-1
ipc-2014-optimal-tetris-05-08.pddl,TIMEOUT:1801.07:-1.0:1800.0:-1
ipc-2014-optimal-tidybot-01.pddl,TIMEOUT:1801.02:-1.0:1800.0:-1
ipc-2014-optimal-tidybot-02.pddl,TIMEOUT:1801.01:-1.0:1800.0:-1
ipc-2014-optimal-tidybot-03.pddl,SAT:121.524:30.0:1800.0:-1
ipc-2014-optimal-tidybot-04.pddl,CRASHED:137.531:1000000000.0:1800.0:-1
ipc-2014-optimal-tidybot-05.pddl,TIMEOUT:1801.03:-1.0:1800.0:-1
ipc-2014-optimal-tidybot-06.pddl,TIMEOUT:1801.02:-1.0:1800.0:-1
ipc-2014-optimal-tidybot-07.pddl,CRASHED:212.637:1000000000.0:1800.0:-1
ipc-2014-optimal-tidybot-08.pddl,TIMEOUT:1801.09:-1.0:1800.0:-1
ipc-2014-optimal-tidybot-09.pddl,TIMEOUT:1801.01:-1.0:1800.0:-1
ipc-2014-optimal-tidybot-10.pddl,TIMEOUT:1801.05:-1.0:1800.0:-1
ipc-2014-optimal-tidybot-11.pddl,TIMEOUT:1801.05:-1.0:1800.0:-1
ipc-2014-optimal-tidybot-12.pddl,TIMEOUT:1801.01:-1.0:1800.0:-1
ipc-2014-optimal-tidybot-13.pddl,TIMEOUT:1801.06:-1.0:1800.0:-1
ipc-2014-optimal-tidybot-14.pddl,TIMEOUT:1801.06:-1.0:1800.0:-1
ipc-2014-optimal-tidybot-15.pddl,TIMEOUT:1801.04:-1.0:1800.0:-1
ipc-2014-optimal-tidybot-16.pddl,TIMEOUT:1801.08:-1.0:1800.0:-1
ipc-2014-optimal-tidybot-17.pddl,SAT:176.501:40.0:1800.0:-1
ipc-2014-optimal-tidybot-18.pddl,TIMEOUT:1801.04:-1.0:1800.0:-1
ipc-2014-optimal-tidybot-19.pddl,TIMEOUT:1801.07:-1.0:1800.0:-1
ipc-2014-optimal-tidybot-20.pddl,SAT:133.072:46.0:1800.0:-1
ipc-2014-optimal-transport-01.pddl,SAT:1.14782:148.0:1800.0:-1
ipc-2014-optimal-transport-02.pddl,SAT:9.79351:191.0:1800.0:-1
ipc-2014-optimal-transport-03.pddl,SAT:25.1082:300.0:1800.0:-1
ipc-2014-optimal-transport-04.pddl,CRASHED:484.148:250.0:1800.0:-1
ipc-2014-optimal-transport-05.pddl,CRASHED:445.719:1000000000.0:1800.0:-1
ipc-2014-optimal-transport-06.pddl,TIMEOUT:1801.08:-1.0:1800.0:-1
ipc-2014-optimal-transport-07.pddl,SAT:26.499:967.0:1800.0:-1
ipc-2014-optimal-transport-08.pddl,CRASHED:1653.62:1173.0:1800.0:-1
ipc-2014-optimal-transport-09.pddl,CRASHED:775.791:1000000000.0:1800.0:-1
ipc-2014-optimal-transport-10.pddl,CRASHED:681.857:1000000000.0:1800.0:-1
ipc-2014-optimal-transport-11.pddl,TIMEOUT:1801.0:-1.0:1800.0:-1
ipc-2014-optimal-transport-12.pddl,TIMEOUT:1801.05:-1.0:1800.0:-1
ipc-2014-optimal-transport-13.pddl,SAT:7.13392:594.0:1800.0:-1
ipc-2014-optimal-transport-14.pddl,SAT:142.606:526.0:1800.0:-1
ipc-2014-optimal-transport-15.pddl,TIMEOUT:1801.09:-1.0:1800.0:-1
ipc-2014-optimal-transport-16.pddl,TIMEOUT:1801.02:-1.0:1800.0:-1
ipc-2014-optimal-transport-17.pddl,TIMEOUT:1801.02:-1.0:1800.0:-1
ipc-2014-optimal-transport-18.pddl,TIMEOUT:1801.03:-1.0:1800.0:-1
ipc-2014-optimal-transport-19.pddl,TIMEOUT:1801.06:-1.0:1800.0:-1
ipc-2014-optimal-transport-20.pddl,TIMEOUT:1801.01:-1.0:1800.0:-1
ipc-2014-optimal-visitall-05-10.pddl,CRASHED:24.4863:1000000000.0:1800.0:-1
ipc-2014-optimal-visitall-05-05.pddl,SAT:1.13083:21.0:1800.0:-1
ipc-2014-optimal-visitall-05-06.pddl,SAT:1.42378:25.0:1800.0:-1
ipc-2014-optimal-visitall-05-07.pddl,SAT:3.78242:34.0:1800.0:-1
ipc-2014-optimal-visitall-05-08.pddl,CRASHED:38.0142:43.0:1800.0:-1
ipc-2014-optimal-visitall-05-09.pddl,TIMEOUT:1801.09:-1.0:1800.0:-1
ipc-2014-optimal-visitall-01-10.pddl,TIMEOUT:1801.08:-1.0:1800.0:-1
ipc-2014-optimal-visitall-01-11.pddl,TIMEOUT:1801.05:-1.0:1800.0:-1
ipc-2014-optimal-visitall-01-12.pddl,TIMEOUT:1801.01:-1.0:1800.0:-1
ipc-2014-optimal-visitall-01-13.pddl,TIMEOUT:1801.03:-1.0:1800.0:-1
ipc-2014-optimal-visitall-01-14.pddl,TIMEOUT:1801.07:-1.0:1800.0:-1
ipc-2014-optimal-visitall-01-15.pddl,TIMEOUT:1801.03:-1.0:1800.0:-1
ipc-2014-optimal-visitall-01-16.pddl,TIMEOUT:1801.05:-1.0:1800.0:-1
ipc-2014-optimal-visitall-01-17.pddl,TIMEOUT:1801.04:-1.0:1800.0:-1
ipc-2014-optimal-visitall-01-18.pddl,TIMEOUT:1801.01:-1.0:1800.0:-1
ipc-2014-optimal-visitall-01-05.pddl,SAT:2.25466:24.0:1800.0:-1
ipc-2014-optimal-visitall-01-06.pddl,TIMEOUT:1801.03:-1.0:1800.0:-1
ipc-2014-optimal-visitall-01-07.pddl,CRASHED:29.9045:1000000000.0:1800.0:-1
ipc-2014-optimal-visitall-01-08.pddl,TIMEOUT:1801.02:-1.0:1800.0:-1
ipc-2014-optimal-visitall-01-09.pddl,TIMEOUT:1801.03:-1.0:1800.0:-1
