instance,ipc-2014-agile-ibacop
ipc-2014-agile-barman-p1-11-4-15.pddl,SAT:71.0:200.0:300.0:-1
ipc-2014-agile-barman-p1-11-5-15.pddl,SAT:296.0:217.0:300.0:-1
ipc-2014-agile-barman-p1-11-5-16.pddl,SAT:296.0:189.0:300.0:-1
ipc-2014-agile-barman-p2-10-4-13.pddl,TIMEOUT:301.07:-1.0:300.0:-1
ipc-2014-agile-barman-p2-11-4-15.pddl,TIMEOUT:301.03:-1.0:300.0:-1
ipc-2014-agile-barman-p2-11-5-15.pddl,SAT:296.0:179.0:300.0:-1
ipc-2014-agile-barman-p2-11-5-16.pddl,TIMEOUT:301.07:-1.0:300.0:-1
ipc-2014-agile-barman-p2-11-5-17.pddl,SAT:311.0:244.0:300.0:-1
ipc-2014-agile-barman-p3-10-4-13.pddl,TIMEOUT:301.03:-1.0:300.0:-1
ipc-2014-agile-barman-p3-11-4-15.pddl,SAT:296.0:179.0:300.0:-1
ipc-2014-agile-barman-p3-11-5-15.pddl,TIMEOUT:301.08:-1.0:300.0:-1
ipc-2014-agile-barman-p3-11-5-16.pddl,SAT:296.0:195.0:300.0:-1
ipc-2014-agile-barman-p3-11-5-17.pddl,TIMEOUT:301.02:-1.0:300.0:-1
ipc-2014-agile-barman-p4-11-4-14.pddl,SAT:296.0:246.0:300.0:-1
ipc-2014-agile-barman-p4-11-4-15.pddl,TIMEOUT:301.11:-1.0:300.0:-1
ipc-2014-agile-barman-p4-11-5-15.pddl,TIMEOUT:301.03:-1.0:300.0:-1
ipc-2014-agile-barman-p5-10-4-13.pddl,SAT:296.0:185.0:300.0:-1
ipc-2014-agile-barman-p5-11-4-15.pddl,SAT:296.0:210.0:300.0:-1
ipc-2014-agile-barman-p5-11-5-15.pddl,TIMEOUT:301.02:-1.0:300.0:-1
ipc-2014-agile-barman-p5-11-5-16.pddl,SAT:296.0:196.0:300.0:-1
ipc-2014-agile-cavediving-01_easy.pddl,CRASHED:306.0:1000000000.0:300.0:-1
ipc-2014-agile-cavediving-01.pddl,CRASHED:308.0:1000000000.0:300.0:-1
ipc-2014-agile-cavediving-02_easy.pddl,CRASHED:306.0:1000000000.0:300.0:-1
ipc-2014-agile-cavediving-03_easy.pddl,CRASHED:308.0:1000000000.0:300.0:-1
ipc-2014-agile-cavediving-04_easy.pddl,CRASHED:308.0:1000000000.0:300.0:-1
ipc-2014-agile-cavediving-05A_easy.pddl,SAT:21.0:113.0:300.0:-1
ipc-2014-agile-cavediving-06A_easy.pddl,SAT:21.0:114.0:300.0:-1
ipc-2014-agile-cavediving-07_easy.pddl,SAT:16.0:136.0:300.0:-1
ipc-2014-agile-cavediving-08_easy.pddl,SAT:21.0:109.0:300.0:-1
ipc-2014-agile-cavediving-09_easy.pddl,CRASHED:305.0:1000000000.0:300.0:-1
ipc-2014-agile-cavediving-10_easy.pddl,CRASHED:305.0:1000000000.0:300.0:-1
ipc-2014-agile-cavediving-11_easy.pddl,CRASHED:301.0:1000000000.0:300.0:-1
ipc-2014-agile-cavediving-12_easy.pddl,CRASHED:301.0:1000000000.0:300.0:-1
ipc-2014-agile-cavediving-13_easy.pddl,CRASHED:305.0:1000000000.0:300.0:-1
ipc-2014-agile-cavediving-14_easy.pddl,CRASHED:305.0:1000000000.0:300.0:-1
ipc-2014-agile-cavediving-15_easy.pddl,CRASHED:309.0:1000000000.0:300.0:-1
ipc-2014-agile-cavediving-16_easy.pddl,CRASHED:305.0:1000000000.0:300.0:-1
ipc-2014-agile-cavediving-18A_easy.pddl,SAT:39.0:138.0:300.0:-1
ipc-2014-agile-cavediving-18_easy.pddl,SAT:20.0:138.0:300.0:-1
ipc-2014-agile-cavediving-20A_easy.pddl,SAT:24.0:103.0:300.0:-1
ipc-2014-agile-childsnack-05-2.pddl,SAT:11.0:54.0:300.0:-1
ipc-2014-agile-childsnack-05.pddl,SAT:11.0:38.0:300.0:-1
ipc-2014-agile-childsnack-06-2.pddl,SAT:11.0:49.0:300.0:-1
ipc-2014-agile-childsnack-07-2.pddl,SAT:11.0:43.0:300.0:-1
ipc-2014-agile-childsnack-08-2.pddl,SAT:11.0:56.0:300.0:-1
ipc-2014-agile-childsnack-08.pddl,SAT:11.0:49.0:300.0:-1
ipc-2014-agile-childsnack-09-2.pddl,SAT:11.0:65.0:300.0:-1
ipc-2014-agile-childsnack-09.pddl,SAT:11.0:62.0:300.0:-1
ipc-2014-agile-childsnack-10-2.pddl,SAT:16.0:55.0:300.0:-1
ipc-2014-agile-childsnack-10.pddl,SAT:21.0:63.0:300.0:-1
ipc-2014-agile-childsnack-11-2.pddl,SAT:16.0:56.0:300.0:-1
ipc-2014-agile-childsnack-11.pddl,SAT:11.0:56.0:300.0:-1
ipc-2014-agile-childsnack-12.pddl,SAT:26.0:118.0:300.0:-1
ipc-2014-agile-childsnack-13-2.pddl,SAT:46.0:65.0:300.0:-1
ipc-2014-agile-childsnack-13.pddl,SAT:26.0:106.0:300.0:-1
ipc-2014-agile-childsnack-14.pddl,TIMEOUT:301.05:-1.0:300.0:-1
ipc-2014-agile-childsnack-15-2.pddl,SAT:46.0:146.0:300.0:-1
ipc-2014-agile-childsnack-16-2.pddl,SAT:31.0:128.0:300.0:-1
ipc-2014-agile-childsnack-19-2.pddl,TIMEOUT:301.0:-1.0:300.0:-1
ipc-2014-agile-childsnack-19.pddl,TIMEOUT:301.0:-1.0:300.0:-1
ipc-2014-agile-citycar-p3-2-2-0-1.pddl,SAT:40.0:166.0:300.0:-1
ipc-2014-agile-citycar-p3-3-2-0-1.pddl,SAT:82.0:235.0:300.0:-1
ipc-2014-agile-citycar-p3-4-2-0-1.pddl,SAT:102.0:284.0:300.0:-1
ipc-2014-agile-citycar-p3-5-2-0-1.pddl,SAT:212.0:354.0:300.0:-1
ipc-2014-agile-citycar-p3-5-2-0-2.pddl,SAT:66.0:140.0:300.0:-1
ipc-2014-agile-citycar-p4-2-2-0-1.pddl,TIMEOUT:301.0:-1.0:300.0:-1
ipc-2014-agile-citycar-p4-2-3-0-1.pddl,SAT:98.0:224.0:300.0:-1
ipc-2014-agile-citycar-p4-2-3-0-2.pddl,SAT:108.0:204.0:300.0:-1
ipc-2014-agile-citycar-p4-3-2-0-1.pddl,TIMEOUT:301.0:-1.0:300.0:-1
ipc-2014-agile-citycar-p4-3-2-0-2.pddl,TIMEOUT:301.0:-1.0:300.0:-1
ipc-2014-agile-citycar-p4-3-3-0-1.pddl,TIMEOUT:301.0:-1.0:300.0:-1
ipc-2014-agile-citycar-p4-3-3-0-2.pddl,TIMEOUT:301.0:-1.0:300.0:-1
ipc-2014-agile-citycar-p4-4-2-0-1.pddl,TIMEOUT:301.0:-1.0:300.0:-1
ipc-2014-agile-citycar-p4-4-2-0-2.pddl,TIMEOUT:301.0:-1.0:300.0:-1
ipc-2014-agile-citycar-p4-4-3-0-1.pddl,TIMEOUT:301.0:-1.0:300.0:-1
ipc-2014-agile-citycar-p4-4-3-0-2.pddl,TIMEOUT:301.0:-1.0:300.0:-1
ipc-2014-agile-citycar-p4-5-2-0-1.pddl,TIMEOUT:301.06:-1.0:300.0:-1
ipc-2014-agile-citycar-p4-5-2-0-2.pddl,TIMEOUT:301.06:-1.0:300.0:-1
ipc-2014-agile-citycar-p4-5-3-0-1.pddl,TIMEOUT:301.05:-1.0:300.0:-1
ipc-2014-agile-citycar-p4-5-3-0-2.pddl,TIMEOUT:301.01:-1.0:300.0:-1
ipc-2014-agile-floortile-p01-4-3-2.pddl,SAT:36.0:99.0:300.0:-1
ipc-2014-agile-floortile-p01-5-4-2.pddl,SAT:131.0:345.0:300.0:-1
ipc-2014-agile-floortile-p01-5-5-2.pddl,SAT:131.0:413.0:300.0:-1
ipc-2014-agile-floortile-p01-6-4-2.pddl,SAT:131.0:612.0:300.0:-1
ipc-2014-agile-floortile-p01-6-5-2.pddl,SAT:131.0:268.0:300.0:-1
ipc-2014-agile-floortile-p01-6-5-3.pddl,SAT:141.0:723.0:300.0:-1
ipc-2014-agile-floortile-p02-5-4-2.pddl,SAT:131.0:438.0:300.0:-1
ipc-2014-agile-floortile-p02-6-4-2.pddl,SAT:131.0:389.0:300.0:-1
ipc-2014-agile-floortile-p02-6-5-2.pddl,SAT:131.0:333.0:300.0:-1
ipc-2014-agile-floortile-p02-6-5-3.pddl,SAT:136.0:429.0:300.0:-1
ipc-2014-agile-floortile-p03-6-4-2.pddl,SAT:131.0:210.0:300.0:-1
ipc-2014-agile-floortile-p03-6-5-2.pddl,TIMEOUT:301.08:-1.0:300.0:-1
ipc-2014-agile-floortile-p03-6-5-3.pddl,SAT:136.0:399.0:300.0:-1
ipc-2014-agile-floortile-p04-5-4-2.pddl,SAT:131.0:285.0:300.0:-1
ipc-2014-agile-floortile-p04-5-5-2.pddl,SAT:131.0:350.0:300.0:-1
ipc-2014-agile-floortile-p04-6-5-2.pddl,TIMEOUT:301.01:-1.0:300.0:-1
ipc-2014-agile-floortile-p04-6-5-3.pddl,SAT:131.0:609.0:300.0:-1
ipc-2014-agile-floortile-p05-4-3-2.pddl,SAT:21.0:91.0:300.0:-1
ipc-2014-agile-floortile-p05-6-5-2.pddl,SAT:136.0:289.0:300.0:-1
ipc-2014-agile-floortile-p05-6-5-3.pddl,TIMEOUT:301.06:-1.0:300.0:-1
ipc-2014-agile-ged-d-10-1.pddl,SAT:21.0:22.0:300.0:-1
ipc-2014-agile-ged-d-10-2.pddl,SAT:21.0:23.0:300.0:-1
ipc-2014-agile-ged-d-10-3.pddl,SAT:21.0:35.0:300.0:-1
ipc-2014-agile-ged-d-10-4.pddl,SAT:21.0:22.0:300.0:-1
ipc-2014-agile-ged-d-10-5.pddl,SAT:26.0:41.0:300.0:-1
ipc-2014-agile-ged-d-10-6.pddl,SAT:26.0:42.0:300.0:-1
ipc-2014-agile-ged-d-11-1.pddl,SAT:21.0:29.0:300.0:-1
ipc-2014-agile-ged-d-11-3.pddl,SAT:6.0:162.0:300.0:-1
ipc-2014-agile-ged-d-11-5.pddl,SAT:26.0:30.0:300.0:-1
ipc-2014-agile-ged-d-11-6.pddl,SAT:26.0:37.0:300.0:-1
ipc-2014-agile-ged-d-12-11.pddl,SAT:26.0:31.0:300.0:-1
ipc-2014-agile-ged-d-12-2.pddl,SAT:41.0:42.0:300.0:-1
ipc-2014-agile-ged-d-12-3.pddl,SAT:31.0:39.0:300.0:-1
ipc-2014-agile-ged-d-12-5.pddl,SAT:31.0:40.0:300.0:-1
ipc-2014-agile-ged-d-12-6.pddl,SAT:31.0:49.0:300.0:-1
ipc-2014-agile-ged-d-12-7.pddl,SAT:36.0:50.0:300.0:-1
ipc-2014-agile-ged-d-12-8.pddl,SAT:31.0:51.0:300.0:-1
ipc-2014-agile-ged-d-12-9.pddl,SAT:31.0:54.0:300.0:-1
ipc-2014-agile-ged-d-3-6.pddl,SAT:21.0:29.0:300.0:-1
ipc-2014-agile-ged-d-9-5.pddl,SAT:26.0:30.0:300.0:-1
ipc-2014-agile-hiking-3-4-3.pddl,SAT:6.0:33.0:300.0:-1
ipc-2014-agile-hiking-3-4-4.pddl,SAT:6.0:154.0:300.0:-1
ipc-2014-agile-hiking-3-4-5.pddl,SAT:6.0:765.0:300.0:-1
ipc-2014-agile-hiking-3-4-6.pddl,SAT:76.0:56.0:300.0:-1
ipc-2014-agile-hiking-3-4-7.pddl,SAT:81.0:76.0:300.0:-1
ipc-2014-agile-hiking-3-4-8.pddl,SAT:81.0:90.0:300.0:-1
ipc-2014-agile-hiking-3-4-9.pddl,TIMEOUT:301.0:-1.0:300.0:-1
ipc-2014-agile-hiking-4-5-3.pddl,SAT:6.0:123.0:300.0:-1
ipc-2014-agile-hiking-4-5-4.pddl,SAT:71.0:23.0:300.0:-1
ipc-2014-agile-hiking-4-5-5.pddl,SAT:76.0:39.0:300.0:-1
ipc-2014-agile-hiking-4-5-6.pddl,TIMEOUT:301.0:-1.0:300.0:-1
ipc-2014-agile-hiking-4-5-7.pddl,TIMEOUT:301.0:-1.0:300.0:-1
ipc-2014-agile-hiking-4-5-8.pddl,TIMEOUT:301.0:-1.0:300.0:-1
ipc-2014-agile-hiking-4-5-9.pddl,TIMEOUT:301.0:-1.0:300.0:-1
ipc-2014-agile-hiking-5-6-3.pddl,SAT:6.0:119.0:300.0:-1
ipc-2014-agile-hiking-5-6-4.pddl,SAT:86.0:30.0:300.0:-1
ipc-2014-agile-hiking-5-6-5.pddl,SAT:101.0:42.0:300.0:-1
ipc-2014-agile-hiking-5-6-6.pddl,SAT:121.0:55.0:300.0:-1
ipc-2014-agile-hiking-5-6-7.pddl,TIMEOUT:301.0:-1.0:300.0:-1
ipc-2014-agile-hiking-5-6-8.pddl,TIMEOUT:301.04:-1.0:300.0:-1
ipc-2014-agile-maintenance-1.3.060.180.5-000.pddl,SAT:133.0:60.0:300.0:-1
ipc-2014-agile-maintenance-1.3.060.180.5-001.pddl,SAT:9.0:55.0:300.0:-1
ipc-2014-agile-maintenance-1.3.060.180.5-002.pddl,SAT:8.0:58.0:300.0:-1
ipc-2014-agile-maintenance-1.3.100.300.5-000.pddl,SAT:136.0:94.0:300.0:-1
ipc-2014-agile-maintenance-1.3.100.300.5-001.pddl,SAT:11.0:90.0:300.0:-1
ipc-2014-agile-maintenance-1.3.100.300.7-000.pddl,SAT:12.0:85.0:300.0:-1
ipc-2014-agile-maintenance-1.3.100.300.7-001.pddl,SAT:12.0:83.0:300.0:-1
ipc-2014-agile-maintenance-1.3.100.300.7-002.pddl,SAT:11.0:80.0:300.0:-1
ipc-2014-agile-maintenance-1.3.150.500.6-001.pddl,SAT:30.0:133.0:300.0:-1
ipc-2014-agile-maintenance-1.3.200.500.5-001.pddl,SAT:141.0:177.0:300.0:-1
ipc-2014-agile-maintenance-1.3.200.500.5-002.pddl,SAT:141.0:182.0:300.0:-1
ipc-2014-agile-maintenance-1.3.200.700.7-000.pddl,SAT:23.0:182.0:300.0:-1
ipc-2014-agile-maintenance-1.3.200.700.7-001.pddl,SAT:38.0:168.0:300.0:-1
ipc-2014-agile-maintenance-1.3.200.700.7-002.pddl,SAT:23.0:178.0:300.0:-1
ipc-2014-agile-maintenance-1.3.200.900.5-000.pddl,TIMEOUT:301.0:-1.0:300.0:-1
ipc-2014-agile-maintenance-1.3.200.900.5-001.pddl,TIMEOUT:301.0:-1.0:300.0:-1
ipc-2014-agile-maintenance-1.3.200.900.5-002.pddl,TIMEOUT:301.0:-1.0:300.0:-1
ipc-2014-agile-maintenance-1.3.200.900.8-000.pddl,SAT:25.0:198.0:300.0:-1
ipc-2014-agile-maintenance-1.3.200.900.8-001.pddl,SAT:25.0:199.0:300.0:-1
ipc-2014-agile-maintenance-1.3.200.900.8-002.pddl,SAT:25.0:199.0:300.0:-1
ipc-2014-agile-openstacks-p130_2.pddl,SAT:49.0:50.0:300.0:-1
ipc-2014-agile-openstacks-p130_3.pddl,SAT:70.0:104.0:300.0:-1
ipc-2014-agile-openstacks-p150_2.pddl,SAT:59.0:54.0:300.0:-1
ipc-2014-agile-openstacks-p150_3.pddl,SAT:221.0:150.0:300.0:-1
ipc-2014-agile-openstacks-p170_1.pddl,SAT:220.0:127.0:300.0:-1
ipc-2014-agile-openstacks-p170_2.pddl,SAT:220.0:139.0:300.0:-1
ipc-2014-agile-openstacks-p170_3.pddl,SAT:232.0:170.0:300.0:-1
ipc-2014-agile-openstacks-p190_1.pddl,SAT:230.0:158.0:300.0:-1
ipc-2014-agile-openstacks-p190_2.pddl,SAT:231.0:154.0:300.0:-1
ipc-2014-agile-openstacks-p190_3.pddl,SAT:243.0:190.0:300.0:-1
ipc-2014-agile-openstacks-p210_1.pddl,SAT:236.0:167.0:300.0:-1
ipc-2014-agile-openstacks-p210_2.pddl,SAT:241.0:165.0:300.0:-1
ipc-2014-agile-openstacks-p230_1.pddl,SAT:246.0:172.0:300.0:-1
ipc-2014-agile-openstacks-p230_2.pddl,SAT:252.0:195.0:300.0:-1
ipc-2014-agile-openstacks-p250_1.pddl,TIMEOUT:301.0:-1.0:300.0:-1
ipc-2014-agile-openstacks-p250_2.pddl,TIMEOUT:301.0:-1.0:300.0:-1
ipc-2014-agile-openstacks-p270_1.pddl,TIMEOUT:301.0:-1.0:300.0:-1
ipc-2014-agile-openstacks-p270_2.pddl,TIMEOUT:301.0:-1.0:300.0:-1
ipc-2014-agile-openstacks-p290_1.pddl,TIMEOUT:301.0:-1.0:300.0:-1
ipc-2014-agile-openstacks-p290_2.pddl,TIMEOUT:301.0:-1.0:300.0:-1
ipc-2014-agile-parking-28_2.pddl,TIMEOUT:301.0:-1.0:300.0:-1
ipc-2014-agile-parking-28_3.pddl,SAT:281.0:71.0:300.0:-1
ipc-2014-agile-parking-30_1.pddl,TIMEOUT:301.0:-1.0:300.0:-1
ipc-2014-agile-parking-30_2.pddl,SAT:171.0:104.0:300.0:-1
ipc-2014-agile-parking-30_3.pddl,TIMEOUT:301.0:-1.0:300.0:-1
ipc-2014-agile-parking-32_1.pddl,TIMEOUT:301.0:-1.0:300.0:-1
ipc-2014-agile-parking-32_2.pddl,TIMEOUT:301.0:-1.0:300.0:-1
ipc-2014-agile-parking-32_3.pddl,TIMEOUT:301.0:-1.0:300.0:-1
ipc-2014-agile-parking-34_1.pddl,TIMEOUT:301.0:-1.0:300.0:-1
ipc-2014-agile-parking-34_2.pddl,TIMEOUT:301.0:-1.0:300.0:-1
ipc-2014-agile-parking-34_3.pddl,TIMEOUT:301.0:-1.0:300.0:-1
ipc-2014-agile-parking-36_1.pddl,TIMEOUT:301.0:-1.0:300.0:-1
ipc-2014-agile-parking-36_2.pddl,TIMEOUT:301.0:-1.0:300.0:-1
ipc-2014-agile-parking-36_3.pddl,TIMEOUT:301.0:-1.0:300.0:-1
ipc-2014-agile-parking-38_1.pddl,TIMEOUT:301.0:-1.0:300.0:-1
ipc-2014-agile-parking-38_2.pddl,TIMEOUT:301.0:-1.0:300.0:-1
ipc-2014-agile-parking-38_3.pddl,TIMEOUT:301.0:-1.0:300.0:-1
ipc-2014-agile-parking-40_1.pddl,TIMEOUT:301.0:-1.0:300.0:-1
ipc-2014-agile-parking-40_2.pddl,TIMEOUT:301.0:-1.0:300.0:-1
ipc-2014-agile-parking-40_3.pddl,TIMEOUT:301.0:-1.0:300.0:-1
ipc-2014-agile-tetris-020.pddl,SAT:81.0:56.0:300.0:-1
ipc-2014-agile-tetris-021.pddl,SAT:221.0:619.0:300.0:-1
ipc-2014-agile-tetris-022.pddl,SAT:231.0:428.0:300.0:-1
ipc-2014-agile-tetris-023.pddl,SAT:236.0:998.0:300.0:-1
ipc-2014-agile-tetris-024.pddl,TIMEOUT:301.0:-1.0:300.0:-1
ipc-2014-agile-tetris-025.pddl,SAT:201.0:367.0:300.0:-1
ipc-2014-agile-tetris-026.pddl,TIMEOUT:301.0:-1.0:300.0:-1
ipc-2014-agile-tetris-027.pddl,TIMEOUT:301.0:-1.0:300.0:-1
ipc-2014-agile-tetris-028.pddl,TIMEOUT:301.0:-1.0:300.0:-1
ipc-2014-agile-tetris-029.pddl,SAT:206.0:616.0:300.0:-1
ipc-2014-agile-tetris-031.pddl,TIMEOUT:301.0:-1.0:300.0:-1
ipc-2014-agile-tetris-032.pddl,SAT:236.0:669.0:300.0:-1
ipc-2014-agile-tetris-033.pddl,TIMEOUT:301.0:-1.0:300.0:-1
ipc-2014-agile-tetris-034.pddl,TIMEOUT:301.0:-1.0:300.0:-1
ipc-2014-agile-tetris-035.pddl,TIMEOUT:301.0:-1.0:300.0:-1
ipc-2014-agile-tetris-036.pddl,TIMEOUT:301.0:-1.0:300.0:-1
ipc-2014-agile-tetris-037.pddl,TIMEOUT:301.0:-1.0:300.0:-1
ipc-2014-agile-tetris-038.pddl,TIMEOUT:301.0:-1.0:300.0:-1
ipc-2014-agile-tetris-039.pddl,TIMEOUT:301.0:-1.0:300.0:-1
ipc-2014-agile-tetris-040.pddl,TIMEOUT:301.0:-1.0:300.0:-1
ipc-2014-agile-thoughtful-bootstrap-typed-01.pddl,SAT:6.0:46.0:300.0:-1
ipc-2014-agile-thoughtful-bootstrap-typed-02.pddl,SAT:11.0:34.0:300.0:-1
ipc-2014-agile-thoughtful-bootstrap-typed-03.pddl,SAT:6.0:64.0:300.0:-1
ipc-2014-agile-thoughtful-bootstrap-typed-04.pddl,SAT:6.0:48.0:300.0:-1
ipc-2014-agile-thoughtful-bootstrap-typed-05.pddl,SAT:6.0:53.0:300.0:-1
ipc-2014-agile-thoughtful-p11_6_53-typed.pddl,CRASHED:361.0:1000000000.0:300.0:-1
ipc-2014-agile-thoughtful-p11_6_59-typed.pddl,SAT:161.0:126.0:300.0:-1
ipc-2014-agile-thoughtful-p11_6_62-typed.pddl,SAT:176.0:141.0:300.0:-1
ipc-2014-agile-thoughtful-p13_7_78-typed.pddl,CRASHED:361.0:1000000000.0:300.0:-1
ipc-2014-agile-thoughtful-p13_7_79-typed.pddl,CRASHED:361.0:1000000000.0:300.0:-1
ipc-2014-agile-thoughtful-p13_7_86-typed.pddl,SAT:166.0:171.0:300.0:-1
ipc-2014-agile-thoughtful-target-typed-20.pddl,SAT:171.0:170.0:300.0:-1
ipc-2014-agile-thoughtful-target-typed-21.pddl,SAT:186.0:186.0:300.0:-1
ipc-2014-agile-thoughtful-target-typed-22.pddl,SAT:191.0:155.0:300.0:-1
ipc-2014-agile-thoughtful-target-typed-23.pddl,SAT:166.0:138.0:300.0:-1
ipc-2014-agile-thoughtful-target-typed-24.pddl,CRASHED:361.0:1000000000.0:300.0:-1
ipc-2014-agile-thoughtful-target-typed-25.pddl,SAT:166.0:160.0:300.0:-1
ipc-2014-agile-thoughtful-target-typed-26.pddl,SAT:166.0:190.0:300.0:-1
ipc-2014-agile-thoughtful-target-typed-27.pddl,SAT:171.0:184.0:300.0:-1
ipc-2014-agile-thoughtful-target-typed-28.pddl,SAT:181.0:153.0:300.0:-1
ipc-2014-agile-transport-01.pddl,SAT:7.0:3785.0:300.0:-1
ipc-2014-agile-transport-02.pddl,SAT:7.0:5952.0:300.0:-1
ipc-2014-agile-transport-03.pddl,SAT:7.0:3806.0:300.0:-1
ipc-2014-agile-transport-04.pddl,TIMEOUT:301.0:-1.0:300.0:-1
ipc-2014-agile-transport-05.pddl,TIMEOUT:301.0:-1.0:300.0:-1
ipc-2014-agile-transport-06.pddl,TIMEOUT:301.0:-1.0:300.0:-1
ipc-2014-agile-transport-07.pddl,TIMEOUT:301.0:-1.0:300.0:-1
ipc-2014-agile-transport-08.pddl,TIMEOUT:301.0:-1.0:300.0:-1
ipc-2014-agile-transport-09.pddl,TIMEOUT:301.0:-1.0:300.0:-1
ipc-2014-agile-transport-10.pddl,TIMEOUT:301.0:-1.0:300.0:-1
ipc-2014-agile-transport-11.pddl,SAT:7.0:3935.0:300.0:-1
ipc-2014-agile-transport-12.pddl,SAT:7.0:4033.0:300.0:-1
ipc-2014-agile-transport-13.pddl,SAT:7.0:4908.0:300.0:-1
ipc-2014-agile-transport-14.pddl,TIMEOUT:301.0:-1.0:300.0:-1
ipc-2014-agile-transport-15.pddl,TIMEOUT:301.0:-1.0:300.0:-1
ipc-2014-agile-transport-16.pddl,TIMEOUT:301.0:-1.0:300.0:-1
ipc-2014-agile-transport-17.pddl,TIMEOUT:301.0:-1.0:300.0:-1
ipc-2014-agile-transport-18.pddl,TIMEOUT:301.0:-1.0:300.0:-1
ipc-2014-agile-transport-19.pddl,TIMEOUT:301.0:-1.0:300.0:-1
ipc-2014-agile-transport-20.pddl,TIMEOUT:301.0:-1.0:300.0:-1
ipc-2014-agile-visitall-30.pddl,SAT:12.0:1101.0:300.0:-1
ipc-2014-agile-visitall-31.pddl,SAT:12.0:1206.0:300.0:-1
ipc-2014-agile-visitall-32.pddl,SAT:13.0:1253.0:300.0:-1
ipc-2014-agile-visitall-33.pddl,SAT:13.0:1264.0:300.0:-1
ipc-2014-agile-visitall-50.pddl,TIMEOUT:301.04:-1.0:300.0:-1
ipc-2014-agile-visitall-51.pddl,TIMEOUT:301.09:-1.0:300.0:-1
ipc-2014-agile-visitall-52.pddl,TIMEOUT:301.1:-1.0:300.0:-1
ipc-2014-agile-visitall-53.pddl,TIMEOUT:301.0:-1.0:300.0:-1
ipc-2014-agile-visitall-54.pddl,TIMEOUT:301.01:-1.0:300.0:-1
ipc-2014-agile-visitall-55.pddl,TIMEOUT:301.09:-1.0:300.0:-1
ipc-2014-agile-visitall-56.pddl,TIMEOUT:301.0:-1.0:300.0:-1
ipc-2014-agile-visitall-57.pddl,TIMEOUT:301.0:-1.0:300.0:-1
ipc-2014-agile-visitall-58.pddl,TIMEOUT:301.0:-1.0:300.0:-1
ipc-2014-agile-visitall-59.pddl,TIMEOUT:301.0:-1.0:300.0:-1
ipc-2014-agile-visitall-60.pddl,TIMEOUT:301.0:-1.0:300.0:-1
ipc-2014-agile-visitall-61.pddl,TIMEOUT:301.0:-1.0:300.0:-1
ipc-2014-agile-visitall-62.pddl,TIMEOUT:301.0:-1.0:300.0:-1
ipc-2014-agile-visitall-63.pddl,TIMEOUT:301.0:-1.0:300.0:-1
ipc-2014-agile-visitall-64.pddl,TIMEOUT:301.0:-1.0:300.0:-1
ipc-2014-agile-visitall-65.pddl,TIMEOUT:301.0:-1.0:300.0:-1
