instance,ipc-2014-agile-jasper
ipc-2014-agile-barman-p1-11-4-15.pddl,SAT:11.9532:275.0:300.0:-1
ipc-2014-agile-barman-p1-11-5-15.pddl,SAT:5.30219:293.0:300.0:-1
ipc-2014-agile-barman-p1-11-5-16.pddl,SAT:6.00309:214.0:300.0:-1
ipc-2014-agile-barman-p2-10-4-13.pddl,SAT:6.548:276.0:300.0:-1
ipc-2014-agile-barman-p2-11-4-15.pddl,SAT:7.93179:235.0:300.0:-1
ipc-2014-agile-barman-p2-11-5-15.pddl,SAT:7.27989:195.0:300.0:-1
ipc-2014-agile-barman-p2-11-5-16.pddl,SAT:9.02063:244.0:300.0:-1
ipc-2014-agile-barman-p2-11-5-17.pddl,SAT:1.19209e-07:313.0:300.0:-1
ipc-2014-agile-barman-p3-10-4-13.pddl,SAT:8.08177:307.0:300.0:-1
ipc-2014-agile-barman-p3-11-4-15.pddl,SAT:5.39718:301.0:300.0:-1
ipc-2014-agile-barman-p3-11-5-15.pddl,SAT:120.728:361.0:300.0:-1
ipc-2014-agile-barman-p3-11-5-16.pddl,SAT:6.73698:240.0:300.0:-1
ipc-2014-agile-barman-p3-11-5-17.pddl,SAT:131.751:403.0:300.0:-1
ipc-2014-agile-barman-p4-11-4-14.pddl,SAT:3.09053:242.0:300.0:-1
ipc-2014-agile-barman-p4-11-4-15.pddl,SAT:39.1351:428.0:300.0:-1
ipc-2014-agile-barman-p4-11-5-15.pddl,SAT:141.339:332.0:300.0:-1
ipc-2014-agile-barman-p5-10-4-13.pddl,SAT:6.02608:208.0:300.0:-1
ipc-2014-agile-barman-p5-11-4-15.pddl,SAT:6.88895:272.0:300.0:-1
ipc-2014-agile-barman-p5-11-5-15.pddl,TIMEOUT:301.09:-1.0:300.0:-1
ipc-2014-agile-barman-p5-11-5-16.pddl,SAT:7.57685:278.0:300.0:-1
ipc-2014-agile-cavediving-01_easy.pddl,TIMEOUT:301.01:-1.0:300.0:-1
ipc-2014-agile-cavediving-01.pddl,TIMEOUT:301.06:-1.0:300.0:-1
ipc-2014-agile-cavediving-02_easy.pddl,TIMEOUT:301.07:-1.0:300.0:-1
ipc-2014-agile-cavediving-03_easy.pddl,TIMEOUT:301.05:-1.0:300.0:-1
ipc-2014-agile-cavediving-04_easy.pddl,TIMEOUT:301.02:-1.0:300.0:-1
ipc-2014-agile-cavediving-05A_easy.pddl,SAT:0.350946:95.0:300.0:-1
ipc-2014-agile-cavediving-06A_easy.pddl,SAT:0.306953:96.0:300.0:-1
ipc-2014-agile-cavediving-07_easy.pddl,SAT:1.50877:134.0:300.0:-1
ipc-2014-agile-cavediving-08_easy.pddl,SAT:0.593909:92.0:300.0:-1
ipc-2014-agile-cavediving-09_easy.pddl,TIMEOUT:301.09:-1.0:300.0:-1
ipc-2014-agile-cavediving-10_easy.pddl,TIMEOUT:301.03:-1.0:300.0:-1
ipc-2014-agile-cavediving-11_easy.pddl,TIMEOUT:301.02:-1.0:300.0:-1
ipc-2014-agile-cavediving-12_easy.pddl,TIMEOUT:301.08:-1.0:300.0:-1
ipc-2014-agile-cavediving-13_easy.pddl,TIMEOUT:301.09:-1.0:300.0:-1
ipc-2014-agile-cavediving-14_easy.pddl,TIMEOUT:301.03:-1.0:300.0:-1
ipc-2014-agile-cavediving-15_easy.pddl,TIMEOUT:301.11:-1.0:300.0:-1
ipc-2014-agile-cavediving-16_easy.pddl,TIMEOUT:301.01:-1.0:300.0:-1
ipc-2014-agile-cavediving-18A_easy.pddl,SAT:19.489:132.0:300.0:-1
ipc-2014-agile-cavediving-18_easy.pddl,SAT:0.593909:137.0:300.0:-1
ipc-2014-agile-cavediving-20A_easy.pddl,SAT:8.21375:101.0:300.0:-1
ipc-2014-agile-childsnack-05-2.pddl,TIMEOUT:301.12:-1.0:300.0:-1
ipc-2014-agile-childsnack-05.pddl,TIMEOUT:301.05:-1.0:300.0:-1
ipc-2014-agile-childsnack-06-2.pddl,TIMEOUT:301.04:-1.0:300.0:-1
ipc-2014-agile-childsnack-07-2.pddl,TIMEOUT:301.03:-1.0:300.0:-1
ipc-2014-agile-childsnack-08-2.pddl,TIMEOUT:301.1:-1.0:300.0:-1
ipc-2014-agile-childsnack-08.pddl,TIMEOUT:301.1:-1.0:300.0:-1
ipc-2014-agile-childsnack-09-2.pddl,TIMEOUT:301.01:-1.0:300.0:-1
ipc-2014-agile-childsnack-09.pddl,TIMEOUT:301.02:-1.0:300.0:-1
ipc-2014-agile-childsnack-10-2.pddl,TIMEOUT:301.01:-1.0:300.0:-1
ipc-2014-agile-childsnack-10.pddl,TIMEOUT:301.1:-1.0:300.0:-1
ipc-2014-agile-childsnack-11-2.pddl,CRASHED:293.33:1000000000.0:300.0:-1
ipc-2014-agile-childsnack-11.pddl,CRASHED:290.3:1000000000.0:300.0:-1
ipc-2014-agile-childsnack-12.pddl,CRASHED:295.81:1000000000.0:300.0:-1
ipc-2014-agile-childsnack-13-2.pddl,TIMEOUT:301.07:-1.0:300.0:-1
ipc-2014-agile-childsnack-13.pddl,CRASHED:238.42:1000000000.0:300.0:-1
ipc-2014-agile-childsnack-14.pddl,CRASHED:230.67:1000000000.0:300.0:-1
ipc-2014-agile-childsnack-15-2.pddl,CRASHED:245.15:1000000000.0:300.0:-1
ipc-2014-agile-childsnack-16-2.pddl,CRASHED:270.49:1000000000.0:300.0:-1
ipc-2014-agile-childsnack-19-2.pddl,CRASHED:273.89:1000000000.0:300.0:-1
ipc-2014-agile-childsnack-19.pddl,CRASHED:261.68:1000000000.0:300.0:-1
ipc-2014-agile-citycar-p3-2-2-0-1.pddl,SAT:6.43102:463.0:300.0:-1
ipc-2014-agile-citycar-p3-3-2-0-1.pddl,SAT:10.7184:634.0:300.0:-1
ipc-2014-agile-citycar-p3-4-2-0-1.pddl,SAT:43.6324:241.0:300.0:-1
ipc-2014-agile-citycar-p3-5-2-0-1.pddl,SAT:24.8422:1012.0:300.0:-1
ipc-2014-agile-citycar-p3-5-2-0-2.pddl,SAT:10.3954:577.0:300.0:-1
ipc-2014-agile-citycar-p4-2-2-0-1.pddl,TIMEOUT:301.07:-1.0:300.0:-1
ipc-2014-agile-citycar-p4-2-3-0-1.pddl,TIMEOUT:301.05:-1.0:300.0:-1
ipc-2014-agile-citycar-p4-2-3-0-2.pddl,TIMEOUT:301.07:-1.0:300.0:-1
ipc-2014-agile-citycar-p4-3-2-0-1.pddl,TIMEOUT:301.02:-1.0:300.0:-1
ipc-2014-agile-citycar-p4-3-2-0-2.pddl,TIMEOUT:301.06:-1.0:300.0:-1
ipc-2014-agile-citycar-p4-3-3-0-1.pddl,TIMEOUT:301.09:-1.0:300.0:-1
ipc-2014-agile-citycar-p4-3-3-0-2.pddl,TIMEOUT:301.01:-1.0:300.0:-1
ipc-2014-agile-citycar-p4-4-2-0-1.pddl,TIMEOUT:301.03:-1.0:300.0:-1
ipc-2014-agile-citycar-p4-4-2-0-2.pddl,TIMEOUT:301.08:-1.0:300.0:-1
ipc-2014-agile-citycar-p4-4-3-0-1.pddl,TIMEOUT:301.01:-1.0:300.0:-1
ipc-2014-agile-citycar-p4-4-3-0-2.pddl,TIMEOUT:301.01:-1.0:300.0:-1
ipc-2014-agile-citycar-p4-5-2-0-1.pddl,TIMEOUT:301.06:-1.0:300.0:-1
ipc-2014-agile-citycar-p4-5-2-0-2.pddl,TIMEOUT:301.02:-1.0:300.0:-1
ipc-2014-agile-citycar-p4-5-3-0-1.pddl,TIMEOUT:301.04:-1.0:300.0:-1
ipc-2014-agile-citycar-p4-5-3-0-2.pddl,TIMEOUT:301.07:-1.0:300.0:-1
ipc-2014-agile-floortile-p01-4-3-2.pddl,SAT:9.8505:102.0:300.0:-1
ipc-2014-agile-floortile-p01-5-4-2.pddl,TIMEOUT:301.07:-1.0:300.0:-1
ipc-2014-agile-floortile-p01-5-5-2.pddl,TIMEOUT:301.0:-1.0:300.0:-1
ipc-2014-agile-floortile-p01-6-4-2.pddl,TIMEOUT:301.07:-1.0:300.0:-1
ipc-2014-agile-floortile-p01-6-5-2.pddl,TIMEOUT:301.05:-1.0:300.0:-1
ipc-2014-agile-floortile-p01-6-5-3.pddl,TIMEOUT:301.07:-1.0:300.0:-1
ipc-2014-agile-floortile-p02-5-4-2.pddl,TIMEOUT:301.04:-1.0:300.0:-1
ipc-2014-agile-floortile-p02-6-4-2.pddl,TIMEOUT:301.01:-1.0:300.0:-1
ipc-2014-agile-floortile-p02-6-5-2.pddl,TIMEOUT:301.09:-1.0:300.0:-1
ipc-2014-agile-floortile-p02-6-5-3.pddl,TIMEOUT:301.04:-1.0:300.0:-1
ipc-2014-agile-floortile-p03-6-4-2.pddl,TIMEOUT:301.07:-1.0:300.0:-1
ipc-2014-agile-floortile-p03-6-5-2.pddl,TIMEOUT:301.01:-1.0:300.0:-1
ipc-2014-agile-floortile-p03-6-5-3.pddl,TIMEOUT:301.07:-1.0:300.0:-1
ipc-2014-agile-floortile-p04-5-4-2.pddl,TIMEOUT:301.04:-1.0:300.0:-1
ipc-2014-agile-floortile-p04-5-5-2.pddl,TIMEOUT:301.08:-1.0:300.0:-1
ipc-2014-agile-floortile-p04-6-5-2.pddl,TIMEOUT:301.1:-1.0:300.0:-1
ipc-2014-agile-floortile-p04-6-5-3.pddl,TIMEOUT:301.06:-1.0:300.0:-1
ipc-2014-agile-floortile-p05-4-3-2.pddl,SAT:4.71328:114.0:300.0:-1
ipc-2014-agile-floortile-p05-6-5-2.pddl,TIMEOUT:301.06:-1.0:300.0:-1
ipc-2014-agile-floortile-p05-6-5-3.pddl,TIMEOUT:301.09:-1.0:300.0:-1
ipc-2014-agile-ged-d-10-1.pddl,SAT:4.45432:40.0:300.0:-1
ipc-2014-agile-ged-d-10-2.pddl,SAT:4.48032:41.0:300.0:-1
ipc-2014-agile-ged-d-10-3.pddl,SAT:4.52531:55.0:300.0:-1
ipc-2014-agile-ged-d-10-4.pddl,SAT:3.51647:38.0:300.0:-1
ipc-2014-agile-ged-d-10-5.pddl,SAT:7.29289:57.0:300.0:-1
ipc-2014-agile-ged-d-10-6.pddl,SAT:6.42702:48.0:300.0:-1
ipc-2014-agile-ged-d-11-1.pddl,SAT:4.10538:33.0:300.0:-1
ipc-2014-agile-ged-d-11-3.pddl,SAT:3.71843:29.0:300.0:-1
ipc-2014-agile-ged-d-11-5.pddl,SAT:5.2752:40.0:300.0:-1
ipc-2014-agile-ged-d-11-6.pddl,SAT:4.55931:35.0:300.0:-1
ipc-2014-agile-ged-d-12-11.pddl,SAT:5.17521:37.0:300.0:-1
ipc-2014-agile-ged-d-12-2.pddl,SAT:11.2003:66.0:300.0:-1
ipc-2014-agile-ged-d-12-3.pddl,SAT:10.5084:63.0:300.0:-1
ipc-2014-agile-ged-d-12-5.pddl,SAT:12.6571:66.0:300.0:-1
ipc-2014-agile-ged-d-12-6.pddl,SAT:8.46571:63.0:300.0:-1
ipc-2014-agile-ged-d-12-7.pddl,SAT:9.95549:66.0:300.0:-1
ipc-2014-agile-ged-d-12-8.pddl,SAT:18.0663:89.0:300.0:-1
ipc-2014-agile-ged-d-12-9.pddl,SAT:17.9073:72.0:300.0:-1
ipc-2014-agile-ged-d-3-6.pddl,SAT:4.06838:29.0:300.0:-1
ipc-2014-agile-ged-d-9-5.pddl,SAT:4.53331:28.0:300.0:-1
ipc-2014-agile-hiking-3-4-3.pddl,SAT:1.9507:12.0:300.0:-1
ipc-2014-agile-hiking-3-4-4.pddl,SAT:3.39248:21.0:300.0:-1
ipc-2014-agile-hiking-3-4-5.pddl,SAT:11.6542:62.0:300.0:-1
ipc-2014-agile-hiking-3-4-6.pddl,SAT:57.1273:106.0:300.0:-1
ipc-2014-agile-hiking-3-4-7.pddl,SAT:275.127:145.0:300.0:-1
ipc-2014-agile-hiking-3-4-8.pddl,SAT:71.3122:113.0:300.0:-1
ipc-2014-agile-hiking-3-4-9.pddl,TIMEOUT:301.08:-1.0:300.0:-1
ipc-2014-agile-hiking-4-5-3.pddl,SAT:5.07823:15.0:300.0:-1
ipc-2014-agile-hiking-4-5-4.pddl,SAT:13.116:27.0:300.0:-1
ipc-2014-agile-hiking-4-5-5.pddl,SAT:37.5083:59.0:300.0:-1
ipc-2014-agile-hiking-4-5-6.pddl,SAT:91.2151:74.0:300.0:-1
ipc-2014-agile-hiking-4-5-7.pddl,TIMEOUT:301.09:-1.0:300.0:-1
ipc-2014-agile-hiking-4-5-8.pddl,SAT:256.169:105.0:300.0:-1
ipc-2014-agile-hiking-4-5-9.pddl,TIMEOUT:301.02:-1.0:300.0:-1
ipc-2014-agile-hiking-5-6-3.pddl,SAT:15.0827:22.0:300.0:-1
ipc-2014-agile-hiking-5-6-4.pddl,SAT:53.2979:31.0:300.0:-1
ipc-2014-agile-hiking-5-6-5.pddl,SAT:101.837:53.0:300.0:-1
ipc-2014-agile-hiking-5-6-6.pddl,TIMEOUT:301.1:-1.0:300.0:-1
ipc-2014-agile-hiking-5-6-7.pddl,TIMEOUT:301.07:-1.0:300.0:-1
ipc-2014-agile-hiking-5-6-8.pddl,TIMEOUT:301.04:-1.0:300.0:-1
ipc-2014-agile-maintenance-1.3.060.180.5-000.pddl,SAT:1.00185:53.0:300.0:-1
ipc-2014-agile-maintenance-1.3.060.180.5-001.pddl,SAT:20.9378:54.0:300.0:-1
ipc-2014-agile-maintenance-1.3.060.180.5-002.pddl,SAT:27.6558:59.0:300.0:-1
ipc-2014-agile-maintenance-1.3.100.300.5-000.pddl,TIMEOUT:301.05:-1.0:300.0:-1
ipc-2014-agile-maintenance-1.3.100.300.5-001.pddl,TIMEOUT:301.05:-1.0:300.0:-1
ipc-2014-agile-maintenance-1.3.100.300.7-000.pddl,SAT:2.90256:78.0:300.0:-1
ipc-2014-agile-maintenance-1.3.100.300.7-001.pddl,SAT:2.89956:75.0:300.0:-1
ipc-2014-agile-maintenance-1.3.100.300.7-002.pddl,SAT:2.90456:81.0:300.0:-1
ipc-2014-agile-maintenance-1.3.150.500.6-001.pddl,SAT:6.24205:129.0:300.0:-1
ipc-2014-agile-maintenance-1.3.200.500.5-001.pddl,TIMEOUT:301.01:-1.0:300.0:-1
ipc-2014-agile-maintenance-1.3.200.500.5-002.pddl,TIMEOUT:301.03:-1.0:300.0:-1
ipc-2014-agile-maintenance-1.3.200.700.7-000.pddl,SAT:12.2051:169.0:300.0:-1
ipc-2014-agile-maintenance-1.3.200.700.7-001.pddl,SAT:252.025:179.0:300.0:-1
ipc-2014-agile-maintenance-1.3.200.700.7-002.pddl,TIMEOUT:301.06:-1.0:300.0:-1
ipc-2014-agile-maintenance-1.3.200.900.5-000.pddl,TIMEOUT:301.01:-1.0:300.0:-1
ipc-2014-agile-maintenance-1.3.200.900.5-001.pddl,TIMEOUT:301.05:-1.0:300.0:-1
ipc-2014-agile-maintenance-1.3.200.900.5-002.pddl,TIMEOUT:301.1:-1.0:300.0:-1
ipc-2014-agile-maintenance-1.3.200.900.8-000.pddl,SAT:20.4599:169.0:300.0:-1
ipc-2014-agile-maintenance-1.3.200.900.8-001.pddl,SAT:20.4359:164.0:300.0:-1
ipc-2014-agile-maintenance-1.3.200.900.8-002.pddl,SAT:20.4529:171.0:300.0:-1
ipc-2014-agile-openstacks-p130_2.pddl,SAT:19.1201:62.0:300.0:-1
ipc-2014-agile-openstacks-p130_3.pddl,SAT:24.4893:108.0:300.0:-1
ipc-2014-agile-openstacks-p150_2.pddl,SAT:27.0939:75.0:300.0:-1
ipc-2014-agile-openstacks-p150_3.pddl,SAT:38.1202:131.0:300.0:-1
ipc-2014-agile-openstacks-p170_1.pddl,SAT:35.6526:72.0:300.0:-1
ipc-2014-agile-openstacks-p170_2.pddl,SAT:37.8312:103.0:300.0:-1
ipc-2014-agile-openstacks-p170_3.pddl,SAT:51.7211:146.0:300.0:-1
ipc-2014-agile-openstacks-p190_1.pddl,SAT:49.1605:103.0:300.0:-1
ipc-2014-agile-openstacks-p190_2.pddl,SAT:52.0731:113.0:300.0:-1
ipc-2014-agile-openstacks-p190_3.pddl,SAT:71.9791:170.0:300.0:-1
ipc-2014-agile-openstacks-p210_1.pddl,SAT:66.3129:107.0:300.0:-1
ipc-2014-agile-openstacks-p210_2.pddl,SAT:84.4212:128.0:300.0:-1
ipc-2014-agile-openstacks-p230_1.pddl,SAT:103.694:119.0:300.0:-1
ipc-2014-agile-openstacks-p230_2.pddl,SAT:115.048:140.0:300.0:-1
ipc-2014-agile-openstacks-p250_1.pddl,SAT:115.085:144.0:300.0:-1
ipc-2014-agile-openstacks-p250_2.pddl,SAT:122.155:160.0:300.0:-1
ipc-2014-agile-openstacks-p270_1.pddl,SAT:147.644:154.0:300.0:-1
ipc-2014-agile-openstacks-p270_2.pddl,SAT:138.483:177.0:300.0:-1
ipc-2014-agile-openstacks-p290_1.pddl,SAT:166.722:171.0:300.0:-1
ipc-2014-agile-openstacks-p290_2.pddl,SAT:183.095:205.0:300.0:-1
ipc-2014-agile-parking-28_2.pddl,SAT:65.813:142.0:300.0:-1
ipc-2014-agile-parking-28_3.pddl,SAT:56.6114:131.0:300.0:-1
ipc-2014-agile-parking-30_1.pddl,SAT:70.2533:119.0:300.0:-1
ipc-2014-agile-parking-30_2.pddl,SAT:80.1228:127.0:300.0:-1
ipc-2014-agile-parking-30_3.pddl,SAT:68.2596:102.0:300.0:-1
ipc-2014-agile-parking-32_1.pddl,SAT:94.3776:92.0:300.0:-1
ipc-2014-agile-parking-32_2.pddl,SAT:260.221:208.0:300.0:-1
ipc-2014-agile-parking-32_3.pddl,SAT:141.418:145.0:300.0:-1
ipc-2014-agile-parking-34_1.pddl,SAT:90.9852:115.0:300.0:-1
ipc-2014-agile-parking-34_2.pddl,SAT:153.335:127.0:300.0:-1
ipc-2014-agile-parking-34_3.pddl,SAT:106.776:103.0:300.0:-1
ipc-2014-agile-parking-36_1.pddl,TIMEOUT:301.03:-1.0:300.0:-1
ipc-2014-agile-parking-36_2.pddl,TIMEOUT:301.08:-1.0:300.0:-1
ipc-2014-agile-parking-36_3.pddl,SAT:178.567:140.0:300.0:-1
ipc-2014-agile-parking-38_1.pddl,SAT:187.372:128.0:300.0:-1
ipc-2014-agile-parking-38_2.pddl,TIMEOUT:301.02:-1.0:300.0:-1
ipc-2014-agile-parking-38_3.pddl,SAT:286.326:126.0:300.0:-1
ipc-2014-agile-parking-40_1.pddl,TIMEOUT:301.0:-1.0:300.0:-1
ipc-2014-agile-parking-40_2.pddl,TIMEOUT:301.04:-1.0:300.0:-1
ipc-2014-agile-parking-40_3.pddl,TIMEOUT:301.07:-1.0:300.0:-1
ipc-2014-agile-tetris-020.pddl,SAT:7.61884:115.0:300.0:-1
ipc-2014-agile-tetris-021.pddl,SAT:60.1329:234.0:300.0:-1
ipc-2014-agile-tetris-022.pddl,TIMEOUT:301.0:-1.0:300.0:-1
ipc-2014-agile-tetris-023.pddl,SAT:77.1893:334.0:300.0:-1
ipc-2014-agile-tetris-024.pddl,TIMEOUT:301.05:-1.0:300.0:-1
ipc-2014-agile-tetris-025.pddl,SAT:37.0554:137.0:300.0:-1
ipc-2014-agile-tetris-026.pddl,TIMEOUT:301.1:-1.0:300.0:-1
ipc-2014-agile-tetris-027.pddl,TIMEOUT:301.09:-1.0:300.0:-1
ipc-2014-agile-tetris-028.pddl,TIMEOUT:301.04:-1.0:300.0:-1
ipc-2014-agile-tetris-029.pddl,SAT:143.192:260.0:300.0:-1
ipc-2014-agile-tetris-031.pddl,TIMEOUT:301.07:-1.0:300.0:-1
ipc-2014-agile-tetris-032.pddl,TIMEOUT:301.01:-1.0:300.0:-1
ipc-2014-agile-tetris-033.pddl,TIMEOUT:301.04:-1.0:300.0:-1
ipc-2014-agile-tetris-034.pddl,SAT:168.754:342.0:300.0:-1
ipc-2014-agile-tetris-035.pddl,TIMEOUT:301.0:-1.0:300.0:-1
ipc-2014-agile-tetris-036.pddl,TIMEOUT:301.07:-1.0:300.0:-1
ipc-2014-agile-tetris-037.pddl,TIMEOUT:301.03:-1.0:300.0:-1
ipc-2014-agile-tetris-038.pddl,TIMEOUT:301.1:-1.0:300.0:-1
ipc-2014-agile-tetris-039.pddl,TIMEOUT:301.01:-1.0:300.0:-1
ipc-2014-agile-tetris-040.pddl,TIMEOUT:301.03:-1.0:300.0:-1
ipc-2014-agile-thoughtful-bootstrap-typed-01.pddl,CRASHED:0.12598:1000000000.0:300.0:-1
ipc-2014-agile-thoughtful-bootstrap-typed-02.pddl,CRASHED:0.117981:1000000000.0:300.0:-1
ipc-2014-agile-thoughtful-bootstrap-typed-03.pddl,CRASHED:0.118981:1000000000.0:300.0:-1
ipc-2014-agile-thoughtful-bootstrap-typed-04.pddl,CRASHED:0.117981:1000000000.0:300.0:-1
ipc-2014-agile-thoughtful-bootstrap-typed-05.pddl,CRASHED:0.118981:1000000000.0:300.0:-1
ipc-2014-agile-thoughtful-p11_6_53-typed.pddl,CRASHED:0.12798:1000000000.0:300.0:-1
ipc-2014-agile-thoughtful-p11_6_59-typed.pddl,CRASHED:0.12798:1000000000.0:300.0:-1
ipc-2014-agile-thoughtful-p11_6_62-typed.pddl,CRASHED:0.127979:1000000000.0:300.0:-1
ipc-2014-agile-thoughtful-p13_7_78-typed.pddl,CRASHED:0.155976:1000000000.0:300.0:-1
ipc-2014-agile-thoughtful-p13_7_79-typed.pddl,CRASHED:0.145977:1000000000.0:300.0:-1
ipc-2014-agile-thoughtful-p13_7_86-typed.pddl,CRASHED:0.143978:1000000000.0:300.0:-1
ipc-2014-agile-thoughtful-target-typed-20.pddl,CRASHED:0.142978:1000000000.0:300.0:-1
ipc-2014-agile-thoughtful-target-typed-21.pddl,CRASHED:0.127979:1000000000.0:300.0:-1
ipc-2014-agile-thoughtful-target-typed-22.pddl,CRASHED:0.131979:1000000000.0:300.0:-1
ipc-2014-agile-thoughtful-target-typed-23.pddl,CRASHED:0.131979:1000000000.0:300.0:-1
ipc-2014-agile-thoughtful-target-typed-24.pddl,CRASHED:0.131979:1000000000.0:300.0:-1
ipc-2014-agile-thoughtful-target-typed-25.pddl,CRASHED:0.132979:1000000000.0:300.0:-1
ipc-2014-agile-thoughtful-target-typed-26.pddl,CRASHED:0.128979:1000000000.0:300.0:-1
ipc-2014-agile-thoughtful-target-typed-27.pddl,CRASHED:0.157975:1000000000.0:300.0:-1
ipc-2014-agile-thoughtful-target-typed-28.pddl,CRASHED:0.144977:1000000000.0:300.0:-1
ipc-2014-agile-transport-01.pddl,SAT:40.9148:2104.0:300.0:-1
ipc-2014-agile-transport-02.pddl,SAT:171.995:3913.0:300.0:-1
ipc-2014-agile-transport-03.pddl,SAT:59.469:3076.0:300.0:-1
ipc-2014-agile-transport-04.pddl,TIMEOUT:301.05:-1.0:300.0:-1
ipc-2014-agile-transport-05.pddl,TIMEOUT:301.07:-1.0:300.0:-1
ipc-2014-agile-transport-06.pddl,TIMEOUT:301.04:-1.0:300.0:-1
ipc-2014-agile-transport-07.pddl,TIMEOUT:301.02:-1.0:300.0:-1
ipc-2014-agile-transport-08.pddl,TIMEOUT:301.08:-1.0:300.0:-1
ipc-2014-agile-transport-09.pddl,TIMEOUT:301.02:-1.0:300.0:-1
ipc-2014-agile-transport-10.pddl,TIMEOUT:301.04:-1.0:300.0:-1
ipc-2014-agile-transport-11.pddl,SAT:165.289:3189.0:300.0:-1
ipc-2014-agile-transport-12.pddl,SAT:66.7199:2371.0:300.0:-1
ipc-2014-agile-transport-13.pddl,SAT:39.258:2647.0:300.0:-1
ipc-2014-agile-transport-14.pddl,TIMEOUT:301.09:-1.0:300.0:-1
ipc-2014-agile-transport-15.pddl,TIMEOUT:301.07:-1.0:300.0:-1
ipc-2014-agile-transport-16.pddl,TIMEOUT:301.08:-1.0:300.0:-1
ipc-2014-agile-transport-17.pddl,TIMEOUT:301.0:-1.0:300.0:-1
ipc-2014-agile-transport-18.pddl,TIMEOUT:301.08:-1.0:300.0:-1
ipc-2014-agile-transport-19.pddl,SAT:231.423:6860.0:300.0:-1
ipc-2014-agile-transport-20.pddl,TIMEOUT:301.07:-1.0:300.0:-1
ipc-2014-agile-visitall-30.pddl,SAT:14.7498:1229.0:300.0:-1
ipc-2014-agile-visitall-31.pddl,SAT:16.7585:1277.0:300.0:-1
ipc-2014-agile-visitall-32.pddl,SAT:18.7901:1402.0:300.0:-1
ipc-2014-agile-visitall-33.pddl,SAT:20.6809:1390.0:300.0:-1
ipc-2014-agile-visitall-50.pddl,SAT:162.819:3408.0:300.0:-1
ipc-2014-agile-visitall-51.pddl,SAT:148.552:3484.0:300.0:-1
ipc-2014-agile-visitall-52.pddl,SAT:185.676:3617.0:300.0:-1
ipc-2014-agile-visitall-53.pddl,SAT:194.451:3880.0:300.0:-1
ipc-2014-agile-visitall-54.pddl,SAT:188.865:3905.0:300.0:-1
ipc-2014-agile-visitall-55.pddl,SAT:199.304:4007.0:300.0:-1
ipc-2014-agile-visitall-56.pddl,SAT:233.532:4091.0:300.0:-1
ipc-2014-agile-visitall-57.pddl,SAT:209.867:4125.0:300.0:-1
ipc-2014-agile-visitall-58.pddl,SAT:240.818:4453.0:300.0:-1
ipc-2014-agile-visitall-59.pddl,TIMEOUT:301.0:-1.0:300.0:-1
ipc-2014-agile-visitall-60.pddl,SAT:272.597:4757.0:300.0:-1
ipc-2014-agile-visitall-61.pddl,TIMEOUT:301.05:-1.0:300.0:-1
ipc-2014-agile-visitall-62.pddl,TIMEOUT:301.07:-1.0:300.0:-1
ipc-2014-agile-visitall-63.pddl,TIMEOUT:301.09:-1.0:300.0:-1
ipc-2014-agile-visitall-64.pddl,TIMEOUT:301.02:-1.0:300.0:-1
ipc-2014-agile-visitall-65.pddl,TIMEOUT:301.11:-1.0:300.0:-1
