instance,ipc-2014-optimal-rida-fixed
ipc-2014-optimal-barman-p433.1.pddl,CRASHED:0.306953:1000000000.0:1800.0:-1
ipc-2014-optimal-barman-p433.2.pddl,CRASHED:0.298953:1000000000.0:1800.0:-1
ipc-2014-optimal-barman-p433.3.pddl,CRASHED:0.294954:1000000000.0:1800.0:-1
ipc-2014-optimal-barman-p435.1.pddl,TIMEOUT:1801.0:-1.0:1800.0:-1
ipc-2014-optimal-barman-p435.2.pddl,TIMEOUT:1801.05:-1.0:1800.0:-1
ipc-2014-optimal-barman-p435.3.pddl,CRASHED:700.24:1000000000.0:1800.0:-1
ipc-2014-optimal-barman-p443.1.pddl,CRASHED:0.307953:1000000000.0:1800.0:-1
ipc-2014-optimal-barman-p443.2.pddl,CRASHED:0.293954:1000000000.0:1800.0:-1
ipc-2014-optimal-barman-p443.3.pddl,CRASHED:0.292954:1000000000.0:1800.0:-1
ipc-2014-optimal-barman-p536.1.pddl,CRASHED:501.14:1000000000.0:1800.0:-1
ipc-2014-optimal-barman-p536.2.pddl,CRASHED:495.61:1000000000.0:1800.0:-1
ipc-2014-optimal-barman-p536.3.pddl,CRASHED:493.76:1000000000.0:1800.0:-1
ipc-2014-optimal-barman-p638.1.pddl,CRASHED:520.13:1000000000.0:1800.0:-1
ipc-2014-optimal-barman-p638.2.pddl,TIMEOUT:1801.05:-1.0:1800.0:-1
ipc-2014-optimal-barman-p638.3.pddl,TIMEOUT:1801.02:-1.0:1800.0:-1
ipc-2014-optimal-barman-p739.1.pddl,CRASHED:487.74:1000000000.0:1800.0:-1
ipc-2014-optimal-barman-p739.2.pddl,CRASHED:489.17:1000000000.0:1800.0:-1
ipc-2014-optimal-barman-p739.3.pddl,TIMEOUT:1801.02:-1.0:1800.0:-1
ipc-2014-optimal-barman-p839.1.pddl,CRASHED:509.81:1000000000.0:1800.0:-1
ipc-2014-optimal-barman-p839.2.pddl,CRASHED:470.23:1000000000.0:1800.0:-1
ipc-2014-optimal-cavediving-01.pddl,CRASHED:1.66675:1000000000.0:1800.0:-1
ipc-2014-optimal-cavediving-01_easy.pddl,CRASHED:1.16982:1000000000.0:1800.0:-1
ipc-2014-optimal-cavediving-02_easy.pddl,CRASHED:1.10783:1000000000.0:1800.0:-1
ipc-2014-optimal-cavediving-03_easy.pddl,CRASHED:1.11183:1000000000.0:1800.0:-1
ipc-2014-optimal-cavediving-04_easy.pddl,CRASHED:1.12583:1000000000.0:1800.0:-1
ipc-2014-optimal-cavediving-05A_easy.pddl,CRASHED:0.331949:1000000000.0:1800.0:-1
ipc-2014-optimal-cavediving-06A_easy.pddl,CRASHED:0.32195:1000000000.0:1800.0:-1
ipc-2014-optimal-cavediving-07_easy.pddl,SAT:274.13:131.0:1800.0:-1
ipc-2014-optimal-cavediving-08_easy.pddl,CRASHED:0.334948:1000000000.0:1800.0:-1
ipc-2014-optimal-cavediving-09_easy.pddl,CRASHED:5.45017:1000000000.0:1800.0:-1
ipc-2014-optimal-cavediving-10_easy.pddl,CRASHED:5.15921:1000000000.0:1800.0:-1
ipc-2014-optimal-cavediving-11_easy.pddl,CRASHED:5.49916:1000000000.0:1800.0:-1
ipc-2014-optimal-cavediving-12_easy.pddl,CRASHED:5.20121:1000000000.0:1800.0:-1
ipc-2014-optimal-cavediving-13_easy.pddl,CRASHED:1.61875:1000000000.0:1800.0:-1
ipc-2014-optimal-cavediving-14_easy.pddl,CRASHED:1.61575:1000000000.0:1800.0:-1
ipc-2014-optimal-cavediving-15_easy.pddl,CRASHED:1.39379:1000000000.0:1800.0:-1
ipc-2014-optimal-cavediving-16_easy.pddl,CRASHED:1.59876:1000000000.0:1800.0:-1
ipc-2014-optimal-cavediving-18A_easy.pddl,SAT:225.043:131.0:1800.0:-1
ipc-2014-optimal-cavediving-18_easy.pddl,SAT:264.3:131.0:1800.0:-1
ipc-2014-optimal-cavediving-20A_easy.pddl,CRASHED:0.438932:1000000000.0:1800.0:-1
ipc-2014-optimal-childsnack-01-2.pddl,TIMEOUT:1801.06:-1.0:1800.0:-1
ipc-2014-optimal-childsnack-01.pddl,TIMEOUT:1801.03:-1.0:1800.0:-1
ipc-2014-optimal-childsnack-02-2.pddl,TIMEOUT:1801.0:-1.0:1800.0:-1
ipc-2014-optimal-childsnack-02.pddl,TIMEOUT:1801.07:-1.0:1800.0:-1
ipc-2014-optimal-childsnack-03-2.pddl,TIMEOUT:1801.01:-1.0:1800.0:-1
ipc-2014-optimal-childsnack-03.pddl,TIMEOUT:1801.0:-1.0:1800.0:-1
ipc-2014-optimal-childsnack-04-2.pddl,TIMEOUT:1801.08:-1.0:1800.0:-1
ipc-2014-optimal-childsnack-04.pddl,TIMEOUT:1801.0:-1.0:1800.0:-1
ipc-2014-optimal-childsnack-05-2.pddl,TIMEOUT:1801.05:-1.0:1800.0:-1
ipc-2014-optimal-childsnack-05.pddl,TIMEOUT:1801.09:-1.0:1800.0:-1
ipc-2014-optimal-childsnack-06-2.pddl,TIMEOUT:1801.04:-1.0:1800.0:-1
ipc-2014-optimal-childsnack-06.pddl,TIMEOUT:1801.08:-1.0:1800.0:-1
ipc-2014-optimal-childsnack-07-2.pddl,TIMEOUT:1801.0:-1.0:1800.0:-1
ipc-2014-optimal-childsnack-07.pddl,TIMEOUT:1801.08:-1.0:1800.0:-1
ipc-2014-optimal-childsnack-08-2.pddl,TIMEOUT:1801.04:-1.0:1800.0:-1
ipc-2014-optimal-childsnack-08.pddl,TIMEOUT:1801.03:-1.0:1800.0:-1
ipc-2014-optimal-childsnack-09-2.pddl,TIMEOUT:1801.02:-1.0:1800.0:-1
ipc-2014-optimal-childsnack-09.pddl,TIMEOUT:1801.09:-1.0:1800.0:-1
ipc-2014-optimal-childsnack-10-2.pddl,TIMEOUT:1801.06:-1.0:1800.0:-1
ipc-2014-optimal-childsnack-10.pddl,TIMEOUT:1801.06:-1.0:1800.0:-1
ipc-2014-optimal-citycar-p2-2-2-1-2.pddl,SAT:1.63575:46.0:1800.0:-1
ipc-2014-optimal-citycar-p2-2-2-2-1.pddl,SAT:2.13168:64.0:1800.0:-1
ipc-2014-optimal-citycar-p2-2-3-1-2.pddl,SAT:2.41263:50.0:1800.0:-1
ipc-2014-optimal-citycar-p2-2-3-2-1.pddl,SAT:2.21366:48.0:1800.0:-1
ipc-2014-optimal-citycar-p2-2-3-2-2.pddl,SAT:2.39464:50.0:1800.0:-1
ipc-2014-optimal-citycar-p2-2-4-1-2.pddl,SAT:6.02608:52.0:1800.0:-1
ipc-2014-optimal-citycar-p2-2-4-2-1.pddl,SAT:6.00909:52.0:1800.0:-1
ipc-2014-optimal-citycar-p2-2-5-2-2.pddl,SAT:217.951:76.0:1800.0:-1
ipc-2014-optimal-citycar-p2-2-6-1-1.pddl,SAT:163.158:58.0:1800.0:-1
ipc-2014-optimal-citycar-p2-2-6-2-2.pddl,SAT:162.764:58.0:1800.0:-1
ipc-2014-optimal-citycar-p2-3-2-3-1.pddl,SAT:8.02778:68.0:1800.0:-1
ipc-2014-optimal-citycar-p2-3-3-3-1.pddl,SAT:52.854:78.0:1800.0:-1
ipc-2014-optimal-citycar-p2-3-4-3-1.pddl,SAT:252.287:82.0:1800.0:-1
ipc-2014-optimal-citycar-p2-3-6-3-2.pddl,TIMEOUT:1801.05:-1.0:1800.0:-1
ipc-2014-optimal-citycar-p3-3-2-2-1.pddl,SAT:211.517:70.0:1800.0:-1
ipc-2014-optimal-citycar-p3-3-2-2-2.pddl,CRASHED:1676.12:1000000000.0:1800.0:-1
ipc-2014-optimal-citycar-p3-3-2-3-1.pddl,SAT:7.95279:48.0:1800.0:-1
ipc-2014-optimal-citycar-p3-3-2-3-2.pddl,SAT:170.509:70.0:1800.0:-1
ipc-2014-optimal-citycar-p3-3-3-3-1.pddl,TIMEOUT:1801.01:-1.0:1800.0:-1
ipc-2014-optimal-citycar-p3-3-3-3-2.pddl,SAT:1496.37:76.0:1800.0:-1
ipc-2014-optimal-floortile-p01-4-3-2.pddl,SAT:255.187:56.0:1800.0:-1
ipc-2014-optimal-floortile-p01-4-4-2.pddl,SAT:1392.95:68.0:1800.0:-1
ipc-2014-optimal-floortile-p01-5-3-2.pddl,SAT:401.807:63.0:1800.0:-1
ipc-2014-optimal-floortile-p01-5-4-2.pddl,TIMEOUT:1801.06:-1.0:1800.0:-1
ipc-2014-optimal-floortile-p01-5-5-2.pddl,TIMEOUT:1801.08:-1.0:1800.0:-1
ipc-2014-optimal-floortile-p01-6-4-2.pddl,TIMEOUT:1801.09:-1.0:1800.0:-1
ipc-2014-optimal-floortile-p01-6-5-2.pddl,TIMEOUT:1801.1:-1.0:1800.0:-1
ipc-2014-optimal-floortile-p02-4-4-2.pddl,TIMEOUT:1801.04:-1.0:1800.0:-1
ipc-2014-optimal-floortile-p02-5-3-2.pddl,SAT:489.861:65.0:1800.0:-1
ipc-2014-optimal-floortile-p02-5-4-2.pddl,TIMEOUT:1801.06:-1.0:1800.0:-1
ipc-2014-optimal-floortile-p02-5-5-2.pddl,TIMEOUT:1801.08:-1.0:1800.0:-1
ipc-2014-optimal-floortile-p02-6-4-2.pddl,TIMEOUT:1801.04:-1.0:1800.0:-1
ipc-2014-optimal-floortile-p02-6-5-2.pddl,TIMEOUT:1801.1:-1.0:1800.0:-1
ipc-2014-optimal-floortile-p03-4-3-2.pddl,SAT:259.145:56.0:1800.0:-1
ipc-2014-optimal-floortile-p03-4-4-2.pddl,TIMEOUT:1801.06:-1.0:1800.0:-1
ipc-2014-optimal-floortile-p03-5-3-2.pddl,SAT:515.578:65.0:1800.0:-1
ipc-2014-optimal-floortile-p03-5-4-2.pddl,TIMEOUT:1801.03:-1.0:1800.0:-1
ipc-2014-optimal-floortile-p03-5-5-2.pddl,TIMEOUT:1801.03:-1.0:1800.0:-1
ipc-2014-optimal-floortile-p03-6-4-2.pddl,TIMEOUT:1801.0:-1.0:1800.0:-1
ipc-2014-optimal-floortile-p03-6-5-2.pddl,TIMEOUT:1801.1:-1.0:1800.0:-1
ipc-2014-optimal-ged-d-1-2.pddl,SAT:50.3034:1.0:1800.0:-1
ipc-2014-optimal-ged-d-1-3.pddl,SAT:203.396:4.0:1800.0:-1
ipc-2014-optimal-ged-d-1-4.pddl,SAT:51.1012:1.0:1800.0:-1
ipc-2014-optimal-ged-d-1-8.pddl,SAT:288.164:4.0:1800.0:-1
ipc-2014-optimal-ged-d-2-1.pddl,SAT:50.7233:1.0:1800.0:-1
ipc-2014-optimal-ged-d-2-3.pddl,SAT:144.159:3.0:1800.0:-1
ipc-2014-optimal-ged-d-2-4.pddl,SAT:125.273:2.0:1800.0:-1
ipc-2014-optimal-ged-d-2-8.pddl,SAT:405.576:5.0:1800.0:-1
ipc-2014-optimal-ged-d-3-1.pddl,SAT:228.176:4.0:1800.0:-1
ipc-2014-optimal-ged-d-3-2.pddl,SAT:143.808:3.0:1800.0:-1
ipc-2014-optimal-ged-d-3-4.pddl,SAT:292.071:5.0:1800.0:-1
ipc-2014-optimal-ged-d-4-2.pddl,SAT:129.923:2.0:1800.0:-1
ipc-2014-optimal-ged-d-4-3.pddl,SAT:336.741:5.0:1800.0:-1
ipc-2014-optimal-ged-d-4-8.pddl,SAT:445.111:5.0:1800.0:-1
ipc-2014-optimal-ged-d-7-5.pddl,SAT:288.299:4.0:1800.0:-1
ipc-2014-optimal-ged-d-7-6.pddl,SAT:230.778:4.0:1800.0:-1
ipc-2014-optimal-ged-d-8-1.pddl,SAT:290.942:4.0:1800.0:-1
ipc-2014-optimal-ged-d-8-2.pddl,TIMEOUT:1801.04:-1.0:1800.0:-1
ipc-2014-optimal-ged-d-8-4.pddl,SAT:378.274:5.0:1800.0:-1
ipc-2014-optimal-ged-d-8-9.pddl,CRASHED:489.69:1000000000.0:1800.0:-1
ipc-2014-optimal-hiking-1-2-3.pddl,SAT:7.72982:11.0:1800.0:-1
ipc-2014-optimal-hiking-1-2-4.pddl,SAT:10.7674:17.0:1800.0:-1
ipc-2014-optimal-hiking-1-2-5.pddl,SAT:17.8763:25.0:1800.0:-1
ipc-2014-optimal-hiking-1-2-7.pddl,SAT:39.339:38.0:1800.0:-1
ipc-2014-optimal-hiking-1-2-8.pddl,SAT:62.1166:45.0:1800.0:-1
ipc-2014-optimal-hiking-2-2-3.pddl,SAT:137.573:10.0:1800.0:-1
ipc-2014-optimal-hiking-2-2-4.pddl,SAT:211.28:16.0:1800.0:-1
ipc-2014-optimal-hiking-2-2-5.pddl,SAT:312.722:22.0:1800.0:-1
ipc-2014-optimal-hiking-2-2-6.pddl,SAT:433.409:30.0:1800.0:-1
ipc-2014-optimal-hiking-2-2-7.pddl,SAT:465.111:34.0:1800.0:-1
ipc-2014-optimal-hiking-2-2-8.pddl,SAT:920.05:42.0:1800.0:-1
ipc-2014-optimal-hiking-2-3-4.pddl,SAT:342.109:17.0:1800.0:-1
ipc-2014-optimal-hiking-2-3-5.pddl,SAT:538.763:24.0:1800.0:-1
ipc-2014-optimal-hiking-2-3-6.pddl,SAT:623.334:28.0:1800.0:-1
ipc-2014-optimal-hiking-2-3-7.pddl,CRASHED:1053.84:1000000000.0:1800.0:-1
ipc-2014-optimal-hiking-2-4-3.pddl,SAT:264.08:10.0:1800.0:-1
ipc-2014-optimal-hiking-2-4-4.pddl,SAT:516.932:17.0:1800.0:-1
ipc-2014-optimal-hiking-2-4-5.pddl,SAT:765.476:23.0:1800.0:-1
ipc-2014-optimal-hiking-2-4-6.pddl,SAT:1108.62:30.0:1800.0:-1
ipc-2014-optimal-hiking-2-4-7.pddl,CRASHED:798.9:1000000000.0:1800.0:-1
ipc-2014-optimal-maintenance-1.3.010.010.1-001.pddl,CRASHED:7.63684:1000000000.0:1800.0:-1
ipc-2014-optimal-maintenance-1.3.010.010.1-002.pddl,CRASHED:11.6282:1000000000.0:1800.0:-1
ipc-2014-optimal-maintenance-1.3.010.010.2-000.pddl,SAT:21.3727:4.0:1800.0:-1
ipc-2014-optimal-maintenance-1.3.010.010.2-001.pddl,SAT:25.3801:7.0:1800.0:-1
ipc-2014-optimal-maintenance-1.3.010.010.2-002.pddl,SAT:36.2575:6.0:1800.0:-1
ipc-2014-optimal-maintenance-1.3.015.020.1-000.pddl,CRASHED:26.277:1000000000.0:1800.0:-1
ipc-2014-optimal-maintenance-1.3.015.020.1-001.pddl,CRASHED:19.597:1000000000.0:1800.0:-1
ipc-2014-optimal-maintenance-1.3.015.020.1-002.pddl,CRASHED:24.1143:1000000000.0:1800.0:-1
ipc-2014-optimal-maintenance-1.3.015.020.2-000.pddl,CRASHED:338.502:1000000000.0:1800.0:-1
ipc-2014-optimal-maintenance-1.3.015.020.2-001.pddl,SAT:120.842:11.0:1800.0:-1
ipc-2014-optimal-maintenance-1.3.015.020.2-002.pddl,SAT:116.035:9.0:1800.0:-1
ipc-2014-optimal-maintenance-1.3.025.050.1-000.pddl,CRASHED:87.1108:1000000000.0:1800.0:-1
ipc-2014-optimal-maintenance-1.3.025.050.1-001.pddl,CRASHED:171.235:1000000000.0:1800.0:-1
ipc-2014-optimal-maintenance-1.3.025.050.1-002.pddl,CRASHED:170.622:1000000000.0:1800.0:-1
ipc-2014-optimal-maintenance-1.3.025.100.1-000.pddl,CRASHED:80.7177:1000000000.0:1800.0:-1
ipc-2014-optimal-maintenance-1.3.025.100.1-001.pddl,CRASHED:77.4692:1000000000.0:1800.0:-1
ipc-2014-optimal-maintenance-1.3.025.100.1-002.pddl,CRASHED:80.8867:1000000000.0:1800.0:-1
ipc-2014-optimal-maintenance-1.3.025.100.2-000.pddl,TIMEOUT:1801.05:-1.0:1800.0:-1
ipc-2014-optimal-maintenance-1.3.025.100.2-001.pddl,TIMEOUT:1801.02:-1.0:1800.0:-1
ipc-2014-optimal-maintenance-1.3.025.100.2-002.pddl,TIMEOUT:1801.07:-1.0:1800.0:-1
ipc-2014-optimal-openstacks-p20_1.pddl,SAT:324.332:3.0:1800.0:-1
ipc-2014-optimal-openstacks-p20_2.pddl,SAT:279.668:4.0:1800.0:-1
ipc-2014-optimal-openstacks-p20_3.pddl,SAT:179.15:6.0:1800.0:-1
ipc-2014-optimal-openstacks-p25_1.pddl,CRASHED:678.99:1000000000.0:1800.0:-1
ipc-2014-optimal-openstacks-p25_3.pddl,CRASHED:695.43:1000000000.0:1800.0:-1
ipc-2014-optimal-openstacks-p30_1.pddl,TIMEOUT:1801.09:-1.0:1800.0:-1
ipc-2014-optimal-openstacks-p30_2.pddl,TIMEOUT:1801.01:-1.0:1800.0:-1
ipc-2014-optimal-openstacks-p30_3.pddl,TIMEOUT:1801.02:-1.0:1800.0:-1
ipc-2014-optimal-openstacks-p35_1.pddl,TIMEOUT:1801.08:-1.0:1800.0:-1
ipc-2014-optimal-openstacks-p35_2.pddl,TIMEOUT:1801.05:-1.0:1800.0:-1
ipc-2014-optimal-openstacks-p35_3.pddl,CRASHED:624.66:1000000000.0:1800.0:-1
ipc-2014-optimal-openstacks-p40_1.pddl,CRASHED:460.49:1000000000.0:1800.0:-1
ipc-2014-optimal-openstacks-p40_2.pddl,CRASHED:444.61:1000000000.0:1800.0:-1
ipc-2014-optimal-openstacks-p40_3.pddl,CRASHED:662.66:1000000000.0:1800.0:-1
ipc-2014-optimal-openstacks-p45_1.pddl,CRASHED:585.27:1000000000.0:1800.0:-1
ipc-2014-optimal-openstacks-p45_2.pddl,CRASHED:549.36:1000000000.0:1800.0:-1
ipc-2014-optimal-openstacks-p45_3.pddl,CRASHED:716.49:1000000000.0:1800.0:-1
ipc-2014-optimal-openstacks-p50_1.pddl,CRASHED:702.67:1000000000.0:1800.0:-1
ipc-2014-optimal-openstacks-p50_2.pddl,CRASHED:742.22:1000000000.0:1800.0:-1
ipc-2014-optimal-openstacks-p50_3.pddl,CRASHED:707.62:1000000000.0:1800.0:-1
ipc-2014-optimal-parking-12_7-01.pddl,SAT:895.117:18.0:1800.0:-1
ipc-2014-optimal-parking-12_7-02.pddl,SAT:917.265:18.0:1800.0:-1
ipc-2014-optimal-parking-12_7-03.pddl,SAT:901.816:17.0:1800.0:-1
ipc-2014-optimal-parking-12_7-04.pddl,SAT:895.668:19.0:1800.0:-1
ipc-2014-optimal-parking-14_8-01.pddl,CRASHED:1490.45:1000000000.0:1800.0:-1
ipc-2014-optimal-parking-14_8-02.pddl,SAT:1331.35:22.0:1800.0:-1
ipc-2014-optimal-parking-14_8-03.pddl,SAT:1234.52:21.0:1800.0:-1
ipc-2014-optimal-parking-14_8-04.pddl,CRASHED:1547.47:1000000000.0:1800.0:-1
ipc-2014-optimal-parking-16_9-01.pddl,CRASHED:1474.32:1000000000.0:1800.0:-1
ipc-2014-optimal-parking-16_9-02.pddl,CRASHED:1456.36:1000000000.0:1800.0:-1
ipc-2014-optimal-parking-16_9-03.pddl,CRASHED:1440.36:1000000000.0:1800.0:-1
ipc-2014-optimal-parking-16_9-04.pddl,CRASHED:1337.98:1000000000.0:1800.0:-1
ipc-2014-optimal-parking-18_10-01.pddl,CRASHED:1491.19:1000000000.0:1800.0:-1
ipc-2014-optimal-parking-18_10-02.pddl,CRASHED:1747.5:1000000000.0:1800.0:-1
ipc-2014-optimal-parking-18_10-03.pddl,CRASHED:1463.97:1000000000.0:1800.0:-1
ipc-2014-optimal-parking-18_10-04.pddl,CRASHED:1443.43:1000000000.0:1800.0:-1
ipc-2014-optimal-parking-20_11-01.pddl,CRASHED:1673.13:1000000000.0:1800.0:-1
ipc-2014-optimal-parking-20_11-02.pddl,CRASHED:1717.51:1000000000.0:1800.0:-1
ipc-2014-optimal-parking-20_11-03.pddl,TIMEOUT:1801.05:-1.0:1800.0:-1
ipc-2014-optimal-parking-20_11-04.pddl,CRASHED:1528.09:1000000000.0:1800.0:-1
ipc-2014-optimal-tetris-01-10.pddl,TIMEOUT:1801.04:-1.0:1800.0:-1
ipc-2014-optimal-tetris-01-04.pddl,CRASHED:306.372:1000000000.0:1800.0:-1
ipc-2014-optimal-tetris-01-06.pddl,SAT:217.472:30.0:1800.0:-1
ipc-2014-optimal-tetris-01-08.pddl,SAT:1092.34:36.0:1800.0:-1
ipc-2014-optimal-tetris-02-10.pddl,TIMEOUT:1801.05:-1.0:1800.0:-1
ipc-2014-optimal-tetris-02-04.pddl,SAT:530.253:10.0:1800.0:-1
ipc-2014-optimal-tetris-02-06.pddl,SAT:297.79:30.0:1800.0:-1
ipc-2014-optimal-tetris-02-08.pddl,TIMEOUT:1801.01:-1.0:1800.0:-1
ipc-2014-optimal-tetris-03-10.pddl,TIMEOUT:1801.08:-1.0:1800.0:-1
ipc-2014-optimal-tetris-03-04.pddl,SAT:749.249:11.0:1800.0:-1
ipc-2014-optimal-tetris-03-06.pddl,SAT:254.209:21.0:1800.0:-1
ipc-2014-optimal-tetris-03-08.pddl,TIMEOUT:1801.01:-1.0:1800.0:-1
ipc-2014-optimal-tetris-04-10.pddl,TIMEOUT:1801.01:-1.0:1800.0:-1
ipc-2014-optimal-tetris-04-04.pddl,CRASHED:328.953:1000000000.0:1800.0:-1
ipc-2014-optimal-tetris-04-06.pddl,SAT:246.399:27.0:1800.0:-1
ipc-2014-optimal-tetris-04-08.pddl,TIMEOUT:1801.06:-1.0:1800.0:-1
ipc-2014-optimal-tetris-05-10.pddl,TIMEOUT:1801.06:-1.0:1800.0:-1
ipc-2014-optimal-tetris-05-04.pddl,CRASHED:415.944:1000000000.0:1800.0:-1
ipc-2014-optimal-tetris-05-06.pddl,SAT:221.041:19.0:1800.0:-1
ipc-2014-optimal-tetris-05-08.pddl,TIMEOUT:1801.08:-1.0:1800.0:-1
ipc-2014-optimal-tidybot-01.pddl,TIMEOUT:1801.05:-1.0:1800.0:-1
ipc-2014-optimal-tidybot-02.pddl,SAT:492.788:35.0:1800.0:-1
ipc-2014-optimal-tidybot-03.pddl,SAT:437.726:30.0:1800.0:-1
ipc-2014-optimal-tidybot-04.pddl,SAT:403.264:24.0:1800.0:-1
ipc-2014-optimal-tidybot-05.pddl,TIMEOUT:1801.06:-1.0:1800.0:-1
ipc-2014-optimal-tidybot-06.pddl,TIMEOUT:1801.06:-1.0:1800.0:-1
ipc-2014-optimal-tidybot-07.pddl,SAT:1357.12:38.0:1800.0:-1
ipc-2014-optimal-tidybot-08.pddl,SAT:315.985:25.0:1800.0:-1
ipc-2014-optimal-tidybot-09.pddl,TIMEOUT:1801.04:-1.0:1800.0:-1
ipc-2014-optimal-tidybot-10.pddl,TIMEOUT:1801.08:-1.0:1800.0:-1
ipc-2014-optimal-tidybot-11.pddl,SAT:209.204:29.0:1800.0:-1
ipc-2014-optimal-tidybot-12.pddl,SAT:817.028:35.0:1800.0:-1
ipc-2014-optimal-tidybot-13.pddl,SAT:345.154:30.0:1800.0:-1
ipc-2014-optimal-tidybot-14.pddl,SAT:224.73:25.0:1800.0:-1
ipc-2014-optimal-tidybot-15.pddl,TIMEOUT:1801.08:-1.0:1800.0:-1
ipc-2014-optimal-tidybot-16.pddl,TIMEOUT:1801.04:-1.0:1800.0:-1
ipc-2014-optimal-tidybot-17.pddl,TIMEOUT:1801.04:-1.0:1800.0:-1
ipc-2014-optimal-tidybot-18.pddl,TIMEOUT:1801.04:-1.0:1800.0:-1
ipc-2014-optimal-tidybot-19.pddl,TIMEOUT:1801.04:-1.0:1800.0:-1
ipc-2014-optimal-tidybot-20.pddl,TIMEOUT:1801.06:-1.0:1800.0:-1
ipc-2014-optimal-transport-01.pddl,SAT:57.4973:148.0:1800.0:-1
ipc-2014-optimal-transport-02.pddl,SAT:104.763:191.0:1800.0:-1
ipc-2014-optimal-transport-03.pddl,SAT:214.946:300.0:1800.0:-1
ipc-2014-optimal-transport-04.pddl,TIMEOUT:1801.03:-1.0:1800.0:-1
ipc-2014-optimal-transport-05.pddl,TIMEOUT:1801.02:-1.0:1800.0:-1
ipc-2014-optimal-transport-06.pddl,TIMEOUT:1801.09:-1.0:1800.0:-1
ipc-2014-optimal-transport-07.pddl,SAT:102.079:967.0:1800.0:-1
ipc-2014-optimal-transport-08.pddl,SAT:210.116:1173.0:1800.0:-1
ipc-2014-optimal-transport-09.pddl,CRASHED:687.42:1000000000.0:1800.0:-1
ipc-2014-optimal-transport-10.pddl,CRASHED:712.76:1000000000.0:1800.0:-1
ipc-2014-optimal-transport-11.pddl,TIMEOUT:1801.08:-1.0:1800.0:-1
ipc-2014-optimal-transport-12.pddl,TIMEOUT:1801.03:-1.0:1800.0:-1
ipc-2014-optimal-transport-13.pddl,SAT:117.107:594.0:1800.0:-1
ipc-2014-optimal-transport-14.pddl,SAT:325.575:526.0:1800.0:-1
ipc-2014-optimal-transport-15.pddl,SAT:288.504:753.0:1800.0:-1
ipc-2014-optimal-transport-16.pddl,CRASHED:735.58:1000000000.0:1800.0:-1
ipc-2014-optimal-transport-17.pddl,TIMEOUT:1801.0:-1.0:1800.0:-1
ipc-2014-optimal-transport-18.pddl,TIMEOUT:1801.09:-1.0:1800.0:-1
ipc-2014-optimal-transport-19.pddl,TIMEOUT:1801.01:-1.0:1800.0:-1
ipc-2014-optimal-transport-20.pddl,TIMEOUT:1801.04:-1.0:1800.0:-1
ipc-2014-optimal-visitall-05-10.pddl,SAT:263.072:60.0:1800.0:-1
ipc-2014-optimal-visitall-05-05.pddl,SAT:35.8585:21.0:1800.0:-1
ipc-2014-optimal-visitall-05-06.pddl,SAT:45.2131:25.0:1800.0:-1
ipc-2014-optimal-visitall-05-07.pddl,SAT:104.276:34.0:1800.0:-1
ipc-2014-optimal-visitall-05-08.pddl,SAT:215.713:43.0:1800.0:-1
ipc-2014-optimal-visitall-05-09.pddl,SAT:201.432:54.0:1800.0:-1
ipc-2014-optimal-visitall-01-10.pddl,SAT:243.754:99.0:1800.0:-1
ipc-2014-optimal-visitall-01-11.pddl,SAT:296.385:120.0:1800.0:-1
ipc-2014-optimal-visitall-01-12.pddl,SAT:634.4:143.0:1800.0:-1
ipc-2014-optimal-visitall-01-13.pddl,SAT:543.502:168.0:1800.0:-1
ipc-2014-optimal-visitall-01-14.pddl,CRASHED:1008.84:1000000000.0:1800.0:-1
ipc-2014-optimal-visitall-01-15.pddl,CRASHED:1056.03:1000000000.0:1800.0:-1
ipc-2014-optimal-visitall-01-16.pddl,CRASHED:1031.15:1000000000.0:1800.0:-1
ipc-2014-optimal-visitall-01-17.pddl,CRASHED:1096.18:1000000000.0:1800.0:-1
ipc-2014-optimal-visitall-01-18.pddl,CRASHED:969.9:1000000000.0:1800.0:-1
ipc-2014-optimal-visitall-01-05.pddl,SAT:126.149:24.0:1800.0:-1
ipc-2014-optimal-visitall-01-06.pddl,SAT:269.073:35.0:1800.0:-1
ipc-2014-optimal-visitall-01-07.pddl,SAT:207.715:48.0:1800.0:-1
ipc-2014-optimal-visitall-01-08.pddl,SAT:261.915:63.0:1800.0:-1
ipc-2014-optimal-visitall-01-09.pddl,SAT:299.563:80.0:1800.0:-1
