instance,ipc-2014-optimal-symba-2
ipc-2014-optimal-barman-p433.1.pddl,TIMEOUT:1801.14:-1.0:1800.0:-1
ipc-2014-optimal-barman-p433.2.pddl,TIMEOUT:1801.16:-1.0:1800.0:-1
ipc-2014-optimal-barman-p433.3.pddl,TIMEOUT:1801.13:-1.0:1800.0:-1
ipc-2014-optimal-barman-p435.1.pddl,SAT:30.1894:49.0:1800.0:-1
ipc-2014-optimal-barman-p435.2.pddl,TIMEOUT:1801.09:-1.0:1800.0:-1
ipc-2014-optimal-barman-p435.3.pddl,CRASHED:38.2812:49.0:1800.0:-1
ipc-2014-optimal-barman-p443.1.pddl,TIMEOUT:1801.09:-1.0:1800.0:-1
ipc-2014-optimal-barman-p443.2.pddl,TIMEOUT:1801.16:-1.0:1800.0:-1
ipc-2014-optimal-barman-p443.3.pddl,TIMEOUT:1801.17:-1.0:1800.0:-1
ipc-2014-optimal-barman-p536.1.pddl,TIMEOUT:1801.04:-1.0:1800.0:-1
ipc-2014-optimal-barman-p536.2.pddl,TIMEOUT:1801.04:-1.0:1800.0:-1
ipc-2014-optimal-barman-p536.3.pddl,TIMEOUT:1801.03:-1.0:1800.0:-1
ipc-2014-optimal-barman-p638.1.pddl,TIMEOUT:1801.06:-1.0:1800.0:-1
ipc-2014-optimal-barman-p638.2.pddl,CRASHED:28.7186:1000000000.0:1800.0:-1
ipc-2014-optimal-barman-p638.3.pddl,TIMEOUT:1801.07:-1.0:1800.0:-1
ipc-2014-optimal-barman-p739.1.pddl,TIMEOUT:1801.0:-1.0:1800.0:-1
ipc-2014-optimal-barman-p739.2.pddl,TIMEOUT:1801.09:-1.0:1800.0:-1
ipc-2014-optimal-barman-p739.3.pddl,TIMEOUT:1801.06:-1.0:1800.0:-1
ipc-2014-optimal-barman-p839.1.pddl,CRASHED:42.4495:1000000000.0:1800.0:-1
ipc-2014-optimal-barman-p839.2.pddl,TIMEOUT:1801.08:-1.0:1800.0:-1
ipc-2014-optimal-cavediving-01.pddl,TIMEOUT:1801.11:-1.0:1800.0:-1
ipc-2014-optimal-cavediving-01_easy.pddl,TIMEOUT:1801.16:-1.0:1800.0:-1
ipc-2014-optimal-cavediving-02_easy.pddl,TIMEOUT:1801.06:-1.0:1800.0:-1
ipc-2014-optimal-cavediving-03_easy.pddl,TIMEOUT:1801.1:-1.0:1800.0:-1
ipc-2014-optimal-cavediving-04_easy.pddl,TIMEOUT:1801.16:-1.0:1800.0:-1
ipc-2014-optimal-cavediving-05A_easy.pddl,TIMEOUT:1801.08:-1.0:1800.0:-1
ipc-2014-optimal-cavediving-06A_easy.pddl,TIMEOUT:1801.14:-1.0:1800.0:-1
ipc-2014-optimal-cavediving-07_easy.pddl,SAT:4.23935:131.0:1800.0:-1
ipc-2014-optimal-cavediving-08_easy.pddl,TIMEOUT:1801.07:-1.0:1800.0:-1
ipc-2014-optimal-cavediving-09_easy.pddl,TIMEOUT:1801.11:-1.0:1800.0:-1
ipc-2014-optimal-cavediving-10_easy.pddl,TIMEOUT:1801.13:-1.0:1800.0:-1
ipc-2014-optimal-cavediving-11_easy.pddl,TIMEOUT:1801.12:-1.0:1800.0:-1
ipc-2014-optimal-cavediving-12_easy.pddl,TIMEOUT:1801.09:-1.0:1800.0:-1
ipc-2014-optimal-cavediving-13_easy.pddl,TIMEOUT:1801.1:-1.0:1800.0:-1
ipc-2014-optimal-cavediving-14_easy.pddl,TIMEOUT:1801.15:-1.0:1800.0:-1
ipc-2014-optimal-cavediving-15_easy.pddl,TIMEOUT:1801.09:-1.0:1800.0:-1
ipc-2014-optimal-cavediving-16_easy.pddl,TIMEOUT:1801.12:-1.0:1800.0:-1
ipc-2014-optimal-cavediving-18A_easy.pddl,SAT:4.54431:131.0:1800.0:-1
ipc-2014-optimal-cavediving-18_easy.pddl,SAT:9.74552:131.0:1800.0:-1
ipc-2014-optimal-cavediving-20A_easy.pddl,TIMEOUT:1801.07:-1.0:1800.0:-1
ipc-2014-optimal-childsnack-01-2.pddl,TIMEOUT:1801.06:-1.0:1800.0:-1
ipc-2014-optimal-childsnack-01.pddl,CRASHED:35.4166:1000000000.0:1800.0:-1
ipc-2014-optimal-childsnack-02-2.pddl,TIMEOUT:1801.07:-1.0:1800.0:-1
ipc-2014-optimal-childsnack-02.pddl,TIMEOUT:1801.09:-1.0:1800.0:-1
ipc-2014-optimal-childsnack-03-2.pddl,CRASHED:30.2694:1000000000.0:1800.0:-1
ipc-2014-optimal-childsnack-03.pddl,CRASHED:32.1851:1000000000.0:1800.0:-1
ipc-2014-optimal-childsnack-04-2.pddl,TIMEOUT:1801.02:-1.0:1800.0:-1
ipc-2014-optimal-childsnack-04.pddl,TIMEOUT:1801.01:-1.0:1800.0:-1
ipc-2014-optimal-childsnack-05-2.pddl,CRASHED:17.6723:1000000000.0:1800.0:-1
ipc-2014-optimal-childsnack-05.pddl,TIMEOUT:1801.06:-1.0:1800.0:-1
ipc-2014-optimal-childsnack-06-2.pddl,TIMEOUT:1801.05:-1.0:1800.0:-1
ipc-2014-optimal-childsnack-06.pddl,TIMEOUT:1801.03:-1.0:1800.0:-1
ipc-2014-optimal-childsnack-07-2.pddl,CRASHED:76.0184:1000000000.0:1800.0:-1
ipc-2014-optimal-childsnack-07.pddl,TIMEOUT:1801.05:-1.0:1800.0:-1
ipc-2014-optimal-childsnack-08-2.pddl,TIMEOUT:1801.03:-1.0:1800.0:-1
ipc-2014-optimal-childsnack-08.pddl,TIMEOUT:1801.06:-1.0:1800.0:-1
ipc-2014-optimal-childsnack-09-2.pddl,TIMEOUT:1801.07:-1.0:1800.0:-1
ipc-2014-optimal-childsnack-09.pddl,TIMEOUT:1801.03:-1.0:1800.0:-1
ipc-2014-optimal-childsnack-10-2.pddl,TIMEOUT:1801.06:-1.0:1800.0:-1
ipc-2014-optimal-childsnack-10.pddl,TIMEOUT:1801.04:-1.0:1800.0:-1
ipc-2014-optimal-citycar-p2-2-2-1-2.pddl,SAT:2.70059:46.0:1800.0:-1
ipc-2014-optimal-citycar-p2-2-2-2-1.pddl,SAT:3.3145:64.0:1800.0:-1
ipc-2014-optimal-citycar-p2-2-3-1-2.pddl,SAT:5.13122:50.0:1800.0:-1
ipc-2014-optimal-citycar-p2-2-3-2-1.pddl,SAT:4.47332:48.0:1800.0:-1
ipc-2014-optimal-citycar-p2-2-3-2-2.pddl,SAT:4.54131:50.0:1800.0:-1
ipc-2014-optimal-citycar-p2-2-4-1-2.pddl,SAT:11.6692:52.0:1800.0:-1
ipc-2014-optimal-citycar-p2-2-4-2-1.pddl,SAT:10.3984:52.0:1800.0:-1
ipc-2014-optimal-citycar-p2-2-5-2-2.pddl,SAT:168.314:76.0:1800.0:-1
ipc-2014-optimal-citycar-p2-2-6-1-1.pddl,TIMEOUT:1801.03:-1.0:1800.0:-1
ipc-2014-optimal-citycar-p2-2-6-2-2.pddl,CRASHED:168.001:58.0:1800.0:-1
ipc-2014-optimal-citycar-p2-3-2-3-1.pddl,SAT:10.7574:68.0:1800.0:-1
ipc-2014-optimal-citycar-p2-3-3-3-1.pddl,SAT:48.3137:78.0:1800.0:-1
ipc-2014-optimal-citycar-p2-3-4-3-1.pddl,TIMEOUT:1801.0:-1.0:1800.0:-1
ipc-2014-optimal-citycar-p2-3-6-3-2.pddl,CRASHED:218.446:1000000000.0:1800.0:-1
ipc-2014-optimal-citycar-p3-3-2-2-1.pddl,CRASHED:120.601:70.0:1800.0:-1
ipc-2014-optimal-citycar-p3-3-2-2-2.pddl,TIMEOUT:1801.08:-1.0:1800.0:-1
ipc-2014-optimal-citycar-p3-3-2-3-1.pddl,SAT:48.5466:48.0:1800.0:-1
ipc-2014-optimal-citycar-p3-3-2-3-2.pddl,SAT:93.2178:70.0:1800.0:-1
ipc-2014-optimal-citycar-p3-3-3-3-1.pddl,TIMEOUT:1801.07:-1.0:1800.0:-1
ipc-2014-optimal-citycar-p3-3-3-3-2.pddl,TIMEOUT:1801.05:-1.0:1800.0:-1
ipc-2014-optimal-floortile-p01-4-3-2.pddl,SAT:1.76173:56.0:1800.0:-1
ipc-2014-optimal-floortile-p01-4-4-2.pddl,SAT:5.69313:68.0:1800.0:-1
ipc-2014-optimal-floortile-p01-5-3-2.pddl,SAT:2.41463:63.0:1800.0:-1
ipc-2014-optimal-floortile-p01-5-4-2.pddl,SAT:11.6042:91.0:1800.0:-1
ipc-2014-optimal-floortile-p01-5-5-2.pddl,SAT:64.4842:111.0:1800.0:-1
ipc-2014-optimal-floortile-p01-6-4-2.pddl,SAT:24.9302:104.0:1800.0:-1
ipc-2014-optimal-floortile-p01-6-5-2.pddl,TIMEOUT:1801.06:-1.0:1800.0:-1
ipc-2014-optimal-floortile-p02-4-4-2.pddl,SAT:6.18006:75.0:1800.0:-1
ipc-2014-optimal-floortile-p02-5-3-2.pddl,SAT:2.48562:65.0:1800.0:-1
ipc-2014-optimal-floortile-p02-5-4-2.pddl,SAT:12.4201:98.0:1800.0:-1
ipc-2014-optimal-floortile-p02-5-5-2.pddl,SAT:63.1264:106.0:1800.0:-1
ipc-2014-optimal-floortile-p02-6-4-2.pddl,SAT:26.005:109.0:1800.0:-1
ipc-2014-optimal-floortile-p02-6-5-2.pddl,TIMEOUT:1801.05:-1.0:1800.0:-1
ipc-2014-optimal-floortile-p03-4-3-2.pddl,SAT:1.77973:56.0:1800.0:-1
ipc-2014-optimal-floortile-p03-4-4-2.pddl,SAT:6.05508:72.0:1800.0:-1
ipc-2014-optimal-floortile-p03-5-3-2.pddl,SAT:2.66759:65.0:1800.0:-1
ipc-2014-optimal-floortile-p03-5-4-2.pddl,SAT:12.0452:83.0:1800.0:-1
ipc-2014-optimal-floortile-p03-5-5-2.pddl,SAT:64.3712:100.0:1800.0:-1
ipc-2014-optimal-floortile-p03-6-4-2.pddl,SAT:28.1777:116.0:1800.0:-1
ipc-2014-optimal-floortile-p03-6-5-2.pddl,TIMEOUT:1801.09:-1.0:1800.0:-1
ipc-2014-optimal-ged-d-1-2.pddl,SAT:0.985849:1.0:1800.0:-1
ipc-2014-optimal-ged-d-1-3.pddl,SAT:2.69559:4.0:1800.0:-1
ipc-2014-optimal-ged-d-1-4.pddl,SAT:0.993848:1.0:1800.0:-1
ipc-2014-optimal-ged-d-1-8.pddl,SAT:4.93225:4.0:1800.0:-1
ipc-2014-optimal-ged-d-2-1.pddl,SAT:1.01284:1.0:1800.0:-1
ipc-2014-optimal-ged-d-2-3.pddl,SAT:1.56676:3.0:1800.0:-1
ipc-2014-optimal-ged-d-2-4.pddl,SAT:1.24881:2.0:1800.0:-1
ipc-2014-optimal-ged-d-2-8.pddl,TIMEOUT:1801.06:-1.0:1800.0:-1
ipc-2014-optimal-ged-d-3-1.pddl,SAT:2.90856:4.0:1800.0:-1
ipc-2014-optimal-ged-d-3-2.pddl,SAT:1.65375:3.0:1800.0:-1
ipc-2014-optimal-ged-d-3-4.pddl,SAT:12.916:5.0:1800.0:-1
ipc-2014-optimal-ged-d-4-2.pddl,SAT:1.15182:2.0:1800.0:-1
ipc-2014-optimal-ged-d-4-3.pddl,SAT:12.1871:5.0:1800.0:-1
ipc-2014-optimal-ged-d-4-8.pddl,TIMEOUT:1801.1:-1.0:1800.0:-1
ipc-2014-optimal-ged-d-7-5.pddl,SAT:4.89725:4.0:1800.0:-1
ipc-2014-optimal-ged-d-7-6.pddl,SAT:3.34049:4.0:1800.0:-1
ipc-2014-optimal-ged-d-8-1.pddl,SAT:4.98324:4.0:1800.0:-1
ipc-2014-optimal-ged-d-8-2.pddl,TIMEOUT:1801.01:-1.0:1800.0:-1
ipc-2014-optimal-ged-d-8-4.pddl,CRASHED:56.6204:1000000000.0:1800.0:-1
ipc-2014-optimal-ged-d-8-9.pddl,CRASHED:54.1928:1000000000.0:1800.0:-1
ipc-2014-optimal-hiking-1-2-3.pddl,SAT:0.638902:11.0:1800.0:-1
ipc-2014-optimal-hiking-1-2-4.pddl,SAT:0.751885:17.0:1800.0:-1
ipc-2014-optimal-hiking-1-2-5.pddl,SAT:0.906861:25.0:1800.0:-1
ipc-2014-optimal-hiking-1-2-7.pddl,SAT:1.47577:38.0:1800.0:-1
ipc-2014-optimal-hiking-1-2-8.pddl,SAT:1.90371:45.0:1800.0:-1
ipc-2014-optimal-hiking-2-2-3.pddl,SAT:1.16982:10.0:1800.0:-1
ipc-2014-optimal-hiking-2-2-4.pddl,SAT:2.73658:16.0:1800.0:-1
ipc-2014-optimal-hiking-2-2-5.pddl,SAT:18.7432:22.0:1800.0:-1
ipc-2014-optimal-hiking-2-2-6.pddl,SAT:119.503:30.0:1800.0:-1
ipc-2014-optimal-hiking-2-2-7.pddl,CRASHED:281.266:1000000000.0:1800.0:-1
ipc-2014-optimal-hiking-2-2-8.pddl,TIMEOUT:1801.08:-1.0:1800.0:-1
ipc-2014-optimal-hiking-2-3-4.pddl,SAT:6.30004:17.0:1800.0:-1
ipc-2014-optimal-hiking-2-3-5.pddl,SAT:105.281:24.0:1800.0:-1
ipc-2014-optimal-hiking-2-3-6.pddl,TIMEOUT:1801.09:-1.0:1800.0:-1
ipc-2014-optimal-hiking-2-3-7.pddl,TIMEOUT:1801.08:-1.0:1800.0:-1
ipc-2014-optimal-hiking-2-4-3.pddl,SAT:1.69974:10.0:1800.0:-1
ipc-2014-optimal-hiking-2-4-4.pddl,SAT:6.85496:17.0:1800.0:-1
ipc-2014-optimal-hiking-2-4-5.pddl,CRASHED:128.75:23.0:1800.0:-1
ipc-2014-optimal-hiking-2-4-6.pddl,TIMEOUT:1801.07:-1.0:1800.0:-1
ipc-2014-optimal-hiking-2-4-7.pddl,TIMEOUT:1801.07:-1.0:1800.0:-1
ipc-2014-optimal-maintenance-1.3.010.010.1-001.pddl,TIMEOUT:1801.1:-1.0:1800.0:-1
ipc-2014-optimal-maintenance-1.3.010.010.1-002.pddl,TIMEOUT:1801.11:-1.0:1800.0:-1
ipc-2014-optimal-maintenance-1.3.010.010.2-000.pddl,SAT:0.822874:4.0:1800.0:-1
ipc-2014-optimal-maintenance-1.3.010.010.2-001.pddl,TIMEOUT:1801.1:-1.0:1800.0:-1
ipc-2014-optimal-maintenance-1.3.010.010.2-002.pddl,SAT:0.829873:6.0:1800.0:-1
ipc-2014-optimal-maintenance-1.3.015.020.1-000.pddl,TIMEOUT:1801.12:-1.0:1800.0:-1
ipc-2014-optimal-maintenance-1.3.015.020.1-001.pddl,TIMEOUT:1801.11:-1.0:1800.0:-1
ipc-2014-optimal-maintenance-1.3.015.020.1-002.pddl,TIMEOUT:1801.16:-1.0:1800.0:-1
ipc-2014-optimal-maintenance-1.3.015.020.2-000.pddl,CRASHED:1.37079:1000000000.0:1800.0:-1
ipc-2014-optimal-maintenance-1.3.015.020.2-001.pddl,SAT:1.24781:11.0:1800.0:-1
ipc-2014-optimal-maintenance-1.3.015.020.2-002.pddl,SAT:1.14582:9.0:1800.0:-1
ipc-2014-optimal-maintenance-1.3.025.050.1-000.pddl,TIMEOUT:1801.12:-1.0:1800.0:-1
ipc-2014-optimal-maintenance-1.3.025.050.1-001.pddl,TIMEOUT:1801.09:-1.0:1800.0:-1
ipc-2014-optimal-maintenance-1.3.025.050.1-002.pddl,TIMEOUT:1801.06:-1.0:1800.0:-1
ipc-2014-optimal-maintenance-1.3.025.100.1-000.pddl,TIMEOUT:1801.07:-1.0:1800.0:-1
ipc-2014-optimal-maintenance-1.3.025.100.1-001.pddl,TIMEOUT:1801.14:-1.0:1800.0:-1
ipc-2014-optimal-maintenance-1.3.025.100.1-002.pddl,TIMEOUT:1801.07:-1.0:1800.0:-1
ipc-2014-optimal-maintenance-1.3.025.100.2-000.pddl,TIMEOUT:1801.15:-1.0:1800.0:-1
ipc-2014-optimal-maintenance-1.3.025.100.2-001.pddl,TIMEOUT:1801.08:-1.0:1800.0:-1
ipc-2014-optimal-maintenance-1.3.025.100.2-002.pddl,TIMEOUT:1801.12:-1.0:1800.0:-1
ipc-2014-optimal-openstacks-p20_1.pddl,SAT:2.42363:3.0:1800.0:-1
ipc-2014-optimal-openstacks-p20_2.pddl,SAT:2.6076:4.0:1800.0:-1
ipc-2014-optimal-openstacks-p20_3.pddl,SAT:2.69559:6.0:1800.0:-1
ipc-2014-optimal-openstacks-p25_1.pddl,SAT:4.32334:4.0:1800.0:-1
ipc-2014-optimal-openstacks-p25_3.pddl,SAT:5.19921:9.0:1800.0:-1
ipc-2014-optimal-openstacks-p30_1.pddl,SAT:6.22405:4.0:1800.0:-1
ipc-2014-optimal-openstacks-p30_2.pddl,SAT:6.87595:4.0:1800.0:-1
ipc-2014-optimal-openstacks-p30_3.pddl,SAT:14.6548:12.0:1800.0:-1
ipc-2014-optimal-openstacks-p35_1.pddl,SAT:9.73052:4.0:1800.0:-1
ipc-2014-optimal-openstacks-p35_2.pddl,SAT:12.2731:5.0:1800.0:-1
ipc-2014-optimal-openstacks-p35_3.pddl,CRASHED:53.8038:14.0:1800.0:-1
ipc-2014-optimal-openstacks-p40_1.pddl,SAT:16.5615:3.0:1800.0:-1
ipc-2014-optimal-openstacks-p40_2.pddl,SAT:17.6703:4.0:1800.0:-1
ipc-2014-optimal-openstacks-p40_3.pddl,CRASHED:92.7559:15.0:1800.0:-1
ipc-2014-optimal-openstacks-p45_1.pddl,SAT:25.3361:4.0:1800.0:-1
ipc-2014-optimal-openstacks-p45_2.pddl,SAT:36.1905:5.0:1800.0:-1
ipc-2014-optimal-openstacks-p45_3.pddl,CRASHED:77.8122:1000000000.0:1800.0:-1
ipc-2014-optimal-openstacks-p50_1.pddl,SAT:45.5211:4.0:1800.0:-1
ipc-2014-optimal-openstacks-p50_2.pddl,CRASHED:62.0926:5.0:1800.0:-1
ipc-2014-optimal-openstacks-p50_3.pddl,TIMEOUT:1801.02:-1.0:1800.0:-1
ipc-2014-optimal-parking-12_7-01.pddl,TIMEOUT:1801.1:-1.0:1800.0:-1
ipc-2014-optimal-parking-12_7-02.pddl,TIMEOUT:1801.07:-1.0:1800.0:-1
ipc-2014-optimal-parking-12_7-03.pddl,TIMEOUT:1801.06:-1.0:1800.0:-1
ipc-2014-optimal-parking-12_7-04.pddl,TIMEOUT:1801.09:-1.0:1800.0:-1
ipc-2014-optimal-parking-14_8-01.pddl,TIMEOUT:1801.02:-1.0:1800.0:-1
ipc-2014-optimal-parking-14_8-02.pddl,TIMEOUT:1801.0:-1.0:1800.0:-1
ipc-2014-optimal-parking-14_8-03.pddl,TIMEOUT:1801.02:-1.0:1800.0:-1
ipc-2014-optimal-parking-14_8-04.pddl,TIMEOUT:1801.03:-1.0:1800.0:-1
ipc-2014-optimal-parking-16_9-01.pddl,CRASHED:719.617:1000000000.0:1800.0:-1
ipc-2014-optimal-parking-16_9-02.pddl,TIMEOUT:1801.03:-1.0:1800.0:-1
ipc-2014-optimal-parking-16_9-03.pddl,TIMEOUT:1801.07:-1.0:1800.0:-1
ipc-2014-optimal-parking-16_9-04.pddl,CRASHED:608.149:1000000000.0:1800.0:-1
ipc-2014-optimal-parking-18_10-01.pddl,TIMEOUT:1801.04:-1.0:1800.0:-1
ipc-2014-optimal-parking-18_10-02.pddl,TIMEOUT:1801.05:-1.0:1800.0:-1
ipc-2014-optimal-parking-18_10-03.pddl,TIMEOUT:1801.06:-1.0:1800.0:-1
ipc-2014-optimal-parking-18_10-04.pddl,CRASHED:279.563:1000000000.0:1800.0:-1
ipc-2014-optimal-parking-20_11-01.pddl,TIMEOUT:1801.0:-1.0:1800.0:-1
ipc-2014-optimal-parking-20_11-02.pddl,TIMEOUT:1801.01:-1.0:1800.0:-1
ipc-2014-optimal-parking-20_11-03.pddl,CRASHED:602.091:1000000000.0:1800.0:-1
ipc-2014-optimal-parking-20_11-04.pddl,TIMEOUT:1801.09:-1.0:1800.0:-1
ipc-2014-optimal-tetris-01-10.pddl,TIMEOUT:1801.08:-1.0:1800.0:-1
ipc-2014-optimal-tetris-01-04.pddl,CRASHED:9.51155:1000000000.0:1800.0:-1
ipc-2014-optimal-tetris-01-06.pddl,TIMEOUT:1801.07:-1.0:1800.0:-1
ipc-2014-optimal-tetris-01-08.pddl,SAT:21.9577:36.0:1800.0:-1
ipc-2014-optimal-tetris-02-10.pddl,CRASHED:102.693:1000000000.0:1800.0:-1
ipc-2014-optimal-tetris-02-04.pddl,SAT:3.75943:10.0:1800.0:-1
ipc-2014-optimal-tetris-02-06.pddl,SAT:30.7063:30.0:1800.0:-1
ipc-2014-optimal-tetris-02-08.pddl,TIMEOUT:1801.08:-1.0:1800.0:-1
ipc-2014-optimal-tetris-03-10.pddl,CRASHED:86.2759:1000000000.0:1800.0:-1
ipc-2014-optimal-tetris-03-04.pddl,SAT:2.99354:11.0:1800.0:-1
ipc-2014-optimal-tetris-03-06.pddl,CRASHED:68.8125:1000000000.0:1800.0:-1
ipc-2014-optimal-tetris-03-08.pddl,CRASHED:154.189:48.0:1800.0:-1
ipc-2014-optimal-tetris-04-10.pddl,TIMEOUT:1801.03:-1.0:1800.0:-1
ipc-2014-optimal-tetris-04-04.pddl,CRASHED:5.95209:1000000000.0:1800.0:-1
ipc-2014-optimal-tetris-04-06.pddl,TIMEOUT:1801.03:-1.0:1800.0:-1
ipc-2014-optimal-tetris-04-08.pddl,TIMEOUT:1801.01:-1.0:1800.0:-1
ipc-2014-optimal-tetris-05-10.pddl,TIMEOUT:1801.07:-1.0:1800.0:-1
ipc-2014-optimal-tetris-05-04.pddl,CRASHED:6.05008:1000000000.0:1800.0:-1
ipc-2014-optimal-tetris-05-06.pddl,SAT:12.3161:19.0:1800.0:-1
ipc-2014-optimal-tetris-05-08.pddl,TIMEOUT:1801.07:-1.0:1800.0:-1
ipc-2014-optimal-tidybot-01.pddl,TIMEOUT:1801.05:-1.0:1800.0:-1
ipc-2014-optimal-tidybot-02.pddl,TIMEOUT:1801.0:-1.0:1800.0:-1
ipc-2014-optimal-tidybot-03.pddl,SAT:133.423:30.0:1800.0:-1
ipc-2014-optimal-tidybot-04.pddl,TIMEOUT:1801.09:-1.0:1800.0:-1
ipc-2014-optimal-tidybot-05.pddl,TIMEOUT:1801.04:-1.0:1800.0:-1
ipc-2014-optimal-tidybot-06.pddl,CRASHED:280.042:1000000000.0:1800.0:-1
ipc-2014-optimal-tidybot-07.pddl,CRASHED:213.985:1000000000.0:1800.0:-1
ipc-2014-optimal-tidybot-08.pddl,CRASHED:156.568:1000000000.0:1800.0:-1
ipc-2014-optimal-tidybot-09.pddl,TIMEOUT:1801.04:-1.0:1800.0:-1
ipc-2014-optimal-tidybot-10.pddl,TIMEOUT:1801.02:-1.0:1800.0:-1
ipc-2014-optimal-tidybot-11.pddl,CRASHED:113.791:1000000000.0:1800.0:-1
ipc-2014-optimal-tidybot-12.pddl,CRASHED:123.24:1000000000.0:1800.0:-1
ipc-2014-optimal-tidybot-13.pddl,TIMEOUT:1801.09:-1.0:1800.0:-1
ipc-2014-optimal-tidybot-14.pddl,CRASHED:194.835:1000000000.0:1800.0:-1
ipc-2014-optimal-tidybot-15.pddl,TIMEOUT:1801.01:-1.0:1800.0:-1
ipc-2014-optimal-tidybot-16.pddl,CRASHED:169.88:1000000000.0:1800.0:-1
ipc-2014-optimal-tidybot-17.pddl,SAT:194.971:40.0:1800.0:-1
ipc-2014-optimal-tidybot-18.pddl,TIMEOUT:1801.07:-1.0:1800.0:-1
ipc-2014-optimal-tidybot-19.pddl,TIMEOUT:1801.07:-1.0:1800.0:-1
ipc-2014-optimal-tidybot-20.pddl,SAT:152.394:46.0:1800.0:-1
ipc-2014-optimal-transport-01.pddl,SAT:1.66175:148.0:1800.0:-1
ipc-2014-optimal-transport-02.pddl,SAT:10.4334:191.0:1800.0:-1
ipc-2014-optimal-transport-03.pddl,SAT:28.4287:300.0:1800.0:-1
ipc-2014-optimal-transport-04.pddl,CRASHED:534.067:250.0:1800.0:-1
ipc-2014-optimal-transport-05.pddl,TIMEOUT:1801.02:-1.0:1800.0:-1
ipc-2014-optimal-transport-06.pddl,TIMEOUT:1801.05:-1.0:1800.0:-1
ipc-2014-optimal-transport-07.pddl,SAT:29.7785:967.0:1800.0:-1
ipc-2014-optimal-transport-08.pddl,CRASHED:1779.03:1173.0:1800.0:-1
ipc-2014-optimal-transport-09.pddl,TIMEOUT:1801.09:-1.0:1800.0:-1
ipc-2014-optimal-transport-10.pddl,CRASHED:842.237:1000000000.0:1800.0:-1
ipc-2014-optimal-transport-11.pddl,CRASHED:750.408:1000000000.0:1800.0:-1
ipc-2014-optimal-transport-12.pddl,CRASHED:713.05:1000000000.0:1800.0:-1
ipc-2014-optimal-transport-13.pddl,SAT:9.8565:594.0:1800.0:-1
ipc-2014-optimal-transport-14.pddl,SAT:186.586:526.0:1800.0:-1
ipc-2014-optimal-transport-15.pddl,TIMEOUT:1801.05:-1.0:1800.0:-1
ipc-2014-optimal-transport-16.pddl,CRASHED:954.602:1000000000.0:1800.0:-1
ipc-2014-optimal-transport-17.pddl,TIMEOUT:1801.0:-1.0:1800.0:-1
ipc-2014-optimal-transport-18.pddl,TIMEOUT:1801.03:-1.0:1800.0:-1
ipc-2014-optimal-transport-19.pddl,TIMEOUT:1801.04:-1.0:1800.0:-1
ipc-2014-optimal-transport-20.pddl,TIMEOUT:1801.04:-1.0:1800.0:-1
ipc-2014-optimal-visitall-05-10.pddl,TIMEOUT:1801.06:-1.0:1800.0:-1
ipc-2014-optimal-visitall-05-05.pddl,SAT:1.03784:21.0:1800.0:-1
ipc-2014-optimal-visitall-05-06.pddl,SAT:1.2938:25.0:1800.0:-1
ipc-2014-optimal-visitall-05-07.pddl,SAT:3.83842:34.0:1800.0:-1
ipc-2014-optimal-visitall-05-08.pddl,CRASHED:35.3416:43.0:1800.0:-1
ipc-2014-optimal-visitall-05-09.pddl,TIMEOUT:1801.07:-1.0:1800.0:-1
ipc-2014-optimal-visitall-01-10.pddl,TIMEOUT:1801.03:-1.0:1800.0:-1
ipc-2014-optimal-visitall-01-11.pddl,CRASHED:81.7246:1000000000.0:1800.0:-1
ipc-2014-optimal-visitall-01-12.pddl,TIMEOUT:1801.08:-1.0:1800.0:-1
ipc-2014-optimal-visitall-01-13.pddl,TIMEOUT:1801.1:-1.0:1800.0:-1
ipc-2014-optimal-visitall-01-14.pddl,TIMEOUT:1801.07:-1.0:1800.0:-1
ipc-2014-optimal-visitall-01-15.pddl,CRASHED:53.4799:1000000000.0:1800.0:-1
ipc-2014-optimal-visitall-01-16.pddl,TIMEOUT:1801.05:-1.0:1800.0:-1
ipc-2014-optimal-visitall-01-17.pddl,TIMEOUT:1801.02:-1.0:1800.0:-1
ipc-2014-optimal-visitall-01-18.pddl,TIMEOUT:1801.11:-1.0:1800.0:-1
ipc-2014-optimal-visitall-01-05.pddl,SAT:2.22066:24.0:1800.0:-1
ipc-2014-optimal-visitall-01-06.pddl,TIMEOUT:1801.02:-1.0:1800.0:-1
ipc-2014-optimal-visitall-01-07.pddl,CRASHED:33.8898:1000000000.0:1800.0:-1
ipc-2014-optimal-visitall-01-08.pddl,CRASHED:44.0233:1000000000.0:1800.0:-1
ipc-2014-optimal-visitall-01-09.pddl,TIMEOUT:1801.02:-1.0:1800.0:-1
