instance,ipc-2014-optimal-rida-fixed
ipc-2014-optimal-barman-p433.1.pddl,CRASHED:0.422935:1000000000.0:1800.0:-1
ipc-2014-optimal-barman-p433.2.pddl,CRASHED:0.378941:1000000000.0:1800.0:-1
ipc-2014-optimal-barman-p433.3.pddl,CRASHED:0.308952:1000000000.0:1800.0:-1
ipc-2014-optimal-barman-p435.1.pddl,TIMEOUT:1801.08:-1.0:1800.0:-1
ipc-2014-optimal-barman-p435.2.pddl,TIMEOUT:1801.0:-1.0:1800.0:-1
ipc-2014-optimal-barman-p435.3.pddl,CRASHED:734.7:1000000000.0:1800.0:-1
ipc-2014-optimal-barman-p443.1.pddl,CRASHED:0.315951:1000000000.0:1800.0:-1
ipc-2014-optimal-barman-p443.2.pddl,CRASHED:0.303953:1000000000.0:1800.0:-1
ipc-2014-optimal-barman-p443.3.pddl,CRASHED:0.504923:1000000000.0:1800.0:-1
ipc-2014-optimal-barman-p536.1.pddl,CRASHED:500.55:1000000000.0:1800.0:-1
ipc-2014-optimal-barman-p536.2.pddl,CRASHED:491.07:1000000000.0:1800.0:-1
ipc-2014-optimal-barman-p536.3.pddl,CRASHED:490.75:1000000000.0:1800.0:-1
ipc-2014-optimal-barman-p638.1.pddl,CRASHED:510.54:1000000000.0:1800.0:-1
ipc-2014-optimal-barman-p638.2.pddl,TIMEOUT:1801.03:-1.0:1800.0:-1
ipc-2014-optimal-barman-p638.3.pddl,TIMEOUT:1801.08:-1.0:1800.0:-1
ipc-2014-optimal-barman-p739.1.pddl,CRASHED:513.81:1000000000.0:1800.0:-1
ipc-2014-optimal-barman-p739.2.pddl,CRASHED:523.13:1000000000.0:1800.0:-1
ipc-2014-optimal-barman-p739.3.pddl,TIMEOUT:1801.03:-1.0:1800.0:-1
ipc-2014-optimal-barman-p839.1.pddl,CRASHED:496.6:1000000000.0:1800.0:-1
ipc-2014-optimal-barman-p839.2.pddl,CRASHED:478.59:1000000000.0:1800.0:-1
ipc-2014-optimal-cavediving-01.pddl,CRASHED:1.55776:1000000000.0:1800.0:-1
ipc-2014-optimal-cavediving-01_easy.pddl,CRASHED:1.10383:1000000000.0:1800.0:-1
ipc-2014-optimal-cavediving-02_easy.pddl,CRASHED:1.10383:1000000000.0:1800.0:-1
ipc-2014-optimal-cavediving-03_easy.pddl,CRASHED:1.13983:1000000000.0:1800.0:-1
ipc-2014-optimal-cavediving-04_easy.pddl,CRASHED:1.11483:1000000000.0:1800.0:-1
ipc-2014-optimal-cavediving-05A_easy.pddl,CRASHED:0.338948:1000000000.0:1800.0:-1
ipc-2014-optimal-cavediving-06A_easy.pddl,CRASHED:0.325949:1000000000.0:1800.0:-1
ipc-2014-optimal-cavediving-07_easy.pddl,SAT:278.968:131.0:1800.0:-1
ipc-2014-optimal-cavediving-08_easy.pddl,CRASHED:0.334948:1000000000.0:1800.0:-1
ipc-2014-optimal-cavediving-09_easy.pddl,CRASHED:5.12722:1000000000.0:1800.0:-1
ipc-2014-optimal-cavediving-10_easy.pddl,CRASHED:5.20821:1000000000.0:1800.0:-1
ipc-2014-optimal-cavediving-11_easy.pddl,CRASHED:5.38818:1000000000.0:1800.0:-1
ipc-2014-optimal-cavediving-12_easy.pddl,CRASHED:5.33619:1000000000.0:1800.0:-1
ipc-2014-optimal-cavediving-13_easy.pddl,CRASHED:1.59676:1000000000.0:1800.0:-1
ipc-2014-optimal-cavediving-14_easy.pddl,CRASHED:1.58676:1000000000.0:1800.0:-1
ipc-2014-optimal-cavediving-15_easy.pddl,CRASHED:1.38079:1000000000.0:1800.0:-1
ipc-2014-optimal-cavediving-16_easy.pddl,CRASHED:1.58476:1000000000.0:1800.0:-1
ipc-2014-optimal-cavediving-18A_easy.pddl,SAT:237.424:131.0:1800.0:-1
ipc-2014-optimal-cavediving-18_easy.pddl,SAT:258.529:131.0:1800.0:-1
ipc-2014-optimal-cavediving-20A_easy.pddl,CRASHED:0.58891:1000000000.0:1800.0:-1
ipc-2014-optimal-childsnack-01-2.pddl,TIMEOUT:1801.06:-1.0:1800.0:-1
ipc-2014-optimal-childsnack-01.pddl,TIMEOUT:1801.02:-1.0:1800.0:-1
ipc-2014-optimal-childsnack-02-2.pddl,TIMEOUT:1801.01:-1.0:1800.0:-1
ipc-2014-optimal-childsnack-02.pddl,TIMEOUT:1801.04:-1.0:1800.0:-1
ipc-2014-optimal-childsnack-03-2.pddl,TIMEOUT:1801.09:-1.0:1800.0:-1
ipc-2014-optimal-childsnack-03.pddl,TIMEOUT:1801.06:-1.0:1800.0:-1
ipc-2014-optimal-childsnack-04-2.pddl,TIMEOUT:1801.01:-1.0:1800.0:-1
ipc-2014-optimal-childsnack-04.pddl,TIMEOUT:1801.02:-1.0:1800.0:-1
ipc-2014-optimal-childsnack-05-2.pddl,TIMEOUT:1801.09:-1.0:1800.0:-1
ipc-2014-optimal-childsnack-05.pddl,TIMEOUT:1801.11:-1.0:1800.0:-1
ipc-2014-optimal-childsnack-06-2.pddl,TIMEOUT:1801.02:-1.0:1800.0:-1
ipc-2014-optimal-childsnack-06.pddl,TIMEOUT:1801.04:-1.0:1800.0:-1
ipc-2014-optimal-childsnack-07-2.pddl,TIMEOUT:1801.08:-1.0:1800.0:-1
ipc-2014-optimal-childsnack-07.pddl,TIMEOUT:1801.12:-1.0:1800.0:-1
ipc-2014-optimal-childsnack-08-2.pddl,TIMEOUT:1801.03:-1.0:1800.0:-1
ipc-2014-optimal-childsnack-08.pddl,TIMEOUT:1801.06:-1.0:1800.0:-1
ipc-2014-optimal-childsnack-09-2.pddl,TIMEOUT:1801.07:-1.0:1800.0:-1
ipc-2014-optimal-childsnack-09.pddl,TIMEOUT:1801.06:-1.0:1800.0:-1
ipc-2014-optimal-childsnack-10-2.pddl,TIMEOUT:1801.03:-1.0:1800.0:-1
ipc-2014-optimal-childsnack-10.pddl,TIMEOUT:1801.09:-1.0:1800.0:-1
ipc-2014-optimal-citycar-p2-2-2-1-2.pddl,SAT:1.73274:46.0:1800.0:-1
ipc-2014-optimal-citycar-p2-2-2-2-1.pddl,SAT:2.18967:64.0:1800.0:-1
ipc-2014-optimal-citycar-p2-2-3-1-2.pddl,SAT:2.48862:50.0:1800.0:-1
ipc-2014-optimal-citycar-p2-2-3-2-1.pddl,SAT:2.34964:48.0:1800.0:-1
ipc-2014-optimal-citycar-p2-2-3-2-2.pddl,SAT:2.48062:50.0:1800.0:-1
ipc-2014-optimal-citycar-p2-2-4-1-2.pddl,SAT:6.18606:52.0:1800.0:-1
ipc-2014-optimal-citycar-p2-2-4-2-1.pddl,SAT:6.21206:52.0:1800.0:-1
ipc-2014-optimal-citycar-p2-2-5-2-2.pddl,SAT:221.844:76.0:1800.0:-1
ipc-2014-optimal-citycar-p2-2-6-1-1.pddl,SAT:160.55:58.0:1800.0:-1
ipc-2014-optimal-citycar-p2-2-6-2-2.pddl,SAT:164.172:58.0:1800.0:-1
ipc-2014-optimal-citycar-p2-3-2-3-1.pddl,SAT:8.00378:68.0:1800.0:-1
ipc-2014-optimal-citycar-p2-3-3-3-1.pddl,SAT:53.9428:78.0:1800.0:-1
ipc-2014-optimal-citycar-p2-3-4-3-1.pddl,SAT:250.332:82.0:1800.0:-1
ipc-2014-optimal-citycar-p2-3-6-3-2.pddl,TIMEOUT:1801.01:-1.0:1800.0:-1
ipc-2014-optimal-citycar-p3-3-2-2-1.pddl,SAT:207.459:70.0:1800.0:-1
ipc-2014-optimal-citycar-p3-3-2-2-2.pddl,CRASHED:1508.89:1000000000.0:1800.0:-1
ipc-2014-optimal-citycar-p3-3-2-3-1.pddl,SAT:8.37673:48.0:1800.0:-1
ipc-2014-optimal-citycar-p3-3-2-3-2.pddl,SAT:173.527:70.0:1800.0:-1
ipc-2014-optimal-citycar-p3-3-3-3-1.pddl,TIMEOUT:1801.04:-1.0:1800.0:-1
ipc-2014-optimal-citycar-p3-3-3-3-2.pddl,SAT:1552.92:76.0:1800.0:-1
ipc-2014-optimal-floortile-p01-4-3-2.pddl,SAT:262.744:56.0:1800.0:-1
ipc-2014-optimal-floortile-p01-4-4-2.pddl,SAT:1411.17:68.0:1800.0:-1
ipc-2014-optimal-floortile-p01-5-3-2.pddl,SAT:416.955:63.0:1800.0:-1
ipc-2014-optimal-floortile-p01-5-4-2.pddl,TIMEOUT:1801.02:-1.0:1800.0:-1
ipc-2014-optimal-floortile-p01-5-5-2.pddl,TIMEOUT:1801.06:-1.0:1800.0:-1
ipc-2014-optimal-floortile-p01-6-4-2.pddl,TIMEOUT:1801.09:-1.0:1800.0:-1
ipc-2014-optimal-floortile-p01-6-5-2.pddl,TIMEOUT:1801.05:-1.0:1800.0:-1
ipc-2014-optimal-floortile-p02-4-4-2.pddl,TIMEOUT:1801.09:-1.0:1800.0:-1
ipc-2014-optimal-floortile-p02-5-3-2.pddl,SAT:491.956:65.0:1800.0:-1
ipc-2014-optimal-floortile-p02-5-4-2.pddl,TIMEOUT:1801.01:-1.0:1800.0:-1
ipc-2014-optimal-floortile-p02-5-5-2.pddl,TIMEOUT:1801.08:-1.0:1800.0:-1
ipc-2014-optimal-floortile-p02-6-4-2.pddl,TIMEOUT:1801.02:-1.0:1800.0:-1
ipc-2014-optimal-floortile-p02-6-5-2.pddl,TIMEOUT:1801.07:-1.0:1800.0:-1
ipc-2014-optimal-floortile-p03-4-3-2.pddl,SAT:259.36:56.0:1800.0:-1
ipc-2014-optimal-floortile-p03-4-4-2.pddl,TIMEOUT:1801.02:-1.0:1800.0:-1
ipc-2014-optimal-floortile-p03-5-3-2.pddl,SAT:503.182:65.0:1800.0:-1
ipc-2014-optimal-floortile-p03-5-4-2.pddl,TIMEOUT:1801.01:-1.0:1800.0:-1
ipc-2014-optimal-floortile-p03-5-5-2.pddl,TIMEOUT:1801.09:-1.0:1800.0:-1
ipc-2014-optimal-floortile-p03-6-4-2.pddl,TIMEOUT:1801.01:-1.0:1800.0:-1
ipc-2014-optimal-floortile-p03-6-5-2.pddl,TIMEOUT:1801.06:-1.0:1800.0:-1
ipc-2014-optimal-ged-d-1-2.pddl,SAT:54.8327:1.0:1800.0:-1
ipc-2014-optimal-ged-d-1-3.pddl,SAT:215.997:4.0:1800.0:-1
ipc-2014-optimal-ged-d-1-4.pddl,SAT:54.7577:1.0:1800.0:-1
ipc-2014-optimal-ged-d-1-8.pddl,SAT:298.861:4.0:1800.0:-1
ipc-2014-optimal-ged-d-2-1.pddl,SAT:55.8325:1.0:1800.0:-1
ipc-2014-optimal-ged-d-2-3.pddl,SAT:152.933:3.0:1800.0:-1
ipc-2014-optimal-ged-d-2-4.pddl,SAT:133.736:2.0:1800.0:-1
ipc-2014-optimal-ged-d-2-8.pddl,SAT:386.108:5.0:1800.0:-1
ipc-2014-optimal-ged-d-3-1.pddl,SAT:238.392:4.0:1800.0:-1
ipc-2014-optimal-ged-d-3-2.pddl,SAT:145.492:3.0:1800.0:-1
ipc-2014-optimal-ged-d-3-4.pddl,SAT:330.346:5.0:1800.0:-1
ipc-2014-optimal-ged-d-4-2.pddl,SAT:132.851:2.0:1800.0:-1
ipc-2014-optimal-ged-d-4-3.pddl,SAT:324.574:5.0:1800.0:-1
ipc-2014-optimal-ged-d-4-8.pddl,SAT:409.55:5.0:1800.0:-1
ipc-2014-optimal-ged-d-7-5.pddl,SAT:286.706:4.0:1800.0:-1
ipc-2014-optimal-ged-d-7-6.pddl,SAT:243.538:4.0:1800.0:-1
ipc-2014-optimal-ged-d-8-1.pddl,SAT:299.719:4.0:1800.0:-1
ipc-2014-optimal-ged-d-8-2.pddl,SAT:384.21:5.0:1800.0:-1
ipc-2014-optimal-ged-d-8-4.pddl,SAT:406.813:5.0:1800.0:-1
ipc-2014-optimal-ged-d-8-9.pddl,CRASHED:467.35:1000000000.0:1800.0:-1
ipc-2014-optimal-hiking-1-2-3.pddl,SAT:7.8798:11.0:1800.0:-1
ipc-2014-optimal-hiking-1-2-4.pddl,SAT:10.9433:17.0:1800.0:-1
ipc-2014-optimal-hiking-1-2-5.pddl,SAT:18.3232:25.0:1800.0:-1
ipc-2014-optimal-hiking-1-2-7.pddl,SAT:41.3667:38.0:1800.0:-1
ipc-2014-optimal-hiking-1-2-8.pddl,SAT:65.783:45.0:1800.0:-1
ipc-2014-optimal-hiking-2-2-3.pddl,SAT:139.412:10.0:1800.0:-1
ipc-2014-optimal-hiking-2-2-4.pddl,SAT:209.848:16.0:1800.0:-1
ipc-2014-optimal-hiking-2-2-5.pddl,SAT:308.54:22.0:1800.0:-1
ipc-2014-optimal-hiking-2-2-6.pddl,SAT:439.754:30.0:1800.0:-1
ipc-2014-optimal-hiking-2-2-7.pddl,SAT:473.816:34.0:1800.0:-1
ipc-2014-optimal-hiking-2-2-8.pddl,SAT:968.089:42.0:1800.0:-1
ipc-2014-optimal-hiking-2-3-4.pddl,SAT:355.97:17.0:1800.0:-1
ipc-2014-optimal-hiking-2-3-5.pddl,SAT:558.776:24.0:1800.0:-1
ipc-2014-optimal-hiking-2-3-6.pddl,SAT:591.329:28.0:1800.0:-1
ipc-2014-optimal-hiking-2-3-7.pddl,CRASHED:986.59:1000000000.0:1800.0:-1
ipc-2014-optimal-hiking-2-4-3.pddl,SAT:260.052:10.0:1800.0:-1
ipc-2014-optimal-hiking-2-4-4.pddl,SAT:479.602:17.0:1800.0:-1
ipc-2014-optimal-hiking-2-4-5.pddl,SAT:766.193:23.0:1800.0:-1
ipc-2014-optimal-hiking-2-4-6.pddl,SAT:1075.77:30.0:1800.0:-1
ipc-2014-optimal-hiking-2-4-7.pddl,CRASHED:775.67:1000000000.0:1800.0:-1
ipc-2014-optimal-maintenance-1.3.010.010.1-001.pddl,CRASHED:7.67683:1000000000.0:1800.0:-1
ipc-2014-optimal-maintenance-1.3.010.010.1-002.pddl,CRASHED:12.0552:1000000000.0:1800.0:-1
ipc-2014-optimal-maintenance-1.3.010.010.2-000.pddl,SAT:22.7055:4.0:1800.0:-1
ipc-2014-optimal-maintenance-1.3.010.010.2-001.pddl,SAT:27.1129:7.0:1800.0:-1
ipc-2014-optimal-maintenance-1.3.010.010.2-002.pddl,SAT:39.8019:6.0:1800.0:-1
ipc-2014-optimal-maintenance-1.3.015.020.1-000.pddl,CRASHED:28.5227:1000000000.0:1800.0:-1
ipc-2014-optimal-maintenance-1.3.015.020.1-001.pddl,CRASHED:20.3329:1000000000.0:1800.0:-1
ipc-2014-optimal-maintenance-1.3.015.020.1-002.pddl,CRASHED:24.9142:1000000000.0:1800.0:-1
ipc-2014-optimal-maintenance-1.3.015.020.2-000.pddl,CRASHED:332.784:1000000000.0:1800.0:-1
ipc-2014-optimal-maintenance-1.3.015.020.2-001.pddl,SAT:124.466:11.0:1800.0:-1
ipc-2014-optimal-maintenance-1.3.015.020.2-002.pddl,SAT:120.033:9.0:1800.0:-1
ipc-2014-optimal-maintenance-1.3.025.050.1-000.pddl,CRASHED:89.5844:1000000000.0:1800.0:-1
ipc-2014-optimal-maintenance-1.3.025.050.1-001.pddl,CRASHED:173.333:1000000000.0:1800.0:-1
ipc-2014-optimal-maintenance-1.3.025.050.1-002.pddl,CRASHED:171.351:1000000000.0:1800.0:-1
ipc-2014-optimal-maintenance-1.3.025.100.1-000.pddl,CRASHED:87.5347:1000000000.0:1800.0:-1
ipc-2014-optimal-maintenance-1.3.025.100.1-001.pddl,CRASHED:86.9168:1000000000.0:1800.0:-1
ipc-2014-optimal-maintenance-1.3.025.100.1-002.pddl,CRASHED:90.4712:1000000000.0:1800.0:-1
ipc-2014-optimal-maintenance-1.3.025.100.2-000.pddl,TIMEOUT:1801.07:-1.0:1800.0:-1
ipc-2014-optimal-maintenance-1.3.025.100.2-001.pddl,CRASHED:1419.28:1000000000.0:1800.0:-1
ipc-2014-optimal-maintenance-1.3.025.100.2-002.pddl,CRASHED:1371.35:1000000000.0:1800.0:-1
ipc-2014-optimal-openstacks-p20_1.pddl,SAT:350.964:3.0:1800.0:-1
ipc-2014-optimal-openstacks-p20_2.pddl,SAT:278.482:4.0:1800.0:-1
ipc-2014-optimal-openstacks-p20_3.pddl,SAT:176.604:6.0:1800.0:-1
ipc-2014-optimal-openstacks-p25_1.pddl,CRASHED:674.12:1000000000.0:1800.0:-1
ipc-2014-optimal-openstacks-p25_3.pddl,CRASHED:713.08:1000000000.0:1800.0:-1
ipc-2014-optimal-openstacks-p30_1.pddl,TIMEOUT:1801.05:-1.0:1800.0:-1
ipc-2014-optimal-openstacks-p30_2.pddl,TIMEOUT:1801.0:-1.0:1800.0:-1
ipc-2014-optimal-openstacks-p30_3.pddl,TIMEOUT:1801.04:-1.0:1800.0:-1
ipc-2014-optimal-openstacks-p35_1.pddl,TIMEOUT:1801.07:-1.0:1800.0:-1
ipc-2014-optimal-openstacks-p35_2.pddl,TIMEOUT:1801.08:-1.0:1800.0:-1
ipc-2014-optimal-openstacks-p35_3.pddl,CRASHED:713.06:1000000000.0:1800.0:-1
ipc-2014-optimal-openstacks-p40_1.pddl,CRASHED:509.41:1000000000.0:1800.0:-1
ipc-2014-optimal-openstacks-p40_2.pddl,CRASHED:470.87:1000000000.0:1800.0:-1
ipc-2014-optimal-openstacks-p40_3.pddl,CRASHED:711.89:1000000000.0:1800.0:-1
ipc-2014-optimal-openstacks-p45_1.pddl,CRASHED:574.97:1000000000.0:1800.0:-1
ipc-2014-optimal-openstacks-p45_2.pddl,CRASHED:539.68:1000000000.0:1800.0:-1
ipc-2014-optimal-openstacks-p45_3.pddl,CRASHED:690.5:1000000000.0:1800.0:-1
ipc-2014-optimal-openstacks-p50_1.pddl,CRASHED:685.65:1000000000.0:1800.0:-1
ipc-2014-optimal-openstacks-p50_2.pddl,CRASHED:730.71:1000000000.0:1800.0:-1
ipc-2014-optimal-openstacks-p50_3.pddl,CRASHED:673.09:1000000000.0:1800.0:-1
ipc-2014-optimal-parking-12_7-01.pddl,SAT:876.281:18.0:1800.0:-1
ipc-2014-optimal-parking-12_7-02.pddl,SAT:898.009:18.0:1800.0:-1
ipc-2014-optimal-parking-12_7-03.pddl,SAT:895.874:17.0:1800.0:-1
ipc-2014-optimal-parking-12_7-04.pddl,SAT:896.848:19.0:1800.0:-1
ipc-2014-optimal-parking-14_8-01.pddl,CRASHED:1615.41:1000000000.0:1800.0:-1
ipc-2014-optimal-parking-14_8-02.pddl,SAT:1394.36:22.0:1800.0:-1
ipc-2014-optimal-parking-14_8-03.pddl,SAT:1298.4:21.0:1800.0:-1
ipc-2014-optimal-parking-14_8-04.pddl,TIMEOUT:1801.02:-1.0:1800.0:-1
ipc-2014-optimal-parking-16_9-01.pddl,CRASHED:1464.03:1000000000.0:1800.0:-1
ipc-2014-optimal-parking-16_9-02.pddl,CRASHED:1422.9:1000000000.0:1800.0:-1
ipc-2014-optimal-parking-16_9-03.pddl,CRASHED:1463.01:1000000000.0:1800.0:-1
ipc-2014-optimal-parking-16_9-04.pddl,CRASHED:1341.8:1000000000.0:1800.0:-1
ipc-2014-optimal-parking-18_10-01.pddl,TIMEOUT:1801.04:-1.0:1800.0:-1
ipc-2014-optimal-parking-18_10-02.pddl,CRASHED:1758.6:1000000000.0:1800.0:-1
ipc-2014-optimal-parking-18_10-03.pddl,CRASHED:1478.99:1000000000.0:1800.0:-1
ipc-2014-optimal-parking-18_10-04.pddl,CRASHED:1396.3:1000000000.0:1800.0:-1
ipc-2014-optimal-parking-20_11-01.pddl,CRASHED:1693.06:1000000000.0:1800.0:-1
ipc-2014-optimal-parking-20_11-02.pddl,CRASHED:1667.09:1000000000.0:1800.0:-1
ipc-2014-optimal-parking-20_11-03.pddl,TIMEOUT:1801.02:-1.0:1800.0:-1
ipc-2014-optimal-parking-20_11-04.pddl,CRASHED:1534.0:1000000000.0:1800.0:-1
ipc-2014-optimal-tetris-01-10.pddl,TIMEOUT:1801.0:-1.0:1800.0:-1
ipc-2014-optimal-tetris-01-04.pddl,CRASHED:294.05:1000000000.0:1800.0:-1
ipc-2014-optimal-tetris-01-06.pddl,SAT:210.044:30.0:1800.0:-1
ipc-2014-optimal-tetris-01-08.pddl,SAT:1001.04:36.0:1800.0:-1
ipc-2014-optimal-tetris-02-10.pddl,TIMEOUT:1801.02:-1.0:1800.0:-1
ipc-2014-optimal-tetris-02-04.pddl,SAT:524.058:10.0:1800.0:-1
ipc-2014-optimal-tetris-02-06.pddl,SAT:283.952:30.0:1800.0:-1
ipc-2014-optimal-tetris-02-08.pddl,TIMEOUT:1801.01:-1.0:1800.0:-1
ipc-2014-optimal-tetris-03-10.pddl,TIMEOUT:1801.01:-1.0:1800.0:-1
ipc-2014-optimal-tetris-03-04.pddl,SAT:731.902:11.0:1800.0:-1
ipc-2014-optimal-tetris-03-06.pddl,SAT:249.504:21.0:1800.0:-1
ipc-2014-optimal-tetris-03-08.pddl,TIMEOUT:1801.08:-1.0:1800.0:-1
ipc-2014-optimal-tetris-04-10.pddl,TIMEOUT:1801.05:-1.0:1800.0:-1
ipc-2014-optimal-tetris-04-04.pddl,CRASHED:322.356:1000000000.0:1800.0:-1
ipc-2014-optimal-tetris-04-06.pddl,SAT:242.776:27.0:1800.0:-1
ipc-2014-optimal-tetris-04-08.pddl,TIMEOUT:1801.02:-1.0:1800.0:-1
ipc-2014-optimal-tetris-05-10.pddl,TIMEOUT:1801.0:-1.0:1800.0:-1
ipc-2014-optimal-tetris-05-04.pddl,CRASHED:402.978:1000000000.0:1800.0:-1
ipc-2014-optimal-tetris-05-06.pddl,SAT:217.174:19.0:1800.0:-1
ipc-2014-optimal-tetris-05-08.pddl,TIMEOUT:1801.03:-1.0:1800.0:-1
ipc-2014-optimal-tidybot-01.pddl,TIMEOUT:1801.06:-1.0:1800.0:-1
ipc-2014-optimal-tidybot-02.pddl,SAT:405.316:35.0:1800.0:-1
ipc-2014-optimal-tidybot-03.pddl,SAT:377.857:30.0:1800.0:-1
ipc-2014-optimal-tidybot-04.pddl,SAT:316.428:24.0:1800.0:-1
ipc-2014-optimal-tidybot-05.pddl,TIMEOUT:1801.08:-1.0:1800.0:-1
ipc-2014-optimal-tidybot-06.pddl,TIMEOUT:1801.0:-1.0:1800.0:-1
ipc-2014-optimal-tidybot-07.pddl,SAT:1100.93:38.0:1800.0:-1
ipc-2014-optimal-tidybot-08.pddl,SAT:274.302:25.0:1800.0:-1
ipc-2014-optimal-tidybot-09.pddl,SAT:1550.05:35.0:1800.0:-1
ipc-2014-optimal-tidybot-10.pddl,TIMEOUT:1801.05:-1.0:1800.0:-1
ipc-2014-optimal-tidybot-11.pddl,SAT:199.549:29.0:1800.0:-1
ipc-2014-optimal-tidybot-12.pddl,SAT:747.726:35.0:1800.0:-1
ipc-2014-optimal-tidybot-13.pddl,SAT:318.826:30.0:1800.0:-1
ipc-2014-optimal-tidybot-14.pddl,SAT:205.404:25.0:1800.0:-1
ipc-2014-optimal-tidybot-15.pddl,TIMEOUT:1801.03:-1.0:1800.0:-1
ipc-2014-optimal-tidybot-16.pddl,TIMEOUT:1801.03:-1.0:1800.0:-1
ipc-2014-optimal-tidybot-17.pddl,TIMEOUT:1801.06:-1.0:1800.0:-1
ipc-2014-optimal-tidybot-18.pddl,TIMEOUT:1801.04:-1.0:1800.0:-1
ipc-2014-optimal-tidybot-19.pddl,TIMEOUT:1801.02:-1.0:1800.0:-1
ipc-2014-optimal-tidybot-20.pddl,TIMEOUT:1801.01:-1.0:1800.0:-1
ipc-2014-optimal-transport-01.pddl,SAT:58.2781:148.0:1800.0:-1
ipc-2014-optimal-transport-02.pddl,SAT:109.102:191.0:1800.0:-1
ipc-2014-optimal-transport-03.pddl,SAT:213.504:300.0:1800.0:-1
ipc-2014-optimal-transport-04.pddl,TIMEOUT:1801.04:-1.0:1800.0:-1
ipc-2014-optimal-transport-05.pddl,TIMEOUT:1801.07:-1.0:1800.0:-1
ipc-2014-optimal-transport-06.pddl,TIMEOUT:1801.08:-1.0:1800.0:-1
ipc-2014-optimal-transport-07.pddl,SAT:103.486:967.0:1800.0:-1
ipc-2014-optimal-transport-08.pddl,SAT:201.467:1173.0:1800.0:-1
ipc-2014-optimal-transport-09.pddl,CRASHED:696.27:1000000000.0:1800.0:-1
ipc-2014-optimal-transport-10.pddl,TIMEOUT:1801.08:-1.0:1800.0:-1
ipc-2014-optimal-transport-11.pddl,TIMEOUT:1801.09:-1.0:1800.0:-1
ipc-2014-optimal-transport-12.pddl,TIMEOUT:1801.01:-1.0:1800.0:-1
ipc-2014-optimal-transport-13.pddl,SAT:117.406:594.0:1800.0:-1
ipc-2014-optimal-transport-14.pddl,SAT:324.568:526.0:1800.0:-1
ipc-2014-optimal-transport-15.pddl,SAT:278.805:753.0:1800.0:-1
ipc-2014-optimal-transport-16.pddl,TIMEOUT:1801.05:-1.0:1800.0:-1
ipc-2014-optimal-transport-17.pddl,TIMEOUT:1801.01:-1.0:1800.0:-1
ipc-2014-optimal-transport-18.pddl,TIMEOUT:1801.05:-1.0:1800.0:-1
ipc-2014-optimal-transport-19.pddl,TIMEOUT:1801.0:-1.0:1800.0:-1
ipc-2014-optimal-transport-20.pddl,TIMEOUT:1801.09:-1.0:1800.0:-1
ipc-2014-optimal-visitall-05-10.pddl,SAT:272.292:60.0:1800.0:-1
ipc-2014-optimal-visitall-05-05.pddl,SAT:35.4206:21.0:1800.0:-1
ipc-2014-optimal-visitall-05-06.pddl,SAT:45.0112:25.0:1800.0:-1
ipc-2014-optimal-visitall-05-07.pddl,SAT:105.907:34.0:1800.0:-1
ipc-2014-optimal-visitall-05-08.pddl,SAT:213.561:43.0:1800.0:-1
ipc-2014-optimal-visitall-05-09.pddl,SAT:201.912:54.0:1800.0:-1
ipc-2014-optimal-visitall-01-10.pddl,SAT:248.075:99.0:1800.0:-1
ipc-2014-optimal-visitall-01-11.pddl,SAT:297.247:120.0:1800.0:-1
ipc-2014-optimal-visitall-01-12.pddl,SAT:634.702:143.0:1800.0:-1
ipc-2014-optimal-visitall-01-13.pddl,SAT:536.897:168.0:1800.0:-1
ipc-2014-optimal-visitall-01-14.pddl,CRASHED:1033.85:1000000000.0:1800.0:-1
ipc-2014-optimal-visitall-01-15.pddl,CRASHED:1060.81:1000000000.0:1800.0:-1
ipc-2014-optimal-visitall-01-16.pddl,CRASHED:1047.92:1000000000.0:1800.0:-1
ipc-2014-optimal-visitall-01-17.pddl,CRASHED:1102.55:1000000000.0:1800.0:-1
ipc-2014-optimal-visitall-01-18.pddl,CRASHED:995.05:1000000000.0:1800.0:-1
ipc-2014-optimal-visitall-01-05.pddl,SAT:136.3:24.0:1800.0:-1
ipc-2014-optimal-visitall-01-06.pddl,SAT:282.019:35.0:1800.0:-1
ipc-2014-optimal-visitall-01-07.pddl,SAT:205.907:48.0:1800.0:-1
ipc-2014-optimal-visitall-01-08.pddl,SAT:264.977:63.0:1800.0:-1
ipc-2014-optimal-visitall-01-09.pddl,SAT:298.576:80.0:1800.0:-1
