instance,ipc-2014-optimal-cgamer-bd
ipc-2014-optimal-barman-p433.1.pddl,CRASHED:1.06284:1000000000.0:1800.0:-1
ipc-2014-optimal-barman-p433.2.pddl,CRASHED:1.02284:1000000000.0:1800.0:-1
ipc-2014-optimal-barman-p433.3.pddl,CRASHED:1.01984:1000000000.0:1800.0:-1
ipc-2014-optimal-barman-p435.1.pddl,CRASHED:27.7338:49.0:1800.0:-1
ipc-2014-optimal-barman-p435.2.pddl,CRASHED:44.6452:49.0:1800.0:-1
ipc-2014-optimal-barman-p435.3.pddl,CRASHED:27.7778:49.0:1800.0:-1
ipc-2014-optimal-barman-p443.1.pddl,CRASHED:1.02784:1000000000.0:1800.0:-1
ipc-2014-optimal-barman-p443.2.pddl,CRASHED:1.02384:1000000000.0:1800.0:-1
ipc-2014-optimal-barman-p443.3.pddl,CRASHED:1.01085:1000000000.0:1800.0:-1
ipc-2014-optimal-barman-p536.1.pddl,CRASHED:201.544:62.0:1800.0:-1
ipc-2014-optimal-barman-p536.2.pddl,CRASHED:206.711:62.0:1800.0:-1
ipc-2014-optimal-barman-p536.3.pddl,CRASHED:181.699:62.0:1800.0:-1
ipc-2014-optimal-barman-p638.1.pddl,TIMEOUT:1801.0:-1.0:1800.0:-1
ipc-2014-optimal-barman-p638.2.pddl,TIMEOUT:1801.06:-1.0:1800.0:-1
ipc-2014-optimal-barman-p638.3.pddl,TIMEOUT:1801.07:-1.0:1800.0:-1
ipc-2014-optimal-barman-p739.1.pddl,TIMEOUT:1801.02:-1.0:1800.0:-1
ipc-2014-optimal-barman-p739.2.pddl,TIMEOUT:1801.05:-1.0:1800.0:-1
ipc-2014-optimal-barman-p739.3.pddl,CRASHED:1602.66:1000000000.0:1800.0:-1
ipc-2014-optimal-barman-p839.1.pddl,TIMEOUT:1801.06:-1.0:1800.0:-1
ipc-2014-optimal-barman-p839.2.pddl,CRASHED:1534.86:1000000000.0:1800.0:-1
ipc-2014-optimal-cavediving-01.pddl,CRASHED:40.7958:1000000000.0:1800.0:-1
ipc-2014-optimal-cavediving-01_easy.pddl,CRASHED:27.8968:1000000000.0:1800.0:-1
ipc-2014-optimal-cavediving-02_easy.pddl,CRASHED:28.0167:1000000000.0:1800.0:-1
ipc-2014-optimal-cavediving-03_easy.pddl,CRASHED:27.9977:1000000000.0:1800.0:-1
ipc-2014-optimal-cavediving-04_easy.pddl,CRASHED:27.9907:1000000000.0:1800.0:-1
ipc-2014-optimal-cavediving-05A_easy.pddl,CRASHED:5.70913:1000000000.0:1800.0:-1
ipc-2014-optimal-cavediving-06A_easy.pddl,CRASHED:5.67114:1000000000.0:1800.0:-1
ipc-2014-optimal-cavediving-07_easy.pddl,CRASHED:5.73713:1000000000.0:1800.0:-1
ipc-2014-optimal-cavediving-08_easy.pddl,CRASHED:5.73913:1000000000.0:1800.0:-1
ipc-2014-optimal-cavediving-09_easy.pddl,CRASHED:141.477:1000000000.0:1800.0:-1
ipc-2014-optimal-cavediving-10_easy.pddl,CRASHED:141.055:1000000000.0:1800.0:-1
ipc-2014-optimal-cavediving-11_easy.pddl,CRASHED:141.098:1000000000.0:1800.0:-1
ipc-2014-optimal-cavediving-12_easy.pddl,CRASHED:141.053:1000000000.0:1800.0:-1
ipc-2014-optimal-cavediving-13_easy.pddl,CRASHED:40.9748:1000000000.0:1800.0:-1
ipc-2014-optimal-cavediving-14_easy.pddl,CRASHED:40.8178:1000000000.0:1800.0:-1
ipc-2014-optimal-cavediving-15_easy.pddl,CRASHED:34.4128:1000000000.0:1800.0:-1
ipc-2014-optimal-cavediving-16_easy.pddl,CRASHED:40.7478:1000000000.0:1800.0:-1
ipc-2014-optimal-cavediving-18A_easy.pddl,CRASHED:8.63269:1000000000.0:1800.0:-1
ipc-2014-optimal-cavediving-18_easy.pddl,CRASHED:10.0605:1000000000.0:1800.0:-1
ipc-2014-optimal-cavediving-20A_easy.pddl,CRASHED:8.5427:1000000000.0:1800.0:-1
ipc-2014-optimal-childsnack-01-2.pddl,CRASHED:2.91:1000000000.0:1800.0:-1
ipc-2014-optimal-childsnack-01.pddl,CRASHED:120.206:20.0:1800.0:-1
ipc-2014-optimal-childsnack-02-2.pddl,TIMEOUT:1801.04:-1.0:1800.0:-1
ipc-2014-optimal-childsnack-02.pddl,TIMEOUT:1801.07:-1.0:1800.0:-1
ipc-2014-optimal-childsnack-03-2.pddl,TIMEOUT:1801.03:-1.0:1800.0:-1
ipc-2014-optimal-childsnack-03.pddl,CRASHED:1756.88:1000000000.0:1800.0:-1
ipc-2014-optimal-childsnack-04-2.pddl,TIMEOUT:1801.05:-1.0:1800.0:-1
ipc-2014-optimal-childsnack-04.pddl,CRASHED:1123.32:1000000000.0:1800.0:-1
ipc-2014-optimal-childsnack-05-2.pddl,CRASHED:172.95:1000000000.0:1800.0:-1
ipc-2014-optimal-childsnack-05.pddl,CRASHED:514.95:1000000000.0:1800.0:-1
ipc-2014-optimal-childsnack-06-2.pddl,CRASHED:816.42:1000000000.0:1800.0:-1
ipc-2014-optimal-childsnack-06.pddl,CRASHED:218.03:1000000000.0:1800.0:-1
ipc-2014-optimal-childsnack-07-2.pddl,CRASHED:261.92:1000000000.0:1800.0:-1
ipc-2014-optimal-childsnack-07.pddl,CRASHED:144.24:1000000000.0:1800.0:-1
ipc-2014-optimal-childsnack-08-2.pddl,CRASHED:514.68:1000000000.0:1800.0:-1
ipc-2014-optimal-childsnack-08.pddl,CRASHED:461.2:1000000000.0:1800.0:-1
ipc-2014-optimal-childsnack-09-2.pddl,CRASHED:1137.88:1000000000.0:1800.0:-1
ipc-2014-optimal-childsnack-09.pddl,CRASHED:1224.19:1000000000.0:1800.0:-1
ipc-2014-optimal-childsnack-10-2.pddl,TIMEOUT:1801.06:-1.0:1800.0:-1
ipc-2014-optimal-childsnack-10.pddl,CRASHED:1685.38:1000000000.0:1800.0:-1
ipc-2014-optimal-citycar-p2-2-2-1-2.pddl,CRASHED:26.537:46.0:1800.0:-1
ipc-2014-optimal-citycar-p2-2-2-2-1.pddl,CRASHED:27.5058:64.0:1800.0:-1
ipc-2014-optimal-citycar-p2-2-3-1-2.pddl,CRASHED:31.7292:50.0:1800.0:-1
ipc-2014-optimal-citycar-p2-2-3-2-1.pddl,CRASHED:35.0497:48.0:1800.0:-1
ipc-2014-optimal-citycar-p2-2-3-2-2.pddl,CRASHED:36.0325:50.0:1800.0:-1
ipc-2014-optimal-citycar-p2-2-4-1-2.pddl,CRASHED:47.0009:52.0:1800.0:-1
ipc-2014-optimal-citycar-p2-2-4-2-1.pddl,CRASHED:46.7339:52.0:1800.0:-1
ipc-2014-optimal-citycar-p2-2-5-2-2.pddl,CRASHED:284.907:76.0:1800.0:-1
ipc-2014-optimal-citycar-p2-2-6-1-1.pddl,CRASHED:479.512:58.0:1800.0:-1
ipc-2014-optimal-citycar-p2-2-6-2-2.pddl,CRASHED:1316.34:58.0:1800.0:-1
ipc-2014-optimal-citycar-p2-3-2-3-1.pddl,CRASHED:62.5775:68.0:1800.0:-1
ipc-2014-optimal-citycar-p2-3-3-3-1.pddl,CRASHED:74.6956:78.0:1800.0:-1
ipc-2014-optimal-citycar-p2-3-4-3-1.pddl,CRASHED:198.222:82.0:1800.0:-1
ipc-2014-optimal-citycar-p2-3-6-3-2.pddl,TIMEOUT:1801.04:-1.0:1800.0:-1
ipc-2014-optimal-citycar-p3-3-2-2-1.pddl,CRASHED:117.525:70.0:1800.0:-1
ipc-2014-optimal-citycar-p3-3-2-2-2.pddl,CRASHED:184.871:92.0:1800.0:-1
ipc-2014-optimal-citycar-p3-3-2-3-1.pddl,CRASHED:106.293:48.0:1800.0:-1
ipc-2014-optimal-citycar-p3-3-2-3-2.pddl,CRASHED:124.321:70.0:1800.0:-1
ipc-2014-optimal-citycar-p3-3-3-3-1.pddl,CRASHED:1006.33:1000000000.0:1800.0:-1
ipc-2014-optimal-citycar-p3-3-3-3-2.pddl,CRASHED:350.415:76.0:1800.0:-1
ipc-2014-optimal-floortile-p01-4-3-2.pddl,CRASHED:2.82157:56.0:1800.0:-1
ipc-2014-optimal-floortile-p01-4-4-2.pddl,CRASHED:4.12137:68.0:1800.0:-1
ipc-2014-optimal-floortile-p01-5-3-2.pddl,CRASHED:3.2845:63.0:1800.0:-1
ipc-2014-optimal-floortile-p01-5-4-2.pddl,CRASHED:8.28374:91.0:1800.0:-1
ipc-2014-optimal-floortile-p01-5-5-2.pddl,CRASHED:34.4158:111.0:1800.0:-1
ipc-2014-optimal-floortile-p01-6-4-2.pddl,CRASHED:11.0443:104.0:1800.0:-1
ipc-2014-optimal-floortile-p01-6-5-2.pddl,CRASHED:103.905:122.0:1800.0:-1
ipc-2014-optimal-floortile-p02-4-4-2.pddl,CRASHED:4.56731:75.0:1800.0:-1
ipc-2014-optimal-floortile-p02-5-3-2.pddl,CRASHED:3.48447:65.0:1800.0:-1
ipc-2014-optimal-floortile-p02-5-4-2.pddl,CRASHED:8.49471:98.0:1800.0:-1
ipc-2014-optimal-floortile-p02-5-5-2.pddl,CRASHED:35.3356:106.0:1800.0:-1
ipc-2014-optimal-floortile-p02-6-4-2.pddl,CRASHED:10.8863:109.0:1800.0:-1
ipc-2014-optimal-floortile-p02-6-5-2.pddl,CRASHED:113.246:141.0:1800.0:-1
ipc-2014-optimal-floortile-p03-4-3-2.pddl,CRASHED:3.16652:56.0:1800.0:-1
ipc-2014-optimal-floortile-p03-4-4-2.pddl,CRASHED:4.6133:72.0:1800.0:-1
ipc-2014-optimal-floortile-p03-5-3-2.pddl,CRASHED:3.53446:65.0:1800.0:-1
ipc-2014-optimal-floortile-p03-5-4-2.pddl,CRASHED:7.64884:83.0:1800.0:-1
ipc-2014-optimal-floortile-p03-5-5-2.pddl,CRASHED:26.8989:100.0:1800.0:-1
ipc-2014-optimal-floortile-p03-6-4-2.pddl,CRASHED:9.79251:116.0:1800.0:-1
ipc-2014-optimal-floortile-p03-6-5-2.pddl,CRASHED:2.96:1000000000.0:1800.0:-1
ipc-2014-optimal-ged-d-1-2.pddl,CRASHED:1.3008:1000000000.0:1800.0:-1
ipc-2014-optimal-ged-d-1-3.pddl,CRASHED:1.51377:1000000000.0:1800.0:-1
ipc-2014-optimal-ged-d-1-4.pddl,CRASHED:1.3148:1000000000.0:1800.0:-1
ipc-2014-optimal-ged-d-1-8.pddl,CRASHED:1.60875:1000000000.0:1800.0:-1
ipc-2014-optimal-ged-d-2-1.pddl,CRASHED:1.22781:1000000000.0:1800.0:-1
ipc-2014-optimal-ged-d-2-3.pddl,CRASHED:1.43278:1000000000.0:1800.0:-1
ipc-2014-optimal-ged-d-2-4.pddl,CRASHED:1.3278:1000000000.0:1800.0:-1
ipc-2014-optimal-ged-d-2-8.pddl,CRASHED:2.00169:1000000000.0:1800.0:-1
ipc-2014-optimal-ged-d-3-1.pddl,CRASHED:1.52277:1000000000.0:1800.0:-1
ipc-2014-optimal-ged-d-3-2.pddl,CRASHED:1.42278:1000000000.0:1800.0:-1
ipc-2014-optimal-ged-d-3-4.pddl,CRASHED:1.62775:1000000000.0:1800.0:-1
ipc-2014-optimal-ged-d-4-2.pddl,CRASHED:1.3318:1000000000.0:1800.0:-1
ipc-2014-optimal-ged-d-4-3.pddl,CRASHED:1.63175:1000000000.0:1800.0:-1
ipc-2014-optimal-ged-d-4-8.pddl,CRASHED:1.9777:1000000000.0:1800.0:-1
ipc-2014-optimal-ged-d-7-5.pddl,CRASHED:1.63675:1000000000.0:1800.0:-1
ipc-2014-optimal-ged-d-7-6.pddl,CRASHED:1.51377:1000000000.0:1800.0:-1
ipc-2014-optimal-ged-d-8-1.pddl,CRASHED:1.65175:1000000000.0:1800.0:-1
ipc-2014-optimal-ged-d-8-2.pddl,CRASHED:2.00369:1000000000.0:1800.0:-1
ipc-2014-optimal-ged-d-8-4.pddl,CRASHED:1.9937:1000000000.0:1800.0:-1
ipc-2014-optimal-ged-d-8-9.pddl,CRASHED:1.9897:1000000000.0:1800.0:-1
ipc-2014-optimal-hiking-1-2-3.pddl,CRASHED:2.14767:11.0:1800.0:-1
ipc-2014-optimal-hiking-1-2-4.pddl,CRASHED:2.35564:17.0:1800.0:-1
ipc-2014-optimal-hiking-1-2-5.pddl,CRASHED:2.69659:25.0:1800.0:-1
ipc-2014-optimal-hiking-1-2-7.pddl,CRASHED:3.46147:38.0:1800.0:-1
ipc-2014-optimal-hiking-1-2-8.pddl,CRASHED:4.73528:45.0:1800.0:-1
ipc-2014-optimal-hiking-2-2-3.pddl,CRASHED:3.16452:10.0:1800.0:-1
ipc-2014-optimal-hiking-2-2-4.pddl,CRASHED:8.10877:16.0:1800.0:-1
ipc-2014-optimal-hiking-2-2-5.pddl,CRASHED:24.2923:22.0:1800.0:-1
ipc-2014-optimal-hiking-2-2-6.pddl,CRASHED:261.593:30.0:1800.0:-1
ipc-2014-optimal-hiking-2-2-7.pddl,CRASHED:429.859:34.0:1800.0:-1
ipc-2014-optimal-hiking-2-2-8.pddl,CRASHED:1423.85:42.0:1800.0:-1
ipc-2014-optimal-hiking-2-3-4.pddl,CRASHED:12.3101:17.0:1800.0:-1
ipc-2014-optimal-hiking-2-3-5.pddl,CRASHED:133.707:24.0:1800.0:-1
ipc-2014-optimal-hiking-2-3-6.pddl,CRASHED:1042.79:28.0:1800.0:-1
ipc-2014-optimal-hiking-2-3-7.pddl,TIMEOUT:1801.09:-1.0:1800.0:-1
ipc-2014-optimal-hiking-2-4-3.pddl,CRASHED:5.9331:10.0:1800.0:-1
ipc-2014-optimal-hiking-2-4-4.pddl,CRASHED:16.8734:17.0:1800.0:-1
ipc-2014-optimal-hiking-2-4-5.pddl,CRASHED:147.939:23.0:1800.0:-1
ipc-2014-optimal-hiking-2-4-6.pddl,CRASHED:1613.13:30.0:1800.0:-1
ipc-2014-optimal-hiking-2-4-7.pddl,TIMEOUT:1801.02:-1.0:1800.0:-1
ipc-2014-optimal-maintenance-1.3.010.010.1-001.pddl,CRASHED:0.953854:1000000000.0:1800.0:-1
ipc-2014-optimal-maintenance-1.3.010.010.1-002.pddl,CRASHED:0.954854:1000000000.0:1800.0:-1
ipc-2014-optimal-maintenance-1.3.010.010.2-000.pddl,CRASHED:1.9597:4.0:1800.0:-1
ipc-2014-optimal-maintenance-1.3.010.010.2-001.pddl,CRASHED:2.04369:7.0:1800.0:-1
ipc-2014-optimal-maintenance-1.3.010.010.2-002.pddl,CRASHED:2.01969:6.0:1800.0:-1
ipc-2014-optimal-maintenance-1.3.015.020.1-000.pddl,CRASHED:1.06384:1000000000.0:1800.0:-1
ipc-2014-optimal-maintenance-1.3.015.020.1-001.pddl,CRASHED:1.06284:1000000000.0:1800.0:-1
ipc-2014-optimal-maintenance-1.3.015.020.1-002.pddl,CRASHED:1.06284:1000000000.0:1800.0:-1
ipc-2014-optimal-maintenance-1.3.015.020.2-000.pddl,CRASHED:1.10583:1000000000.0:1800.0:-1
ipc-2014-optimal-maintenance-1.3.015.020.2-001.pddl,CRASHED:2.56361:11.0:1800.0:-1
ipc-2014-optimal-maintenance-1.3.015.020.2-002.pddl,CRASHED:2.43363:9.0:1800.0:-1
ipc-2014-optimal-maintenance-1.3.025.050.1-000.pddl,CRASHED:1.35179:1000000000.0:1800.0:-1
ipc-2014-optimal-maintenance-1.3.025.050.1-001.pddl,CRASHED:1.35179:1000000000.0:1800.0:-1
ipc-2014-optimal-maintenance-1.3.025.050.1-002.pddl,CRASHED:1.3378:1000000000.0:1800.0:-1
ipc-2014-optimal-maintenance-1.3.025.100.1-000.pddl,CRASHED:1.64475:1000000000.0:1800.0:-1
ipc-2014-optimal-maintenance-1.3.025.100.1-001.pddl,CRASHED:1.58976:1000000000.0:1800.0:-1
ipc-2014-optimal-maintenance-1.3.025.100.1-002.pddl,CRASHED:1.60975:1000000000.0:1800.0:-1
ipc-2014-optimal-maintenance-1.3.025.100.2-000.pddl,CRASHED:1.82572:1000000000.0:1800.0:-1
ipc-2014-optimal-maintenance-1.3.025.100.2-001.pddl,CRASHED:1.86871:1000000000.0:1800.0:-1
ipc-2014-optimal-maintenance-1.3.025.100.2-002.pddl,CRASHED:1.76873:1000000000.0:1800.0:-1
ipc-2014-optimal-openstacks-p20_1.pddl,CRASHED:4.47032:3.0:1800.0:-1
ipc-2014-optimal-openstacks-p20_2.pddl,CRASHED:4.92725:4.0:1800.0:-1
ipc-2014-optimal-openstacks-p20_3.pddl,CRASHED:5.9241:6.0:1800.0:-1
ipc-2014-optimal-openstacks-p25_1.pddl,CRASHED:7.35288:4.0:1800.0:-1
ipc-2014-optimal-openstacks-p25_3.pddl,CRASHED:16.0696:9.0:1800.0:-1
ipc-2014-optimal-openstacks-p30_1.pddl,CRASHED:12.3861:4.0:1800.0:-1
ipc-2014-optimal-openstacks-p30_2.pddl,CRASHED:13.01:4.0:1800.0:-1
ipc-2014-optimal-openstacks-p30_3.pddl,CRASHED:19.911:12.0:1800.0:-1
ipc-2014-optimal-openstacks-p35_1.pddl,CRASHED:16.8264:4.0:1800.0:-1
ipc-2014-optimal-openstacks-p35_2.pddl,CRASHED:20.7069:5.0:1800.0:-1
ipc-2014-optimal-openstacks-p35_3.pddl,CRASHED:253.764:14.0:1800.0:-1
ipc-2014-optimal-openstacks-p40_1.pddl,CRASHED:20.1729:3.0:1800.0:-1
ipc-2014-optimal-openstacks-p40_2.pddl,CRASHED:21.2118:4.0:1800.0:-1
ipc-2014-optimal-openstacks-p40_3.pddl,CRASHED:262.483:15.0:1800.0:-1
ipc-2014-optimal-openstacks-p45_1.pddl,CRASHED:23.7164:4.0:1800.0:-1
ipc-2014-optimal-openstacks-p45_2.pddl,CRASHED:29.2855:5.0:1800.0:-1
ipc-2014-optimal-openstacks-p45_3.pddl,TIMEOUT:1801.0:-1.0:1800.0:-1
ipc-2014-optimal-openstacks-p50_1.pddl,CRASHED:29.8365:4.0:1800.0:-1
ipc-2014-optimal-openstacks-p50_2.pddl,CRASHED:29.0116:5.0:1800.0:-1
ipc-2014-optimal-openstacks-p50_3.pddl,TIMEOUT:1801.06:-1.0:1800.0:-1
ipc-2014-optimal-parking-12_7-01.pddl,CRASHED:873.309:18.0:1800.0:-1
ipc-2014-optimal-parking-12_7-02.pddl,CRASHED:775.25:18.0:1800.0:-1
ipc-2014-optimal-parking-12_7-03.pddl,CRASHED:535.049:17.0:1800.0:-1
ipc-2014-optimal-parking-12_7-04.pddl,CRASHED:1340.68:1000000000.0:1800.0:-1
ipc-2014-optimal-parking-14_8-01.pddl,CRASHED:1036.74:1000000000.0:1800.0:-1
ipc-2014-optimal-parking-14_8-02.pddl,CRASHED:978.32:1000000000.0:1800.0:-1
ipc-2014-optimal-parking-14_8-03.pddl,CRASHED:1679.79:1000000000.0:1800.0:-1
ipc-2014-optimal-parking-14_8-04.pddl,CRASHED:1429.74:1000000000.0:1800.0:-1
ipc-2014-optimal-parking-16_9-01.pddl,TIMEOUT:1801.07:-1.0:1800.0:-1
ipc-2014-optimal-parking-16_9-02.pddl,CRASHED:1070.36:1000000000.0:1800.0:-1
ipc-2014-optimal-parking-16_9-03.pddl,TIMEOUT:1801.03:-1.0:1800.0:-1
ipc-2014-optimal-parking-16_9-04.pddl,TIMEOUT:1801.06:-1.0:1800.0:-1
ipc-2014-optimal-parking-18_10-01.pddl,CRASHED:1559.85:1000000000.0:1800.0:-1
ipc-2014-optimal-parking-18_10-02.pddl,CRASHED:1507.02:1000000000.0:1800.0:-1
ipc-2014-optimal-parking-18_10-03.pddl,CRASHED:1400.26:1000000000.0:1800.0:-1
ipc-2014-optimal-parking-18_10-04.pddl,CRASHED:1394.86:1000000000.0:1800.0:-1
ipc-2014-optimal-parking-20_11-01.pddl,TIMEOUT:1801.0:-1.0:1800.0:-1
ipc-2014-optimal-parking-20_11-02.pddl,TIMEOUT:1801.0:-1.0:1800.0:-1
ipc-2014-optimal-parking-20_11-03.pddl,TIMEOUT:1801.09:-1.0:1800.0:-1
ipc-2014-optimal-parking-20_11-04.pddl,TIMEOUT:1801.04:-1.0:1800.0:-1
ipc-2014-optimal-tetris-01-10.pddl,CRASHED:1021.25:1000000000.0:1800.0:-1
ipc-2014-optimal-tetris-01-04.pddl,CRASHED:13.385:1000000000.0:1800.0:-1
ipc-2014-optimal-tetris-01-06.pddl,CRASHED:108.159:30.0:1800.0:-1
ipc-2014-optimal-tetris-01-08.pddl,CRASHED:33.2489:36.0:1800.0:-1
ipc-2014-optimal-tetris-02-10.pddl,CRASHED:930.18:1000000000.0:1800.0:-1
ipc-2014-optimal-tetris-02-04.pddl,CRASHED:8.60369:10.0:1800.0:-1
ipc-2014-optimal-tetris-02-06.pddl,CRASHED:35.0667:30.0:1800.0:-1
ipc-2014-optimal-tetris-02-08.pddl,CRASHED:462.439:39.0:1800.0:-1
ipc-2014-optimal-tetris-03-10.pddl,TIMEOUT:1801.02:-1.0:1800.0:-1
ipc-2014-optimal-tetris-03-04.pddl,CRASHED:7.11592:11.0:1800.0:-1
ipc-2014-optimal-tetris-03-06.pddl,CRASHED:64.2562:21.0:1800.0:-1
ipc-2014-optimal-tetris-03-08.pddl,CRASHED:80.8927:48.0:1800.0:-1
ipc-2014-optimal-tetris-04-10.pddl,CRASHED:1302.68:1000000000.0:1800.0:-1
ipc-2014-optimal-tetris-04-04.pddl,CRASHED:12.3791:1000000000.0:1800.0:-1
ipc-2014-optimal-tetris-04-06.pddl,CRASHED:111.002:27.0:1800.0:-1
ipc-2014-optimal-tetris-04-08.pddl,TIMEOUT:1801.03:-1.0:1800.0:-1
ipc-2014-optimal-tetris-05-10.pddl,CRASHED:845.431:66.0:1800.0:-1
ipc-2014-optimal-tetris-05-04.pddl,CRASHED:11.3233:1000000000.0:1800.0:-1
ipc-2014-optimal-tetris-05-06.pddl,CRASHED:13.9619:19.0:1800.0:-1
ipc-2014-optimal-tetris-05-08.pddl,CRASHED:1659.48:1000000000.0:1800.0:-1
ipc-2014-optimal-tidybot-01.pddl,CRASHED:495.57:1000000000.0:1800.0:-1
ipc-2014-optimal-tidybot-02.pddl,CRASHED:399.354:35.0:1800.0:-1
ipc-2014-optimal-tidybot-03.pddl,CRASHED:136.135:30.0:1800.0:-1
ipc-2014-optimal-tidybot-04.pddl,CRASHED:224.208:24.0:1800.0:-1
ipc-2014-optimal-tidybot-05.pddl,CRASHED:1689.02:1000000000.0:1800.0:-1
ipc-2014-optimal-tidybot-06.pddl,CRASHED:665.94:63.0:1800.0:-1
ipc-2014-optimal-tidybot-07.pddl,CRASHED:151.229:38.0:1800.0:-1
ipc-2014-optimal-tidybot-08.pddl,CRASHED:253.7:25.0:1800.0:-1
ipc-2014-optimal-tidybot-09.pddl,CRASHED:1099.89:1000000000.0:1800.0:-1
ipc-2014-optimal-tidybot-10.pddl,CRASHED:1238.43:47.0:1800.0:-1
ipc-2014-optimal-tidybot-11.pddl,CRASHED:161.51:29.0:1800.0:-1
ipc-2014-optimal-tidybot-12.pddl,CRASHED:515.448:35.0:1800.0:-1
ipc-2014-optimal-tidybot-13.pddl,CRASHED:279.796:30.0:1800.0:-1
ipc-2014-optimal-tidybot-14.pddl,CRASHED:536.952:25.0:1800.0:-1
ipc-2014-optimal-tidybot-15.pddl,CRASHED:923.85:1000000000.0:1800.0:-1
ipc-2014-optimal-tidybot-16.pddl,TIMEOUT:1801.04:-1.0:1800.0:-1
ipc-2014-optimal-tidybot-17.pddl,CRASHED:106.68:40.0:1800.0:-1
ipc-2014-optimal-tidybot-18.pddl,CRASHED:244.483:44.0:1800.0:-1
ipc-2014-optimal-tidybot-19.pddl,CRASHED:840.0:1000000000.0:1800.0:-1
ipc-2014-optimal-tidybot-20.pddl,CRASHED:109.629:46.0:1800.0:-1
ipc-2014-optimal-transport-01.pddl,CRASHED:2.91556:148.0:1800.0:-1
ipc-2014-optimal-transport-02.pddl,CRASHED:5.81511:191.0:1800.0:-1
ipc-2014-optimal-transport-03.pddl,CRASHED:12.939:300.0:1800.0:-1
ipc-2014-optimal-transport-04.pddl,CRASHED:543.005:250.0:1800.0:-1
ipc-2014-optimal-transport-05.pddl,CRASHED:1115.16:1000000000.0:1800.0:-1
ipc-2014-optimal-transport-06.pddl,CRASHED:1249.79:1000000000.0:1800.0:-1
ipc-2014-optimal-transport-07.pddl,CRASHED:8.75767:967.0:1800.0:-1
ipc-2014-optimal-transport-08.pddl,CRASHED:743.822:1173.0:1800.0:-1
ipc-2014-optimal-transport-09.pddl,TIMEOUT:1801.05:-1.0:1800.0:-1
ipc-2014-optimal-transport-10.pddl,TIMEOUT:1801.0:-1.0:1800.0:-1
ipc-2014-optimal-transport-11.pddl,CRASHED:1266.2:1000000000.0:1800.0:-1
ipc-2014-optimal-transport-12.pddl,CRASHED:1695.95:1000000000.0:1800.0:-1
ipc-2014-optimal-transport-13.pddl,CRASHED:6.45602:594.0:1800.0:-1
ipc-2014-optimal-transport-14.pddl,CRASHED:51.2572:526.0:1800.0:-1
ipc-2014-optimal-transport-15.pddl,CRASHED:1473.15:753.0:1800.0:-1
ipc-2014-optimal-transport-16.pddl,TIMEOUT:1801.11:-1.0:1800.0:-1
ipc-2014-optimal-transport-17.pddl,CRASHED:1480.33:1000000000.0:1800.0:-1
ipc-2014-optimal-transport-18.pddl,TIMEOUT:1801.0:-1.0:1800.0:-1
ipc-2014-optimal-transport-19.pddl,CRASHED:1605.93:1000000000.0:1800.0:-1
ipc-2014-optimal-transport-20.pddl,CRASHED:1600.04:1000000000.0:1800.0:-1
ipc-2014-optimal-visitall-05-10.pddl,CRASHED:669.55:1000000000.0:1800.0:-1
ipc-2014-optimal-visitall-05-05.pddl,CRASHED:2.49662:21.0:1800.0:-1
ipc-2014-optimal-visitall-05-06.pddl,CRASHED:1.93:1000000000.0:1800.0:-1
ipc-2014-optimal-visitall-05-07.pddl,CRASHED:6.69598:34.0:1800.0:-1
ipc-2014-optimal-visitall-05-08.pddl,CRASHED:104.293:43.0:1800.0:-1
ipc-2014-optimal-visitall-05-09.pddl,CRASHED:544.55:1000000000.0:1800.0:-1
ipc-2014-optimal-visitall-01-10.pddl,CRASHED:522.84:1000000000.0:1800.0:-1
ipc-2014-optimal-visitall-01-11.pddl,CRASHED:821.76:1000000000.0:1800.0:-1
ipc-2014-optimal-visitall-01-12.pddl,CRASHED:769.67:1000000000.0:1800.0:-1
ipc-2014-optimal-visitall-01-13.pddl,CRASHED:874.79:1000000000.0:1800.0:-1
ipc-2014-optimal-visitall-01-14.pddl,CRASHED:921.13:1000000000.0:1800.0:-1
ipc-2014-optimal-visitall-01-15.pddl,CRASHED:1006.65:1000000000.0:1800.0:-1
ipc-2014-optimal-visitall-01-16.pddl,CRASHED:1321.47:1000000000.0:1800.0:-1
ipc-2014-optimal-visitall-01-17.pddl,CRASHED:1070.26:1000000000.0:1800.0:-1
ipc-2014-optimal-visitall-01-18.pddl,CRASHED:1363.23:1000000000.0:1800.0:-1
ipc-2014-optimal-visitall-01-05.pddl,CRASHED:4.31434:24.0:1800.0:-1
ipc-2014-optimal-visitall-01-06.pddl,CRASHED:477.841:35.0:1800.0:-1
ipc-2014-optimal-visitall-01-07.pddl,CRASHED:522.61:1000000000.0:1800.0:-1
ipc-2014-optimal-visitall-01-08.pddl,CRASHED:495.21:1000000000.0:1800.0:-1
ipc-2014-optimal-visitall-01-09.pddl,CRASHED:568.13:1000000000.0:1800.0:-1
