instance,ipc-2014-optimal-dpmplan
ipc-2014-optimal-barman-p433.1.pddl,CRASHED:3.33549:1000000000.0:1800.0:-1
ipc-2014-optimal-barman-p433.2.pddl,CRASHED:3.3115:1000000000.0:1800.0:-1
ipc-2014-optimal-barman-p433.3.pddl,CRASHED:3.63745:1000000000.0:1800.0:-1
ipc-2014-optimal-barman-p435.1.pddl,CRASHED:1773.96:1000000000.0:1800.0:-1
ipc-2014-optimal-barman-p435.2.pddl,CRASHED:1776.49:1000000000.0:1800.0:-1
ipc-2014-optimal-barman-p435.3.pddl,CRASHED:1295.74:1000000000.0:1800.0:-1
ipc-2014-optimal-barman-p443.1.pddl,CRASHED:3.37649:1000000000.0:1800.0:-1
ipc-2014-optimal-barman-p443.2.pddl,CRASHED:5.39818:1000000000.0:1800.0:-1
ipc-2014-optimal-barman-p443.3.pddl,CRASHED:3.35649:1000000000.0:1800.0:-1
ipc-2014-optimal-barman-p536.1.pddl,CRASHED:1775.15:1000000000.0:1800.0:-1
ipc-2014-optimal-barman-p536.2.pddl,CRASHED:1773.56:1000000000.0:1800.0:-1
ipc-2014-optimal-barman-p536.3.pddl,CRASHED:1774.33:1000000000.0:1800.0:-1
ipc-2014-optimal-barman-p638.1.pddl,CRASHED:1776.52:1000000000.0:1800.0:-1
ipc-2014-optimal-barman-p638.2.pddl,CRASHED:1773.72:1000000000.0:1800.0:-1
ipc-2014-optimal-barman-p638.3.pddl,CRASHED:59.33:1000000000.0:1800.0:-1
ipc-2014-optimal-barman-p739.1.pddl,CRASHED:59.35:1000000000.0:1800.0:-1
ipc-2014-optimal-barman-p739.2.pddl,CRASHED:59.47:1000000000.0:1800.0:-1
ipc-2014-optimal-barman-p739.3.pddl,CRASHED:1770.48:1000000000.0:1800.0:-1
ipc-2014-optimal-barman-p839.1.pddl,CRASHED:59.03:1000000000.0:1800.0:-1
ipc-2014-optimal-barman-p839.2.pddl,CRASHED:59.26:1000000000.0:1800.0:-1
ipc-2014-optimal-cavediving-01.pddl,CRASHED:166.209:1000000000.0:1800.0:-1
ipc-2014-optimal-cavediving-01_easy.pddl,CRASHED:147.402:1000000000.0:1800.0:-1
ipc-2014-optimal-cavediving-02_easy.pddl,CRASHED:154.792:1000000000.0:1800.0:-1
ipc-2014-optimal-cavediving-03_easy.pddl,CRASHED:160.457:1000000000.0:1800.0:-1
ipc-2014-optimal-cavediving-04_easy.pddl,CRASHED:177.748:1000000000.0:1800.0:-1
ipc-2014-optimal-cavediving-05A_easy.pddl,SAT:26.159:94.0:1800.0:-1
ipc-2014-optimal-cavediving-06A_easy.pddl,SAT:23.8944:95.0:1800.0:-1
ipc-2014-optimal-cavediving-07_easy.pddl,SAT:38.9581:131.0:1800.0:-1
ipc-2014-optimal-cavediving-08_easy.pddl,SAT:25.5031:90.0:1800.0:-1
ipc-2014-optimal-cavediving-09_easy.pddl,CRASHED:307.244:1000000000.0:1800.0:-1
ipc-2014-optimal-cavediving-10_easy.pddl,CRASHED:308.626:1000000000.0:1800.0:-1
ipc-2014-optimal-cavediving-11_easy.pddl,CRASHED:310.055:1000000000.0:1800.0:-1
ipc-2014-optimal-cavediving-12_easy.pddl,CRASHED:310.666:1000000000.0:1800.0:-1
ipc-2014-optimal-cavediving-13_easy.pddl,CRASHED:165.337:1000000000.0:1800.0:-1
ipc-2014-optimal-cavediving-14_easy.pddl,CRASHED:165.158:1000000000.0:1800.0:-1
ipc-2014-optimal-cavediving-15_easy.pddl,CRASHED:169.502:1000000000.0:1800.0:-1
ipc-2014-optimal-cavediving-16_easy.pddl,CRASHED:179.06:1000000000.0:1800.0:-1
ipc-2014-optimal-cavediving-18A_easy.pddl,SAT:69.2725:131.0:1800.0:-1
ipc-2014-optimal-cavediving-18_easy.pddl,CRASHED:132.24:131.0:1800.0:-1
ipc-2014-optimal-cavediving-20A_easy.pddl,SAT:44.5582:98.0:1800.0:-1
ipc-2014-optimal-childsnack-01-2.pddl,CRASHED:234.83:1000000000.0:1800.0:-1
ipc-2014-optimal-childsnack-01.pddl,CRASHED:1766.91:1000000000.0:1800.0:-1
ipc-2014-optimal-childsnack-02-2.pddl,CRASHED:168.67:1000000000.0:1800.0:-1
ipc-2014-optimal-childsnack-02.pddl,CRASHED:1765.42:1000000000.0:1800.0:-1
ipc-2014-optimal-childsnack-03-2.pddl,CRASHED:1294.81:1000000000.0:1800.0:-1
ipc-2014-optimal-childsnack-03.pddl,CRASHED:59.16:1000000000.0:1800.0:-1
ipc-2014-optimal-childsnack-04-2.pddl,CRASHED:59.01:1000000000.0:1800.0:-1
ipc-2014-optimal-childsnack-04.pddl,CRASHED:59.38:1000000000.0:1800.0:-1
ipc-2014-optimal-childsnack-05-2.pddl,CRASHED:59.41:1000000000.0:1800.0:-1
ipc-2014-optimal-childsnack-05.pddl,CRASHED:1771.68:1000000000.0:1800.0:-1
ipc-2014-optimal-childsnack-06-2.pddl,CRASHED:59.06:1000000000.0:1800.0:-1
ipc-2014-optimal-childsnack-06.pddl,CRASHED:59.33:1000000000.0:1800.0:-1
ipc-2014-optimal-childsnack-07-2.pddl,CRASHED:59.27:1000000000.0:1800.0:-1
ipc-2014-optimal-childsnack-07.pddl,CRASHED:59.21:1000000000.0:1800.0:-1
ipc-2014-optimal-childsnack-08-2.pddl,CRASHED:59.17:1000000000.0:1800.0:-1
ipc-2014-optimal-childsnack-08.pddl,CRASHED:1297.31:1000000000.0:1800.0:-1
ipc-2014-optimal-childsnack-09-2.pddl,CRASHED:59.23:1000000000.0:1800.0:-1
ipc-2014-optimal-childsnack-09.pddl,CRASHED:59.38:1000000000.0:1800.0:-1
ipc-2014-optimal-childsnack-10-2.pddl,CRASHED:1297.79:1000000000.0:1800.0:-1
ipc-2014-optimal-childsnack-10.pddl,CRASHED:59.3:1000000000.0:1800.0:-1
ipc-2014-optimal-citycar-p2-2-2-1-2.pddl,SAT:7.91879:46.0:1800.0:-1
ipc-2014-optimal-citycar-p2-2-2-2-1.pddl,SAT:23.6094:64.0:1800.0:-1
ipc-2014-optimal-citycar-p2-2-3-1-2.pddl,SAT:10.3304:50.0:1800.0:-1
ipc-2014-optimal-citycar-p2-2-3-2-1.pddl,SAT:10.1825:48.0:1800.0:-1
ipc-2014-optimal-citycar-p2-2-3-2-2.pddl,SAT:10.2944:50.0:1800.0:-1
ipc-2014-optimal-citycar-p2-2-4-1-2.pddl,SAT:13.455:52.0:1800.0:-1
ipc-2014-optimal-citycar-p2-2-4-2-1.pddl,SAT:13.7749:52.0:1800.0:-1
ipc-2014-optimal-citycar-p2-2-5-2-2.pddl,SAT:505.63:76.0:1800.0:-1
ipc-2014-optimal-citycar-p2-2-6-1-1.pddl,CRASHED:503.91:58.0:1800.0:-1
ipc-2014-optimal-citycar-p2-2-6-2-2.pddl,CRASHED:505.86:58.0:1800.0:-1
ipc-2014-optimal-citycar-p2-3-2-3-1.pddl,SAT:503.9:68.0:1800.0:-1
ipc-2014-optimal-citycar-p2-3-3-3-1.pddl,SAT:506.68:78.0:1800.0:-1
ipc-2014-optimal-citycar-p2-3-4-3-1.pddl,CRASHED:1702.5:1000000000.0:1800.0:-1
ipc-2014-optimal-citycar-p2-3-6-3-2.pddl,CRASHED:1691.45:1000000000.0:1800.0:-1
ipc-2014-optimal-citycar-p3-3-2-2-1.pddl,CRASHED:1696.99:1000000000.0:1800.0:-1
ipc-2014-optimal-citycar-p3-3-2-2-2.pddl,CRASHED:1693.2:1000000000.0:1800.0:-1
ipc-2014-optimal-citycar-p3-3-2-3-1.pddl,SAT:506.53:48.0:1800.0:-1
ipc-2014-optimal-citycar-p3-3-2-3-2.pddl,CRASHED:1692.12:1000000000.0:1800.0:-1
ipc-2014-optimal-citycar-p3-3-3-3-1.pddl,CRASHED:1569.84:1000000000.0:1800.0:-1
ipc-2014-optimal-citycar-p3-3-3-3-2.pddl,CRASHED:1398.85:1000000000.0:1800.0:-1
ipc-2014-optimal-floortile-p01-4-3-2.pddl,SAT:176.486:56.0:1800.0:-1
ipc-2014-optimal-floortile-p01-4-4-2.pddl,SAT:59.49:68.0:1800.0:-1
ipc-2014-optimal-floortile-p01-5-3-2.pddl,CRASHED:403.498:63.0:1800.0:-1
ipc-2014-optimal-floortile-p01-5-4-2.pddl,CRASHED:1772.13:1000000000.0:1800.0:-1
ipc-2014-optimal-floortile-p01-5-5-2.pddl,CRASHED:1774.5:1000000000.0:1800.0:-1
ipc-2014-optimal-floortile-p01-6-4-2.pddl,CRASHED:1393.16:1000000000.0:1800.0:-1
ipc-2014-optimal-floortile-p01-6-5-2.pddl,CRASHED:1338.63:1000000000.0:1800.0:-1
ipc-2014-optimal-floortile-p02-4-4-2.pddl,CRASHED:1776.31:1000000000.0:1800.0:-1
ipc-2014-optimal-floortile-p02-5-3-2.pddl,CRASHED:438.31:65.0:1800.0:-1
ipc-2014-optimal-floortile-p02-5-4-2.pddl,CRASHED:1776.27:1000000000.0:1800.0:-1
ipc-2014-optimal-floortile-p02-5-5-2.pddl,CRASHED:1773.46:1000000000.0:1800.0:-1
ipc-2014-optimal-floortile-p02-6-4-2.pddl,CRASHED:59.36:1000000000.0:1800.0:-1
ipc-2014-optimal-floortile-p02-6-5-2.pddl,CRASHED:59.34:1000000000.0:1800.0:-1
ipc-2014-optimal-floortile-p03-4-3-2.pddl,SAT:189.877:56.0:1800.0:-1
ipc-2014-optimal-floortile-p03-4-4-2.pddl,CRASHED:1345.66:1000000000.0:1800.0:-1
ipc-2014-optimal-floortile-p03-5-3-2.pddl,CRASHED:59.32:65.0:1800.0:-1
ipc-2014-optimal-floortile-p03-5-4-2.pddl,CRASHED:1345.53:1000000000.0:1800.0:-1
ipc-2014-optimal-floortile-p03-5-5-2.pddl,CRASHED:1777.68:1000000000.0:1800.0:-1
ipc-2014-optimal-floortile-p03-6-4-2.pddl,CRASHED:1775.24:1000000000.0:1800.0:-1
ipc-2014-optimal-floortile-p03-6-5-2.pddl,CRASHED:1299.68:1000000000.0:1800.0:-1
ipc-2014-optimal-ged-d-1-2.pddl,SAT:1.61275:1.0:1800.0:-1
ipc-2014-optimal-ged-d-1-3.pddl,SAT:7.76782:4.0:1800.0:-1
ipc-2014-optimal-ged-d-1-4.pddl,SAT:1.60676:1.0:1800.0:-1
ipc-2014-optimal-ged-d-1-8.pddl,SAT:49.2175:4.0:1800.0:-1
ipc-2014-optimal-ged-d-2-1.pddl,SAT:1.59376:1.0:1800.0:-1
ipc-2014-optimal-ged-d-2-3.pddl,SAT:1.9367:3.0:1800.0:-1
ipc-2014-optimal-ged-d-2-4.pddl,SAT:1.64575:2.0:1800.0:-1
ipc-2014-optimal-ged-d-2-8.pddl,CRASHED:59.2:1000000000.0:1800.0:-1
ipc-2014-optimal-ged-d-3-1.pddl,SAT:7.45287:4.0:1800.0:-1
ipc-2014-optimal-ged-d-3-2.pddl,SAT:1.9357:3.0:1800.0:-1
ipc-2014-optimal-ged-d-3-4.pddl,CRASHED:59.23:5.0:1800.0:-1
ipc-2014-optimal-ged-d-4-2.pddl,SAT:1.72174:2.0:1800.0:-1
ipc-2014-optimal-ged-d-4-3.pddl,CRASHED:59.4:5.0:1800.0:-1
ipc-2014-optimal-ged-d-4-8.pddl,CRASHED:59.47:1000000000.0:1800.0:-1
ipc-2014-optimal-ged-d-7-5.pddl,SAT:50.8563:4.0:1800.0:-1
ipc-2014-optimal-ged-d-7-6.pddl,SAT:8.10177:4.0:1800.0:-1
ipc-2014-optimal-ged-d-8-1.pddl,SAT:49.7094:4.0:1800.0:-1
ipc-2014-optimal-ged-d-8-2.pddl,CRASHED:59.43:1000000000.0:1800.0:-1
ipc-2014-optimal-ged-d-8-4.pddl,CRASHED:58.18:1000000000.0:1800.0:-1
ipc-2014-optimal-ged-d-8-9.pddl,CRASHED:58.17:1000000000.0:1800.0:-1
ipc-2014-optimal-hiking-1-2-3.pddl,SAT:1.20082:11.0:1800.0:-1
ipc-2014-optimal-hiking-1-2-4.pddl,SAT:10.9463:17.0:1800.0:-1
ipc-2014-optimal-hiking-1-2-5.pddl,SAT:11.7062:25.0:1800.0:-1
ipc-2014-optimal-hiking-1-2-7.pddl,SAT:24.1903:38.0:1800.0:-1
ipc-2014-optimal-hiking-1-2-8.pddl,SAT:47.3278:45.0:1800.0:-1
ipc-2014-optimal-hiking-2-2-3.pddl,SAT:13.7369:10.0:1800.0:-1
ipc-2014-optimal-hiking-2-2-4.pddl,SAT:74.9846:16.0:1800.0:-1
ipc-2014-optimal-hiking-2-2-5.pddl,SAT:59.41:22.0:1800.0:-1
ipc-2014-optimal-hiking-2-2-6.pddl,CRASHED:59.48:1000000000.0:1800.0:-1
ipc-2014-optimal-hiking-2-2-7.pddl,CRASHED:1297.68:1000000000.0:1800.0:-1
ipc-2014-optimal-hiking-2-2-8.pddl,CRASHED:1473.34:1000000000.0:1800.0:-1
ipc-2014-optimal-hiking-2-3-4.pddl,SAT:59.12:17.0:1800.0:-1
ipc-2014-optimal-hiking-2-3-5.pddl,SAT:59.38:24.0:1800.0:-1
ipc-2014-optimal-hiking-2-3-6.pddl,CRASHED:1294.7:1000000000.0:1800.0:-1
ipc-2014-optimal-hiking-2-3-7.pddl,CRASHED:59.33:1000000000.0:1800.0:-1
ipc-2014-optimal-hiking-2-4-3.pddl,SAT:33.4659:10.0:1800.0:-1
ipc-2014-optimal-hiking-2-4-4.pddl,SAT:59.17:17.0:1800.0:-1
ipc-2014-optimal-hiking-2-4-5.pddl,CRASHED:59.44:1000000000.0:1800.0:-1
ipc-2014-optimal-hiking-2-4-6.pddl,CRASHED:1471.4:1000000000.0:1800.0:-1
ipc-2014-optimal-hiking-2-4-7.pddl,CRASHED:56.15:1000000000.0:1800.0:-1
ipc-2014-optimal-maintenance-1.3.010.010.1-001.pddl,CRASHED:4.87326:1000000000.0:1800.0:-1
ipc-2014-optimal-maintenance-1.3.010.010.1-002.pddl,CRASHED:4.69329:1000000000.0:1800.0:-1
ipc-2014-optimal-maintenance-1.3.010.010.2-000.pddl,SAT:1.00585:4.0:1800.0:-1
ipc-2014-optimal-maintenance-1.3.010.010.2-001.pddl,SAT:0.900862:7.0:1800.0:-1
ipc-2014-optimal-maintenance-1.3.010.010.2-002.pddl,SAT:0.636903:6.0:1800.0:-1
ipc-2014-optimal-maintenance-1.3.015.020.1-000.pddl,CRASHED:6.07008:1000000000.0:1800.0:-1
ipc-2014-optimal-maintenance-1.3.015.020.1-001.pddl,CRASHED:17.4553:1000000000.0:1800.0:-1
ipc-2014-optimal-maintenance-1.3.015.020.1-002.pddl,CRASHED:25.4011:1000000000.0:1800.0:-1
ipc-2014-optimal-maintenance-1.3.015.020.2-000.pddl,CRASHED:135.933:1000000000.0:1800.0:-1
ipc-2014-optimal-maintenance-1.3.015.020.2-001.pddl,SAT:0.762883:11.0:1800.0:-1
ipc-2014-optimal-maintenance-1.3.015.020.2-002.pddl,SAT:0.757884:9.0:1800.0:-1
ipc-2014-optimal-maintenance-1.3.025.050.1-000.pddl,CRASHED:175.496:1000000000.0:1800.0:-1
ipc-2014-optimal-maintenance-1.3.025.050.1-001.pddl,CRASHED:197.994:1000000000.0:1800.0:-1
ipc-2014-optimal-maintenance-1.3.025.050.1-002.pddl,CRASHED:173.231:1000000000.0:1800.0:-1
ipc-2014-optimal-maintenance-1.3.025.100.1-000.pddl,CRASHED:162.12:1000000000.0:1800.0:-1
ipc-2014-optimal-maintenance-1.3.025.100.1-001.pddl,CRASHED:155.184:1000000000.0:1800.0:-1
ipc-2014-optimal-maintenance-1.3.025.100.1-002.pddl,CRASHED:161.52:1000000000.0:1800.0:-1
ipc-2014-optimal-maintenance-1.3.025.100.2-000.pddl,CRASHED:1114.63:1000000000.0:1800.0:-1
ipc-2014-optimal-maintenance-1.3.025.100.2-001.pddl,CRASHED:1338.34:1000000000.0:1800.0:-1
ipc-2014-optimal-maintenance-1.3.025.100.2-002.pddl,CRASHED:1093.3:1000000000.0:1800.0:-1
ipc-2014-optimal-openstacks-p20_1.pddl,CRASHED:58.6:3.0:1800.0:-1
ipc-2014-optimal-openstacks-p20_2.pddl,CRASHED:59.01:4.0:1800.0:-1
ipc-2014-optimal-openstacks-p20_3.pddl,SAT:24.0503:6.0:1800.0:-1
ipc-2014-optimal-openstacks-p25_1.pddl,CRASHED:1774.55:1000000000.0:1800.0:-1
ipc-2014-optimal-openstacks-p25_3.pddl,CRASHED:1775.6:1000000000.0:1800.0:-1
ipc-2014-optimal-openstacks-p30_1.pddl,CRASHED:59.45:1000000000.0:1800.0:-1
ipc-2014-optimal-openstacks-p30_2.pddl,CRASHED:59.47:1000000000.0:1800.0:-1
ipc-2014-optimal-openstacks-p30_3.pddl,CRASHED:59.44:1000000000.0:1800.0:-1
ipc-2014-optimal-openstacks-p35_1.pddl,CRASHED:1772.31:1000000000.0:1800.0:-1
ipc-2014-optimal-openstacks-p35_2.pddl,CRASHED:1305.33:1000000000.0:1800.0:-1
ipc-2014-optimal-openstacks-p35_3.pddl,CRASHED:59.41:1000000000.0:1800.0:-1
ipc-2014-optimal-openstacks-p40_1.pddl,CRASHED:1320.81:1000000000.0:1800.0:-1
ipc-2014-optimal-openstacks-p40_2.pddl,CRASHED:1305.55:1000000000.0:1800.0:-1
ipc-2014-optimal-openstacks-p40_3.pddl,CRASHED:1334.73:1000000000.0:1800.0:-1
ipc-2014-optimal-openstacks-p45_1.pddl,CRASHED:59.16:1000000000.0:1800.0:-1
ipc-2014-optimal-openstacks-p45_2.pddl,CRASHED:59.17:1000000000.0:1800.0:-1
ipc-2014-optimal-openstacks-p45_3.pddl,CRASHED:59.37:1000000000.0:1800.0:-1
ipc-2014-optimal-openstacks-p50_1.pddl,CRASHED:57.51:1000000000.0:1800.0:-1
ipc-2014-optimal-openstacks-p50_2.pddl,CRASHED:1298.93:1000000000.0:1800.0:-1
ipc-2014-optimal-openstacks-p50_3.pddl,CRASHED:1373.33:1000000000.0:1800.0:-1
ipc-2014-optimal-parking-12_7-01.pddl,SAT:59.48:18.0:1800.0:-1
ipc-2014-optimal-parking-12_7-02.pddl,SAT:59.22:18.0:1800.0:-1
ipc-2014-optimal-parking-12_7-03.pddl,SAT:59.56:17.0:1800.0:-1
ipc-2014-optimal-parking-12_7-04.pddl,SAT:57.54:19.0:1800.0:-1
ipc-2014-optimal-parking-14_8-01.pddl,CRASHED:1782.89:1000000000.0:1800.0:-1
ipc-2014-optimal-parking-14_8-02.pddl,CRASHED:56.58:1000000000.0:1800.0:-1
ipc-2014-optimal-parking-14_8-03.pddl,SAT:59.09:21.0:1800.0:-1
ipc-2014-optimal-parking-14_8-04.pddl,CRASHED:1565.5:1000000000.0:1800.0:-1
ipc-2014-optimal-parking-16_9-01.pddl,CRASHED:1538.51:1000000000.0:1800.0:-1
ipc-2014-optimal-parking-16_9-02.pddl,CRASHED:207.44:1000000000.0:1800.0:-1
ipc-2014-optimal-parking-16_9-03.pddl,CRASHED:55.89:1000000000.0:1800.0:-1
ipc-2014-optimal-parking-16_9-04.pddl,CRASHED:55.76:1000000000.0:1800.0:-1
ipc-2014-optimal-parking-18_10-01.pddl,CRASHED:350.87:1000000000.0:1800.0:-1
ipc-2014-optimal-parking-18_10-02.pddl,CRASHED:1689.43:1000000000.0:1800.0:-1
ipc-2014-optimal-parking-18_10-03.pddl,CRASHED:325.47:1000000000.0:1800.0:-1
ipc-2014-optimal-parking-18_10-04.pddl,CRASHED:325.51:1000000000.0:1800.0:-1
ipc-2014-optimal-parking-20_11-01.pddl,CRASHED:350.0:1000000000.0:1800.0:-1
ipc-2014-optimal-parking-20_11-02.pddl,CRASHED:1680.24:1000000000.0:1800.0:-1
ipc-2014-optimal-parking-20_11-03.pddl,CRASHED:1684.76:1000000000.0:1800.0:-1
ipc-2014-optimal-parking-20_11-04.pddl,CRASHED:351.53:1000000000.0:1800.0:-1
ipc-2014-optimal-tetris-01-10.pddl,CRASHED:532.05:1000000000.0:1800.0:-1
ipc-2014-optimal-tetris-01-04.pddl,CRASHED:479.105:1000000000.0:1800.0:-1
ipc-2014-optimal-tetris-01-06.pddl,SAT:59.21:30.0:1800.0:-1
ipc-2014-optimal-tetris-01-08.pddl,CRASHED:73.55:36.0:1800.0:-1
ipc-2014-optimal-tetris-02-10.pddl,CRASHED:533.47:1000000000.0:1800.0:-1
ipc-2014-optimal-tetris-02-04.pddl,SAT:0.910861:10.0:1800.0:-1
ipc-2014-optimal-tetris-02-06.pddl,SAT:29.5:30.0:1800.0:-1
ipc-2014-optimal-tetris-02-08.pddl,CRASHED:659.52:1000000000.0:1800.0:-1
ipc-2014-optimal-tetris-03-10.pddl,CRASHED:436.08:1000000000.0:1800.0:-1
ipc-2014-optimal-tetris-03-04.pddl,SAT:13.9689:11.0:1800.0:-1
ipc-2014-optimal-tetris-03-06.pddl,SAT:59.43:21.0:1800.0:-1
ipc-2014-optimal-tetris-03-08.pddl,CRASHED:1752.8:1000000000.0:1800.0:-1
ipc-2014-optimal-tetris-04-10.pddl,CRASHED:532.58:1000000000.0:1800.0:-1
ipc-2014-optimal-tetris-04-04.pddl,CRASHED:282.822:1000000000.0:1800.0:-1
ipc-2014-optimal-tetris-04-06.pddl,SAT:59.31:27.0:1800.0:-1
ipc-2014-optimal-tetris-04-08.pddl,CRASHED:627.52:1000000000.0:1800.0:-1
ipc-2014-optimal-tetris-05-10.pddl,CRASHED:1636.15:1000000000.0:1800.0:-1
ipc-2014-optimal-tetris-05-04.pddl,CRASHED:412.023:1000000000.0:1800.0:-1
ipc-2014-optimal-tetris-05-06.pddl,SAT:24.5993:19.0:1800.0:-1
ipc-2014-optimal-tetris-05-08.pddl,CRASHED:569.23:1000000000.0:1800.0:-1
ipc-2014-optimal-tidybot-01.pddl,CRASHED:1694.06:1000000000.0:1800.0:-1
ipc-2014-optimal-tidybot-02.pddl,CRASHED:350.84:35.0:1800.0:-1
ipc-2014-optimal-tidybot-03.pddl,CRASHED:350.1:30.0:1800.0:-1
ipc-2014-optimal-tidybot-04.pddl,CRASHED:350.42:24.0:1800.0:-1
ipc-2014-optimal-tidybot-05.pddl,CRASHED:1697.18:1000000000.0:1800.0:-1
ipc-2014-optimal-tidybot-06.pddl,CRASHED:1696.43:1000000000.0:1800.0:-1
ipc-2014-optimal-tidybot-07.pddl,CRASHED:1702.39:1000000000.0:1800.0:-1
ipc-2014-optimal-tidybot-08.pddl,CRASHED:350.9:25.0:1800.0:-1
ipc-2014-optimal-tidybot-09.pddl,CRASHED:1678.18:1000000000.0:1800.0:-1
ipc-2014-optimal-tidybot-10.pddl,CRASHED:1661.05:1000000000.0:1800.0:-1
ipc-2014-optimal-tidybot-11.pddl,SAT:29.52:29.0:1800.0:-1
ipc-2014-optimal-tidybot-12.pddl,CRASHED:351.92:35.0:1800.0:-1
ipc-2014-optimal-tidybot-13.pddl,CRASHED:350.82:30.0:1800.0:-1
ipc-2014-optimal-tidybot-14.pddl,SAT:73.71:25.0:1800.0:-1
ipc-2014-optimal-tidybot-15.pddl,CRASHED:1688.43:1000000000.0:1800.0:-1
ipc-2014-optimal-tidybot-16.pddl,CRASHED:1683.71:1000000000.0:1800.0:-1
ipc-2014-optimal-tidybot-17.pddl,CRASHED:1685.13:1000000000.0:1800.0:-1
ipc-2014-optimal-tidybot-18.pddl,CRASHED:1691.24:1000000000.0:1800.0:-1
ipc-2014-optimal-tidybot-19.pddl,CRASHED:1690.55:1000000000.0:1800.0:-1
ipc-2014-optimal-tidybot-20.pddl,CRASHED:1693.4:1000000000.0:1800.0:-1
ipc-2014-optimal-transport-01.pddl,SAT:11.0183:148.0:1800.0:-1
ipc-2014-optimal-transport-02.pddl,SAT:41.1787:191.0:1800.0:-1
ipc-2014-optimal-transport-03.pddl,SAT:125.149:300.0:1800.0:-1
ipc-2014-optimal-transport-04.pddl,CRASHED:1302.86:1000000000.0:1800.0:-1
ipc-2014-optimal-transport-05.pddl,CRASHED:58.29:1000000000.0:1800.0:-1
ipc-2014-optimal-transport-06.pddl,CRASHED:58.38:1000000000.0:1800.0:-1
ipc-2014-optimal-transport-07.pddl,SAT:123.38:967.0:1800.0:-1
ipc-2014-optimal-transport-08.pddl,SAT:59.29:1173.0:1800.0:-1
ipc-2014-optimal-transport-09.pddl,CRASHED:59.14:1000000000.0:1800.0:-1
ipc-2014-optimal-transport-10.pddl,CRASHED:1297.26:1000000000.0:1800.0:-1
ipc-2014-optimal-transport-11.pddl,CRASHED:1777.23:1000000000.0:1800.0:-1
ipc-2014-optimal-transport-12.pddl,CRASHED:1553.48:1000000000.0:1800.0:-1
ipc-2014-optimal-transport-13.pddl,SAT:17.0914:594.0:1800.0:-1
ipc-2014-optimal-transport-14.pddl,SAT:59.23:526.0:1800.0:-1
ipc-2014-optimal-transport-15.pddl,CRASHED:59.43:1000000000.0:1800.0:-1
ipc-2014-optimal-transport-16.pddl,CRASHED:57.3:1000000000.0:1800.0:-1
ipc-2014-optimal-transport-17.pddl,CRASHED:59.18:1000000000.0:1800.0:-1
ipc-2014-optimal-transport-18.pddl,CRASHED:1473.02:1000000000.0:1800.0:-1
ipc-2014-optimal-transport-19.pddl,CRASHED:59.19:1000000000.0:1800.0:-1
ipc-2014-optimal-transport-20.pddl,CRASHED:59.33:1000000000.0:1800.0:-1
ipc-2014-optimal-visitall-05-10.pddl,CRASHED:1777.93:1000000000.0:1800.0:-1
ipc-2014-optimal-visitall-05-05.pddl,SAT:4.17037:21.0:1800.0:-1
ipc-2014-optimal-visitall-05-06.pddl,SAT:6.49201:25.0:1800.0:-1
ipc-2014-optimal-visitall-05-07.pddl,SAT:34.6147:34.0:1800.0:-1
ipc-2014-optimal-visitall-05-08.pddl,CRASHED:638.539:43.0:1800.0:-1
ipc-2014-optimal-visitall-05-09.pddl,CRASHED:1777.95:1000000000.0:1800.0:-1
ipc-2014-optimal-visitall-01-10.pddl,SAT:59.45:99.0:1800.0:-1
ipc-2014-optimal-visitall-01-11.pddl,SAT:59.3:120.0:1800.0:-1
ipc-2014-optimal-visitall-01-12.pddl,SAT:244.376:143.0:1800.0:-1
ipc-2014-optimal-visitall-01-13.pddl,SAT:58.99:168.0:1800.0:-1
ipc-2014-optimal-visitall-01-14.pddl,CRASHED:1777.73:1000000000.0:1800.0:-1
ipc-2014-optimal-visitall-01-15.pddl,CRASHED:1773.98:1000000000.0:1800.0:-1
ipc-2014-optimal-visitall-01-16.pddl,CRASHED:1518.46:1000000000.0:1800.0:-1
ipc-2014-optimal-visitall-01-17.pddl,CRASHED:1779.92:1000000000.0:1800.0:-1
ipc-2014-optimal-visitall-01-18.pddl,CRASHED:1326.5:1000000000.0:1800.0:-1
ipc-2014-optimal-visitall-01-05.pddl,SAT:16.4015:24.0:1800.0:-1
ipc-2014-optimal-visitall-01-06.pddl,SAT:201.49:35.0:1800.0:-1
ipc-2014-optimal-visitall-01-07.pddl,SAT:202.881:48.0:1800.0:-1
ipc-2014-optimal-visitall-01-08.pddl,SAT:201.884:63.0:1800.0:-1
ipc-2014-optimal-visitall-01-09.pddl,SAT:59.28:80.0:1800.0:-1
