instance,ipc-2014-agile-bfs-f
ipc-2014-agile-barman-p1-11-4-15.pddl,SAT:36.2275:183.0:300.0:-1
ipc-2014-agile-barman-p1-11-5-15.pddl,SAT:39.9489:185.0:300.0:-1
ipc-2014-agile-barman-p1-11-5-16.pddl,SAT:1.38579:154.0:300.0:-1
ipc-2014-agile-barman-p2-10-4-13.pddl,SAT:2.31665:144.0:300.0:-1
ipc-2014-agile-barman-p2-11-4-15.pddl,SAT:2.74258:165.0:300.0:-1
ipc-2014-agile-barman-p2-11-5-15.pddl,SAT:0.87:153.0:300.0:-1
ipc-2014-agile-barman-p2-11-5-16.pddl,SAT:4.44732:173.0:300.0:-1
ipc-2014-agile-barman-p2-11-5-17.pddl,SAT:17.6613:203.0:300.0:-1
ipc-2014-agile-barman-p3-10-4-13.pddl,SAT:1.54077:141.0:300.0:-1
ipc-2014-agile-barman-p3-11-4-15.pddl,SAT:2.02969:166.0:300.0:-1
ipc-2014-agile-barman-p3-11-5-15.pddl,SAT:7.09792:178.0:300.0:-1
ipc-2014-agile-barman-p3-11-5-16.pddl,SAT:1.61775:168.0:300.0:-1
ipc-2014-agile-barman-p3-11-5-17.pddl,SAT:5.9421:175.0:300.0:-1
ipc-2014-agile-barman-p4-11-4-14.pddl,SAT:3.06953:161.0:300.0:-1
ipc-2014-agile-barman-p4-11-4-15.pddl,SAT:6.31604:159.0:300.0:-1
ipc-2014-agile-barman-p4-11-5-15.pddl,SAT:4.76827:156.0:300.0:-1
ipc-2014-agile-barman-p5-10-4-13.pddl,SAT:1.71874:142.0:300.0:-1
ipc-2014-agile-barman-p5-11-4-15.pddl,SAT:5.43517:176.0:300.0:-1
ipc-2014-agile-barman-p5-11-5-15.pddl,SAT:7.9168:157.0:300.0:-1
ipc-2014-agile-barman-p5-11-5-16.pddl,SAT:3.9384:160.0:300.0:-1
ipc-2014-agile-cavediving-01_easy.pddl,TIMEOUT:301.147:-1.0:300.0:-1
ipc-2014-agile-cavediving-01.pddl,TIMEOUT:301.165:-1.0:300.0:-1
ipc-2014-agile-cavediving-02_easy.pddl,TIMEOUT:301.143:-1.0:300.0:-1
ipc-2014-agile-cavediving-03_easy.pddl,TIMEOUT:301.118:-1.0:300.0:-1
ipc-2014-agile-cavediving-04_easy.pddl,TIMEOUT:301.187:-1.0:300.0:-1
ipc-2014-agile-cavediving-05A_easy.pddl,SAT:0.306952:94.0:300.0:-1
ipc-2014-agile-cavediving-06A_easy.pddl,SAT:0.306953:95.0:300.0:-1
ipc-2014-agile-cavediving-07_easy.pddl,SAT:0.530918:131.0:300.0:-1
ipc-2014-agile-cavediving-08_easy.pddl,SAT:0.307952:90.0:300.0:-1
ipc-2014-agile-cavediving-09_easy.pddl,TIMEOUT:301.173:-1.0:300.0:-1
ipc-2014-agile-cavediving-10_easy.pddl,TIMEOUT:301.099:-1.0:300.0:-1
ipc-2014-agile-cavediving-11_easy.pddl,TIMEOUT:301.181:-1.0:300.0:-1
ipc-2014-agile-cavediving-12_easy.pddl,TIMEOUT:301.185:-1.0:300.0:-1
ipc-2014-agile-cavediving-13_easy.pddl,TIMEOUT:301.175:-1.0:300.0:-1
ipc-2014-agile-cavediving-14_easy.pddl,TIMEOUT:301.188:-1.0:300.0:-1
ipc-2014-agile-cavediving-15_easy.pddl,TIMEOUT:301.105:-1.0:300.0:-1
ipc-2014-agile-cavediving-16_easy.pddl,TIMEOUT:301.149:-1.0:300.0:-1
ipc-2014-agile-cavediving-18A_easy.pddl,SAT:0.878865:131.0:300.0:-1
ipc-2014-agile-cavediving-18_easy.pddl,SAT:2.42163:131.0:300.0:-1
ipc-2014-agile-cavediving-20A_easy.pddl,SAT:0.767883:98.0:300.0:-1
ipc-2014-agile-childsnack-05-2.pddl,SAT:32.2661:46.0:300.0:-1
ipc-2014-agile-childsnack-05.pddl,SAT:0.542916:47.0:300.0:-1
ipc-2014-agile-childsnack-06-2.pddl,SAT:55.2966:50.0:300.0:-1
ipc-2014-agile-childsnack-07-2.pddl,SAT:1.58176:57.0:300.0:-1
ipc-2014-agile-childsnack-08-2.pddl,TIMEOUT:301.28:-1.0:300.0:-1
ipc-2014-agile-childsnack-08.pddl,SAT:213.118:61.0:300.0:-1
ipc-2014-agile-childsnack-09-2.pddl,TIMEOUT:301.295:-1.0:300.0:-1
ipc-2014-agile-childsnack-09.pddl,SAT:9.59654:67.0:300.0:-1
ipc-2014-agile-childsnack-10-2.pddl,SAT:8.10177:72.0:300.0:-1
ipc-2014-agile-childsnack-10.pddl,SAT:5.9081:72.0:300.0:-1
ipc-2014-agile-childsnack-11-2.pddl,SAT:8.38172:77.0:300.0:-1
ipc-2014-agile-childsnack-11.pddl,TIMEOUT:301.327:-1.0:300.0:-1
ipc-2014-agile-childsnack-12.pddl,TIMEOUT:301.35:-1.0:300.0:-1
ipc-2014-agile-childsnack-13-2.pddl,TIMEOUT:301.316:-1.0:300.0:-1
ipc-2014-agile-childsnack-13.pddl,TIMEOUT:301.279:-1.0:300.0:-1
ipc-2014-agile-childsnack-14.pddl,TIMEOUT:301.284:-1.0:300.0:-1
ipc-2014-agile-childsnack-15-2.pddl,TIMEOUT:301.307:-1.0:300.0:-1
ipc-2014-agile-childsnack-16-2.pddl,TIMEOUT:301.264:-1.0:300.0:-1
ipc-2014-agile-childsnack-19-2.pddl,TIMEOUT:301.298:-1.0:300.0:-1
ipc-2014-agile-childsnack-19.pddl,TIMEOUT:301.351:-1.0:300.0:-1
ipc-2014-agile-citycar-p3-2-2-0-1.pddl,SAT:1.36979:110.0:300.0:-1
ipc-2014-agile-citycar-p3-3-2-0-1.pddl,SAT:19.0741:285.0:300.0:-1
ipc-2014-agile-citycar-p3-4-2-0-1.pddl,SAT:7.53485:240.0:300.0:-1
ipc-2014-agile-citycar-p3-5-2-0-1.pddl,SAT:9.29459:241.0:300.0:-1
ipc-2014-agile-citycar-p3-5-2-0-2.pddl,SAT:27.3138:273.0:300.0:-1
ipc-2014-agile-citycar-p4-2-2-0-1.pddl,TIMEOUT:301.18:-1.0:300.0:-1
ipc-2014-agile-citycar-p4-2-3-0-1.pddl,TIMEOUT:301.203:-1.0:300.0:-1
ipc-2014-agile-citycar-p4-2-3-0-2.pddl,TIMEOUT:301.204:-1.0:300.0:-1
ipc-2014-agile-citycar-p4-3-2-0-1.pddl,TIMEOUT:301.142:-1.0:300.0:-1
ipc-2014-agile-citycar-p4-3-2-0-2.pddl,TIMEOUT:301.336:-1.0:300.0:-1
ipc-2014-agile-citycar-p4-3-3-0-1.pddl,TIMEOUT:301.424:-1.0:300.0:-1
ipc-2014-agile-citycar-p4-3-3-0-2.pddl,TIMEOUT:301.149:-1.0:300.0:-1
ipc-2014-agile-citycar-p4-4-2-0-1.pddl,TIMEOUT:301.316:-1.0:300.0:-1
ipc-2014-agile-citycar-p4-4-2-0-2.pddl,TIMEOUT:301.211:-1.0:300.0:-1
ipc-2014-agile-citycar-p4-4-3-0-1.pddl,TIMEOUT:301.188:-1.0:300.0:-1
ipc-2014-agile-citycar-p4-4-3-0-2.pddl,TIMEOUT:301.179:-1.0:300.0:-1
ipc-2014-agile-citycar-p4-5-2-0-1.pddl,TIMEOUT:301.356:-1.0:300.0:-1
ipc-2014-agile-citycar-p4-5-2-0-2.pddl,TIMEOUT:301.182:-1.0:300.0:-1
ipc-2014-agile-citycar-p4-5-3-0-1.pddl,TIMEOUT:301.191:-1.0:300.0:-1
ipc-2014-agile-citycar-p4-5-3-0-2.pddl,TIMEOUT:301.163:-1.0:300.0:-1
ipc-2014-agile-floortile-p01-4-3-2.pddl,SAT:2.41863:101.0:300.0:-1
ipc-2014-agile-floortile-p01-5-4-2.pddl,TIMEOUT:301.184:-1.0:300.0:-1
ipc-2014-agile-floortile-p01-5-5-2.pddl,TIMEOUT:301.134:-1.0:300.0:-1
ipc-2014-agile-floortile-p01-6-4-2.pddl,TIMEOUT:301.147:-1.0:300.0:-1
ipc-2014-agile-floortile-p01-6-5-2.pddl,TIMEOUT:301.177:-1.0:300.0:-1
ipc-2014-agile-floortile-p01-6-5-3.pddl,TIMEOUT:301.159:-1.0:300.0:-1
ipc-2014-agile-floortile-p02-5-4-2.pddl,TIMEOUT:301.116:-1.0:300.0:-1
ipc-2014-agile-floortile-p02-6-4-2.pddl,TIMEOUT:301.127:-1.0:300.0:-1
ipc-2014-agile-floortile-p02-6-5-2.pddl,TIMEOUT:301.218:-1.0:300.0:-1
ipc-2014-agile-floortile-p02-6-5-3.pddl,TIMEOUT:301.118:-1.0:300.0:-1
ipc-2014-agile-floortile-p03-6-4-2.pddl,TIMEOUT:301.17:-1.0:300.0:-1
ipc-2014-agile-floortile-p03-6-5-2.pddl,TIMEOUT:301.125:-1.0:300.0:-1
ipc-2014-agile-floortile-p03-6-5-3.pddl,TIMEOUT:301.129:-1.0:300.0:-1
ipc-2014-agile-floortile-p04-5-4-2.pddl,TIMEOUT:301.152:-1.0:300.0:-1
ipc-2014-agile-floortile-p04-5-5-2.pddl,TIMEOUT:301.137:-1.0:300.0:-1
ipc-2014-agile-floortile-p04-6-5-2.pddl,TIMEOUT:301.159:-1.0:300.0:-1
ipc-2014-agile-floortile-p04-6-5-3.pddl,TIMEOUT:301.189:-1.0:300.0:-1
ipc-2014-agile-floortile-p05-4-3-2.pddl,SAT:0.274957:72.0:300.0:-1
ipc-2014-agile-floortile-p05-6-5-2.pddl,TIMEOUT:301.126:-1.0:300.0:-1
ipc-2014-agile-floortile-p05-6-5-3.pddl,TIMEOUT:301.135:-1.0:300.0:-1
ipc-2014-agile-ged-d-10-1.pddl,SAT:4.74228:39.0:300.0:-1
ipc-2014-agile-ged-d-10-2.pddl,SAT:4.74928:40.0:300.0:-1
ipc-2014-agile-ged-d-10-3.pddl,SAT:6.573:41.0:300.0:-1
ipc-2014-agile-ged-d-10-4.pddl,SAT:3.43048:34.0:300.0:-1
ipc-2014-agile-ged-d-10-5.pddl,TIMEOUT:301.139:-1.0:300.0:-1
ipc-2014-agile-ged-d-10-6.pddl,TIMEOUT:301.119:-1.0:300.0:-1
ipc-2014-agile-ged-d-11-1.pddl,SAT:6.43902:45.0:300.0:-1
ipc-2014-agile-ged-d-11-3.pddl,TIMEOUT:301.071:-1.0:300.0:-1
ipc-2014-agile-ged-d-11-5.pddl,SAT:12.6371:55.0:300.0:-1
ipc-2014-agile-ged-d-11-6.pddl,TIMEOUT:301.116:-1.0:300.0:-1
ipc-2014-agile-ged-d-12-11.pddl,TIMEOUT:301.071:-1.0:300.0:-1
ipc-2014-agile-ged-d-12-2.pddl,TIMEOUT:301.116:-1.0:300.0:-1
ipc-2014-agile-ged-d-12-3.pddl,TIMEOUT:301.07:-1.0:300.0:-1
ipc-2014-agile-ged-d-12-5.pddl,TIMEOUT:301.124:-1.0:300.0:-1
ipc-2014-agile-ged-d-12-6.pddl,TIMEOUT:301.048:-1.0:300.0:-1
ipc-2014-agile-ged-d-12-7.pddl,SAT:42.8005:62.0:300.0:-1
ipc-2014-agile-ged-d-12-8.pddl,TIMEOUT:301.064:-1.0:300.0:-1
ipc-2014-agile-ged-d-12-9.pddl,TIMEOUT:301.109:-1.0:300.0:-1
ipc-2014-agile-ged-d-3-6.pddl,SAT:3.17652:32.0:300.0:-1
ipc-2014-agile-ged-d-9-5.pddl,SAT:252.311:31.0:300.0:-1
ipc-2014-agile-hiking-3-4-3.pddl,SAT:11.2873:17.0:300.0:-1
ipc-2014-agile-hiking-3-4-4.pddl,SAT:33.9188:23.0:300.0:-1
ipc-2014-agile-hiking-3-4-5.pddl,SAT:176.006:45.0:300.0:-1
ipc-2014-agile-hiking-3-4-6.pddl,TIMEOUT:301.106:-1.0:300.0:-1
ipc-2014-agile-hiking-3-4-7.pddl,TIMEOUT:301.119:-1.0:300.0:-1
ipc-2014-agile-hiking-3-4-8.pddl,TIMEOUT:301.057:-1.0:300.0:-1
ipc-2014-agile-hiking-3-4-9.pddl,TIMEOUT:301.089:-1.0:300.0:-1
ipc-2014-agile-hiking-4-5-3.pddl,SAT:105.812:20.0:300.0:-1
ipc-2014-agile-hiking-4-5-4.pddl,TIMEOUT:301.094:-1.0:300.0:-1
ipc-2014-agile-hiking-4-5-5.pddl,TIMEOUT:301.096:-1.0:300.0:-1
ipc-2014-agile-hiking-4-5-6.pddl,TIMEOUT:301.14:-1.0:300.0:-1
ipc-2014-agile-hiking-4-5-7.pddl,TIMEOUT:301.066:-1.0:300.0:-1
ipc-2014-agile-hiking-4-5-8.pddl,TIMEOUT:301.147:-1.0:300.0:-1
ipc-2014-agile-hiking-4-5-9.pddl,TIMEOUT:301.103:-1.0:300.0:-1
ipc-2014-agile-hiking-5-6-3.pddl,TIMEOUT:301.068:-1.0:300.0:-1
ipc-2014-agile-hiking-5-6-4.pddl,TIMEOUT:301.091:-1.0:300.0:-1
ipc-2014-agile-hiking-5-6-5.pddl,TIMEOUT:301.136:-1.0:300.0:-1
ipc-2014-agile-hiking-5-6-6.pddl,TIMEOUT:301.098:-1.0:300.0:-1
ipc-2014-agile-hiking-5-6-7.pddl,TIMEOUT:301.131:-1.0:300.0:-1
ipc-2014-agile-hiking-5-6-8.pddl,TIMEOUT:301.121:-1.0:300.0:-1
ipc-2014-agile-maintenance-1.3.060.180.5-000.pddl,SAT:3.44148:40.0:300.0:-1
ipc-2014-agile-maintenance-1.3.060.180.5-001.pddl,SAT:7.98079:44.0:300.0:-1
ipc-2014-agile-maintenance-1.3.060.180.5-002.pddl,SAT:3.52646:43.0:300.0:-1
ipc-2014-agile-maintenance-1.3.100.300.5-000.pddl,SAT:27.2599:68.0:300.0:-1
ipc-2014-agile-maintenance-1.3.100.300.5-001.pddl,SAT:28.3727:72.0:300.0:-1
ipc-2014-agile-maintenance-1.3.100.300.7-000.pddl,SAT:28.3917:56.0:300.0:-1
ipc-2014-agile-maintenance-1.3.100.300.7-001.pddl,SAT:27.7268:54.0:300.0:-1
ipc-2014-agile-maintenance-1.3.100.300.7-002.pddl,SAT:29.2016:56.0:300.0:-1
ipc-2014-agile-maintenance-1.3.150.500.6-001.pddl,SAT:5.22521:98.0:300.0:-1
ipc-2014-agile-maintenance-1.3.200.500.5-001.pddl,CRASHED:42.9745:1000000000.0:300.0:-1
ipc-2014-agile-maintenance-1.3.200.500.5-002.pddl,SAT:8.44072:127.0:300.0:-1
ipc-2014-agile-maintenance-1.3.200.700.7-000.pddl,CRASHED:2.81757:1000000000.0:300.0:-1
ipc-2014-agile-maintenance-1.3.200.700.7-001.pddl,CRASHED:2.84157:1000000000.0:300.0:-1
ipc-2014-agile-maintenance-1.3.200.700.7-002.pddl,CRASHED:2.83357:1000000000.0:300.0:-1
ipc-2014-agile-maintenance-1.3.200.900.5-000.pddl,CRASHED:2.42963:1000000000.0:300.0:-1
ipc-2014-agile-maintenance-1.3.200.900.5-001.pddl,CRASHED:2.41363:1000000000.0:300.0:-1
ipc-2014-agile-maintenance-1.3.200.900.5-002.pddl,CRASHED:2.41163:1000000000.0:300.0:-1
ipc-2014-agile-maintenance-1.3.200.900.8-000.pddl,CRASHED:2.46362:1000000000.0:300.0:-1
ipc-2014-agile-maintenance-1.3.200.900.8-001.pddl,CRASHED:2.47162:1000000000.0:300.0:-1
ipc-2014-agile-maintenance-1.3.200.900.8-002.pddl,CRASHED:2.44763:1000000000.0:300.0:-1
ipc-2014-agile-openstacks-p130_2.pddl,SAT:222.907:64.0:300.0:-1
ipc-2014-agile-openstacks-p130_3.pddl,TIMEOUT:301.1:-1.0:300.0:-1
ipc-2014-agile-openstacks-p150_2.pddl,TIMEOUT:301.108:-1.0:300.0:-1
ipc-2014-agile-openstacks-p150_3.pddl,TIMEOUT:301.098:-1.0:300.0:-1
ipc-2014-agile-openstacks-p170_1.pddl,TIMEOUT:301.165:-1.0:300.0:-1
ipc-2014-agile-openstacks-p170_2.pddl,TIMEOUT:301.144:-1.0:300.0:-1
ipc-2014-agile-openstacks-p170_3.pddl,TIMEOUT:301.067:-1.0:300.0:-1
ipc-2014-agile-openstacks-p190_1.pddl,TIMEOUT:301.078:-1.0:300.0:-1
ipc-2014-agile-openstacks-p190_2.pddl,TIMEOUT:301.115:-1.0:300.0:-1
ipc-2014-agile-openstacks-p190_3.pddl,TIMEOUT:301.125:-1.0:300.0:-1
ipc-2014-agile-openstacks-p210_1.pddl,TIMEOUT:301.091:-1.0:300.0:-1
ipc-2014-agile-openstacks-p210_2.pddl,TIMEOUT:301.103:-1.0:300.0:-1
ipc-2014-agile-openstacks-p230_1.pddl,TIMEOUT:301.13:-1.0:300.0:-1
ipc-2014-agile-openstacks-p230_2.pddl,TIMEOUT:301.139:-1.0:300.0:-1
ipc-2014-agile-openstacks-p250_1.pddl,TIMEOUT:301.159:-1.0:300.0:-1
ipc-2014-agile-openstacks-p250_2.pddl,TIMEOUT:301.162:-1.0:300.0:-1
ipc-2014-agile-openstacks-p270_1.pddl,TIMEOUT:301.151:-1.0:300.0:-1
ipc-2014-agile-openstacks-p270_2.pddl,TIMEOUT:301.157:-1.0:300.0:-1
ipc-2014-agile-openstacks-p290_1.pddl,TIMEOUT:301.188:-1.0:300.0:-1
ipc-2014-agile-openstacks-p290_2.pddl,TIMEOUT:301.22:-1.0:300.0:-1
ipc-2014-agile-parking-28_2.pddl,SAT:159.604:96.0:300.0:-1
ipc-2014-agile-parking-28_3.pddl,SAT:151.109:90.0:300.0:-1
ipc-2014-agile-parking-30_1.pddl,SAT:78.772:58.0:300.0:-1
ipc-2014-agile-parking-30_2.pddl,SAT:225.161:98.0:300.0:-1
ipc-2014-agile-parking-30_3.pddl,SAT:178.088:96.0:300.0:-1
ipc-2014-agile-parking-32_1.pddl,TIMEOUT:301.124:-1.0:300.0:-1
ipc-2014-agile-parking-32_2.pddl,TIMEOUT:301.111:-1.0:300.0:-1
ipc-2014-agile-parking-32_3.pddl,TIMEOUT:301.11:-1.0:300.0:-1
ipc-2014-agile-parking-34_1.pddl,TIMEOUT:301.105:-1.0:300.0:-1
ipc-2014-agile-parking-34_2.pddl,TIMEOUT:301.15:-1.0:300.0:-1
ipc-2014-agile-parking-34_3.pddl,TIMEOUT:301.13:-1.0:300.0:-1
ipc-2014-agile-parking-36_1.pddl,TIMEOUT:301.161:-1.0:300.0:-1
ipc-2014-agile-parking-36_2.pddl,TIMEOUT:301.118:-1.0:300.0:-1
ipc-2014-agile-parking-36_3.pddl,TIMEOUT:301.084:-1.0:300.0:-1
ipc-2014-agile-parking-38_1.pddl,TIMEOUT:301.112:-1.0:300.0:-1
ipc-2014-agile-parking-38_2.pddl,TIMEOUT:301.173:-1.0:300.0:-1
ipc-2014-agile-parking-38_3.pddl,TIMEOUT:301.111:-1.0:300.0:-1
ipc-2014-agile-parking-40_1.pddl,TIMEOUT:301.13:-1.0:300.0:-1
ipc-2014-agile-parking-40_2.pddl,TIMEOUT:301.196:-1.0:300.0:-1
ipc-2014-agile-parking-40_3.pddl,TIMEOUT:301.185:-1.0:300.0:-1
ipc-2014-agile-tetris-020.pddl,SAT:108.372:55.0:300.0:-1
ipc-2014-agile-tetris-021.pddl,TIMEOUT:301.115:-1.0:300.0:-1
ipc-2014-agile-tetris-022.pddl,TIMEOUT:301.037:-1.0:300.0:-1
ipc-2014-agile-tetris-023.pddl,TIMEOUT:301.027:-1.0:300.0:-1
ipc-2014-agile-tetris-024.pddl,TIMEOUT:301.081:-1.0:300.0:-1
ipc-2014-agile-tetris-025.pddl,TIMEOUT:301.019:-1.0:300.0:-1
ipc-2014-agile-tetris-026.pddl,TIMEOUT:301.03:-1.0:300.0:-1
ipc-2014-agile-tetris-027.pddl,TIMEOUT:301.037:-1.0:300.0:-1
ipc-2014-agile-tetris-028.pddl,TIMEOUT:301.025:-1.0:300.0:-1
ipc-2014-agile-tetris-029.pddl,TIMEOUT:301.096:-1.0:300.0:-1
ipc-2014-agile-tetris-031.pddl,TIMEOUT:301.05:-1.0:300.0:-1
ipc-2014-agile-tetris-032.pddl,TIMEOUT:301.112:-1.0:300.0:-1
ipc-2014-agile-tetris-033.pddl,TIMEOUT:301.092:-1.0:300.0:-1
ipc-2014-agile-tetris-034.pddl,TIMEOUT:301.06:-1.0:300.0:-1
ipc-2014-agile-tetris-035.pddl,TIMEOUT:301.068:-1.0:300.0:-1
ipc-2014-agile-tetris-036.pddl,TIMEOUT:301.092:-1.0:300.0:-1
ipc-2014-agile-tetris-037.pddl,TIMEOUT:301.044:-1.0:300.0:-1
ipc-2014-agile-tetris-038.pddl,TIMEOUT:301.042:-1.0:300.0:-1
ipc-2014-agile-tetris-039.pddl,TIMEOUT:301.035:-1.0:300.0:-1
ipc-2014-agile-tetris-040.pddl,TIMEOUT:301.117:-1.0:300.0:-1
ipc-2014-agile-thoughtful-bootstrap-typed-01.pddl,SAT:0.113982:29.0:300.0:-1
ipc-2014-agile-thoughtful-bootstrap-typed-02.pddl,SAT:0.107983:31.0:300.0:-1
ipc-2014-agile-thoughtful-bootstrap-typed-03.pddl,SAT:0.126979:34.0:300.0:-1
ipc-2014-agile-thoughtful-bootstrap-typed-04.pddl,SAT:0.117982:32.0:300.0:-1
ipc-2014-agile-thoughtful-bootstrap-typed-05.pddl,SAT:0.134978:35.0:300.0:-1
ipc-2014-agile-thoughtful-p11_6_53-typed.pddl,SAT:4.84226:114.0:300.0:-1
ipc-2014-agile-thoughtful-p11_6_59-typed.pddl,TIMEOUT:301.113:-1.0:300.0:-1
ipc-2014-agile-thoughtful-p11_6_62-typed.pddl,TIMEOUT:301.097:-1.0:300.0:-1
ipc-2014-agile-thoughtful-p13_7_78-typed.pddl,SAT:8.96564:149.0:300.0:-1
ipc-2014-agile-thoughtful-p13_7_79-typed.pddl,SAT:5.75812:123.0:300.0:-1
ipc-2014-agile-thoughtful-p13_7_86-typed.pddl,SAT:6.46202:143.0:300.0:-1
ipc-2014-agile-thoughtful-target-typed-20.pddl,SAT:8.73567:126.0:300.0:-1
ipc-2014-agile-thoughtful-target-typed-21.pddl,TIMEOUT:301.107:-1.0:300.0:-1
ipc-2014-agile-thoughtful-target-typed-22.pddl,SAT:10.2174:154.0:300.0:-1
ipc-2014-agile-thoughtful-target-typed-23.pddl,SAT:7.14091:141.0:300.0:-1
ipc-2014-agile-thoughtful-target-typed-24.pddl,SAT:9.61254:153.0:300.0:-1
ipc-2014-agile-thoughtful-target-typed-25.pddl,SAT:21.4457:146.0:300.0:-1
ipc-2014-agile-thoughtful-target-typed-26.pddl,TIMEOUT:301.069:-1.0:300.0:-1
ipc-2014-agile-thoughtful-target-typed-27.pddl,SAT:14.7628:140.0:300.0:-1
ipc-2014-agile-thoughtful-target-typed-28.pddl,SAT:20.6219:137.0:300.0:-1
ipc-2014-agile-transport-01.pddl,SAT:94.0887:3106.0:300.0:-1
ipc-2014-agile-transport-02.pddl,SAT:210.212:3526.0:300.0:-1
ipc-2014-agile-transport-03.pddl,SAT:126.772:2949.0:300.0:-1
ipc-2014-agile-transport-04.pddl,TIMEOUT:301.103:-1.0:300.0:-1
ipc-2014-agile-transport-05.pddl,TIMEOUT:301.174:-1.0:300.0:-1
ipc-2014-agile-transport-06.pddl,TIMEOUT:301.101:-1.0:300.0:-1
ipc-2014-agile-transport-07.pddl,TIMEOUT:301.179:-1.0:300.0:-1
ipc-2014-agile-transport-08.pddl,TIMEOUT:301.138:-1.0:300.0:-1
ipc-2014-agile-transport-09.pddl,TIMEOUT:301.198:-1.0:300.0:-1
ipc-2014-agile-transport-10.pddl,TIMEOUT:301.205:-1.0:300.0:-1
ipc-2014-agile-transport-11.pddl,SAT:238.002:2366.0:300.0:-1
ipc-2014-agile-transport-12.pddl,SAT:223.096:3603.0:300.0:-1
ipc-2014-agile-transport-13.pddl,SAT:71.5571:2762.0:300.0:-1
ipc-2014-agile-transport-14.pddl,TIMEOUT:301.14:-1.0:300.0:-1
ipc-2014-agile-transport-15.pddl,TIMEOUT:301.151:-1.0:300.0:-1
ipc-2014-agile-transport-16.pddl,TIMEOUT:301.148:-1.0:300.0:-1
ipc-2014-agile-transport-17.pddl,TIMEOUT:301.215:-1.0:300.0:-1
ipc-2014-agile-transport-18.pddl,TIMEOUT:301.177:-1.0:300.0:-1
ipc-2014-agile-transport-19.pddl,TIMEOUT:301.176:-1.0:300.0:-1
ipc-2014-agile-transport-20.pddl,TIMEOUT:301.169:-1.0:300.0:-1
ipc-2014-agile-visitall-30.pddl,SAT:8.48471:899.0:300.0:-1
ipc-2014-agile-visitall-31.pddl,SAT:10.2054:960.0:300.0:-1
ipc-2014-agile-visitall-32.pddl,SAT:12.0582:1023.0:300.0:-1
ipc-2014-agile-visitall-33.pddl,SAT:14.1368:1088.0:300.0:-1
ipc-2014-agile-visitall-50.pddl,SAT:130.752:2499.0:300.0:-1
ipc-2014-agile-visitall-51.pddl,SAT:143.919:2600.0:300.0:-1
ipc-2014-agile-visitall-52.pddl,SAT:160.824:2703.0:300.0:-1
ipc-2014-agile-visitall-53.pddl,SAT:178.199:2808.0:300.0:-1
ipc-2014-agile-visitall-54.pddl,SAT:231.703:2915.0:300.0:-1
ipc-2014-agile-visitall-55.pddl,SAT:258.133:3024.0:300.0:-1
ipc-2014-agile-visitall-56.pddl,SAT:284.937:3135.0:300.0:-1
ipc-2014-agile-visitall-57.pddl,SAT:290.478:3248.0:300.0:-1
ipc-2014-agile-visitall-58.pddl,TIMEOUT:301.105:-1.0:300.0:-1
ipc-2014-agile-visitall-59.pddl,TIMEOUT:301.163:-1.0:300.0:-1
ipc-2014-agile-visitall-60.pddl,TIMEOUT:301.084:-1.0:300.0:-1
ipc-2014-agile-visitall-61.pddl,TIMEOUT:301.067:-1.0:300.0:-1
ipc-2014-agile-visitall-62.pddl,TIMEOUT:301.095:-1.0:300.0:-1
ipc-2014-agile-visitall-63.pddl,TIMEOUT:301.098:-1.0:300.0:-1
ipc-2014-agile-visitall-64.pddl,TIMEOUT:301.155:-1.0:300.0:-1
ipc-2014-agile-visitall-65.pddl,TIMEOUT:301.116:-1.0:300.0:-1
