instance,ipc-2014-agile-jasper
ipc-2014-agile-barman-p1-11-4-15.pddl,SAT:4.69029:295.0:300.0:-1
ipc-2014-agile-barman-p1-11-5-15.pddl,SAT:9.1876:241.0:300.0:-1
ipc-2014-agile-barman-p1-11-5-16.pddl,SAT:4.35434:183.0:300.0:-1
ipc-2014-agile-barman-p2-10-4-13.pddl,SAT:8.03978:322.0:300.0:-1
ipc-2014-agile-barman-p2-11-4-15.pddl,SAT:13.9349:452.0:300.0:-1
ipc-2014-agile-barman-p2-11-5-15.pddl,SAT:9.78051:217.0:300.0:-1
ipc-2014-agile-barman-p2-11-5-16.pddl,SAT:14.4918:344.0:300.0:-1
ipc-2014-agile-barman-p2-11-5-17.pddl,SAT:13.002:268.0:300.0:-1
ipc-2014-agile-barman-p3-10-4-13.pddl,SAT:11.1463:294.0:300.0:-1
ipc-2014-agile-barman-p3-11-4-15.pddl,SAT:6.574:275.0:300.0:-1
ipc-2014-agile-barman-p3-11-5-15.pddl,SAT:12.7011:366.0:300.0:-1
ipc-2014-agile-barman-p3-11-5-16.pddl,SAT:12.6191:286.0:300.0:-1
ipc-2014-agile-barman-p3-11-5-17.pddl,SAT:92.8299:337.0:300.0:-1
ipc-2014-agile-barman-p4-11-4-14.pddl,SAT:2.68359:245.0:300.0:-1
ipc-2014-agile-barman-p4-11-4-15.pddl,TIMEOUT:301.04:-1.0:300.0:-1
ipc-2014-agile-barman-p4-11-5-15.pddl,SAT:8.47871:250.0:300.0:-1
ipc-2014-agile-barman-p5-10-4-13.pddl,SAT:7.39288:280.0:300.0:-1
ipc-2014-agile-barman-p5-11-4-15.pddl,SAT:4.06038:221.0:300.0:-1
ipc-2014-agile-barman-p5-11-5-15.pddl,SAT:13.9769:284.0:300.0:-1
ipc-2014-agile-barman-p5-11-5-16.pddl,SAT:6.51801:298.0:300.0:-1
ipc-2014-agile-cavediving-01_easy.pddl,TIMEOUT:301.08:-1.0:300.0:-1
ipc-2014-agile-cavediving-01.pddl,TIMEOUT:301.11:-1.0:300.0:-1
ipc-2014-agile-cavediving-02_easy.pddl,TIMEOUT:301.03:-1.0:300.0:-1
ipc-2014-agile-cavediving-03_easy.pddl,TIMEOUT:301.0:-1.0:300.0:-1
ipc-2014-agile-cavediving-04_easy.pddl,TIMEOUT:301.0:-1.0:300.0:-1
ipc-2014-agile-cavediving-05A_easy.pddl,SAT:2.43863:94.0:300.0:-1
ipc-2014-agile-cavediving-06A_easy.pddl,SAT:2.96055:95.0:300.0:-1
ipc-2014-agile-cavediving-07_easy.pddl,SAT:1.04284:134.0:300.0:-1
ipc-2014-agile-cavediving-08_easy.pddl,SAT:1.49077:96.0:300.0:-1
ipc-2014-agile-cavediving-09_easy.pddl,TIMEOUT:301.01:-1.0:300.0:-1
ipc-2014-agile-cavediving-10_easy.pddl,TIMEOUT:301.03:-1.0:300.0:-1
ipc-2014-agile-cavediving-11_easy.pddl,TIMEOUT:301.1:-1.0:300.0:-1
ipc-2014-agile-cavediving-12_easy.pddl,TIMEOUT:301.09:-1.0:300.0:-1
ipc-2014-agile-cavediving-13_easy.pddl,TIMEOUT:301.01:-1.0:300.0:-1
ipc-2014-agile-cavediving-14_easy.pddl,TIMEOUT:301.03:-1.0:300.0:-1
ipc-2014-agile-cavediving-15_easy.pddl,TIMEOUT:301.05:-1.0:300.0:-1
ipc-2014-agile-cavediving-16_easy.pddl,TIMEOUT:301.06:-1.0:300.0:-1
ipc-2014-agile-cavediving-18A_easy.pddl,SAT:1.40079:133.0:300.0:-1
ipc-2014-agile-cavediving-18_easy.pddl,SAT:10.8843:134.0:300.0:-1
ipc-2014-agile-cavediving-20A_easy.pddl,SAT:1.2918:98.0:300.0:-1
ipc-2014-agile-childsnack-05-2.pddl,TIMEOUT:301.08:-1.0:300.0:-1
ipc-2014-agile-childsnack-05.pddl,TIMEOUT:301.06:-1.0:300.0:-1
ipc-2014-agile-childsnack-06-2.pddl,TIMEOUT:301.08:-1.0:300.0:-1
ipc-2014-agile-childsnack-07-2.pddl,TIMEOUT:301.05:-1.0:300.0:-1
ipc-2014-agile-childsnack-08-2.pddl,CRASHED:285.08:1000000000.0:300.0:-1
ipc-2014-agile-childsnack-08.pddl,TIMEOUT:301.01:-1.0:300.0:-1
ipc-2014-agile-childsnack-09-2.pddl,CRASHED:278.71:1000000000.0:300.0:-1
ipc-2014-agile-childsnack-09.pddl,CRASHED:276.66:1000000000.0:300.0:-1
ipc-2014-agile-childsnack-10-2.pddl,CRASHED:263.44:1000000000.0:300.0:-1
ipc-2014-agile-childsnack-10.pddl,CRASHED:294.59:1000000000.0:300.0:-1
ipc-2014-agile-childsnack-11-2.pddl,CRASHED:272.33:1000000000.0:300.0:-1
ipc-2014-agile-childsnack-11.pddl,CRASHED:276.48:1000000000.0:300.0:-1
ipc-2014-agile-childsnack-12.pddl,CRASHED:267.99:1000000000.0:300.0:-1
ipc-2014-agile-childsnack-13-2.pddl,CRASHED:283.06:1000000000.0:300.0:-1
ipc-2014-agile-childsnack-13.pddl,CRASHED:294.72:1000000000.0:300.0:-1
ipc-2014-agile-childsnack-14.pddl,CRASHED:262.91:1000000000.0:300.0:-1
ipc-2014-agile-childsnack-15-2.pddl,TIMEOUT:301.02:-1.0:300.0:-1
ipc-2014-agile-childsnack-16-2.pddl,CRASHED:246.77:1000000000.0:300.0:-1
ipc-2014-agile-childsnack-19-2.pddl,CRASHED:233.61:1000000000.0:300.0:-1
ipc-2014-agile-childsnack-19.pddl,CRASHED:233.9:1000000000.0:300.0:-1
ipc-2014-agile-citycar-p3-2-2-0-1.pddl,SAT:4.04938:1044.0:300.0:-1
ipc-2014-agile-citycar-p3-3-2-0-1.pddl,SAT:21.6497:666.0:300.0:-1
ipc-2014-agile-citycar-p3-4-2-0-1.pddl,SAT:7.2369:642.0:300.0:-1
ipc-2014-agile-citycar-p3-5-2-0-1.pddl,SAT:20.2799:823.0:300.0:-1
ipc-2014-agile-citycar-p3-5-2-0-2.pddl,SAT:13.6269:800.0:300.0:-1
ipc-2014-agile-citycar-p4-2-2-0-1.pddl,CRASHED:297.65:1000000000.0:300.0:-1
ipc-2014-agile-citycar-p4-2-3-0-1.pddl,TIMEOUT:301.03:-1.0:300.0:-1
ipc-2014-agile-citycar-p4-2-3-0-2.pddl,TIMEOUT:301.05:-1.0:300.0:-1
ipc-2014-agile-citycar-p4-3-2-0-1.pddl,TIMEOUT:301.09:-1.0:300.0:-1
ipc-2014-agile-citycar-p4-3-2-0-2.pddl,TIMEOUT:301.03:-1.0:300.0:-1
ipc-2014-agile-citycar-p4-3-3-0-1.pddl,TIMEOUT:301.09:-1.0:300.0:-1
ipc-2014-agile-citycar-p4-3-3-0-2.pddl,TIMEOUT:301.0:-1.0:300.0:-1
ipc-2014-agile-citycar-p4-4-2-0-1.pddl,TIMEOUT:301.1:-1.0:300.0:-1
ipc-2014-agile-citycar-p4-4-2-0-2.pddl,TIMEOUT:301.08:-1.0:300.0:-1
ipc-2014-agile-citycar-p4-4-3-0-1.pddl,TIMEOUT:301.03:-1.0:300.0:-1
ipc-2014-agile-citycar-p4-4-3-0-2.pddl,TIMEOUT:301.03:-1.0:300.0:-1
ipc-2014-agile-citycar-p4-5-2-0-1.pddl,TIMEOUT:301.08:-1.0:300.0:-1
ipc-2014-agile-citycar-p4-5-2-0-2.pddl,TIMEOUT:301.03:-1.0:300.0:-1
ipc-2014-agile-citycar-p4-5-3-0-1.pddl,TIMEOUT:301.0:-1.0:300.0:-1
ipc-2014-agile-citycar-p4-5-3-0-2.pddl,TIMEOUT:301.07:-1.0:300.0:-1
ipc-2014-agile-floortile-p01-4-3-2.pddl,SAT:9.11061:102.0:300.0:-1
ipc-2014-agile-floortile-p01-5-4-2.pddl,TIMEOUT:301.07:-1.0:300.0:-1
ipc-2014-agile-floortile-p01-5-5-2.pddl,TIMEOUT:301.0:-1.0:300.0:-1
ipc-2014-agile-floortile-p01-6-4-2.pddl,TIMEOUT:301.02:-1.0:300.0:-1
ipc-2014-agile-floortile-p01-6-5-2.pddl,TIMEOUT:301.04:-1.0:300.0:-1
ipc-2014-agile-floortile-p01-6-5-3.pddl,TIMEOUT:301.09:-1.0:300.0:-1
ipc-2014-agile-floortile-p02-5-4-2.pddl,TIMEOUT:301.08:-1.0:300.0:-1
ipc-2014-agile-floortile-p02-6-4-2.pddl,TIMEOUT:301.1:-1.0:300.0:-1
ipc-2014-agile-floortile-p02-6-5-2.pddl,TIMEOUT:301.1:-1.0:300.0:-1
ipc-2014-agile-floortile-p02-6-5-3.pddl,TIMEOUT:301.06:-1.0:300.0:-1
ipc-2014-agile-floortile-p03-6-4-2.pddl,TIMEOUT:301.03:-1.0:300.0:-1
ipc-2014-agile-floortile-p03-6-5-2.pddl,TIMEOUT:301.04:-1.0:300.0:-1
ipc-2014-agile-floortile-p03-6-5-3.pddl,TIMEOUT:301.06:-1.0:300.0:-1
ipc-2014-agile-floortile-p04-5-4-2.pddl,TIMEOUT:301.1:-1.0:300.0:-1
ipc-2014-agile-floortile-p04-5-5-2.pddl,TIMEOUT:301.09:-1.0:300.0:-1
ipc-2014-agile-floortile-p04-6-5-2.pddl,TIMEOUT:301.04:-1.0:300.0:-1
ipc-2014-agile-floortile-p04-6-5-3.pddl,TIMEOUT:301.05:-1.0:300.0:-1
ipc-2014-agile-floortile-p05-4-3-2.pddl,SAT:4.39133:114.0:300.0:-1
ipc-2014-agile-floortile-p05-6-5-2.pddl,TIMEOUT:301.06:-1.0:300.0:-1
ipc-2014-agile-floortile-p05-6-5-3.pddl,TIMEOUT:301.02:-1.0:300.0:-1
ipc-2014-agile-ged-d-10-1.pddl,SAT:4.5723:40.0:300.0:-1
ipc-2014-agile-ged-d-10-2.pddl,SAT:4.54031:41.0:300.0:-1
ipc-2014-agile-ged-d-10-3.pddl,SAT:4.76027:55.0:300.0:-1
ipc-2014-agile-ged-d-10-4.pddl,SAT:3.73043:38.0:300.0:-1
ipc-2014-agile-ged-d-10-5.pddl,SAT:7.94079:57.0:300.0:-1
ipc-2014-agile-ged-d-10-6.pddl,SAT:6.81996:48.0:300.0:-1
ipc-2014-agile-ged-d-11-1.pddl,SAT:4.37833:33.0:300.0:-1
ipc-2014-agile-ged-d-11-3.pddl,SAT:3.89241:29.0:300.0:-1
ipc-2014-agile-ged-d-11-5.pddl,SAT:5.70813:40.0:300.0:-1
ipc-2014-agile-ged-d-11-6.pddl,SAT:4.5983:35.0:300.0:-1
ipc-2014-agile-ged-d-12-11.pddl,SAT:5.2512:37.0:300.0:-1
ipc-2014-agile-ged-d-12-2.pddl,SAT:10.6434:66.0:300.0:-1
ipc-2014-agile-ged-d-12-3.pddl,SAT:10.0505:63.0:300.0:-1
ipc-2014-agile-ged-d-12-5.pddl,SAT:11.8682:66.0:300.0:-1
ipc-2014-agile-ged-d-12-6.pddl,SAT:8.08177:63.0:300.0:-1
ipc-2014-agile-ged-d-12-7.pddl,SAT:9.36158:66.0:300.0:-1
ipc-2014-agile-ged-d-12-8.pddl,SAT:15.5916:89.0:300.0:-1
ipc-2014-agile-ged-d-12-9.pddl,SAT:15.5096:72.0:300.0:-1
ipc-2014-agile-ged-d-3-6.pddl,SAT:3.85041:29.0:300.0:-1
ipc-2014-agile-ged-d-9-5.pddl,SAT:4.29435:28.0:300.0:-1
ipc-2014-agile-hiking-3-4-3.pddl,SAT:1.9347:12.0:300.0:-1
ipc-2014-agile-hiking-3-4-4.pddl,SAT:3.33249:21.0:300.0:-1
ipc-2014-agile-hiking-3-4-5.pddl,SAT:10.2574:62.0:300.0:-1
ipc-2014-agile-hiking-3-4-6.pddl,SAT:58.7011:112.0:300.0:-1
ipc-2014-agile-hiking-3-4-7.pddl,SAT:30.9653:116.0:300.0:-1
ipc-2014-agile-hiking-3-4-8.pddl,SAT:149.115:184.0:300.0:-1
ipc-2014-agile-hiking-3-4-9.pddl,TIMEOUT:301.03:-1.0:300.0:-1
ipc-2014-agile-hiking-4-5-3.pddl,SAT:4.97824:15.0:300.0:-1
ipc-2014-agile-hiking-4-5-4.pddl,SAT:11.7372:27.0:300.0:-1
ipc-2014-agile-hiking-4-5-5.pddl,SAT:28.2157:59.0:300.0:-1
ipc-2014-agile-hiking-4-5-6.pddl,SAT:87.3577:84.0:300.0:-1
ipc-2014-agile-hiking-4-5-7.pddl,SAT:220.148:132.0:300.0:-1
ipc-2014-agile-hiking-4-5-8.pddl,SAT:296.321:105.0:300.0:-1
ipc-2014-agile-hiking-4-5-9.pddl,TIMEOUT:301.07:-1.0:300.0:-1
ipc-2014-agile-hiking-5-6-3.pddl,SAT:13.7629:22.0:300.0:-1
ipc-2014-agile-hiking-5-6-4.pddl,SAT:41.5057:31.0:300.0:-1
ipc-2014-agile-hiking-5-6-5.pddl,SAT:80.1708:53.0:300.0:-1
ipc-2014-agile-hiking-5-6-6.pddl,TIMEOUT:301.07:-1.0:300.0:-1
ipc-2014-agile-hiking-5-6-7.pddl,TIMEOUT:301.04:-1.0:300.0:-1
ipc-2014-agile-hiking-5-6-8.pddl,TIMEOUT:301.09:-1.0:300.0:-1
ipc-2014-agile-maintenance-1.3.060.180.5-000.pddl,SAT:55.4406:53.0:300.0:-1
ipc-2014-agile-maintenance-1.3.060.180.5-001.pddl,SAT:1.13083:55.0:300.0:-1
ipc-2014-agile-maintenance-1.3.060.180.5-002.pddl,SAT:9.53455:56.0:300.0:-1
ipc-2014-agile-maintenance-1.3.100.300.5-000.pddl,TIMEOUT:301.06:-1.0:300.0:-1
ipc-2014-agile-maintenance-1.3.100.300.5-001.pddl,SAT:104.627:90.0:300.0:-1
ipc-2014-agile-maintenance-1.3.100.300.7-000.pddl,SAT:3.13752:83.0:300.0:-1
ipc-2014-agile-maintenance-1.3.100.300.7-001.pddl,SAT:2.99954:72.0:300.0:-1
ipc-2014-agile-maintenance-1.3.100.300.7-002.pddl,SAT:3.03954:74.0:300.0:-1
ipc-2014-agile-maintenance-1.3.150.500.6-001.pddl,SAT:155.838:132.0:300.0:-1
ipc-2014-agile-maintenance-1.3.200.500.5-001.pddl,TIMEOUT:301.08:-1.0:300.0:-1
ipc-2014-agile-maintenance-1.3.200.500.5-002.pddl,TIMEOUT:301.01:-1.0:300.0:-1
ipc-2014-agile-maintenance-1.3.200.700.7-000.pddl,TIMEOUT:301.07:-1.0:300.0:-1
ipc-2014-agile-maintenance-1.3.200.700.7-001.pddl,TIMEOUT:301.0:-1.0:300.0:-1
ipc-2014-agile-maintenance-1.3.200.700.7-002.pddl,TIMEOUT:301.02:-1.0:300.0:-1
ipc-2014-agile-maintenance-1.3.200.900.5-000.pddl,TIMEOUT:301.05:-1.0:300.0:-1
ipc-2014-agile-maintenance-1.3.200.900.5-001.pddl,TIMEOUT:301.01:-1.0:300.0:-1
ipc-2014-agile-maintenance-1.3.200.900.5-002.pddl,TIMEOUT:301.0:-1.0:300.0:-1
ipc-2014-agile-maintenance-1.3.200.900.8-000.pddl,SAT:20.3769:157.0:300.0:-1
ipc-2014-agile-maintenance-1.3.200.900.8-001.pddl,SAT:20.7049:172.0:300.0:-1
ipc-2014-agile-maintenance-1.3.200.900.8-002.pddl,SAT:20.3769:165.0:300.0:-1
ipc-2014-agile-openstacks-p130_2.pddl,SAT:18.1062:62.0:300.0:-1
ipc-2014-agile-openstacks-p130_3.pddl,SAT:23.8394:108.0:300.0:-1
ipc-2014-agile-openstacks-p150_2.pddl,SAT:27.2729:75.0:300.0:-1
ipc-2014-agile-openstacks-p150_3.pddl,SAT:38.1162:131.0:300.0:-1
ipc-2014-agile-openstacks-p170_1.pddl,SAT:37.2633:72.0:300.0:-1
ipc-2014-agile-openstacks-p170_2.pddl,SAT:39.365:103.0:300.0:-1
ipc-2014-agile-openstacks-p170_3.pddl,SAT:54.0678:146.0:300.0:-1
ipc-2014-agile-openstacks-p190_1.pddl,SAT:51.6611:103.0:300.0:-1
ipc-2014-agile-openstacks-p190_2.pddl,SAT:54.1508:113.0:300.0:-1
ipc-2014-agile-openstacks-p190_3.pddl,SAT:74.6097:170.0:300.0:-1
ipc-2014-agile-openstacks-p210_1.pddl,SAT:68.8065:107.0:300.0:-1
ipc-2014-agile-openstacks-p210_2.pddl,SAT:71.4211:128.0:300.0:-1
ipc-2014-agile-openstacks-p230_1.pddl,SAT:88.2376:119.0:300.0:-1
ipc-2014-agile-openstacks-p230_2.pddl,SAT:84.3472:140.0:300.0:-1
ipc-2014-agile-openstacks-p250_1.pddl,SAT:101.032:144.0:300.0:-1
ipc-2014-agile-openstacks-p250_2.pddl,SAT:106.236:160.0:300.0:-1
ipc-2014-agile-openstacks-p270_1.pddl,SAT:127.424:154.0:300.0:-1
ipc-2014-agile-openstacks-p270_2.pddl,SAT:135.076:177.0:300.0:-1
ipc-2014-agile-openstacks-p290_1.pddl,SAT:160.407:171.0:300.0:-1
ipc-2014-agile-openstacks-p290_2.pddl,SAT:175.293:205.0:300.0:-1
ipc-2014-agile-parking-28_2.pddl,SAT:45.3101:100.0:300.0:-1
ipc-2014-agile-parking-28_3.pddl,SAT:44.2843:99.0:300.0:-1
ipc-2014-agile-parking-30_1.pddl,SAT:53.6168:83.0:300.0:-1
ipc-2014-agile-parking-30_2.pddl,SAT:158.539:151.0:300.0:-1
ipc-2014-agile-parking-30_3.pddl,SAT:139.884:155.0:300.0:-1
ipc-2014-agile-parking-32_1.pddl,SAT:87.3647:98.0:300.0:-1
ipc-2014-agile-parking-32_2.pddl,SAT:269.736:185.0:300.0:-1
ipc-2014-agile-parking-32_3.pddl,SAT:194.555:181.0:300.0:-1
ipc-2014-agile-parking-34_1.pddl,SAT:166.896:131.0:300.0:-1
ipc-2014-agile-parking-34_2.pddl,SAT:149.743:115.0:300.0:-1
ipc-2014-agile-parking-34_3.pddl,SAT:188.923:127.0:300.0:-1
ipc-2014-agile-parking-36_1.pddl,SAT:285.329:126.0:300.0:-1
ipc-2014-agile-parking-36_2.pddl,TIMEOUT:301.01:-1.0:300.0:-1
ipc-2014-agile-parking-36_3.pddl,SAT:170.686:123.0:300.0:-1
ipc-2014-agile-parking-38_1.pddl,SAT:163.175:111.0:300.0:-1
ipc-2014-agile-parking-38_2.pddl,TIMEOUT:301.01:-1.0:300.0:-1
ipc-2014-agile-parking-38_3.pddl,TIMEOUT:301.04:-1.0:300.0:-1
ipc-2014-agile-parking-40_1.pddl,TIMEOUT:301.03:-1.0:300.0:-1
ipc-2014-agile-parking-40_2.pddl,TIMEOUT:301.0:-1.0:300.0:-1
ipc-2014-agile-parking-40_3.pddl,TIMEOUT:301.02:-1.0:300.0:-1
ipc-2014-agile-tetris-020.pddl,SAT:9.64153:116.0:300.0:-1
ipc-2014-agile-tetris-021.pddl,SAT:48.5136:310.0:300.0:-1
ipc-2014-agile-tetris-022.pddl,SAT:100.738:241.0:300.0:-1
ipc-2014-agile-tetris-023.pddl,SAT:36.7454:185.0:300.0:-1
ipc-2014-agile-tetris-024.pddl,TIMEOUT:301.06:-1.0:300.0:-1
ipc-2014-agile-tetris-025.pddl,SAT:34.7077:154.0:300.0:-1
ipc-2014-agile-tetris-026.pddl,TIMEOUT:301.07:-1.0:300.0:-1
ipc-2014-agile-tetris-027.pddl,TIMEOUT:301.11:-1.0:300.0:-1
ipc-2014-agile-tetris-028.pddl,TIMEOUT:301.12:-1.0:300.0:-1
ipc-2014-agile-tetris-029.pddl,SAT:58.0642:260.0:300.0:-1
ipc-2014-agile-tetris-031.pddl,TIMEOUT:301.09:-1.0:300.0:-1
ipc-2014-agile-tetris-032.pddl,TIMEOUT:301.11:-1.0:300.0:-1
ipc-2014-agile-tetris-033.pddl,TIMEOUT:301.06:-1.0:300.0:-1
ipc-2014-agile-tetris-034.pddl,TIMEOUT:301.12:-1.0:300.0:-1
ipc-2014-agile-tetris-035.pddl,TIMEOUT:301.08:-1.0:300.0:-1
ipc-2014-agile-tetris-036.pddl,TIMEOUT:301.06:-1.0:300.0:-1
ipc-2014-agile-tetris-037.pddl,TIMEOUT:301.09:-1.0:300.0:-1
ipc-2014-agile-tetris-038.pddl,TIMEOUT:301.05:-1.0:300.0:-1
ipc-2014-agile-tetris-039.pddl,TIMEOUT:301.02:-1.0:300.0:-1
ipc-2014-agile-tetris-040.pddl,TIMEOUT:301.02:-1.0:300.0:-1
ipc-2014-agile-thoughtful-bootstrap-typed-01.pddl,CRASHED:0.206967:1000000000.0:300.0:-1
ipc-2014-agile-thoughtful-bootstrap-typed-02.pddl,CRASHED:0.19497:1000000000.0:300.0:-1
ipc-2014-agile-thoughtful-bootstrap-typed-03.pddl,CRASHED:0.194969:1000000000.0:300.0:-1
ipc-2014-agile-thoughtful-bootstrap-typed-04.pddl,CRASHED:0.207968:1000000000.0:300.0:-1
ipc-2014-agile-thoughtful-bootstrap-typed-05.pddl,CRASHED:0.19397:1000000000.0:300.0:-1
ipc-2014-agile-thoughtful-p11_6_53-typed.pddl,CRASHED:0.211967:1000000000.0:300.0:-1
ipc-2014-agile-thoughtful-p11_6_59-typed.pddl,CRASHED:0.211967:1000000000.0:300.0:-1
ipc-2014-agile-thoughtful-p11_6_62-typed.pddl,CRASHED:0.134978:1000000000.0:300.0:-1
ipc-2014-agile-thoughtful-p13_7_78-typed.pddl,CRASHED:0.177972:1000000000.0:300.0:-1
ipc-2014-agile-thoughtful-p13_7_79-typed.pddl,CRASHED:0.218966:1000000000.0:300.0:-1
ipc-2014-agile-thoughtful-p13_7_86-typed.pddl,CRASHED:0.231964:1000000000.0:300.0:-1
ipc-2014-agile-thoughtful-target-typed-20.pddl,CRASHED:0.218965:1000000000.0:300.0:-1
ipc-2014-agile-thoughtful-target-typed-21.pddl,CRASHED:0.217966:1000000000.0:300.0:-1
ipc-2014-agile-thoughtful-target-typed-22.pddl,CRASHED:0.217966:1000000000.0:300.0:-1
ipc-2014-agile-thoughtful-target-typed-23.pddl,CRASHED:0.217966:1000000000.0:300.0:-1
ipc-2014-agile-thoughtful-target-typed-24.pddl,CRASHED:0.215966:1000000000.0:300.0:-1
ipc-2014-agile-thoughtful-target-typed-25.pddl,CRASHED:0.217966:1000000000.0:300.0:-1
ipc-2014-agile-thoughtful-target-typed-26.pddl,CRASHED:0.217966:1000000000.0:300.0:-1
ipc-2014-agile-thoughtful-target-typed-27.pddl,CRASHED:0.217966:1000000000.0:300.0:-1
ipc-2014-agile-thoughtful-target-typed-28.pddl,CRASHED:0.216966:1000000000.0:300.0:-1
ipc-2014-agile-transport-01.pddl,SAT:26.8599:2104.0:300.0:-1
ipc-2014-agile-transport-02.pddl,SAT:94.4696:3913.0:300.0:-1
ipc-2014-agile-transport-03.pddl,SAT:36.1545:3076.0:300.0:-1
ipc-2014-agile-transport-04.pddl,TIMEOUT:301.02:-1.0:300.0:-1
ipc-2014-agile-transport-05.pddl,TIMEOUT:301.01:-1.0:300.0:-1
ipc-2014-agile-transport-06.pddl,TIMEOUT:301.08:-1.0:300.0:-1
ipc-2014-agile-transport-07.pddl,TIMEOUT:301.1:-1.0:300.0:-1
ipc-2014-agile-transport-08.pddl,TIMEOUT:301.07:-1.0:300.0:-1
ipc-2014-agile-transport-09.pddl,TIMEOUT:301.1:-1.0:300.0:-1
ipc-2014-agile-transport-10.pddl,TIMEOUT:301.04:-1.0:300.0:-1
ipc-2014-agile-transport-11.pddl,SAT:229.365:3189.0:300.0:-1
ipc-2014-agile-transport-12.pddl,SAT:89.4104:2371.0:300.0:-1
ipc-2014-agile-transport-13.pddl,SAT:45.1741:2647.0:300.0:-1
ipc-2014-agile-transport-14.pddl,TIMEOUT:301.08:-1.0:300.0:-1
ipc-2014-agile-transport-15.pddl,TIMEOUT:301.09:-1.0:300.0:-1
ipc-2014-agile-transport-16.pddl,TIMEOUT:301.11:-1.0:300.0:-1
ipc-2014-agile-transport-17.pddl,TIMEOUT:301.1:-1.0:300.0:-1
ipc-2014-agile-transport-18.pddl,TIMEOUT:301.08:-1.0:300.0:-1
ipc-2014-agile-transport-19.pddl,SAT:265.164:6860.0:300.0:-1
ipc-2014-agile-transport-20.pddl,TIMEOUT:301.09:-1.0:300.0:-1
ipc-2014-agile-visitall-30.pddl,SAT:14.3068:1193.0:300.0:-1
ipc-2014-agile-visitall-31.pddl,SAT:18.3162:1409.0:300.0:-1
ipc-2014-agile-visitall-32.pddl,SAT:15.9086:1436.0:300.0:-1
ipc-2014-agile-visitall-33.pddl,SAT:17.2794:1398.0:300.0:-1
ipc-2014-agile-visitall-50.pddl,SAT:165.932:3525.0:300.0:-1
ipc-2014-agile-visitall-51.pddl,SAT:170.385:3389.0:300.0:-1
ipc-2014-agile-visitall-52.pddl,SAT:180.326:3561.0:300.0:-1
ipc-2014-agile-visitall-53.pddl,SAT:204.454:3820.0:300.0:-1
ipc-2014-agile-visitall-54.pddl,SAT:195.636:3857.0:300.0:-1
ipc-2014-agile-visitall-55.pddl,SAT:195.192:4040.0:300.0:-1
ipc-2014-agile-visitall-56.pddl,SAT:231.546:4269.0:300.0:-1
ipc-2014-agile-visitall-57.pddl,SAT:235.244:4292.0:300.0:-1
ipc-2014-agile-visitall-58.pddl,SAT:221.235:4338.0:300.0:-1
ipc-2014-agile-visitall-59.pddl,TIMEOUT:301.09:-1.0:300.0:-1
ipc-2014-agile-visitall-60.pddl,SAT:278.111:4837.0:300.0:-1
ipc-2014-agile-visitall-61.pddl,TIMEOUT:301.03:-1.0:300.0:-1
ipc-2014-agile-visitall-62.pddl,TIMEOUT:301.08:-1.0:300.0:-1
ipc-2014-agile-visitall-63.pddl,TIMEOUT:301.06:-1.0:300.0:-1
ipc-2014-agile-visitall-64.pddl,TIMEOUT:301.03:-1.0:300.0:-1
ipc-2014-agile-visitall-65.pddl,TIMEOUT:301.03:-1.0:300.0:-1
