instance,ipc-2014-agile-madagascar-pc
ipc-2014-agile-barman-p1-11-4-15.pddl,TIMEOUT:301.161:-1.0:300.0:-1
ipc-2014-agile-barman-p1-11-5-15.pddl,TIMEOUT:301.169:-1.0:300.0:-1
ipc-2014-agile-barman-p1-11-5-16.pddl,TIMEOUT:301.237:-1.0:300.0:-1
ipc-2014-agile-barman-p2-10-4-13.pddl,TIMEOUT:301.196:-1.0:300.0:-1
ipc-2014-agile-barman-p2-11-4-15.pddl,TIMEOUT:301.183:-1.0:300.0:-1
ipc-2014-agile-barman-p2-11-5-15.pddl,TIMEOUT:301.215:-1.0:300.0:-1
ipc-2014-agile-barman-p2-11-5-16.pddl,TIMEOUT:301.231:-1.0:300.0:-1
ipc-2014-agile-barman-p2-11-5-17.pddl,TIMEOUT:301.269:-1.0:300.0:-1
ipc-2014-agile-barman-p3-10-4-13.pddl,TIMEOUT:301.191:-1.0:300.0:-1
ipc-2014-agile-barman-p3-11-4-15.pddl,TIMEOUT:301.219:-1.0:300.0:-1
ipc-2014-agile-barman-p3-11-5-15.pddl,TIMEOUT:301.244:-1.0:300.0:-1
ipc-2014-agile-barman-p3-11-5-16.pddl,TIMEOUT:301.27:-1.0:300.0:-1
ipc-2014-agile-barman-p3-11-5-17.pddl,TIMEOUT:301.312:-1.0:300.0:-1
ipc-2014-agile-barman-p4-11-4-14.pddl,TIMEOUT:301.223:-1.0:300.0:-1
ipc-2014-agile-barman-p4-11-4-15.pddl,TIMEOUT:301.231:-1.0:300.0:-1
ipc-2014-agile-barman-p4-11-5-15.pddl,SAT:139.334:441.0:300.0:-1
ipc-2014-agile-barman-p5-10-4-13.pddl,TIMEOUT:301.21:-1.0:300.0:-1
ipc-2014-agile-barman-p5-11-4-15.pddl,TIMEOUT:301.192:-1.0:300.0:-1
ipc-2014-agile-barman-p5-11-5-15.pddl,TIMEOUT:301.27:-1.0:300.0:-1
ipc-2014-agile-barman-p5-11-5-16.pddl,TIMEOUT:301.288:-1.0:300.0:-1
ipc-2014-agile-cavediving-01_easy.pddl,TIMEOUT:301.287:-1.0:300.0:-1
ipc-2014-agile-cavediving-01.pddl,TIMEOUT:301.309:-1.0:300.0:-1
ipc-2014-agile-cavediving-02_easy.pddl,TIMEOUT:301.232:-1.0:300.0:-1
ipc-2014-agile-cavediving-03_easy.pddl,TIMEOUT:301.215:-1.0:300.0:-1
ipc-2014-agile-cavediving-04_easy.pddl,TIMEOUT:301.267:-1.0:300.0:-1
ipc-2014-agile-cavediving-05A_easy.pddl,SAT:93.3718:94.0:300.0:-1
ipc-2014-agile-cavediving-06A_easy.pddl,SAT:93.4758:95.0:300.0:-1
ipc-2014-agile-cavediving-07_easy.pddl,TIMEOUT:301.108:-1.0:300.0:-1
ipc-2014-agile-cavediving-08_easy.pddl,SAT:93.5418:90.0:300.0:-1
ipc-2014-agile-cavediving-09_easy.pddl,TIMEOUT:301.358:-1.0:300.0:-1
ipc-2014-agile-cavediving-10_easy.pddl,TIMEOUT:301.338:-1.0:300.0:-1
ipc-2014-agile-cavediving-11_easy.pddl,TIMEOUT:301.402:-1.0:300.0:-1
ipc-2014-agile-cavediving-12_easy.pddl,TIMEOUT:301.386:-1.0:300.0:-1
ipc-2014-agile-cavediving-13_easy.pddl,TIMEOUT:301.261:-1.0:300.0:-1
ipc-2014-agile-cavediving-14_easy.pddl,TIMEOUT:301.324:-1.0:300.0:-1
ipc-2014-agile-cavediving-15_easy.pddl,TIMEOUT:301.291:-1.0:300.0:-1
ipc-2014-agile-cavediving-16_easy.pddl,TIMEOUT:301.291:-1.0:300.0:-1
ipc-2014-agile-cavediving-18A_easy.pddl,TIMEOUT:301.16:-1.0:300.0:-1
ipc-2014-agile-cavediving-18_easy.pddl,SAT:0.152976:132.0:300.0:-1
ipc-2014-agile-cavediving-20A_easy.pddl,TIMEOUT:301.182:-1.0:300.0:-1
ipc-2014-agile-childsnack-05-2.pddl,SAT:0.148976:36.0:300.0:-1
ipc-2014-agile-childsnack-05.pddl,SAT:0.156975:38.0:300.0:-1
ipc-2014-agile-childsnack-06-2.pddl,SAT:0.162974:38.0:300.0:-1
ipc-2014-agile-childsnack-07-2.pddl,SAT:0.172973:43.0:300.0:-1
ipc-2014-agile-childsnack-08-2.pddl,CRASHED:80.8377:1000000000.0:300.0:-1
ipc-2014-agile-childsnack-08.pddl,SAT:0.266959:47.0:300.0:-1
ipc-2014-agile-childsnack-09-2.pddl,SAT:0.347947:47.0:300.0:-1
ipc-2014-agile-childsnack-09.pddl,CRASHED:27.3538:1000000000.0:300.0:-1
ipc-2014-agile-childsnack-10-2.pddl,CRASHED:29.3275:1000000000.0:300.0:-1
ipc-2014-agile-childsnack-10.pddl,CRASHED:25.979:1000000000.0:300.0:-1
ipc-2014-agile-childsnack-11-2.pddl,CRASHED:166.799:1000000000.0:300.0:-1
ipc-2014-agile-childsnack-11.pddl,CRASHED:130.87:1000000000.0:300.0:-1
ipc-2014-agile-childsnack-12.pddl,CRASHED:33.3779:1000000000.0:300.0:-1
ipc-2014-agile-childsnack-13-2.pddl,CRASHED:99.0009:1000000000.0:300.0:-1
ipc-2014-agile-childsnack-13.pddl,CRASHED:107.559:1000000000.0:300.0:-1
ipc-2014-agile-childsnack-14.pddl,CRASHED:41.6527:1000000000.0:300.0:-1
ipc-2014-agile-childsnack-15-2.pddl,CRASHED:22.2096:1000000000.0:300.0:-1
ipc-2014-agile-childsnack-16-2.pddl,CRASHED:57.2063:1000000000.0:300.0:-1
ipc-2014-agile-childsnack-19-2.pddl,CRASHED:38.9891:1000000000.0:300.0:-1
ipc-2014-agile-childsnack-19.pddl,CRASHED:48.9526:1000000000.0:300.0:-1
ipc-2014-agile-citycar-p3-2-2-0-1.pddl,SAT:0.125979:291.0:300.0:-1
ipc-2014-agile-citycar-p3-3-2-0-1.pddl,SAT:0.779881:651.0:300.0:-1
ipc-2014-agile-citycar-p3-4-2-0-1.pddl,SAT:0.366943:722.0:300.0:-1
ipc-2014-agile-citycar-p3-5-2-0-1.pddl,SAT:58.4961:694.0:300.0:-1
ipc-2014-agile-citycar-p3-5-2-0-2.pddl,SAT:9.8405:1041.0:300.0:-1
ipc-2014-agile-citycar-p4-2-2-0-1.pddl,SAT:44.1043:336.0:300.0:-1
ipc-2014-agile-citycar-p4-2-3-0-1.pddl,SAT:56.5164:417.0:300.0:-1
ipc-2014-agile-citycar-p4-2-3-0-2.pddl,SAT:252.207:494.0:300.0:-1
ipc-2014-agile-citycar-p4-3-2-0-1.pddl,SAT:44.2543:1185.0:300.0:-1
ipc-2014-agile-citycar-p4-3-2-0-2.pddl,TIMEOUT:301.3:-1.0:300.0:-1
ipc-2014-agile-citycar-p4-3-3-0-1.pddl,TIMEOUT:301.289:-1.0:300.0:-1
ipc-2014-agile-citycar-p4-3-3-0-2.pddl,TIMEOUT:301.343:-1.0:300.0:-1
ipc-2014-agile-citycar-p4-4-2-0-1.pddl,TIMEOUT:301.373:-1.0:300.0:-1
ipc-2014-agile-citycar-p4-4-2-0-2.pddl,TIMEOUT:301.355:-1.0:300.0:-1
ipc-2014-agile-citycar-p4-4-3-0-1.pddl,TIMEOUT:301.332:-1.0:300.0:-1
ipc-2014-agile-citycar-p4-4-3-0-2.pddl,TIMEOUT:301.362:-1.0:300.0:-1
ipc-2014-agile-citycar-p4-5-2-0-1.pddl,TIMEOUT:301.352:-1.0:300.0:-1
ipc-2014-agile-citycar-p4-5-2-0-2.pddl,TIMEOUT:301.309:-1.0:300.0:-1
ipc-2014-agile-citycar-p4-5-3-0-1.pddl,TIMEOUT:301.328:-1.0:300.0:-1
ipc-2014-agile-citycar-p4-5-3-0-2.pddl,TIMEOUT:301.365:-1.0:300.0:-1
ipc-2014-agile-floortile-p01-4-3-2.pddl,SAT:0.014997:94.0:300.0:-1
ipc-2014-agile-floortile-p01-5-4-2.pddl,SAT:0.026995:173.0:300.0:-1
ipc-2014-agile-floortile-p01-5-5-2.pddl,SAT:0.040992:197.0:300.0:-1
ipc-2014-agile-floortile-p01-6-4-2.pddl,SAT:0.030994:190.0:300.0:-1
ipc-2014-agile-floortile-p01-6-5-2.pddl,SAT:0.05799:230.0:300.0:-1
ipc-2014-agile-floortile-p01-6-5-3.pddl,SAT:0.068988:223.0:300.0:-1
ipc-2014-agile-floortile-p02-5-4-2.pddl,SAT:0.032994:178.0:300.0:-1
ipc-2014-agile-floortile-p02-6-4-2.pddl,SAT:0.039992:207.0:300.0:-1
ipc-2014-agile-floortile-p02-6-5-2.pddl,SAT:0.069989:251.0:300.0:-1
ipc-2014-agile-floortile-p02-6-5-3.pddl,SAT:0.065989:235.0:300.0:-1
ipc-2014-agile-floortile-p03-6-4-2.pddl,SAT:0.039993:214.0:300.0:-1
ipc-2014-agile-floortile-p03-6-5-2.pddl,SAT:0.053991:248.0:300.0:-1
ipc-2014-agile-floortile-p03-6-5-3.pddl,SAT:0.064989:253.0:300.0:-1
ipc-2014-agile-floortile-p04-5-4-2.pddl,SAT:0.033993:175.0:300.0:-1
ipc-2014-agile-floortile-p04-5-5-2.pddl,SAT:0.044992:214.0:300.0:-1
ipc-2014-agile-floortile-p04-6-5-2.pddl,SAT:0.065989:261.0:300.0:-1
ipc-2014-agile-floortile-p04-6-5-3.pddl,SAT:0.065989:231.0:300.0:-1
ipc-2014-agile-floortile-p05-4-3-2.pddl,SAT:0.012997:96.0:300.0:-1
ipc-2014-agile-floortile-p05-6-5-2.pddl,SAT:0.051991:223.0:300.0:-1
ipc-2014-agile-floortile-p05-6-5-3.pddl,SAT:0.06299:243.0:300.0:-1
ipc-2014-agile-ged-d-10-1.pddl,SAT:13.5429:99.0:300.0:-1
ipc-2014-agile-ged-d-10-2.pddl,SAT:28.0847:212.0:300.0:-1
ipc-2014-agile-ged-d-10-3.pddl,SAT:32.3711:130.0:300.0:-1
ipc-2014-agile-ged-d-10-4.pddl,SAT:60.3798:193.0:300.0:-1
ipc-2014-agile-ged-d-10-5.pddl,TIMEOUT:301.39:-1.0:300.0:-1
ipc-2014-agile-ged-d-10-6.pddl,SAT:218.224:139.0:300.0:-1
ipc-2014-agile-ged-d-11-1.pddl,SAT:73.2329:110.0:300.0:-1
ipc-2014-agile-ged-d-11-3.pddl,SAT:48.8706:75.0:300.0:-1
ipc-2014-agile-ged-d-11-5.pddl,SAT:65.1361:116.0:300.0:-1
ipc-2014-agile-ged-d-11-6.pddl,TIMEOUT:301.324:-1.0:300.0:-1
ipc-2014-agile-ged-d-12-11.pddl,SAT:87.4397:190.0:300.0:-1
ipc-2014-agile-ged-d-12-2.pddl,TIMEOUT:301.273:-1.0:300.0:-1
ipc-2014-agile-ged-d-12-3.pddl,TIMEOUT:301.359:-1.0:300.0:-1
ipc-2014-agile-ged-d-12-5.pddl,TIMEOUT:301.314:-1.0:300.0:-1
ipc-2014-agile-ged-d-12-6.pddl,TIMEOUT:301.274:-1.0:300.0:-1
ipc-2014-agile-ged-d-12-7.pddl,TIMEOUT:301.377:-1.0:300.0:-1
ipc-2014-agile-ged-d-12-8.pddl,TIMEOUT:301.36:-1.0:300.0:-1
ipc-2014-agile-ged-d-12-9.pddl,TIMEOUT:301.399:-1.0:300.0:-1
ipc-2014-agile-ged-d-3-6.pddl,SAT:48.3806:102.0:300.0:-1
ipc-2014-agile-ged-d-9-5.pddl,SAT:171.619:167.0:300.0:-1
ipc-2014-agile-hiking-3-4-3.pddl,SAT:0.301953:18.0:300.0:-1
ipc-2014-agile-hiking-3-4-4.pddl,CRASHED:28.4277:1000000000.0:300.0:-1
ipc-2014-agile-hiking-3-4-5.pddl,CRASHED:23.6954:1000000000.0:300.0:-1
ipc-2014-agile-hiking-3-4-6.pddl,TIMEOUT:301.287:-1.0:300.0:-1
ipc-2014-agile-hiking-3-4-7.pddl,TIMEOUT:301.314:-1.0:300.0:-1
ipc-2014-agile-hiking-3-4-8.pddl,CRASHED:26.8889:1000000000.0:300.0:-1
ipc-2014-agile-hiking-3-4-9.pddl,CRASHED:28.5987:1000000000.0:300.0:-1
ipc-2014-agile-hiking-4-5-3.pddl,SAT:1.15682:29.0:300.0:-1
ipc-2014-agile-hiking-4-5-4.pddl,SAT:3.41748:47.0:300.0:-1
ipc-2014-agile-hiking-4-5-5.pddl,CRASHED:29.8125:1000000000.0:300.0:-1
ipc-2014-agile-hiking-4-5-6.pddl,TIMEOUT:301.319:-1.0:300.0:-1
ipc-2014-agile-hiking-4-5-7.pddl,TIMEOUT:301.328:-1.0:300.0:-1
ipc-2014-agile-hiking-4-5-8.pddl,TIMEOUT:301.406:-1.0:300.0:-1
ipc-2014-agile-hiking-4-5-9.pddl,CRASHED:59.9519:1000000000.0:300.0:-1
ipc-2014-agile-hiking-5-6-3.pddl,SAT:3.35549:36.0:300.0:-1
ipc-2014-agile-hiking-5-6-4.pddl,CRASHED:29.0006:1000000000.0:300.0:-1
ipc-2014-agile-hiking-5-6-5.pddl,CRASHED:36.6074:1000000000.0:300.0:-1
ipc-2014-agile-hiking-5-6-6.pddl,CRASHED:53.5999:1000000000.0:300.0:-1
ipc-2014-agile-hiking-5-6-7.pddl,CRASHED:80.8487:1000000000.0:300.0:-1
ipc-2014-agile-hiking-5-6-8.pddl,CRASHED:118.181:1000000000.0:300.0:-1
ipc-2014-agile-maintenance-1.3.060.180.5-000.pddl,SAT:0.134979:54.0:300.0:-1
ipc-2014-agile-maintenance-1.3.060.180.5-001.pddl,TIMEOUT:301.08:-1.0:300.0:-1
ipc-2014-agile-maintenance-1.3.060.180.5-002.pddl,SAT:56.9043:55.0:300.0:-1
ipc-2014-agile-maintenance-1.3.100.300.5-000.pddl,TIMEOUT:301.114:-1.0:300.0:-1
ipc-2014-agile-maintenance-1.3.100.300.5-001.pddl,TIMEOUT:301.125:-1.0:300.0:-1
ipc-2014-agile-maintenance-1.3.100.300.7-000.pddl,SAT:0.328949:83.0:300.0:-1
ipc-2014-agile-maintenance-1.3.100.300.7-001.pddl,SAT:0.288955:80.0:300.0:-1
ipc-2014-agile-maintenance-1.3.100.300.7-002.pddl,SAT:0.281956:77.0:300.0:-1
ipc-2014-agile-maintenance-1.3.150.500.6-001.pddl,SAT:0.944856:133.0:300.0:-1
ipc-2014-agile-maintenance-1.3.200.500.5-001.pddl,SAT:1.3328:180.0:300.0:-1
ipc-2014-agile-maintenance-1.3.200.500.5-002.pddl,TIMEOUT:301.151:-1.0:300.0:-1
ipc-2014-agile-maintenance-1.3.200.700.7-000.pddl,SAT:2.46462:176.0:300.0:-1
ipc-2014-agile-maintenance-1.3.200.700.7-001.pddl,SAT:2.43563:171.0:300.0:-1
ipc-2014-agile-maintenance-1.3.200.700.7-002.pddl,SAT:2.35364:170.0:300.0:-1
ipc-2014-agile-maintenance-1.3.200.900.5-000.pddl,TIMEOUT:301.146:-1.0:300.0:-1
ipc-2014-agile-maintenance-1.3.200.900.5-001.pddl,TIMEOUT:301.086:-1.0:300.0:-1
ipc-2014-agile-maintenance-1.3.200.900.5-002.pddl,TIMEOUT:301.142:-1.0:300.0:-1
ipc-2014-agile-maintenance-1.3.200.900.8-000.pddl,SAT:3.74343:186.0:300.0:-1
ipc-2014-agile-maintenance-1.3.200.900.8-001.pddl,SAT:3.63345:172.0:300.0:-1
ipc-2014-agile-maintenance-1.3.200.900.8-002.pddl,SAT:4.67629:179.0:300.0:-1
ipc-2014-agile-openstacks-p130_2.pddl,TIMEOUT:301.419:-1.0:300.0:-1
ipc-2014-agile-openstacks-p130_3.pddl,TIMEOUT:301.428:-1.0:300.0:-1
ipc-2014-agile-openstacks-p150_2.pddl,TIMEOUT:301.383:-1.0:300.0:-1
ipc-2014-agile-openstacks-p150_3.pddl,TIMEOUT:301.373:-1.0:300.0:-1
ipc-2014-agile-openstacks-p170_1.pddl,CRASHED:64.6272:1000000000.0:300.0:-1
ipc-2014-agile-openstacks-p170_2.pddl,CRASHED:68.6536:1000000000.0:300.0:-1
ipc-2014-agile-openstacks-p170_3.pddl,TIMEOUT:301.404:-1.0:300.0:-1
ipc-2014-agile-openstacks-p190_1.pddl,CRASHED:139.446:1000000000.0:300.0:-1
ipc-2014-agile-openstacks-p190_2.pddl,CRASHED:129.976:1000000000.0:300.0:-1
ipc-2014-agile-openstacks-p190_3.pddl,CRASHED:149.926:1000000000.0:300.0:-1
ipc-2014-agile-openstacks-p210_1.pddl,TIMEOUT:301.478:-1.0:300.0:-1
ipc-2014-agile-openstacks-p210_2.pddl,TIMEOUT:301.478:-1.0:300.0:-1
ipc-2014-agile-openstacks-p230_1.pddl,CRASHED:173.033:1000000000.0:300.0:-1
ipc-2014-agile-openstacks-p230_2.pddl,CRASHED:191.872:1000000000.0:300.0:-1
ipc-2014-agile-openstacks-p250_1.pddl,CRASHED:231.591:1000000000.0:300.0:-1
ipc-2014-agile-openstacks-p250_2.pddl,CRASHED:250.111:1000000000.0:300.0:-1
ipc-2014-agile-openstacks-p270_1.pddl,TIMEOUT:301.288:-1.0:300.0:-1
ipc-2014-agile-openstacks-p270_2.pddl,TIMEOUT:301.278:-1.0:300.0:-1
ipc-2014-agile-openstacks-p290_1.pddl,TIMEOUT:301.285:-1.0:300.0:-1
ipc-2014-agile-openstacks-p290_2.pddl,TIMEOUT:301.125:-1.0:300.0:-1
ipc-2014-agile-parking-28_2.pddl,SAT:103.219:127.0:300.0:-1
ipc-2014-agile-parking-28_3.pddl,SAT:92.03:86.0:300.0:-1
ipc-2014-agile-parking-30_1.pddl,SAT:149.883:135.0:300.0:-1
ipc-2014-agile-parking-30_2.pddl,TIMEOUT:301.354:-1.0:300.0:-1
ipc-2014-agile-parking-30_3.pddl,SAT:186.042:163.0:300.0:-1
ipc-2014-agile-parking-32_1.pddl,SAT:235.521:161.0:300.0:-1
ipc-2014-agile-parking-32_2.pddl,SAT:240.703:138.0:300.0:-1
ipc-2014-agile-parking-32_3.pddl,SAT:226.841:178.0:300.0:-1
ipc-2014-agile-parking-34_1.pddl,TIMEOUT:301.399:-1.0:300.0:-1
ipc-2014-agile-parking-34_2.pddl,SAT:268.787:131.0:300.0:-1
ipc-2014-agile-parking-34_3.pddl,TIMEOUT:301.34:-1.0:300.0:-1
ipc-2014-agile-parking-36_1.pddl,TIMEOUT:301.151:-1.0:300.0:-1
ipc-2014-agile-parking-36_2.pddl,TIMEOUT:301.166:-1.0:300.0:-1
ipc-2014-agile-parking-36_3.pddl,TIMEOUT:301.147:-1.0:300.0:-1
ipc-2014-agile-parking-38_1.pddl,TIMEOUT:301.133:-1.0:300.0:-1
ipc-2014-agile-parking-38_2.pddl,TIMEOUT:301.114:-1.0:300.0:-1
ipc-2014-agile-parking-38_3.pddl,TIMEOUT:301.156:-1.0:300.0:-1
ipc-2014-agile-parking-40_1.pddl,TIMEOUT:301.206:-1.0:300.0:-1
ipc-2014-agile-parking-40_2.pddl,TIMEOUT:301.153:-1.0:300.0:-1
ipc-2014-agile-parking-40_3.pddl,TIMEOUT:301.196:-1.0:300.0:-1
ipc-2014-agile-tetris-020.pddl,SAT:41.0598:56.0:300.0:-1
ipc-2014-agile-tetris-021.pddl,SAT:173.524:145.0:300.0:-1
ipc-2014-agile-tetris-022.pddl,SAT:158.736:102.0:300.0:-1
ipc-2014-agile-tetris-023.pddl,SAT:126.124:105.0:300.0:-1
ipc-2014-agile-tetris-024.pddl,SAT:167.661:161.0:300.0:-1
ipc-2014-agile-tetris-025.pddl,CRASHED:191.15:1000000000.0:300.0:-1
ipc-2014-agile-tetris-026.pddl,CRASHED:257.528:1000000000.0:300.0:-1
ipc-2014-agile-tetris-027.pddl,CRASHED:253.773:1000000000.0:300.0:-1
ipc-2014-agile-tetris-028.pddl,CRASHED:222.811:1000000000.0:300.0:-1
ipc-2014-agile-tetris-029.pddl,CRASHED:198.14:1000000000.0:300.0:-1
ipc-2014-agile-tetris-031.pddl,CRASHED:281.968:1000000000.0:300.0:-1
ipc-2014-agile-tetris-032.pddl,CRASHED:260.806:1000000000.0:300.0:-1
ipc-2014-agile-tetris-033.pddl,TIMEOUT:301.492:-1.0:300.0:-1
ipc-2014-agile-tetris-034.pddl,TIMEOUT:301.401:-1.0:300.0:-1
ipc-2014-agile-tetris-035.pddl,CRASHED:263.112:1000000000.0:300.0:-1
ipc-2014-agile-tetris-036.pddl,CRASHED:232.931:1000000000.0:300.0:-1
ipc-2014-agile-tetris-037.pddl,SAT:174.864:147.0:300.0:-1
ipc-2014-agile-tetris-038.pddl,TIMEOUT:301.407:-1.0:300.0:-1
ipc-2014-agile-tetris-039.pddl,CRASHED:273.941:1000000000.0:300.0:-1
ipc-2014-agile-tetris-040.pddl,TIMEOUT:301.369:-1.0:300.0:-1
ipc-2014-agile-thoughtful-bootstrap-typed-01.pddl,SAT:1.90071:42.0:300.0:-1
ipc-2014-agile-thoughtful-bootstrap-typed-02.pddl,SAT:1.75773:31.0:300.0:-1
ipc-2014-agile-thoughtful-bootstrap-typed-03.pddl,SAT:1.9537:49.0:300.0:-1
ipc-2014-agile-thoughtful-bootstrap-typed-04.pddl,SAT:2.03069:46.0:300.0:-1
ipc-2014-agile-thoughtful-bootstrap-typed-05.pddl,SAT:1.82472:68.0:300.0:-1
ipc-2014-agile-thoughtful-p11_6_53-typed.pddl,TIMEOUT:301.312:-1.0:300.0:-1
ipc-2014-agile-thoughtful-p11_6_59-typed.pddl,CRASHED:100.578:1000000000.0:300.0:-1
ipc-2014-agile-thoughtful-p11_6_62-typed.pddl,TIMEOUT:301.321:-1.0:300.0:-1
ipc-2014-agile-thoughtful-p13_7_78-typed.pddl,CRASHED:179.499:1000000000.0:300.0:-1
ipc-2014-agile-thoughtful-p13_7_79-typed.pddl,CRASHED:172.652:1000000000.0:300.0:-1
ipc-2014-agile-thoughtful-p13_7_86-typed.pddl,CRASHED:174.141:1000000000.0:300.0:-1
ipc-2014-agile-thoughtful-target-typed-20.pddl,CRASHED:176.729:1000000000.0:300.0:-1
ipc-2014-agile-thoughtful-target-typed-21.pddl,CRASHED:173.728:1000000000.0:300.0:-1
ipc-2014-agile-thoughtful-target-typed-22.pddl,CRASHED:294.798:1000000000.0:300.0:-1
ipc-2014-agile-thoughtful-target-typed-23.pddl,CRASHED:178.999:1000000000.0:300.0:-1
ipc-2014-agile-thoughtful-target-typed-24.pddl,TIMEOUT:301.303:-1.0:300.0:-1
ipc-2014-agile-thoughtful-target-typed-25.pddl,CRASHED:178.489:1000000000.0:300.0:-1
ipc-2014-agile-thoughtful-target-typed-26.pddl,TIMEOUT:301.321:-1.0:300.0:-1
ipc-2014-agile-thoughtful-target-typed-27.pddl,CRASHED:275.418:1000000000.0:300.0:-1
ipc-2014-agile-thoughtful-target-typed-28.pddl,CRASHED:190.876:1000000000.0:300.0:-1
ipc-2014-agile-transport-01.pddl,CRASHED:75.6015:1000000000.0:300.0:-1
ipc-2014-agile-transport-02.pddl,TIMEOUT:301.313:-1.0:300.0:-1
ipc-2014-agile-transport-03.pddl,TIMEOUT:301.27:-1.0:300.0:-1
ipc-2014-agile-transport-04.pddl,TIMEOUT:301.444:-1.0:300.0:-1
ipc-2014-agile-transport-05.pddl,CRASHED:107.966:1000000000.0:300.0:-1
ipc-2014-agile-transport-06.pddl,TIMEOUT:301.375:-1.0:300.0:-1
ipc-2014-agile-transport-07.pddl,CRASHED:253.456:1000000000.0:300.0:-1
ipc-2014-agile-transport-08.pddl,TIMEOUT:301.428:-1.0:300.0:-1
ipc-2014-agile-transport-09.pddl,CRASHED:253.483:1000000000.0:300.0:-1
ipc-2014-agile-transport-10.pddl,CRASHED:181.559:1000000000.0:300.0:-1
ipc-2014-agile-transport-11.pddl,TIMEOUT:301.284:-1.0:300.0:-1
ipc-2014-agile-transport-12.pddl,TIMEOUT:301.327:-1.0:300.0:-1
ipc-2014-agile-transport-13.pddl,CRASHED:191.297:1000000000.0:300.0:-1
ipc-2014-agile-transport-14.pddl,CRASHED:76.0484:1000000000.0:300.0:-1
ipc-2014-agile-transport-15.pddl,CRASHED:91.2981:1000000000.0:300.0:-1
ipc-2014-agile-transport-16.pddl,CRASHED:61.4917:1000000000.0:300.0:-1
ipc-2014-agile-transport-17.pddl,CRASHED:203.612:1000000000.0:300.0:-1
ipc-2014-agile-transport-18.pddl,TIMEOUT:301.356:-1.0:300.0:-1
ipc-2014-agile-transport-19.pddl,TIMEOUT:301.275:-1.0:300.0:-1
ipc-2014-agile-transport-20.pddl,CRASHED:247.326:1000000000.0:300.0:-1
ipc-2014-agile-visitall-30.pddl,TIMEOUT:301.211:-1.0:300.0:-1
ipc-2014-agile-visitall-31.pddl,TIMEOUT:301.166:-1.0:300.0:-1
ipc-2014-agile-visitall-32.pddl,TIMEOUT:301.138:-1.0:300.0:-1
ipc-2014-agile-visitall-33.pddl,TIMEOUT:301.238:-1.0:300.0:-1
ipc-2014-agile-visitall-50.pddl,TIMEOUT:301.106:-1.0:300.0:-1
ipc-2014-agile-visitall-51.pddl,TIMEOUT:301.106:-1.0:300.0:-1
ipc-2014-agile-visitall-52.pddl,TIMEOUT:301.085:-1.0:300.0:-1
ipc-2014-agile-visitall-53.pddl,TIMEOUT:301.032:-1.0:300.0:-1
ipc-2014-agile-visitall-54.pddl,TIMEOUT:301.015:-1.0:300.0:-1
ipc-2014-agile-visitall-55.pddl,TIMEOUT:301.064:-1.0:300.0:-1
ipc-2014-agile-visitall-56.pddl,TIMEOUT:301.04:-1.0:300.0:-1
ipc-2014-agile-visitall-57.pddl,TIMEOUT:301.046:-1.0:300.0:-1
ipc-2014-agile-visitall-58.pddl,TIMEOUT:301.038:-1.0:300.0:-1
ipc-2014-agile-visitall-59.pddl,TIMEOUT:301.033:-1.0:300.0:-1
ipc-2014-agile-visitall-60.pddl,TIMEOUT:301.088:-1.0:300.0:-1
ipc-2014-agile-visitall-61.pddl,TIMEOUT:301.063:-1.0:300.0:-1
ipc-2014-agile-visitall-62.pddl,TIMEOUT:301.087:-1.0:300.0:-1
ipc-2014-agile-visitall-63.pddl,TIMEOUT:301.083:-1.0:300.0:-1
ipc-2014-agile-visitall-64.pddl,TIMEOUT:301.093:-1.0:300.0:-1
ipc-2014-agile-visitall-65.pddl,TIMEOUT:301.057:-1.0:300.0:-1
