instance,ipc-2014-agile-yahsp3
ipc-2014-agile-barman-p1-11-4-15.pddl,TIMEOUT:301.044:-1.0:300.0:-1
ipc-2014-agile-barman-p1-11-5-15.pddl,TIMEOUT:301.104:-1.0:300.0:-1
ipc-2014-agile-barman-p1-11-5-16.pddl,TIMEOUT:301.058:-1.0:300.0:-1
ipc-2014-agile-barman-p2-10-4-13.pddl,TIMEOUT:301.061:-1.0:300.0:-1
ipc-2014-agile-barman-p2-11-4-15.pddl,TIMEOUT:301.124:-1.0:300.0:-1
ipc-2014-agile-barman-p2-11-5-15.pddl,TIMEOUT:301.034:-1.0:300.0:-1
ipc-2014-agile-barman-p2-11-5-16.pddl,TIMEOUT:301.089:-1.0:300.0:-1
ipc-2014-agile-barman-p2-11-5-17.pddl,TIMEOUT:301.047:-1.0:300.0:-1
ipc-2014-agile-barman-p3-10-4-13.pddl,TIMEOUT:301.079:-1.0:300.0:-1
ipc-2014-agile-barman-p3-11-4-15.pddl,TIMEOUT:301.131:-1.0:300.0:-1
ipc-2014-agile-barman-p3-11-5-15.pddl,SAT:64.205:377.0:300.0:-1
ipc-2014-agile-barman-p3-11-5-16.pddl,TIMEOUT:301.079:-1.0:300.0:-1
ipc-2014-agile-barman-p3-11-5-17.pddl,TIMEOUT:301.03:-1.0:300.0:-1
ipc-2014-agile-barman-p4-11-4-14.pddl,TIMEOUT:301.035:-1.0:300.0:-1
ipc-2014-agile-barman-p4-11-4-15.pddl,TIMEOUT:301.11:-1.0:300.0:-1
ipc-2014-agile-barman-p4-11-5-15.pddl,TIMEOUT:301.081:-1.0:300.0:-1
ipc-2014-agile-barman-p5-10-4-13.pddl,TIMEOUT:301.09:-1.0:300.0:-1
ipc-2014-agile-barman-p5-11-4-15.pddl,TIMEOUT:301.105:-1.0:300.0:-1
ipc-2014-agile-barman-p5-11-5-15.pddl,TIMEOUT:301.037:-1.0:300.0:-1
ipc-2014-agile-barman-p5-11-5-16.pddl,TIMEOUT:301.033:-1.0:300.0:-1
ipc-2014-agile-cavediving-01_easy.pddl,CRASHED:0.002948:1000000000.0:300.0:-1
ipc-2014-agile-cavediving-01.pddl,CRASHED:0.002869:1000000000.0:300.0:-1
ipc-2014-agile-cavediving-02_easy.pddl,CRASHED:0.002613:1000000000.0:300.0:-1
ipc-2014-agile-cavediving-03_easy.pddl,CRASHED:0.002595:1000000000.0:300.0:-1
ipc-2014-agile-cavediving-04_easy.pddl,CRASHED:0.00262:1000000000.0:300.0:-1
ipc-2014-agile-cavediving-05A_easy.pddl,CRASHED:0.002628:1000000000.0:300.0:-1
ipc-2014-agile-cavediving-06A_easy.pddl,CRASHED:0.002626:1000000000.0:300.0:-1
ipc-2014-agile-cavediving-07_easy.pddl,CRASHED:0.002612:1000000000.0:300.0:-1
ipc-2014-agile-cavediving-08_easy.pddl,CRASHED:0.002935:1000000000.0:300.0:-1
ipc-2014-agile-cavediving-09_easy.pddl,CRASHED:0.00294:1000000000.0:300.0:-1
ipc-2014-agile-cavediving-10_easy.pddl,CRASHED:0.002936:1000000000.0:300.0:-1
ipc-2014-agile-cavediving-11_easy.pddl,CRASHED:0.002902:1000000000.0:300.0:-1
ipc-2014-agile-cavediving-12_easy.pddl,CRASHED:0.002911:1000000000.0:300.0:-1
ipc-2014-agile-cavediving-13_easy.pddl,CRASHED:0.00262:1000000000.0:300.0:-1
ipc-2014-agile-cavediving-14_easy.pddl,CRASHED:0.002638:1000000000.0:300.0:-1
ipc-2014-agile-cavediving-15_easy.pddl,CRASHED:0.003018:1000000000.0:300.0:-1
ipc-2014-agile-cavediving-16_easy.pddl,CRASHED:0.002634:1000000000.0:300.0:-1
ipc-2014-agile-cavediving-18A_easy.pddl,CRASHED:0.002828:1000000000.0:300.0:-1
ipc-2014-agile-cavediving-18_easy.pddl,CRASHED:0.002905:1000000000.0:300.0:-1
ipc-2014-agile-cavediving-20A_easy.pddl,CRASHED:0.003034:1000000000.0:300.0:-1
ipc-2014-agile-childsnack-05-2.pddl,TIMEOUT:301.215:-1.0:300.0:-1
ipc-2014-agile-childsnack-05.pddl,TIMEOUT:301.166:-1.0:300.0:-1
ipc-2014-agile-childsnack-06-2.pddl,TIMEOUT:301.12:-1.0:300.0:-1
ipc-2014-agile-childsnack-07-2.pddl,TIMEOUT:301.275:-1.0:300.0:-1
ipc-2014-agile-childsnack-08-2.pddl,TIMEOUT:301.227:-1.0:300.0:-1
ipc-2014-agile-childsnack-08.pddl,TIMEOUT:301.27:-1.0:300.0:-1
ipc-2014-agile-childsnack-09-2.pddl,TIMEOUT:301.527:-1.0:300.0:-1
ipc-2014-agile-childsnack-09.pddl,TIMEOUT:301.463:-1.0:300.0:-1
ipc-2014-agile-childsnack-10-2.pddl,TIMEOUT:301.154:-1.0:300.0:-1
ipc-2014-agile-childsnack-10.pddl,TIMEOUT:301.43:-1.0:300.0:-1
ipc-2014-agile-childsnack-11-2.pddl,TIMEOUT:301.229:-1.0:300.0:-1
ipc-2014-agile-childsnack-11.pddl,TIMEOUT:301.461:-1.0:300.0:-1
ipc-2014-agile-childsnack-12.pddl,TIMEOUT:301.241:-1.0:300.0:-1
ipc-2014-agile-childsnack-13-2.pddl,TIMEOUT:301.483:-1.0:300.0:-1
ipc-2014-agile-childsnack-13.pddl,TIMEOUT:301.388:-1.0:300.0:-1
ipc-2014-agile-childsnack-14.pddl,TIMEOUT:301.433:-1.0:300.0:-1
ipc-2014-agile-childsnack-15-2.pddl,TIMEOUT:301.124:-1.0:300.0:-1
ipc-2014-agile-childsnack-16-2.pddl,TIMEOUT:301.209:-1.0:300.0:-1
ipc-2014-agile-childsnack-19-2.pddl,TIMEOUT:301.224:-1.0:300.0:-1
ipc-2014-agile-childsnack-19.pddl,TIMEOUT:301.169:-1.0:300.0:-1
ipc-2014-agile-citycar-p3-2-2-0-1.pddl,CRASHED:0.002817:1000000000.0:300.0:-1
ipc-2014-agile-citycar-p3-3-2-0-1.pddl,CRASHED:0.003043:1000000000.0:300.0:-1
ipc-2014-agile-citycar-p3-4-2-0-1.pddl,CRASHED:0.003016:1000000000.0:300.0:-1
ipc-2014-agile-citycar-p3-5-2-0-1.pddl,CRASHED:0.003066:1000000000.0:300.0:-1
ipc-2014-agile-citycar-p3-5-2-0-2.pddl,CRASHED:0.00303:1000000000.0:300.0:-1
ipc-2014-agile-citycar-p4-2-2-0-1.pddl,CRASHED:0.003034:1000000000.0:300.0:-1
ipc-2014-agile-citycar-p4-2-3-0-1.pddl,CRASHED:0.002905:1000000000.0:300.0:-1
ipc-2014-agile-citycar-p4-2-3-0-2.pddl,CRASHED:0.003036:1000000000.0:300.0:-1
ipc-2014-agile-citycar-p4-3-2-0-1.pddl,CRASHED:0.003256:1000000000.0:300.0:-1
ipc-2014-agile-citycar-p4-3-2-0-2.pddl,CRASHED:0.003116:1000000000.0:300.0:-1
ipc-2014-agile-citycar-p4-3-3-0-1.pddl,CRASHED:0.003806:1000000000.0:300.0:-1
ipc-2014-agile-citycar-p4-3-3-0-2.pddl,CRASHED:0.003088:1000000000.0:300.0:-1
ipc-2014-agile-citycar-p4-4-2-0-1.pddl,CRASHED:0.00311:1000000000.0:300.0:-1
ipc-2014-agile-citycar-p4-4-2-0-2.pddl,CRASHED:0.003145:1000000000.0:300.0:-1
ipc-2014-agile-citycar-p4-4-3-0-1.pddl,CRASHED:0.003162:1000000000.0:300.0:-1
ipc-2014-agile-citycar-p4-4-3-0-2.pddl,CRASHED:0.003116:1000000000.0:300.0:-1
ipc-2014-agile-citycar-p4-5-2-0-1.pddl,CRASHED:0.003033:1000000000.0:300.0:-1
ipc-2014-agile-citycar-p4-5-2-0-2.pddl,CRASHED:0.002219:1000000000.0:300.0:-1
ipc-2014-agile-citycar-p4-5-3-0-1.pddl,CRASHED:0.00249:1000000000.0:300.0:-1
ipc-2014-agile-citycar-p4-5-3-0-2.pddl,CRASHED:0.0022:1000000000.0:300.0:-1
ipc-2014-agile-floortile-p01-4-3-2.pddl,SAT:19.6412:107.0:300.0:-1
ipc-2014-agile-floortile-p01-5-4-2.pddl,TIMEOUT:301.231:-1.0:300.0:-1
ipc-2014-agile-floortile-p01-5-5-2.pddl,TIMEOUT:301.236:-1.0:300.0:-1
ipc-2014-agile-floortile-p01-6-4-2.pddl,TIMEOUT:301.201:-1.0:300.0:-1
ipc-2014-agile-floortile-p01-6-5-2.pddl,TIMEOUT:301.225:-1.0:300.0:-1
ipc-2014-agile-floortile-p01-6-5-3.pddl,TIMEOUT:301.149:-1.0:300.0:-1
ipc-2014-agile-floortile-p02-5-4-2.pddl,TIMEOUT:301.163:-1.0:300.0:-1
ipc-2014-agile-floortile-p02-6-4-2.pddl,TIMEOUT:301.174:-1.0:300.0:-1
ipc-2014-agile-floortile-p02-6-5-2.pddl,TIMEOUT:301.173:-1.0:300.0:-1
ipc-2014-agile-floortile-p02-6-5-3.pddl,TIMEOUT:301.188:-1.0:300.0:-1
ipc-2014-agile-floortile-p03-6-4-2.pddl,TIMEOUT:301.221:-1.0:300.0:-1
ipc-2014-agile-floortile-p03-6-5-2.pddl,TIMEOUT:301.131:-1.0:300.0:-1
ipc-2014-agile-floortile-p03-6-5-3.pddl,TIMEOUT:301.206:-1.0:300.0:-1
ipc-2014-agile-floortile-p04-5-4-2.pddl,TIMEOUT:301.199:-1.0:300.0:-1
ipc-2014-agile-floortile-p04-5-5-2.pddl,TIMEOUT:301.205:-1.0:300.0:-1
ipc-2014-agile-floortile-p04-6-5-2.pddl,TIMEOUT:301.151:-1.0:300.0:-1
ipc-2014-agile-floortile-p04-6-5-3.pddl,TIMEOUT:301.141:-1.0:300.0:-1
ipc-2014-agile-floortile-p05-4-3-2.pddl,SAT:12.2876:101.0:300.0:-1
ipc-2014-agile-floortile-p05-6-5-2.pddl,TIMEOUT:301.108:-1.0:300.0:-1
ipc-2014-agile-floortile-p05-6-5-3.pddl,TIMEOUT:301.148:-1.0:300.0:-1
ipc-2014-agile-ged-d-10-1.pddl,SAT:0.932862:35.0:300.0:-1
ipc-2014-agile-ged-d-10-2.pddl,SAT:0.845405:49.0:300.0:-1
ipc-2014-agile-ged-d-10-3.pddl,SAT:0.691372:58.0:300.0:-1
ipc-2014-agile-ged-d-10-4.pddl,SAT:0.472252:49.0:300.0:-1
ipc-2014-agile-ged-d-10-5.pddl,SAT:0.447514:38.0:300.0:-1
ipc-2014-agile-ged-d-10-6.pddl,SAT:3.00811:113.0:300.0:-1
ipc-2014-agile-ged-d-11-1.pddl,SAT:0.233638:112.0:300.0:-1
ipc-2014-agile-ged-d-11-3.pddl,SAT:0.883703:73.0:300.0:-1
ipc-2014-agile-ged-d-11-5.pddl,SAT:2.89976:78.0:300.0:-1
ipc-2014-agile-ged-d-11-6.pddl,SAT:1.24168:97.0:300.0:-1
ipc-2014-agile-ged-d-12-11.pddl,SAT:2.36971:55.0:300.0:-1
ipc-2014-agile-ged-d-12-2.pddl,SAT:0.511426:148.0:300.0:-1
ipc-2014-agile-ged-d-12-3.pddl,SAT:18.001:57.0:300.0:-1
ipc-2014-agile-ged-d-12-5.pddl,SAT:30.5286:233.0:300.0:-1
ipc-2014-agile-ged-d-12-6.pddl,SAT:4.63982:139.0:300.0:-1
ipc-2014-agile-ged-d-12-7.pddl,SAT:16.1187:74.0:300.0:-1
ipc-2014-agile-ged-d-12-8.pddl,SAT:40.1016:199.0:300.0:-1
ipc-2014-agile-ged-d-12-9.pddl,SAT:32.8134:95.0:300.0:-1
ipc-2014-agile-ged-d-3-6.pddl,SAT:0.495144:39.0:300.0:-1
ipc-2014-agile-ged-d-9-5.pddl,SAT:1.72681:163.0:300.0:-1
ipc-2014-agile-hiking-3-4-3.pddl,SAT:0.068956:34.0:300.0:-1
ipc-2014-agile-hiking-3-4-4.pddl,SAT:0.218362:1042.0:300.0:-1
ipc-2014-agile-hiking-3-4-5.pddl,SAT:0.845867:1843.0:300.0:-1
ipc-2014-agile-hiking-3-4-6.pddl,SAT:33.3321:1124.0:300.0:-1
ipc-2014-agile-hiking-3-4-7.pddl,SAT:256.136:1912.0:300.0:-1
ipc-2014-agile-hiking-3-4-8.pddl,TIMEOUT:301.08:-1.0:300.0:-1
ipc-2014-agile-hiking-3-4-9.pddl,TIMEOUT:301.089:-1.0:300.0:-1
ipc-2014-agile-hiking-4-5-3.pddl,SAT:0.100657:64.0:300.0:-1
ipc-2014-agile-hiking-4-5-4.pddl,SAT:0.769265:245.0:300.0:-1
ipc-2014-agile-hiking-4-5-5.pddl,SAT:0.697933:779.0:300.0:-1
ipc-2014-agile-hiking-4-5-6.pddl,SAT:22.6973:3640.0:300.0:-1
ipc-2014-agile-hiking-4-5-7.pddl,TIMEOUT:301.02:-1.0:300.0:-1
ipc-2014-agile-hiking-4-5-8.pddl,TIMEOUT:301.042:-1.0:300.0:-1
ipc-2014-agile-hiking-4-5-9.pddl,TIMEOUT:301.084:-1.0:300.0:-1
ipc-2014-agile-hiking-5-6-3.pddl,SAT:0.245153:48.0:300.0:-1
ipc-2014-agile-hiking-5-6-4.pddl,SAT:0.951539:671.0:300.0:-1
ipc-2014-agile-hiking-5-6-5.pddl,SAT:55.1317:1133.0:300.0:-1
ipc-2014-agile-hiking-5-6-6.pddl,SAT:69.1488:3510.0:300.0:-1
ipc-2014-agile-hiking-5-6-7.pddl,SAT:25.7732:4058.0:300.0:-1
ipc-2014-agile-hiking-5-6-8.pddl,TIMEOUT:301.098:-1.0:300.0:-1
ipc-2014-agile-maintenance-1.3.060.180.5-000.pddl,CRASHED:0.00318:1000000000.0:300.0:-1
ipc-2014-agile-maintenance-1.3.060.180.5-001.pddl,CRASHED:0.003024:1000000000.0:300.0:-1
ipc-2014-agile-maintenance-1.3.060.180.5-002.pddl,CRASHED:0.00304:1000000000.0:300.0:-1
ipc-2014-agile-maintenance-1.3.100.300.5-000.pddl,CRASHED:0.002959:1000000000.0:300.0:-1
ipc-2014-agile-maintenance-1.3.100.300.5-001.pddl,CRASHED:0.00295:1000000000.0:300.0:-1
ipc-2014-agile-maintenance-1.3.100.300.7-000.pddl,CRASHED:0.002907:1000000000.0:300.0:-1
ipc-2014-agile-maintenance-1.3.100.300.7-001.pddl,CRASHED:0.003048:1000000000.0:300.0:-1
ipc-2014-agile-maintenance-1.3.100.300.7-002.pddl,CRASHED:0.00295:1000000000.0:300.0:-1
ipc-2014-agile-maintenance-1.3.150.500.6-001.pddl,CRASHED:0.002924:1000000000.0:300.0:-1
ipc-2014-agile-maintenance-1.3.200.500.5-001.pddl,CRASHED:0.002955:1000000000.0:300.0:-1
ipc-2014-agile-maintenance-1.3.200.500.5-002.pddl,CRASHED:0.002912:1000000000.0:300.0:-1
ipc-2014-agile-maintenance-1.3.200.700.7-000.pddl,CRASHED:0.002964:1000000000.0:300.0:-1
ipc-2014-agile-maintenance-1.3.200.700.7-001.pddl,CRASHED:0.00294:1000000000.0:300.0:-1
ipc-2014-agile-maintenance-1.3.200.700.7-002.pddl,CRASHED:0.002952:1000000000.0:300.0:-1
ipc-2014-agile-maintenance-1.3.200.900.5-000.pddl,CRASHED:0.002992:1000000000.0:300.0:-1
ipc-2014-agile-maintenance-1.3.200.900.5-001.pddl,CRASHED:0.002954:1000000000.0:300.0:-1
ipc-2014-agile-maintenance-1.3.200.900.5-002.pddl,CRASHED:0.002967:1000000000.0:300.0:-1
ipc-2014-agile-maintenance-1.3.200.900.8-000.pddl,CRASHED:0.003012:1000000000.0:300.0:-1
ipc-2014-agile-maintenance-1.3.200.900.8-001.pddl,CRASHED:0.002967:1000000000.0:300.0:-1
ipc-2014-agile-maintenance-1.3.200.900.8-002.pddl,CRASHED:0.00298:1000000000.0:300.0:-1
ipc-2014-agile-openstacks-p130_2.pddl,CRASHED:0.944883:1000000000.0:300.0:-1
ipc-2014-agile-openstacks-p130_3.pddl,CRASHED:1.21475:1000000000.0:300.0:-1
ipc-2014-agile-openstacks-p150_2.pddl,CRASHED:1.46614:1000000000.0:300.0:-1
ipc-2014-agile-openstacks-p150_3.pddl,CRASHED:1.9087:1000000000.0:300.0:-1
ipc-2014-agile-openstacks-p170_1.pddl,CRASHED:2.09656:1000000000.0:300.0:-1
ipc-2014-agile-openstacks-p170_2.pddl,CRASHED:2.37345:1000000000.0:300.0:-1
ipc-2014-agile-openstacks-p170_3.pddl,CRASHED:2.81534:1000000000.0:300.0:-1
ipc-2014-agile-openstacks-p190_1.pddl,CRASHED:3.41671:1000000000.0:300.0:-1
ipc-2014-agile-openstacks-p190_2.pddl,CRASHED:3.5912:1000000000.0:300.0:-1
ipc-2014-agile-openstacks-p190_3.pddl,CRASHED:4.10887:1000000000.0:300.0:-1
ipc-2014-agile-openstacks-p210_1.pddl,CRASHED:4.59156:1000000000.0:300.0:-1
ipc-2014-agile-openstacks-p210_2.pddl,CRASHED:4.76548:1000000000.0:300.0:-1
ipc-2014-agile-openstacks-p230_1.pddl,CRASHED:6.31562:1000000000.0:300.0:-1
ipc-2014-agile-openstacks-p230_2.pddl,CRASHED:6.24504:1000000000.0:300.0:-1
ipc-2014-agile-openstacks-p250_1.pddl,CRASHED:8.50397:1000000000.0:300.0:-1
ipc-2014-agile-openstacks-p250_2.pddl,CRASHED:8.07827:1000000000.0:300.0:-1
ipc-2014-agile-openstacks-p270_1.pddl,CRASHED:9.73772:1000000000.0:300.0:-1
ipc-2014-agile-openstacks-p270_2.pddl,CRASHED:9.65574:1000000000.0:300.0:-1
ipc-2014-agile-openstacks-p290_1.pddl,CRASHED:12.459:1000000000.0:300.0:-1
ipc-2014-agile-openstacks-p290_2.pddl,CRASHED:13.5144:1000000000.0:300.0:-1
ipc-2014-agile-parking-28_2.pddl,TIMEOUT:301.077:-1.0:300.0:-1
ipc-2014-agile-parking-28_3.pddl,TIMEOUT:301.058:-1.0:300.0:-1
ipc-2014-agile-parking-30_1.pddl,TIMEOUT:301.022:-1.0:300.0:-1
ipc-2014-agile-parking-30_2.pddl,TIMEOUT:301.112:-1.0:300.0:-1
ipc-2014-agile-parking-30_3.pddl,TIMEOUT:301.094:-1.0:300.0:-1
ipc-2014-agile-parking-32_1.pddl,TIMEOUT:301.04:-1.0:300.0:-1
ipc-2014-agile-parking-32_2.pddl,TIMEOUT:301.117:-1.0:300.0:-1
ipc-2014-agile-parking-32_3.pddl,TIMEOUT:301.014:-1.0:300.0:-1
ipc-2014-agile-parking-34_1.pddl,TIMEOUT:301.09:-1.0:300.0:-1
ipc-2014-agile-parking-34_2.pddl,TIMEOUT:301.047:-1.0:300.0:-1
ipc-2014-agile-parking-34_3.pddl,TIMEOUT:301.069:-1.0:300.0:-1
ipc-2014-agile-parking-36_1.pddl,TIMEOUT:301.095:-1.0:300.0:-1
ipc-2014-agile-parking-36_2.pddl,TIMEOUT:301.068:-1.0:300.0:-1
ipc-2014-agile-parking-36_3.pddl,TIMEOUT:301.048:-1.0:300.0:-1
ipc-2014-agile-parking-38_1.pddl,TIMEOUT:301.06:-1.0:300.0:-1
ipc-2014-agile-parking-38_2.pddl,TIMEOUT:301.104:-1.0:300.0:-1
ipc-2014-agile-parking-38_3.pddl,TIMEOUT:301.121:-1.0:300.0:-1
ipc-2014-agile-parking-40_1.pddl,TIMEOUT:301.04:-1.0:300.0:-1
ipc-2014-agile-parking-40_2.pddl,TIMEOUT:301.058:-1.0:300.0:-1
ipc-2014-agile-parking-40_3.pddl,TIMEOUT:301.079:-1.0:300.0:-1
ipc-2014-agile-tetris-020.pddl,SAT:95.026:83.0:300.0:-1
ipc-2014-agile-tetris-021.pddl,CRASHED:17.8344:1000000000.0:300.0:-1
ipc-2014-agile-tetris-022.pddl,CRASHED:16.0662:1000000000.0:300.0:-1
ipc-2014-agile-tetris-023.pddl,CRASHED:16.4435:1000000000.0:300.0:-1
ipc-2014-agile-tetris-024.pddl,CRASHED:17.813:1000000000.0:300.0:-1
ipc-2014-agile-tetris-025.pddl,TIMEOUT:301.039:-1.0:300.0:-1
ipc-2014-agile-tetris-026.pddl,CRASHED:26.0319:1000000000.0:300.0:-1
ipc-2014-agile-tetris-027.pddl,CRASHED:20.8333:1000000000.0:300.0:-1
ipc-2014-agile-tetris-028.pddl,CRASHED:19.0641:1000000000.0:300.0:-1
ipc-2014-agile-tetris-029.pddl,TIMEOUT:301.125:-1.0:300.0:-1
ipc-2014-agile-tetris-031.pddl,CRASHED:34.7674:1000000000.0:300.0:-1
ipc-2014-agile-tetris-032.pddl,CRASHED:25.8988:1000000000.0:300.0:-1
ipc-2014-agile-tetris-033.pddl,CRASHED:34.055:1000000000.0:300.0:-1
ipc-2014-agile-tetris-034.pddl,CRASHED:33.4735:1000000000.0:300.0:-1
ipc-2014-agile-tetris-035.pddl,CRASHED:40.6585:1000000000.0:300.0:-1
ipc-2014-agile-tetris-036.pddl,CRASHED:37.9862:1000000000.0:300.0:-1
ipc-2014-agile-tetris-037.pddl,CRASHED:23.8686:1000000000.0:300.0:-1
ipc-2014-agile-tetris-038.pddl,CRASHED:31.5069:1000000000.0:300.0:-1
ipc-2014-agile-tetris-039.pddl,CRASHED:36.8052:1000000000.0:300.0:-1
ipc-2014-agile-tetris-040.pddl,CRASHED:31.3425:1000000000.0:300.0:-1
ipc-2014-agile-thoughtful-bootstrap-typed-01.pddl,SAT:0.730938:46.0:300.0:-1
ipc-2014-agile-thoughtful-bootstrap-typed-02.pddl,SAT:0.670082:74.0:300.0:-1
ipc-2014-agile-thoughtful-bootstrap-typed-03.pddl,SAT:0.67414:61.0:300.0:-1
ipc-2014-agile-thoughtful-bootstrap-typed-04.pddl,SAT:0.678059:41.0:300.0:-1
ipc-2014-agile-thoughtful-bootstrap-typed-05.pddl,SAT:0.662986:53.0:300.0:-1
ipc-2014-agile-thoughtful-p11_6_53-typed.pddl,SAT:137.448:288.0:300.0:-1
ipc-2014-agile-thoughtful-p11_6_59-typed.pddl,TIMEOUT:301.133:-1.0:300.0:-1
ipc-2014-agile-thoughtful-p11_6_62-typed.pddl,SAT:12.1625:318.0:300.0:-1
ipc-2014-agile-thoughtful-p13_7_78-typed.pddl,TIMEOUT:301.138:-1.0:300.0:-1
ipc-2014-agile-thoughtful-p13_7_79-typed.pddl,TIMEOUT:301.132:-1.0:300.0:-1
ipc-2014-agile-thoughtful-p13_7_86-typed.pddl,TIMEOUT:301.058:-1.0:300.0:-1
ipc-2014-agile-thoughtful-target-typed-20.pddl,TIMEOUT:301.088:-1.0:300.0:-1
ipc-2014-agile-thoughtful-target-typed-21.pddl,TIMEOUT:301.09:-1.0:300.0:-1
ipc-2014-agile-thoughtful-target-typed-22.pddl,TIMEOUT:301.08:-1.0:300.0:-1
ipc-2014-agile-thoughtful-target-typed-23.pddl,TIMEOUT:301.127:-1.0:300.0:-1
ipc-2014-agile-thoughtful-target-typed-24.pddl,SAT:24.5757:199.0:300.0:-1
ipc-2014-agile-thoughtful-target-typed-25.pddl,TIMEOUT:301.1:-1.0:300.0:-1
ipc-2014-agile-thoughtful-target-typed-26.pddl,TIMEOUT:301.131:-1.0:300.0:-1
ipc-2014-agile-thoughtful-target-typed-27.pddl,SAT:24.0855:230.0:300.0:-1
ipc-2014-agile-thoughtful-target-typed-28.pddl,SAT:43.3051:246.0:300.0:-1
ipc-2014-agile-transport-01.pddl,SAT:1.031:4683.0:300.0:-1
ipc-2014-agile-transport-02.pddl,SAT:1.61128:5361.0:300.0:-1
ipc-2014-agile-transport-03.pddl,SAT:1.12671:4263.0:300.0:-1
ipc-2014-agile-transport-04.pddl,SAT:5.53982:9712.0:300.0:-1
ipc-2014-agile-transport-05.pddl,SAT:10.4756:15500.0:300.0:-1
ipc-2014-agile-transport-06.pddl,SAT:5.73264:9712.0:300.0:-1
ipc-2014-agile-transport-07.pddl,SAT:7.41625:11670.0:300.0:-1
ipc-2014-agile-transport-08.pddl,SAT:10.6341:12502.0:300.0:-1
ipc-2014-agile-transport-09.pddl,SAT:7.40891:11670.0:300.0:-1
ipc-2014-agile-transport-10.pddl,SAT:6.49224:10021.0:300.0:-1
ipc-2014-agile-transport-11.pddl,SAT:1.48477:3491.0:300.0:-1
ipc-2014-agile-transport-12.pddl,SAT:2.18186:5020.0:300.0:-1
ipc-2014-agile-transport-13.pddl,SAT:1.52804:5929.0:300.0:-1
ipc-2014-agile-transport-14.pddl,SAT:5.52721:11687.0:300.0:-1
ipc-2014-agile-transport-15.pddl,SAT:7.5519:12437.0:300.0:-1
ipc-2014-agile-transport-16.pddl,SAT:3.85296:13661.0:300.0:-1
ipc-2014-agile-transport-17.pddl,SAT:6.63323:10606.0:300.0:-1
ipc-2014-agile-transport-18.pddl,SAT:9.52067:12877.0:300.0:-1
ipc-2014-agile-transport-19.pddl,SAT:5.91681:11273.0:300.0:-1
ipc-2014-agile-transport-20.pddl,SAT:8.2078:9041.0:300.0:-1
ipc-2014-agile-visitall-30.pddl,SAT:0.635513:1116.0:300.0:-1
ipc-2014-agile-visitall-31.pddl,SAT:0.782422:1217.0:300.0:-1
ipc-2014-agile-visitall-32.pddl,SAT:0.849886:1230.0:300.0:-1
ipc-2014-agile-visitall-33.pddl,SAT:1.14784:1390.0:300.0:-1
ipc-2014-agile-visitall-50.pddl,SAT:11.1755:2967.0:300.0:-1
ipc-2014-agile-visitall-51.pddl,SAT:11.6909:3051.0:300.0:-1
ipc-2014-agile-visitall-52.pddl,SAT:10.4661:3180.0:300.0:-1
ipc-2014-agile-visitall-53.pddl,SAT:12.238:3206.0:300.0:-1
ipc-2014-agile-visitall-54.pddl,SAT:13.792:3349.0:300.0:-1
ipc-2014-agile-visitall-55.pddl,SAT:14.2576:3496.0:300.0:-1
ipc-2014-agile-visitall-56.pddl,SAT:17.3463:3634.0:300.0:-1
ipc-2014-agile-visitall-57.pddl,SAT:17.5082:3842.0:300.0:-1
ipc-2014-agile-visitall-58.pddl,SAT:22.3636:3768.0:300.0:-1
ipc-2014-agile-visitall-59.pddl,SAT:25.9458:3964.0:300.0:-1
ipc-2014-agile-visitall-60.pddl,SAT:27.881:4089.0:300.0:-1
ipc-2014-agile-visitall-61.pddl,SAT:27.5622:4275.0:300.0:-1
ipc-2014-agile-visitall-62.pddl,SAT:31.8468:4279.0:300.0:-1
ipc-2014-agile-visitall-63.pddl,SAT:33.9017:4707.0:300.0:-1
ipc-2014-agile-visitall-64.pddl,SAT:42.1004:4809.0:300.0:-1
ipc-2014-agile-visitall-65.pddl,SAT:41.0541:4976.0:300.0:-1
