instance,ipc-2014-agile-bfs-f
ipc-2014-agile-barman-p1-11-4-15.pddl,SAT:29.5861:183.0:300.0:-1
ipc-2014-agile-barman-p1-11-5-15.pddl,SAT:33.2225:185.0:300.0:-1
ipc-2014-agile-barman-p1-11-5-16.pddl,SAT:1.12334:154.0:300.0:-1
ipc-2014-agile-barman-p2-10-4-13.pddl,SAT:1.92736:144.0:300.0:-1
ipc-2014-agile-barman-p2-11-4-15.pddl,SAT:2.2899:165.0:300.0:-1
ipc-2014-agile-barman-p2-11-5-15.pddl,SAT:1.36003:153.0:300.0:-1
ipc-2014-agile-barman-p2-11-5-16.pddl,SAT:4.45494:173.0:300.0:-1
ipc-2014-agile-barman-p2-11-5-17.pddl,SAT:18.6782:203.0:300.0:-1
ipc-2014-agile-barman-p3-10-4-13.pddl,SAT:1.36492:141.0:300.0:-1
ipc-2014-agile-barman-p3-11-4-15.pddl,SAT:1.98732:166.0:300.0:-1
ipc-2014-agile-barman-p3-11-5-15.pddl,SAT:6.7896:178.0:300.0:-1
ipc-2014-agile-barman-p3-11-5-16.pddl,SAT:1.57456:168.0:300.0:-1
ipc-2014-agile-barman-p3-11-5-17.pddl,SAT:5.60011:175.0:300.0:-1
ipc-2014-agile-barman-p4-11-4-14.pddl,SAT:2.5458:161.0:300.0:-1
ipc-2014-agile-barman-p4-11-4-15.pddl,SAT:5.08961:159.0:300.0:-1
ipc-2014-agile-barman-p4-11-5-15.pddl,SAT:3.97698:156.0:300.0:-1
ipc-2014-agile-barman-p5-10-4-13.pddl,SAT:1.424:142.0:300.0:-1
ipc-2014-agile-barman-p5-11-4-15.pddl,SAT:4.50088:176.0:300.0:-1
ipc-2014-agile-barman-p5-11-5-15.pddl,SAT:6.54511:157.0:300.0:-1
ipc-2014-agile-barman-p5-11-5-16.pddl,SAT:3.33704:160.0:300.0:-1
ipc-2014-agile-cavediving-01_easy.pddl,TIMEOUT:301.176:-1.0:300.0:-1
ipc-2014-agile-cavediving-01.pddl,TIMEOUT:301.176:-1.0:300.0:-1
ipc-2014-agile-cavediving-02_easy.pddl,TIMEOUT:301.193:-1.0:300.0:-1
ipc-2014-agile-cavediving-03_easy.pddl,TIMEOUT:301.145:-1.0:300.0:-1
ipc-2014-agile-cavediving-04_easy.pddl,TIMEOUT:301.159:-1.0:300.0:-1
ipc-2014-agile-cavediving-05A_easy.pddl,SAT:0.245142:94.0:300.0:-1
ipc-2014-agile-cavediving-06A_easy.pddl,SAT:0.244687:95.0:300.0:-1
ipc-2014-agile-cavediving-07_easy.pddl,SAT:0.446774:131.0:300.0:-1
ipc-2014-agile-cavediving-08_easy.pddl,SAT:0.250734:90.0:300.0:-1
ipc-2014-agile-cavediving-09_easy.pddl,TIMEOUT:301.133:-1.0:300.0:-1
ipc-2014-agile-cavediving-10_easy.pddl,TIMEOUT:301.187:-1.0:300.0:-1
ipc-2014-agile-cavediving-11_easy.pddl,TIMEOUT:301.193:-1.0:300.0:-1
ipc-2014-agile-cavediving-12_easy.pddl,TIMEOUT:301.171:-1.0:300.0:-1
ipc-2014-agile-cavediving-13_easy.pddl,TIMEOUT:301.254:-1.0:300.0:-1
ipc-2014-agile-cavediving-14_easy.pddl,TIMEOUT:301.274:-1.0:300.0:-1
ipc-2014-agile-cavediving-15_easy.pddl,TIMEOUT:301.243:-1.0:300.0:-1
ipc-2014-agile-cavediving-16_easy.pddl,TIMEOUT:301.231:-1.0:300.0:-1
ipc-2014-agile-cavediving-18A_easy.pddl,SAT:0.7146:131.0:300.0:-1
ipc-2014-agile-cavediving-18_easy.pddl,SAT:1.86443:131.0:300.0:-1
ipc-2014-agile-cavediving-20A_easy.pddl,SAT:0.628921:98.0:300.0:-1
ipc-2014-agile-childsnack-05-2.pddl,SAT:51.151:46.0:300.0:-1
ipc-2014-agile-childsnack-05.pddl,SAT:0.491358:47.0:300.0:-1
ipc-2014-agile-childsnack-06-2.pddl,SAT:47.1535:50.0:300.0:-1
ipc-2014-agile-childsnack-07-2.pddl,SAT:1.44575:57.0:300.0:-1
ipc-2014-agile-childsnack-08-2.pddl,SAT:294.765:63.0:300.0:-1
ipc-2014-agile-childsnack-08.pddl,SAT:210.342:61.0:300.0:-1
ipc-2014-agile-childsnack-09-2.pddl,TIMEOUT:301.279:-1.0:300.0:-1
ipc-2014-agile-childsnack-09.pddl,SAT:10.5831:67.0:300.0:-1
ipc-2014-agile-childsnack-10-2.pddl,SAT:8.79939:72.0:300.0:-1
ipc-2014-agile-childsnack-10.pddl,SAT:6.52892:72.0:300.0:-1
ipc-2014-agile-childsnack-11-2.pddl,SAT:9.5041:77.0:300.0:-1
ipc-2014-agile-childsnack-11.pddl,TIMEOUT:301.284:-1.0:300.0:-1
ipc-2014-agile-childsnack-12.pddl,TIMEOUT:301.322:-1.0:300.0:-1
ipc-2014-agile-childsnack-13-2.pddl,TIMEOUT:301.314:-1.0:300.0:-1
ipc-2014-agile-childsnack-13.pddl,TIMEOUT:301.316:-1.0:300.0:-1
ipc-2014-agile-childsnack-14.pddl,TIMEOUT:301.387:-1.0:300.0:-1
ipc-2014-agile-childsnack-15-2.pddl,TIMEOUT:301.348:-1.0:300.0:-1
ipc-2014-agile-childsnack-16-2.pddl,TIMEOUT:301.288:-1.0:300.0:-1
ipc-2014-agile-childsnack-19-2.pddl,TIMEOUT:301.407:-1.0:300.0:-1
ipc-2014-agile-childsnack-19.pddl,TIMEOUT:301.383:-1.0:300.0:-1
ipc-2014-agile-citycar-p3-2-2-0-1.pddl,SAT:0.583559:110.0:300.0:-1
ipc-2014-agile-citycar-p3-3-2-0-1.pddl,SAT:15.4307:285.0:300.0:-1
ipc-2014-agile-citycar-p3-4-2-0-1.pddl,SAT:3.66708:240.0:300.0:-1
ipc-2014-agile-citycar-p3-5-2-0-1.pddl,SAT:4.38129:241.0:300.0:-1
ipc-2014-agile-citycar-p3-5-2-0-2.pddl,SAT:10.0471:307.0:300.0:-1
ipc-2014-agile-citycar-p4-2-2-0-1.pddl,TIMEOUT:301.433:-1.0:300.0:-1
ipc-2014-agile-citycar-p4-2-3-0-1.pddl,TIMEOUT:301.45:-1.0:300.0:-1
ipc-2014-agile-citycar-p4-2-3-0-2.pddl,TIMEOUT:301.563:-1.0:300.0:-1
ipc-2014-agile-citycar-p4-3-2-0-1.pddl,TIMEOUT:301.42:-1.0:300.0:-1
ipc-2014-agile-citycar-p4-3-2-0-2.pddl,TIMEOUT:301.433:-1.0:300.0:-1
ipc-2014-agile-citycar-p4-3-3-0-1.pddl,TIMEOUT:301.53:-1.0:300.0:-1
ipc-2014-agile-citycar-p4-3-3-0-2.pddl,TIMEOUT:301.358:-1.0:300.0:-1
ipc-2014-agile-citycar-p4-4-2-0-1.pddl,TIMEOUT:301.406:-1.0:300.0:-1
ipc-2014-agile-citycar-p4-4-2-0-2.pddl,TIMEOUT:301.407:-1.0:300.0:-1
ipc-2014-agile-citycar-p4-4-3-0-1.pddl,TIMEOUT:301.246:-1.0:300.0:-1
ipc-2014-agile-citycar-p4-4-3-0-2.pddl,TIMEOUT:301.424:-1.0:300.0:-1
ipc-2014-agile-citycar-p4-5-2-0-1.pddl,TIMEOUT:301.367:-1.0:300.0:-1
ipc-2014-agile-citycar-p4-5-2-0-2.pddl,TIMEOUT:301.465:-1.0:300.0:-1
ipc-2014-agile-citycar-p4-5-3-0-1.pddl,TIMEOUT:301.243:-1.0:300.0:-1
ipc-2014-agile-citycar-p4-5-3-0-2.pddl,TIMEOUT:301.234:-1.0:300.0:-1
ipc-2014-agile-floortile-p01-4-3-2.pddl,SAT:2.32833:101.0:300.0:-1
ipc-2014-agile-floortile-p01-5-4-2.pddl,TIMEOUT:301.171:-1.0:300.0:-1
ipc-2014-agile-floortile-p01-5-5-2.pddl,SAT:149.987:177.0:300.0:-1
ipc-2014-agile-floortile-p01-6-4-2.pddl,SAT:295.75:194.0:300.0:-1
ipc-2014-agile-floortile-p01-6-5-2.pddl,TIMEOUT:301.239:-1.0:300.0:-1
ipc-2014-agile-floortile-p01-6-5-3.pddl,TIMEOUT:301.173:-1.0:300.0:-1
ipc-2014-agile-floortile-p02-5-4-2.pddl,TIMEOUT:301.257:-1.0:300.0:-1
ipc-2014-agile-floortile-p02-6-4-2.pddl,TIMEOUT:301.207:-1.0:300.0:-1
ipc-2014-agile-floortile-p02-6-5-2.pddl,TIMEOUT:301.245:-1.0:300.0:-1
ipc-2014-agile-floortile-p02-6-5-3.pddl,TIMEOUT:301.251:-1.0:300.0:-1
ipc-2014-agile-floortile-p03-6-4-2.pddl,TIMEOUT:301.266:-1.0:300.0:-1
ipc-2014-agile-floortile-p03-6-5-2.pddl,TIMEOUT:301.176:-1.0:300.0:-1
ipc-2014-agile-floortile-p03-6-5-3.pddl,TIMEOUT:301.26:-1.0:300.0:-1
ipc-2014-agile-floortile-p04-5-4-2.pddl,TIMEOUT:301.202:-1.0:300.0:-1
ipc-2014-agile-floortile-p04-5-5-2.pddl,TIMEOUT:301.181:-1.0:300.0:-1
ipc-2014-agile-floortile-p04-6-5-2.pddl,TIMEOUT:301.22:-1.0:300.0:-1
ipc-2014-agile-floortile-p04-6-5-3.pddl,TIMEOUT:301.219:-1.0:300.0:-1
ipc-2014-agile-floortile-p05-4-3-2.pddl,SAT:0.239065:72.0:300.0:-1
ipc-2014-agile-floortile-p05-6-5-2.pddl,TIMEOUT:301.18:-1.0:300.0:-1
ipc-2014-agile-floortile-p05-6-5-3.pddl,TIMEOUT:301.176:-1.0:300.0:-1
ipc-2014-agile-ged-d-10-1.pddl,SAT:5.03934:39.0:300.0:-1
ipc-2014-agile-ged-d-10-2.pddl,SAT:5.67896:40.0:300.0:-1
ipc-2014-agile-ged-d-10-3.pddl,SAT:8.72161:41.0:300.0:-1
ipc-2014-agile-ged-d-10-4.pddl,SAT:2.80462:34.0:300.0:-1
ipc-2014-agile-ged-d-10-5.pddl,TIMEOUT:301.066:-1.0:300.0:-1
ipc-2014-agile-ged-d-10-6.pddl,TIMEOUT:301.058:-1.0:300.0:-1
ipc-2014-agile-ged-d-11-1.pddl,SAT:8.47585:45.0:300.0:-1
ipc-2014-agile-ged-d-11-3.pddl,TIMEOUT:301.039:-1.0:300.0:-1
ipc-2014-agile-ged-d-11-5.pddl,SAT:15.2688:55.0:300.0:-1
ipc-2014-agile-ged-d-11-6.pddl,TIMEOUT:301.115:-1.0:300.0:-1
ipc-2014-agile-ged-d-12-11.pddl,TIMEOUT:301.077:-1.0:300.0:-1
ipc-2014-agile-ged-d-12-2.pddl,TIMEOUT:301.069:-1.0:300.0:-1
ipc-2014-agile-ged-d-12-3.pddl,TIMEOUT:301.045:-1.0:300.0:-1
ipc-2014-agile-ged-d-12-5.pddl,TIMEOUT:301.026:-1.0:300.0:-1
ipc-2014-agile-ged-d-12-6.pddl,TIMEOUT:301.041:-1.0:300.0:-1
ipc-2014-agile-ged-d-12-7.pddl,SAT:54.1413:62.0:300.0:-1
ipc-2014-agile-ged-d-12-8.pddl,TIMEOUT:301.052:-1.0:300.0:-1
ipc-2014-agile-ged-d-12-9.pddl,TIMEOUT:301.029:-1.0:300.0:-1
ipc-2014-agile-ged-d-3-6.pddl,SAT:3.04668:32.0:300.0:-1
ipc-2014-agile-ged-d-9-5.pddl,SAT:262.935:31.0:300.0:-1
ipc-2014-agile-hiking-3-4-3.pddl,SAT:8.54849:17.0:300.0:-1
ipc-2014-agile-hiking-3-4-4.pddl,SAT:48.1168:23.0:300.0:-1
ipc-2014-agile-hiking-3-4-5.pddl,SAT:250.786:45.0:300.0:-1
ipc-2014-agile-hiking-3-4-6.pddl,TIMEOUT:301.051:-1.0:300.0:-1
ipc-2014-agile-hiking-3-4-7.pddl,TIMEOUT:301.09:-1.0:300.0:-1
ipc-2014-agile-hiking-3-4-8.pddl,TIMEOUT:301.053:-1.0:300.0:-1
ipc-2014-agile-hiking-3-4-9.pddl,TIMEOUT:301.074:-1.0:300.0:-1
ipc-2014-agile-hiking-4-5-3.pddl,SAT:83.6584:20.0:300.0:-1
ipc-2014-agile-hiking-4-5-4.pddl,TIMEOUT:301.077:-1.0:300.0:-1
ipc-2014-agile-hiking-4-5-5.pddl,TIMEOUT:301.029:-1.0:300.0:-1
ipc-2014-agile-hiking-4-5-6.pddl,TIMEOUT:301.06:-1.0:300.0:-1
ipc-2014-agile-hiking-4-5-7.pddl,TIMEOUT:301.087:-1.0:300.0:-1
ipc-2014-agile-hiking-4-5-8.pddl,TIMEOUT:301.115:-1.0:300.0:-1
ipc-2014-agile-hiking-4-5-9.pddl,TIMEOUT:301.154:-1.0:300.0:-1
ipc-2014-agile-hiking-5-6-3.pddl,TIMEOUT:301.109:-1.0:300.0:-1
ipc-2014-agile-hiking-5-6-4.pddl,TIMEOUT:301.058:-1.0:300.0:-1
ipc-2014-agile-hiking-5-6-5.pddl,TIMEOUT:301.129:-1.0:300.0:-1
ipc-2014-agile-hiking-5-6-6.pddl,TIMEOUT:301.176:-1.0:300.0:-1
ipc-2014-agile-hiking-5-6-7.pddl,TIMEOUT:301.121:-1.0:300.0:-1
ipc-2014-agile-hiking-5-6-8.pddl,TIMEOUT:301.136:-1.0:300.0:-1
ipc-2014-agile-maintenance-1.3.060.180.5-000.pddl,SAT:3.90929:40.0:300.0:-1
ipc-2014-agile-maintenance-1.3.060.180.5-001.pddl,SAT:8.81631:44.0:300.0:-1
ipc-2014-agile-maintenance-1.3.060.180.5-002.pddl,SAT:3.9836:43.0:300.0:-1
ipc-2014-agile-maintenance-1.3.100.300.5-000.pddl,SAT:35.2731:68.0:300.0:-1
ipc-2014-agile-maintenance-1.3.100.300.5-001.pddl,SAT:36.8254:72.0:300.0:-1
ipc-2014-agile-maintenance-1.3.100.300.7-000.pddl,SAT:35.7015:56.0:300.0:-1
ipc-2014-agile-maintenance-1.3.100.300.7-001.pddl,SAT:33.0456:54.0:300.0:-1
ipc-2014-agile-maintenance-1.3.100.300.7-002.pddl,SAT:34.6988:56.0:300.0:-1
ipc-2014-agile-maintenance-1.3.150.500.6-001.pddl,SAT:4.0941:98.0:300.0:-1
ipc-2014-agile-maintenance-1.3.200.500.5-001.pddl,CRASHED:32.035:1000000000.0:300.0:-1
ipc-2014-agile-maintenance-1.3.200.500.5-002.pddl,SAT:6.04021:127.0:300.0:-1
ipc-2014-agile-maintenance-1.3.200.700.7-000.pddl,CRASHED:1.57398:1000000000.0:300.0:-1
ipc-2014-agile-maintenance-1.3.200.700.7-001.pddl,CRASHED:1.57296:1000000000.0:300.0:-1
ipc-2014-agile-maintenance-1.3.200.700.7-002.pddl,CRASHED:1.57424:1000000000.0:300.0:-1
ipc-2014-agile-maintenance-1.3.200.900.5-000.pddl,CRASHED:1.38259:1000000000.0:300.0:-1
ipc-2014-agile-maintenance-1.3.200.900.5-001.pddl,CRASHED:1.39542:1000000000.0:300.0:-1
ipc-2014-agile-maintenance-1.3.200.900.5-002.pddl,CRASHED:1.40964:1000000000.0:300.0:-1
ipc-2014-agile-maintenance-1.3.200.900.8-000.pddl,CRASHED:1.42275:1000000000.0:300.0:-1
ipc-2014-agile-maintenance-1.3.200.900.8-001.pddl,CRASHED:1.42782:1000000000.0:300.0:-1
ipc-2014-agile-maintenance-1.3.200.900.8-002.pddl,CRASHED:1.40731:1000000000.0:300.0:-1
ipc-2014-agile-openstacks-p130_2.pddl,SAT:234.885:64.0:300.0:-1
ipc-2014-agile-openstacks-p130_3.pddl,TIMEOUT:301.127:-1.0:300.0:-1
ipc-2014-agile-openstacks-p150_2.pddl,TIMEOUT:301.109:-1.0:300.0:-1
ipc-2014-agile-openstacks-p150_3.pddl,TIMEOUT:301.114:-1.0:300.0:-1
ipc-2014-agile-openstacks-p170_1.pddl,TIMEOUT:301.1:-1.0:300.0:-1
ipc-2014-agile-openstacks-p170_2.pddl,TIMEOUT:301.121:-1.0:300.0:-1
ipc-2014-agile-openstacks-p170_3.pddl,TIMEOUT:301.113:-1.0:300.0:-1
ipc-2014-agile-openstacks-p190_1.pddl,TIMEOUT:301.135:-1.0:300.0:-1
ipc-2014-agile-openstacks-p190_2.pddl,TIMEOUT:301.102:-1.0:300.0:-1
ipc-2014-agile-openstacks-p190_3.pddl,TIMEOUT:301.115:-1.0:300.0:-1
ipc-2014-agile-openstacks-p210_1.pddl,TIMEOUT:301.174:-1.0:300.0:-1
ipc-2014-agile-openstacks-p210_2.pddl,TIMEOUT:301.12:-1.0:300.0:-1
ipc-2014-agile-openstacks-p230_1.pddl,TIMEOUT:301.155:-1.0:300.0:-1
ipc-2014-agile-openstacks-p230_2.pddl,TIMEOUT:301.168:-1.0:300.0:-1
ipc-2014-agile-openstacks-p250_1.pddl,TIMEOUT:301.213:-1.0:300.0:-1
ipc-2014-agile-openstacks-p250_2.pddl,TIMEOUT:301.159:-1.0:300.0:-1
ipc-2014-agile-openstacks-p270_1.pddl,TIMEOUT:301.25:-1.0:300.0:-1
ipc-2014-agile-openstacks-p270_2.pddl,TIMEOUT:301.278:-1.0:300.0:-1
ipc-2014-agile-openstacks-p290_1.pddl,TIMEOUT:301.219:-1.0:300.0:-1
ipc-2014-agile-openstacks-p290_2.pddl,TIMEOUT:301.217:-1.0:300.0:-1
ipc-2014-agile-parking-28_2.pddl,SAT:174.011:96.0:300.0:-1
ipc-2014-agile-parking-28_3.pddl,SAT:159.988:90.0:300.0:-1
ipc-2014-agile-parking-30_1.pddl,SAT:82.4706:58.0:300.0:-1
ipc-2014-agile-parking-30_2.pddl,SAT:244.82:98.0:300.0:-1
ipc-2014-agile-parking-30_3.pddl,SAT:180.798:96.0:300.0:-1
ipc-2014-agile-parking-32_1.pddl,TIMEOUT:301.125:-1.0:300.0:-1
ipc-2014-agile-parking-32_2.pddl,TIMEOUT:301.137:-1.0:300.0:-1
ipc-2014-agile-parking-32_3.pddl,TIMEOUT:301.157:-1.0:300.0:-1
ipc-2014-agile-parking-34_1.pddl,TIMEOUT:301.093:-1.0:300.0:-1
ipc-2014-agile-parking-34_2.pddl,TIMEOUT:301.101:-1.0:300.0:-1
ipc-2014-agile-parking-34_3.pddl,TIMEOUT:301.164:-1.0:300.0:-1
ipc-2014-agile-parking-36_1.pddl,TIMEOUT:301.19:-1.0:300.0:-1
ipc-2014-agile-parking-36_2.pddl,TIMEOUT:301.143:-1.0:300.0:-1
ipc-2014-agile-parking-36_3.pddl,TIMEOUT:301.133:-1.0:300.0:-1
ipc-2014-agile-parking-38_1.pddl,TIMEOUT:301.176:-1.0:300.0:-1
ipc-2014-agile-parking-38_2.pddl,TIMEOUT:301.13:-1.0:300.0:-1
ipc-2014-agile-parking-38_3.pddl,TIMEOUT:301.204:-1.0:300.0:-1
ipc-2014-agile-parking-40_1.pddl,TIMEOUT:301.141:-1.0:300.0:-1
ipc-2014-agile-parking-40_2.pddl,TIMEOUT:301.132:-1.0:300.0:-1
ipc-2014-agile-parking-40_3.pddl,TIMEOUT:301.181:-1.0:300.0:-1
ipc-2014-agile-tetris-020.pddl,SAT:83.577:55.0:300.0:-1
ipc-2014-agile-tetris-021.pddl,TIMEOUT:301.144:-1.0:300.0:-1
ipc-2014-agile-tetris-022.pddl,TIMEOUT:301.097:-1.0:300.0:-1
ipc-2014-agile-tetris-023.pddl,TIMEOUT:301.117:-1.0:300.0:-1
ipc-2014-agile-tetris-024.pddl,TIMEOUT:301.191:-1.0:300.0:-1
ipc-2014-agile-tetris-025.pddl,TIMEOUT:301.08:-1.0:300.0:-1
ipc-2014-agile-tetris-026.pddl,TIMEOUT:301.203:-1.0:300.0:-1
ipc-2014-agile-tetris-027.pddl,TIMEOUT:301.152:-1.0:300.0:-1
ipc-2014-agile-tetris-028.pddl,TIMEOUT:301.21:-1.0:300.0:-1
ipc-2014-agile-tetris-029.pddl,TIMEOUT:301.103:-1.0:300.0:-1
ipc-2014-agile-tetris-031.pddl,TIMEOUT:301.113:-1.0:300.0:-1
ipc-2014-agile-tetris-032.pddl,TIMEOUT:301.04:-1.0:300.0:-1
ipc-2014-agile-tetris-033.pddl,TIMEOUT:301.068:-1.0:300.0:-1
ipc-2014-agile-tetris-034.pddl,TIMEOUT:301.11:-1.0:300.0:-1
ipc-2014-agile-tetris-035.pddl,TIMEOUT:301.069:-1.0:300.0:-1
ipc-2014-agile-tetris-036.pddl,TIMEOUT:301.061:-1.0:300.0:-1
ipc-2014-agile-tetris-037.pddl,TIMEOUT:301.004:-1.0:300.0:-1
ipc-2014-agile-tetris-038.pddl,TIMEOUT:301.093:-1.0:300.0:-1
ipc-2014-agile-tetris-039.pddl,TIMEOUT:301.075:-1.0:300.0:-1
ipc-2014-agile-tetris-040.pddl,TIMEOUT:301.04:-1.0:300.0:-1
ipc-2014-agile-thoughtful-bootstrap-typed-01.pddl,SAT:0.109045:29.0:300.0:-1
ipc-2014-agile-thoughtful-bootstrap-typed-02.pddl,SAT:0.093998:31.0:300.0:-1
ipc-2014-agile-thoughtful-bootstrap-typed-03.pddl,SAT:0.102115:34.0:300.0:-1
ipc-2014-agile-thoughtful-bootstrap-typed-04.pddl,SAT:0.098876:32.0:300.0:-1
ipc-2014-agile-thoughtful-bootstrap-typed-05.pddl,SAT:0.113082:35.0:300.0:-1
ipc-2014-agile-thoughtful-p11_6_53-typed.pddl,SAT:4.11257:114.0:300.0:-1
ipc-2014-agile-thoughtful-p11_6_59-typed.pddl,TIMEOUT:301.173:-1.0:300.0:-1
ipc-2014-agile-thoughtful-p11_6_62-typed.pddl,TIMEOUT:301.164:-1.0:300.0:-1
ipc-2014-agile-thoughtful-p13_7_78-typed.pddl,SAT:7.73595:149.0:300.0:-1
ipc-2014-agile-thoughtful-p13_7_79-typed.pddl,SAT:5.15696:123.0:300.0:-1
ipc-2014-agile-thoughtful-p13_7_86-typed.pddl,SAT:5.60364:143.0:300.0:-1
ipc-2014-agile-thoughtful-target-typed-20.pddl,SAT:8.46393:126.0:300.0:-1
ipc-2014-agile-thoughtful-target-typed-21.pddl,SAT:290.508:173.0:300.0:-1
ipc-2014-agile-thoughtful-target-typed-22.pddl,SAT:9.2002:154.0:300.0:-1
ipc-2014-agile-thoughtful-target-typed-23.pddl,SAT:6.21532:141.0:300.0:-1
ipc-2014-agile-thoughtful-target-typed-24.pddl,SAT:7.81561:153.0:300.0:-1
ipc-2014-agile-thoughtful-target-typed-25.pddl,SAT:17.452:146.0:300.0:-1
ipc-2014-agile-thoughtful-target-typed-26.pddl,TIMEOUT:301.093:-1.0:300.0:-1
ipc-2014-agile-thoughtful-target-typed-27.pddl,SAT:15.0207:140.0:300.0:-1
ipc-2014-agile-thoughtful-target-typed-28.pddl,SAT:29.7211:137.0:300.0:-1
ipc-2014-agile-transport-01.pddl,SAT:105.281:3106.0:300.0:-1
ipc-2014-agile-transport-02.pddl,SAT:234.705:3526.0:300.0:-1
ipc-2014-agile-transport-03.pddl,SAT:141.972:2949.0:300.0:-1
ipc-2014-agile-transport-04.pddl,TIMEOUT:301.155:-1.0:300.0:-1
ipc-2014-agile-transport-05.pddl,TIMEOUT:301.238:-1.0:300.0:-1
ipc-2014-agile-transport-06.pddl,TIMEOUT:301.141:-1.0:300.0:-1
ipc-2014-agile-transport-07.pddl,TIMEOUT:301.162:-1.0:300.0:-1
ipc-2014-agile-transport-08.pddl,TIMEOUT:301.186:-1.0:300.0:-1
ipc-2014-agile-transport-09.pddl,TIMEOUT:301.16:-1.0:300.0:-1
ipc-2014-agile-transport-10.pddl,TIMEOUT:301.165:-1.0:300.0:-1
ipc-2014-agile-transport-11.pddl,SAT:277.22:2366.0:300.0:-1
ipc-2014-agile-transport-12.pddl,SAT:211.198:3603.0:300.0:-1
ipc-2014-agile-transport-13.pddl,SAT:63.154:2762.0:300.0:-1
ipc-2014-agile-transport-14.pddl,TIMEOUT:301.204:-1.0:300.0:-1
ipc-2014-agile-transport-15.pddl,TIMEOUT:301.203:-1.0:300.0:-1
ipc-2014-agile-transport-16.pddl,TIMEOUT:301.092:-1.0:300.0:-1
ipc-2014-agile-transport-17.pddl,TIMEOUT:301.154:-1.0:300.0:-1
ipc-2014-agile-transport-18.pddl,TIMEOUT:301.162:-1.0:300.0:-1
ipc-2014-agile-transport-19.pddl,TIMEOUT:301.193:-1.0:300.0:-1
ipc-2014-agile-transport-20.pddl,TIMEOUT:301.211:-1.0:300.0:-1
ipc-2014-agile-visitall-30.pddl,SAT:6.45079:899.0:300.0:-1
ipc-2014-agile-visitall-31.pddl,SAT:7.56776:960.0:300.0:-1
ipc-2014-agile-visitall-32.pddl,SAT:9.02651:1023.0:300.0:-1
ipc-2014-agile-visitall-33.pddl,SAT:10.5184:1088.0:300.0:-1
ipc-2014-agile-visitall-50.pddl,SAT:115.79:2499.0:300.0:-1
ipc-2014-agile-visitall-51.pddl,SAT:117.613:2600.0:300.0:-1
ipc-2014-agile-visitall-52.pddl,SAT:133.67:2703.0:300.0:-1
ipc-2014-agile-visitall-53.pddl,SAT:156.829:2808.0:300.0:-1
ipc-2014-agile-visitall-54.pddl,SAT:168.729:2915.0:300.0:-1
ipc-2014-agile-visitall-55.pddl,SAT:168.752:3024.0:300.0:-1
ipc-2014-agile-visitall-56.pddl,SAT:210.012:3135.0:300.0:-1
ipc-2014-agile-visitall-57.pddl,SAT:233.782:3248.0:300.0:-1
ipc-2014-agile-visitall-58.pddl,SAT:228.895:3363.0:300.0:-1
ipc-2014-agile-visitall-59.pddl,SAT:279.446:3480.0:300.0:-1
ipc-2014-agile-visitall-60.pddl,SAT:297.594:3599.0:300.0:-1
ipc-2014-agile-visitall-61.pddl,SAT:279.155:3720.0:300.0:-1
ipc-2014-agile-visitall-62.pddl,TIMEOUT:301.179:-1.0:300.0:-1
ipc-2014-agile-visitall-63.pddl,TIMEOUT:301.148:-1.0:300.0:-1
ipc-2014-agile-visitall-64.pddl,TIMEOUT:301.097:-1.0:300.0:-1
ipc-2014-agile-visitall-65.pddl,TIMEOUT:301.074:-1.0:300.0:-1
