instance,ipc-2014-optimal-gamer
ipc-2014-optimal-barman-p433.1.pddl,CRASHED:0.042993:1000000000.0:1800.0:-1
ipc-2014-optimal-barman-p433.2.pddl,CRASHED:0.042992:1000000000.0:1800.0:-1
ipc-2014-optimal-barman-p433.3.pddl,CRASHED:0.042993:1000000000.0:1800.0:-1
ipc-2014-optimal-barman-p435.1.pddl,SAT:888.944:49.0:1800.0:-1
ipc-2014-optimal-barman-p435.2.pddl,SAT:892.732:49.0:1800.0:-1
ipc-2014-optimal-barman-p435.3.pddl,SAT:870.05:49.0:1800.0:-1
ipc-2014-optimal-barman-p443.1.pddl,CRASHED:0.042992:1000000000.0:1800.0:-1
ipc-2014-optimal-barman-p443.2.pddl,CRASHED:0.039993:1000000000.0:1800.0:-1
ipc-2014-optimal-barman-p443.3.pddl,CRASHED:0.052991:1000000000.0:1800.0:-1
ipc-2014-optimal-barman-p536.1.pddl,TIMEOUT:1801.07:-1.0:1800.0:-1
ipc-2014-optimal-barman-p536.2.pddl,TIMEOUT:1801.08:-1.0:1800.0:-1
ipc-2014-optimal-barman-p536.3.pddl,TIMEOUT:1801.01:-1.0:1800.0:-1
ipc-2014-optimal-barman-p638.1.pddl,CRASHED:1343.28:1000000000.0:1800.0:-1
ipc-2014-optimal-barman-p638.2.pddl,TIMEOUT:1801.08:-1.0:1800.0:-1
ipc-2014-optimal-barman-p638.3.pddl,CRASHED:1004.74:1000000000.0:1800.0:-1
ipc-2014-optimal-barman-p739.1.pddl,TIMEOUT:1801.04:-1.0:1800.0:-1
ipc-2014-optimal-barman-p739.2.pddl,CRASHED:1035.17:1000000000.0:1800.0:-1
ipc-2014-optimal-barman-p739.3.pddl,CRASHED:751.51:1000000000.0:1800.0:-1
ipc-2014-optimal-barman-p839.1.pddl,CRASHED:894.08:1000000000.0:1800.0:-1
ipc-2014-optimal-barman-p839.2.pddl,CRASHED:1026.89:1000000000.0:1800.0:-1
ipc-2014-optimal-cavediving-01.pddl,CRASHED:855.86:1000000000.0:1800.0:-1
ipc-2014-optimal-cavediving-01_easy.pddl,CRASHED:1691.09:1000000000.0:1800.0:-1
ipc-2014-optimal-cavediving-02_easy.pddl,TIMEOUT:1801.0:-1.0:1800.0:-1
ipc-2014-optimal-cavediving-03_easy.pddl,TIMEOUT:1801.04:-1.0:1800.0:-1
ipc-2014-optimal-cavediving-04_easy.pddl,CRASHED:1011.81:1000000000.0:1800.0:-1
ipc-2014-optimal-cavediving-05A_easy.pddl,SAT:259.337:0.0:1800.0:-1
ipc-2014-optimal-cavediving-06A_easy.pddl,SAT:216.257:0.0:1800.0:-1
ipc-2014-optimal-cavediving-07_easy.pddl,SAT:22.8465:131.0:1800.0:-1
ipc-2014-optimal-cavediving-08_easy.pddl,SAT:215.84:0.0:1800.0:-1
ipc-2014-optimal-cavediving-09_easy.pddl,TIMEOUT:1801.03:-1.0:1800.0:-1
ipc-2014-optimal-cavediving-10_easy.pddl,TIMEOUT:1801.01:-1.0:1800.0:-1
ipc-2014-optimal-cavediving-11_easy.pddl,TIMEOUT:1801.02:-1.0:1800.0:-1
ipc-2014-optimal-cavediving-12_easy.pddl,TIMEOUT:1801.01:-1.0:1800.0:-1
ipc-2014-optimal-cavediving-13_easy.pddl,CRASHED:1731.59:1000000000.0:1800.0:-1
ipc-2014-optimal-cavediving-14_easy.pddl,CRASHED:1072.16:1000000000.0:1800.0:-1
ipc-2014-optimal-cavediving-15_easy.pddl,CRASHED:1160.93:1000000000.0:1800.0:-1
ipc-2014-optimal-cavediving-16_easy.pddl,CRASHED:1629.33:1000000000.0:1800.0:-1
ipc-2014-optimal-cavediving-18A_easy.pddl,SAT:140.394:131.0:1800.0:-1
ipc-2014-optimal-cavediving-18_easy.pddl,SAT:91.3121:131.0:1800.0:-1
ipc-2014-optimal-cavediving-20A_easy.pddl,SAT:456.224:0.0:1800.0:-1
ipc-2014-optimal-childsnack-01-2.pddl,SAT:389.226:21.0:1800.0:-1
ipc-2014-optimal-childsnack-01.pddl,SAT:263.338:20.0:1800.0:-1
ipc-2014-optimal-childsnack-02-2.pddl,CRASHED:1306.31:1000000000.0:1800.0:-1
ipc-2014-optimal-childsnack-02.pddl,SAT:1353.33:23.0:1800.0:-1
ipc-2014-optimal-childsnack-03-2.pddl,CRASHED:586.84:1000000000.0:1800.0:-1
ipc-2014-optimal-childsnack-03.pddl,CRASHED:768.27:1000000000.0:1800.0:-1
ipc-2014-optimal-childsnack-04-2.pddl,CRASHED:662.51:1000000000.0:1800.0:-1
ipc-2014-optimal-childsnack-04.pddl,CRASHED:860.01:1000000000.0:1800.0:-1
ipc-2014-optimal-childsnack-05-2.pddl,CRASHED:693.82:1000000000.0:1800.0:-1
ipc-2014-optimal-childsnack-05.pddl,CRASHED:697.45:1000000000.0:1800.0:-1
ipc-2014-optimal-childsnack-06-2.pddl,CRASHED:946.83:1000000000.0:1800.0:-1
ipc-2014-optimal-childsnack-06.pddl,CRASHED:1192.18:1000000000.0:1800.0:-1
ipc-2014-optimal-childsnack-07-2.pddl,CRASHED:612.95:1000000000.0:1800.0:-1
ipc-2014-optimal-childsnack-07.pddl,CRASHED:395.93:1000000000.0:1800.0:-1
ipc-2014-optimal-childsnack-08-2.pddl,CRASHED:946.96:1000000000.0:1800.0:-1
ipc-2014-optimal-childsnack-08.pddl,CRASHED:872.52:1000000000.0:1800.0:-1
ipc-2014-optimal-childsnack-09-2.pddl,CRASHED:254.6:1000000000.0:1800.0:-1
ipc-2014-optimal-childsnack-09.pddl,CRASHED:770.91:1000000000.0:1800.0:-1
ipc-2014-optimal-childsnack-10-2.pddl,CRASHED:387.09:1000000000.0:1800.0:-1
ipc-2014-optimal-childsnack-10.pddl,CRASHED:785.84:1000000000.0:1800.0:-1
ipc-2014-optimal-citycar-p2-2-2-1-2.pddl,SAT:4.68629:46.0:1800.0:-1
ipc-2014-optimal-citycar-p2-2-2-2-1.pddl,SAT:5.00824:64.0:1800.0:-1
ipc-2014-optimal-citycar-p2-2-3-1-2.pddl,SAT:6.96094:50.0:1800.0:-1
ipc-2014-optimal-citycar-p2-2-3-2-1.pddl,SAT:5.45817:48.0:1800.0:-1
ipc-2014-optimal-citycar-p2-2-3-2-2.pddl,SAT:5.47217:50.0:1800.0:-1
ipc-2014-optimal-citycar-p2-2-4-1-2.pddl,SAT:13.6569:52.0:1800.0:-1
ipc-2014-optimal-citycar-p2-2-4-2-1.pddl,SAT:13.401:52.0:1800.0:-1
ipc-2014-optimal-citycar-p2-2-5-2-2.pddl,SAT:228.249:76.0:1800.0:-1
ipc-2014-optimal-citycar-p2-2-6-1-1.pddl,SAT:70.3973:58.0:1800.0:-1
ipc-2014-optimal-citycar-p2-2-6-2-2.pddl,SAT:68.5806:58.0:1800.0:-1
ipc-2014-optimal-citycar-p2-3-2-3-1.pddl,SAT:17.4263:68.0:1800.0:-1
ipc-2014-optimal-citycar-p2-3-3-3-1.pddl,SAT:142.63:78.0:1800.0:-1
ipc-2014-optimal-citycar-p2-3-4-3-1.pddl,SAT:602.592:82.0:1800.0:-1
ipc-2014-optimal-citycar-p2-3-6-3-2.pddl,TIMEOUT:1801.04:-1.0:1800.0:-1
ipc-2014-optimal-citycar-p3-3-2-2-1.pddl,SAT:123.791:70.0:1800.0:-1
ipc-2014-optimal-citycar-p3-3-2-2-2.pddl,SAT:597.912:92.0:1800.0:-1
ipc-2014-optimal-citycar-p3-3-2-3-1.pddl,SAT:55.4206:48.0:1800.0:-1
ipc-2014-optimal-citycar-p3-3-2-3-2.pddl,SAT:98.591:70.0:1800.0:-1
ipc-2014-optimal-citycar-p3-3-3-3-1.pddl,TIMEOUT:1801.05:-1.0:1800.0:-1
ipc-2014-optimal-citycar-p3-3-3-3-2.pddl,SAT:1071.82:76.0:1800.0:-1
ipc-2014-optimal-floortile-p01-4-3-2.pddl,SAT:9.62154:56.0:1800.0:-1
ipc-2014-optimal-floortile-p01-4-4-2.pddl,SAT:82.0435:68.0:1800.0:-1
ipc-2014-optimal-floortile-p01-5-3-2.pddl,SAT:19.646:63.0:1800.0:-1
ipc-2014-optimal-floortile-p01-5-4-2.pddl,SAT:494.049:91.0:1800.0:-1
ipc-2014-optimal-floortile-p01-5-5-2.pddl,TIMEOUT:1801.11:-1.0:1800.0:-1
ipc-2014-optimal-floortile-p01-6-4-2.pddl,SAT:1740.86:104.0:1800.0:-1
ipc-2014-optimal-floortile-p01-6-5-2.pddl,TIMEOUT:1801.06:-1.0:1800.0:-1
ipc-2014-optimal-floortile-p02-4-4-2.pddl,SAT:86.5049:75.0:1800.0:-1
ipc-2014-optimal-floortile-p02-5-3-2.pddl,SAT:24.3263:65.0:1800.0:-1
ipc-2014-optimal-floortile-p02-5-4-2.pddl,SAT:441.216:98.0:1800.0:-1
ipc-2014-optimal-floortile-p02-5-5-2.pddl,TIMEOUT:1801.0:-1.0:1800.0:-1
ipc-2014-optimal-floortile-p02-6-4-2.pddl,SAT:1213.42:109.0:1800.0:-1
ipc-2014-optimal-floortile-p02-6-5-2.pddl,TIMEOUT:1801.07:-1.0:1800.0:-1
ipc-2014-optimal-floortile-p03-4-3-2.pddl,SAT:10.0325:56.0:1800.0:-1
ipc-2014-optimal-floortile-p03-4-4-2.pddl,SAT:84.1022:72.0:1800.0:-1
ipc-2014-optimal-floortile-p03-5-3-2.pddl,SAT:23.4854:65.0:1800.0:-1
ipc-2014-optimal-floortile-p03-5-4-2.pddl,SAT:381.206:83.0:1800.0:-1
ipc-2014-optimal-floortile-p03-5-5-2.pddl,TIMEOUT:1801.1:-1.0:1800.0:-1
ipc-2014-optimal-floortile-p03-6-4-2.pddl,TIMEOUT:1801.09:-1.0:1800.0:-1
ipc-2014-optimal-floortile-p03-6-5-2.pddl,TIMEOUT:1801.08:-1.0:1800.0:-1
ipc-2014-optimal-ged-d-1-2.pddl,CRASHED:0.05699:1000000000.0:1800.0:-1
ipc-2014-optimal-ged-d-1-3.pddl,CRASHED:0.05299:1000000000.0:1800.0:-1
ipc-2014-optimal-ged-d-1-4.pddl,CRASHED:0.048991:1000000000.0:1800.0:-1
ipc-2014-optimal-ged-d-1-8.pddl,CRASHED:0.063989:1000000000.0:1800.0:-1
ipc-2014-optimal-ged-d-2-1.pddl,CRASHED:0.049991:1000000000.0:1800.0:-1
ipc-2014-optimal-ged-d-2-3.pddl,CRASHED:0.049992:1000000000.0:1800.0:-1
ipc-2014-optimal-ged-d-2-4.pddl,CRASHED:0.055991:1000000000.0:1800.0:-1
ipc-2014-optimal-ged-d-2-8.pddl,CRASHED:0.054991:1000000000.0:1800.0:-1
ipc-2014-optimal-ged-d-3-1.pddl,CRASHED:0.040993:1000000000.0:1800.0:-1
ipc-2014-optimal-ged-d-3-2.pddl,CRASHED:0.050991:1000000000.0:1800.0:-1
ipc-2014-optimal-ged-d-3-4.pddl,CRASHED:0.041993:1000000000.0:1800.0:-1
ipc-2014-optimal-ged-d-4-2.pddl,CRASHED:0.06099:1000000000.0:1800.0:-1
ipc-2014-optimal-ged-d-4-3.pddl,CRASHED:0.048992:1000000000.0:1800.0:-1
ipc-2014-optimal-ged-d-4-8.pddl,CRASHED:0.049991:1000000000.0:1800.0:-1
ipc-2014-optimal-ged-d-7-5.pddl,CRASHED:0.042992:1000000000.0:1800.0:-1
ipc-2014-optimal-ged-d-7-6.pddl,CRASHED:0.052991:1000000000.0:1800.0:-1
ipc-2014-optimal-ged-d-8-1.pddl,CRASHED:0.050991:1000000000.0:1800.0:-1
ipc-2014-optimal-ged-d-8-2.pddl,CRASHED:0.049991:1000000000.0:1800.0:-1
ipc-2014-optimal-ged-d-8-4.pddl,CRASHED:0.044992:1000000000.0:1800.0:-1
ipc-2014-optimal-ged-d-8-9.pddl,CRASHED:0.053991:1000000000.0:1800.0:-1
ipc-2014-optimal-hiking-1-2-3.pddl,SAT:1.9457:11.0:1800.0:-1
ipc-2014-optimal-hiking-1-2-4.pddl,SAT:1.67674:17.0:1800.0:-1
ipc-2014-optimal-hiking-1-2-5.pddl,SAT:3.45347:25.0:1800.0:-1
ipc-2014-optimal-hiking-1-2-7.pddl,SAT:3.58545:38.0:1800.0:-1
ipc-2014-optimal-hiking-1-2-8.pddl,SAT:4.46732:45.0:1800.0:-1
ipc-2014-optimal-hiking-2-2-3.pddl,SAT:2.88456:10.0:1800.0:-1
ipc-2014-optimal-hiking-2-2-4.pddl,SAT:10.5614:16.0:1800.0:-1
ipc-2014-optimal-hiking-2-2-5.pddl,SAT:103.727:22.0:1800.0:-1
ipc-2014-optimal-hiking-2-2-6.pddl,SAT:473.997:30.0:1800.0:-1
ipc-2014-optimal-hiking-2-2-7.pddl,SAT:1792.54:34.0:1800.0:-1
ipc-2014-optimal-hiking-2-2-8.pddl,TIMEOUT:1801.04:-1.0:1800.0:-1
ipc-2014-optimal-hiking-2-3-4.pddl,SAT:39.65:17.0:1800.0:-1
ipc-2014-optimal-hiking-2-3-5.pddl,SAT:611.537:24.0:1800.0:-1
ipc-2014-optimal-hiking-2-3-6.pddl,TIMEOUT:1801.1:-1.0:1800.0:-1
ipc-2014-optimal-hiking-2-3-7.pddl,TIMEOUT:1801.07:-1.0:1800.0:-1
ipc-2014-optimal-hiking-2-4-3.pddl,SAT:6.77197:10.0:1800.0:-1
ipc-2014-optimal-hiking-2-4-4.pddl,SAT:68.9585:17.0:1800.0:-1
ipc-2014-optimal-hiking-2-4-5.pddl,SAT:1480.97:23.0:1800.0:-1
ipc-2014-optimal-hiking-2-4-6.pddl,TIMEOUT:1801.06:-1.0:1800.0:-1
ipc-2014-optimal-hiking-2-4-7.pddl,TIMEOUT:1801.03:-1.0:1800.0:-1
ipc-2014-optimal-maintenance-1.3.010.010.1-001.pddl,CRASHED:0.91486:1000000000.0:1800.0:-1
ipc-2014-optimal-maintenance-1.3.010.010.1-002.pddl,CRASHED:0.899862:1000000000.0:1800.0:-1
ipc-2014-optimal-maintenance-1.3.010.010.2-000.pddl,SAT:0.878865:4.0:1800.0:-1
ipc-2014-optimal-maintenance-1.3.010.010.2-001.pddl,SAT:0.97385:7.0:1800.0:-1
ipc-2014-optimal-maintenance-1.3.010.010.2-002.pddl,SAT:0.880865:6.0:1800.0:-1
ipc-2014-optimal-maintenance-1.3.015.020.1-000.pddl,CRASHED:0.049991:1000000000.0:1800.0:-1
ipc-2014-optimal-maintenance-1.3.015.020.1-001.pddl,CRASHED:0.05299:1000000000.0:1800.0:-1
ipc-2014-optimal-maintenance-1.3.015.020.1-002.pddl,CRASHED:0.049991:1000000000.0:1800.0:-1
ipc-2014-optimal-maintenance-1.3.015.020.2-000.pddl,CRASHED:0.050991:1000000000.0:1800.0:-1
ipc-2014-optimal-maintenance-1.3.015.020.2-001.pddl,CRASHED:0.051991:1000000000.0:1800.0:-1
ipc-2014-optimal-maintenance-1.3.015.020.2-002.pddl,CRASHED:0.049991:1000000000.0:1800.0:-1
ipc-2014-optimal-maintenance-1.3.025.050.1-000.pddl,CRASHED:2.49062:1000000000.0:1800.0:-1
ipc-2014-optimal-maintenance-1.3.025.050.1-001.pddl,CRASHED:2.48262:1000000000.0:1800.0:-1
ipc-2014-optimal-maintenance-1.3.025.050.1-002.pddl,CRASHED:2.49662:1000000000.0:1800.0:-1
ipc-2014-optimal-maintenance-1.3.025.100.1-000.pddl,CRASHED:3.70144:1000000000.0:1800.0:-1
ipc-2014-optimal-maintenance-1.3.025.100.1-001.pddl,CRASHED:4.07938:1000000000.0:1800.0:-1
ipc-2014-optimal-maintenance-1.3.025.100.1-002.pddl,CRASHED:3.59945:1000000000.0:1800.0:-1
ipc-2014-optimal-maintenance-1.3.025.100.2-000.pddl,CRASHED:643.83:1000000000.0:1800.0:-1
ipc-2014-optimal-maintenance-1.3.025.100.2-001.pddl,CRASHED:0.413936:1000000000.0:1800.0:-1
ipc-2014-optimal-maintenance-1.3.025.100.2-002.pddl,CRASHED:0.408937:1000000000.0:1800.0:-1
ipc-2014-optimal-openstacks-p20_1.pddl,SAT:34.9057:3.0:1800.0:-1
ipc-2014-optimal-openstacks-p20_2.pddl,SAT:35.3726:4.0:1800.0:-1
ipc-2014-optimal-openstacks-p20_3.pddl,SAT:36.5604:6.0:1800.0:-1
ipc-2014-optimal-openstacks-p25_1.pddl,SAT:39.0091:4.0:1800.0:-1
ipc-2014-optimal-openstacks-p25_3.pddl,SAT:50.1064:9.0:1800.0:-1
ipc-2014-optimal-openstacks-p30_1.pddl,SAT:45.779:4.0:1800.0:-1
ipc-2014-optimal-openstacks-p30_2.pddl,SAT:48.0517:4.0:1800.0:-1
ipc-2014-optimal-openstacks-p30_3.pddl,SAT:109.782:12.0:1800.0:-1
ipc-2014-optimal-openstacks-p35_1.pddl,SAT:57.8942:4.0:1800.0:-1
ipc-2014-optimal-openstacks-p35_2.pddl,SAT:64.4742:5.0:1800.0:-1
ipc-2014-optimal-openstacks-p35_3.pddl,SAT:1170.69:14.0:1800.0:-1
ipc-2014-optimal-openstacks-p40_1.pddl,SAT:95.9904:3.0:1800.0:-1
ipc-2014-optimal-openstacks-p40_2.pddl,SAT:108.432:4.0:1800.0:-1
ipc-2014-optimal-openstacks-p40_3.pddl,TIMEOUT:1801.06:-1.0:1800.0:-1
ipc-2014-optimal-openstacks-p45_1.pddl,SAT:175.501:4.0:1800.0:-1
ipc-2014-optimal-openstacks-p45_2.pddl,SAT:201.419:5.0:1800.0:-1
ipc-2014-optimal-openstacks-p45_3.pddl,TIMEOUT:1801.07:-1.0:1800.0:-1
ipc-2014-optimal-openstacks-p50_1.pddl,SAT:311.756:4.0:1800.0:-1
ipc-2014-optimal-openstacks-p50_2.pddl,SAT:839.906:5.0:1800.0:-1
ipc-2014-optimal-openstacks-p50_3.pddl,TIMEOUT:1801.09:-1.0:1800.0:-1
ipc-2014-optimal-parking-12_7-01.pddl,CRASHED:1494.36:1000000000.0:1800.0:-1
ipc-2014-optimal-parking-12_7-02.pddl,CRASHED:1733.89:1000000000.0:1800.0:-1
ipc-2014-optimal-parking-12_7-03.pddl,CRASHED:1444.28:1000000000.0:1800.0:-1
ipc-2014-optimal-parking-12_7-04.pddl,CRASHED:1692.17:1000000000.0:1800.0:-1
ipc-2014-optimal-parking-14_8-01.pddl,TIMEOUT:1801.07:-1.0:1800.0:-1
ipc-2014-optimal-parking-14_8-02.pddl,TIMEOUT:1801.04:-1.0:1800.0:-1
ipc-2014-optimal-parking-14_8-03.pddl,TIMEOUT:1801.1:-1.0:1800.0:-1
ipc-2014-optimal-parking-14_8-04.pddl,TIMEOUT:1801.08:-1.0:1800.0:-1
ipc-2014-optimal-parking-16_9-01.pddl,TIMEOUT:1801.11:-1.0:1800.0:-1
ipc-2014-optimal-parking-16_9-02.pddl,TIMEOUT:1801.1:-1.0:1800.0:-1
ipc-2014-optimal-parking-16_9-03.pddl,TIMEOUT:1801.0:-1.0:1800.0:-1
ipc-2014-optimal-parking-16_9-04.pddl,TIMEOUT:1801.09:-1.0:1800.0:-1
ipc-2014-optimal-parking-18_10-01.pddl,TIMEOUT:1801.12:-1.0:1800.0:-1
ipc-2014-optimal-parking-18_10-02.pddl,TIMEOUT:1801.04:-1.0:1800.0:-1
ipc-2014-optimal-parking-18_10-03.pddl,TIMEOUT:1801.06:-1.0:1800.0:-1
ipc-2014-optimal-parking-18_10-04.pddl,TIMEOUT:1801.03:-1.0:1800.0:-1
ipc-2014-optimal-parking-20_11-01.pddl,TIMEOUT:1801.06:-1.0:1800.0:-1
ipc-2014-optimal-parking-20_11-02.pddl,TIMEOUT:1801.1:-1.0:1800.0:-1
ipc-2014-optimal-parking-20_11-03.pddl,TIMEOUT:1801.08:-1.0:1800.0:-1
ipc-2014-optimal-parking-20_11-04.pddl,TIMEOUT:1801.01:-1.0:1800.0:-1
ipc-2014-optimal-tetris-01-10.pddl,TIMEOUT:1801.09:-1.0:1800.0:-1
ipc-2014-optimal-tetris-01-04.pddl,CRASHED:486.157:1000000000.0:1800.0:-1
ipc-2014-optimal-tetris-01-06.pddl,TIMEOUT:1801.02:-1.0:1800.0:-1
ipc-2014-optimal-tetris-01-08.pddl,CRASHED:103.94:1000000000.0:1800.0:-1
ipc-2014-optimal-tetris-02-10.pddl,TIMEOUT:1801.1:-1.0:1800.0:-1
ipc-2014-optimal-tetris-02-04.pddl,SAT:37.8063:10.0:1800.0:-1
ipc-2014-optimal-tetris-02-06.pddl,TIMEOUT:1801.1:-1.0:1800.0:-1
ipc-2014-optimal-tetris-02-08.pddl,CRASHED:150.07:1000000000.0:1800.0:-1
ipc-2014-optimal-tetris-03-10.pddl,CRASHED:88.66:1000000000.0:1800.0:-1
ipc-2014-optimal-tetris-03-04.pddl,SAT:52.748:11.0:1800.0:-1
ipc-2014-optimal-tetris-03-06.pddl,TIMEOUT:1801.04:-1.0:1800.0:-1
ipc-2014-optimal-tetris-03-08.pddl,CRASHED:82.02:1000000000.0:1800.0:-1
ipc-2014-optimal-tetris-04-10.pddl,CRASHED:83.49:1000000000.0:1800.0:-1
ipc-2014-optimal-tetris-04-04.pddl,CRASHED:448.027:1000000000.0:1800.0:-1
ipc-2014-optimal-tetris-04-06.pddl,TIMEOUT:1801.1:-1.0:1800.0:-1
ipc-2014-optimal-tetris-04-08.pddl,CRASHED:72.34:1000000000.0:1800.0:-1
ipc-2014-optimal-tetris-05-10.pddl,CRASHED:96.37:1000000000.0:1800.0:-1
ipc-2014-optimal-tetris-05-04.pddl,CRASHED:432.053:1000000000.0:1800.0:-1
ipc-2014-optimal-tetris-05-06.pddl,SAT:318.696:19.0:1800.0:-1
ipc-2014-optimal-tetris-05-08.pddl,CRASHED:73.59:1000000000.0:1800.0:-1
ipc-2014-optimal-tidybot-01.pddl,TIMEOUT:1801.07:-1.0:1800.0:-1
ipc-2014-optimal-tidybot-02.pddl,SAT:1403.19:35.0:1800.0:-1
ipc-2014-optimal-tidybot-03.pddl,TIMEOUT:1801.08:-1.0:1800.0:-1
ipc-2014-optimal-tidybot-04.pddl,SAT:1141.46:24.0:1800.0:-1
ipc-2014-optimal-tidybot-05.pddl,TIMEOUT:1801.07:-1.0:1800.0:-1
ipc-2014-optimal-tidybot-06.pddl,CRASHED:1721.76:1000000000.0:1800.0:-1
ipc-2014-optimal-tidybot-07.pddl,TIMEOUT:1801.08:-1.0:1800.0:-1
ipc-2014-optimal-tidybot-08.pddl,TIMEOUT:1801.06:-1.0:1800.0:-1
ipc-2014-optimal-tidybot-09.pddl,TIMEOUT:1801.02:-1.0:1800.0:-1
ipc-2014-optimal-tidybot-10.pddl,TIMEOUT:1801.04:-1.0:1800.0:-1
ipc-2014-optimal-tidybot-11.pddl,SAT:1021.72:29.0:1800.0:-1
ipc-2014-optimal-tidybot-12.pddl,TIMEOUT:1801.07:-1.0:1800.0:-1
ipc-2014-optimal-tidybot-13.pddl,TIMEOUT:1801.11:-1.0:1800.0:-1
ipc-2014-optimal-tidybot-14.pddl,TIMEOUT:1801.02:-1.0:1800.0:-1
ipc-2014-optimal-tidybot-15.pddl,TIMEOUT:1801.05:-1.0:1800.0:-1
ipc-2014-optimal-tidybot-16.pddl,TIMEOUT:1801.07:-1.0:1800.0:-1
ipc-2014-optimal-tidybot-17.pddl,TIMEOUT:1801.02:-1.0:1800.0:-1
ipc-2014-optimal-tidybot-18.pddl,TIMEOUT:1801.05:-1.0:1800.0:-1
ipc-2014-optimal-tidybot-19.pddl,TIMEOUT:1801.02:-1.0:1800.0:-1
ipc-2014-optimal-tidybot-20.pddl,TIMEOUT:1801.06:-1.0:1800.0:-1
ipc-2014-optimal-transport-01.pddl,SAT:2.12868:148.0:1800.0:-1
ipc-2014-optimal-transport-02.pddl,SAT:13.7389:191.0:1800.0:-1
ipc-2014-optimal-transport-03.pddl,SAT:48.0017:300.0:1800.0:-1
ipc-2014-optimal-transport-04.pddl,TIMEOUT:1801.06:-1.0:1800.0:-1
ipc-2014-optimal-transport-05.pddl,TIMEOUT:1801.04:-1.0:1800.0:-1
ipc-2014-optimal-transport-06.pddl,TIMEOUT:1801.02:-1.0:1800.0:-1
ipc-2014-optimal-transport-07.pddl,SAT:31.9251:967.0:1800.0:-1
ipc-2014-optimal-transport-08.pddl,TIMEOUT:1801.03:-1.0:1800.0:-1
ipc-2014-optimal-transport-09.pddl,TIMEOUT:1801.03:-1.0:1800.0:-1
ipc-2014-optimal-transport-10.pddl,TIMEOUT:1801.06:-1.0:1800.0:-1
ipc-2014-optimal-transport-11.pddl,TIMEOUT:1801.02:-1.0:1800.0:-1
ipc-2014-optimal-transport-12.pddl,TIMEOUT:1801.02:-1.0:1800.0:-1
ipc-2014-optimal-transport-13.pddl,SAT:15.8676:594.0:1800.0:-1
ipc-2014-optimal-transport-14.pddl,SAT:335.581:526.0:1800.0:-1
ipc-2014-optimal-transport-15.pddl,TIMEOUT:1801.07:-1.0:1800.0:-1
ipc-2014-optimal-transport-16.pddl,TIMEOUT:1801.0:-1.0:1800.0:-1
ipc-2014-optimal-transport-17.pddl,TIMEOUT:1801.07:-1.0:1800.0:-1
ipc-2014-optimal-transport-18.pddl,TIMEOUT:1801.08:-1.0:1800.0:-1
ipc-2014-optimal-transport-19.pddl,TIMEOUT:1801.05:-1.0:1800.0:-1
ipc-2014-optimal-transport-20.pddl,TIMEOUT:1801.02:-1.0:1800.0:-1
ipc-2014-optimal-visitall-05-10.pddl,CRASHED:721.97:1000000000.0:1800.0:-1
ipc-2014-optimal-visitall-05-05.pddl,SAT:1.69174:21.0:1800.0:-1
ipc-2014-optimal-visitall-05-06.pddl,SAT:2.91855:25.0:1800.0:-1
ipc-2014-optimal-visitall-05-07.pddl,SAT:34.7737:34.0:1800.0:-1
ipc-2014-optimal-visitall-05-08.pddl,CRASHED:816.53:1000000000.0:1800.0:-1
ipc-2014-optimal-visitall-05-09.pddl,CRASHED:720.6:1000000000.0:1800.0:-1
ipc-2014-optimal-visitall-01-10.pddl,CRASHED:455.34:1000000000.0:1800.0:-1
ipc-2014-optimal-visitall-01-11.pddl,CRASHED:749.75:1000000000.0:1800.0:-1
ipc-2014-optimal-visitall-01-12.pddl,CRASHED:959.21:1000000000.0:1800.0:-1
ipc-2014-optimal-visitall-01-13.pddl,CRASHED:965.16:1000000000.0:1800.0:-1
ipc-2014-optimal-visitall-01-14.pddl,CRASHED:1085.95:1000000000.0:1800.0:-1
ipc-2014-optimal-visitall-01-15.pddl,CRASHED:736.69:1000000000.0:1800.0:-1
ipc-2014-optimal-visitall-01-16.pddl,CRASHED:1168.19:1000000000.0:1800.0:-1
ipc-2014-optimal-visitall-01-17.pddl,CRASHED:1249.64:1000000000.0:1800.0:-1
ipc-2014-optimal-visitall-01-18.pddl,CRASHED:958.6:1000000000.0:1800.0:-1
ipc-2014-optimal-visitall-01-05.pddl,SAT:4.5783:24.0:1800.0:-1
ipc-2014-optimal-visitall-01-06.pddl,SAT:576.268:35.0:1800.0:-1
ipc-2014-optimal-visitall-01-07.pddl,CRASHED:845.14:1000000000.0:1800.0:-1
ipc-2014-optimal-visitall-01-08.pddl,CRASHED:636.33:1000000000.0:1800.0:-1
ipc-2014-optimal-visitall-01-09.pddl,CRASHED:653.33:1000000000.0:1800.0:-1
