instance,ipc-2014-agile-mercury
ipc-2014-agile-barman-p1-11-4-15.pddl,SAT:4.50331:233.0:300.0:-1
ipc-2014-agile-barman-p1-11-5-15.pddl,TIMEOUT:301.01:-1.0:300.0:-1
ipc-2014-agile-barman-p1-11-5-16.pddl,SAT:267.147:190.0:300.0:-1
ipc-2014-agile-barman-p2-10-4-13.pddl,SAT:237.301:194.0:300.0:-1
ipc-2014-agile-barman-p2-11-4-15.pddl,TIMEOUT:301.02:-1.0:300.0:-1
ipc-2014-agile-barman-p2-11-5-15.pddl,TIMEOUT:301.09:-1.0:300.0:-1
ipc-2014-agile-barman-p2-11-5-16.pddl,TIMEOUT:301.05:-1.0:300.0:-1
ipc-2014-agile-barman-p2-11-5-17.pddl,TIMEOUT:301.02:-1.0:300.0:-1
ipc-2014-agile-barman-p3-10-4-13.pddl,SAT:136.385:299.0:300.0:-1
ipc-2014-agile-barman-p3-11-4-15.pddl,SAT:254.547:221.0:300.0:-1
ipc-2014-agile-barman-p3-11-5-15.pddl,SAT:6.06508:275.0:300.0:-1
ipc-2014-agile-barman-p3-11-5-16.pddl,TIMEOUT:301.09:-1.0:300.0:-1
ipc-2014-agile-barman-p3-11-5-17.pddl,TIMEOUT:301.04:-1.0:300.0:-1
ipc-2014-agile-barman-p4-11-4-14.pddl,SAT:5.67514:310.0:300.0:-1
ipc-2014-agile-barman-p4-11-4-15.pddl,TIMEOUT:301.06:-1.0:300.0:-1
ipc-2014-agile-barman-p4-11-5-15.pddl,SAT:179.307:291.0:300.0:-1
ipc-2014-agile-barman-p5-10-4-13.pddl,SAT:6.46902:180.0:300.0:-1
ipc-2014-agile-barman-p5-11-4-15.pddl,SAT:4.94425:279.0:300.0:-1
ipc-2014-agile-barman-p5-11-5-15.pddl,SAT:20.5639:297.0:300.0:-1
ipc-2014-agile-barman-p5-11-5-16.pddl,SAT:199.467:235.0:300.0:-1
ipc-2014-agile-cavediving-01_easy.pddl,TIMEOUT:301.1:-1.0:300.0:-1
ipc-2014-agile-cavediving-01.pddl,TIMEOUT:301.0:-1.0:300.0:-1
ipc-2014-agile-cavediving-02_easy.pddl,TIMEOUT:301.04:-1.0:300.0:-1
ipc-2014-agile-cavediving-03_easy.pddl,TIMEOUT:301.08:-1.0:300.0:-1
ipc-2014-agile-cavediving-04_easy.pddl,TIMEOUT:301.06:-1.0:300.0:-1
ipc-2014-agile-cavediving-05A_easy.pddl,SAT:26.9509:94.0:300.0:-1
ipc-2014-agile-cavediving-06A_easy.pddl,SAT:27.0769:95.0:300.0:-1
ipc-2014-agile-cavediving-07_easy.pddl,SAT:43.2134:131.0:300.0:-1
ipc-2014-agile-cavediving-08_easy.pddl,SAT:26.9659:90.0:300.0:-1
ipc-2014-agile-cavediving-09_easy.pddl,TIMEOUT:301.08:-1.0:300.0:-1
ipc-2014-agile-cavediving-10_easy.pddl,TIMEOUT:301.08:-1.0:300.0:-1
ipc-2014-agile-cavediving-11_easy.pddl,TIMEOUT:301.07:-1.0:300.0:-1
ipc-2014-agile-cavediving-12_easy.pddl,TIMEOUT:301.07:-1.0:300.0:-1
ipc-2014-agile-cavediving-13_easy.pddl,TIMEOUT:301.05:-1.0:300.0:-1
ipc-2014-agile-cavediving-14_easy.pddl,TIMEOUT:301.1:-1.0:300.0:-1
ipc-2014-agile-cavediving-15_easy.pddl,TIMEOUT:301.09:-1.0:300.0:-1
ipc-2014-agile-cavediving-16_easy.pddl,TIMEOUT:301.04:-1.0:300.0:-1
ipc-2014-agile-cavediving-18A_easy.pddl,SAT:103.514:131.0:300.0:-1
ipc-2014-agile-cavediving-18_easy.pddl,SAT:223.746:131.0:300.0:-1
ipc-2014-agile-cavediving-20A_easy.pddl,SAT:62.8554:98.0:300.0:-1
ipc-2014-agile-childsnack-05-2.pddl,SAT:40.7058:52.0:300.0:-1
ipc-2014-agile-childsnack-05.pddl,SAT:140.752:53.0:300.0:-1
ipc-2014-agile-childsnack-06-2.pddl,SAT:82.7074:60.0:300.0:-1
ipc-2014-agile-childsnack-07-2.pddl,SAT:221.0:66.0:300.0:-1
ipc-2014-agile-childsnack-08-2.pddl,TIMEOUT:301.0:-1.0:300.0:-1
ipc-2014-agile-childsnack-08.pddl,SAT:132.697:68.0:300.0:-1
ipc-2014-agile-childsnack-09-2.pddl,TIMEOUT:301.01:-1.0:300.0:-1
ipc-2014-agile-childsnack-09.pddl,TIMEOUT:301.05:-1.0:300.0:-1
ipc-2014-agile-childsnack-10-2.pddl,TIMEOUT:301.07:-1.0:300.0:-1
ipc-2014-agile-childsnack-10.pddl,TIMEOUT:301.1:-1.0:300.0:-1
ipc-2014-agile-childsnack-11-2.pddl,TIMEOUT:301.09:-1.0:300.0:-1
ipc-2014-agile-childsnack-11.pddl,TIMEOUT:301.06:-1.0:300.0:-1
ipc-2014-agile-childsnack-12.pddl,TIMEOUT:301.05:-1.0:300.0:-1
ipc-2014-agile-childsnack-13-2.pddl,TIMEOUT:301.01:-1.0:300.0:-1
ipc-2014-agile-childsnack-13.pddl,TIMEOUT:301.01:-1.0:300.0:-1
ipc-2014-agile-childsnack-14.pddl,TIMEOUT:301.06:-1.0:300.0:-1
ipc-2014-agile-childsnack-15-2.pddl,TIMEOUT:301.0:-1.0:300.0:-1
ipc-2014-agile-childsnack-16-2.pddl,TIMEOUT:301.08:-1.0:300.0:-1
ipc-2014-agile-childsnack-19-2.pddl,CRASHED:239.07:1000000000.0:300.0:-1
ipc-2014-agile-childsnack-19.pddl,CRASHED:235.18:1000000000.0:300.0:-1
ipc-2014-agile-citycar-p3-2-2-0-1.pddl,SAT:4.26335:201.0:300.0:-1
ipc-2014-agile-citycar-p3-3-2-0-1.pddl,SAT:25.1062:384.0:300.0:-1
ipc-2014-agile-citycar-p3-4-2-0-1.pddl,SAT:37.9372:231.0:300.0:-1
ipc-2014-agile-citycar-p3-5-2-0-1.pddl,SAT:71.9951:279.0:300.0:-1
ipc-2014-agile-citycar-p3-5-2-0-2.pddl,SAT:231.012:199.0:300.0:-1
ipc-2014-agile-citycar-p4-2-2-0-1.pddl,TIMEOUT:301.08:-1.0:300.0:-1
ipc-2014-agile-citycar-p4-2-3-0-1.pddl,TIMEOUT:301.07:-1.0:300.0:-1
ipc-2014-agile-citycar-p4-2-3-0-2.pddl,TIMEOUT:301.03:-1.0:300.0:-1
ipc-2014-agile-citycar-p4-3-2-0-1.pddl,TIMEOUT:301.06:-1.0:300.0:-1
ipc-2014-agile-citycar-p4-3-2-0-2.pddl,TIMEOUT:301.08:-1.0:300.0:-1
ipc-2014-agile-citycar-p4-3-3-0-1.pddl,TIMEOUT:301.07:-1.0:300.0:-1
ipc-2014-agile-citycar-p4-3-3-0-2.pddl,TIMEOUT:301.07:-1.0:300.0:-1
ipc-2014-agile-citycar-p4-4-2-0-1.pddl,TIMEOUT:301.05:-1.0:300.0:-1
ipc-2014-agile-citycar-p4-4-2-0-2.pddl,TIMEOUT:301.06:-1.0:300.0:-1
ipc-2014-agile-citycar-p4-4-3-0-1.pddl,TIMEOUT:301.01:-1.0:300.0:-1
ipc-2014-agile-citycar-p4-4-3-0-2.pddl,TIMEOUT:301.06:-1.0:300.0:-1
ipc-2014-agile-citycar-p4-5-2-0-1.pddl,TIMEOUT:301.01:-1.0:300.0:-1
ipc-2014-agile-citycar-p4-5-2-0-2.pddl,TIMEOUT:301.01:-1.0:300.0:-1
ipc-2014-agile-citycar-p4-5-3-0-1.pddl,TIMEOUT:301.02:-1.0:300.0:-1
ipc-2014-agile-citycar-p4-5-3-0-2.pddl,TIMEOUT:301.05:-1.0:300.0:-1
ipc-2014-agile-floortile-p01-4-3-2.pddl,SAT:7.12992:94.0:300.0:-1
ipc-2014-agile-floortile-p01-5-4-2.pddl,TIMEOUT:301.02:-1.0:300.0:-1
ipc-2014-agile-floortile-p01-5-5-2.pddl,TIMEOUT:301.04:-1.0:300.0:-1
ipc-2014-agile-floortile-p01-6-4-2.pddl,TIMEOUT:301.05:-1.0:300.0:-1
ipc-2014-agile-floortile-p01-6-5-2.pddl,TIMEOUT:301.03:-1.0:300.0:-1
ipc-2014-agile-floortile-p01-6-5-3.pddl,TIMEOUT:301.09:-1.0:300.0:-1
ipc-2014-agile-floortile-p02-5-4-2.pddl,TIMEOUT:301.04:-1.0:300.0:-1
ipc-2014-agile-floortile-p02-6-4-2.pddl,TIMEOUT:301.09:-1.0:300.0:-1
ipc-2014-agile-floortile-p02-6-5-2.pddl,TIMEOUT:301.08:-1.0:300.0:-1
ipc-2014-agile-floortile-p02-6-5-3.pddl,TIMEOUT:301.08:-1.0:300.0:-1
ipc-2014-agile-floortile-p03-6-4-2.pddl,TIMEOUT:301.05:-1.0:300.0:-1
ipc-2014-agile-floortile-p03-6-5-2.pddl,TIMEOUT:301.03:-1.0:300.0:-1
ipc-2014-agile-floortile-p03-6-5-3.pddl,TIMEOUT:301.07:-1.0:300.0:-1
ipc-2014-agile-floortile-p04-5-4-2.pddl,TIMEOUT:301.08:-1.0:300.0:-1
ipc-2014-agile-floortile-p04-5-5-2.pddl,TIMEOUT:301.1:-1.0:300.0:-1
ipc-2014-agile-floortile-p04-6-5-2.pddl,TIMEOUT:301.04:-1.0:300.0:-1
ipc-2014-agile-floortile-p04-6-5-3.pddl,TIMEOUT:301.03:-1.0:300.0:-1
ipc-2014-agile-floortile-p05-4-3-2.pddl,SAT:1.04084:93.0:300.0:-1
ipc-2014-agile-floortile-p05-6-5-2.pddl,TIMEOUT:301.06:-1.0:300.0:-1
ipc-2014-agile-floortile-p05-6-5-3.pddl,TIMEOUT:301.04:-1.0:300.0:-1
ipc-2014-agile-ged-d-10-1.pddl,SAT:5.12222:24.0:300.0:-1
ipc-2014-agile-ged-d-10-2.pddl,SAT:5.15321:25.0:300.0:-1
ipc-2014-agile-ged-d-10-3.pddl,SAT:5.57815:31.0:300.0:-1
ipc-2014-agile-ged-d-10-4.pddl,SAT:5.11022:24.0:300.0:-1
ipc-2014-agile-ged-d-10-5.pddl,SAT:7.34888:33.0:300.0:-1
ipc-2014-agile-ged-d-10-6.pddl,SAT:7.07092:34.0:300.0:-1
ipc-2014-agile-ged-d-11-1.pddl,SAT:5.52016:27.0:300.0:-1
ipc-2014-agile-ged-d-11-3.pddl,SAT:5.61115:28.0:300.0:-1
ipc-2014-agile-ged-d-11-5.pddl,SAT:6.561:30.0:300.0:-1
ipc-2014-agile-ged-d-11-6.pddl,SAT:6.27105:37.0:300.0:-1
ipc-2014-agile-ged-d-12-11.pddl,SAT:6.00209:27.0:300.0:-1
ipc-2014-agile-ged-d-12-2.pddl,SAT:8.95064:40.0:300.0:-1
ipc-2014-agile-ged-d-12-3.pddl,SAT:14.8247:61.0:300.0:-1
ipc-2014-agile-ged-d-12-5.pddl,SAT:12.3881:60.0:300.0:-1
ipc-2014-agile-ged-d-12-6.pddl,SAT:9.95949:39.0:300.0:-1
ipc-2014-agile-ged-d-12-7.pddl,SAT:10.8593:44.0:300.0:-1
ipc-2014-agile-ged-d-12-8.pddl,SAT:19.457:71.0:300.0:-1
ipc-2014-agile-ged-d-12-9.pddl,SAT:15.8506:70.0:300.0:-1
ipc-2014-agile-ged-d-3-6.pddl,SAT:5.73313:29.0:300.0:-1
ipc-2014-agile-ged-d-9-5.pddl,SAT:6.31004:26.0:300.0:-1
ipc-2014-agile-hiking-3-4-3.pddl,SAT:2.43563:13.0:300.0:-1
ipc-2014-agile-hiking-3-4-4.pddl,SAT:3.42748:24.0:300.0:-1
ipc-2014-agile-hiking-3-4-5.pddl,TIMEOUT:301.06:-1.0:300.0:-1
ipc-2014-agile-hiking-3-4-6.pddl,TIMEOUT:301.02:-1.0:300.0:-1
ipc-2014-agile-hiking-3-4-7.pddl,TIMEOUT:301.02:-1.0:300.0:-1
ipc-2014-agile-hiking-3-4-8.pddl,TIMEOUT:301.06:-1.0:300.0:-1
ipc-2014-agile-hiking-3-4-9.pddl,TIMEOUT:301.06:-1.0:300.0:-1
ipc-2014-agile-hiking-4-5-3.pddl,SAT:3.9144:15.0:300.0:-1
ipc-2014-agile-hiking-4-5-4.pddl,SAT:6.23605:22.0:300.0:-1
ipc-2014-agile-hiking-4-5-5.pddl,SAT:9.99448:32.0:300.0:-1
ipc-2014-agile-hiking-4-5-6.pddl,TIMEOUT:301.08:-1.0:300.0:-1
ipc-2014-agile-hiking-4-5-7.pddl,TIMEOUT:301.09:-1.0:300.0:-1
ipc-2014-agile-hiking-4-5-8.pddl,TIMEOUT:301.05:-1.0:300.0:-1
ipc-2014-agile-hiking-4-5-9.pddl,TIMEOUT:301.04:-1.0:300.0:-1
ipc-2014-agile-hiking-5-6-3.pddl,SAT:7.02993:18.0:300.0:-1
ipc-2014-agile-hiking-5-6-4.pddl,SAT:13.133:27.0:300.0:-1
ipc-2014-agile-hiking-5-6-5.pddl,SAT:27.2249:34.0:300.0:-1
ipc-2014-agile-hiking-5-6-6.pddl,TIMEOUT:301.09:-1.0:300.0:-1
ipc-2014-agile-hiking-5-6-7.pddl,TIMEOUT:301.0:-1.0:300.0:-1
ipc-2014-agile-hiking-5-6-8.pddl,TIMEOUT:301.0:-1.0:300.0:-1
ipc-2014-agile-maintenance-1.3.060.180.5-000.pddl,TIMEOUT:301.1:-1.0:300.0:-1
ipc-2014-agile-maintenance-1.3.060.180.5-001.pddl,TIMEOUT:301.06:-1.0:300.0:-1
ipc-2014-agile-maintenance-1.3.060.180.5-002.pddl,TIMEOUT:301.02:-1.0:300.0:-1
ipc-2014-agile-maintenance-1.3.100.300.5-000.pddl,TIMEOUT:301.02:-1.0:300.0:-1
ipc-2014-agile-maintenance-1.3.100.300.5-001.pddl,TIMEOUT:301.02:-1.0:300.0:-1
ipc-2014-agile-maintenance-1.3.100.300.7-000.pddl,SAT:1.68074:82.0:300.0:-1
ipc-2014-agile-maintenance-1.3.100.300.7-001.pddl,SAT:1.68474:77.0:300.0:-1
ipc-2014-agile-maintenance-1.3.100.300.7-002.pddl,SAT:1.67674:74.0:300.0:-1
ipc-2014-agile-maintenance-1.3.150.500.6-001.pddl,SAT:2.49162:133.0:300.0:-1
ipc-2014-agile-maintenance-1.3.200.500.5-001.pddl,TIMEOUT:301.02:-1.0:300.0:-1
ipc-2014-agile-maintenance-1.3.200.500.5-002.pddl,TIMEOUT:301.05:-1.0:300.0:-1
ipc-2014-agile-maintenance-1.3.200.700.7-000.pddl,SAT:3.9614:173.0:300.0:-1
ipc-2014-agile-maintenance-1.3.200.700.7-001.pddl,SAT:4.01639:168.0:300.0:-1
ipc-2014-agile-maintenance-1.3.200.700.7-002.pddl,SAT:3.88941:169.0:300.0:-1
ipc-2014-agile-maintenance-1.3.200.900.5-000.pddl,TIMEOUT:301.1:-1.0:300.0:-1
ipc-2014-agile-maintenance-1.3.200.900.5-001.pddl,TIMEOUT:301.01:-1.0:300.0:-1
ipc-2014-agile-maintenance-1.3.200.900.5-002.pddl,TIMEOUT:301.03:-1.0:300.0:-1
ipc-2014-agile-maintenance-1.3.200.900.8-000.pddl,SAT:5.70313:166.0:300.0:-1
ipc-2014-agile-maintenance-1.3.200.900.8-001.pddl,SAT:5.9271:160.0:300.0:-1
ipc-2014-agile-maintenance-1.3.200.900.8-002.pddl,SAT:5.77912:168.0:300.0:-1
ipc-2014-agile-openstacks-p130_2.pddl,SAT:24.8692:50.0:300.0:-1
ipc-2014-agile-openstacks-p130_3.pddl,SAT:50.9433:104.0:300.0:-1
ipc-2014-agile-openstacks-p150_2.pddl,SAT:40.6178:54.0:300.0:-1
ipc-2014-agile-openstacks-p150_3.pddl,SAT:93.1448:128.0:300.0:-1
ipc-2014-agile-openstacks-p170_1.pddl,SAT:61.6906:55.0:300.0:-1
ipc-2014-agile-openstacks-p170_2.pddl,SAT:78.822:80.0:300.0:-1
ipc-2014-agile-openstacks-p170_3.pddl,SAT:142.001:141.0:300.0:-1
ipc-2014-agile-openstacks-p190_1.pddl,SAT:89.5844:76.0:300.0:-1
ipc-2014-agile-openstacks-p190_2.pddl,SAT:104.92:94.0:300.0:-1
ipc-2014-agile-openstacks-p190_3.pddl,SAT:226.13:164.0:300.0:-1
ipc-2014-agile-openstacks-p210_1.pddl,SAT:186.075:89.0:300.0:-1
ipc-2014-agile-openstacks-p210_2.pddl,SAT:155.301:102.0:300.0:-1
ipc-2014-agile-openstacks-p230_1.pddl,SAT:199.152:79.0:300.0:-1
ipc-2014-agile-openstacks-p230_2.pddl,SAT:273.325:112.0:300.0:-1
ipc-2014-agile-openstacks-p250_1.pddl,SAT:287.263:117.0:300.0:-1
ipc-2014-agile-openstacks-p250_2.pddl,TIMEOUT:301.02:-1.0:300.0:-1
ipc-2014-agile-openstacks-p270_1.pddl,TIMEOUT:301.09:-1.0:300.0:-1
ipc-2014-agile-openstacks-p270_2.pddl,TIMEOUT:301.09:-1.0:300.0:-1
ipc-2014-agile-openstacks-p290_1.pddl,TIMEOUT:301.06:-1.0:300.0:-1
ipc-2014-agile-openstacks-p290_2.pddl,TIMEOUT:301.07:-1.0:300.0:-1
ipc-2014-agile-parking-28_2.pddl,SAT:107.331:135.0:300.0:-1
ipc-2014-agile-parking-28_3.pddl,SAT:127.514:109.0:300.0:-1
ipc-2014-agile-parking-30_1.pddl,SAT:298.277:109.0:300.0:-1
ipc-2014-agile-parking-30_2.pddl,SAT:144.386:73.0:300.0:-1
ipc-2014-agile-parking-30_3.pddl,TIMEOUT:301.05:-1.0:300.0:-1
ipc-2014-agile-parking-32_1.pddl,TIMEOUT:301.04:-1.0:300.0:-1
ipc-2014-agile-parking-32_2.pddl,TIMEOUT:301.03:-1.0:300.0:-1
ipc-2014-agile-parking-32_3.pddl,TIMEOUT:301.08:-1.0:300.0:-1
ipc-2014-agile-parking-34_1.pddl,TIMEOUT:301.05:-1.0:300.0:-1
ipc-2014-agile-parking-34_2.pddl,TIMEOUT:301.07:-1.0:300.0:-1
ipc-2014-agile-parking-34_3.pddl,TIMEOUT:301.01:-1.0:300.0:-1
ipc-2014-agile-parking-36_1.pddl,SAT:187.084:116.0:300.0:-1
ipc-2014-agile-parking-36_2.pddl,TIMEOUT:301.09:-1.0:300.0:-1
ipc-2014-agile-parking-36_3.pddl,TIMEOUT:301.01:-1.0:300.0:-1
ipc-2014-agile-parking-38_1.pddl,TIMEOUT:301.0:-1.0:300.0:-1
ipc-2014-agile-parking-38_2.pddl,TIMEOUT:301.08:-1.0:300.0:-1
ipc-2014-agile-parking-38_3.pddl,TIMEOUT:301.05:-1.0:300.0:-1
ipc-2014-agile-parking-40_1.pddl,TIMEOUT:301.06:-1.0:300.0:-1
ipc-2014-agile-parking-40_2.pddl,TIMEOUT:301.05:-1.0:300.0:-1
ipc-2014-agile-parking-40_3.pddl,TIMEOUT:301.09:-1.0:300.0:-1
ipc-2014-agile-tetris-020.pddl,SAT:5.95609:60.0:300.0:-1
ipc-2014-agile-tetris-021.pddl,SAT:116.087:110.0:300.0:-1
ipc-2014-agile-tetris-022.pddl,SAT:236.201:184.0:300.0:-1
ipc-2014-agile-tetris-023.pddl,SAT:284.87:116.0:300.0:-1
ipc-2014-agile-tetris-024.pddl,TIMEOUT:301.03:-1.0:300.0:-1
ipc-2014-agile-tetris-025.pddl,SAT:46.3999:96.0:300.0:-1
ipc-2014-agile-tetris-026.pddl,TIMEOUT:301.04:-1.0:300.0:-1
ipc-2014-agile-tetris-027.pddl,TIMEOUT:301.11:-1.0:300.0:-1
ipc-2014-agile-tetris-028.pddl,TIMEOUT:301.04:-1.0:300.0:-1
ipc-2014-agile-tetris-029.pddl,TIMEOUT:301.07:-1.0:300.0:-1
ipc-2014-agile-tetris-031.pddl,TIMEOUT:301.06:-1.0:300.0:-1
ipc-2014-agile-tetris-032.pddl,TIMEOUT:301.11:-1.0:300.0:-1
ipc-2014-agile-tetris-033.pddl,TIMEOUT:301.0:-1.0:300.0:-1
ipc-2014-agile-tetris-034.pddl,SAT:167.512:205.0:300.0:-1
ipc-2014-agile-tetris-035.pddl,TIMEOUT:301.01:-1.0:300.0:-1
ipc-2014-agile-tetris-036.pddl,SAT:115.026:129.0:300.0:-1
ipc-2014-agile-tetris-037.pddl,TIMEOUT:301.05:-1.0:300.0:-1
ipc-2014-agile-tetris-038.pddl,TIMEOUT:301.06:-1.0:300.0:-1
ipc-2014-agile-tetris-039.pddl,TIMEOUT:301.09:-1.0:300.0:-1
ipc-2014-agile-tetris-040.pddl,TIMEOUT:301.09:-1.0:300.0:-1
ipc-2014-agile-thoughtful-bootstrap-typed-01.pddl,CRASHED:0.58791:1000000000.0:300.0:-1
ipc-2014-agile-thoughtful-bootstrap-typed-02.pddl,CRASHED:0.574912:1000000000.0:300.0:-1
ipc-2014-agile-thoughtful-bootstrap-typed-03.pddl,CRASHED:0.568913:1000000000.0:300.0:-1
ipc-2014-agile-thoughtful-bootstrap-typed-04.pddl,CRASHED:0.634903:1000000000.0:300.0:-1
ipc-2014-agile-thoughtful-bootstrap-typed-05.pddl,CRASHED:0.614906:1000000000.0:300.0:-1
ipc-2014-agile-thoughtful-p11_6_53-typed.pddl,CRASHED:0.657899:1000000000.0:300.0:-1
ipc-2014-agile-thoughtful-p11_6_59-typed.pddl,CRASHED:0.655899:1000000000.0:300.0:-1
ipc-2014-agile-thoughtful-p11_6_62-typed.pddl,CRASHED:0.669898:1000000000.0:300.0:-1
ipc-2014-agile-thoughtful-p13_7_78-typed.pddl,CRASHED:0.6489:1000000000.0:300.0:-1
ipc-2014-agile-thoughtful-p13_7_79-typed.pddl,CRASHED:0.682895:1000000000.0:300.0:-1
ipc-2014-agile-thoughtful-p13_7_86-typed.pddl,CRASHED:0.680896:1000000000.0:300.0:-1
ipc-2014-agile-thoughtful-target-typed-20.pddl,CRASHED:0.674897:1000000000.0:300.0:-1
ipc-2014-agile-thoughtful-target-typed-21.pddl,CRASHED:0.658899:1000000000.0:300.0:-1
ipc-2014-agile-thoughtful-target-typed-22.pddl,CRASHED:0.673896:1000000000.0:300.0:-1
ipc-2014-agile-thoughtful-target-typed-23.pddl,CRASHED:0.6519:1000000000.0:300.0:-1
ipc-2014-agile-thoughtful-target-typed-24.pddl,CRASHED:0.667898:1000000000.0:300.0:-1
ipc-2014-agile-thoughtful-target-typed-25.pddl,CRASHED:0.6539:1000000000.0:300.0:-1
ipc-2014-agile-thoughtful-target-typed-26.pddl,CRASHED:0.667898:1000000000.0:300.0:-1
ipc-2014-agile-thoughtful-target-typed-27.pddl,CRASHED:0.6549:1000000000.0:300.0:-1
ipc-2014-agile-thoughtful-target-typed-28.pddl,CRASHED:0.670897:1000000000.0:300.0:-1
ipc-2014-agile-transport-01.pddl,SAT:9.32658:1474.0:300.0:-1
ipc-2014-agile-transport-02.pddl,SAT:11.6422:2528.0:300.0:-1
ipc-2014-agile-transport-03.pddl,SAT:9.77551:1885.0:300.0:-1
ipc-2014-agile-transport-04.pddl,SAT:29.2526:6061.0:300.0:-1
ipc-2014-agile-transport-05.pddl,SAT:35.2236:9166.0:300.0:-1
ipc-2014-agile-transport-06.pddl,SAT:28.9636:6061.0:300.0:-1
ipc-2014-agile-transport-07.pddl,SAT:51.1352:5686.0:300.0:-1
ipc-2014-agile-transport-08.pddl,SAT:62.5845:4725.0:300.0:-1
ipc-2014-agile-transport-09.pddl,SAT:51.6681:5686.0:300.0:-1
ipc-2014-agile-transport-10.pddl,SAT:47.1828:5638.0:300.0:-1
ipc-2014-agile-transport-11.pddl,SAT:12.7471:1687.0:300.0:-1
ipc-2014-agile-transport-12.pddl,SAT:13.115:1868.0:300.0:-1
ipc-2014-agile-transport-13.pddl,SAT:8.86165:1691.0:300.0:-1
ipc-2014-agile-transport-14.pddl,SAT:29.2366:6850.0:300.0:-1
ipc-2014-agile-transport-15.pddl,SAT:30.1984:6947.0:300.0:-1
ipc-2014-agile-transport-16.pddl,SAT:19.1261:5952.0:300.0:-1
ipc-2014-agile-transport-17.pddl,SAT:50.4733:5963.0:300.0:-1
ipc-2014-agile-transport-18.pddl,SAT:55.5426:5825.0:300.0:-1
ipc-2014-agile-transport-19.pddl,SAT:33.5079:4418.0:300.0:-1
ipc-2014-agile-transport-20.pddl,SAT:58.0072:6118.0:300.0:-1
ipc-2014-agile-visitall-30.pddl,SAT:8.57969:909.0:300.0:-1
ipc-2014-agile-visitall-31.pddl,SAT:9.98348:980.0:300.0:-1
ipc-2014-agile-visitall-32.pddl,SAT:11.5442:1033.0:300.0:-1
ipc-2014-agile-visitall-33.pddl,SAT:13.5939:1118.0:300.0:-1
ipc-2014-agile-visitall-50.pddl,SAT:133.71:2509.0:300.0:-1
ipc-2014-agile-visitall-51.pddl,SAT:150.194:2620.0:300.0:-1
ipc-2014-agile-visitall-52.pddl,SAT:168.567:2713.0:300.0:-1
ipc-2014-agile-visitall-53.pddl,SAT:188.043:2858.0:300.0:-1
ipc-2014-agile-visitall-54.pddl,SAT:210.128:2925.0:300.0:-1
ipc-2014-agile-visitall-55.pddl,SAT:233.938:3044.0:300.0:-1
ipc-2014-agile-visitall-56.pddl,SAT:260.567:3145.0:300.0:-1
ipc-2014-agile-visitall-57.pddl,SAT:288.719:3302.0:300.0:-1
ipc-2014-agile-visitall-58.pddl,TIMEOUT:301.09:-1.0:300.0:-1
ipc-2014-agile-visitall-59.pddl,TIMEOUT:301.09:-1.0:300.0:-1
ipc-2014-agile-visitall-60.pddl,TIMEOUT:301.06:-1.0:300.0:-1
ipc-2014-agile-visitall-61.pddl,TIMEOUT:301.03:-1.0:300.0:-1
ipc-2014-agile-visitall-62.pddl,TIMEOUT:301.02:-1.0:300.0:-1
ipc-2014-agile-visitall-63.pddl,TIMEOUT:301.03:-1.0:300.0:-1
ipc-2014-agile-visitall-64.pddl,TIMEOUT:301.1:-1.0:300.0:-1
ipc-2014-agile-visitall-65.pddl,TIMEOUT:301.07:-1.0:300.0:-1
