instance,ipc-2014-optimal-miplan
ipc-2014-optimal-barman-p433.1.pddl,CRASHED:4.03139:1000000000.0:1800.0:-1
ipc-2014-optimal-barman-p433.2.pddl,CRASHED:4.03039:1000000000.0:1800.0:-1
ipc-2014-optimal-barman-p433.3.pddl,CRASHED:2.48962:1000000000.0:1800.0:-1
ipc-2014-optimal-barman-p435.1.pddl,CRASHED:1781.22:1000000000.0:1800.0:-1
ipc-2014-optimal-barman-p435.2.pddl,CRASHED:1782.71:1000000000.0:1800.0:-1
ipc-2014-optimal-barman-p435.3.pddl,CRASHED:1780.88:1000000000.0:1800.0:-1
ipc-2014-optimal-barman-p443.1.pddl,CRASHED:3.50047:1000000000.0:1800.0:-1
ipc-2014-optimal-barman-p443.2.pddl,CRASHED:3.67044:1000000000.0:1800.0:-1
ipc-2014-optimal-barman-p443.3.pddl,CRASHED:3.58245:1000000000.0:1800.0:-1
ipc-2014-optimal-barman-p536.1.pddl,CRASHED:1783.14:1000000000.0:1800.0:-1
ipc-2014-optimal-barman-p536.2.pddl,CRASHED:1247.46:1000000000.0:1800.0:-1
ipc-2014-optimal-barman-p536.3.pddl,CRASHED:1437.04:1000000000.0:1800.0:-1
ipc-2014-optimal-barman-p638.1.pddl,CRASHED:1781.69:1000000000.0:1800.0:-1
ipc-2014-optimal-barman-p638.2.pddl,CRASHED:1781.19:1000000000.0:1800.0:-1
ipc-2014-optimal-barman-p638.3.pddl,CRASHED:1776.05:1000000000.0:1800.0:-1
ipc-2014-optimal-barman-p739.1.pddl,CRASHED:1788.07:1000000000.0:1800.0:-1
ipc-2014-optimal-barman-p739.2.pddl,CRASHED:1782.74:1000000000.0:1800.0:-1
ipc-2014-optimal-barman-p739.3.pddl,CRASHED:1243.62:1000000000.0:1800.0:-1
ipc-2014-optimal-barman-p839.1.pddl,CRASHED:1783.18:1000000000.0:1800.0:-1
ipc-2014-optimal-barman-p839.2.pddl,CRASHED:1782.31:1000000000.0:1800.0:-1
ipc-2014-optimal-cavediving-01.pddl,CRASHED:153.787:1000000000.0:1800.0:-1
ipc-2014-optimal-cavediving-01_easy.pddl,CRASHED:142.467:1000000000.0:1800.0:-1
ipc-2014-optimal-cavediving-02_easy.pddl,CRASHED:142.668:1000000000.0:1800.0:-1
ipc-2014-optimal-cavediving-03_easy.pddl,CRASHED:140.3:1000000000.0:1800.0:-1
ipc-2014-optimal-cavediving-04_easy.pddl,CRASHED:166.042:1000000000.0:1800.0:-1
ipc-2014-optimal-cavediving-05A_easy.pddl,SAT:24.4183:94.0:1800.0:-1
ipc-2014-optimal-cavediving-06A_easy.pddl,SAT:24.4123:95.0:1800.0:-1
ipc-2014-optimal-cavediving-07_easy.pddl,SAT:40.5428:131.0:1800.0:-1
ipc-2014-optimal-cavediving-08_easy.pddl,SAT:24.7622:90.0:1800.0:-1
ipc-2014-optimal-cavediving-09_easy.pddl,CRASHED:284.161:1000000000.0:1800.0:-1
ipc-2014-optimal-cavediving-10_easy.pddl,CRASHED:288.442:1000000000.0:1800.0:-1
ipc-2014-optimal-cavediving-11_easy.pddl,CRASHED:289.421:1000000000.0:1800.0:-1
ipc-2014-optimal-cavediving-12_easy.pddl,CRASHED:290.229:1000000000.0:1800.0:-1
ipc-2014-optimal-cavediving-13_easy.pddl,CRASHED:167.502:1000000000.0:1800.0:-1
ipc-2014-optimal-cavediving-14_easy.pddl,CRASHED:168.163:1000000000.0:1800.0:-1
ipc-2014-optimal-cavediving-15_easy.pddl,CRASHED:160.061:1000000000.0:1800.0:-1
ipc-2014-optimal-cavediving-16_easy.pddl,CRASHED:165.147:1000000000.0:1800.0:-1
ipc-2014-optimal-cavediving-18A_easy.pddl,SAT:63.2304:131.0:1800.0:-1
ipc-2014-optimal-cavediving-18_easy.pddl,CRASHED:121.701:131.0:1800.0:-1
ipc-2014-optimal-cavediving-20A_easy.pddl,SAT:40.2869:98.0:1800.0:-1
ipc-2014-optimal-childsnack-01-2.pddl,CRASHED:1773.76:1000000000.0:1800.0:-1
ipc-2014-optimal-childsnack-01.pddl,CRASHED:1767.96:1000000000.0:1800.0:-1
ipc-2014-optimal-childsnack-02-2.pddl,CRASHED:1767.29:1000000000.0:1800.0:-1
ipc-2014-optimal-childsnack-02.pddl,CRASHED:1768.19:1000000000.0:1800.0:-1
ipc-2014-optimal-childsnack-03-2.pddl,CRASHED:1784.09:1000000000.0:1800.0:-1
ipc-2014-optimal-childsnack-03.pddl,CRASHED:1782.66:1000000000.0:1800.0:-1
ipc-2014-optimal-childsnack-04-2.pddl,CRASHED:1783.0:1000000000.0:1800.0:-1
ipc-2014-optimal-childsnack-04.pddl,CRASHED:1788.23:1000000000.0:1800.0:-1
ipc-2014-optimal-childsnack-05-2.pddl,CRASHED:1245.76:1000000000.0:1800.0:-1
ipc-2014-optimal-childsnack-05.pddl,CRASHED:1785.9:1000000000.0:1800.0:-1
ipc-2014-optimal-childsnack-06-2.pddl,CRASHED:1783.91:1000000000.0:1800.0:-1
ipc-2014-optimal-childsnack-06.pddl,CRASHED:1784.06:1000000000.0:1800.0:-1
ipc-2014-optimal-childsnack-07-2.pddl,CRASHED:1786.09:1000000000.0:1800.0:-1
ipc-2014-optimal-childsnack-07.pddl,CRASHED:196.85:1000000000.0:1800.0:-1
ipc-2014-optimal-childsnack-08-2.pddl,CRASHED:355.39:1000000000.0:1800.0:-1
ipc-2014-optimal-childsnack-08.pddl,CRASHED:1423.69:1000000000.0:1800.0:-1
ipc-2014-optimal-childsnack-09-2.pddl,CRASHED:1787.67:1000000000.0:1800.0:-1
ipc-2014-optimal-childsnack-09.pddl,CRASHED:1786.33:1000000000.0:1800.0:-1
ipc-2014-optimal-childsnack-10-2.pddl,CRASHED:1786.05:1000000000.0:1800.0:-1
ipc-2014-optimal-childsnack-10.pddl,CRASHED:195.14:1000000000.0:1800.0:-1
ipc-2014-optimal-citycar-p2-2-2-1-2.pddl,SAT:7.34588:46.0:1800.0:-1
ipc-2014-optimal-citycar-p2-2-2-2-1.pddl,SAT:11.8282:64.0:1800.0:-1
ipc-2014-optimal-citycar-p2-2-3-1-2.pddl,SAT:10.6514:50.0:1800.0:-1
ipc-2014-optimal-citycar-p2-2-3-2-1.pddl,SAT:10.5204:48.0:1800.0:-1
ipc-2014-optimal-citycar-p2-2-3-2-2.pddl,SAT:9.90449:50.0:1800.0:-1
ipc-2014-optimal-citycar-p2-2-4-1-2.pddl,SAT:12.7781:52.0:1800.0:-1
ipc-2014-optimal-citycar-p2-2-4-2-1.pddl,SAT:13.134:52.0:1800.0:-1
ipc-2014-optimal-citycar-p2-2-5-2-2.pddl,SAT:520.36:76.0:1800.0:-1
ipc-2014-optimal-citycar-p2-2-6-1-1.pddl,SAT:33.8768:58.0:1800.0:-1
ipc-2014-optimal-citycar-p2-2-6-2-2.pddl,SAT:33.8848:58.0:1800.0:-1
ipc-2014-optimal-citycar-p2-3-2-3-1.pddl,SAT:519.79:68.0:1800.0:-1
ipc-2014-optimal-citycar-p2-3-3-3-1.pddl,SAT:518.18:78.0:1800.0:-1
ipc-2014-optimal-citycar-p2-3-4-3-1.pddl,CRASHED:1721.79:1000000000.0:1800.0:-1
ipc-2014-optimal-citycar-p2-3-6-3-2.pddl,CRASHED:1719.2:1000000000.0:1800.0:-1
ipc-2014-optimal-citycar-p3-3-2-2-1.pddl,CRASHED:1721.65:1000000000.0:1800.0:-1
ipc-2014-optimal-citycar-p3-3-2-2-2.pddl,CRASHED:1721.36:1000000000.0:1800.0:-1
ipc-2014-optimal-citycar-p3-3-2-3-1.pddl,SAT:43.0964:48.0:1800.0:-1
ipc-2014-optimal-citycar-p3-3-2-3-2.pddl,CRASHED:1719.04:1000000000.0:1800.0:-1
ipc-2014-optimal-citycar-p3-3-3-3-1.pddl,CRASHED:1603.94:1000000000.0:1800.0:-1
ipc-2014-optimal-citycar-p3-3-3-3-2.pddl,CRASHED:1599.82:1000000000.0:1800.0:-1
ipc-2014-optimal-floortile-p01-4-3-2.pddl,SAT:133.745:56.0:1800.0:-1
ipc-2014-optimal-floortile-p01-4-4-2.pddl,SAT:469.873:68.0:1800.0:-1
ipc-2014-optimal-floortile-p01-5-3-2.pddl,CRASHED:374.213:63.0:1800.0:-1
ipc-2014-optimal-floortile-p01-5-4-2.pddl,CRASHED:1778.82:1000000000.0:1800.0:-1
ipc-2014-optimal-floortile-p01-5-5-2.pddl,CRASHED:1781.73:1000000000.0:1800.0:-1
ipc-2014-optimal-floortile-p01-6-4-2.pddl,CRASHED:1782.48:1000000000.0:1800.0:-1
ipc-2014-optimal-floortile-p01-6-5-2.pddl,CRASHED:1779.56:1000000000.0:1800.0:-1
ipc-2014-optimal-floortile-p02-4-4-2.pddl,CRASHED:1783.11:1000000000.0:1800.0:-1
ipc-2014-optimal-floortile-p02-5-3-2.pddl,CRASHED:419.526:65.0:1800.0:-1
ipc-2014-optimal-floortile-p02-5-4-2.pddl,CRASHED:0.130005:1000000000.0:1800.0:-1
ipc-2014-optimal-floortile-p02-5-5-2.pddl,CRASHED:1791.1:1000000000.0:1800.0:-1
ipc-2014-optimal-floortile-p02-6-4-2.pddl,CRASHED:1782.36:1000000000.0:1800.0:-1
ipc-2014-optimal-floortile-p02-6-5-2.pddl,CRASHED:1784.28:1000000000.0:1800.0:-1
ipc-2014-optimal-floortile-p03-4-3-2.pddl,SAT:149.192:56.0:1800.0:-1
ipc-2014-optimal-floortile-p03-4-4-2.pddl,CRASHED:1782.05:1000000000.0:1800.0:-1
ipc-2014-optimal-floortile-p03-5-3-2.pddl,CRASHED:427.723:65.0:1800.0:-1
ipc-2014-optimal-floortile-p03-5-4-2.pddl,CRASHED:1781.55:1000000000.0:1800.0:-1
ipc-2014-optimal-floortile-p03-5-5-2.pddl,CRASHED:1281.45:1000000000.0:1800.0:-1
ipc-2014-optimal-floortile-p03-6-4-2.pddl,CRASHED:1781.52:1000000000.0:1800.0:-1
ipc-2014-optimal-floortile-p03-6-5-2.pddl,CRASHED:1780.27:1000000000.0:1800.0:-1
ipc-2014-optimal-ged-d-1-2.pddl,SAT:1.16482:1.0:1800.0:-1
ipc-2014-optimal-ged-d-1-3.pddl,SAT:5.97109:4.0:1800.0:-1
ipc-2014-optimal-ged-d-1-4.pddl,SAT:1.15782:1.0:1800.0:-1
ipc-2014-optimal-ged-d-1-8.pddl,SAT:25.1882:4.0:1800.0:-1
ipc-2014-optimal-ged-d-2-1.pddl,SAT:1.10283:1.0:1800.0:-1
ipc-2014-optimal-ged-d-2-3.pddl,SAT:1.41278:3.0:1800.0:-1
ipc-2014-optimal-ged-d-2-4.pddl,SAT:1.18982:2.0:1800.0:-1
ipc-2014-optimal-ged-d-2-8.pddl,CRASHED:1783.69:1000000000.0:1800.0:-1
ipc-2014-optimal-ged-d-3-1.pddl,SAT:6.02008:4.0:1800.0:-1
ipc-2014-optimal-ged-d-3-2.pddl,SAT:1.81572:3.0:1800.0:-1
ipc-2014-optimal-ged-d-3-4.pddl,CRASHED:340.286:5.0:1800.0:-1
ipc-2014-optimal-ged-d-4-2.pddl,SAT:1.62375:2.0:1800.0:-1
ipc-2014-optimal-ged-d-4-3.pddl,CRASHED:340.34:5.0:1800.0:-1
ipc-2014-optimal-ged-d-4-8.pddl,CRASHED:1785.91:1000000000.0:1800.0:-1
ipc-2014-optimal-ged-d-7-5.pddl,SAT:24.4243:4.0:1800.0:-1
ipc-2014-optimal-ged-d-7-6.pddl,SAT:7.56285:4.0:1800.0:-1
ipc-2014-optimal-ged-d-8-1.pddl,SAT:24.4413:4.0:1800.0:-1
ipc-2014-optimal-ged-d-8-2.pddl,CRASHED:38.0101:1000000000.0:1800.0:-1
ipc-2014-optimal-ged-d-8-4.pddl,CRASHED:23.3:1000000000.0:1800.0:-1
ipc-2014-optimal-ged-d-8-9.pddl,CRASHED:28.0798:1000000000.0:1800.0:-1
ipc-2014-optimal-hiking-1-2-3.pddl,SAT:1.36479:11.0:1800.0:-1
ipc-2014-optimal-hiking-1-2-4.pddl,SAT:21.2558:17.0:1800.0:-1
ipc-2014-optimal-hiking-1-2-5.pddl,SAT:21.5307:25.0:1800.0:-1
ipc-2014-optimal-hiking-1-2-7.pddl,SAT:25.1842:38.0:1800.0:-1
ipc-2014-optimal-hiking-1-2-8.pddl,SAT:31.6902:45.0:1800.0:-1
ipc-2014-optimal-hiking-2-2-3.pddl,SAT:21.8457:10.0:1800.0:-1
ipc-2014-optimal-hiking-2-2-4.pddl,SAT:57.9682:16.0:1800.0:-1
ipc-2014-optimal-hiking-2-2-5.pddl,SAT:281.158:22.0:1800.0:-1
ipc-2014-optimal-hiking-2-2-6.pddl,CRASHED:1783.25:1000000000.0:1800.0:-1
ipc-2014-optimal-hiking-2-2-7.pddl,CRASHED:1786.06:1000000000.0:1800.0:-1
ipc-2014-optimal-hiking-2-2-8.pddl,CRASHED:1787.64:1000000000.0:1800.0:-1
ipc-2014-optimal-hiking-2-3-4.pddl,SAT:215.437:17.0:1800.0:-1
ipc-2014-optimal-hiking-2-3-5.pddl,SAT:463.536:24.0:1800.0:-1
ipc-2014-optimal-hiking-2-3-6.pddl,CRASHED:1595.02:1000000000.0:1800.0:-1
ipc-2014-optimal-hiking-2-3-7.pddl,CRASHED:359.81:1000000000.0:1800.0:-1
ipc-2014-optimal-hiking-2-4-3.pddl,SAT:24.8442:10.0:1800.0:-1
ipc-2014-optimal-hiking-2-4-4.pddl,SAT:302.17:17.0:1800.0:-1
ipc-2014-optimal-hiking-2-4-5.pddl,CRASHED:1787.36:1000000000.0:1800.0:-1
ipc-2014-optimal-hiking-2-4-6.pddl,CRASHED:196.85:1000000000.0:1800.0:-1
ipc-2014-optimal-hiking-2-4-7.pddl,CRASHED:1421.56:1000000000.0:1800.0:-1
ipc-2014-optimal-maintenance-1.3.010.010.1-001.pddl,CRASHED:3.70844:1000000000.0:1800.0:-1
ipc-2014-optimal-maintenance-1.3.010.010.1-002.pddl,CRASHED:3.75243:1000000000.0:1800.0:-1
ipc-2014-optimal-maintenance-1.3.010.010.2-000.pddl,SAT:0.955854:4.0:1800.0:-1
ipc-2014-optimal-maintenance-1.3.010.010.2-001.pddl,SAT:0.924859:7.0:1800.0:-1
ipc-2014-optimal-maintenance-1.3.010.010.2-002.pddl,SAT:0.832873:6.0:1800.0:-1
ipc-2014-optimal-maintenance-1.3.015.020.1-000.pddl,CRASHED:6.77897:1000000000.0:1800.0:-1
ipc-2014-optimal-maintenance-1.3.015.020.1-001.pddl,CRASHED:16.4785:1000000000.0:1800.0:-1
ipc-2014-optimal-maintenance-1.3.015.020.1-002.pddl,CRASHED:25.2982:1000000000.0:1800.0:-1
ipc-2014-optimal-maintenance-1.3.015.020.2-000.pddl,CRASHED:127.666:1000000000.0:1800.0:-1
ipc-2014-optimal-maintenance-1.3.015.020.2-001.pddl,SAT:0.999847:11.0:1800.0:-1
ipc-2014-optimal-maintenance-1.3.015.020.2-002.pddl,SAT:0.960853:9.0:1800.0:-1
ipc-2014-optimal-maintenance-1.3.025.050.1-000.pddl,CRASHED:165.824:1000000000.0:1800.0:-1
ipc-2014-optimal-maintenance-1.3.025.050.1-001.pddl,CRASHED:185.559:1000000000.0:1800.0:-1
ipc-2014-optimal-maintenance-1.3.025.050.1-002.pddl,CRASHED:174.116:1000000000.0:1800.0:-1
ipc-2014-optimal-maintenance-1.3.025.100.1-000.pddl,CRASHED:157.375:1000000000.0:1800.0:-1
ipc-2014-optimal-maintenance-1.3.025.100.1-001.pddl,CRASHED:148.827:1000000000.0:1800.0:-1
ipc-2014-optimal-maintenance-1.3.025.100.1-002.pddl,CRASHED:154.138:1000000000.0:1800.0:-1
ipc-2014-optimal-maintenance-1.3.025.100.2-000.pddl,CRASHED:1056.21:1000000000.0:1800.0:-1
ipc-2014-optimal-maintenance-1.3.025.100.2-001.pddl,CRASHED:1320.44:1000000000.0:1800.0:-1
ipc-2014-optimal-maintenance-1.3.025.100.2-002.pddl,CRASHED:1060.19:1000000000.0:1800.0:-1
ipc-2014-optimal-openstacks-p20_1.pddl,CRASHED:1419.14:3.0:1800.0:-1
ipc-2014-optimal-openstacks-p20_2.pddl,CRASHED:1541.77:4.0:1800.0:-1
ipc-2014-optimal-openstacks-p20_3.pddl,SAT:42.8385:6.0:1800.0:-1
ipc-2014-optimal-openstacks-p25_1.pddl,CRASHED:1256.57:1000000000.0:1800.0:-1
ipc-2014-optimal-openstacks-p25_3.pddl,CRASHED:1258.1:1000000000.0:1800.0:-1
ipc-2014-optimal-openstacks-p30_1.pddl,CRASHED:1776.92:1000000000.0:1800.0:-1
ipc-2014-optimal-openstacks-p30_2.pddl,CRASHED:1781.07:1000000000.0:1800.0:-1
ipc-2014-optimal-openstacks-p30_3.pddl,CRASHED:1266.29:1000000000.0:1800.0:-1
ipc-2014-optimal-openstacks-p35_1.pddl,CRASHED:1782.01:1000000000.0:1800.0:-1
ipc-2014-optimal-openstacks-p35_2.pddl,CRASHED:1780.69:1000000000.0:1800.0:-1
ipc-2014-optimal-openstacks-p35_3.pddl,CRASHED:1784.81:1000000000.0:1800.0:-1
ipc-2014-optimal-openstacks-p40_1.pddl,CRASHED:1783.31:1000000000.0:1800.0:-1
ipc-2014-optimal-openstacks-p40_2.pddl,CRASHED:1307.11:1000000000.0:1800.0:-1
ipc-2014-optimal-openstacks-p40_3.pddl,CRASHED:1377.88:1000000000.0:1800.0:-1
ipc-2014-optimal-openstacks-p45_1.pddl,CRASHED:1784.32:1000000000.0:1800.0:-1
ipc-2014-optimal-openstacks-p45_2.pddl,CRASHED:1588.15:1000000000.0:1800.0:-1
ipc-2014-optimal-openstacks-p45_3.pddl,CRASHED:1788.91:1000000000.0:1800.0:-1
ipc-2014-optimal-openstacks-p50_1.pddl,CRASHED:1790.11:1000000000.0:1800.0:-1
ipc-2014-optimal-openstacks-p50_2.pddl,CRASHED:1789.18:1000000000.0:1800.0:-1
ipc-2014-optimal-openstacks-p50_3.pddl,CRASHED:1391.59:1000000000.0:1800.0:-1
ipc-2014-optimal-parking-12_7-01.pddl,SAT:179.69:18.0:1800.0:-1
ipc-2014-optimal-parking-12_7-02.pddl,SAT:1.06999:18.0:1800.0:-1
ipc-2014-optimal-parking-12_7-03.pddl,SAT:178.892:17.0:1800.0:-1
ipc-2014-optimal-parking-12_7-04.pddl,SAT:201.06:19.0:1800.0:-1
ipc-2014-optimal-parking-14_8-01.pddl,CRASHED:1791.31:1000000000.0:1800.0:-1
ipc-2014-optimal-parking-14_8-02.pddl,SAT:325.805:22.0:1800.0:-1
ipc-2014-optimal-parking-14_8-03.pddl,SAT:214.899:21.0:1800.0:-1
ipc-2014-optimal-parking-14_8-04.pddl,CRASHED:1792.6:1000000000.0:1800.0:-1
ipc-2014-optimal-parking-16_9-01.pddl,CRASHED:1796.1:1000000000.0:1800.0:-1
ipc-2014-optimal-parking-16_9-02.pddl,CRASHED:1794.72:1000000000.0:1800.0:-1
ipc-2014-optimal-parking-16_9-03.pddl,CRASHED:1794.69:1000000000.0:1800.0:-1
ipc-2014-optimal-parking-16_9-04.pddl,CRASHED:1798.52:1000000000.0:1800.0:-1
ipc-2014-optimal-parking-18_10-01.pddl,CRASHED:304.13:1000000000.0:1800.0:-1
ipc-2014-optimal-parking-18_10-02.pddl,CRASHED:303.96:1000000000.0:1800.0:-1
ipc-2014-optimal-parking-18_10-03.pddl,CRASHED:1629.92:1000000000.0:1800.0:-1
ipc-2014-optimal-parking-18_10-04.pddl,CRASHED:319.37:1000000000.0:1800.0:-1
ipc-2014-optimal-parking-20_11-01.pddl,CRASHED:1532.69:1000000000.0:1800.0:-1
ipc-2014-optimal-parking-20_11-02.pddl,CRASHED:1526.95:1000000000.0:1800.0:-1
ipc-2014-optimal-parking-20_11-03.pddl,CRASHED:1536.22:1000000000.0:1800.0:-1
ipc-2014-optimal-parking-20_11-04.pddl,CRASHED:319.2:1000000000.0:1800.0:-1
ipc-2014-optimal-tetris-01-10.pddl,CRASHED:515.88:1000000000.0:1800.0:-1
ipc-2014-optimal-tetris-01-04.pddl,CRASHED:280.16:1000000000.0:1800.0:-1
ipc-2014-optimal-tetris-01-06.pddl,SAT:276.65:30.0:1800.0:-1
ipc-2014-optimal-tetris-01-08.pddl,CRASHED:49.7564:36.0:1800.0:-1
ipc-2014-optimal-tetris-02-10.pddl,CRASHED:1754.2:1000000000.0:1800.0:-1
ipc-2014-optimal-tetris-02-04.pddl,SAT:1.03784:10.0:1800.0:-1
ipc-2014-optimal-tetris-02-06.pddl,SAT:53.7248:30.0:1800.0:-1
ipc-2014-optimal-tetris-02-08.pddl,CRASHED:763.89:1000000000.0:1800.0:-1
ipc-2014-optimal-tetris-03-10.pddl,CRASHED:621.08:1000000000.0:1800.0:-1
ipc-2014-optimal-tetris-03-04.pddl,SAT:22.6866:11.0:1800.0:-1
ipc-2014-optimal-tetris-03-06.pddl,SAT:194.437:21.0:1800.0:-1
ipc-2014-optimal-tetris-03-08.pddl,CRASHED:1752.1:1000000000.0:1800.0:-1
ipc-2014-optimal-tetris-04-10.pddl,CRASHED:517.83:1000000000.0:1800.0:-1
ipc-2014-optimal-tetris-04-04.pddl,CRASHED:290.349:1000000000.0:1800.0:-1
ipc-2014-optimal-tetris-04-06.pddl,SAT:238.319:27.0:1800.0:-1
ipc-2014-optimal-tetris-04-08.pddl,CRASHED:661.79:1000000000.0:1800.0:-1
ipc-2014-optimal-tetris-05-10.pddl,CRASHED:1584.03:1000000000.0:1800.0:-1
ipc-2014-optimal-tetris-05-04.pddl,CRASHED:196.68:1000000000.0:1800.0:-1
ipc-2014-optimal-tetris-05-06.pddl,SAT:25.6221:19.0:1800.0:-1
ipc-2014-optimal-tetris-05-08.pddl,CRASHED:1752.52:1000000000.0:1800.0:-1
ipc-2014-optimal-tidybot-01.pddl,CRASHED:1709.4:1000000000.0:1800.0:-1
ipc-2014-optimal-tidybot-02.pddl,CRASHED:321.19:35.0:1800.0:-1
ipc-2014-optimal-tidybot-03.pddl,CRASHED:319.55:30.0:1800.0:-1
ipc-2014-optimal-tidybot-04.pddl,CRASHED:319.64:24.0:1800.0:-1
ipc-2014-optimal-tidybot-05.pddl,CRASHED:1702.17:1000000000.0:1800.0:-1
ipc-2014-optimal-tidybot-06.pddl,CRASHED:1703.47:1000000000.0:1800.0:-1
ipc-2014-optimal-tidybot-07.pddl,CRASHED:1637.63:1000000000.0:1800.0:-1
ipc-2014-optimal-tidybot-08.pddl,SAT:59.7529:25.0:1800.0:-1
ipc-2014-optimal-tidybot-09.pddl,CRASHED:1598.04:1000000000.0:1800.0:-1
ipc-2014-optimal-tidybot-10.pddl,CRASHED:1677.46:1000000000.0:1800.0:-1
ipc-2014-optimal-tidybot-11.pddl,SAT:42.3376:29.0:1800.0:-1
ipc-2014-optimal-tidybot-12.pddl,CRASHED:319.14:35.0:1800.0:-1
ipc-2014-optimal-tidybot-13.pddl,CRASHED:320.53:30.0:1800.0:-1
ipc-2014-optimal-tidybot-14.pddl,SAT:50.6283:25.0:1800.0:-1
ipc-2014-optimal-tidybot-15.pddl,CRASHED:1710.38:1000000000.0:1800.0:-1
ipc-2014-optimal-tidybot-16.pddl,CRASHED:1703.18:1000000000.0:1800.0:-1
ipc-2014-optimal-tidybot-17.pddl,CRASHED:1705.4:1000000000.0:1800.0:-1
ipc-2014-optimal-tidybot-18.pddl,CRASHED:1705.32:1000000000.0:1800.0:-1
ipc-2014-optimal-tidybot-19.pddl,CRASHED:1706.6:1000000000.0:1800.0:-1
ipc-2014-optimal-tidybot-20.pddl,CRASHED:1704.84:1000000000.0:1800.0:-1
ipc-2014-optimal-transport-01.pddl,SAT:21.2518:148.0:1800.0:-1
ipc-2014-optimal-transport-02.pddl,SAT:25.3182:191.0:1800.0:-1
ipc-2014-optimal-transport-03.pddl,SAT:69.5634:300.0:1800.0:-1
ipc-2014-optimal-transport-04.pddl,CRASHED:1783.39:1000000000.0:1800.0:-1
ipc-2014-optimal-transport-05.pddl,CRASHED:1341.93:1000000000.0:1800.0:-1
ipc-2014-optimal-transport-06.pddl,CRASHED:1787.46:1000000000.0:1800.0:-1
ipc-2014-optimal-transport-07.pddl,SAT:63.0414:967.0:1800.0:-1
ipc-2014-optimal-transport-08.pddl,CRASHED:498.267:1173.0:1800.0:-1
ipc-2014-optimal-transport-09.pddl,CRASHED:1782.6:1000000000.0:1800.0:-1
ipc-2014-optimal-transport-10.pddl,CRASHED:1788.02:1000000000.0:1800.0:-1
ipc-2014-optimal-transport-11.pddl,CRASHED:195.45:1000000000.0:1800.0:-1
ipc-2014-optimal-transport-12.pddl,CRASHED:195.38:1000000000.0:1800.0:-1
ipc-2014-optimal-transport-13.pddl,SAT:32.1751:594.0:1800.0:-1
ipc-2014-optimal-transport-14.pddl,SAT:290.176:526.0:1800.0:-1
ipc-2014-optimal-transport-15.pddl,CRASHED:1260.13:1000000000.0:1800.0:-1
ipc-2014-optimal-transport-16.pddl,CRASHED:1783.24:1000000000.0:1800.0:-1
ipc-2014-optimal-transport-17.pddl,CRASHED:196.72:1000000000.0:1800.0:-1
ipc-2014-optimal-transport-18.pddl,CRASHED:199.5:1000000000.0:1800.0:-1
ipc-2014-optimal-transport-19.pddl,CRASHED:162.05:1000000000.0:1800.0:-1
ipc-2014-optimal-transport-20.pddl,CRASHED:162.29:1000000000.0:1800.0:-1
ipc-2014-optimal-visitall-05-10.pddl,CRASHED:1787.06:1000000000.0:1800.0:-1
ipc-2014-optimal-visitall-05-05.pddl,SAT:4.22736:21.0:1800.0:-1
ipc-2014-optimal-visitall-05-06.pddl,SAT:6.38:25.0:1800.0:-1
ipc-2014-optimal-visitall-05-07.pddl,SAT:115.108:34.0:1800.0:-1
ipc-2014-optimal-visitall-05-08.pddl,CRASHED:614.144:43.0:1800.0:-1
ipc-2014-optimal-visitall-05-09.pddl,CRASHED:1284.24:1000000000.0:1800.0:-1
ipc-2014-optimal-visitall-01-10.pddl,SAT:174.083:99.0:1800.0:-1
ipc-2014-optimal-visitall-01-11.pddl,SAT:173.141:120.0:1800.0:-1
ipc-2014-optimal-visitall-01-12.pddl,SAT:217.844:143.0:1800.0:-1
ipc-2014-optimal-visitall-01-13.pddl,SAT:176.263:168.0:1800.0:-1
ipc-2014-optimal-visitall-01-14.pddl,CRASHED:1783.81:1000000000.0:1800.0:-1
ipc-2014-optimal-visitall-01-15.pddl,CRASHED:1782.63:1000000000.0:1800.0:-1
ipc-2014-optimal-visitall-01-16.pddl,CRASHED:1515.12:1000000000.0:1800.0:-1
ipc-2014-optimal-visitall-01-17.pddl,CRASHED:1782.0:1000000000.0:1800.0:-1
ipc-2014-optimal-visitall-01-18.pddl,CRASHED:1780.95:1000000000.0:1800.0:-1
ipc-2014-optimal-visitall-01-05.pddl,SAT:25.2212:24.0:1800.0:-1
ipc-2014-optimal-visitall-01-06.pddl,SAT:172.76:35.0:1800.0:-1
ipc-2014-optimal-visitall-01-07.pddl,SAT:172.921:48.0:1800.0:-1
ipc-2014-optimal-visitall-01-08.pddl,SAT:173.455:63.0:1800.0:-1
ipc-2014-optimal-visitall-01-09.pddl,SAT:173.202:80.0:1800.0:-1
