instance,ipc-2014-optimal-miplan
ipc-2014-optimal-barman-p433.1.pddl,CRASHED:2.89656:1000000000.0:1800.0:-1
ipc-2014-optimal-barman-p433.2.pddl,CRASHED:2.87856:1000000000.0:1800.0:-1
ipc-2014-optimal-barman-p433.3.pddl,CRASHED:2.83457:1000000000.0:1800.0:-1
ipc-2014-optimal-barman-p435.1.pddl,CRASHED:1780.94:1000000000.0:1800.0:-1
ipc-2014-optimal-barman-p435.2.pddl,CRASHED:1780.39:1000000000.0:1800.0:-1
ipc-2014-optimal-barman-p435.3.pddl,CRASHED:1785.44:1000000000.0:1800.0:-1
ipc-2014-optimal-barman-p443.1.pddl,CRASHED:3.00454:1000000000.0:1800.0:-1
ipc-2014-optimal-barman-p443.2.pddl,CRASHED:3.00154:1000000000.0:1800.0:-1
ipc-2014-optimal-barman-p443.3.pddl,CRASHED:2.99454:1000000000.0:1800.0:-1
ipc-2014-optimal-barman-p536.1.pddl,CRASHED:1786.48:1000000000.0:1800.0:-1
ipc-2014-optimal-barman-p536.2.pddl,CRASHED:1781.28:1000000000.0:1800.0:-1
ipc-2014-optimal-barman-p536.3.pddl,CRASHED:1784.07:1000000000.0:1800.0:-1
ipc-2014-optimal-barman-p638.1.pddl,CRASHED:1787.68:1000000000.0:1800.0:-1
ipc-2014-optimal-barman-p638.2.pddl,CRASHED:1794.58:1000000000.0:1800.0:-1
ipc-2014-optimal-barman-p638.3.pddl,CRASHED:1787.76:1000000000.0:1800.0:-1
ipc-2014-optimal-barman-p739.1.pddl,CRASHED:1431.81:1000000000.0:1800.0:-1
ipc-2014-optimal-barman-p739.2.pddl,CRASHED:1783.89:1000000000.0:1800.0:-1
ipc-2014-optimal-barman-p739.3.pddl,CRASHED:1239.76:1000000000.0:1800.0:-1
ipc-2014-optimal-barman-p839.1.pddl,CRASHED:1783.89:1000000000.0:1800.0:-1
ipc-2014-optimal-barman-p839.2.pddl,CRASHED:1784.72:1000000000.0:1800.0:-1
ipc-2014-optimal-cavediving-01.pddl,CRASHED:153.177:1000000000.0:1800.0:-1
ipc-2014-optimal-cavediving-01_easy.pddl,CRASHED:149.126:1000000000.0:1800.0:-1
ipc-2014-optimal-cavediving-02_easy.pddl,CRASHED:150.346:1000000000.0:1800.0:-1
ipc-2014-optimal-cavediving-03_easy.pddl,CRASHED:148.139:1000000000.0:1800.0:-1
ipc-2014-optimal-cavediving-04_easy.pddl,CRASHED:164.232:1000000000.0:1800.0:-1
ipc-2014-optimal-cavediving-05A_easy.pddl,SAT:23.9284:94.0:1800.0:-1
ipc-2014-optimal-cavediving-06A_easy.pddl,SAT:24.0373:95.0:1800.0:-1
ipc-2014-optimal-cavediving-07_easy.pddl,SAT:39.746:131.0:1800.0:-1
ipc-2014-optimal-cavediving-08_easy.pddl,SAT:24.1473:90.0:1800.0:-1
ipc-2014-optimal-cavediving-09_easy.pddl,CRASHED:301.018:1000000000.0:1800.0:-1
ipc-2014-optimal-cavediving-10_easy.pddl,CRASHED:305.8:1000000000.0:1800.0:-1
ipc-2014-optimal-cavediving-11_easy.pddl,CRASHED:307.523:1000000000.0:1800.0:-1
ipc-2014-optimal-cavediving-12_easy.pddl,CRASHED:307.678:1000000000.0:1800.0:-1
ipc-2014-optimal-cavediving-13_easy.pddl,CRASHED:172.588:1000000000.0:1800.0:-1
ipc-2014-optimal-cavediving-14_easy.pddl,CRASHED:173.645:1000000000.0:1800.0:-1
ipc-2014-optimal-cavediving-15_easy.pddl,CRASHED:157.281:1000000000.0:1800.0:-1
ipc-2014-optimal-cavediving-16_easy.pddl,CRASHED:164.726:1000000000.0:1800.0:-1
ipc-2014-optimal-cavediving-18A_easy.pddl,SAT:64.4132:131.0:1800.0:-1
ipc-2014-optimal-cavediving-18_easy.pddl,SAT:123.897:131.0:1800.0:-1
ipc-2014-optimal-cavediving-20A_easy.pddl,SAT:40.6788:98.0:1800.0:-1
ipc-2014-optimal-childsnack-01-2.pddl,CRASHED:1772.06:1000000000.0:1800.0:-1
ipc-2014-optimal-childsnack-01.pddl,CRASHED:1776.67:1000000000.0:1800.0:-1
ipc-2014-optimal-childsnack-02-2.pddl,CRASHED:1774.13:1000000000.0:1800.0:-1
ipc-2014-optimal-childsnack-02.pddl,CRASHED:1777.23:1000000000.0:1800.0:-1
ipc-2014-optimal-childsnack-03-2.pddl,CRASHED:1788.28:1000000000.0:1800.0:-1
ipc-2014-optimal-childsnack-03.pddl,CRASHED:1786.25:1000000000.0:1800.0:-1
ipc-2014-optimal-childsnack-04-2.pddl,CRASHED:1240.69:1000000000.0:1800.0:-1
ipc-2014-optimal-childsnack-04.pddl,CRASHED:1779.98:1000000000.0:1800.0:-1
ipc-2014-optimal-childsnack-05-2.pddl,CRASHED:1219.39:1000000000.0:1800.0:-1
ipc-2014-optimal-childsnack-05.pddl,CRASHED:1782.46:1000000000.0:1800.0:-1
ipc-2014-optimal-childsnack-06-2.pddl,CRASHED:1785.79:1000000000.0:1800.0:-1
ipc-2014-optimal-childsnack-06.pddl,CRASHED:1776.87:1000000000.0:1800.0:-1
ipc-2014-optimal-childsnack-07-2.pddl,CRASHED:1782.29:1000000000.0:1800.0:-1
ipc-2014-optimal-childsnack-07.pddl,CRASHED:1782.89:1000000000.0:1800.0:-1
ipc-2014-optimal-childsnack-08-2.pddl,CRASHED:1422.15:1000000000.0:1800.0:-1
ipc-2014-optimal-childsnack-08.pddl,CRASHED:1784.44:1000000000.0:1800.0:-1
ipc-2014-optimal-childsnack-09-2.pddl,CRASHED:1783.63:1000000000.0:1800.0:-1
ipc-2014-optimal-childsnack-09.pddl,CRASHED:1274.48:1000000000.0:1800.0:-1
ipc-2014-optimal-childsnack-10-2.pddl,CRASHED:1395.07:1000000000.0:1800.0:-1
ipc-2014-optimal-childsnack-10.pddl,CRASHED:1788.98:1000000000.0:1800.0:-1
ipc-2014-optimal-citycar-p2-2-2-1-2.pddl,SAT:7.85481:46.0:1800.0:-1
ipc-2014-optimal-citycar-p2-2-2-2-1.pddl,SAT:13.144:64.0:1800.0:-1
ipc-2014-optimal-citycar-p2-2-3-1-2.pddl,SAT:10.9443:50.0:1800.0:-1
ipc-2014-optimal-citycar-p2-2-3-2-1.pddl,SAT:10.7394:48.0:1800.0:-1
ipc-2014-optimal-citycar-p2-2-3-2-2.pddl,SAT:10.9693:50.0:1800.0:-1
ipc-2014-optimal-citycar-p2-2-4-1-2.pddl,SAT:14.1688:52.0:1800.0:-1
ipc-2014-optimal-citycar-p2-2-4-2-1.pddl,SAT:14.1309:52.0:1800.0:-1
ipc-2014-optimal-citycar-p2-2-5-2-2.pddl,SAT:519.93:76.0:1800.0:-1
ipc-2014-optimal-citycar-p2-2-6-1-1.pddl,SAT:33.7269:58.0:1800.0:-1
ipc-2014-optimal-citycar-p2-2-6-2-2.pddl,SAT:35.9815:58.0:1800.0:-1
ipc-2014-optimal-citycar-p2-3-2-3-1.pddl,SAT:520.9:68.0:1800.0:-1
ipc-2014-optimal-citycar-p2-3-3-3-1.pddl,SAT:520.5:78.0:1800.0:-1
ipc-2014-optimal-citycar-p2-3-4-3-1.pddl,CRASHED:1717.38:1000000000.0:1800.0:-1
ipc-2014-optimal-citycar-p2-3-6-3-2.pddl,CRASHED:1703.63:1000000000.0:1800.0:-1
ipc-2014-optimal-citycar-p3-3-2-2-1.pddl,CRASHED:1706.75:1000000000.0:1800.0:-1
ipc-2014-optimal-citycar-p3-3-2-2-2.pddl,CRASHED:1704.24:1000000000.0:1800.0:-1
ipc-2014-optimal-citycar-p3-3-2-3-1.pddl,SAT:47.0249:48.0:1800.0:-1
ipc-2014-optimal-citycar-p3-3-2-3-2.pddl,CRASHED:1705.71:1000000000.0:1800.0:-1
ipc-2014-optimal-citycar-p3-3-3-3-1.pddl,CRASHED:1591.75:1000000000.0:1800.0:-1
ipc-2014-optimal-citycar-p3-3-3-3-2.pddl,CRASHED:1581.22:1000000000.0:1800.0:-1
ipc-2014-optimal-floortile-p01-4-3-2.pddl,SAT:130.919:56.0:1800.0:-1
ipc-2014-optimal-floortile-p01-4-4-2.pddl,SAT:473.109:68.0:1800.0:-1
ipc-2014-optimal-floortile-p01-5-3-2.pddl,SAT:406.026:63.0:1800.0:-1
ipc-2014-optimal-floortile-p01-5-4-2.pddl,CRASHED:1140.78:1000000000.0:1800.0:-1
ipc-2014-optimal-floortile-p01-5-5-2.pddl,CRASHED:1778.44:1000000000.0:1800.0:-1
ipc-2014-optimal-floortile-p01-6-4-2.pddl,CRASHED:1277.31:1000000000.0:1800.0:-1
ipc-2014-optimal-floortile-p01-6-5-2.pddl,CRASHED:1154.59:1000000000.0:1800.0:-1
ipc-2014-optimal-floortile-p02-4-4-2.pddl,CRASHED:1060.49:1000000000.0:1800.0:-1
ipc-2014-optimal-floortile-p02-5-3-2.pddl,SAT:435.827:65.0:1800.0:-1
ipc-2014-optimal-floortile-p02-5-4-2.pddl,CRASHED:1780.43:1000000000.0:1800.0:-1
ipc-2014-optimal-floortile-p02-5-5-2.pddl,CRASHED:1781.26:1000000000.0:1800.0:-1
ipc-2014-optimal-floortile-p02-6-4-2.pddl,CRASHED:1790.64:1000000000.0:1800.0:-1
ipc-2014-optimal-floortile-p02-6-5-2.pddl,CRASHED:1787.8:1000000000.0:1800.0:-1
ipc-2014-optimal-floortile-p03-4-3-2.pddl,SAT:148.755:56.0:1800.0:-1
ipc-2014-optimal-floortile-p03-4-4-2.pddl,CRASHED:1775.42:1000000000.0:1800.0:-1
ipc-2014-optimal-floortile-p03-5-3-2.pddl,SAT:402.796:65.0:1800.0:-1
ipc-2014-optimal-floortile-p03-5-4-2.pddl,CRASHED:1776.05:1000000000.0:1800.0:-1
ipc-2014-optimal-floortile-p03-5-5-2.pddl,CRASHED:1780.91:1000000000.0:1800.0:-1
ipc-2014-optimal-floortile-p03-6-4-2.pddl,CRASHED:1783.55:1000000000.0:1800.0:-1
ipc-2014-optimal-floortile-p03-6-5-2.pddl,CRASHED:1782.77:1000000000.0:1800.0:-1
ipc-2014-optimal-ged-d-1-2.pddl,SAT:1.25281:1.0:1800.0:-1
ipc-2014-optimal-ged-d-1-3.pddl,SAT:6.10407:4.0:1800.0:-1
ipc-2014-optimal-ged-d-1-4.pddl,SAT:1.49677:1.0:1800.0:-1
ipc-2014-optimal-ged-d-1-8.pddl,SAT:25.0152:4.0:1800.0:-1
ipc-2014-optimal-ged-d-2-1.pddl,SAT:1.58476:1.0:1800.0:-1
ipc-2014-optimal-ged-d-2-3.pddl,SAT:1.89371:3.0:1800.0:-1
ipc-2014-optimal-ged-d-2-4.pddl,SAT:1.63975:2.0:1800.0:-1
ipc-2014-optimal-ged-d-2-8.pddl,CRASHED:39.4301:1000000000.0:1800.0:-1
ipc-2014-optimal-ged-d-3-1.pddl,SAT:6.12807:4.0:1800.0:-1
ipc-2014-optimal-ged-d-3-2.pddl,SAT:1.79273:3.0:1800.0:-1
ipc-2014-optimal-ged-d-3-4.pddl,SAT:337.595:5.0:1800.0:-1
ipc-2014-optimal-ged-d-4-2.pddl,SAT:1.27881:2.0:1800.0:-1
ipc-2014-optimal-ged-d-4-3.pddl,SAT:340.839:5.0:1800.0:-1
ipc-2014-optimal-ged-d-4-8.pddl,CRASHED:1778.24:1000000000.0:1800.0:-1
ipc-2014-optimal-ged-d-7-5.pddl,SAT:26.622:4.0:1800.0:-1
ipc-2014-optimal-ged-d-7-6.pddl,SAT:7.60484:4.0:1800.0:-1
ipc-2014-optimal-ged-d-8-1.pddl,SAT:26.096:4.0:1800.0:-1
ipc-2014-optimal-ged-d-8-2.pddl,CRASHED:1302.58:1000000000.0:1800.0:-1
ipc-2014-optimal-ged-d-8-4.pddl,CRASHED:1789.04:1000000000.0:1800.0:-1
ipc-2014-optimal-ged-d-8-9.pddl,CRASHED:1783.3:1000000000.0:1800.0:-1
ipc-2014-optimal-hiking-1-2-3.pddl,SAT:1.22981:11.0:1800.0:-1
ipc-2014-optimal-hiking-1-2-4.pddl,SAT:20.9708:17.0:1800.0:-1
ipc-2014-optimal-hiking-1-2-5.pddl,SAT:21.2218:25.0:1800.0:-1
ipc-2014-optimal-hiking-1-2-7.pddl,SAT:25.3351:38.0:1800.0:-1
ipc-2014-optimal-hiking-1-2-8.pddl,SAT:32.752:45.0:1800.0:-1
ipc-2014-optimal-hiking-2-2-3.pddl,SAT:21.6477:10.0:1800.0:-1
ipc-2014-optimal-hiking-2-2-4.pddl,SAT:62.9344:16.0:1800.0:-1
ipc-2014-optimal-hiking-2-2-5.pddl,SAT:296.576:22.0:1800.0:-1
ipc-2014-optimal-hiking-2-2-6.pddl,CRASHED:1782.88:1000000000.0:1800.0:-1
ipc-2014-optimal-hiking-2-2-7.pddl,CRASHED:1785.4:1000000000.0:1800.0:-1
ipc-2014-optimal-hiking-2-2-8.pddl,CRASHED:1352.95:1000000000.0:1800.0:-1
ipc-2014-optimal-hiking-2-3-4.pddl,SAT:214.772:17.0:1800.0:-1
ipc-2014-optimal-hiking-2-3-5.pddl,SAT:462.675:24.0:1800.0:-1
ipc-2014-optimal-hiking-2-3-6.pddl,CRASHED:1786.47:1000000000.0:1800.0:-1
ipc-2014-optimal-hiking-2-3-7.pddl,CRASHED:1100.15:1000000000.0:1800.0:-1
ipc-2014-optimal-hiking-2-4-3.pddl,SAT:25.1192:10.0:1800.0:-1
ipc-2014-optimal-hiking-2-4-4.pddl,SAT:308.3:17.0:1800.0:-1
ipc-2014-optimal-hiking-2-4-5.pddl,CRASHED:1198.9:1000000000.0:1800.0:-1
ipc-2014-optimal-hiking-2-4-6.pddl,CRASHED:1397.35:1000000000.0:1800.0:-1
ipc-2014-optimal-hiking-2-4-7.pddl,CRASHED:1793.95:1000000000.0:1800.0:-1
ipc-2014-optimal-maintenance-1.3.010.010.1-001.pddl,CRASHED:1277.64:1000000000.0:1800.0:-1
ipc-2014-optimal-maintenance-1.3.010.010.1-002.pddl,CRASHED:1281.42:1000000000.0:1800.0:-1
ipc-2014-optimal-maintenance-1.3.010.010.2-000.pddl,SAT:0.622904:4.0:1800.0:-1
ipc-2014-optimal-maintenance-1.3.010.010.2-001.pddl,SAT:0.949855:7.0:1800.0:-1
ipc-2014-optimal-maintenance-1.3.010.010.2-002.pddl,SAT:0.976851:6.0:1800.0:-1
ipc-2014-optimal-maintenance-1.3.015.020.1-000.pddl,CRASHED:1286.44:1000000000.0:1800.0:-1
ipc-2014-optimal-maintenance-1.3.015.020.1-001.pddl,CRASHED:1295.74:1000000000.0:1800.0:-1
ipc-2014-optimal-maintenance-1.3.015.020.1-002.pddl,CRASHED:1304.62:1000000000.0:1800.0:-1
ipc-2014-optimal-maintenance-1.3.015.020.2-000.pddl,CRASHED:1274.83:1000000000.0:1800.0:-1
ipc-2014-optimal-maintenance-1.3.015.020.2-001.pddl,SAT:0.807876:11.0:1800.0:-1
ipc-2014-optimal-maintenance-1.3.015.020.2-002.pddl,SAT:0.786879:9.0:1800.0:-1
ipc-2014-optimal-maintenance-1.3.025.050.1-000.pddl,CRASHED:1275.33:1000000000.0:1800.0:-1
ipc-2014-optimal-maintenance-1.3.025.050.1-001.pddl,CRASHED:1276.81:1000000000.0:1800.0:-1
ipc-2014-optimal-maintenance-1.3.025.050.1-002.pddl,CRASHED:1471.4:1000000000.0:1800.0:-1
ipc-2014-optimal-maintenance-1.3.025.100.1-000.pddl,CRASHED:164.841:1000000000.0:1800.0:-1
ipc-2014-optimal-maintenance-1.3.025.100.1-001.pddl,CRASHED:162.294:1000000000.0:1800.0:-1
ipc-2014-optimal-maintenance-1.3.025.100.1-002.pddl,CRASHED:166.692:1000000000.0:1800.0:-1
ipc-2014-optimal-maintenance-1.3.025.100.2-000.pddl,CRASHED:1099.98:1000000000.0:1800.0:-1
ipc-2014-optimal-maintenance-1.3.025.100.2-001.pddl,CRASHED:1362.46:1000000000.0:1800.0:-1
ipc-2014-optimal-maintenance-1.3.025.100.2-002.pddl,CRASHED:1136.54:1000000000.0:1800.0:-1
ipc-2014-optimal-openstacks-p20_1.pddl,SAT:550.43:3.0:1800.0:-1
ipc-2014-optimal-openstacks-p20_2.pddl,SAT:547.052:4.0:1800.0:-1
ipc-2014-optimal-openstacks-p20_3.pddl,SAT:45.3091:6.0:1800.0:-1
ipc-2014-optimal-openstacks-p25_1.pddl,SAT:543.864:4.0:1800.0:-1
ipc-2014-optimal-openstacks-p25_3.pddl,SAT:534.768:9.0:1800.0:-1
ipc-2014-optimal-openstacks-p30_1.pddl,SAT:488.917:4.0:1800.0:-1
ipc-2014-optimal-openstacks-p30_2.pddl,SAT:498.965:4.0:1800.0:-1
ipc-2014-optimal-openstacks-p30_3.pddl,SAT:601.338:12.0:1800.0:-1
ipc-2014-optimal-openstacks-p35_1.pddl,SAT:676.597:4.0:1800.0:-1
ipc-2014-optimal-openstacks-p35_2.pddl,SAT:645.164:5.0:1800.0:-1
ipc-2014-optimal-openstacks-p35_3.pddl,CRASHED:1778.52:1000000000.0:1800.0:-1
ipc-2014-optimal-openstacks-p40_1.pddl,SAT:580.087:3.0:1800.0:-1
ipc-2014-optimal-openstacks-p40_2.pddl,SAT:672.134:4.0:1800.0:-1
ipc-2014-optimal-openstacks-p40_3.pddl,CRASHED:1781.66:1000000000.0:1800.0:-1
ipc-2014-optimal-openstacks-p45_1.pddl,SAT:747.154:4.0:1800.0:-1
ipc-2014-optimal-openstacks-p45_2.pddl,CRASHED:1785.02:1000000000.0:1800.0:-1
ipc-2014-optimal-openstacks-p45_3.pddl,CRASHED:1123.81:1000000000.0:1800.0:-1
ipc-2014-optimal-openstacks-p50_1.pddl,CRASHED:1788.48:1000000000.0:1800.0:-1
ipc-2014-optimal-openstacks-p50_2.pddl,CRASHED:1265.79:1000000000.0:1800.0:-1
ipc-2014-optimal-openstacks-p50_3.pddl,CRASHED:1784.31:1000000000.0:1800.0:-1
ipc-2014-optimal-parking-12_7-01.pddl,SAT:180.417:18.0:1800.0:-1
ipc-2014-optimal-parking-12_7-02.pddl,SAT:184.029:18.0:1800.0:-1
ipc-2014-optimal-parking-12_7-03.pddl,SAT:178.604:17.0:1800.0:-1
ipc-2014-optimal-parking-12_7-04.pddl,SAT:200.432:19.0:1800.0:-1
ipc-2014-optimal-parking-14_8-01.pddl,CRASHED:1790.53:1000000000.0:1800.0:-1
ipc-2014-optimal-parking-14_8-02.pddl,SAT:329.503:22.0:1800.0:-1
ipc-2014-optimal-parking-14_8-03.pddl,SAT:218.091:21.0:1800.0:-1
ipc-2014-optimal-parking-14_8-04.pddl,TIMEOUT:1801.01:-1.0:1800.0:-1
ipc-2014-optimal-parking-16_9-01.pddl,CRASHED:1625.29:1000000000.0:1800.0:-1
ipc-2014-optimal-parking-16_9-02.pddl,CRASHED:162.89:1000000000.0:1800.0:-1
ipc-2014-optimal-parking-16_9-03.pddl,CRASHED:162.94:1000000000.0:1800.0:-1
ipc-2014-optimal-parking-16_9-04.pddl,CRASHED:1798.15:1000000000.0:1800.0:-1
ipc-2014-optimal-parking-18_10-01.pddl,CRASHED:1629.95:1000000000.0:1800.0:-1
ipc-2014-optimal-parking-18_10-02.pddl,CRASHED:320.82:1000000000.0:1800.0:-1
ipc-2014-optimal-parking-18_10-03.pddl,CRASHED:320.69:1000000000.0:1800.0:-1
ipc-2014-optimal-parking-18_10-04.pddl,CRASHED:321.27:1000000000.0:1800.0:-1
ipc-2014-optimal-parking-20_11-01.pddl,CRASHED:1509.95:1000000000.0:1800.0:-1
ipc-2014-optimal-parking-20_11-02.pddl,CRASHED:1509.92:1000000000.0:1800.0:-1
ipc-2014-optimal-parking-20_11-03.pddl,CRASHED:1536.35:1000000000.0:1800.0:-1
ipc-2014-optimal-parking-20_11-04.pddl,CRASHED:320.68:1000000000.0:1800.0:-1
ipc-2014-optimal-tetris-01-10.pddl,CRASHED:517.84:1000000000.0:1800.0:-1
ipc-2014-optimal-tetris-01-04.pddl,CRASHED:514.56:1000000000.0:1800.0:-1
ipc-2014-optimal-tetris-01-06.pddl,SAT:258.018:30.0:1800.0:-1
ipc-2014-optimal-tetris-01-08.pddl,SAT:52.2941:36.0:1800.0:-1
ipc-2014-optimal-tetris-02-10.pddl,CRASHED:515.67:1000000000.0:1800.0:-1
ipc-2014-optimal-tetris-02-04.pddl,SAT:0.940856:10.0:1800.0:-1
ipc-2014-optimal-tetris-02-06.pddl,SAT:56.2055:30.0:1800.0:-1
ipc-2014-optimal-tetris-02-08.pddl,CRASHED:630.31:1000000000.0:1800.0:-1
ipc-2014-optimal-tetris-03-10.pddl,CRASHED:1652.83:1000000000.0:1800.0:-1
ipc-2014-optimal-tetris-03-04.pddl,SAT:22.9195:11.0:1800.0:-1
ipc-2014-optimal-tetris-03-06.pddl,SAT:194.142:21.0:1800.0:-1
ipc-2014-optimal-tetris-03-08.pddl,CRASHED:1711.0:1000000000.0:1800.0:-1
ipc-2014-optimal-tetris-04-10.pddl,CRASHED:519.28:1000000000.0:1800.0:-1
ipc-2014-optimal-tetris-04-04.pddl,CRASHED:304.965:1000000000.0:1800.0:-1
ipc-2014-optimal-tetris-04-06.pddl,SAT:236.367:27.0:1800.0:-1
ipc-2014-optimal-tetris-04-08.pddl,CRASHED:662.04:1000000000.0:1800.0:-1
ipc-2014-optimal-tetris-05-10.pddl,CRASHED:1569.51:1000000000.0:1800.0:-1
ipc-2014-optimal-tetris-05-04.pddl,CRASHED:409.368:1000000000.0:1800.0:-1
ipc-2014-optimal-tetris-05-06.pddl,SAT:25.3731:19.0:1800.0:-1
ipc-2014-optimal-tetris-05-08.pddl,CRASHED:1708.0:1000000000.0:1800.0:-1
ipc-2014-optimal-tidybot-01.pddl,CRASHED:1654.45:1000000000.0:1800.0:-1
ipc-2014-optimal-tidybot-02.pddl,SAT:285.62:35.0:1800.0:-1
ipc-2014-optimal-tidybot-03.pddl,SAT:321.32:30.0:1800.0:-1
ipc-2014-optimal-tidybot-04.pddl,SAT:321.59:24.0:1800.0:-1
ipc-2014-optimal-tidybot-05.pddl,CRASHED:1694.49:1000000000.0:1800.0:-1
ipc-2014-optimal-tidybot-06.pddl,CRASHED:1694.63:1000000000.0:1800.0:-1
ipc-2014-optimal-tidybot-07.pddl,CRASHED:1694.51:1000000000.0:1800.0:-1
ipc-2014-optimal-tidybot-08.pddl,SAT:66.4789:25.0:1800.0:-1
ipc-2014-optimal-tidybot-09.pddl,CRASHED:1665.12:1000000000.0:1800.0:-1
ipc-2014-optimal-tidybot-10.pddl,CRASHED:1668.22:1000000000.0:1800.0:-1
ipc-2014-optimal-tidybot-11.pddl,SAT:40.9468:29.0:1800.0:-1
ipc-2014-optimal-tidybot-12.pddl,SAT:321.83:35.0:1800.0:-1
ipc-2014-optimal-tidybot-13.pddl,SAT:321.0:30.0:1800.0:-1
ipc-2014-optimal-tidybot-14.pddl,SAT:54.7417:25.0:1800.0:-1
ipc-2014-optimal-tidybot-15.pddl,CRASHED:1689.69:1000000000.0:1800.0:-1
ipc-2014-optimal-tidybot-16.pddl,CRASHED:1694.53:1000000000.0:1800.0:-1
ipc-2014-optimal-tidybot-17.pddl,CRASHED:1693.93:1000000000.0:1800.0:-1
ipc-2014-optimal-tidybot-18.pddl,CRASHED:1693.64:1000000000.0:1800.0:-1
ipc-2014-optimal-tidybot-19.pddl,CRASHED:1682.7:1000000000.0:1800.0:-1
ipc-2014-optimal-tidybot-20.pddl,CRASHED:1692.29:1000000000.0:1800.0:-1
ipc-2014-optimal-transport-01.pddl,SAT:21.3887:148.0:1800.0:-1
ipc-2014-optimal-transport-02.pddl,SAT:25.9651:191.0:1800.0:-1
ipc-2014-optimal-transport-03.pddl,SAT:68.4846:300.0:1800.0:-1
ipc-2014-optimal-transport-04.pddl,CRASHED:1775.87:1000000000.0:1800.0:-1
ipc-2014-optimal-transport-05.pddl,CRASHED:1780.46:1000000000.0:1800.0:-1
ipc-2014-optimal-transport-06.pddl,CRASHED:752.14:1000000000.0:1800.0:-1
ipc-2014-optimal-transport-07.pddl,SAT:66.1149:967.0:1800.0:-1
ipc-2014-optimal-transport-08.pddl,SAT:500.462:1173.0:1800.0:-1
ipc-2014-optimal-transport-09.pddl,CRASHED:1779.69:1000000000.0:1800.0:-1
ipc-2014-optimal-transport-10.pddl,CRASHED:1772.3:1000000000.0:1800.0:-1
ipc-2014-optimal-transport-11.pddl,CRASHED:197.34:1000000000.0:1800.0:-1
ipc-2014-optimal-transport-12.pddl,CRASHED:1774.14:1000000000.0:1800.0:-1
ipc-2014-optimal-transport-13.pddl,SAT:32.626:594.0:1800.0:-1
ipc-2014-optimal-transport-14.pddl,SAT:290.341:526.0:1800.0:-1
ipc-2014-optimal-transport-15.pddl,CRASHED:1776.27:1000000000.0:1800.0:-1
ipc-2014-optimal-transport-16.pddl,CRASHED:59.1499:1000000000.0:1800.0:-1
ipc-2014-optimal-transport-17.pddl,TIMEOUT:1801.07:-1.0:1800.0:-1
ipc-2014-optimal-transport-18.pddl,CRASHED:172.97:1000000000.0:1800.0:-1
ipc-2014-optimal-transport-19.pddl,CRASHED:1206.95:1000000000.0:1800.0:-1
ipc-2014-optimal-transport-20.pddl,CRASHED:1209.47:1000000000.0:1800.0:-1
ipc-2014-optimal-visitall-05-10.pddl,CRASHED:1782.96:1000000000.0:1800.0:-1
ipc-2014-optimal-visitall-05-05.pddl,SAT:4.04938:21.0:1800.0:-1
ipc-2014-optimal-visitall-05-06.pddl,SAT:6.48901:25.0:1800.0:-1
ipc-2014-optimal-visitall-05-07.pddl,SAT:115.281:34.0:1800.0:-1
ipc-2014-optimal-visitall-05-08.pddl,SAT:701.882:43.0:1800.0:-1
ipc-2014-optimal-visitall-05-09.pddl,CRASHED:1785.06:1000000000.0:1800.0:-1
ipc-2014-optimal-visitall-01-10.pddl,SAT:172.635:99.0:1800.0:-1
ipc-2014-optimal-visitall-01-11.pddl,SAT:172.931:120.0:1800.0:-1
ipc-2014-optimal-visitall-01-12.pddl,SAT:215.36:143.0:1800.0:-1
ipc-2014-optimal-visitall-01-13.pddl,SAT:175.426:168.0:1800.0:-1
ipc-2014-optimal-visitall-01-14.pddl,CRASHED:1783.2:1000000000.0:1800.0:-1
ipc-2014-optimal-visitall-01-15.pddl,CRASHED:1780.89:1000000000.0:1800.0:-1
ipc-2014-optimal-visitall-01-16.pddl,CRASHED:1552.8:1000000000.0:1800.0:-1
ipc-2014-optimal-visitall-01-17.pddl,CRASHED:1787.01:1000000000.0:1800.0:-1
ipc-2014-optimal-visitall-01-18.pddl,CRASHED:1779.62:1000000000.0:1800.0:-1
ipc-2014-optimal-visitall-01-05.pddl,SAT:20.2849:24.0:1800.0:-1
ipc-2014-optimal-visitall-01-06.pddl,SAT:172.917:35.0:1800.0:-1
ipc-2014-optimal-visitall-01-07.pddl,SAT:172.922:48.0:1800.0:-1
ipc-2014-optimal-visitall-01-08.pddl,SAT:173.297:63.0:1800.0:-1
ipc-2014-optimal-visitall-01-09.pddl,SAT:173.375:80.0:1800.0:-1
