instance,ipc-2014-agile-freelunch
ipc-2014-agile-barman-p1-11-4-15.pddl,TIMEOUT:301.04:-1.0:300.0:-1
ipc-2014-agile-barman-p1-11-5-15.pddl,TIMEOUT:301.02:-1.0:300.0:-1
ipc-2014-agile-barman-p1-11-5-16.pddl,TIMEOUT:301.01:-1.0:300.0:-1
ipc-2014-agile-barman-p2-10-4-13.pddl,TIMEOUT:301.05:-1.0:300.0:-1
ipc-2014-agile-barman-p2-11-4-15.pddl,TIMEOUT:301.1:-1.0:300.0:-1
ipc-2014-agile-barman-p2-11-5-15.pddl,TIMEOUT:301.02:-1.0:300.0:-1
ipc-2014-agile-barman-p2-11-5-16.pddl,TIMEOUT:301.06:-1.0:300.0:-1
ipc-2014-agile-barman-p2-11-5-17.pddl,TIMEOUT:301.05:-1.0:300.0:-1
ipc-2014-agile-barman-p3-10-4-13.pddl,TIMEOUT:301.03:-1.0:300.0:-1
ipc-2014-agile-barman-p3-11-4-15.pddl,TIMEOUT:301.01:-1.0:300.0:-1
ipc-2014-agile-barman-p3-11-5-15.pddl,TIMEOUT:301.07:-1.0:300.0:-1
ipc-2014-agile-barman-p3-11-5-16.pddl,TIMEOUT:301.04:-1.0:300.0:-1
ipc-2014-agile-barman-p3-11-5-17.pddl,TIMEOUT:301.06:-1.0:300.0:-1
ipc-2014-agile-barman-p4-11-4-14.pddl,TIMEOUT:301.03:-1.0:300.0:-1
ipc-2014-agile-barman-p4-11-4-15.pddl,TIMEOUT:301.05:-1.0:300.0:-1
ipc-2014-agile-barman-p4-11-5-15.pddl,TIMEOUT:301.05:-1.0:300.0:-1
ipc-2014-agile-barman-p5-10-4-13.pddl,TIMEOUT:301.09:-1.0:300.0:-1
ipc-2014-agile-barman-p5-11-4-15.pddl,TIMEOUT:301.05:-1.0:300.0:-1
ipc-2014-agile-barman-p5-11-5-15.pddl,TIMEOUT:301.08:-1.0:300.0:-1
ipc-2014-agile-barman-p5-11-5-16.pddl,TIMEOUT:301.12:-1.0:300.0:-1
ipc-2014-agile-cavediving-01_easy.pddl,CRASHED:1.17782:1000000000.0:300.0:-1
ipc-2014-agile-cavediving-01.pddl,CRASHED:1.48677:1000000000.0:300.0:-1
ipc-2014-agile-cavediving-02_easy.pddl,CRASHED:1.14782:1000000000.0:300.0:-1
ipc-2014-agile-cavediving-03_easy.pddl,CRASHED:1.14982:1000000000.0:300.0:-1
ipc-2014-agile-cavediving-04_easy.pddl,CRASHED:1.20482:1000000000.0:300.0:-1
ipc-2014-agile-cavediving-05A_easy.pddl,CRASHED:0.560914:1000000000.0:300.0:-1
ipc-2014-agile-cavediving-06A_easy.pddl,CRASHED:0.554914:1000000000.0:300.0:-1
ipc-2014-agile-cavediving-07_easy.pddl,SAT:10.4954:158.0:300.0:-1
ipc-2014-agile-cavediving-08_easy.pddl,CRASHED:0.574911:1000000000.0:300.0:-1
ipc-2014-agile-cavediving-09_easy.pddl,CRASHED:4.44532:1000000000.0:300.0:-1
ipc-2014-agile-cavediving-10_easy.pddl,CRASHED:4.67329:1000000000.0:300.0:-1
ipc-2014-agile-cavediving-11_easy.pddl,CRASHED:4.27235:1000000000.0:300.0:-1
ipc-2014-agile-cavediving-12_easy.pddl,CRASHED:4.66829:1000000000.0:300.0:-1
ipc-2014-agile-cavediving-13_easy.pddl,CRASHED:1.55476:1000000000.0:300.0:-1
ipc-2014-agile-cavediving-14_easy.pddl,CRASHED:1.50077:1000000000.0:300.0:-1
ipc-2014-agile-cavediving-15_easy.pddl,CRASHED:1.42378:1000000000.0:300.0:-1
ipc-2014-agile-cavediving-16_easy.pddl,CRASHED:1.50477:1000000000.0:300.0:-1
ipc-2014-agile-cavediving-18A_easy.pddl,SAT:256.244:131.0:300.0:-1
ipc-2014-agile-cavediving-18_easy.pddl,TIMEOUT:301.09:-1.0:300.0:-1
ipc-2014-agile-cavediving-20A_easy.pddl,CRASHED:0.645901:1000000000.0:300.0:-1
ipc-2014-agile-childsnack-05-2.pddl,SAT:68.9975:38.0:300.0:-1
ipc-2014-agile-childsnack-05.pddl,SAT:68.9295:40.0:300.0:-1
ipc-2014-agile-childsnack-06-2.pddl,SAT:126.496:36.0:300.0:-1
ipc-2014-agile-childsnack-07-2.pddl,SAT:204.424:44.0:300.0:-1
ipc-2014-agile-childsnack-08-2.pddl,TIMEOUT:301.05:-1.0:300.0:-1
ipc-2014-agile-childsnack-08.pddl,TIMEOUT:301.08:-1.0:300.0:-1
ipc-2014-agile-childsnack-09-2.pddl,TIMEOUT:301.07:-1.0:300.0:-1
ipc-2014-agile-childsnack-09.pddl,TIMEOUT:301.02:-1.0:300.0:-1
ipc-2014-agile-childsnack-10-2.pddl,TIMEOUT:301.06:-1.0:300.0:-1
ipc-2014-agile-childsnack-10.pddl,TIMEOUT:301.03:-1.0:300.0:-1
ipc-2014-agile-childsnack-11-2.pddl,TIMEOUT:301.08:-1.0:300.0:-1
ipc-2014-agile-childsnack-11.pddl,TIMEOUT:301.02:-1.0:300.0:-1
ipc-2014-agile-childsnack-12.pddl,TIMEOUT:301.09:-1.0:300.0:-1
ipc-2014-agile-childsnack-13-2.pddl,TIMEOUT:301.03:-1.0:300.0:-1
ipc-2014-agile-childsnack-13.pddl,TIMEOUT:301.05:-1.0:300.0:-1
ipc-2014-agile-childsnack-14.pddl,CRASHED:169.44:1000000000.0:300.0:-1
ipc-2014-agile-childsnack-15-2.pddl,CRASHED:252.58:1000000000.0:300.0:-1
ipc-2014-agile-childsnack-16-2.pddl,CRASHED:45.07:1000000000.0:300.0:-1
ipc-2014-agile-childsnack-19-2.pddl,CRASHED:63.24:1000000000.0:300.0:-1
ipc-2014-agile-childsnack-19.pddl,CRASHED:62.48:1000000000.0:300.0:-1
ipc-2014-agile-citycar-p3-2-2-0-1.pddl,CRASHED:0.728888:1000000000.0:300.0:-1
ipc-2014-agile-citycar-p3-3-2-0-1.pddl,CRASHED:0.880865:1000000000.0:300.0:-1
ipc-2014-agile-citycar-p3-4-2-0-1.pddl,CRASHED:0.974851:1000000000.0:300.0:-1
ipc-2014-agile-citycar-p3-5-2-0-1.pddl,CRASHED:1.08783:1000000000.0:300.0:-1
ipc-2014-agile-citycar-p3-5-2-0-2.pddl,CRASHED:1.21681:1000000000.0:300.0:-1
ipc-2014-agile-citycar-p4-2-2-0-1.pddl,CRASHED:1.49177:1000000000.0:300.0:-1
ipc-2014-agile-citycar-p4-2-3-0-1.pddl,CRASHED:1.50577:1000000000.0:300.0:-1
ipc-2014-agile-citycar-p4-2-3-0-2.pddl,CRASHED:1.52677:1000000000.0:300.0:-1
ipc-2014-agile-citycar-p4-3-2-0-1.pddl,CRASHED:1.73373:1000000000.0:300.0:-1
ipc-2014-agile-citycar-p4-3-2-0-2.pddl,CRASHED:1.58076:1000000000.0:300.0:-1
ipc-2014-agile-citycar-p4-3-3-0-1.pddl,CRASHED:1.58076:1000000000.0:300.0:-1
ipc-2014-agile-citycar-p4-3-3-0-2.pddl,CRASHED:1.56676:1000000000.0:300.0:-1
ipc-2014-agile-citycar-p4-4-2-0-1.pddl,CRASHED:1.88271:1000000000.0:300.0:-1
ipc-2014-agile-citycar-p4-4-2-0-2.pddl,CRASHED:1.9527:1000000000.0:300.0:-1
ipc-2014-agile-citycar-p4-4-3-0-1.pddl,CRASHED:1.9397:1000000000.0:300.0:-1
ipc-2014-agile-citycar-p4-4-3-0-2.pddl,CRASHED:1.93171:1000000000.0:300.0:-1
ipc-2014-agile-citycar-p4-5-2-0-1.pddl,CRASHED:2.24066:1000000000.0:300.0:-1
ipc-2014-agile-citycar-p4-5-2-0-2.pddl,CRASHED:2.26665:1000000000.0:300.0:-1
ipc-2014-agile-citycar-p4-5-3-0-1.pddl,CRASHED:2.28565:1000000000.0:300.0:-1
ipc-2014-agile-citycar-p4-5-3-0-2.pddl,CRASHED:2.26865:1000000000.0:300.0:-1
ipc-2014-agile-floortile-p01-4-3-2.pddl,SAT:14.3038:106.0:300.0:-1
ipc-2014-agile-floortile-p01-5-4-2.pddl,SAT:52.2161:187.0:300.0:-1
ipc-2014-agile-floortile-p01-5-5-2.pddl,SAT:284.871:221.0:300.0:-1
ipc-2014-agile-floortile-p01-6-4-2.pddl,SAT:104.357:214.0:300.0:-1
ipc-2014-agile-floortile-p01-6-5-2.pddl,TIMEOUT:301.1:-1.0:300.0:-1
ipc-2014-agile-floortile-p01-6-5-3.pddl,SAT:163.75:281.0:300.0:-1
ipc-2014-agile-floortile-p02-5-4-2.pddl,SAT:47.4128:170.0:300.0:-1
ipc-2014-agile-floortile-p02-6-4-2.pddl,SAT:103.213:221.0:300.0:-1
ipc-2014-agile-floortile-p02-6-5-2.pddl,TIMEOUT:301.05:-1.0:300.0:-1
ipc-2014-agile-floortile-p02-6-5-3.pddl,TIMEOUT:301.09:-1.0:300.0:-1
ipc-2014-agile-floortile-p03-6-4-2.pddl,SAT:99.5719:230.0:300.0:-1
ipc-2014-agile-floortile-p03-6-5-2.pddl,TIMEOUT:301.07:-1.0:300.0:-1
ipc-2014-agile-floortile-p03-6-5-3.pddl,SAT:279.158:277.0:300.0:-1
ipc-2014-agile-floortile-p04-5-4-2.pddl,SAT:49.1045:185.0:300.0:-1
ipc-2014-agile-floortile-p04-5-5-2.pddl,TIMEOUT:301.09:-1.0:300.0:-1
ipc-2014-agile-floortile-p04-6-5-2.pddl,TIMEOUT:301.02:-1.0:300.0:-1
ipc-2014-agile-floortile-p04-6-5-3.pddl,TIMEOUT:301.05:-1.0:300.0:-1
ipc-2014-agile-floortile-p05-4-3-2.pddl,SAT:16.0646:92.0:300.0:-1
ipc-2014-agile-floortile-p05-6-5-2.pddl,TIMEOUT:301.04:-1.0:300.0:-1
ipc-2014-agile-floortile-p05-6-5-3.pddl,SAT:240.767:289.0:300.0:-1
ipc-2014-agile-ged-d-10-1.pddl,CRASHED:128.11:1000000000.0:300.0:-1
ipc-2014-agile-ged-d-10-2.pddl,CRASHED:6.92795:1000000000.0:300.0:-1
ipc-2014-agile-ged-d-10-3.pddl,CRASHED:145.68:1000000000.0:300.0:-1
ipc-2014-agile-ged-d-10-4.pddl,CRASHED:120.27:1000000000.0:300.0:-1
ipc-2014-agile-ged-d-10-5.pddl,CRASHED:171.2:1000000000.0:300.0:-1
ipc-2014-agile-ged-d-10-6.pddl,CRASHED:138.88:1000000000.0:300.0:-1
ipc-2014-agile-ged-d-11-1.pddl,CRASHED:9.1876:1000000000.0:300.0:-1
ipc-2014-agile-ged-d-11-3.pddl,CRASHED:138.82:1000000000.0:300.0:-1
ipc-2014-agile-ged-d-11-5.pddl,CRASHED:212.77:1000000000.0:300.0:-1
ipc-2014-agile-ged-d-11-6.pddl,CRASHED:161.92:1000000000.0:300.0:-1
ipc-2014-agile-ged-d-12-11.pddl,CRASHED:154.01:1000000000.0:300.0:-1
ipc-2014-agile-ged-d-12-2.pddl,CRASHED:217.98:1000000000.0:300.0:-1
ipc-2014-agile-ged-d-12-3.pddl,CRASHED:240.79:1000000000.0:300.0:-1
ipc-2014-agile-ged-d-12-5.pddl,CRASHED:290.86:1000000000.0:300.0:-1
ipc-2014-agile-ged-d-12-6.pddl,CRASHED:187.09:1000000000.0:300.0:-1
ipc-2014-agile-ged-d-12-7.pddl,CRASHED:246.71:1000000000.0:300.0:-1
ipc-2014-agile-ged-d-12-8.pddl,CRASHED:298.79:1000000000.0:300.0:-1
ipc-2014-agile-ged-d-12-9.pddl,TIMEOUT:301.02:-1.0:300.0:-1
ipc-2014-agile-ged-d-3-6.pddl,CRASHED:136.51:1000000000.0:300.0:-1
ipc-2014-agile-ged-d-9-5.pddl,CRASHED:173.27:1000000000.0:300.0:-1
ipc-2014-agile-hiking-3-4-3.pddl,SAT:3.43748:1712.0:300.0:-1
ipc-2014-agile-hiking-3-4-4.pddl,CRASHED:8.40872:1000000000.0:300.0:-1
ipc-2014-agile-hiking-3-4-5.pddl,SAT:8.79866:3983.0:300.0:-1
ipc-2014-agile-hiking-3-4-6.pddl,TIMEOUT:301.03:-1.0:300.0:-1
ipc-2014-agile-hiking-3-4-7.pddl,CRASHED:16.8654:1000000000.0:300.0:-1
ipc-2014-agile-hiking-3-4-8.pddl,TIMEOUT:301.12:-1.0:300.0:-1
ipc-2014-agile-hiking-3-4-9.pddl,TIMEOUT:301.07:-1.0:300.0:-1
ipc-2014-agile-hiking-4-5-3.pddl,TIMEOUT:301.03:-1.0:300.0:-1
ipc-2014-agile-hiking-4-5-4.pddl,TIMEOUT:301.01:-1.0:300.0:-1
ipc-2014-agile-hiking-4-5-5.pddl,TIMEOUT:301.07:-1.0:300.0:-1
ipc-2014-agile-hiking-4-5-6.pddl,TIMEOUT:301.1:-1.0:300.0:-1
ipc-2014-agile-hiking-4-5-7.pddl,TIMEOUT:301.11:-1.0:300.0:-1
ipc-2014-agile-hiking-4-5-8.pddl,TIMEOUT:301.1:-1.0:300.0:-1
ipc-2014-agile-hiking-4-5-9.pddl,TIMEOUT:301.04:-1.0:300.0:-1
ipc-2014-agile-hiking-5-6-3.pddl,SAT:18.1412:6322.0:300.0:-1
ipc-2014-agile-hiking-5-6-4.pddl,TIMEOUT:301.11:-1.0:300.0:-1
ipc-2014-agile-hiking-5-6-5.pddl,TIMEOUT:301.01:-1.0:300.0:-1
ipc-2014-agile-hiking-5-6-6.pddl,TIMEOUT:301.15:-1.0:300.0:-1
ipc-2014-agile-hiking-5-6-7.pddl,TIMEOUT:301.12:-1.0:300.0:-1
ipc-2014-agile-hiking-5-6-8.pddl,TIMEOUT:301.06:-1.0:300.0:-1
ipc-2014-agile-maintenance-1.3.060.180.5-000.pddl,SAT:1.40779:42.0:300.0:-1
ipc-2014-agile-maintenance-1.3.060.180.5-001.pddl,SAT:1.40579:41.0:300.0:-1
ipc-2014-agile-maintenance-1.3.060.180.5-002.pddl,SAT:11.7872:58.0:300.0:-1
ipc-2014-agile-maintenance-1.3.100.300.5-000.pddl,SAT:2.74958:71.0:300.0:-1
ipc-2014-agile-maintenance-1.3.100.300.5-001.pddl,SAT:13.299:88.0:300.0:-1
ipc-2014-agile-maintenance-1.3.100.300.7-000.pddl,SAT:3.21451:55.0:300.0:-1
ipc-2014-agile-maintenance-1.3.100.300.7-001.pddl,SAT:13.8359:75.0:300.0:-1
ipc-2014-agile-maintenance-1.3.100.300.7-002.pddl,SAT:3.21751:56.0:300.0:-1
ipc-2014-agile-maintenance-1.3.150.500.6-001.pddl,SAT:17.1004:133.0:300.0:-1
ipc-2014-agile-maintenance-1.3.200.500.5-001.pddl,SAT:17.9723:166.0:300.0:-1
ipc-2014-agile-maintenance-1.3.200.500.5-002.pddl,SAT:17.9373:178.0:300.0:-1
ipc-2014-agile-maintenance-1.3.200.700.7-000.pddl,SAT:23.25:163.0:300.0:-1
ipc-2014-agile-maintenance-1.3.200.700.7-001.pddl,SAT:12.3761:115.0:300.0:-1
ipc-2014-agile-maintenance-1.3.200.700.7-002.pddl,SAT:12.3741:122.0:300.0:-1
ipc-2014-agile-maintenance-1.3.200.900.5-000.pddl,SAT:23.3325:200.0:300.0:-1
ipc-2014-agile-maintenance-1.3.200.900.5-001.pddl,SAT:23.4254:200.0:300.0:-1
ipc-2014-agile-maintenance-1.3.200.900.5-002.pddl,SAT:23.3914:200.0:300.0:-1
ipc-2014-agile-maintenance-1.3.200.900.8-000.pddl,SAT:16.6185:118.0:300.0:-1
ipc-2014-agile-maintenance-1.3.200.900.8-001.pddl,SAT:16.7714:120.0:300.0:-1
ipc-2014-agile-maintenance-1.3.200.900.8-002.pddl,SAT:27.8328:162.0:300.0:-1
ipc-2014-agile-openstacks-p130_2.pddl,SAT:11.2553:92.0:300.0:-1
ipc-2014-agile-openstacks-p130_3.pddl,SAT:12.5661:127.0:300.0:-1
ipc-2014-agile-openstacks-p150_2.pddl,SAT:14.3058:103.0:300.0:-1
ipc-2014-agile-openstacks-p150_3.pddl,TIMEOUT:301.09:-1.0:300.0:-1
ipc-2014-agile-openstacks-p170_1.pddl,SAT:18.6932:110.0:300.0:-1
ipc-2014-agile-openstacks-p170_2.pddl,SAT:19.0101:132.0:300.0:-1
ipc-2014-agile-openstacks-p170_3.pddl,SAT:22.0906:169.0:300.0:-1
ipc-2014-agile-openstacks-p190_1.pddl,SAT:23.6754:131.0:300.0:-1
ipc-2014-agile-openstacks-p190_2.pddl,SAT:24.2293:146.0:300.0:-1
ipc-2014-agile-openstacks-p190_3.pddl,SAT:28.0127:187.0:300.0:-1
ipc-2014-agile-openstacks-p210_1.pddl,SAT:28.2377:150.0:300.0:-1
ipc-2014-agile-openstacks-p210_2.pddl,SAT:28.8306:170.0:300.0:-1
ipc-2014-agile-openstacks-p230_1.pddl,SAT:33.5219:165.0:300.0:-1
ipc-2014-agile-openstacks-p230_2.pddl,SAT:34.6487:191.0:300.0:-1
ipc-2014-agile-openstacks-p250_1.pddl,SAT:39.622:190.0:300.0:-1
ipc-2014-agile-openstacks-p250_2.pddl,SAT:40.7648:213.0:300.0:-1
ipc-2014-agile-openstacks-p270_1.pddl,SAT:46.7649:227.0:300.0:-1
ipc-2014-agile-openstacks-p270_2.pddl,SAT:47.9527:225.0:300.0:-1
ipc-2014-agile-openstacks-p290_1.pddl,SAT:53.3649:223.0:300.0:-1
ipc-2014-agile-openstacks-p290_2.pddl,SAT:55.1116:251.0:300.0:-1
ipc-2014-agile-parking-28_2.pddl,TIMEOUT:301.14:-1.0:300.0:-1
ipc-2014-agile-parking-28_3.pddl,TIMEOUT:301.26:-1.0:300.0:-1
ipc-2014-agile-parking-30_1.pddl,TIMEOUT:301.11:-1.0:300.0:-1
ipc-2014-agile-parking-30_2.pddl,TIMEOUT:301.14:-1.0:300.0:-1
ipc-2014-agile-parking-30_3.pddl,TIMEOUT:301.11:-1.0:300.0:-1
ipc-2014-agile-parking-32_1.pddl,TIMEOUT:301.11:-1.0:300.0:-1
ipc-2014-agile-parking-32_2.pddl,TIMEOUT:301.0:-1.0:300.0:-1
ipc-2014-agile-parking-32_3.pddl,TIMEOUT:301.04:-1.0:300.0:-1
ipc-2014-agile-parking-34_1.pddl,TIMEOUT:301.12:-1.0:300.0:-1
ipc-2014-agile-parking-34_2.pddl,TIMEOUT:301.15:-1.0:300.0:-1
ipc-2014-agile-parking-34_3.pddl,TIMEOUT:301.07:-1.0:300.0:-1
ipc-2014-agile-parking-36_1.pddl,TIMEOUT:301.15:-1.0:300.0:-1
ipc-2014-agile-parking-36_2.pddl,TIMEOUT:301.26:-1.0:300.0:-1
ipc-2014-agile-parking-36_3.pddl,TIMEOUT:301.14:-1.0:300.0:-1
ipc-2014-agile-parking-38_1.pddl,TIMEOUT:301.06:-1.0:300.0:-1
ipc-2014-agile-parking-38_2.pddl,TIMEOUT:301.28:-1.0:300.0:-1
ipc-2014-agile-parking-38_3.pddl,TIMEOUT:301.02:-1.0:300.0:-1
ipc-2014-agile-parking-40_1.pddl,TIMEOUT:301.23:-1.0:300.0:-1
ipc-2014-agile-parking-40_2.pddl,TIMEOUT:301.01:-1.0:300.0:-1
ipc-2014-agile-parking-40_3.pddl,TIMEOUT:301.23:-1.0:300.0:-1
ipc-2014-agile-tetris-020.pddl,SAT:5.37118:206.0:300.0:-1
ipc-2014-agile-tetris-021.pddl,SAT:16.7734:579.0:300.0:-1
ipc-2014-agile-tetris-022.pddl,SAT:12.0512:399.0:300.0:-1
ipc-2014-agile-tetris-023.pddl,SAT:12.4801:407.0:300.0:-1
ipc-2014-agile-tetris-024.pddl,SAT:17.3934:455.0:300.0:-1
ipc-2014-agile-tetris-025.pddl,SAT:7.2499:1335.0:300.0:-1
ipc-2014-agile-tetris-026.pddl,CRASHED:38.9781:1000000000.0:300.0:-1
ipc-2014-agile-tetris-027.pddl,SAT:26.326:1213.0:300.0:-1
ipc-2014-agile-tetris-028.pddl,SAT:21.2528:678.0:300.0:-1
ipc-2014-agile-tetris-029.pddl,SAT:7.14491:1137.0:300.0:-1
ipc-2014-agile-tetris-031.pddl,SAT:36.1085:1210.0:300.0:-1
ipc-2014-agile-tetris-032.pddl,SAT:13.436:1486.0:300.0:-1
ipc-2014-agile-tetris-033.pddl,SAT:30.6213:660.0:300.0:-1
ipc-2014-agile-tetris-034.pddl,SAT:30.0834:500.0:300.0:-1
ipc-2014-agile-tetris-035.pddl,SAT:35.3066:1000.0:300.0:-1
ipc-2014-agile-tetris-036.pddl,SAT:30.9623:632.0:300.0:-1
ipc-2014-agile-tetris-037.pddl,SAT:8.83766:541.0:300.0:-1
ipc-2014-agile-tetris-038.pddl,SAT:25.3002:643.0:300.0:-1
ipc-2014-agile-tetris-039.pddl,SAT:36.3815:1738.0:300.0:-1
ipc-2014-agile-tetris-040.pddl,SAT:25.5051:877.0:300.0:-1
ipc-2014-agile-thoughtful-bootstrap-typed-01.pddl,CRASHED:0.415936:1000000000.0:300.0:-1
ipc-2014-agile-thoughtful-bootstrap-typed-02.pddl,CRASHED:0.39294:1000000000.0:300.0:-1
ipc-2014-agile-thoughtful-bootstrap-typed-03.pddl,CRASHED:0.432933:1000000000.0:300.0:-1
ipc-2014-agile-thoughtful-bootstrap-typed-04.pddl,CRASHED:0.419935:1000000000.0:300.0:-1
ipc-2014-agile-thoughtful-bootstrap-typed-05.pddl,CRASHED:0.418935:1000000000.0:300.0:-1
ipc-2014-agile-thoughtful-p11_6_53-typed.pddl,CRASHED:0.438932:1000000000.0:300.0:-1
ipc-2014-agile-thoughtful-p11_6_59-typed.pddl,CRASHED:0.439932:1000000000.0:300.0:-1
ipc-2014-agile-thoughtful-p11_6_62-typed.pddl,CRASHED:0.441932:1000000000.0:300.0:-1
ipc-2014-agile-thoughtful-p13_7_78-typed.pddl,CRASHED:0.442932:1000000000.0:300.0:-1
ipc-2014-agile-thoughtful-p13_7_79-typed.pddl,CRASHED:0.441932:1000000000.0:300.0:-1
ipc-2014-agile-thoughtful-p13_7_86-typed.pddl,CRASHED:0.443931:1000000000.0:300.0:-1
ipc-2014-agile-thoughtful-target-typed-20.pddl,CRASHED:0.443931:1000000000.0:300.0:-1
ipc-2014-agile-thoughtful-target-typed-21.pddl,CRASHED:0.443932:1000000000.0:300.0:-1
ipc-2014-agile-thoughtful-target-typed-22.pddl,CRASHED:0.44993:1000000000.0:300.0:-1
ipc-2014-agile-thoughtful-target-typed-23.pddl,CRASHED:0.441932:1000000000.0:300.0:-1
ipc-2014-agile-thoughtful-target-typed-24.pddl,CRASHED:0.442932:1000000000.0:300.0:-1
ipc-2014-agile-thoughtful-target-typed-25.pddl,CRASHED:0.446932:1000000000.0:300.0:-1
ipc-2014-agile-thoughtful-target-typed-26.pddl,CRASHED:0.439933:1000000000.0:300.0:-1
ipc-2014-agile-thoughtful-target-typed-27.pddl,CRASHED:0.443932:1000000000.0:300.0:-1
ipc-2014-agile-thoughtful-target-typed-28.pddl,CRASHED:0.448931:1000000000.0:300.0:-1
ipc-2014-agile-transport-01.pddl,CRASHED:14.6428:1000000000.0:300.0:-1
ipc-2014-agile-transport-02.pddl,CRASHED:19.2801:1000000000.0:300.0:-1
ipc-2014-agile-transport-03.pddl,CRASHED:14.7138:1000000000.0:300.0:-1
ipc-2014-agile-transport-04.pddl,TIMEOUT:301.0:-1.0:300.0:-1
ipc-2014-agile-transport-05.pddl,TIMEOUT:301.08:-1.0:300.0:-1
ipc-2014-agile-transport-06.pddl,TIMEOUT:301.19:-1.0:300.0:-1
ipc-2014-agile-transport-07.pddl,TIMEOUT:301.04:-1.0:300.0:-1
ipc-2014-agile-transport-08.pddl,TIMEOUT:301.18:-1.0:300.0:-1
ipc-2014-agile-transport-09.pddl,TIMEOUT:301.09:-1.0:300.0:-1
ipc-2014-agile-transport-10.pddl,TIMEOUT:301.07:-1.0:300.0:-1
ipc-2014-agile-transport-11.pddl,CRASHED:19.829:1000000000.0:300.0:-1
ipc-2014-agile-transport-12.pddl,CRASHED:22.1936:1000000000.0:300.0:-1
ipc-2014-agile-transport-13.pddl,CRASHED:13.9119:1000000000.0:300.0:-1
ipc-2014-agile-transport-14.pddl,TIMEOUT:301.11:-1.0:300.0:-1
ipc-2014-agile-transport-15.pddl,TIMEOUT:301.31:-1.0:300.0:-1
ipc-2014-agile-transport-16.pddl,TIMEOUT:301.01:-1.0:300.0:-1
ipc-2014-agile-transport-17.pddl,TIMEOUT:301.16:-1.0:300.0:-1
ipc-2014-agile-transport-18.pddl,TIMEOUT:301.08:-1.0:300.0:-1
ipc-2014-agile-transport-19.pddl,TIMEOUT:301.05:-1.0:300.0:-1
ipc-2014-agile-transport-20.pddl,TIMEOUT:301.02:-1.0:300.0:-1
ipc-2014-agile-visitall-30.pddl,SAT:2.54361:2548.0:300.0:-1
ipc-2014-agile-visitall-31.pddl,SAT:2.58061:2613.0:300.0:-1
ipc-2014-agile-visitall-32.pddl,SAT:3.09153:2628.0:300.0:-1
ipc-2014-agile-visitall-33.pddl,SAT:2.71859:3089.0:300.0:-1
ipc-2014-agile-visitall-50.pddl,TIMEOUT:301.07:-1.0:300.0:-1
ipc-2014-agile-visitall-51.pddl,SAT:10.9143:6293.0:300.0:-1
ipc-2014-agile-visitall-52.pddl,SAT:5.42117:6835.0:300.0:-1
ipc-2014-agile-visitall-53.pddl,TIMEOUT:301.25:-1.0:300.0:-1
ipc-2014-agile-visitall-54.pddl,TIMEOUT:301.01:-1.0:300.0:-1
ipc-2014-agile-visitall-55.pddl,TIMEOUT:301.23:-1.0:300.0:-1
ipc-2014-agile-visitall-56.pddl,SAT:8.15276:8957.0:300.0:-1
ipc-2014-agile-visitall-57.pddl,TIMEOUT:301.08:-1.0:300.0:-1
ipc-2014-agile-visitall-58.pddl,CRASHED:276.238:1000000000.0:300.0:-1
ipc-2014-agile-visitall-59.pddl,TIMEOUT:301.0:-1.0:300.0:-1
ipc-2014-agile-visitall-60.pddl,TIMEOUT:301.2:-1.0:300.0:-1
ipc-2014-agile-visitall-61.pddl,TIMEOUT:301.02:-1.0:300.0:-1
ipc-2014-agile-visitall-62.pddl,CRASHED:223.888:1000000000.0:300.0:-1
ipc-2014-agile-visitall-63.pddl,TIMEOUT:301.1:-1.0:300.0:-1
ipc-2014-agile-visitall-64.pddl,TIMEOUT:301.14:-1.0:300.0:-1
ipc-2014-agile-visitall-65.pddl,CRASHED:263.613:1000000000.0:300.0:-1
