instance,ipc-2014-optimal-rida-fixed
ipc-2014-optimal-barman-p433.1.pddl,CRASHED:0.312951:1000000000.0:1800.0:-1
ipc-2014-optimal-barman-p433.2.pddl,CRASHED:0.298954:1000000000.0:1800.0:-1
ipc-2014-optimal-barman-p433.3.pddl,CRASHED:0.310951:1000000000.0:1800.0:-1
ipc-2014-optimal-barman-p435.1.pddl,TIMEOUT:1801.02:-1.0:1800.0:-1
ipc-2014-optimal-barman-p435.2.pddl,TIMEOUT:1801.02:-1.0:1800.0:-1
ipc-2014-optimal-barman-p435.3.pddl,CRASHED:733.83:1000000000.0:1800.0:-1
ipc-2014-optimal-barman-p443.1.pddl,CRASHED:0.32095:1000000000.0:1800.0:-1
ipc-2014-optimal-barman-p443.2.pddl,CRASHED:0.32195:1000000000.0:1800.0:-1
ipc-2014-optimal-barman-p443.3.pddl,CRASHED:0.310952:1000000000.0:1800.0:-1
ipc-2014-optimal-barman-p536.1.pddl,CRASHED:531.85:1000000000.0:1800.0:-1
ipc-2014-optimal-barman-p536.2.pddl,CRASHED:524.65:1000000000.0:1800.0:-1
ipc-2014-optimal-barman-p536.3.pddl,CRASHED:523.09:1000000000.0:1800.0:-1
ipc-2014-optimal-barman-p638.1.pddl,CRASHED:561.31:1000000000.0:1800.0:-1
ipc-2014-optimal-barman-p638.2.pddl,TIMEOUT:1801.08:-1.0:1800.0:-1
ipc-2014-optimal-barman-p638.3.pddl,TIMEOUT:1801.0:-1.0:1800.0:-1
ipc-2014-optimal-barman-p739.1.pddl,CRASHED:509.36:1000000000.0:1800.0:-1
ipc-2014-optimal-barman-p739.2.pddl,CRASHED:507.4:1000000000.0:1800.0:-1
ipc-2014-optimal-barman-p739.3.pddl,TIMEOUT:1801.1:-1.0:1800.0:-1
ipc-2014-optimal-barman-p839.1.pddl,CRASHED:528.25:1000000000.0:1800.0:-1
ipc-2014-optimal-barman-p839.2.pddl,CRASHED:486.41:1000000000.0:1800.0:-1
ipc-2014-optimal-cavediving-01.pddl,CRASHED:1.52077:1000000000.0:1800.0:-1
ipc-2014-optimal-cavediving-01_easy.pddl,CRASHED:1.15482:1000000000.0:1800.0:-1
ipc-2014-optimal-cavediving-02_easy.pddl,CRASHED:1.14682:1000000000.0:1800.0:-1
ipc-2014-optimal-cavediving-03_easy.pddl,CRASHED:1.14182:1000000000.0:1800.0:-1
ipc-2014-optimal-cavediving-04_easy.pddl,CRASHED:1.09583:1000000000.0:1800.0:-1
ipc-2014-optimal-cavediving-05A_easy.pddl,CRASHED:0.347946:1000000000.0:1800.0:-1
ipc-2014-optimal-cavediving-06A_easy.pddl,CRASHED:0.409937:1000000000.0:1800.0:-1
ipc-2014-optimal-cavediving-07_easy.pddl,SAT:283.497:131.0:1800.0:-1
ipc-2014-optimal-cavediving-08_easy.pddl,CRASHED:0.360944:1000000000.0:1800.0:-1
ipc-2014-optimal-cavediving-09_easy.pddl,CRASHED:5.2612:1000000000.0:1800.0:-1
ipc-2014-optimal-cavediving-10_easy.pddl,CRASHED:5.47917:1000000000.0:1800.0:-1
ipc-2014-optimal-cavediving-11_easy.pddl,CRASHED:5.49216:1000000000.0:1800.0:-1
ipc-2014-optimal-cavediving-12_easy.pddl,CRASHED:5.2592:1000000000.0:1800.0:-1
ipc-2014-optimal-cavediving-13_easy.pddl,CRASHED:1.53477:1000000000.0:1800.0:-1
ipc-2014-optimal-cavediving-14_easy.pddl,CRASHED:1.54476:1000000000.0:1800.0:-1
ipc-2014-optimal-cavediving-15_easy.pddl,CRASHED:1.3328:1000000000.0:1800.0:-1
ipc-2014-optimal-cavediving-16_easy.pddl,CRASHED:1.54576:1000000000.0:1800.0:-1
ipc-2014-optimal-cavediving-18A_easy.pddl,SAT:237.49:131.0:1800.0:-1
ipc-2014-optimal-cavediving-18_easy.pddl,SAT:292.262:131.0:1800.0:-1
ipc-2014-optimal-cavediving-20A_easy.pddl,CRASHED:0.448931:1000000000.0:1800.0:-1
ipc-2014-optimal-childsnack-01-2.pddl,TIMEOUT:1801.03:-1.0:1800.0:-1
ipc-2014-optimal-childsnack-01.pddl,TIMEOUT:1801.0:-1.0:1800.0:-1
ipc-2014-optimal-childsnack-02-2.pddl,TIMEOUT:1801.05:-1.0:1800.0:-1
ipc-2014-optimal-childsnack-02.pddl,TIMEOUT:1801.09:-1.0:1800.0:-1
ipc-2014-optimal-childsnack-03-2.pddl,TIMEOUT:1801.08:-1.0:1800.0:-1
ipc-2014-optimal-childsnack-03.pddl,TIMEOUT:1801.05:-1.0:1800.0:-1
ipc-2014-optimal-childsnack-04-2.pddl,TIMEOUT:1801.04:-1.0:1800.0:-1
ipc-2014-optimal-childsnack-04.pddl,TIMEOUT:1801.08:-1.0:1800.0:-1
ipc-2014-optimal-childsnack-05-2.pddl,TIMEOUT:1801.06:-1.0:1800.0:-1
ipc-2014-optimal-childsnack-05.pddl,TIMEOUT:1801.09:-1.0:1800.0:-1
ipc-2014-optimal-childsnack-06-2.pddl,TIMEOUT:1801.06:-1.0:1800.0:-1
ipc-2014-optimal-childsnack-06.pddl,TIMEOUT:1801.07:-1.0:1800.0:-1
ipc-2014-optimal-childsnack-07-2.pddl,TIMEOUT:1801.04:-1.0:1800.0:-1
ipc-2014-optimal-childsnack-07.pddl,TIMEOUT:1801.01:-1.0:1800.0:-1
ipc-2014-optimal-childsnack-08-2.pddl,TIMEOUT:1801.08:-1.0:1800.0:-1
ipc-2014-optimal-childsnack-08.pddl,TIMEOUT:1801.04:-1.0:1800.0:-1
ipc-2014-optimal-childsnack-09-2.pddl,TIMEOUT:1801.09:-1.0:1800.0:-1
ipc-2014-optimal-childsnack-09.pddl,TIMEOUT:1801.03:-1.0:1800.0:-1
ipc-2014-optimal-childsnack-10-2.pddl,TIMEOUT:1801.04:-1.0:1800.0:-1
ipc-2014-optimal-childsnack-10.pddl,TIMEOUT:1801.08:-1.0:1800.0:-1
ipc-2014-optimal-citycar-p2-2-2-1-2.pddl,SAT:1.66475:46.0:1800.0:-1
ipc-2014-optimal-citycar-p2-2-2-2-1.pddl,SAT:2.15867:64.0:1800.0:-1
ipc-2014-optimal-citycar-p2-2-3-1-2.pddl,SAT:2.44863:50.0:1800.0:-1
ipc-2014-optimal-citycar-p2-2-3-2-1.pddl,SAT:2.32465:48.0:1800.0:-1
ipc-2014-optimal-citycar-p2-2-3-2-2.pddl,SAT:2.46062:50.0:1800.0:-1
ipc-2014-optimal-citycar-p2-2-4-1-2.pddl,SAT:6.38303:52.0:1800.0:-1
ipc-2014-optimal-citycar-p2-2-4-2-1.pddl,SAT:6.30404:52.0:1800.0:-1
ipc-2014-optimal-citycar-p2-2-5-2-2.pddl,SAT:228.285:76.0:1800.0:-1
ipc-2014-optimal-citycar-p2-2-6-1-1.pddl,SAT:172.488:58.0:1800.0:-1
ipc-2014-optimal-citycar-p2-2-6-2-2.pddl,SAT:173.403:58.0:1800.0:-1
ipc-2014-optimal-citycar-p2-3-2-3-1.pddl,SAT:8.24675:68.0:1800.0:-1
ipc-2014-optimal-citycar-p2-3-3-3-1.pddl,SAT:54.2907:78.0:1800.0:-1
ipc-2014-optimal-citycar-p2-3-4-3-1.pddl,SAT:266.003:82.0:1800.0:-1
ipc-2014-optimal-citycar-p2-3-6-3-2.pddl,TIMEOUT:1801.03:-1.0:1800.0:-1
ipc-2014-optimal-citycar-p3-3-2-2-1.pddl,SAT:201.367:70.0:1800.0:-1
ipc-2014-optimal-citycar-p3-3-2-2-2.pddl,CRASHED:1535.43:1000000000.0:1800.0:-1
ipc-2014-optimal-citycar-p3-3-2-3-1.pddl,SAT:8.06977:48.0:1800.0:-1
ipc-2014-optimal-citycar-p3-3-2-3-2.pddl,SAT:173.446:70.0:1800.0:-1
ipc-2014-optimal-citycar-p3-3-3-3-1.pddl,TIMEOUT:1801.08:-1.0:1800.0:-1
ipc-2014-optimal-citycar-p3-3-3-3-2.pddl,CRASHED:1561.82:76.0:1800.0:-1
ipc-2014-optimal-floortile-p01-4-3-2.pddl,SAT:262.275:56.0:1800.0:-1
ipc-2014-optimal-floortile-p01-4-4-2.pddl,SAT:1401.98:68.0:1800.0:-1
ipc-2014-optimal-floortile-p01-5-3-2.pddl,SAT:422.916:63.0:1800.0:-1
ipc-2014-optimal-floortile-p01-5-4-2.pddl,TIMEOUT:1801.03:-1.0:1800.0:-1
ipc-2014-optimal-floortile-p01-5-5-2.pddl,TIMEOUT:1801.11:-1.0:1800.0:-1
ipc-2014-optimal-floortile-p01-6-4-2.pddl,TIMEOUT:1801.01:-1.0:1800.0:-1
ipc-2014-optimal-floortile-p01-6-5-2.pddl,TIMEOUT:1801.06:-1.0:1800.0:-1
ipc-2014-optimal-floortile-p02-4-4-2.pddl,TIMEOUT:1801.02:-1.0:1800.0:-1
ipc-2014-optimal-floortile-p02-5-3-2.pddl,SAT:484.847:65.0:1800.0:-1
ipc-2014-optimal-floortile-p02-5-4-2.pddl,TIMEOUT:1801.09:-1.0:1800.0:-1
ipc-2014-optimal-floortile-p02-5-5-2.pddl,TIMEOUT:1801.08:-1.0:1800.0:-1
ipc-2014-optimal-floortile-p02-6-4-2.pddl,TIMEOUT:1801.03:-1.0:1800.0:-1
ipc-2014-optimal-floortile-p02-6-5-2.pddl,TIMEOUT:1801.02:-1.0:1800.0:-1
ipc-2014-optimal-floortile-p03-4-3-2.pddl,SAT:274.19:56.0:1800.0:-1
ipc-2014-optimal-floortile-p03-4-4-2.pddl,TIMEOUT:1801.01:-1.0:1800.0:-1
ipc-2014-optimal-floortile-p03-5-3-2.pddl,SAT:530.877:65.0:1800.0:-1
ipc-2014-optimal-floortile-p03-5-4-2.pddl,TIMEOUT:1801.09:-1.0:1800.0:-1
ipc-2014-optimal-floortile-p03-5-5-2.pddl,TIMEOUT:1801.08:-1.0:1800.0:-1
ipc-2014-optimal-floortile-p03-6-4-2.pddl,TIMEOUT:1801.06:-1.0:1800.0:-1
ipc-2014-optimal-floortile-p03-6-5-2.pddl,TIMEOUT:1801.06:-1.0:1800.0:-1
ipc-2014-optimal-ged-d-1-2.pddl,SAT:55.1796:1.0:1800.0:-1
ipc-2014-optimal-ged-d-1-3.pddl,SAT:236.851:4.0:1800.0:-1
ipc-2014-optimal-ged-d-1-4.pddl,SAT:54.9916:1.0:1800.0:-1
ipc-2014-optimal-ged-d-1-8.pddl,SAT:297.544:4.0:1800.0:-1
ipc-2014-optimal-ged-d-2-1.pddl,SAT:54.9586:1.0:1800.0:-1
ipc-2014-optimal-ged-d-2-3.pddl,SAT:155.0:3.0:1800.0:-1
ipc-2014-optimal-ged-d-2-4.pddl,SAT:136.075:2.0:1800.0:-1
ipc-2014-optimal-ged-d-2-8.pddl,CRASHED:432.185:5.0:1800.0:-1
ipc-2014-optimal-ged-d-3-1.pddl,SAT:242.904:4.0:1800.0:-1
ipc-2014-optimal-ged-d-3-2.pddl,SAT:151.487:3.0:1800.0:-1
ipc-2014-optimal-ged-d-3-4.pddl,SAT:292.282:5.0:1800.0:-1
ipc-2014-optimal-ged-d-4-2.pddl,SAT:136.374:2.0:1800.0:-1
ipc-2014-optimal-ged-d-4-3.pddl,SAT:343.932:5.0:1800.0:-1
ipc-2014-optimal-ged-d-4-8.pddl,CRASHED:441.479:5.0:1800.0:-1
ipc-2014-optimal-ged-d-7-5.pddl,SAT:301.604:4.0:1800.0:-1
ipc-2014-optimal-ged-d-7-6.pddl,SAT:244.702:4.0:1800.0:-1
ipc-2014-optimal-ged-d-8-1.pddl,SAT:297.077:4.0:1800.0:-1
ipc-2014-optimal-ged-d-8-2.pddl,CRASHED:399.307:5.0:1800.0:-1
ipc-2014-optimal-ged-d-8-4.pddl,CRASHED:430.834:5.0:1800.0:-1
ipc-2014-optimal-ged-d-8-9.pddl,CRASHED:497.7:1000000000.0:1800.0:-1
ipc-2014-optimal-hiking-1-2-3.pddl,SAT:7.8638:11.0:1800.0:-1
ipc-2014-optimal-hiking-1-2-4.pddl,SAT:11.0113:17.0:1800.0:-1
ipc-2014-optimal-hiking-1-2-5.pddl,SAT:18.7292:25.0:1800.0:-1
ipc-2014-optimal-hiking-1-2-7.pddl,SAT:41.1267:38.0:1800.0:-1
ipc-2014-optimal-hiking-1-2-8.pddl,SAT:65.3641:45.0:1800.0:-1
ipc-2014-optimal-hiking-2-2-3.pddl,SAT:143.457:10.0:1800.0:-1
ipc-2014-optimal-hiking-2-2-4.pddl,SAT:217.331:16.0:1800.0:-1
ipc-2014-optimal-hiking-2-2-5.pddl,SAT:319.606:22.0:1800.0:-1
ipc-2014-optimal-hiking-2-2-6.pddl,SAT:445.056:30.0:1800.0:-1
ipc-2014-optimal-hiking-2-2-7.pddl,SAT:478.426:34.0:1800.0:-1
ipc-2014-optimal-hiking-2-2-8.pddl,CRASHED:949.002:42.0:1800.0:-1
ipc-2014-optimal-hiking-2-3-4.pddl,SAT:354.859:17.0:1800.0:-1
ipc-2014-optimal-hiking-2-3-5.pddl,SAT:553.728:24.0:1800.0:-1
ipc-2014-optimal-hiking-2-3-6.pddl,SAT:633.424:28.0:1800.0:-1
ipc-2014-optimal-hiking-2-3-7.pddl,CRASHED:1111.51:1000000000.0:1800.0:-1
ipc-2014-optimal-hiking-2-4-3.pddl,SAT:271.898:10.0:1800.0:-1
ipc-2014-optimal-hiking-2-4-4.pddl,SAT:526.42:17.0:1800.0:-1
ipc-2014-optimal-hiking-2-4-5.pddl,SAT:769.688:23.0:1800.0:-1
ipc-2014-optimal-hiking-2-4-6.pddl,CRASHED:1073.82:30.0:1800.0:-1
ipc-2014-optimal-hiking-2-4-7.pddl,CRASHED:840.29:1000000000.0:1800.0:-1
ipc-2014-optimal-maintenance-1.3.010.010.1-001.pddl,CRASHED:7.67783:1000000000.0:1800.0:-1
ipc-2014-optimal-maintenance-1.3.010.010.1-002.pddl,CRASHED:11.9852:1000000000.0:1800.0:-1
ipc-2014-optimal-maintenance-1.3.010.010.2-000.pddl,SAT:23.9874:4.0:1800.0:-1
ipc-2014-optimal-maintenance-1.3.010.010.2-001.pddl,SAT:27.3788:7.0:1800.0:-1
ipc-2014-optimal-maintenance-1.3.010.010.2-002.pddl,SAT:39.765:6.0:1800.0:-1
ipc-2014-optimal-maintenance-1.3.015.020.1-000.pddl,CRASHED:28.0947:1000000000.0:1800.0:-1
ipc-2014-optimal-maintenance-1.3.015.020.1-001.pddl,CRASHED:21.0678:1000000000.0:1800.0:-1
ipc-2014-optimal-maintenance-1.3.015.020.1-002.pddl,CRASHED:26.066:1000000000.0:1800.0:-1
ipc-2014-optimal-maintenance-1.3.015.020.2-000.pddl,CRASHED:359.471:1000000000.0:1800.0:-1
ipc-2014-optimal-maintenance-1.3.015.020.2-001.pddl,SAT:132.322:11.0:1800.0:-1
ipc-2014-optimal-maintenance-1.3.015.020.2-002.pddl,SAT:127.124:9.0:1800.0:-1
ipc-2014-optimal-maintenance-1.3.025.050.1-000.pddl,CRASHED:91.6811:1000000000.0:1800.0:-1
ipc-2014-optimal-maintenance-1.3.025.050.1-001.pddl,CRASHED:174.694:1000000000.0:1800.0:-1
ipc-2014-optimal-maintenance-1.3.025.050.1-002.pddl,CRASHED:173.567:1000000000.0:1800.0:-1
ipc-2014-optimal-maintenance-1.3.025.100.1-000.pddl,CRASHED:90.5702:1000000000.0:1800.0:-1
ipc-2014-optimal-maintenance-1.3.025.100.1-001.pddl,CRASHED:87.3217:1000000000.0:1800.0:-1
ipc-2014-optimal-maintenance-1.3.025.100.1-002.pddl,CRASHED:91.809:1000000000.0:1800.0:-1
ipc-2014-optimal-maintenance-1.3.025.100.2-000.pddl,TIMEOUT:1801.08:-1.0:1800.0:-1
ipc-2014-optimal-maintenance-1.3.025.100.2-001.pddl,TIMEOUT:1801.03:-1.0:1800.0:-1
ipc-2014-optimal-maintenance-1.3.025.100.2-002.pddl,CRASHED:1361.8:1000000000.0:1800.0:-1
ipc-2014-optimal-openstacks-p20_1.pddl,SAT:344.189:3.0:1800.0:-1
ipc-2014-optimal-openstacks-p20_2.pddl,SAT:303.834:4.0:1800.0:-1
ipc-2014-optimal-openstacks-p20_3.pddl,SAT:189.46:6.0:1800.0:-1
ipc-2014-optimal-openstacks-p25_1.pddl,CRASHED:692.36:1000000000.0:1800.0:-1
ipc-2014-optimal-openstacks-p25_3.pddl,CRASHED:703.99:1000000000.0:1800.0:-1
ipc-2014-optimal-openstacks-p30_1.pddl,TIMEOUT:1801.09:-1.0:1800.0:-1
ipc-2014-optimal-openstacks-p30_2.pddl,TIMEOUT:1801.03:-1.0:1800.0:-1
ipc-2014-optimal-openstacks-p30_3.pddl,CRASHED:764.16:1000000000.0:1800.0:-1
ipc-2014-optimal-openstacks-p35_1.pddl,TIMEOUT:1801.02:-1.0:1800.0:-1
ipc-2014-optimal-openstacks-p35_2.pddl,TIMEOUT:1801.1:-1.0:1800.0:-1
ipc-2014-optimal-openstacks-p35_3.pddl,CRASHED:665.46:1000000000.0:1800.0:-1
ipc-2014-optimal-openstacks-p40_1.pddl,CRASHED:491.87:1000000000.0:1800.0:-1
ipc-2014-optimal-openstacks-p40_2.pddl,CRASHED:466.29:1000000000.0:1800.0:-1
ipc-2014-optimal-openstacks-p40_3.pddl,CRASHED:691.4:1000000000.0:1800.0:-1
ipc-2014-optimal-openstacks-p45_1.pddl,CRASHED:607.51:1000000000.0:1800.0:-1
ipc-2014-optimal-openstacks-p45_2.pddl,CRASHED:594.27:1000000000.0:1800.0:-1
ipc-2014-optimal-openstacks-p45_3.pddl,CRASHED:781.17:1000000000.0:1800.0:-1
ipc-2014-optimal-openstacks-p50_1.pddl,CRASHED:676.95:1000000000.0:1800.0:-1
ipc-2014-optimal-openstacks-p50_2.pddl,CRASHED:788.33:1000000000.0:1800.0:-1
ipc-2014-optimal-openstacks-p50_3.pddl,CRASHED:729.6:1000000000.0:1800.0:-1
ipc-2014-optimal-parking-12_7-01.pddl,SAT:957.037:18.0:1800.0:-1
ipc-2014-optimal-parking-12_7-02.pddl,SAT:993.431:18.0:1800.0:-1
ipc-2014-optimal-parking-12_7-03.pddl,SAT:932.482:17.0:1800.0:-1
ipc-2014-optimal-parking-12_7-04.pddl,SAT:968.736:19.0:1800.0:-1
ipc-2014-optimal-parking-14_8-01.pddl,CRASHED:1538.7:1000000000.0:1800.0:-1
ipc-2014-optimal-parking-14_8-02.pddl,SAT:1393.39:22.0:1800.0:-1
ipc-2014-optimal-parking-14_8-03.pddl,SAT:1295.83:21.0:1800.0:-1
ipc-2014-optimal-parking-14_8-04.pddl,CRASHED:1617.92:1000000000.0:1800.0:-1
ipc-2014-optimal-parking-16_9-01.pddl,CRASHED:1516.21:1000000000.0:1800.0:-1
ipc-2014-optimal-parking-16_9-02.pddl,CRASHED:1470.34:1000000000.0:1800.0:-1
ipc-2014-optimal-parking-16_9-03.pddl,CRASHED:1464.27:1000000000.0:1800.0:-1
ipc-2014-optimal-parking-16_9-04.pddl,CRASHED:1351.35:1000000000.0:1800.0:-1
ipc-2014-optimal-parking-18_10-01.pddl,TIMEOUT:1801.04:-1.0:1800.0:-1
ipc-2014-optimal-parking-18_10-02.pddl,CRASHED:1757.99:1000000000.0:1800.0:-1
ipc-2014-optimal-parking-18_10-03.pddl,CRASHED:1475.3:1000000000.0:1800.0:-1
ipc-2014-optimal-parking-18_10-04.pddl,CRASHED:1492.99:1000000000.0:1800.0:-1
ipc-2014-optimal-parking-20_11-01.pddl,CRASHED:1710.33:1000000000.0:1800.0:-1
ipc-2014-optimal-parking-20_11-02.pddl,CRASHED:1712.56:1000000000.0:1800.0:-1
ipc-2014-optimal-parking-20_11-03.pddl,TIMEOUT:1801.06:-1.0:1800.0:-1
ipc-2014-optimal-parking-20_11-04.pddl,CRASHED:1506.16:1000000000.0:1800.0:-1
ipc-2014-optimal-tetris-01-10.pddl,TIMEOUT:1801.1:-1.0:1800.0:-1
ipc-2014-optimal-tetris-01-04.pddl,CRASHED:308.538:1000000000.0:1800.0:-1
ipc-2014-optimal-tetris-01-06.pddl,SAT:219.114:30.0:1800.0:-1
ipc-2014-optimal-tetris-01-08.pddl,SAT:1056.83:36.0:1800.0:-1
ipc-2014-optimal-tetris-02-10.pddl,TIMEOUT:1801.08:-1.0:1800.0:-1
ipc-2014-optimal-tetris-02-04.pddl,SAT:531.147:10.0:1800.0:-1
ipc-2014-optimal-tetris-02-06.pddl,SAT:297.157:30.0:1800.0:-1
ipc-2014-optimal-tetris-02-08.pddl,TIMEOUT:1801.08:-1.0:1800.0:-1
ipc-2014-optimal-tetris-03-10.pddl,TIMEOUT:1801.0:-1.0:1800.0:-1
ipc-2014-optimal-tetris-03-04.pddl,SAT:754.919:11.0:1800.0:-1
ipc-2014-optimal-tetris-03-06.pddl,SAT:255.275:21.0:1800.0:-1
ipc-2014-optimal-tetris-03-08.pddl,TIMEOUT:1801.05:-1.0:1800.0:-1
ipc-2014-optimal-tetris-04-10.pddl,TIMEOUT:1801.09:-1.0:1800.0:-1
ipc-2014-optimal-tetris-04-04.pddl,CRASHED:338.475:1000000000.0:1800.0:-1
ipc-2014-optimal-tetris-04-06.pddl,SAT:254.321:27.0:1800.0:-1
ipc-2014-optimal-tetris-04-08.pddl,TIMEOUT:1801.05:-1.0:1800.0:-1
ipc-2014-optimal-tetris-05-10.pddl,TIMEOUT:1801.01:-1.0:1800.0:-1
ipc-2014-optimal-tetris-05-04.pddl,CRASHED:425.403:1000000000.0:1800.0:-1
ipc-2014-optimal-tetris-05-06.pddl,SAT:226.496:19.0:1800.0:-1
ipc-2014-optimal-tetris-05-08.pddl,TIMEOUT:1801.06:-1.0:1800.0:-1
ipc-2014-optimal-tidybot-01.pddl,TIMEOUT:1801.07:-1.0:1800.0:-1
ipc-2014-optimal-tidybot-02.pddl,SAT:507.088:35.0:1800.0:-1
ipc-2014-optimal-tidybot-03.pddl,SAT:458.557:30.0:1800.0:-1
ipc-2014-optimal-tidybot-04.pddl,SAT:382.957:24.0:1800.0:-1
ipc-2014-optimal-tidybot-05.pddl,TIMEOUT:1801.02:-1.0:1800.0:-1
ipc-2014-optimal-tidybot-06.pddl,TIMEOUT:1801.09:-1.0:1800.0:-1
ipc-2014-optimal-tidybot-07.pddl,SAT:1396.19:38.0:1800.0:-1
ipc-2014-optimal-tidybot-08.pddl,SAT:335.019:25.0:1800.0:-1
ipc-2014-optimal-tidybot-09.pddl,SAT:1739.64:35.0:1800.0:-1
ipc-2014-optimal-tidybot-10.pddl,TIMEOUT:1801.1:-1.0:1800.0:-1
ipc-2014-optimal-tidybot-11.pddl,SAT:212.863:29.0:1800.0:-1
ipc-2014-optimal-tidybot-12.pddl,SAT:876.705:35.0:1800.0:-1
ipc-2014-optimal-tidybot-13.pddl,SAT:382.577:30.0:1800.0:-1
ipc-2014-optimal-tidybot-14.pddl,SAT:262.154:25.0:1800.0:-1
ipc-2014-optimal-tidybot-15.pddl,TIMEOUT:1801.09:-1.0:1800.0:-1
ipc-2014-optimal-tidybot-16.pddl,TIMEOUT:1801.09:-1.0:1800.0:-1
ipc-2014-optimal-tidybot-17.pddl,TIMEOUT:1801.03:-1.0:1800.0:-1
ipc-2014-optimal-tidybot-18.pddl,TIMEOUT:1801.06:-1.0:1800.0:-1
ipc-2014-optimal-tidybot-19.pddl,TIMEOUT:1801.06:-1.0:1800.0:-1
ipc-2014-optimal-tidybot-20.pddl,TIMEOUT:1801.07:-1.0:1800.0:-1
ipc-2014-optimal-transport-01.pddl,SAT:60.6808:148.0:1800.0:-1
ipc-2014-optimal-transport-02.pddl,SAT:109.633:191.0:1800.0:-1
ipc-2014-optimal-transport-03.pddl,SAT:222.482:300.0:1800.0:-1
ipc-2014-optimal-transport-04.pddl,TIMEOUT:1801.04:-1.0:1800.0:-1
ipc-2014-optimal-transport-05.pddl,TIMEOUT:1801.11:-1.0:1800.0:-1
ipc-2014-optimal-transport-06.pddl,TIMEOUT:1801.04:-1.0:1800.0:-1
ipc-2014-optimal-transport-07.pddl,SAT:108.223:967.0:1800.0:-1
ipc-2014-optimal-transport-08.pddl,SAT:220.5:1173.0:1800.0:-1
ipc-2014-optimal-transport-09.pddl,CRASHED:765.6:1000000000.0:1800.0:-1
ipc-2014-optimal-transport-10.pddl,CRASHED:757.74:1000000000.0:1800.0:-1
ipc-2014-optimal-transport-11.pddl,TIMEOUT:1801.07:-1.0:1800.0:-1
ipc-2014-optimal-transport-12.pddl,TIMEOUT:1801.04:-1.0:1800.0:-1
ipc-2014-optimal-transport-13.pddl,SAT:125.001:594.0:1800.0:-1
ipc-2014-optimal-transport-14.pddl,SAT:341.136:526.0:1800.0:-1
ipc-2014-optimal-transport-15.pddl,SAT:291.864:753.0:1800.0:-1
ipc-2014-optimal-transport-16.pddl,TIMEOUT:1801.03:-1.0:1800.0:-1
ipc-2014-optimal-transport-17.pddl,TIMEOUT:1801.11:-1.0:1800.0:-1
ipc-2014-optimal-transport-18.pddl,TIMEOUT:1801.01:-1.0:1800.0:-1
ipc-2014-optimal-transport-19.pddl,TIMEOUT:1801.01:-1.0:1800.0:-1
ipc-2014-optimal-transport-20.pddl,TIMEOUT:1801.04:-1.0:1800.0:-1
ipc-2014-optimal-visitall-05-10.pddl,SAT:272.173:60.0:1800.0:-1
ipc-2014-optimal-visitall-05-05.pddl,SAT:36.8594:21.0:1800.0:-1
ipc-2014-optimal-visitall-05-06.pddl,SAT:46.7249:25.0:1800.0:-1
ipc-2014-optimal-visitall-05-07.pddl,SAT:110.345:34.0:1800.0:-1
ipc-2014-optimal-visitall-05-08.pddl,SAT:249.742:43.0:1800.0:-1
ipc-2014-optimal-visitall-05-09.pddl,SAT:224.007:54.0:1800.0:-1
ipc-2014-optimal-visitall-01-10.pddl,SAT:265.867:99.0:1800.0:-1
ipc-2014-optimal-visitall-01-11.pddl,SAT:318.785:120.0:1800.0:-1
ipc-2014-optimal-visitall-01-12.pddl,SAT:688.622:143.0:1800.0:-1
ipc-2014-optimal-visitall-01-13.pddl,SAT:581.468:168.0:1800.0:-1
ipc-2014-optimal-visitall-01-14.pddl,CRASHED:1089.56:1000000000.0:1800.0:-1
ipc-2014-optimal-visitall-01-15.pddl,CRASHED:1098.36:1000000000.0:1800.0:-1
ipc-2014-optimal-visitall-01-16.pddl,CRASHED:1079.72:1000000000.0:1800.0:-1
ipc-2014-optimal-visitall-01-17.pddl,CRASHED:1149.76:1000000000.0:1800.0:-1
ipc-2014-optimal-visitall-01-18.pddl,CRASHED:1195.23:1000000000.0:1800.0:-1
ipc-2014-optimal-visitall-01-05.pddl,SAT:133.696:24.0:1800.0:-1
ipc-2014-optimal-visitall-01-06.pddl,SAT:279.063:35.0:1800.0:-1
ipc-2014-optimal-visitall-01-07.pddl,SAT:220.511:48.0:1800.0:-1
ipc-2014-optimal-visitall-01-08.pddl,SAT:279.01:63.0:1800.0:-1
ipc-2014-optimal-visitall-01-09.pddl,SAT:313.698:80.0:1800.0:-1
