instance,ipc-2014-optimal-symba-1
ipc-2014-optimal-barman-p433.1.pddl,TIMEOUT:1801.14:-1.0:1800.0:-1
ipc-2014-optimal-barman-p433.2.pddl,TIMEOUT:1801.13:-1.0:1800.0:-1
ipc-2014-optimal-barman-p433.3.pddl,TIMEOUT:1801.07:-1.0:1800.0:-1
ipc-2014-optimal-barman-p435.1.pddl,SAT:32.3051:49.0:1800.0:-1
ipc-2014-optimal-barman-p435.2.pddl,TIMEOUT:1801.05:-1.0:1800.0:-1
ipc-2014-optimal-barman-p435.3.pddl,CRASHED:37.7473:49.0:1800.0:-1
ipc-2014-optimal-barman-p443.1.pddl,TIMEOUT:1801.14:-1.0:1800.0:-1
ipc-2014-optimal-barman-p443.2.pddl,TIMEOUT:1801.12:-1.0:1800.0:-1
ipc-2014-optimal-barman-p443.3.pddl,TIMEOUT:1801.09:-1.0:1800.0:-1
ipc-2014-optimal-barman-p536.1.pddl,TIMEOUT:1801.07:-1.0:1800.0:-1
ipc-2014-optimal-barman-p536.2.pddl,TIMEOUT:1801.02:-1.0:1800.0:-1
ipc-2014-optimal-barman-p536.3.pddl,TIMEOUT:1801.08:-1.0:1800.0:-1
ipc-2014-optimal-barman-p638.1.pddl,TIMEOUT:1801.03:-1.0:1800.0:-1
ipc-2014-optimal-barman-p638.2.pddl,TIMEOUT:1801.09:-1.0:1800.0:-1
ipc-2014-optimal-barman-p638.3.pddl,CRASHED:37.4133:1000000000.0:1800.0:-1
ipc-2014-optimal-barman-p739.1.pddl,TIMEOUT:1801.08:-1.0:1800.0:-1
ipc-2014-optimal-barman-p739.2.pddl,CRASHED:42.2886:1000000000.0:1800.0:-1
ipc-2014-optimal-barman-p739.3.pddl,TIMEOUT:1801.07:-1.0:1800.0:-1
ipc-2014-optimal-barman-p839.1.pddl,CRASHED:39.412:1000000000.0:1800.0:-1
ipc-2014-optimal-barman-p839.2.pddl,CRASHED:72.553:1000000000.0:1800.0:-1
ipc-2014-optimal-cavediving-01.pddl,TIMEOUT:1801.09:-1.0:1800.0:-1
ipc-2014-optimal-cavediving-01_easy.pddl,TIMEOUT:1801.13:-1.0:1800.0:-1
ipc-2014-optimal-cavediving-02_easy.pddl,TIMEOUT:1801.08:-1.0:1800.0:-1
ipc-2014-optimal-cavediving-03_easy.pddl,TIMEOUT:1801.1:-1.0:1800.0:-1
ipc-2014-optimal-cavediving-04_easy.pddl,TIMEOUT:1801.15:-1.0:1800.0:-1
ipc-2014-optimal-cavediving-05A_easy.pddl,TIMEOUT:1801.11:-1.0:1800.0:-1
ipc-2014-optimal-cavediving-06A_easy.pddl,TIMEOUT:1801.13:-1.0:1800.0:-1
ipc-2014-optimal-cavediving-07_easy.pddl,SAT:4.21236:131.0:1800.0:-1
ipc-2014-optimal-cavediving-08_easy.pddl,TIMEOUT:1801.13:-1.0:1800.0:-1
ipc-2014-optimal-cavediving-09_easy.pddl,TIMEOUT:1801.11:-1.0:1800.0:-1
ipc-2014-optimal-cavediving-10_easy.pddl,TIMEOUT:1801.07:-1.0:1800.0:-1
ipc-2014-optimal-cavediving-11_easy.pddl,TIMEOUT:1801.12:-1.0:1800.0:-1
ipc-2014-optimal-cavediving-12_easy.pddl,TIMEOUT:1801.12:-1.0:1800.0:-1
ipc-2014-optimal-cavediving-13_easy.pddl,TIMEOUT:1801.11:-1.0:1800.0:-1
ipc-2014-optimal-cavediving-14_easy.pddl,TIMEOUT:1801.12:-1.0:1800.0:-1
ipc-2014-optimal-cavediving-15_easy.pddl,TIMEOUT:1801.08:-1.0:1800.0:-1
ipc-2014-optimal-cavediving-16_easy.pddl,TIMEOUT:1801.1:-1.0:1800.0:-1
ipc-2014-optimal-cavediving-18A_easy.pddl,SAT:4.44232:131.0:1800.0:-1
ipc-2014-optimal-cavediving-18_easy.pddl,SAT:9.69453:131.0:1800.0:-1
ipc-2014-optimal-cavediving-20A_easy.pddl,TIMEOUT:1801.11:-1.0:1800.0:-1
ipc-2014-optimal-childsnack-01-2.pddl,TIMEOUT:1801.08:-1.0:1800.0:-1
ipc-2014-optimal-childsnack-01.pddl,TIMEOUT:1801.04:-1.0:1800.0:-1
ipc-2014-optimal-childsnack-02-2.pddl,CRASHED:48.3866:1000000000.0:1800.0:-1
ipc-2014-optimal-childsnack-02.pddl,TIMEOUT:1801.01:-1.0:1800.0:-1
ipc-2014-optimal-childsnack-03-2.pddl,TIMEOUT:1801.09:-1.0:1800.0:-1
ipc-2014-optimal-childsnack-03.pddl,TIMEOUT:1801.08:-1.0:1800.0:-1
ipc-2014-optimal-childsnack-04-2.pddl,TIMEOUT:1801.03:-1.0:1800.0:-1
ipc-2014-optimal-childsnack-04.pddl,TIMEOUT:1801.09:-1.0:1800.0:-1
ipc-2014-optimal-childsnack-05-2.pddl,CRASHED:18.4422:1000000000.0:1800.0:-1
ipc-2014-optimal-childsnack-05.pddl,TIMEOUT:1801.05:-1.0:1800.0:-1
ipc-2014-optimal-childsnack-06-2.pddl,TIMEOUT:1801.03:-1.0:1800.0:-1
ipc-2014-optimal-childsnack-06.pddl,CRASHED:102.722:1000000000.0:1800.0:-1
ipc-2014-optimal-childsnack-07-2.pddl,TIMEOUT:1801.06:-1.0:1800.0:-1
ipc-2014-optimal-childsnack-07.pddl,TIMEOUT:1801.05:-1.0:1800.0:-1
ipc-2014-optimal-childsnack-08-2.pddl,TIMEOUT:1801.05:-1.0:1800.0:-1
ipc-2014-optimal-childsnack-08.pddl,TIMEOUT:1801.06:-1.0:1800.0:-1
ipc-2014-optimal-childsnack-09-2.pddl,TIMEOUT:1801.01:-1.0:1800.0:-1
ipc-2014-optimal-childsnack-09.pddl,TIMEOUT:1801.12:-1.0:1800.0:-1
ipc-2014-optimal-childsnack-10-2.pddl,TIMEOUT:1801.05:-1.0:1800.0:-1
ipc-2014-optimal-childsnack-10.pddl,TIMEOUT:1801.0:-1.0:1800.0:-1
ipc-2014-optimal-citycar-p2-2-2-1-2.pddl,SAT:2.66659:46.0:1800.0:-1
ipc-2014-optimal-citycar-p2-2-2-2-1.pddl,SAT:3.2665:64.0:1800.0:-1
ipc-2014-optimal-citycar-p2-2-3-1-2.pddl,SAT:5.71313:50.0:1800.0:-1
ipc-2014-optimal-citycar-p2-2-3-2-1.pddl,SAT:4.52131:48.0:1800.0:-1
ipc-2014-optimal-citycar-p2-2-3-2-2.pddl,SAT:4.6013:50.0:1800.0:-1
ipc-2014-optimal-citycar-p2-2-4-1-2.pddl,SAT:12.902:52.0:1800.0:-1
ipc-2014-optimal-citycar-p2-2-4-2-1.pddl,SAT:10.5144:52.0:1800.0:-1
ipc-2014-optimal-citycar-p2-2-5-2-2.pddl,SAT:182.218:76.0:1800.0:-1
ipc-2014-optimal-citycar-p2-2-6-1-1.pddl,CRASHED:71.1562:1000000000.0:1800.0:-1
ipc-2014-optimal-citycar-p2-2-6-2-2.pddl,SAT:159.029:58.0:1800.0:-1
ipc-2014-optimal-citycar-p2-3-2-3-1.pddl,SAT:10.0495:68.0:1800.0:-1
ipc-2014-optimal-citycar-p2-3-3-3-1.pddl,SAT:49.9374:78.0:1800.0:-1
ipc-2014-optimal-citycar-p2-3-4-3-1.pddl,TIMEOUT:1801.08:-1.0:1800.0:-1
ipc-2014-optimal-citycar-p2-3-6-3-2.pddl,TIMEOUT:1801.1:-1.0:1800.0:-1
ipc-2014-optimal-citycar-p3-3-2-2-1.pddl,CRASHED:121.312:70.0:1800.0:-1
ipc-2014-optimal-citycar-p3-3-2-2-2.pddl,TIMEOUT:1801.07:-1.0:1800.0:-1
ipc-2014-optimal-citycar-p3-3-2-3-1.pddl,SAT:50.8263:48.0:1800.0:-1
ipc-2014-optimal-citycar-p3-3-2-3-2.pddl,SAT:88.3366:70.0:1800.0:-1
ipc-2014-optimal-citycar-p3-3-3-3-1.pddl,TIMEOUT:1801.08:-1.0:1800.0:-1
ipc-2014-optimal-citycar-p3-3-3-3-2.pddl,TIMEOUT:1801.06:-1.0:1800.0:-1
ipc-2014-optimal-floortile-p01-4-3-2.pddl,SAT:1.67574:56.0:1800.0:-1
ipc-2014-optimal-floortile-p01-4-4-2.pddl,SAT:5.86411:68.0:1800.0:-1
ipc-2014-optimal-floortile-p01-5-3-2.pddl,SAT:2.38164:63.0:1800.0:-1
ipc-2014-optimal-floortile-p01-5-4-2.pddl,SAT:12.0302:91.0:1800.0:-1
ipc-2014-optimal-floortile-p01-5-5-2.pddl,SAT:65.782:111.0:1800.0:-1
ipc-2014-optimal-floortile-p01-6-4-2.pddl,SAT:25.5321:104.0:1800.0:-1
ipc-2014-optimal-floortile-p01-6-5-2.pddl,TIMEOUT:1801.05:-1.0:1800.0:-1
ipc-2014-optimal-floortile-p02-4-4-2.pddl,SAT:6.592:75.0:1800.0:-1
ipc-2014-optimal-floortile-p02-5-3-2.pddl,SAT:2.65859:65.0:1800.0:-1
ipc-2014-optimal-floortile-p02-5-4-2.pddl,SAT:12.4531:98.0:1800.0:-1
ipc-2014-optimal-floortile-p02-5-5-2.pddl,SAT:69.0545:106.0:1800.0:-1
ipc-2014-optimal-floortile-p02-6-4-2.pddl,SAT:26.626:109.0:1800.0:-1
ipc-2014-optimal-floortile-p02-6-5-2.pddl,TIMEOUT:1801.03:-1.0:1800.0:-1
ipc-2014-optimal-floortile-p03-4-3-2.pddl,SAT:1.70174:56.0:1800.0:-1
ipc-2014-optimal-floortile-p03-4-4-2.pddl,SAT:6.24705:72.0:1800.0:-1
ipc-2014-optimal-floortile-p03-5-3-2.pddl,SAT:2.49262:65.0:1800.0:-1
ipc-2014-optimal-floortile-p03-5-4-2.pddl,SAT:11.2993:83.0:1800.0:-1
ipc-2014-optimal-floortile-p03-5-5-2.pddl,SAT:64.3882:100.0:1800.0:-1
ipc-2014-optimal-floortile-p03-6-4-2.pddl,SAT:29.0526:116.0:1800.0:-1
ipc-2014-optimal-floortile-p03-6-5-2.pddl,TIMEOUT:1801.04:-1.0:1800.0:-1
ipc-2014-optimal-ged-d-1-2.pddl,SAT:0.976851:1.0:1800.0:-1
ipc-2014-optimal-ged-d-1-3.pddl,SAT:2.70259:4.0:1800.0:-1
ipc-2014-optimal-ged-d-1-4.pddl,SAT:0.976851:1.0:1800.0:-1
ipc-2014-optimal-ged-d-1-8.pddl,SAT:5.16521:4.0:1800.0:-1
ipc-2014-optimal-ged-d-2-1.pddl,SAT:0.981849:1.0:1800.0:-1
ipc-2014-optimal-ged-d-2-3.pddl,SAT:1.47278:3.0:1800.0:-1
ipc-2014-optimal-ged-d-2-4.pddl,SAT:1.07184:2.0:1800.0:-1
ipc-2014-optimal-ged-d-2-8.pddl,TIMEOUT:1801.01:-1.0:1800.0:-1
ipc-2014-optimal-ged-d-3-1.pddl,SAT:2.80157:4.0:1800.0:-1
ipc-2014-optimal-ged-d-3-2.pddl,SAT:1.46078:3.0:1800.0:-1
ipc-2014-optimal-ged-d-3-4.pddl,SAT:11.7992:5.0:1800.0:-1
ipc-2014-optimal-ged-d-4-2.pddl,SAT:1.13283:2.0:1800.0:-1
ipc-2014-optimal-ged-d-4-3.pddl,SAT:12.2231:5.0:1800.0:-1
ipc-2014-optimal-ged-d-4-8.pddl,CRASHED:59.8259:1000000000.0:1800.0:-1
ipc-2014-optimal-ged-d-7-5.pddl,SAT:4.66929:4.0:1800.0:-1
ipc-2014-optimal-ged-d-7-6.pddl,SAT:3.24351:4.0:1800.0:-1
ipc-2014-optimal-ged-d-8-1.pddl,SAT:4.75128:4.0:1800.0:-1
ipc-2014-optimal-ged-d-8-2.pddl,TIMEOUT:1801.01:-1.0:1800.0:-1
ipc-2014-optimal-ged-d-8-4.pddl,TIMEOUT:1801.02:-1.0:1800.0:-1
ipc-2014-optimal-ged-d-8-9.pddl,TIMEOUT:1801.1:-1.0:1800.0:-1
ipc-2014-optimal-hiking-1-2-3.pddl,SAT:0.621904:11.0:1800.0:-1
ipc-2014-optimal-hiking-1-2-4.pddl,SAT:0.665898:17.0:1800.0:-1
ipc-2014-optimal-hiking-1-2-5.pddl,SAT:0.805876:25.0:1800.0:-1
ipc-2014-optimal-hiking-1-2-7.pddl,SAT:1.25181:38.0:1800.0:-1
ipc-2014-optimal-hiking-1-2-8.pddl,SAT:1.82172:45.0:1800.0:-1
ipc-2014-optimal-hiking-2-2-3.pddl,SAT:1.11083:10.0:1800.0:-1
ipc-2014-optimal-hiking-2-2-4.pddl,SAT:2.57561:16.0:1800.0:-1
ipc-2014-optimal-hiking-2-2-5.pddl,SAT:17.9423:22.0:1800.0:-1
ipc-2014-optimal-hiking-2-2-6.pddl,SAT:114.356:30.0:1800.0:-1
ipc-2014-optimal-hiking-2-2-7.pddl,TIMEOUT:1801.06:-1.0:1800.0:-1
ipc-2014-optimal-hiking-2-2-8.pddl,CRASHED:182.064:1000000000.0:1800.0:-1
ipc-2014-optimal-hiking-2-3-4.pddl,SAT:6.33704:17.0:1800.0:-1
ipc-2014-optimal-hiking-2-3-5.pddl,SAT:107.678:24.0:1800.0:-1
ipc-2014-optimal-hiking-2-3-6.pddl,CRASHED:153.807:1000000000.0:1800.0:-1
ipc-2014-optimal-hiking-2-3-7.pddl,TIMEOUT:1801.02:-1.0:1800.0:-1
ipc-2014-optimal-hiking-2-4-3.pddl,SAT:1.65875:10.0:1800.0:-1
ipc-2014-optimal-hiking-2-4-4.pddl,SAT:6.92295:17.0:1800.0:-1
ipc-2014-optimal-hiking-2-4-5.pddl,CRASHED:130.467:23.0:1800.0:-1
ipc-2014-optimal-hiking-2-4-6.pddl,CRASHED:115.292:1000000000.0:1800.0:-1
ipc-2014-optimal-hiking-2-4-7.pddl,TIMEOUT:1801.08:-1.0:1800.0:-1
ipc-2014-optimal-maintenance-1.3.010.010.1-001.pddl,TIMEOUT:1801.14:-1.0:1800.0:-1
ipc-2014-optimal-maintenance-1.3.010.010.1-002.pddl,TIMEOUT:1801.06:-1.0:1800.0:-1
ipc-2014-optimal-maintenance-1.3.010.010.2-000.pddl,SAT:0.773881:4.0:1800.0:-1
ipc-2014-optimal-maintenance-1.3.010.010.2-001.pddl,TIMEOUT:1801.13:-1.0:1800.0:-1
ipc-2014-optimal-maintenance-1.3.010.010.2-002.pddl,SAT:0.839872:6.0:1800.0:-1
ipc-2014-optimal-maintenance-1.3.015.020.1-000.pddl,TIMEOUT:1801.09:-1.0:1800.0:-1
ipc-2014-optimal-maintenance-1.3.015.020.1-001.pddl,TIMEOUT:1801.07:-1.0:1800.0:-1
ipc-2014-optimal-maintenance-1.3.015.020.1-002.pddl,TIMEOUT:1801.14:-1.0:1800.0:-1
ipc-2014-optimal-maintenance-1.3.015.020.2-000.pddl,CRASHED:1.34779:1000000000.0:1800.0:-1
ipc-2014-optimal-maintenance-1.3.015.020.2-001.pddl,SAT:1.2818:11.0:1800.0:-1
ipc-2014-optimal-maintenance-1.3.015.020.2-002.pddl,SAT:1.18082:9.0:1800.0:-1
ipc-2014-optimal-maintenance-1.3.025.050.1-000.pddl,TIMEOUT:1801.08:-1.0:1800.0:-1
ipc-2014-optimal-maintenance-1.3.025.050.1-001.pddl,TIMEOUT:1801.13:-1.0:1800.0:-1
ipc-2014-optimal-maintenance-1.3.025.050.1-002.pddl,TIMEOUT:1801.11:-1.0:1800.0:-1
ipc-2014-optimal-maintenance-1.3.025.100.1-000.pddl,TIMEOUT:1801.15:-1.0:1800.0:-1
ipc-2014-optimal-maintenance-1.3.025.100.1-001.pddl,TIMEOUT:1801.07:-1.0:1800.0:-1
ipc-2014-optimal-maintenance-1.3.025.100.1-002.pddl,TIMEOUT:1801.14:-1.0:1800.0:-1
ipc-2014-optimal-maintenance-1.3.025.100.2-000.pddl,TIMEOUT:1801.14:-1.0:1800.0:-1
ipc-2014-optimal-maintenance-1.3.025.100.2-001.pddl,TIMEOUT:1801.12:-1.0:1800.0:-1
ipc-2014-optimal-maintenance-1.3.025.100.2-002.pddl,TIMEOUT:1801.12:-1.0:1800.0:-1
ipc-2014-optimal-openstacks-p20_1.pddl,SAT:2.45962:3.0:1800.0:-1
ipc-2014-optimal-openstacks-p20_2.pddl,SAT:2.77958:4.0:1800.0:-1
ipc-2014-optimal-openstacks-p20_3.pddl,SAT:2.78058:6.0:1800.0:-1
ipc-2014-optimal-openstacks-p25_1.pddl,SAT:4.68329:4.0:1800.0:-1
ipc-2014-optimal-openstacks-p25_3.pddl,SAT:5.48317:9.0:1800.0:-1
ipc-2014-optimal-openstacks-p30_1.pddl,SAT:6.592:4.0:1800.0:-1
ipc-2014-optimal-openstacks-p30_2.pddl,SAT:7.56085:4.0:1800.0:-1
ipc-2014-optimal-openstacks-p30_3.pddl,SAT:15.7186:12.0:1800.0:-1
ipc-2014-optimal-openstacks-p35_1.pddl,SAT:10.6444:4.0:1800.0:-1
ipc-2014-optimal-openstacks-p35_2.pddl,SAT:13.44:5.0:1800.0:-1
ipc-2014-optimal-openstacks-p35_3.pddl,CRASHED:57.2733:14.0:1800.0:-1
ipc-2014-optimal-openstacks-p40_1.pddl,SAT:18.1852:3.0:1800.0:-1
ipc-2014-optimal-openstacks-p40_2.pddl,SAT:18.8801:4.0:1800.0:-1
ipc-2014-optimal-openstacks-p40_3.pddl,CRASHED:98.522:15.0:1800.0:-1
ipc-2014-optimal-openstacks-p45_1.pddl,SAT:24.3993:4.0:1800.0:-1
ipc-2014-optimal-openstacks-p45_2.pddl,SAT:33.2929:5.0:1800.0:-1
ipc-2014-optimal-openstacks-p45_3.pddl,TIMEOUT:1801.09:-1.0:1800.0:-1
ipc-2014-optimal-openstacks-p50_1.pddl,SAT:43.6864:4.0:1800.0:-1
ipc-2014-optimal-openstacks-p50_2.pddl,CRASHED:59.41:5.0:1800.0:-1
ipc-2014-optimal-openstacks-p50_3.pddl,CRASHED:45.5021:1000000000.0:1800.0:-1
ipc-2014-optimal-parking-12_7-01.pddl,CRASHED:174.811:1000000000.0:1800.0:-1
ipc-2014-optimal-parking-12_7-02.pddl,TIMEOUT:1801.01:-1.0:1800.0:-1
ipc-2014-optimal-parking-12_7-03.pddl,TIMEOUT:1801.11:-1.0:1800.0:-1
ipc-2014-optimal-parking-12_7-04.pddl,TIMEOUT:1801.02:-1.0:1800.0:-1
ipc-2014-optimal-parking-14_8-01.pddl,TIMEOUT:1801.06:-1.0:1800.0:-1
ipc-2014-optimal-parking-14_8-02.pddl,CRASHED:314.522:1000000000.0:1800.0:-1
ipc-2014-optimal-parking-14_8-03.pddl,TIMEOUT:1801.06:-1.0:1800.0:-1
ipc-2014-optimal-parking-14_8-04.pddl,CRASHED:255.724:1000000000.0:1800.0:-1
ipc-2014-optimal-parking-16_9-01.pddl,TIMEOUT:1801.08:-1.0:1800.0:-1
ipc-2014-optimal-parking-16_9-02.pddl,CRASHED:507.155:1000000000.0:1800.0:-1
ipc-2014-optimal-parking-16_9-03.pddl,CRASHED:518.937:1000000000.0:1800.0:-1
ipc-2014-optimal-parking-16_9-04.pddl,CRASHED:528.441:1000000000.0:1800.0:-1
ipc-2014-optimal-parking-18_10-01.pddl,TIMEOUT:1801.07:-1.0:1800.0:-1
ipc-2014-optimal-parking-18_10-02.pddl,TIMEOUT:1801.1:-1.0:1800.0:-1
ipc-2014-optimal-parking-18_10-03.pddl,TIMEOUT:1801.04:-1.0:1800.0:-1
ipc-2014-optimal-parking-18_10-04.pddl,CRASHED:584.25:1000000000.0:1800.0:-1
ipc-2014-optimal-parking-20_11-01.pddl,TIMEOUT:1801.06:-1.0:1800.0:-1
ipc-2014-optimal-parking-20_11-02.pddl,TIMEOUT:1801.04:-1.0:1800.0:-1
ipc-2014-optimal-parking-20_11-03.pddl,CRASHED:756.708:1000000000.0:1800.0:-1
ipc-2014-optimal-parking-20_11-04.pddl,TIMEOUT:1801.03:-1.0:1800.0:-1
ipc-2014-optimal-tetris-01-10.pddl,TIMEOUT:1801.05:-1.0:1800.0:-1
ipc-2014-optimal-tetris-01-04.pddl,CRASHED:10.6384:1000000000.0:1800.0:-1
ipc-2014-optimal-tetris-01-06.pddl,CRASHED:72.7999:1000000000.0:1800.0:-1
ipc-2014-optimal-tetris-01-08.pddl,SAT:20.3019:36.0:1800.0:-1
ipc-2014-optimal-tetris-02-10.pddl,TIMEOUT:1801.07:-1.0:1800.0:-1
ipc-2014-optimal-tetris-02-04.pddl,SAT:3.68844:10.0:1800.0:-1
ipc-2014-optimal-tetris-02-06.pddl,SAT:31.7002:30.0:1800.0:-1
ipc-2014-optimal-tetris-02-08.pddl,CRASHED:79.9269:1000000000.0:1800.0:-1
ipc-2014-optimal-tetris-03-10.pddl,CRASHED:86.0849:1000000000.0:1800.0:-1
ipc-2014-optimal-tetris-03-04.pddl,SAT:2.88556:11.0:1800.0:-1
ipc-2014-optimal-tetris-03-06.pddl,TIMEOUT:1801.05:-1.0:1800.0:-1
ipc-2014-optimal-tetris-03-08.pddl,CRASHED:167.409:48.0:1800.0:-1
ipc-2014-optimal-tetris-04-10.pddl,TIMEOUT:1801.04:-1.0:1800.0:-1
ipc-2014-optimal-tetris-04-04.pddl,CRASHED:6.07408:1000000000.0:1800.0:-1
ipc-2014-optimal-tetris-04-06.pddl,TIMEOUT:1801.05:-1.0:1800.0:-1
ipc-2014-optimal-tetris-04-08.pddl,CRASHED:131.777:1000000000.0:1800.0:-1
ipc-2014-optimal-tetris-05-10.pddl,TIMEOUT:1801.08:-1.0:1800.0:-1
ipc-2014-optimal-tetris-05-04.pddl,CRASHED:5.9051:1000000000.0:1800.0:-1
ipc-2014-optimal-tetris-05-06.pddl,SAT:12.3811:19.0:1800.0:-1
ipc-2014-optimal-tetris-05-08.pddl,TIMEOUT:1801.04:-1.0:1800.0:-1
ipc-2014-optimal-tidybot-01.pddl,TIMEOUT:1801.01:-1.0:1800.0:-1
ipc-2014-optimal-tidybot-02.pddl,CRASHED:177.168:1000000000.0:1800.0:-1
ipc-2014-optimal-tidybot-03.pddl,SAT:130.81:30.0:1800.0:-1
ipc-2014-optimal-tidybot-04.pddl,TIMEOUT:1801.06:-1.0:1800.0:-1
ipc-2014-optimal-tidybot-05.pddl,CRASHED:170.248:1000000000.0:1800.0:-1
ipc-2014-optimal-tidybot-06.pddl,CRASHED:257.956:1000000000.0:1800.0:-1
ipc-2014-optimal-tidybot-07.pddl,TIMEOUT:1801.07:-1.0:1800.0:-1
ipc-2014-optimal-tidybot-08.pddl,TIMEOUT:1801.03:-1.0:1800.0:-1
ipc-2014-optimal-tidybot-09.pddl,TIMEOUT:1801.06:-1.0:1800.0:-1
ipc-2014-optimal-tidybot-10.pddl,CRASHED:329.999:1000000000.0:1800.0:-1
ipc-2014-optimal-tidybot-11.pddl,TIMEOUT:1801.11:-1.0:1800.0:-1
ipc-2014-optimal-tidybot-12.pddl,TIMEOUT:1801.01:-1.0:1800.0:-1
ipc-2014-optimal-tidybot-13.pddl,CRASHED:121.574:1000000000.0:1800.0:-1
ipc-2014-optimal-tidybot-14.pddl,TIMEOUT:1801.03:-1.0:1800.0:-1
ipc-2014-optimal-tidybot-15.pddl,TIMEOUT:1801.01:-1.0:1800.0:-1
ipc-2014-optimal-tidybot-16.pddl,TIMEOUT:1801.09:-1.0:1800.0:-1
ipc-2014-optimal-tidybot-17.pddl,SAT:198.619:40.0:1800.0:-1
ipc-2014-optimal-tidybot-18.pddl,TIMEOUT:1801.08:-1.0:1800.0:-1
ipc-2014-optimal-tidybot-19.pddl,TIMEOUT:1801.06:-1.0:1800.0:-1
ipc-2014-optimal-tidybot-20.pddl,SAT:143.397:46.0:1800.0:-1
ipc-2014-optimal-transport-01.pddl,SAT:1.51177:148.0:1800.0:-1
ipc-2014-optimal-transport-02.pddl,SAT:10.2134:191.0:1800.0:-1
ipc-2014-optimal-transport-03.pddl,SAT:27.5028:300.0:1800.0:-1
ipc-2014-optimal-transport-04.pddl,CRASHED:511.798:250.0:1800.0:-1
ipc-2014-optimal-transport-05.pddl,CRASHED:424.875:1000000000.0:1800.0:-1
ipc-2014-optimal-transport-06.pddl,CRASHED:474.098:1000000000.0:1800.0:-1
ipc-2014-optimal-transport-07.pddl,SAT:29.7625:967.0:1800.0:-1
ipc-2014-optimal-transport-08.pddl,TIMEOUT:1801.02:-1.0:1800.0:-1
ipc-2014-optimal-transport-09.pddl,TIMEOUT:1801.0:-1.0:1800.0:-1
ipc-2014-optimal-transport-10.pddl,TIMEOUT:1801.04:-1.0:1800.0:-1
ipc-2014-optimal-transport-11.pddl,TIMEOUT:1801.06:-1.0:1800.0:-1
ipc-2014-optimal-transport-12.pddl,CRASHED:619.379:1000000000.0:1800.0:-1
ipc-2014-optimal-transport-13.pddl,SAT:7.70583:594.0:1800.0:-1
ipc-2014-optimal-transport-14.pddl,SAT:151.605:526.0:1800.0:-1
ipc-2014-optimal-transport-15.pddl,TIMEOUT:1801.08:-1.0:1800.0:-1
ipc-2014-optimal-transport-16.pddl,CRASHED:939.967:1000000000.0:1800.0:-1
ipc-2014-optimal-transport-17.pddl,TIMEOUT:1801.0:-1.0:1800.0:-1
ipc-2014-optimal-transport-18.pddl,TIMEOUT:1801.01:-1.0:1800.0:-1
ipc-2014-optimal-transport-19.pddl,CRASHED:938.095:1000000000.0:1800.0:-1
ipc-2014-optimal-transport-20.pddl,TIMEOUT:1801.04:-1.0:1800.0:-1
ipc-2014-optimal-visitall-05-10.pddl,TIMEOUT:1801.06:-1.0:1800.0:-1
ipc-2014-optimal-visitall-05-05.pddl,SAT:1.07084:21.0:1800.0:-1
ipc-2014-optimal-visitall-05-06.pddl,SAT:1.37579:25.0:1800.0:-1
ipc-2014-optimal-visitall-05-07.pddl,SAT:4.07438:34.0:1800.0:-1
ipc-2014-optimal-visitall-05-08.pddl,CRASHED:37.4883:43.0:1800.0:-1
ipc-2014-optimal-visitall-05-09.pddl,TIMEOUT:1801.02:-1.0:1800.0:-1
ipc-2014-optimal-visitall-01-10.pddl,TIMEOUT:1801.08:-1.0:1800.0:-1
ipc-2014-optimal-visitall-01-11.pddl,CRASHED:87.1407:1000000000.0:1800.0:-1
ipc-2014-optimal-visitall-01-12.pddl,CRASHED:97.0192:1000000000.0:1800.0:-1
ipc-2014-optimal-visitall-01-13.pddl,CRASHED:115.836:1000000000.0:1800.0:-1
ipc-2014-optimal-visitall-01-14.pddl,TIMEOUT:1801.01:-1.0:1800.0:-1
ipc-2014-optimal-visitall-01-15.pddl,CRASHED:51.3422:1000000000.0:1800.0:-1
ipc-2014-optimal-visitall-01-16.pddl,TIMEOUT:1801.09:-1.0:1800.0:-1
ipc-2014-optimal-visitall-01-17.pddl,TIMEOUT:1801.02:-1.0:1800.0:-1
ipc-2014-optimal-visitall-01-18.pddl,CRASHED:125.787:1000000000.0:1800.0:-1
ipc-2014-optimal-visitall-01-05.pddl,SAT:2.23266:24.0:1800.0:-1
ipc-2014-optimal-visitall-01-06.pddl,CRASHED:24.1263:1000000000.0:1800.0:-1
ipc-2014-optimal-visitall-01-07.pddl,TIMEOUT:1801.06:-1.0:1800.0:-1
ipc-2014-optimal-visitall-01-08.pddl,TIMEOUT:1801.08:-1.0:1800.0:-1
ipc-2014-optimal-visitall-01-09.pddl,TIMEOUT:1801.01:-1.0:1800.0:-1
