instance,ipc-2014-optimal-cgamer-bd
ipc-2014-optimal-barman-p433.1.pddl,CRASHED:0.965852:1000000000.0:1800.0:-1
ipc-2014-optimal-barman-p433.2.pddl,CRASHED:0.905861:1000000000.0:1800.0:-1
ipc-2014-optimal-barman-p433.3.pddl,CRASHED:0.902861:1000000000.0:1800.0:-1
ipc-2014-optimal-barman-p435.1.pddl,SAT:26.099:49.0:1800.0:-1
ipc-2014-optimal-barman-p435.2.pddl,SAT:39.0481:49.0:1800.0:-1
ipc-2014-optimal-barman-p435.3.pddl,SAT:24.21:49.0:1800.0:-1
ipc-2014-optimal-barman-p443.1.pddl,CRASHED:0.91486:1000000000.0:1800.0:-1
ipc-2014-optimal-barman-p443.2.pddl,CRASHED:0.916859:1000000000.0:1800.0:-1
ipc-2014-optimal-barman-p443.3.pddl,CRASHED:0.91386:1000000000.0:1800.0:-1
ipc-2014-optimal-barman-p536.1.pddl,SAT:183.636:62.0:1800.0:-1
ipc-2014-optimal-barman-p536.2.pddl,SAT:189.1:62.0:1800.0:-1
ipc-2014-optimal-barman-p536.3.pddl,SAT:169.169:62.0:1800.0:-1
ipc-2014-optimal-barman-p638.1.pddl,TIMEOUT:1801.05:-1.0:1800.0:-1
ipc-2014-optimal-barman-p638.2.pddl,TIMEOUT:1801.03:-1.0:1800.0:-1
ipc-2014-optimal-barman-p638.3.pddl,TIMEOUT:1801.01:-1.0:1800.0:-1
ipc-2014-optimal-barman-p739.1.pddl,TIMEOUT:1801.07:-1.0:1800.0:-1
ipc-2014-optimal-barman-p739.2.pddl,TIMEOUT:1801.03:-1.0:1800.0:-1
ipc-2014-optimal-barman-p739.3.pddl,TIMEOUT:1801.05:-1.0:1800.0:-1
ipc-2014-optimal-barman-p839.1.pddl,TIMEOUT:1801.05:-1.0:1800.0:-1
ipc-2014-optimal-barman-p839.2.pddl,TIMEOUT:1801.07:-1.0:1800.0:-1
ipc-2014-optimal-cavediving-01.pddl,CRASHED:43.5444:1000000000.0:1800.0:-1
ipc-2014-optimal-cavediving-01_easy.pddl,CRASHED:30.4854:1000000000.0:1800.0:-1
ipc-2014-optimal-cavediving-02_easy.pddl,CRASHED:30.0404:1000000000.0:1800.0:-1
ipc-2014-optimal-cavediving-03_easy.pddl,CRASHED:30.1164:1000000000.0:1800.0:-1
ipc-2014-optimal-cavediving-04_easy.pddl,CRASHED:30.3304:1000000000.0:1800.0:-1
ipc-2014-optimal-cavediving-05A_easy.pddl,CRASHED:6.19206:1000000000.0:1800.0:-1
ipc-2014-optimal-cavediving-06A_easy.pddl,CRASHED:6.02808:1000000000.0:1800.0:-1
ipc-2014-optimal-cavediving-07_easy.pddl,CRASHED:6.20206:1000000000.0:1800.0:-1
ipc-2014-optimal-cavediving-08_easy.pddl,CRASHED:6.17606:1000000000.0:1800.0:-1
ipc-2014-optimal-cavediving-09_easy.pddl,CRASHED:150.882:1000000000.0:1800.0:-1
ipc-2014-optimal-cavediving-10_easy.pddl,CRASHED:150.978:1000000000.0:1800.0:-1
ipc-2014-optimal-cavediving-11_easy.pddl,CRASHED:153.35:1000000000.0:1800.0:-1
ipc-2014-optimal-cavediving-12_easy.pddl,CRASHED:154.309:1000000000.0:1800.0:-1
ipc-2014-optimal-cavediving-13_easy.pddl,CRASHED:45.785:1000000000.0:1800.0:-1
ipc-2014-optimal-cavediving-14_easy.pddl,CRASHED:45.1321:1000000000.0:1800.0:-1
ipc-2014-optimal-cavediving-15_easy.pddl,CRASHED:37.1893:1000000000.0:1800.0:-1
ipc-2014-optimal-cavediving-16_easy.pddl,CRASHED:43.9003:1000000000.0:1800.0:-1
ipc-2014-optimal-cavediving-18A_easy.pddl,CRASHED:8.82666:1000000000.0:1800.0:-1
ipc-2014-optimal-cavediving-18_easy.pddl,CRASHED:10.2464:1000000000.0:1800.0:-1
ipc-2014-optimal-cavediving-20A_easy.pddl,CRASHED:8.75167:1000000000.0:1800.0:-1
ipc-2014-optimal-childsnack-01-2.pddl,SAT:188.486:21.0:1800.0:-1
ipc-2014-optimal-childsnack-01.pddl,SAT:112.144:20.0:1800.0:-1
ipc-2014-optimal-childsnack-02-2.pddl,TIMEOUT:1801.1:-1.0:1800.0:-1
ipc-2014-optimal-childsnack-02.pddl,TIMEOUT:1801.02:-1.0:1800.0:-1
ipc-2014-optimal-childsnack-03-2.pddl,TIMEOUT:1801.03:-1.0:1800.0:-1
ipc-2014-optimal-childsnack-03.pddl,TIMEOUT:1801.02:-1.0:1800.0:-1
ipc-2014-optimal-childsnack-04-2.pddl,TIMEOUT:1801.03:-1.0:1800.0:-1
ipc-2014-optimal-childsnack-04.pddl,TIMEOUT:1801.1:-1.0:1800.0:-1
ipc-2014-optimal-childsnack-05-2.pddl,CRASHED:1503.39:1000000000.0:1800.0:-1
ipc-2014-optimal-childsnack-05.pddl,CRASHED:1632.12:1000000000.0:1800.0:-1
ipc-2014-optimal-childsnack-06-2.pddl,TIMEOUT:1801.11:-1.0:1800.0:-1
ipc-2014-optimal-childsnack-06.pddl,CRASHED:1408.55:1000000000.0:1800.0:-1
ipc-2014-optimal-childsnack-07-2.pddl,TIMEOUT:1801.05:-1.0:1800.0:-1
ipc-2014-optimal-childsnack-07.pddl,CRASHED:199.03:1000000000.0:1800.0:-1
ipc-2014-optimal-childsnack-08-2.pddl,CRASHED:445.3:1000000000.0:1800.0:-1
ipc-2014-optimal-childsnack-08.pddl,CRASHED:505.64:1000000000.0:1800.0:-1
ipc-2014-optimal-childsnack-09-2.pddl,CRASHED:1211.66:1000000000.0:1800.0:-1
ipc-2014-optimal-childsnack-09.pddl,CRASHED:1312.27:1000000000.0:1800.0:-1
ipc-2014-optimal-childsnack-10-2.pddl,TIMEOUT:1801.07:-1.0:1800.0:-1
ipc-2014-optimal-childsnack-10.pddl,TIMEOUT:1801.1:-1.0:1800.0:-1
ipc-2014-optimal-citycar-p2-2-2-1-2.pddl,SAT:26.8279:46.0:1800.0:-1
ipc-2014-optimal-citycar-p2-2-2-2-1.pddl,SAT:24.6872:64.0:1800.0:-1
ipc-2014-optimal-citycar-p2-2-3-1-2.pddl,SAT:33.055:50.0:1800.0:-1
ipc-2014-optimal-citycar-p2-2-3-2-1.pddl,SAT:31.6832:48.0:1800.0:-1
ipc-2014-optimal-citycar-p2-2-3-2-2.pddl,SAT:41.8616:50.0:1800.0:-1
ipc-2014-optimal-citycar-p2-2-4-1-2.pddl,SAT:48.0447:52.0:1800.0:-1
ipc-2014-optimal-citycar-p2-2-4-2-1.pddl,SAT:48.6566:52.0:1800.0:-1
ipc-2014-optimal-citycar-p2-2-5-2-2.pddl,SAT:293.736:76.0:1800.0:-1
ipc-2014-optimal-citycar-p2-2-6-1-1.pddl,SAT:501.521:58.0:1800.0:-1
ipc-2014-optimal-citycar-p2-2-6-2-2.pddl,SAT:1348.78:58.0:1800.0:-1
ipc-2014-optimal-citycar-p2-3-2-3-1.pddl,SAT:66.035:68.0:1800.0:-1
ipc-2014-optimal-citycar-p2-3-3-3-1.pddl,SAT:69.6474:78.0:1800.0:-1
ipc-2014-optimal-citycar-p2-3-4-3-1.pddl,SAT:215.027:82.0:1800.0:-1
ipc-2014-optimal-citycar-p2-3-6-3-2.pddl,TIMEOUT:1801.07:-1.0:1800.0:-1
ipc-2014-optimal-citycar-p3-3-2-2-1.pddl,SAT:130.28:70.0:1800.0:-1
ipc-2014-optimal-citycar-p3-3-2-2-2.pddl,SAT:193.499:92.0:1800.0:-1
ipc-2014-optimal-citycar-p3-3-2-3-1.pddl,SAT:115.598:48.0:1800.0:-1
ipc-2014-optimal-citycar-p3-3-2-3-2.pddl,SAT:130.205:70.0:1800.0:-1
ipc-2014-optimal-citycar-p3-3-3-3-1.pddl,CRASHED:1731.81:1000000000.0:1800.0:-1
ipc-2014-optimal-citycar-p3-3-3-3-2.pddl,SAT:373.352:76.0:1800.0:-1
ipc-2014-optimal-floortile-p01-4-3-2.pddl,SAT:2.33864:56.0:1800.0:-1
ipc-2014-optimal-floortile-p01-4-4-2.pddl,SAT:3.50147:68.0:1800.0:-1
ipc-2014-optimal-floortile-p01-5-3-2.pddl,SAT:2.78857:63.0:1800.0:-1
ipc-2014-optimal-floortile-p01-5-4-2.pddl,SAT:7.28889:91.0:1800.0:-1
ipc-2014-optimal-floortile-p01-5-5-2.pddl,SAT:27.7878:111.0:1800.0:-1
ipc-2014-optimal-floortile-p01-6-4-2.pddl,SAT:8.64368:104.0:1800.0:-1
ipc-2014-optimal-floortile-p01-6-5-2.pddl,SAT:88.4905:122.0:1800.0:-1
ipc-2014-optimal-floortile-p02-4-4-2.pddl,SAT:3.84841:75.0:1800.0:-1
ipc-2014-optimal-floortile-p02-5-3-2.pddl,SAT:2.79657:65.0:1800.0:-1
ipc-2014-optimal-floortile-p02-5-4-2.pddl,SAT:7.53085:98.0:1800.0:-1
ipc-2014-optimal-floortile-p02-5-5-2.pddl,SAT:31.4992:106.0:1800.0:-1
ipc-2014-optimal-floortile-p02-6-4-2.pddl,SAT:9.71852:109.0:1800.0:-1
ipc-2014-optimal-floortile-p02-6-5-2.pddl,SAT:104.689:141.0:1800.0:-1
ipc-2014-optimal-floortile-p03-4-3-2.pddl,SAT:2.36264:56.0:1800.0:-1
ipc-2014-optimal-floortile-p03-4-4-2.pddl,SAT:3.79642:72.0:1800.0:-1
ipc-2014-optimal-floortile-p03-5-3-2.pddl,SAT:2.87556:65.0:1800.0:-1
ipc-2014-optimal-floortile-p03-5-4-2.pddl,SAT:7.07892:83.0:1800.0:-1
ipc-2014-optimal-floortile-p03-5-5-2.pddl,SAT:29.7805:100.0:1800.0:-1
ipc-2014-optimal-floortile-p03-6-4-2.pddl,SAT:9.12561:116.0:1800.0:-1
ipc-2014-optimal-floortile-p03-6-5-2.pddl,SAT:90.2593:130.0:1800.0:-1
ipc-2014-optimal-ged-d-1-2.pddl,CRASHED:1.17482:1000000000.0:1800.0:-1
ipc-2014-optimal-ged-d-1-3.pddl,CRASHED:1.44978:1000000000.0:1800.0:-1
ipc-2014-optimal-ged-d-1-4.pddl,CRASHED:1.20782:1000000000.0:1800.0:-1
ipc-2014-optimal-ged-d-1-8.pddl,CRASHED:1.57176:1000000000.0:1800.0:-1
ipc-2014-optimal-ged-d-2-1.pddl,CRASHED:1.23281:1000000000.0:1800.0:-1
ipc-2014-optimal-ged-d-2-3.pddl,CRASHED:1.3378:1000000000.0:1800.0:-1
ipc-2014-optimal-ged-d-2-4.pddl,CRASHED:1.2908:1000000000.0:1800.0:-1
ipc-2014-optimal-ged-d-2-8.pddl,CRASHED:1.9877:1000000000.0:1800.0:-1
ipc-2014-optimal-ged-d-3-1.pddl,CRASHED:1.44178:1000000000.0:1800.0:-1
ipc-2014-optimal-ged-d-3-2.pddl,CRASHED:1.35479:1000000000.0:1800.0:-1
ipc-2014-optimal-ged-d-3-4.pddl,CRASHED:1.56676:1000000000.0:1800.0:-1
ipc-2014-optimal-ged-d-4-2.pddl,CRASHED:1.2968:1000000000.0:1800.0:-1
ipc-2014-optimal-ged-d-4-3.pddl,CRASHED:1.56076:1000000000.0:1800.0:-1
ipc-2014-optimal-ged-d-4-8.pddl,CRASHED:1.9767:1000000000.0:1800.0:-1
ipc-2014-optimal-ged-d-7-5.pddl,CRASHED:1.58076:1000000000.0:1800.0:-1
ipc-2014-optimal-ged-d-7-6.pddl,CRASHED:1.44678:1000000000.0:1800.0:-1
ipc-2014-optimal-ged-d-8-1.pddl,CRASHED:1.59776:1000000000.0:1800.0:-1
ipc-2014-optimal-ged-d-8-2.pddl,CRASHED:1.9717:1000000000.0:1800.0:-1
ipc-2014-optimal-ged-d-8-4.pddl,CRASHED:1.9557:1000000000.0:1800.0:-1
ipc-2014-optimal-ged-d-8-9.pddl,CRASHED:1.9717:1000000000.0:1800.0:-1
ipc-2014-optimal-hiking-1-2-3.pddl,SAT:1.83972:11.0:1800.0:-1
ipc-2014-optimal-hiking-1-2-4.pddl,SAT:2.25166:17.0:1800.0:-1
ipc-2014-optimal-hiking-1-2-5.pddl,SAT:2.46962:25.0:1800.0:-1
ipc-2014-optimal-hiking-1-2-7.pddl,SAT:6.31004:38.0:1800.0:-1
ipc-2014-optimal-hiking-1-2-8.pddl,SAT:6.93394:45.0:1800.0:-1
ipc-2014-optimal-hiking-2-2-3.pddl,SAT:6.605:10.0:1800.0:-1
ipc-2014-optimal-hiking-2-2-4.pddl,SAT:9.08062:16.0:1800.0:-1
ipc-2014-optimal-hiking-2-2-5.pddl,SAT:24.5613:22.0:1800.0:-1
ipc-2014-optimal-hiking-2-2-6.pddl,SAT:119.353:30.0:1800.0:-1
ipc-2014-optimal-hiking-2-2-7.pddl,SAT:490.034:34.0:1800.0:-1
ipc-2014-optimal-hiking-2-2-8.pddl,SAT:1648.7:42.0:1800.0:-1
ipc-2014-optimal-hiking-2-3-4.pddl,SAT:14.2098:17.0:1800.0:-1
ipc-2014-optimal-hiking-2-3-5.pddl,SAT:126.446:24.0:1800.0:-1
ipc-2014-optimal-hiking-2-3-6.pddl,SAT:966.075:28.0:1800.0:-1
ipc-2014-optimal-hiking-2-3-7.pddl,TIMEOUT:1801.02:-1.0:1800.0:-1
ipc-2014-optimal-hiking-2-4-3.pddl,SAT:8.03078:10.0:1800.0:-1
ipc-2014-optimal-hiking-2-4-4.pddl,SAT:12.4961:17.0:1800.0:-1
ipc-2014-optimal-hiking-2-4-5.pddl,SAT:143.304:23.0:1800.0:-1
ipc-2014-optimal-hiking-2-4-6.pddl,SAT:1719.14:30.0:1800.0:-1
ipc-2014-optimal-hiking-2-4-7.pddl,TIMEOUT:1801.03:-1.0:1800.0:-1
ipc-2014-optimal-maintenance-1.3.010.010.1-001.pddl,CRASHED:0.938856:1000000000.0:1800.0:-1
ipc-2014-optimal-maintenance-1.3.010.010.1-002.pddl,CRASHED:0.926858:1000000000.0:1800.0:-1
ipc-2014-optimal-maintenance-1.3.010.010.2-000.pddl,SAT:1.73473:4.0:1800.0:-1
ipc-2014-optimal-maintenance-1.3.010.010.2-001.pddl,SAT:1.82772:7.0:1800.0:-1
ipc-2014-optimal-maintenance-1.3.010.010.2-002.pddl,SAT:1.77973:6.0:1800.0:-1
ipc-2014-optimal-maintenance-1.3.015.020.1-000.pddl,CRASHED:1.06684:1000000000.0:1800.0:-1
ipc-2014-optimal-maintenance-1.3.015.020.1-001.pddl,CRASHED:1.06384:1000000000.0:1800.0:-1
ipc-2014-optimal-maintenance-1.3.015.020.1-002.pddl,CRASHED:1.06084:1000000000.0:1800.0:-1
ipc-2014-optimal-maintenance-1.3.015.020.2-000.pddl,CRASHED:1.08683:1000000000.0:1800.0:-1
ipc-2014-optimal-maintenance-1.3.015.020.2-001.pddl,SAT:2.15367:11.0:1800.0:-1
ipc-2014-optimal-maintenance-1.3.015.020.2-002.pddl,SAT:2.11268:9.0:1800.0:-1
ipc-2014-optimal-maintenance-1.3.025.050.1-000.pddl,CRASHED:1.35979:1000000000.0:1800.0:-1
ipc-2014-optimal-maintenance-1.3.025.050.1-001.pddl,CRASHED:1.34679:1000000000.0:1800.0:-1
ipc-2014-optimal-maintenance-1.3.025.050.1-002.pddl,CRASHED:1.3438:1000000000.0:1800.0:-1
ipc-2014-optimal-maintenance-1.3.025.100.1-000.pddl,CRASHED:1.66674:1000000000.0:1800.0:-1
ipc-2014-optimal-maintenance-1.3.025.100.1-001.pddl,CRASHED:1.72874:1000000000.0:1800.0:-1
ipc-2014-optimal-maintenance-1.3.025.100.1-002.pddl,CRASHED:1.65775:1000000000.0:1800.0:-1
ipc-2014-optimal-maintenance-1.3.025.100.2-000.pddl,CRASHED:1.90671:1000000000.0:1800.0:-1
ipc-2014-optimal-maintenance-1.3.025.100.2-001.pddl,CRASHED:1.90971:1000000000.0:1800.0:-1
ipc-2014-optimal-maintenance-1.3.025.100.2-002.pddl,CRASHED:1.86871:1000000000.0:1800.0:-1
ipc-2014-optimal-openstacks-p20_1.pddl,SAT:4.06538:3.0:1800.0:-1
ipc-2014-optimal-openstacks-p20_2.pddl,SAT:7.40087:4.0:1800.0:-1
ipc-2014-optimal-openstacks-p20_3.pddl,SAT:8.90464:6.0:1800.0:-1
ipc-2014-optimal-openstacks-p25_1.pddl,SAT:10.3504:4.0:1800.0:-1
ipc-2014-optimal-openstacks-p25_3.pddl,SAT:16.1885:9.0:1800.0:-1
ipc-2014-optimal-openstacks-p30_1.pddl,SAT:13.174:4.0:1800.0:-1
ipc-2014-optimal-openstacks-p30_2.pddl,SAT:13.5369:4.0:1800.0:-1
ipc-2014-optimal-openstacks-p30_3.pddl,SAT:19.918:12.0:1800.0:-1
ipc-2014-optimal-openstacks-p35_1.pddl,SAT:16.9114:4.0:1800.0:-1
ipc-2014-optimal-openstacks-p35_2.pddl,SAT:21.2578:5.0:1800.0:-1
ipc-2014-optimal-openstacks-p35_3.pddl,SAT:239.405:14.0:1800.0:-1
ipc-2014-optimal-openstacks-p40_1.pddl,SAT:21.0428:3.0:1800.0:-1
ipc-2014-optimal-openstacks-p40_2.pddl,SAT:20.2429:4.0:1800.0:-1
ipc-2014-optimal-openstacks-p40_3.pddl,SAT:60.7198:15.0:1800.0:-1
ipc-2014-optimal-openstacks-p45_1.pddl,SAT:23.4034:4.0:1800.0:-1
ipc-2014-optimal-openstacks-p45_2.pddl,SAT:28.2337:5.0:1800.0:-1
ipc-2014-optimal-openstacks-p45_3.pddl,SAT:436.755:19.0:1800.0:-1
ipc-2014-optimal-openstacks-p50_1.pddl,SAT:29.1076:4.0:1800.0:-1
ipc-2014-optimal-openstacks-p50_2.pddl,SAT:28.6706:5.0:1800.0:-1
ipc-2014-optimal-openstacks-p50_3.pddl,TIMEOUT:1801.09:-1.0:1800.0:-1
ipc-2014-optimal-parking-12_7-01.pddl,SAT:970.408:18.0:1800.0:-1
ipc-2014-optimal-parking-12_7-02.pddl,SAT:836.632:18.0:1800.0:-1
ipc-2014-optimal-parking-12_7-03.pddl,SAT:579.589:17.0:1800.0:-1
ipc-2014-optimal-parking-12_7-04.pddl,SAT:1682.25:19.0:1800.0:-1
ipc-2014-optimal-parking-14_8-01.pddl,CRASHED:1298.5:1000000000.0:1800.0:-1
ipc-2014-optimal-parking-14_8-02.pddl,CRASHED:1304.11:1000000000.0:1800.0:-1
ipc-2014-optimal-parking-14_8-03.pddl,TIMEOUT:1801.08:-1.0:1800.0:-1
ipc-2014-optimal-parking-14_8-04.pddl,TIMEOUT:1801.03:-1.0:1800.0:-1
ipc-2014-optimal-parking-16_9-01.pddl,TIMEOUT:1801.04:-1.0:1800.0:-1
ipc-2014-optimal-parking-16_9-02.pddl,CRASHED:1279.32:1000000000.0:1800.0:-1
ipc-2014-optimal-parking-16_9-03.pddl,TIMEOUT:1801.08:-1.0:1800.0:-1
ipc-2014-optimal-parking-16_9-04.pddl,TIMEOUT:1801.07:-1.0:1800.0:-1
ipc-2014-optimal-parking-18_10-01.pddl,CRASHED:1535.78:1000000000.0:1800.0:-1
ipc-2014-optimal-parking-18_10-02.pddl,CRASHED:1639.51:1000000000.0:1800.0:-1
ipc-2014-optimal-parking-18_10-03.pddl,TIMEOUT:1801.0:-1.0:1800.0:-1
ipc-2014-optimal-parking-18_10-04.pddl,TIMEOUT:1801.01:-1.0:1800.0:-1
ipc-2014-optimal-parking-20_11-01.pddl,TIMEOUT:1801.08:-1.0:1800.0:-1
ipc-2014-optimal-parking-20_11-02.pddl,TIMEOUT:1801.04:-1.0:1800.0:-1
ipc-2014-optimal-parking-20_11-03.pddl,TIMEOUT:1801.08:-1.0:1800.0:-1
ipc-2014-optimal-parking-20_11-04.pddl,TIMEOUT:1801.09:-1.0:1800.0:-1
ipc-2014-optimal-tetris-01-10.pddl,CRASHED:1372.29:1000000000.0:1800.0:-1
ipc-2014-optimal-tetris-01-04.pddl,CRASHED:13.214:1000000000.0:1800.0:-1
ipc-2014-optimal-tetris-01-06.pddl,SAT:116.06:30.0:1800.0:-1
ipc-2014-optimal-tetris-01-08.pddl,SAT:33.5099:36.0:1800.0:-1
ipc-2014-optimal-tetris-02-10.pddl,CRASHED:1595.65:1000000000.0:1800.0:-1
ipc-2014-optimal-tetris-02-04.pddl,SAT:7.08792:10.0:1800.0:-1
ipc-2014-optimal-tetris-02-06.pddl,SAT:31.3322:30.0:1800.0:-1
ipc-2014-optimal-tetris-02-08.pddl,SAT:463.822:39.0:1800.0:-1
ipc-2014-optimal-tetris-03-10.pddl,TIMEOUT:1801.01:-1.0:1800.0:-1
ipc-2014-optimal-tetris-03-04.pddl,SAT:6.11207:11.0:1800.0:-1
ipc-2014-optimal-tetris-03-06.pddl,SAT:55.6885:21.0:1800.0:-1
ipc-2014-optimal-tetris-03-08.pddl,SAT:75.4135:48.0:1800.0:-1
ipc-2014-optimal-tetris-04-10.pddl,CRASHED:1484.15:1000000000.0:1800.0:-1
ipc-2014-optimal-tetris-04-04.pddl,CRASHED:11.8542:1000000000.0:1800.0:-1
ipc-2014-optimal-tetris-04-06.pddl,SAT:103.812:27.0:1800.0:-1
ipc-2014-optimal-tetris-04-08.pddl,TIMEOUT:1801.0:-1.0:1800.0:-1
ipc-2014-optimal-tetris-05-10.pddl,SAT:1081.85:66.0:1800.0:-1
ipc-2014-optimal-tetris-05-04.pddl,CRASHED:10.7994:1000000000.0:1800.0:-1
ipc-2014-optimal-tetris-05-06.pddl,SAT:13.249:19.0:1800.0:-1
ipc-2014-optimal-tetris-05-08.pddl,TIMEOUT:1801.05:-1.0:1800.0:-1
ipc-2014-optimal-tidybot-01.pddl,CRASHED:566.42:1000000000.0:1800.0:-1
ipc-2014-optimal-tidybot-02.pddl,SAT:431.363:35.0:1800.0:-1
ipc-2014-optimal-tidybot-03.pddl,SAT:142.196:30.0:1800.0:-1
ipc-2014-optimal-tidybot-04.pddl,SAT:219.317:24.0:1800.0:-1
ipc-2014-optimal-tidybot-05.pddl,CRASHED:1270.46:1000000000.0:1800.0:-1
ipc-2014-optimal-tidybot-06.pddl,SAT:658.17:63.0:1800.0:-1
ipc-2014-optimal-tidybot-07.pddl,SAT:145.972:38.0:1800.0:-1
ipc-2014-optimal-tidybot-08.pddl,SAT:285.842:25.0:1800.0:-1
ipc-2014-optimal-tidybot-09.pddl,CRASHED:1659.02:1000000000.0:1800.0:-1
ipc-2014-optimal-tidybot-10.pddl,SAT:1204.4:47.0:1800.0:-1
ipc-2014-optimal-tidybot-11.pddl,SAT:166.157:29.0:1800.0:-1
ipc-2014-optimal-tidybot-12.pddl,SAT:446.545:35.0:1800.0:-1
ipc-2014-optimal-tidybot-13.pddl,SAT:250.167:30.0:1800.0:-1
ipc-2014-optimal-tidybot-14.pddl,SAT:488.862:25.0:1800.0:-1
ipc-2014-optimal-tidybot-15.pddl,CRASHED:1144.03:1000000000.0:1800.0:-1
ipc-2014-optimal-tidybot-16.pddl,CRASHED:1400.32:1000000000.0:1800.0:-1
ipc-2014-optimal-tidybot-17.pddl,SAT:90.6132:40.0:1800.0:-1
ipc-2014-optimal-tidybot-18.pddl,SAT:233.579:44.0:1800.0:-1
ipc-2014-optimal-tidybot-19.pddl,CRASHED:1203.48:1000000000.0:1800.0:-1
ipc-2014-optimal-tidybot-20.pddl,SAT:101.896:46.0:1800.0:-1
ipc-2014-optimal-transport-01.pddl,SAT:2.40463:148.0:1800.0:-1
ipc-2014-optimal-transport-02.pddl,SAT:5.58215:191.0:1800.0:-1
ipc-2014-optimal-transport-03.pddl,SAT:14.8057:300.0:1800.0:-1
ipc-2014-optimal-transport-04.pddl,SAT:545.734:250.0:1800.0:-1
ipc-2014-optimal-transport-05.pddl,TIMEOUT:1801.03:-1.0:1800.0:-1
ipc-2014-optimal-transport-06.pddl,TIMEOUT:1801.07:-1.0:1800.0:-1
ipc-2014-optimal-transport-07.pddl,SAT:8.90065:967.0:1800.0:-1
ipc-2014-optimal-transport-08.pddl,SAT:773.772:1173.0:1800.0:-1
ipc-2014-optimal-transport-09.pddl,TIMEOUT:1801.02:-1.0:1800.0:-1
ipc-2014-optimal-transport-10.pddl,TIMEOUT:1801.01:-1.0:1800.0:-1
ipc-2014-optimal-transport-11.pddl,TIMEOUT:1801.03:-1.0:1800.0:-1
ipc-2014-optimal-transport-12.pddl,TIMEOUT:1801.01:-1.0:1800.0:-1
ipc-2014-optimal-transport-13.pddl,SAT:13.7719:594.0:1800.0:-1
ipc-2014-optimal-transport-14.pddl,SAT:52.817:526.0:1800.0:-1
ipc-2014-optimal-transport-15.pddl,SAT:1495.07:753.0:1800.0:-1
ipc-2014-optimal-transport-16.pddl,TIMEOUT:1801.11:-1.0:1800.0:-1
ipc-2014-optimal-transport-17.pddl,TIMEOUT:1801.07:-1.0:1800.0:-1
ipc-2014-optimal-transport-18.pddl,TIMEOUT:1801.07:-1.0:1800.0:-1
ipc-2014-optimal-transport-19.pddl,TIMEOUT:1801.05:-1.0:1800.0:-1
ipc-2014-optimal-transport-20.pddl,TIMEOUT:1801.08:-1.0:1800.0:-1
ipc-2014-optimal-visitall-05-10.pddl,CRASHED:1104.11:1000000000.0:1800.0:-1
ipc-2014-optimal-visitall-05-05.pddl,SAT:2.05369:21.0:1800.0:-1
ipc-2014-optimal-visitall-05-06.pddl,SAT:2.29265:25.0:1800.0:-1
ipc-2014-optimal-visitall-05-07.pddl,SAT:6.31404:34.0:1800.0:-1
ipc-2014-optimal-visitall-05-08.pddl,SAT:106.182:43.0:1800.0:-1
ipc-2014-optimal-visitall-05-09.pddl,CRASHED:814.36:1000000000.0:1800.0:-1
ipc-2014-optimal-visitall-01-10.pddl,CRASHED:876.58:1000000000.0:1800.0:-1
ipc-2014-optimal-visitall-01-11.pddl,CRASHED:1076.76:1000000000.0:1800.0:-1
ipc-2014-optimal-visitall-01-12.pddl,CRASHED:1218.72:1000000000.0:1800.0:-1
ipc-2014-optimal-visitall-01-13.pddl,CRASHED:1339.08:1000000000.0:1800.0:-1
ipc-2014-optimal-visitall-01-14.pddl,CRASHED:1123.81:1000000000.0:1800.0:-1
ipc-2014-optimal-visitall-01-15.pddl,CRASHED:1227.7:1000000000.0:1800.0:-1
ipc-2014-optimal-visitall-01-16.pddl,CRASHED:1360.47:1000000000.0:1800.0:-1
ipc-2014-optimal-visitall-01-17.pddl,CRASHED:1411.76:1000000000.0:1800.0:-1
ipc-2014-optimal-visitall-01-18.pddl,CRASHED:1512.6:1000000000.0:1800.0:-1
ipc-2014-optimal-visitall-01-05.pddl,SAT:3.71543:24.0:1800.0:-1
ipc-2014-optimal-visitall-01-06.pddl,SAT:502.603:35.0:1800.0:-1
ipc-2014-optimal-visitall-01-07.pddl,CRASHED:985.25:1000000000.0:1800.0:-1
ipc-2014-optimal-visitall-01-08.pddl,CRASHED:723.08:1000000000.0:1800.0:-1
ipc-2014-optimal-visitall-01-09.pddl,CRASHED:1187.97:1000000000.0:1800.0:-1
