instance,ipc-2014-agile-madagascar
ipc-2014-agile-barman-p1-11-4-15.pddl,TIMEOUT:301.064:-1.0:300.0:-1
ipc-2014-agile-barman-p1-11-5-15.pddl,TIMEOUT:301.095:-1.0:300.0:-1
ipc-2014-agile-barman-p1-11-5-16.pddl,TIMEOUT:301.093:-1.0:300.0:-1
ipc-2014-agile-barman-p2-10-4-13.pddl,TIMEOUT:301.042:-1.0:300.0:-1
ipc-2014-agile-barman-p2-11-4-15.pddl,TIMEOUT:301.102:-1.0:300.0:-1
ipc-2014-agile-barman-p2-11-5-15.pddl,TIMEOUT:301.074:-1.0:300.0:-1
ipc-2014-agile-barman-p2-11-5-16.pddl,TIMEOUT:301.123:-1.0:300.0:-1
ipc-2014-agile-barman-p2-11-5-17.pddl,TIMEOUT:301.108:-1.0:300.0:-1
ipc-2014-agile-barman-p3-10-4-13.pddl,TIMEOUT:301.142:-1.0:300.0:-1
ipc-2014-agile-barman-p3-11-4-15.pddl,TIMEOUT:301.123:-1.0:300.0:-1
ipc-2014-agile-barman-p3-11-5-15.pddl,TIMEOUT:301.124:-1.0:300.0:-1
ipc-2014-agile-barman-p3-11-5-16.pddl,TIMEOUT:301.117:-1.0:300.0:-1
ipc-2014-agile-barman-p3-11-5-17.pddl,TIMEOUT:301.146:-1.0:300.0:-1
ipc-2014-agile-barman-p4-11-4-14.pddl,TIMEOUT:301.06:-1.0:300.0:-1
ipc-2014-agile-barman-p4-11-4-15.pddl,TIMEOUT:301.135:-1.0:300.0:-1
ipc-2014-agile-barman-p4-11-5-15.pddl,TIMEOUT:301.126:-1.0:300.0:-1
ipc-2014-agile-barman-p5-10-4-13.pddl,TIMEOUT:301.136:-1.0:300.0:-1
ipc-2014-agile-barman-p5-11-4-15.pddl,TIMEOUT:301.082:-1.0:300.0:-1
ipc-2014-agile-barman-p5-11-5-15.pddl,TIMEOUT:301.143:-1.0:300.0:-1
ipc-2014-agile-barman-p5-11-5-16.pddl,TIMEOUT:301.165:-1.0:300.0:-1
ipc-2014-agile-cavediving-01_easy.pddl,TIMEOUT:301.142:-1.0:300.0:-1
ipc-2014-agile-cavediving-01.pddl,TIMEOUT:301.179:-1.0:300.0:-1
ipc-2014-agile-cavediving-02_easy.pddl,TIMEOUT:301.203:-1.0:300.0:-1
ipc-2014-agile-cavediving-03_easy.pddl,TIMEOUT:301.147:-1.0:300.0:-1
ipc-2014-agile-cavediving-04_easy.pddl,TIMEOUT:301.134:-1.0:300.0:-1
ipc-2014-agile-cavediving-05A_easy.pddl,SAT:2.56061:99.0:300.0:-1
ipc-2014-agile-cavediving-06A_easy.pddl,SAT:2.53161:100.0:300.0:-1
ipc-2014-agile-cavediving-07_easy.pddl,SAT:5.29619:135.0:300.0:-1
ipc-2014-agile-cavediving-08_easy.pddl,SAT:2.50162:95.0:300.0:-1
ipc-2014-agile-cavediving-09_easy.pddl,TIMEOUT:301.352:-1.0:300.0:-1
ipc-2014-agile-cavediving-10_easy.pddl,TIMEOUT:301.286:-1.0:300.0:-1
ipc-2014-agile-cavediving-11_easy.pddl,TIMEOUT:301.286:-1.0:300.0:-1
ipc-2014-agile-cavediving-12_easy.pddl,TIMEOUT:301.371:-1.0:300.0:-1
ipc-2014-agile-cavediving-13_easy.pddl,TIMEOUT:301.163:-1.0:300.0:-1
ipc-2014-agile-cavediving-14_easy.pddl,TIMEOUT:301.136:-1.0:300.0:-1
ipc-2014-agile-cavediving-15_easy.pddl,TIMEOUT:301.102:-1.0:300.0:-1
ipc-2014-agile-cavediving-16_easy.pddl,TIMEOUT:301.191:-1.0:300.0:-1
ipc-2014-agile-cavediving-18A_easy.pddl,SAT:3.2785:139.0:300.0:-1
ipc-2014-agile-cavediving-18_easy.pddl,SAT:0.857869:135.0:300.0:-1
ipc-2014-agile-cavediving-20A_easy.pddl,SAT:10.8424:104.0:300.0:-1
ipc-2014-agile-childsnack-05-2.pddl,SAT:0.831872:62.0:300.0:-1
ipc-2014-agile-childsnack-05.pddl,SAT:0.288955:38.0:300.0:-1
ipc-2014-agile-childsnack-06-2.pddl,SAT:0.467928:41.0:300.0:-1
ipc-2014-agile-childsnack-07-2.pddl,SAT:2.96455:46.0:300.0:-1
ipc-2014-agile-childsnack-08-2.pddl,SAT:1.44478:49.0:300.0:-1
ipc-2014-agile-childsnack-08.pddl,SAT:2.21366:49.0:300.0:-1
ipc-2014-agile-childsnack-09-2.pddl,SAT:11.8492:50.0:300.0:-1
ipc-2014-agile-childsnack-09.pddl,SAT:2.13467:47.0:300.0:-1
ipc-2014-agile-childsnack-10-2.pddl,SAT:10.5584:69.0:300.0:-1
ipc-2014-agile-childsnack-10.pddl,SAT:7.35588:52.0:300.0:-1
ipc-2014-agile-childsnack-11-2.pddl,SAT:16.1635:78.0:300.0:-1
ipc-2014-agile-childsnack-11.pddl,SAT:1.27081:55.0:300.0:-1
ipc-2014-agile-childsnack-12.pddl,SAT:14.6918:77.0:300.0:-1
ipc-2014-agile-childsnack-13-2.pddl,SAT:8.06177:64.0:300.0:-1
ipc-2014-agile-childsnack-13.pddl,SAT:9.45256:66.0:300.0:-1
ipc-2014-agile-childsnack-14.pddl,SAT:43.1724:84.0:300.0:-1
ipc-2014-agile-childsnack-15-2.pddl,SAT:62.3625:101.0:300.0:-1
ipc-2014-agile-childsnack-16-2.pddl,SAT:145.062:76.0:300.0:-1
ipc-2014-agile-childsnack-19-2.pddl,CRASHED:32.939:1000000000.0:300.0:-1
ipc-2014-agile-childsnack-19.pddl,CRASHED:32.5101:1000000000.0:300.0:-1
ipc-2014-agile-citycar-p3-2-2-0-1.pddl,SAT:0.38694:409.0:300.0:-1
ipc-2014-agile-citycar-p3-3-2-0-1.pddl,SAT:0.866867:443.0:300.0:-1
ipc-2014-agile-citycar-p3-4-2-0-1.pddl,TIMEOUT:301.115:-1.0:300.0:-1
ipc-2014-agile-citycar-p3-5-2-0-1.pddl,TIMEOUT:301.068:-1.0:300.0:-1
ipc-2014-agile-citycar-p3-5-2-0-2.pddl,TIMEOUT:301.106:-1.0:300.0:-1
ipc-2014-agile-citycar-p4-2-2-0-1.pddl,SAT:8.12976:987.0:300.0:-1
ipc-2014-agile-citycar-p4-2-3-0-1.pddl,SAT:3.23351:972.0:300.0:-1
ipc-2014-agile-citycar-p4-2-3-0-2.pddl,SAT:1.59576:369.0:300.0:-1
ipc-2014-agile-citycar-p4-3-2-0-1.pddl,TIMEOUT:301.196:-1.0:300.0:-1
ipc-2014-agile-citycar-p4-3-2-0-2.pddl,TIMEOUT:301.144:-1.0:300.0:-1
ipc-2014-agile-citycar-p4-3-3-0-1.pddl,SAT:126.987:1233.0:300.0:-1
ipc-2014-agile-citycar-p4-3-3-0-2.pddl,TIMEOUT:301.123:-1.0:300.0:-1
ipc-2014-agile-citycar-p4-4-2-0-1.pddl,TIMEOUT:301.14:-1.0:300.0:-1
ipc-2014-agile-citycar-p4-4-2-0-2.pddl,TIMEOUT:301.21:-1.0:300.0:-1
ipc-2014-agile-citycar-p4-4-3-0-1.pddl,TIMEOUT:301.174:-1.0:300.0:-1
ipc-2014-agile-citycar-p4-4-3-0-2.pddl,TIMEOUT:301.198:-1.0:300.0:-1
ipc-2014-agile-citycar-p4-5-2-0-1.pddl,TIMEOUT:301.181:-1.0:300.0:-1
ipc-2014-agile-citycar-p4-5-2-0-2.pddl,TIMEOUT:301.152:-1.0:300.0:-1
ipc-2014-agile-citycar-p4-5-3-0-1.pddl,TIMEOUT:301.193:-1.0:300.0:-1
ipc-2014-agile-citycar-p4-5-3-0-2.pddl,TIMEOUT:301.192:-1.0:300.0:-1
ipc-2014-agile-floortile-p01-4-3-2.pddl,SAT:0.029995:132.0:300.0:-1
ipc-2014-agile-floortile-p01-5-4-2.pddl,SAT:0.046992:219.0:300.0:-1
ipc-2014-agile-floortile-p01-5-5-2.pddl,SAT:0.103983:278.0:300.0:-1
ipc-2014-agile-floortile-p01-6-4-2.pddl,SAT:0.055991:239.0:300.0:-1
ipc-2014-agile-floortile-p01-6-5-2.pddl,SAT:0.156975:260.0:300.0:-1
ipc-2014-agile-floortile-p01-6-5-3.pddl,SAT:0.081986:293.0:300.0:-1
ipc-2014-agile-floortile-p02-5-4-2.pddl,SAT:0.044992:228.0:300.0:-1
ipc-2014-agile-floortile-p02-6-4-2.pddl,SAT:0.049992:221.0:300.0:-1
ipc-2014-agile-floortile-p02-6-5-2.pddl,SAT:0.147976:338.0:300.0:-1
ipc-2014-agile-floortile-p02-6-5-3.pddl,SAT:0.080987:280.0:300.0:-1
ipc-2014-agile-floortile-p03-6-4-2.pddl,SAT:0.066988:252.0:300.0:-1
ipc-2014-agile-floortile-p03-6-5-2.pddl,SAT:0.122981:288.0:300.0:-1
ipc-2014-agile-floortile-p03-6-5-3.pddl,SAT:0.072988:293.0:300.0:-1
ipc-2014-agile-floortile-p04-5-4-2.pddl,SAT:0.040993:207.0:300.0:-1
ipc-2014-agile-floortile-p04-5-5-2.pddl,SAT:0.098984:263.0:300.0:-1
ipc-2014-agile-floortile-p04-6-5-2.pddl,SAT:0.097984:338.0:300.0:-1
ipc-2014-agile-floortile-p04-6-5-3.pddl,SAT:0.103984:298.0:300.0:-1
ipc-2014-agile-floortile-p05-4-3-2.pddl,SAT:0.015997:108.0:300.0:-1
ipc-2014-agile-floortile-p05-6-5-2.pddl,SAT:0.120981:248.0:300.0:-1
ipc-2014-agile-floortile-p05-6-5-3.pddl,SAT:0.121981:350.0:300.0:-1
ipc-2014-agile-ged-d-10-1.pddl,TIMEOUT:301.306:-1.0:300.0:-1
ipc-2014-agile-ged-d-10-2.pddl,TIMEOUT:301.214:-1.0:300.0:-1
ipc-2014-agile-ged-d-10-3.pddl,TIMEOUT:301.161:-1.0:300.0:-1
ipc-2014-agile-ged-d-10-4.pddl,TIMEOUT:301.26:-1.0:300.0:-1
ipc-2014-agile-ged-d-10-5.pddl,TIMEOUT:301.253:-1.0:300.0:-1
ipc-2014-agile-ged-d-10-6.pddl,TIMEOUT:301.246:-1.0:300.0:-1
ipc-2014-agile-ged-d-11-1.pddl,TIMEOUT:301.213:-1.0:300.0:-1
ipc-2014-agile-ged-d-11-3.pddl,TIMEOUT:301.139:-1.0:300.0:-1
ipc-2014-agile-ged-d-11-5.pddl,TIMEOUT:301.271:-1.0:300.0:-1
ipc-2014-agile-ged-d-11-6.pddl,TIMEOUT:301.217:-1.0:300.0:-1
ipc-2014-agile-ged-d-12-11.pddl,TIMEOUT:301.211:-1.0:300.0:-1
ipc-2014-agile-ged-d-12-2.pddl,TIMEOUT:301.28:-1.0:300.0:-1
ipc-2014-agile-ged-d-12-3.pddl,TIMEOUT:301.348:-1.0:300.0:-1
ipc-2014-agile-ged-d-12-5.pddl,TIMEOUT:301.282:-1.0:300.0:-1
ipc-2014-agile-ged-d-12-6.pddl,TIMEOUT:301.29:-1.0:300.0:-1
ipc-2014-agile-ged-d-12-7.pddl,TIMEOUT:301.311:-1.0:300.0:-1
ipc-2014-agile-ged-d-12-8.pddl,TIMEOUT:301.327:-1.0:300.0:-1
ipc-2014-agile-ged-d-12-9.pddl,TIMEOUT:301.329:-1.0:300.0:-1
ipc-2014-agile-ged-d-3-6.pddl,TIMEOUT:301.165:-1.0:300.0:-1
ipc-2014-agile-ged-d-9-5.pddl,TIMEOUT:301.241:-1.0:300.0:-1
ipc-2014-agile-hiking-3-4-3.pddl,SAT:1.25681:34.0:300.0:-1
ipc-2014-agile-hiking-3-4-4.pddl,TIMEOUT:301.233:-1.0:300.0:-1
ipc-2014-agile-hiking-3-4-5.pddl,TIMEOUT:301.407:-1.0:300.0:-1
ipc-2014-agile-hiking-3-4-6.pddl,CRASHED:54.9496:1000000000.0:300.0:-1
ipc-2014-agile-hiking-3-4-7.pddl,CRASHED:48.6016:1000000000.0:300.0:-1
ipc-2014-agile-hiking-3-4-8.pddl,CRASHED:45.734:1000000000.0:300.0:-1
ipc-2014-agile-hiking-3-4-9.pddl,CRASHED:50.2104:1000000000.0:300.0:-1
ipc-2014-agile-hiking-4-5-3.pddl,SAT:15.5056:34.0:300.0:-1
ipc-2014-agile-hiking-4-5-4.pddl,CRASHED:37.4433:1000000000.0:300.0:-1
ipc-2014-agile-hiking-4-5-5.pddl,CRASHED:38.9341:1000000000.0:300.0:-1
ipc-2014-agile-hiking-4-5-6.pddl,CRASHED:49.7504:1000000000.0:300.0:-1
ipc-2014-agile-hiking-4-5-7.pddl,CRASHED:51.5322:1000000000.0:300.0:-1
ipc-2014-agile-hiking-4-5-8.pddl,CRASHED:60.1749:1000000000.0:300.0:-1
ipc-2014-agile-hiking-4-5-9.pddl,CRASHED:68.6156:1000000000.0:300.0:-1
ipc-2014-agile-hiking-5-6-3.pddl,CRASHED:36.3435:1000000000.0:300.0:-1
ipc-2014-agile-hiking-5-6-4.pddl,CRASHED:38.2092:1000000000.0:300.0:-1
ipc-2014-agile-hiking-5-6-5.pddl,CRASHED:43.1464:1000000000.0:300.0:-1
ipc-2014-agile-hiking-5-6-6.pddl,CRASHED:57.8732:1000000000.0:300.0:-1
ipc-2014-agile-hiking-5-6-7.pddl,CRASHED:83.5403:1000000000.0:300.0:-1
ipc-2014-agile-hiking-5-6-8.pddl,CRASHED:130.531:1000000000.0:300.0:-1
ipc-2014-agile-maintenance-1.3.060.180.5-000.pddl,SAT:0.225965:60.0:300.0:-1
ipc-2014-agile-maintenance-1.3.060.180.5-001.pddl,SAT:0.222965:60.0:300.0:-1
ipc-2014-agile-maintenance-1.3.060.180.5-002.pddl,SAT:0.118981:60.0:300.0:-1
ipc-2014-agile-maintenance-1.3.100.300.5-000.pddl,SAT:1.9897:100.0:300.0:-1
ipc-2014-agile-maintenance-1.3.100.300.5-001.pddl,SAT:0.683895:100.0:300.0:-1
ipc-2014-agile-maintenance-1.3.100.300.7-000.pddl,SAT:0.352946:99.0:300.0:-1
ipc-2014-agile-maintenance-1.3.100.300.7-001.pddl,SAT:0.281956:98.0:300.0:-1
ipc-2014-agile-maintenance-1.3.100.300.7-002.pddl,SAT:0.344947:98.0:300.0:-1
ipc-2014-agile-maintenance-1.3.150.500.6-001.pddl,SAT:1.24181:150.0:300.0:-1
ipc-2014-agile-maintenance-1.3.200.500.5-001.pddl,SAT:1.69374:200.0:300.0:-1
ipc-2014-agile-maintenance-1.3.200.500.5-002.pddl,SAT:1.39379:199.0:300.0:-1
ipc-2014-agile-maintenance-1.3.200.700.7-000.pddl,SAT:2.55061:196.0:300.0:-1
ipc-2014-agile-maintenance-1.3.200.700.7-001.pddl,SAT:2.85956:199.0:300.0:-1
ipc-2014-agile-maintenance-1.3.200.700.7-002.pddl,SAT:2.53361:198.0:300.0:-1
ipc-2014-agile-maintenance-1.3.200.900.5-000.pddl,TIMEOUT:301.146:-1.0:300.0:-1
ipc-2014-agile-maintenance-1.3.200.900.5-001.pddl,TIMEOUT:301.083:-1.0:300.0:-1
ipc-2014-agile-maintenance-1.3.200.900.5-002.pddl,TIMEOUT:301.141:-1.0:300.0:-1
ipc-2014-agile-maintenance-1.3.200.900.8-000.pddl,SAT:4.53031:196.0:300.0:-1
ipc-2014-agile-maintenance-1.3.200.900.8-001.pddl,SAT:4.64429:198.0:300.0:-1
ipc-2014-agile-maintenance-1.3.200.900.8-002.pddl,SAT:4.54231:198.0:300.0:-1
ipc-2014-agile-openstacks-p130_2.pddl,CRASHED:67.9537:1000000000.0:300.0:-1
ipc-2014-agile-openstacks-p130_3.pddl,CRASHED:67.0868:1000000000.0:300.0:-1
ipc-2014-agile-openstacks-p150_2.pddl,CRASHED:62.8234:1000000000.0:300.0:-1
ipc-2014-agile-openstacks-p150_3.pddl,CRASHED:85.26:1000000000.0:300.0:-1
ipc-2014-agile-openstacks-p170_1.pddl,CRASHED:76.9153:1000000000.0:300.0:-1
ipc-2014-agile-openstacks-p170_2.pddl,CRASHED:81.9125:1000000000.0:300.0:-1
ipc-2014-agile-openstacks-p170_3.pddl,CRASHED:112.579:1000000000.0:300.0:-1
ipc-2014-agile-openstacks-p190_1.pddl,CRASHED:101.587:1000000000.0:300.0:-1
ipc-2014-agile-openstacks-p190_2.pddl,CRASHED:104.302:1000000000.0:300.0:-1
ipc-2014-agile-openstacks-p190_3.pddl,CRASHED:162.839:1000000000.0:300.0:-1
ipc-2014-agile-openstacks-p210_1.pddl,CRASHED:128.582:1000000000.0:300.0:-1
ipc-2014-agile-openstacks-p210_2.pddl,CRASHED:134.817:1000000000.0:300.0:-1
ipc-2014-agile-openstacks-p230_1.pddl,CRASHED:168.493:1000000000.0:300.0:-1
ipc-2014-agile-openstacks-p230_2.pddl,CRASHED:186.048:1000000000.0:300.0:-1
ipc-2014-agile-openstacks-p250_1.pddl,CRASHED:227.604:1000000000.0:300.0:-1
ipc-2014-agile-openstacks-p250_2.pddl,CRASHED:243.819:1000000000.0:300.0:-1
ipc-2014-agile-openstacks-p270_1.pddl,TIMEOUT:301.361:-1.0:300.0:-1
ipc-2014-agile-openstacks-p270_2.pddl,TIMEOUT:301.36:-1.0:300.0:-1
ipc-2014-agile-openstacks-p290_1.pddl,TIMEOUT:301.299:-1.0:300.0:-1
ipc-2014-agile-openstacks-p290_2.pddl,TIMEOUT:301.339:-1.0:300.0:-1
ipc-2014-agile-parking-28_2.pddl,CRASHED:190.665:1000000000.0:300.0:-1
ipc-2014-agile-parking-28_3.pddl,CRASHED:195.771:1000000000.0:300.0:-1
ipc-2014-agile-parking-30_1.pddl,CRASHED:204.37:1000000000.0:300.0:-1
ipc-2014-agile-parking-30_2.pddl,CRASHED:196.016:1000000000.0:300.0:-1
ipc-2014-agile-parking-30_3.pddl,CRASHED:205.747:1000000000.0:300.0:-1
ipc-2014-agile-parking-32_1.pddl,CRASHED:287.394:1000000000.0:300.0:-1
ipc-2014-agile-parking-32_2.pddl,CRASHED:252.58:1000000000.0:300.0:-1
ipc-2014-agile-parking-32_3.pddl,CRASHED:271.136:1000000000.0:300.0:-1
ipc-2014-agile-parking-34_1.pddl,TIMEOUT:301.378:-1.0:300.0:-1
ipc-2014-agile-parking-34_2.pddl,TIMEOUT:301.391:-1.0:300.0:-1
ipc-2014-agile-parking-34_3.pddl,TIMEOUT:301.322:-1.0:300.0:-1
ipc-2014-agile-parking-36_1.pddl,TIMEOUT:301.207:-1.0:300.0:-1
ipc-2014-agile-parking-36_2.pddl,TIMEOUT:301.153:-1.0:300.0:-1
ipc-2014-agile-parking-36_3.pddl,TIMEOUT:301.133:-1.0:300.0:-1
ipc-2014-agile-parking-38_1.pddl,TIMEOUT:301.192:-1.0:300.0:-1
ipc-2014-agile-parking-38_2.pddl,TIMEOUT:301.143:-1.0:300.0:-1
ipc-2014-agile-parking-38_3.pddl,TIMEOUT:301.177:-1.0:300.0:-1
ipc-2014-agile-parking-40_1.pddl,TIMEOUT:301.249:-1.0:300.0:-1
ipc-2014-agile-parking-40_2.pddl,TIMEOUT:301.176:-1.0:300.0:-1
ipc-2014-agile-parking-40_3.pddl,TIMEOUT:301.212:-1.0:300.0:-1
ipc-2014-agile-tetris-020.pddl,TIMEOUT:301.362:-1.0:300.0:-1
ipc-2014-agile-tetris-021.pddl,CRASHED:175.513:1000000000.0:300.0:-1
ipc-2014-agile-tetris-022.pddl,CRASHED:186.11:1000000000.0:300.0:-1
ipc-2014-agile-tetris-023.pddl,CRASHED:163.268:1000000000.0:300.0:-1
ipc-2014-agile-tetris-024.pddl,CRASHED:191.66:1000000000.0:300.0:-1
ipc-2014-agile-tetris-025.pddl,TIMEOUT:301.387:-1.0:300.0:-1
ipc-2014-agile-tetris-026.pddl,CRASHED:242.131:1000000000.0:300.0:-1
ipc-2014-agile-tetris-027.pddl,CRASHED:253.638:1000000000.0:300.0:-1
ipc-2014-agile-tetris-028.pddl,CRASHED:216.015:1000000000.0:300.0:-1
ipc-2014-agile-tetris-029.pddl,TIMEOUT:301.363:-1.0:300.0:-1
ipc-2014-agile-tetris-031.pddl,CRASHED:285.753:1000000000.0:300.0:-1
ipc-2014-agile-tetris-032.pddl,CRASHED:274.108:1000000000.0:300.0:-1
ipc-2014-agile-tetris-033.pddl,TIMEOUT:301.45:-1.0:300.0:-1
ipc-2014-agile-tetris-034.pddl,TIMEOUT:301.472:-1.0:300.0:-1
ipc-2014-agile-tetris-035.pddl,CRASHED:262.972:1000000000.0:300.0:-1
ipc-2014-agile-tetris-036.pddl,CRASHED:235.004:1000000000.0:300.0:-1
ipc-2014-agile-tetris-037.pddl,CRASHED:245.774:1000000000.0:300.0:-1
ipc-2014-agile-tetris-038.pddl,TIMEOUT:301.456:-1.0:300.0:-1
ipc-2014-agile-tetris-039.pddl,CRASHED:277.783:1000000000.0:300.0:-1
ipc-2014-agile-tetris-040.pddl,TIMEOUT:301.423:-1.0:300.0:-1
ipc-2014-agile-thoughtful-bootstrap-typed-01.pddl,SAT:10.2634:34.0:300.0:-1
ipc-2014-agile-thoughtful-bootstrap-typed-02.pddl,SAT:5.15621:41.0:300.0:-1
ipc-2014-agile-thoughtful-bootstrap-typed-03.pddl,SAT:4.21636:38.0:300.0:-1
ipc-2014-agile-thoughtful-bootstrap-typed-04.pddl,SAT:2.11968:48.0:300.0:-1
ipc-2014-agile-thoughtful-bootstrap-typed-05.pddl,SAT:20.028:49.0:300.0:-1
ipc-2014-agile-thoughtful-p11_6_53-typed.pddl,CRASHED:108.789:1000000000.0:300.0:-1
ipc-2014-agile-thoughtful-p11_6_59-typed.pddl,CRASHED:110.587:1000000000.0:300.0:-1
ipc-2014-agile-thoughtful-p11_6_62-typed.pddl,CRASHED:118.954:1000000000.0:300.0:-1
ipc-2014-agile-thoughtful-p13_7_78-typed.pddl,CRASHED:221.089:1000000000.0:300.0:-1
ipc-2014-agile-thoughtful-p13_7_79-typed.pddl,CRASHED:197.933:1000000000.0:300.0:-1
ipc-2014-agile-thoughtful-p13_7_86-typed.pddl,CRASHED:207.337:1000000000.0:300.0:-1
ipc-2014-agile-thoughtful-target-typed-20.pddl,CRASHED:199.99:1000000000.0:300.0:-1
ipc-2014-agile-thoughtful-target-typed-21.pddl,CRASHED:191.325:1000000000.0:300.0:-1
ipc-2014-agile-thoughtful-target-typed-22.pddl,CRASHED:209.225:1000000000.0:300.0:-1
ipc-2014-agile-thoughtful-target-typed-23.pddl,CRASHED:189.932:1000000000.0:300.0:-1
ipc-2014-agile-thoughtful-target-typed-24.pddl,CRASHED:198.977:1000000000.0:300.0:-1
ipc-2014-agile-thoughtful-target-typed-25.pddl,CRASHED:196.077:1000000000.0:300.0:-1
ipc-2014-agile-thoughtful-target-typed-26.pddl,CRASHED:209.889:1000000000.0:300.0:-1
ipc-2014-agile-thoughtful-target-typed-27.pddl,CRASHED:209.887:1000000000.0:300.0:-1
ipc-2014-agile-thoughtful-target-typed-28.pddl,CRASHED:206.607:1000000000.0:300.0:-1
ipc-2014-agile-transport-01.pddl,CRASHED:52.548:1000000000.0:300.0:-1
ipc-2014-agile-transport-02.pddl,CRASHED:59.022:1000000000.0:300.0:-1
ipc-2014-agile-transport-03.pddl,CRASHED:62.5315:1000000000.0:300.0:-1
ipc-2014-agile-transport-04.pddl,CRASHED:125.58:1000000000.0:300.0:-1
ipc-2014-agile-transport-05.pddl,CRASHED:113.624:1000000000.0:300.0:-1
ipc-2014-agile-transport-06.pddl,CRASHED:125.636:1000000000.0:300.0:-1
ipc-2014-agile-transport-07.pddl,CRASHED:273.276:1000000000.0:300.0:-1
ipc-2014-agile-transport-08.pddl,TIMEOUT:301.433:-1.0:300.0:-1
ipc-2014-agile-transport-09.pddl,CRASHED:273.356:1000000000.0:300.0:-1
ipc-2014-agile-transport-10.pddl,CRASHED:198.604:1000000000.0:300.0:-1
ipc-2014-agile-transport-11.pddl,CRASHED:59.023:1000000000.0:300.0:-1
ipc-2014-agile-transport-12.pddl,CRASHED:58.8181:1000000000.0:300.0:-1
ipc-2014-agile-transport-13.pddl,CRASHED:151.054:1000000000.0:300.0:-1
ipc-2014-agile-transport-14.pddl,CRASHED:76.6493:1000000000.0:300.0:-1
ipc-2014-agile-transport-15.pddl,CRASHED:94.8906:1000000000.0:300.0:-1
ipc-2014-agile-transport-16.pddl,CRASHED:70.9372:1000000000.0:300.0:-1
ipc-2014-agile-transport-17.pddl,CRASHED:188.773:1000000000.0:300.0:-1
ipc-2014-agile-transport-18.pddl,TIMEOUT:301.4:-1.0:300.0:-1
ipc-2014-agile-transport-19.pddl,TIMEOUT:301.299:-1.0:300.0:-1
ipc-2014-agile-transport-20.pddl,CRASHED:224.203:1000000000.0:300.0:-1
ipc-2014-agile-visitall-30.pddl,TIMEOUT:301.187:-1.0:300.0:-1
ipc-2014-agile-visitall-31.pddl,TIMEOUT:301.229:-1.0:300.0:-1
ipc-2014-agile-visitall-32.pddl,TIMEOUT:301.229:-1.0:300.0:-1
ipc-2014-agile-visitall-33.pddl,TIMEOUT:301.173:-1.0:300.0:-1
ipc-2014-agile-visitall-50.pddl,TIMEOUT:301.089:-1.0:300.0:-1
ipc-2014-agile-visitall-51.pddl,TIMEOUT:301.039:-1.0:300.0:-1
ipc-2014-agile-visitall-52.pddl,TIMEOUT:301.026:-1.0:300.0:-1
ipc-2014-agile-visitall-53.pddl,TIMEOUT:301.026:-1.0:300.0:-1
ipc-2014-agile-visitall-54.pddl,TIMEOUT:301.087:-1.0:300.0:-1
ipc-2014-agile-visitall-55.pddl,TIMEOUT:301.068:-1.0:300.0:-1
ipc-2014-agile-visitall-56.pddl,TIMEOUT:301.025:-1.0:300.0:-1
ipc-2014-agile-visitall-57.pddl,TIMEOUT:301.074:-1.0:300.0:-1
ipc-2014-agile-visitall-58.pddl,TIMEOUT:301.11:-1.0:300.0:-1
ipc-2014-agile-visitall-59.pddl,TIMEOUT:301.068:-1.0:300.0:-1
ipc-2014-agile-visitall-60.pddl,TIMEOUT:301.101:-1.0:300.0:-1
ipc-2014-agile-visitall-61.pddl,TIMEOUT:301.109:-1.0:300.0:-1
ipc-2014-agile-visitall-62.pddl,TIMEOUT:301.043:-1.0:300.0:-1
ipc-2014-agile-visitall-63.pddl,TIMEOUT:301.109:-1.0:300.0:-1
ipc-2014-agile-visitall-64.pddl,TIMEOUT:301.008:-1.0:300.0:-1
ipc-2014-agile-visitall-65.pddl,TIMEOUT:301.081:-1.0:300.0:-1
