instance,ipc-2014-agile-probe
ipc-2014-agile-barman-p1-11-4-15.pddl,SAT:1.04684:213.0:300.0:-1
ipc-2014-agile-barman-p1-11-5-15.pddl,SAT:63.7783:229.0:300.0:-1
ipc-2014-agile-barman-p1-11-5-16.pddl,SAT:7.81281:213.0:300.0:-1
ipc-2014-agile-barman-p2-10-4-13.pddl,SAT:0.780881:209.0:300.0:-1
ipc-2014-agile-barman-p2-11-4-15.pddl,SAT:0.906861:174.0:300.0:-1
ipc-2014-agile-barman-p2-11-5-15.pddl,SAT:1.10183:180.0:300.0:-1
ipc-2014-agile-barman-p2-11-5-16.pddl,SAT:11.9972:259.0:300.0:-1
ipc-2014-agile-barman-p2-11-5-17.pddl,SAT:11.9872:296.0:300.0:-1
ipc-2014-agile-barman-p3-10-4-13.pddl,SAT:0.665897:172.0:300.0:-1
ipc-2014-agile-barman-p3-11-4-15.pddl,SAT:1.46778:245.0:300.0:-1
ipc-2014-agile-barman-p3-11-5-15.pddl,SAT:3.50447:188.0:300.0:-1
ipc-2014-agile-barman-p3-11-5-16.pddl,SAT:1.25381:196.0:300.0:-1
ipc-2014-agile-barman-p3-11-5-17.pddl,SAT:1.15982:200.0:300.0:-1
ipc-2014-agile-barman-p4-11-4-14.pddl,SAT:1.00585:163.0:300.0:-1
ipc-2014-agile-barman-p4-11-4-15.pddl,SAT:0.822874:193.0:300.0:-1
ipc-2014-agile-barman-p4-11-5-15.pddl,SAT:1.19882:205.0:300.0:-1
ipc-2014-agile-barman-p5-10-4-13.pddl,SAT:0.639901:170.0:300.0:-1
ipc-2014-agile-barman-p5-11-4-15.pddl,SAT:0.891864:189.0:300.0:-1
ipc-2014-agile-barman-p5-11-5-15.pddl,SAT:1.72574:205.0:300.0:-1
ipc-2014-agile-barman-p5-11-5-16.pddl,SAT:76.7433:225.0:300.0:-1
ipc-2014-agile-cavediving-01_easy.pddl,TIMEOUT:301.085:-1.0:300.0:-1
ipc-2014-agile-cavediving-01.pddl,TIMEOUT:301.152:-1.0:300.0:-1
ipc-2014-agile-cavediving-02_easy.pddl,TIMEOUT:301.113:-1.0:300.0:-1
ipc-2014-agile-cavediving-03_easy.pddl,TIMEOUT:301.084:-1.0:300.0:-1
ipc-2014-agile-cavediving-04_easy.pddl,TIMEOUT:301.086:-1.0:300.0:-1
ipc-2014-agile-cavediving-05A_easy.pddl,TIMEOUT:301.109:-1.0:300.0:-1
ipc-2014-agile-cavediving-06A_easy.pddl,TIMEOUT:301.153:-1.0:300.0:-1
ipc-2014-agile-cavediving-07_easy.pddl,TIMEOUT:301.115:-1.0:300.0:-1
ipc-2014-agile-cavediving-08_easy.pddl,TIMEOUT:301.171:-1.0:300.0:-1
ipc-2014-agile-cavediving-09_easy.pddl,TIMEOUT:301.137:-1.0:300.0:-1
ipc-2014-agile-cavediving-10_easy.pddl,TIMEOUT:301.054:-1.0:300.0:-1
ipc-2014-agile-cavediving-11_easy.pddl,TIMEOUT:301.132:-1.0:300.0:-1
ipc-2014-agile-cavediving-12_easy.pddl,TIMEOUT:301.126:-1.0:300.0:-1
ipc-2014-agile-cavediving-13_easy.pddl,TIMEOUT:301.122:-1.0:300.0:-1
ipc-2014-agile-cavediving-14_easy.pddl,TIMEOUT:301.105:-1.0:300.0:-1
ipc-2014-agile-cavediving-15_easy.pddl,TIMEOUT:301.145:-1.0:300.0:-1
ipc-2014-agile-cavediving-16_easy.pddl,TIMEOUT:301.152:-1.0:300.0:-1
ipc-2014-agile-cavediving-18A_easy.pddl,TIMEOUT:301.113:-1.0:300.0:-1
ipc-2014-agile-cavediving-18_easy.pddl,SAT:5.41018:132.0:300.0:-1
ipc-2014-agile-cavediving-20A_easy.pddl,TIMEOUT:301.183:-1.0:300.0:-1
ipc-2014-agile-childsnack-05-2.pddl,TIMEOUT:301.131:-1.0:300.0:-1
ipc-2014-agile-childsnack-05.pddl,TIMEOUT:301.155:-1.0:300.0:-1
ipc-2014-agile-childsnack-06-2.pddl,TIMEOUT:301.111:-1.0:300.0:-1
ipc-2014-agile-childsnack-07-2.pddl,TIMEOUT:301.149:-1.0:300.0:-1
ipc-2014-agile-childsnack-08-2.pddl,TIMEOUT:301.098:-1.0:300.0:-1
ipc-2014-agile-childsnack-08.pddl,TIMEOUT:301.156:-1.0:300.0:-1
ipc-2014-agile-childsnack-09-2.pddl,TIMEOUT:301.135:-1.0:300.0:-1
ipc-2014-agile-childsnack-09.pddl,TIMEOUT:301.124:-1.0:300.0:-1
ipc-2014-agile-childsnack-10-2.pddl,TIMEOUT:301.157:-1.0:300.0:-1
ipc-2014-agile-childsnack-10.pddl,TIMEOUT:301.115:-1.0:300.0:-1
ipc-2014-agile-childsnack-11-2.pddl,TIMEOUT:301.141:-1.0:300.0:-1
ipc-2014-agile-childsnack-11.pddl,TIMEOUT:301.153:-1.0:300.0:-1
ipc-2014-agile-childsnack-12.pddl,TIMEOUT:301.104:-1.0:300.0:-1
ipc-2014-agile-childsnack-13-2.pddl,TIMEOUT:301.093:-1.0:300.0:-1
ipc-2014-agile-childsnack-13.pddl,TIMEOUT:301.193:-1.0:300.0:-1
ipc-2014-agile-childsnack-14.pddl,TIMEOUT:301.154:-1.0:300.0:-1
ipc-2014-agile-childsnack-15-2.pddl,TIMEOUT:301.14:-1.0:300.0:-1
ipc-2014-agile-childsnack-16-2.pddl,TIMEOUT:301.146:-1.0:300.0:-1
ipc-2014-agile-childsnack-19-2.pddl,TIMEOUT:301.139:-1.0:300.0:-1
ipc-2014-agile-childsnack-19.pddl,TIMEOUT:301.16:-1.0:300.0:-1
ipc-2014-agile-citycar-p3-2-2-0-1.pddl,SAT:0.334948:439.0:300.0:-1
ipc-2014-agile-citycar-p3-3-2-0-1.pddl,SAT:0.463928:610.0:300.0:-1
ipc-2014-agile-citycar-p3-4-2-0-1.pddl,SAT:3.40248:552.0:300.0:-1
ipc-2014-agile-citycar-p3-5-2-0-1.pddl,SAT:3.98039:984.0:300.0:-1
ipc-2014-agile-citycar-p3-5-2-0-2.pddl,SAT:0.98485:1078.0:300.0:-1
ipc-2014-agile-citycar-p4-2-2-0-1.pddl,TIMEOUT:301.163:-1.0:300.0:-1
ipc-2014-agile-citycar-p4-2-3-0-1.pddl,TIMEOUT:301.13:-1.0:300.0:-1
ipc-2014-agile-citycar-p4-2-3-0-2.pddl,SAT:5.12122:574.0:300.0:-1
ipc-2014-agile-citycar-p4-3-2-0-1.pddl,SAT:29.9544:861.0:300.0:-1
ipc-2014-agile-citycar-p4-3-2-0-2.pddl,TIMEOUT:301.124:-1.0:300.0:-1
ipc-2014-agile-citycar-p4-3-3-0-1.pddl,TIMEOUT:301.089:-1.0:300.0:-1
ipc-2014-agile-citycar-p4-3-3-0-2.pddl,SAT:5.54715:722.0:300.0:-1
ipc-2014-agile-citycar-p4-4-2-0-1.pddl,TIMEOUT:301.113:-1.0:300.0:-1
ipc-2014-agile-citycar-p4-4-2-0-2.pddl,SAT:8.97463:721.0:300.0:-1
ipc-2014-agile-citycar-p4-4-3-0-1.pddl,TIMEOUT:301.163:-1.0:300.0:-1
ipc-2014-agile-citycar-p4-4-3-0-2.pddl,SAT:144.359:916.0:300.0:-1
ipc-2014-agile-citycar-p4-5-2-0-1.pddl,TIMEOUT:301.134:-1.0:300.0:-1
ipc-2014-agile-citycar-p4-5-2-0-2.pddl,TIMEOUT:301.072:-1.0:300.0:-1
ipc-2014-agile-citycar-p4-5-3-0-1.pddl,TIMEOUT:301.13:-1.0:300.0:-1
ipc-2014-agile-citycar-p4-5-3-0-2.pddl,TIMEOUT:301.123:-1.0:300.0:-1
ipc-2014-agile-floortile-p01-4-3-2.pddl,SAT:146.811:104.0:300.0:-1
ipc-2014-agile-floortile-p01-5-4-2.pddl,TIMEOUT:301.155:-1.0:300.0:-1
ipc-2014-agile-floortile-p01-5-5-2.pddl,TIMEOUT:301.165:-1.0:300.0:-1
ipc-2014-agile-floortile-p01-6-4-2.pddl,TIMEOUT:301.158:-1.0:300.0:-1
ipc-2014-agile-floortile-p01-6-5-2.pddl,TIMEOUT:301.138:-1.0:300.0:-1
ipc-2014-agile-floortile-p01-6-5-3.pddl,TIMEOUT:301.13:-1.0:300.0:-1
ipc-2014-agile-floortile-p02-5-4-2.pddl,TIMEOUT:301.139:-1.0:300.0:-1
ipc-2014-agile-floortile-p02-6-4-2.pddl,TIMEOUT:301.131:-1.0:300.0:-1
ipc-2014-agile-floortile-p02-6-5-2.pddl,TIMEOUT:301.163:-1.0:300.0:-1
ipc-2014-agile-floortile-p02-6-5-3.pddl,TIMEOUT:301.074:-1.0:300.0:-1
ipc-2014-agile-floortile-p03-6-4-2.pddl,TIMEOUT:301.166:-1.0:300.0:-1
ipc-2014-agile-floortile-p03-6-5-2.pddl,TIMEOUT:301.133:-1.0:300.0:-1
ipc-2014-agile-floortile-p03-6-5-3.pddl,TIMEOUT:301.136:-1.0:300.0:-1
ipc-2014-agile-floortile-p04-5-4-2.pddl,TIMEOUT:301.166:-1.0:300.0:-1
ipc-2014-agile-floortile-p04-5-5-2.pddl,TIMEOUT:301.101:-1.0:300.0:-1
ipc-2014-agile-floortile-p04-6-5-2.pddl,TIMEOUT:301.123:-1.0:300.0:-1
ipc-2014-agile-floortile-p04-6-5-3.pddl,TIMEOUT:301.151:-1.0:300.0:-1
ipc-2014-agile-floortile-p05-4-3-2.pddl,SAT:0.033994:77.0:300.0:-1
ipc-2014-agile-floortile-p05-6-5-2.pddl,TIMEOUT:301.09:-1.0:300.0:-1
ipc-2014-agile-floortile-p05-6-5-3.pddl,TIMEOUT:301.136:-1.0:300.0:-1
ipc-2014-agile-ged-d-10-1.pddl,SAT:18.4372:81.0:300.0:-1
ipc-2014-agile-ged-d-10-2.pddl,SAT:18.1472:34.0:300.0:-1
ipc-2014-agile-ged-d-10-3.pddl,SAT:2.85456:28.0:300.0:-1
ipc-2014-agile-ged-d-10-4.pddl,SAT:16.6225:72.0:300.0:-1
ipc-2014-agile-ged-d-10-5.pddl,SAT:26.054:118.0:300.0:-1
ipc-2014-agile-ged-d-10-6.pddl,SAT:16.4615:50.0:300.0:-1
ipc-2014-agile-ged-d-11-1.pddl,SAT:6.10107:61.0:300.0:-1
ipc-2014-agile-ged-d-11-3.pddl,SAT:13.8669:58.0:300.0:-1
ipc-2014-agile-ged-d-11-5.pddl,SAT:10.5384:39.0:300.0:-1
ipc-2014-agile-ged-d-11-6.pddl,SAT:12.5361:88.0:300.0:-1
ipc-2014-agile-ged-d-12-11.pddl,SAT:44.3333:93.0:300.0:-1
ipc-2014-agile-ged-d-12-2.pddl,SAT:64.5802:64.0:300.0:-1
ipc-2014-agile-ged-d-12-3.pddl,SAT:171.569:103.0:300.0:-1
ipc-2014-agile-ged-d-12-5.pddl,SAT:165.142:117.0:300.0:-1
ipc-2014-agile-ged-d-12-6.pddl,SAT:65.619:124.0:300.0:-1
ipc-2014-agile-ged-d-12-7.pddl,SAT:150.719:154.0:300.0:-1
ipc-2014-agile-ged-d-12-8.pddl,SAT:237.72:153.0:300.0:-1
ipc-2014-agile-ged-d-12-9.pddl,SAT:109.816:166.0:300.0:-1
ipc-2014-agile-ged-d-3-6.pddl,SAT:12.902:101.0:300.0:-1
ipc-2014-agile-ged-d-9-5.pddl,SAT:6.77597:61.0:300.0:-1
ipc-2014-agile-hiking-3-4-3.pddl,SAT:0.624904:17.0:300.0:-1
ipc-2014-agile-hiking-3-4-4.pddl,SAT:2.47062:28.0:300.0:-1
ipc-2014-agile-hiking-3-4-5.pddl,SAT:6.72198:46.0:300.0:-1
ipc-2014-agile-hiking-3-4-6.pddl,SAT:23.3634:57.0:300.0:-1
ipc-2014-agile-hiking-3-4-7.pddl,SAT:42.5735:61.0:300.0:-1
ipc-2014-agile-hiking-3-4-8.pddl,SAT:70.3453:74.0:300.0:-1
ipc-2014-agile-hiking-3-4-9.pddl,SAT:106.794:79.0:300.0:-1
ipc-2014-agile-hiking-4-5-3.pddl,SAT:3.47647:19.0:300.0:-1
ipc-2014-agile-hiking-4-5-4.pddl,SAT:16.1735:31.0:300.0:-1
ipc-2014-agile-hiking-4-5-5.pddl,SAT:69.2225:67.0:300.0:-1
ipc-2014-agile-hiking-4-5-6.pddl,SAT:99.0999:63.0:300.0:-1
ipc-2014-agile-hiking-4-5-7.pddl,SAT:167.938:61.0:300.0:-1
ipc-2014-agile-hiking-4-5-8.pddl,TIMEOUT:301.116:-1.0:300.0:-1
ipc-2014-agile-hiking-4-5-9.pddl,TIMEOUT:301.143:-1.0:300.0:-1
ipc-2014-agile-hiking-5-6-3.pddl,SAT:20.7998:22.0:300.0:-1
ipc-2014-agile-hiking-5-6-4.pddl,SAT:55.3146:30.0:300.0:-1
ipc-2014-agile-hiking-5-6-5.pddl,SAT:183.66:54.0:300.0:-1
ipc-2014-agile-hiking-5-6-6.pddl,TIMEOUT:301.074:-1.0:300.0:-1
ipc-2014-agile-hiking-5-6-7.pddl,TIMEOUT:301.155:-1.0:300.0:-1
ipc-2014-agile-hiking-5-6-8.pddl,TIMEOUT:301.109:-1.0:300.0:-1
ipc-2014-agile-maintenance-1.3.060.180.5-000.pddl,SAT:0.365943:46.0:300.0:-1
ipc-2014-agile-maintenance-1.3.060.180.5-001.pddl,SAT:0.356944:42.0:300.0:-1
ipc-2014-agile-maintenance-1.3.060.180.5-002.pddl,SAT:0.368943:49.0:300.0:-1
ipc-2014-agile-maintenance-1.3.100.300.5-000.pddl,SAT:1.45578:72.0:300.0:-1
ipc-2014-agile-maintenance-1.3.100.300.5-001.pddl,TIMEOUT:301.154:-1.0:300.0:-1
ipc-2014-agile-maintenance-1.3.100.300.7-000.pddl,SAT:1.49477:55.0:300.0:-1
ipc-2014-agile-maintenance-1.3.100.300.7-001.pddl,SAT:1.56276:61.0:300.0:-1
ipc-2014-agile-maintenance-1.3.100.300.7-002.pddl,SAT:1.53177:58.0:300.0:-1
ipc-2014-agile-maintenance-1.3.150.500.6-001.pddl,SAT:5.73513:103.0:300.0:-1
ipc-2014-agile-maintenance-1.3.200.500.5-001.pddl,TIMEOUT:301.678:-1.0:300.0:-1
ipc-2014-agile-maintenance-1.3.200.500.5-002.pddl,SAT:7.18591:141.0:300.0:-1
ipc-2014-agile-maintenance-1.3.200.700.7-000.pddl,CRASHED:3.35549:1000000000.0:300.0:-1
ipc-2014-agile-maintenance-1.3.200.700.7-001.pddl,CRASHED:3.3075:1000000000.0:300.0:-1
ipc-2014-agile-maintenance-1.3.200.700.7-002.pddl,CRASHED:3.2635:1000000000.0:300.0:-1
ipc-2014-agile-maintenance-1.3.200.900.5-000.pddl,CRASHED:5.81811:1000000000.0:300.0:-1
ipc-2014-agile-maintenance-1.3.200.900.5-001.pddl,CRASHED:5.65714:1000000000.0:300.0:-1
ipc-2014-agile-maintenance-1.3.200.900.5-002.pddl,CRASHED:5.79012:1000000000.0:300.0:-1
ipc-2014-agile-maintenance-1.3.200.900.8-000.pddl,CRASHED:5.81912:1000000000.0:300.0:-1
ipc-2014-agile-maintenance-1.3.200.900.8-001.pddl,CRASHED:5.82711:1000000000.0:300.0:-1
ipc-2014-agile-maintenance-1.3.200.900.8-002.pddl,CRASHED:5.70013:1000000000.0:300.0:-1
ipc-2014-agile-openstacks-p130_2.pddl,TIMEOUT:301.134:-1.0:300.0:-1
ipc-2014-agile-openstacks-p130_3.pddl,TIMEOUT:301.099:-1.0:300.0:-1
ipc-2014-agile-openstacks-p150_2.pddl,TIMEOUT:301.07:-1.0:300.0:-1
ipc-2014-agile-openstacks-p150_3.pddl,TIMEOUT:301.116:-1.0:300.0:-1
ipc-2014-agile-openstacks-p170_1.pddl,TIMEOUT:301.103:-1.0:300.0:-1
ipc-2014-agile-openstacks-p170_2.pddl,TIMEOUT:301.138:-1.0:300.0:-1
ipc-2014-agile-openstacks-p170_3.pddl,TIMEOUT:301.181:-1.0:300.0:-1
ipc-2014-agile-openstacks-p190_1.pddl,TIMEOUT:301.126:-1.0:300.0:-1
ipc-2014-agile-openstacks-p190_2.pddl,TIMEOUT:301.15:-1.0:300.0:-1
ipc-2014-agile-openstacks-p190_3.pddl,TIMEOUT:301.071:-1.0:300.0:-1
ipc-2014-agile-openstacks-p210_1.pddl,TIMEOUT:301.095:-1.0:300.0:-1
ipc-2014-agile-openstacks-p210_2.pddl,TIMEOUT:301.078:-1.0:300.0:-1
ipc-2014-agile-openstacks-p230_1.pddl,TIMEOUT:301.115:-1.0:300.0:-1
ipc-2014-agile-openstacks-p230_2.pddl,TIMEOUT:301.083:-1.0:300.0:-1
ipc-2014-agile-openstacks-p250_1.pddl,TIMEOUT:301.12:-1.0:300.0:-1
ipc-2014-agile-openstacks-p250_2.pddl,TIMEOUT:301.104:-1.0:300.0:-1
ipc-2014-agile-openstacks-p270_1.pddl,TIMEOUT:301.136:-1.0:300.0:-1
ipc-2014-agile-openstacks-p270_2.pddl,TIMEOUT:301.111:-1.0:300.0:-1
ipc-2014-agile-openstacks-p290_1.pddl,TIMEOUT:301.132:-1.0:300.0:-1
ipc-2014-agile-openstacks-p290_2.pddl,TIMEOUT:301.161:-1.0:300.0:-1
ipc-2014-agile-parking-28_2.pddl,SAT:91.2361:99.0:300.0:-1
ipc-2014-agile-parking-28_3.pddl,SAT:288.861:173.0:300.0:-1
ipc-2014-agile-parking-30_1.pddl,SAT:199.705:97.0:300.0:-1
ipc-2014-agile-parking-30_2.pddl,TIMEOUT:301.055:-1.0:300.0:-1
ipc-2014-agile-parking-30_3.pddl,TIMEOUT:301.094:-1.0:300.0:-1
ipc-2014-agile-parking-32_1.pddl,TIMEOUT:301.103:-1.0:300.0:-1
ipc-2014-agile-parking-32_2.pddl,TIMEOUT:301.129:-1.0:300.0:-1
ipc-2014-agile-parking-32_3.pddl,TIMEOUT:301.092:-1.0:300.0:-1
ipc-2014-agile-parking-34_1.pddl,TIMEOUT:301.167:-1.0:300.0:-1
ipc-2014-agile-parking-34_2.pddl,TIMEOUT:301.187:-1.0:300.0:-1
ipc-2014-agile-parking-34_3.pddl,TIMEOUT:301.081:-1.0:300.0:-1
ipc-2014-agile-parking-36_1.pddl,TIMEOUT:301.196:-1.0:300.0:-1
ipc-2014-agile-parking-36_2.pddl,TIMEOUT:301.135:-1.0:300.0:-1
ipc-2014-agile-parking-36_3.pddl,TIMEOUT:301.184:-1.0:300.0:-1
ipc-2014-agile-parking-38_1.pddl,TIMEOUT:301.151:-1.0:300.0:-1
ipc-2014-agile-parking-38_2.pddl,TIMEOUT:301.132:-1.0:300.0:-1
ipc-2014-agile-parking-38_3.pddl,TIMEOUT:301.197:-1.0:300.0:-1
ipc-2014-agile-parking-40_1.pddl,TIMEOUT:301.24:-1.0:300.0:-1
ipc-2014-agile-parking-40_2.pddl,TIMEOUT:301.157:-1.0:300.0:-1
ipc-2014-agile-parking-40_3.pddl,TIMEOUT:301.148:-1.0:300.0:-1
ipc-2014-agile-tetris-020.pddl,TIMEOUT:301.081:-1.0:300.0:-1
ipc-2014-agile-tetris-021.pddl,TIMEOUT:301.062:-1.0:300.0:-1
ipc-2014-agile-tetris-022.pddl,TIMEOUT:301.081:-1.0:300.0:-1
ipc-2014-agile-tetris-023.pddl,TIMEOUT:301.087:-1.0:300.0:-1
ipc-2014-agile-tetris-024.pddl,TIMEOUT:301.06:-1.0:300.0:-1
ipc-2014-agile-tetris-025.pddl,TIMEOUT:301.078:-1.0:300.0:-1
ipc-2014-agile-tetris-026.pddl,TIMEOUT:301.074:-1.0:300.0:-1
ipc-2014-agile-tetris-027.pddl,TIMEOUT:301.06:-1.0:300.0:-1
ipc-2014-agile-tetris-028.pddl,TIMEOUT:301.074:-1.0:300.0:-1
ipc-2014-agile-tetris-029.pddl,TIMEOUT:301.021:-1.0:300.0:-1
ipc-2014-agile-tetris-031.pddl,TIMEOUT:301.024:-1.0:300.0:-1
ipc-2014-agile-tetris-032.pddl,TIMEOUT:301.025:-1.0:300.0:-1
ipc-2014-agile-tetris-033.pddl,TIMEOUT:301.04:-1.0:300.0:-1
ipc-2014-agile-tetris-034.pddl,TIMEOUT:301.02:-1.0:300.0:-1
ipc-2014-agile-tetris-035.pddl,TIMEOUT:301.037:-1.0:300.0:-1
ipc-2014-agile-tetris-036.pddl,TIMEOUT:301.022:-1.0:300.0:-1
ipc-2014-agile-tetris-037.pddl,TIMEOUT:301.061:-1.0:300.0:-1
ipc-2014-agile-tetris-038.pddl,TIMEOUT:301.019:-1.0:300.0:-1
ipc-2014-agile-tetris-039.pddl,TIMEOUT:301.076:-1.0:300.0:-1
ipc-2014-agile-tetris-040.pddl,TIMEOUT:301.038:-1.0:300.0:-1
ipc-2014-agile-thoughtful-bootstrap-typed-01.pddl,SAT:0.215966:39.0:300.0:-1
ipc-2014-agile-thoughtful-bootstrap-typed-02.pddl,SAT:0.195969:35.0:300.0:-1
ipc-2014-agile-thoughtful-bootstrap-typed-03.pddl,SAT:0.223965:44.0:300.0:-1
ipc-2014-agile-thoughtful-bootstrap-typed-04.pddl,SAT:0.228964:37.0:300.0:-1
ipc-2014-agile-thoughtful-bootstrap-typed-05.pddl,SAT:0.201968:34.0:300.0:-1
ipc-2014-agile-thoughtful-p11_6_53-typed.pddl,SAT:14.0369:128.0:300.0:-1
ipc-2014-agile-thoughtful-p11_6_59-typed.pddl,SAT:8.77666:127.0:300.0:-1
ipc-2014-agile-thoughtful-p11_6_62-typed.pddl,TIMEOUT:301.158:-1.0:300.0:-1
ipc-2014-agile-thoughtful-p13_7_78-typed.pddl,TIMEOUT:301.105:-1.0:300.0:-1
ipc-2014-agile-thoughtful-p13_7_79-typed.pddl,TIMEOUT:301.058:-1.0:300.0:-1
ipc-2014-agile-thoughtful-p13_7_86-typed.pddl,SAT:12.817:169.0:300.0:-1
ipc-2014-agile-thoughtful-target-typed-20.pddl,SAT:14.1958:154.0:300.0:-1
ipc-2014-agile-thoughtful-target-typed-21.pddl,SAT:24.5163:186.0:300.0:-1
ipc-2014-agile-thoughtful-target-typed-22.pddl,SAT:26.9569:145.0:300.0:-1
ipc-2014-agile-thoughtful-target-typed-23.pddl,SAT:14.7738:137.0:300.0:-1
ipc-2014-agile-thoughtful-target-typed-24.pddl,TIMEOUT:301.112:-1.0:300.0:-1
ipc-2014-agile-thoughtful-target-typed-25.pddl,SAT:16.8504:140.0:300.0:-1
ipc-2014-agile-thoughtful-target-typed-26.pddl,SAT:12.7901:156.0:300.0:-1
ipc-2014-agile-thoughtful-target-typed-27.pddl,SAT:35.9495:184.0:300.0:-1
ipc-2014-agile-thoughtful-target-typed-28.pddl,SAT:19.1321:178.0:300.0:-1
ipc-2014-agile-transport-01.pddl,SAT:58.4711:3161.0:300.0:-1
ipc-2014-agile-transport-02.pddl,SAT:97.2462:4305.0:300.0:-1
ipc-2014-agile-transport-03.pddl,SAT:72.104:3522.0:300.0:-1
ipc-2014-agile-transport-04.pddl,TIMEOUT:301.221:-1.0:300.0:-1
ipc-2014-agile-transport-05.pddl,TIMEOUT:301.226:-1.0:300.0:-1
ipc-2014-agile-transport-06.pddl,TIMEOUT:301.162:-1.0:300.0:-1
ipc-2014-agile-transport-07.pddl,TIMEOUT:301.226:-1.0:300.0:-1
ipc-2014-agile-transport-08.pddl,TIMEOUT:301.266:-1.0:300.0:-1
ipc-2014-agile-transport-09.pddl,TIMEOUT:301.294:-1.0:300.0:-1
ipc-2014-agile-transport-10.pddl,TIMEOUT:301.245:-1.0:300.0:-1
ipc-2014-agile-transport-11.pddl,SAT:111.663:3267.0:300.0:-1
ipc-2014-agile-transport-12.pddl,SAT:225.377:4749.0:300.0:-1
ipc-2014-agile-transport-13.pddl,SAT:46.271:3203.0:300.0:-1
ipc-2014-agile-transport-14.pddl,TIMEOUT:301.221:-1.0:300.0:-1
ipc-2014-agile-transport-15.pddl,TIMEOUT:301.219:-1.0:300.0:-1
ipc-2014-agile-transport-16.pddl,TIMEOUT:301.177:-1.0:300.0:-1
ipc-2014-agile-transport-17.pddl,TIMEOUT:301.242:-1.0:300.0:-1
ipc-2014-agile-transport-18.pddl,TIMEOUT:301.247:-1.0:300.0:-1
ipc-2014-agile-transport-19.pddl,TIMEOUT:301.231:-1.0:300.0:-1
ipc-2014-agile-transport-20.pddl,TIMEOUT:301.244:-1.0:300.0:-1
ipc-2014-agile-visitall-30.pddl,SAT:56.9803:1121.0:300.0:-1
ipc-2014-agile-visitall-31.pddl,SAT:66.4289:1184.0:300.0:-1
ipc-2014-agile-visitall-32.pddl,SAT:90.1693:1306.0:300.0:-1
ipc-2014-agile-visitall-33.pddl,SAT:108.863:1369.0:300.0:-1
ipc-2014-agile-visitall-50.pddl,TIMEOUT:301.136:-1.0:300.0:-1
ipc-2014-agile-visitall-51.pddl,TIMEOUT:301.107:-1.0:300.0:-1
ipc-2014-agile-visitall-52.pddl,TIMEOUT:301.107:-1.0:300.0:-1
ipc-2014-agile-visitall-53.pddl,TIMEOUT:301.18:-1.0:300.0:-1
ipc-2014-agile-visitall-54.pddl,TIMEOUT:301.13:-1.0:300.0:-1
ipc-2014-agile-visitall-55.pddl,TIMEOUT:301.177:-1.0:300.0:-1
ipc-2014-agile-visitall-56.pddl,TIMEOUT:301.196:-1.0:300.0:-1
ipc-2014-agile-visitall-57.pddl,TIMEOUT:301.155:-1.0:300.0:-1
ipc-2014-agile-visitall-58.pddl,TIMEOUT:301.214:-1.0:300.0:-1
ipc-2014-agile-visitall-59.pddl,TIMEOUT:301.23:-1.0:300.0:-1
ipc-2014-agile-visitall-60.pddl,TIMEOUT:301.229:-1.0:300.0:-1
ipc-2014-agile-visitall-61.pddl,TIMEOUT:301.27:-1.0:300.0:-1
ipc-2014-agile-visitall-62.pddl,TIMEOUT:301.201:-1.0:300.0:-1
ipc-2014-agile-visitall-63.pddl,TIMEOUT:301.28:-1.0:300.0:-1
ipc-2014-agile-visitall-64.pddl,TIMEOUT:301.23:-1.0:300.0:-1
ipc-2014-agile-visitall-65.pddl,TIMEOUT:301.271:-1.0:300.0:-1
