instance,ipc-2014-optimal-rida-fixed
ipc-2014-optimal-barman-p433.1.pddl,CRASHED:0.51992:1000000000.0:1800.0:-1
ipc-2014-optimal-barman-p433.2.pddl,CRASHED:0.406937:1000000000.0:1800.0:-1
ipc-2014-optimal-barman-p433.3.pddl,CRASHED:0.38894:1000000000.0:1800.0:-1
ipc-2014-optimal-barman-p435.1.pddl,TIMEOUT:1801.02:-1.0:1800.0:-1
ipc-2014-optimal-barman-p435.2.pddl,TIMEOUT:1801.05:-1.0:1800.0:-1
ipc-2014-optimal-barman-p435.3.pddl,CRASHED:693.36:1000000000.0:1800.0:-1
ipc-2014-optimal-barman-p443.1.pddl,CRASHED:0.434933:1000000000.0:1800.0:-1
ipc-2014-optimal-barman-p443.2.pddl,CRASHED:0.400938:1000000000.0:1800.0:-1
ipc-2014-optimal-barman-p443.3.pddl,CRASHED:0.44993:1000000000.0:1800.0:-1
ipc-2014-optimal-barman-p536.1.pddl,CRASHED:499.5:1000000000.0:1800.0:-1
ipc-2014-optimal-barman-p536.2.pddl,CRASHED:495.45:1000000000.0:1800.0:-1
ipc-2014-optimal-barman-p536.3.pddl,CRASHED:493.82:1000000000.0:1800.0:-1
ipc-2014-optimal-barman-p638.1.pddl,CRASHED:517.09:1000000000.0:1800.0:-1
ipc-2014-optimal-barman-p638.2.pddl,TIMEOUT:1801.06:-1.0:1800.0:-1
ipc-2014-optimal-barman-p638.3.pddl,TIMEOUT:1801.1:-1.0:1800.0:-1
ipc-2014-optimal-barman-p739.1.pddl,CRASHED:493.15:1000000000.0:1800.0:-1
ipc-2014-optimal-barman-p739.2.pddl,CRASHED:494.04:1000000000.0:1800.0:-1
ipc-2014-optimal-barman-p739.3.pddl,TIMEOUT:1801.04:-1.0:1800.0:-1
ipc-2014-optimal-barman-p839.1.pddl,CRASHED:500.18:1000000000.0:1800.0:-1
ipc-2014-optimal-barman-p839.2.pddl,CRASHED:465.4:1000000000.0:1800.0:-1
ipc-2014-optimal-cavediving-01.pddl,CRASHED:1.64075:1000000000.0:1800.0:-1
ipc-2014-optimal-cavediving-01_easy.pddl,CRASHED:1.23381:1000000000.0:1800.0:-1
ipc-2014-optimal-cavediving-02_easy.pddl,CRASHED:1.21981:1000000000.0:1800.0:-1
ipc-2014-optimal-cavediving-03_easy.pddl,CRASHED:1.21481:1000000000.0:1800.0:-1
ipc-2014-optimal-cavediving-04_easy.pddl,CRASHED:1.21081:1000000000.0:1800.0:-1
ipc-2014-optimal-cavediving-05A_easy.pddl,CRASHED:0.488925:1000000000.0:1800.0:-1
ipc-2014-optimal-cavediving-06A_easy.pddl,CRASHED:0.411936:1000000000.0:1800.0:-1
ipc-2014-optimal-cavediving-07_easy.pddl,SAT:272.573:131.0:1800.0:-1
ipc-2014-optimal-cavediving-08_easy.pddl,CRASHED:0.462928:1000000000.0:1800.0:-1
ipc-2014-optimal-cavediving-09_easy.pddl,CRASHED:4.97124:1000000000.0:1800.0:-1
ipc-2014-optimal-cavediving-10_easy.pddl,CRASHED:5.13422:1000000000.0:1800.0:-1
ipc-2014-optimal-cavediving-11_easy.pddl,CRASHED:5.11122:1000000000.0:1800.0:-1
ipc-2014-optimal-cavediving-12_easy.pddl,CRASHED:5.07323:1000000000.0:1800.0:-1
ipc-2014-optimal-cavediving-13_easy.pddl,CRASHED:1.69874:1000000000.0:1800.0:-1
ipc-2014-optimal-cavediving-14_easy.pddl,CRASHED:1.69774:1000000000.0:1800.0:-1
ipc-2014-optimal-cavediving-15_easy.pddl,CRASHED:1.48477:1000000000.0:1800.0:-1
ipc-2014-optimal-cavediving-16_easy.pddl,CRASHED:1.67074:1000000000.0:1800.0:-1
ipc-2014-optimal-cavediving-18A_easy.pddl,SAT:224.663:131.0:1800.0:-1
ipc-2014-optimal-cavediving-18_easy.pddl,SAT:258.909:131.0:1800.0:-1
ipc-2014-optimal-cavediving-20A_easy.pddl,CRASHED:0.574912:1000000000.0:1800.0:-1
ipc-2014-optimal-childsnack-01-2.pddl,TIMEOUT:1801.06:-1.0:1800.0:-1
ipc-2014-optimal-childsnack-01.pddl,TIMEOUT:1801.06:-1.0:1800.0:-1
ipc-2014-optimal-childsnack-02-2.pddl,TIMEOUT:1801.0:-1.0:1800.0:-1
ipc-2014-optimal-childsnack-02.pddl,TIMEOUT:1801.01:-1.0:1800.0:-1
ipc-2014-optimal-childsnack-03-2.pddl,TIMEOUT:1801.02:-1.0:1800.0:-1
ipc-2014-optimal-childsnack-03.pddl,TIMEOUT:1801.03:-1.0:1800.0:-1
ipc-2014-optimal-childsnack-04-2.pddl,TIMEOUT:1801.09:-1.0:1800.0:-1
ipc-2014-optimal-childsnack-04.pddl,TIMEOUT:1801.04:-1.0:1800.0:-1
ipc-2014-optimal-childsnack-05-2.pddl,TIMEOUT:1801.08:-1.0:1800.0:-1
ipc-2014-optimal-childsnack-05.pddl,TIMEOUT:1801.05:-1.0:1800.0:-1
ipc-2014-optimal-childsnack-06-2.pddl,TIMEOUT:1801.04:-1.0:1800.0:-1
ipc-2014-optimal-childsnack-06.pddl,TIMEOUT:1801.03:-1.0:1800.0:-1
ipc-2014-optimal-childsnack-07-2.pddl,TIMEOUT:1801.02:-1.0:1800.0:-1
ipc-2014-optimal-childsnack-07.pddl,TIMEOUT:1801.08:-1.0:1800.0:-1
ipc-2014-optimal-childsnack-08-2.pddl,TIMEOUT:1801.06:-1.0:1800.0:-1
ipc-2014-optimal-childsnack-08.pddl,TIMEOUT:1801.01:-1.0:1800.0:-1
ipc-2014-optimal-childsnack-09-2.pddl,TIMEOUT:1801.08:-1.0:1800.0:-1
ipc-2014-optimal-childsnack-09.pddl,TIMEOUT:1801.01:-1.0:1800.0:-1
ipc-2014-optimal-childsnack-10-2.pddl,TIMEOUT:1801.02:-1.0:1800.0:-1
ipc-2014-optimal-childsnack-10.pddl,TIMEOUT:1801.08:-1.0:1800.0:-1
ipc-2014-optimal-citycar-p2-2-2-1-2.pddl,SAT:1.79173:46.0:1800.0:-1
ipc-2014-optimal-citycar-p2-2-2-2-1.pddl,SAT:2.15967:64.0:1800.0:-1
ipc-2014-optimal-citycar-p2-2-3-1-2.pddl,SAT:2.41063:50.0:1800.0:-1
ipc-2014-optimal-citycar-p2-2-3-2-1.pddl,SAT:2.27365:48.0:1800.0:-1
ipc-2014-optimal-citycar-p2-2-3-2-2.pddl,SAT:2.41663:50.0:1800.0:-1
ipc-2014-optimal-citycar-p2-2-4-1-2.pddl,SAT:6.26905:52.0:1800.0:-1
ipc-2014-optimal-citycar-p2-2-4-2-1.pddl,SAT:6.26005:52.0:1800.0:-1
ipc-2014-optimal-citycar-p2-2-5-2-2.pddl,SAT:221.291:76.0:1800.0:-1
ipc-2014-optimal-citycar-p2-2-6-1-1.pddl,SAT:162.853:58.0:1800.0:-1
ipc-2014-optimal-citycar-p2-2-6-2-2.pddl,SAT:161.133:58.0:1800.0:-1
ipc-2014-optimal-citycar-p2-3-2-3-1.pddl,SAT:8.27274:68.0:1800.0:-1
ipc-2014-optimal-citycar-p2-3-3-3-1.pddl,SAT:55.3716:78.0:1800.0:-1
ipc-2014-optimal-citycar-p2-3-4-3-1.pddl,SAT:261.473:82.0:1800.0:-1
ipc-2014-optimal-citycar-p2-3-6-3-2.pddl,TIMEOUT:1801.06:-1.0:1800.0:-1
ipc-2014-optimal-citycar-p3-3-2-2-1.pddl,SAT:198.552:70.0:1800.0:-1
ipc-2014-optimal-citycar-p3-3-2-2-2.pddl,CRASHED:1594.93:1000000000.0:1800.0:-1
ipc-2014-optimal-citycar-p3-3-2-3-1.pddl,SAT:7.80381:48.0:1800.0:-1
ipc-2014-optimal-citycar-p3-3-2-3-2.pddl,SAT:172.235:70.0:1800.0:-1
ipc-2014-optimal-citycar-p3-3-3-3-1.pddl,TIMEOUT:1801.05:-1.0:1800.0:-1
ipc-2014-optimal-citycar-p3-3-3-3-2.pddl,SAT:1586.0:76.0:1800.0:-1
ipc-2014-optimal-floortile-p01-4-3-2.pddl,SAT:266.872:56.0:1800.0:-1
ipc-2014-optimal-floortile-p01-4-4-2.pddl,SAT:1449.15:68.0:1800.0:-1
ipc-2014-optimal-floortile-p01-5-3-2.pddl,SAT:412.207:63.0:1800.0:-1
ipc-2014-optimal-floortile-p01-5-4-2.pddl,TIMEOUT:1801.07:-1.0:1800.0:-1
ipc-2014-optimal-floortile-p01-5-5-2.pddl,TIMEOUT:1801.08:-1.0:1800.0:-1
ipc-2014-optimal-floortile-p01-6-4-2.pddl,TIMEOUT:1801.04:-1.0:1800.0:-1
ipc-2014-optimal-floortile-p01-6-5-2.pddl,TIMEOUT:1801.08:-1.0:1800.0:-1
ipc-2014-optimal-floortile-p02-4-4-2.pddl,TIMEOUT:1801.05:-1.0:1800.0:-1
ipc-2014-optimal-floortile-p02-5-3-2.pddl,SAT:467.62:65.0:1800.0:-1
ipc-2014-optimal-floortile-p02-5-4-2.pddl,TIMEOUT:1801.06:-1.0:1800.0:-1
ipc-2014-optimal-floortile-p02-5-5-2.pddl,TIMEOUT:1801.02:-1.0:1800.0:-1
ipc-2014-optimal-floortile-p02-6-4-2.pddl,TIMEOUT:1801.02:-1.0:1800.0:-1
ipc-2014-optimal-floortile-p02-6-5-2.pddl,TIMEOUT:1801.02:-1.0:1800.0:-1
ipc-2014-optimal-floortile-p03-4-3-2.pddl,SAT:269.195:56.0:1800.0:-1
ipc-2014-optimal-floortile-p03-4-4-2.pddl,TIMEOUT:1801.05:-1.0:1800.0:-1
ipc-2014-optimal-floortile-p03-5-3-2.pddl,SAT:527.076:65.0:1800.0:-1
ipc-2014-optimal-floortile-p03-5-4-2.pddl,TIMEOUT:1801.07:-1.0:1800.0:-1
ipc-2014-optimal-floortile-p03-5-5-2.pddl,TIMEOUT:1801.02:-1.0:1800.0:-1
ipc-2014-optimal-floortile-p03-6-4-2.pddl,TIMEOUT:1801.05:-1.0:1800.0:-1
ipc-2014-optimal-floortile-p03-6-5-2.pddl,TIMEOUT:1801.07:-1.0:1800.0:-1
ipc-2014-optimal-ged-d-1-2.pddl,SAT:54.6517:1.0:1800.0:-1
ipc-2014-optimal-ged-d-1-3.pddl,SAT:234.519:4.0:1800.0:-1
ipc-2014-optimal-ged-d-1-4.pddl,SAT:54.8277:1.0:1800.0:-1
ipc-2014-optimal-ged-d-1-8.pddl,SAT:295.824:4.0:1800.0:-1
ipc-2014-optimal-ged-d-2-1.pddl,SAT:54.6227:1.0:1800.0:-1
ipc-2014-optimal-ged-d-2-3.pddl,SAT:143.834:3.0:1800.0:-1
ipc-2014-optimal-ged-d-2-4.pddl,SAT:127.821:2.0:1800.0:-1
ipc-2014-optimal-ged-d-2-8.pddl,SAT:402.355:5.0:1800.0:-1
ipc-2014-optimal-ged-d-3-1.pddl,SAT:208.266:4.0:1800.0:-1
ipc-2014-optimal-ged-d-3-2.pddl,SAT:144.118:3.0:1800.0:-1
ipc-2014-optimal-ged-d-3-4.pddl,SAT:329.928:5.0:1800.0:-1
ipc-2014-optimal-ged-d-4-2.pddl,SAT:127.936:2.0:1800.0:-1
ipc-2014-optimal-ged-d-4-3.pddl,SAT:326.893:5.0:1800.0:-1
ipc-2014-optimal-ged-d-4-8.pddl,SAT:383.093:5.0:1800.0:-1
ipc-2014-optimal-ged-d-7-5.pddl,SAT:286.72:4.0:1800.0:-1
ipc-2014-optimal-ged-d-7-6.pddl,SAT:228.469:4.0:1800.0:-1
ipc-2014-optimal-ged-d-8-1.pddl,SAT:288.009:4.0:1800.0:-1
ipc-2014-optimal-ged-d-8-2.pddl,SAT:385.447:5.0:1800.0:-1
ipc-2014-optimal-ged-d-8-4.pddl,SAT:383.575:5.0:1800.0:-1
ipc-2014-optimal-ged-d-8-9.pddl,CRASHED:473.35:1000000000.0:1800.0:-1
ipc-2014-optimal-hiking-1-2-3.pddl,SAT:7.91879:11.0:1800.0:-1
ipc-2014-optimal-hiking-1-2-4.pddl,SAT:10.9533:17.0:1800.0:-1
ipc-2014-optimal-hiking-1-2-5.pddl,SAT:18.5342:25.0:1800.0:-1
ipc-2014-optimal-hiking-1-2-7.pddl,SAT:40.0569:38.0:1800.0:-1
ipc-2014-optimal-hiking-1-2-8.pddl,SAT:62.4125:45.0:1800.0:-1
ipc-2014-optimal-hiking-2-2-3.pddl,SAT:139.461:10.0:1800.0:-1
ipc-2014-optimal-hiking-2-2-4.pddl,SAT:211.649:16.0:1800.0:-1
ipc-2014-optimal-hiking-2-2-5.pddl,SAT:307.123:22.0:1800.0:-1
ipc-2014-optimal-hiking-2-2-6.pddl,SAT:421.372:30.0:1800.0:-1
ipc-2014-optimal-hiking-2-2-7.pddl,SAT:448.738:34.0:1800.0:-1
ipc-2014-optimal-hiking-2-2-8.pddl,SAT:1001.3:42.0:1800.0:-1
ipc-2014-optimal-hiking-2-3-4.pddl,SAT:339.588:17.0:1800.0:-1
ipc-2014-optimal-hiking-2-3-5.pddl,SAT:520.311:24.0:1800.0:-1
ipc-2014-optimal-hiking-2-3-6.pddl,SAT:591.298:28.0:1800.0:-1
ipc-2014-optimal-hiking-2-3-7.pddl,CRASHED:1001.49:1000000000.0:1800.0:-1
ipc-2014-optimal-hiking-2-4-3.pddl,SAT:259.709:10.0:1800.0:-1
ipc-2014-optimal-hiking-2-4-4.pddl,SAT:482.208:17.0:1800.0:-1
ipc-2014-optimal-hiking-2-4-5.pddl,SAT:767.903:23.0:1800.0:-1
ipc-2014-optimal-hiking-2-4-6.pddl,SAT:1083.49:30.0:1800.0:-1
ipc-2014-optimal-hiking-2-4-7.pddl,CRASHED:782.67:1000000000.0:1800.0:-1
ipc-2014-optimal-maintenance-1.3.010.010.1-001.pddl,CRASHED:7.72882:1000000000.0:1800.0:-1
ipc-2014-optimal-maintenance-1.3.010.010.1-002.pddl,CRASHED:11.7652:1000000000.0:1800.0:-1
ipc-2014-optimal-maintenance-1.3.010.010.2-000.pddl,SAT:22.4846:4.0:1800.0:-1
ipc-2014-optimal-maintenance-1.3.010.010.2-001.pddl,SAT:26.9269:7.0:1800.0:-1
ipc-2014-optimal-maintenance-1.3.010.010.2-002.pddl,SAT:39.771:6.0:1800.0:-1
ipc-2014-optimal-maintenance-1.3.015.020.1-000.pddl,CRASHED:28.0667:1000000000.0:1800.0:-1
ipc-2014-optimal-maintenance-1.3.015.020.1-001.pddl,CRASHED:21.0278:1000000000.0:1800.0:-1
ipc-2014-optimal-maintenance-1.3.015.020.1-002.pddl,CRASHED:26.183:1000000000.0:1800.0:-1
ipc-2014-optimal-maintenance-1.3.015.020.2-000.pddl,CRASHED:328.029:1000000000.0:1800.0:-1
ipc-2014-optimal-maintenance-1.3.015.020.2-001.pddl,SAT:124.094:11.0:1800.0:-1
ipc-2014-optimal-maintenance-1.3.015.020.2-002.pddl,SAT:119.407:9.0:1800.0:-1
ipc-2014-optimal-maintenance-1.3.025.050.1-000.pddl,CRASHED:86.1809:1000000000.0:1800.0:-1
ipc-2014-optimal-maintenance-1.3.025.050.1-001.pddl,CRASHED:171.368:1000000000.0:1800.0:-1
ipc-2014-optimal-maintenance-1.3.025.050.1-002.pddl,CRASHED:172.207:1000000000.0:1800.0:-1
ipc-2014-optimal-maintenance-1.3.025.100.1-000.pddl,CRASHED:88.4186:1000000000.0:1800.0:-1
ipc-2014-optimal-maintenance-1.3.025.100.1-001.pddl,CRASHED:84.6691:1000000000.0:1800.0:-1
ipc-2014-optimal-maintenance-1.3.025.100.1-002.pddl,CRASHED:89.0815:1000000000.0:1800.0:-1
ipc-2014-optimal-maintenance-1.3.025.100.2-000.pddl,TIMEOUT:1801.04:-1.0:1800.0:-1
ipc-2014-optimal-maintenance-1.3.025.100.2-001.pddl,TIMEOUT:1801.04:-1.0:1800.0:-1
ipc-2014-optimal-maintenance-1.3.025.100.2-002.pddl,CRASHED:1341.8:1000000000.0:1800.0:-1
ipc-2014-optimal-openstacks-p20_1.pddl,SAT:335.457:3.0:1800.0:-1
ipc-2014-optimal-openstacks-p20_2.pddl,SAT:295.293:4.0:1800.0:-1
ipc-2014-optimal-openstacks-p20_3.pddl,SAT:183.54:6.0:1800.0:-1
ipc-2014-optimal-openstacks-p25_1.pddl,CRASHED:678.42:1000000000.0:1800.0:-1
ipc-2014-optimal-openstacks-p25_3.pddl,CRASHED:735.74:1000000000.0:1800.0:-1
ipc-2014-optimal-openstacks-p30_1.pddl,TIMEOUT:1801.04:-1.0:1800.0:-1
ipc-2014-optimal-openstacks-p30_2.pddl,TIMEOUT:1801.09:-1.0:1800.0:-1
ipc-2014-optimal-openstacks-p30_3.pddl,TIMEOUT:1801.09:-1.0:1800.0:-1
ipc-2014-optimal-openstacks-p35_1.pddl,TIMEOUT:1801.06:-1.0:1800.0:-1
ipc-2014-optimal-openstacks-p35_2.pddl,TIMEOUT:1801.1:-1.0:1800.0:-1
ipc-2014-optimal-openstacks-p35_3.pddl,CRASHED:653.5:1000000000.0:1800.0:-1
ipc-2014-optimal-openstacks-p40_1.pddl,CRASHED:490.27:1000000000.0:1800.0:-1
ipc-2014-optimal-openstacks-p40_2.pddl,CRASHED:470.75:1000000000.0:1800.0:-1
ipc-2014-optimal-openstacks-p40_3.pddl,CRASHED:655.45:1000000000.0:1800.0:-1
ipc-2014-optimal-openstacks-p45_1.pddl,CRASHED:579.46:1000000000.0:1800.0:-1
ipc-2014-optimal-openstacks-p45_2.pddl,CRASHED:537.13:1000000000.0:1800.0:-1
ipc-2014-optimal-openstacks-p45_3.pddl,CRASHED:690.24:1000000000.0:1800.0:-1
ipc-2014-optimal-openstacks-p50_1.pddl,CRASHED:691.4:1000000000.0:1800.0:-1
ipc-2014-optimal-openstacks-p50_2.pddl,CRASHED:794.33:1000000000.0:1800.0:-1
ipc-2014-optimal-openstacks-p50_3.pddl,CRASHED:729.34:1000000000.0:1800.0:-1
ipc-2014-optimal-parking-12_7-01.pddl,SAT:957.639:18.0:1800.0:-1
ipc-2014-optimal-parking-12_7-02.pddl,SAT:989.23:18.0:1800.0:-1
ipc-2014-optimal-parking-12_7-03.pddl,SAT:930.228:17.0:1800.0:-1
ipc-2014-optimal-parking-12_7-04.pddl,SAT:907.385:19.0:1800.0:-1
ipc-2014-optimal-parking-14_8-01.pddl,CRASHED:1459.13:1000000000.0:1800.0:-1
ipc-2014-optimal-parking-14_8-02.pddl,SAT:1301.57:22.0:1800.0:-1
ipc-2014-optimal-parking-14_8-03.pddl,SAT:1207.99:21.0:1800.0:-1
ipc-2014-optimal-parking-14_8-04.pddl,CRASHED:1494.99:1000000000.0:1800.0:-1
ipc-2014-optimal-parking-16_9-01.pddl,CRASHED:1477.48:1000000000.0:1800.0:-1
ipc-2014-optimal-parking-16_9-02.pddl,CRASHED:1433.75:1000000000.0:1800.0:-1
ipc-2014-optimal-parking-16_9-03.pddl,CRASHED:1424.59:1000000000.0:1800.0:-1
ipc-2014-optimal-parking-16_9-04.pddl,CRASHED:1343.28:1000000000.0:1800.0:-1
ipc-2014-optimal-parking-18_10-01.pddl,TIMEOUT:1801.03:-1.0:1800.0:-1
ipc-2014-optimal-parking-18_10-02.pddl,CRASHED:1784.18:1000000000.0:1800.0:-1
ipc-2014-optimal-parking-18_10-03.pddl,CRASHED:1487.53:1000000000.0:1800.0:-1
ipc-2014-optimal-parking-18_10-04.pddl,CRASHED:1466.23:1000000000.0:1800.0:-1
ipc-2014-optimal-parking-20_11-01.pddl,CRASHED:1736.35:1000000000.0:1800.0:-1
ipc-2014-optimal-parking-20_11-02.pddl,CRASHED:1707.07:1000000000.0:1800.0:-1
ipc-2014-optimal-parking-20_11-03.pddl,TIMEOUT:1801.09:-1.0:1800.0:-1
ipc-2014-optimal-parking-20_11-04.pddl,CRASHED:1475.54:1000000000.0:1800.0:-1
ipc-2014-optimal-tetris-01-10.pddl,TIMEOUT:1801.01:-1.0:1800.0:-1
ipc-2014-optimal-tetris-01-04.pddl,CRASHED:295.088:1000000000.0:1800.0:-1
ipc-2014-optimal-tetris-01-06.pddl,SAT:208.019:30.0:1800.0:-1
ipc-2014-optimal-tetris-01-08.pddl,SAT:1084.09:36.0:1800.0:-1
ipc-2014-optimal-tetris-02-10.pddl,TIMEOUT:1801.07:-1.0:1800.0:-1
ipc-2014-optimal-tetris-02-04.pddl,SAT:522.014:10.0:1800.0:-1
ipc-2014-optimal-tetris-02-06.pddl,SAT:282.559:30.0:1800.0:-1
ipc-2014-optimal-tetris-02-08.pddl,TIMEOUT:1801.05:-1.0:1800.0:-1
ipc-2014-optimal-tetris-03-10.pddl,TIMEOUT:1801.1:-1.0:1800.0:-1
ipc-2014-optimal-tetris-03-04.pddl,SAT:733.212:11.0:1800.0:-1
ipc-2014-optimal-tetris-03-06.pddl,SAT:249.389:21.0:1800.0:-1
ipc-2014-optimal-tetris-03-08.pddl,TIMEOUT:1801.06:-1.0:1800.0:-1
ipc-2014-optimal-tetris-04-10.pddl,TIMEOUT:1801.05:-1.0:1800.0:-1
ipc-2014-optimal-tetris-04-04.pddl,CRASHED:324.773:1000000000.0:1800.0:-1
ipc-2014-optimal-tetris-04-06.pddl,SAT:243.224:27.0:1800.0:-1
ipc-2014-optimal-tetris-04-08.pddl,TIMEOUT:1801.08:-1.0:1800.0:-1
ipc-2014-optimal-tetris-05-10.pddl,TIMEOUT:1801.04:-1.0:1800.0:-1
ipc-2014-optimal-tetris-05-04.pddl,CRASHED:406.311:1000000000.0:1800.0:-1
ipc-2014-optimal-tetris-05-06.pddl,SAT:217.015:19.0:1800.0:-1
ipc-2014-optimal-tetris-05-08.pddl,TIMEOUT:1801.07:-1.0:1800.0:-1
ipc-2014-optimal-tidybot-01.pddl,TIMEOUT:1801.01:-1.0:1800.0:-1
ipc-2014-optimal-tidybot-02.pddl,SAT:414.241:35.0:1800.0:-1
ipc-2014-optimal-tidybot-03.pddl,SAT:386.547:30.0:1800.0:-1
ipc-2014-optimal-tidybot-04.pddl,SAT:323.756:24.0:1800.0:-1
ipc-2014-optimal-tidybot-05.pddl,TIMEOUT:1801.06:-1.0:1800.0:-1
ipc-2014-optimal-tidybot-06.pddl,TIMEOUT:1801.01:-1.0:1800.0:-1
ipc-2014-optimal-tidybot-07.pddl,SAT:1156.43:38.0:1800.0:-1
ipc-2014-optimal-tidybot-08.pddl,SAT:277.306:25.0:1800.0:-1
ipc-2014-optimal-tidybot-09.pddl,SAT:1572.14:35.0:1800.0:-1
ipc-2014-optimal-tidybot-10.pddl,TIMEOUT:1801.1:-1.0:1800.0:-1
ipc-2014-optimal-tidybot-11.pddl,SAT:217.569:29.0:1800.0:-1
ipc-2014-optimal-tidybot-12.pddl,SAT:849.471:35.0:1800.0:-1
ipc-2014-optimal-tidybot-13.pddl,SAT:342.563:30.0:1800.0:-1
ipc-2014-optimal-tidybot-14.pddl,SAT:226.635:25.0:1800.0:-1
ipc-2014-optimal-tidybot-15.pddl,TIMEOUT:1801.03:-1.0:1800.0:-1
ipc-2014-optimal-tidybot-16.pddl,TIMEOUT:1801.07:-1.0:1800.0:-1
ipc-2014-optimal-tidybot-17.pddl,TIMEOUT:1801.0:-1.0:1800.0:-1
ipc-2014-optimal-tidybot-18.pddl,TIMEOUT:1801.09:-1.0:1800.0:-1
ipc-2014-optimal-tidybot-19.pddl,TIMEOUT:1801.08:-1.0:1800.0:-1
ipc-2014-optimal-tidybot-20.pddl,TIMEOUT:1801.08:-1.0:1800.0:-1
ipc-2014-optimal-transport-01.pddl,SAT:60.8887:148.0:1800.0:-1
ipc-2014-optimal-transport-02.pddl,SAT:109.199:191.0:1800.0:-1
ipc-2014-optimal-transport-03.pddl,SAT:221.917:300.0:1800.0:-1
ipc-2014-optimal-transport-04.pddl,TIMEOUT:1801.03:-1.0:1800.0:-1
ipc-2014-optimal-transport-05.pddl,TIMEOUT:1801.04:-1.0:1800.0:-1
ipc-2014-optimal-transport-06.pddl,TIMEOUT:1801.01:-1.0:1800.0:-1
ipc-2014-optimal-transport-07.pddl,SAT:101.234:967.0:1800.0:-1
ipc-2014-optimal-transport-08.pddl,SAT:200.609:1173.0:1800.0:-1
ipc-2014-optimal-transport-09.pddl,CRASHED:707.53:1000000000.0:1800.0:-1
ipc-2014-optimal-transport-10.pddl,TIMEOUT:1801.03:-1.0:1800.0:-1
ipc-2014-optimal-transport-11.pddl,TIMEOUT:1801.09:-1.0:1800.0:-1
ipc-2014-optimal-transport-12.pddl,TIMEOUT:1801.02:-1.0:1800.0:-1
ipc-2014-optimal-transport-13.pddl,SAT:117.874:594.0:1800.0:-1
ipc-2014-optimal-transport-14.pddl,SAT:329.343:526.0:1800.0:-1
ipc-2014-optimal-transport-15.pddl,SAT:277.889:753.0:1800.0:-1
ipc-2014-optimal-transport-16.pddl,TIMEOUT:1801.0:-1.0:1800.0:-1
ipc-2014-optimal-transport-17.pddl,TIMEOUT:1801.02:-1.0:1800.0:-1
ipc-2014-optimal-transport-18.pddl,TIMEOUT:1801.03:-1.0:1800.0:-1
ipc-2014-optimal-transport-19.pddl,TIMEOUT:1801.06:-1.0:1800.0:-1
ipc-2014-optimal-transport-20.pddl,CRASHED:785.46:1000000000.0:1800.0:-1
ipc-2014-optimal-visitall-05-10.pddl,SAT:254.293:60.0:1800.0:-1
ipc-2014-optimal-visitall-05-05.pddl,SAT:35.4256:21.0:1800.0:-1
ipc-2014-optimal-visitall-05-06.pddl,SAT:44.9022:25.0:1800.0:-1
ipc-2014-optimal-visitall-05-07.pddl,SAT:105.997:34.0:1800.0:-1
ipc-2014-optimal-visitall-05-08.pddl,SAT:217.052:43.0:1800.0:-1
ipc-2014-optimal-visitall-05-09.pddl,SAT:202.722:54.0:1800.0:-1
ipc-2014-optimal-visitall-01-10.pddl,SAT:247.508:99.0:1800.0:-1
ipc-2014-optimal-visitall-01-11.pddl,SAT:331.746:120.0:1800.0:-1
ipc-2014-optimal-visitall-01-12.pddl,SAT:705.259:143.0:1800.0:-1
ipc-2014-optimal-visitall-01-13.pddl,SAT:569.997:168.0:1800.0:-1
ipc-2014-optimal-visitall-01-14.pddl,CRASHED:1076.89:1000000000.0:1800.0:-1
ipc-2014-optimal-visitall-01-15.pddl,CRASHED:1055.25:1000000000.0:1800.0:-1
ipc-2014-optimal-visitall-01-16.pddl,CRASHED:1050.26:1000000000.0:1800.0:-1
ipc-2014-optimal-visitall-01-17.pddl,CRASHED:1122.92:1000000000.0:1800.0:-1
ipc-2014-optimal-visitall-01-18.pddl,CRASHED:990.01:1000000000.0:1800.0:-1
ipc-2014-optimal-visitall-01-05.pddl,SAT:128.47:24.0:1800.0:-1
ipc-2014-optimal-visitall-01-06.pddl,SAT:269.185:35.0:1800.0:-1
ipc-2014-optimal-visitall-01-07.pddl,SAT:204.992:48.0:1800.0:-1
ipc-2014-optimal-visitall-01-08.pddl,SAT:280.229:63.0:1800.0:-1
ipc-2014-optimal-visitall-01-09.pddl,SAT:310.792:80.0:1800.0:-1
