instance,ipc-2014-optimal-dynamic-gamer
ipc-2014-optimal-barman-p433.1.pddl,CRASHED:0.041993:1000000000.0:1800.0:-1
ipc-2014-optimal-barman-p433.2.pddl,CRASHED:0.045992:1000000000.0:1800.0:-1
ipc-2014-optimal-barman-p433.3.pddl,CRASHED:0.042993:1000000000.0:1800.0:-1
ipc-2014-optimal-barman-p435.1.pddl,CRASHED:411.763:49.0:1800.0:-1
ipc-2014-optimal-barman-p435.2.pddl,CRASHED:378.516:49.0:1800.0:-1
ipc-2014-optimal-barman-p435.3.pddl,CRASHED:389.234:49.0:1800.0:-1
ipc-2014-optimal-barman-p443.1.pddl,CRASHED:0.040992:1000000000.0:1800.0:-1
ipc-2014-optimal-barman-p443.2.pddl,CRASHED:0.037993:1000000000.0:1800.0:-1
ipc-2014-optimal-barman-p443.3.pddl,CRASHED:0.038993:1000000000.0:1800.0:-1
ipc-2014-optimal-barman-p536.1.pddl,TIMEOUT:1801.06:-1.0:1800.0:-1
ipc-2014-optimal-barman-p536.2.pddl,CRASHED:1783.58:1000000000.0:1800.0:-1
ipc-2014-optimal-barman-p536.3.pddl,CRASHED:1664.87:1000000000.0:1800.0:-1
ipc-2014-optimal-barman-p638.1.pddl,CRASHED:1468.93:1000000000.0:1800.0:-1
ipc-2014-optimal-barman-p638.2.pddl,CRASHED:1736.79:1000000000.0:1800.0:-1
ipc-2014-optimal-barman-p638.3.pddl,CRASHED:1264.75:1000000000.0:1800.0:-1
ipc-2014-optimal-barman-p739.1.pddl,CRASHED:1530.16:1000000000.0:1800.0:-1
ipc-2014-optimal-barman-p739.2.pddl,CRASHED:1470.78:1000000000.0:1800.0:-1
ipc-2014-optimal-barman-p739.3.pddl,CRASHED:1462.71:1000000000.0:1800.0:-1
ipc-2014-optimal-barman-p839.1.pddl,CRASHED:1557.83:1000000000.0:1800.0:-1
ipc-2014-optimal-barman-p839.2.pddl,CRASHED:1412.38:1000000000.0:1800.0:-1
ipc-2014-optimal-cavediving-01.pddl,TIMEOUT:1801.1:-1.0:1800.0:-1
ipc-2014-optimal-cavediving-01_easy.pddl,CRASHED:1211.57:1000000000.0:1800.0:-1
ipc-2014-optimal-cavediving-02_easy.pddl,CRASHED:8.3:1000000000.0:1800.0:-1
ipc-2014-optimal-cavediving-03_easy.pddl,TIMEOUT:1801.01:-1.0:1800.0:-1
ipc-2014-optimal-cavediving-04_easy.pddl,CRASHED:1518.61:1000000000.0:1800.0:-1
ipc-2014-optimal-cavediving-05A_easy.pddl,CRASHED:96.4543:0.0:1800.0:-1
ipc-2014-optimal-cavediving-06A_easy.pddl,CRASHED:109.351:0.0:1800.0:-1
ipc-2014-optimal-cavediving-07_easy.pddl,CRASHED:52.908:131.0:1800.0:-1
ipc-2014-optimal-cavediving-08_easy.pddl,CRASHED:68.0377:0.0:1800.0:-1
ipc-2014-optimal-cavediving-09_easy.pddl,CRASHED:1402.13:1000000000.0:1800.0:-1
ipc-2014-optimal-cavediving-10_easy.pddl,CRASHED:1152.91:1000000000.0:1800.0:-1
ipc-2014-optimal-cavediving-11_easy.pddl,TIMEOUT:1801.06:-1.0:1800.0:-1
ipc-2014-optimal-cavediving-12_easy.pddl,TIMEOUT:1801.03:-1.0:1800.0:-1
ipc-2014-optimal-cavediving-13_easy.pddl,TIMEOUT:1801.04:-1.0:1800.0:-1
ipc-2014-optimal-cavediving-14_easy.pddl,TIMEOUT:1801.08:-1.0:1800.0:-1
ipc-2014-optimal-cavediving-15_easy.pddl,CRASHED:1757.73:1000000000.0:1800.0:-1
ipc-2014-optimal-cavediving-16_easy.pddl,TIMEOUT:1801.08:-1.0:1800.0:-1
ipc-2014-optimal-cavediving-18A_easy.pddl,CRASHED:181.005:131.0:1800.0:-1
ipc-2014-optimal-cavediving-18_easy.pddl,CRASHED:114.398:131.0:1800.0:-1
ipc-2014-optimal-cavediving-20A_easy.pddl,CRASHED:170.768:0.0:1800.0:-1
ipc-2014-optimal-childsnack-01-2.pddl,CRASHED:25.7451:21.0:1800.0:-1
ipc-2014-optimal-childsnack-01.pddl,CRASHED:25.1252:20.0:1800.0:-1
ipc-2014-optimal-childsnack-02-2.pddl,CRASHED:47.5768:24.0:1800.0:-1
ipc-2014-optimal-childsnack-02.pddl,CRASHED:44.4982:23.0:1800.0:-1
ipc-2014-optimal-childsnack-03-2.pddl,CRASHED:112.671:27.0:1800.0:-1
ipc-2014-optimal-childsnack-03.pddl,CRASHED:326.123:27.0:1800.0:-1
ipc-2014-optimal-childsnack-04-2.pddl,CRASHED:722.586:30.0:1800.0:-1
ipc-2014-optimal-childsnack-04.pddl,CRASHED:259.721:30.0:1800.0:-1
ipc-2014-optimal-childsnack-05-2.pddl,CRASHED:725.726:33.0:1800.0:-1
ipc-2014-optimal-childsnack-05.pddl,CRASHED:692.622:33.0:1800.0:-1
ipc-2014-optimal-childsnack-06-2.pddl,TIMEOUT:1801.1:-1.0:1800.0:-1
ipc-2014-optimal-childsnack-06.pddl,TIMEOUT:1801.1:-1.0:1800.0:-1
ipc-2014-optimal-childsnack-07-2.pddl,CRASHED:1289.7:1000000000.0:1800.0:-1
ipc-2014-optimal-childsnack-07.pddl,CRASHED:1712.2:39.0:1800.0:-1
ipc-2014-optimal-childsnack-08-2.pddl,TIMEOUT:1801.07:-1.0:1800.0:-1
ipc-2014-optimal-childsnack-08.pddl,TIMEOUT:1801.0:-1.0:1800.0:-1
ipc-2014-optimal-childsnack-09-2.pddl,TIMEOUT:1801.07:-1.0:1800.0:-1
ipc-2014-optimal-childsnack-09.pddl,TIMEOUT:1801.09:-1.0:1800.0:-1
ipc-2014-optimal-childsnack-10-2.pddl,TIMEOUT:1801.08:-1.0:1800.0:-1
ipc-2014-optimal-childsnack-10.pddl,TIMEOUT:1801.03:-1.0:1800.0:-1
ipc-2014-optimal-citycar-p2-2-2-1-2.pddl,CRASHED:31.8112:46.0:1800.0:-1
ipc-2014-optimal-citycar-p2-2-2-2-1.pddl,CRASHED:39.369:64.0:1800.0:-1
ipc-2014-optimal-citycar-p2-2-3-1-2.pddl,CRASHED:27.2309:50.0:1800.0:-1
ipc-2014-optimal-citycar-p2-2-3-2-1.pddl,CRASHED:26.9019:48.0:1800.0:-1
ipc-2014-optimal-citycar-p2-2-3-2-2.pddl,CRASHED:26.9599:50.0:1800.0:-1
ipc-2014-optimal-citycar-p2-2-4-1-2.pddl,CRASHED:3.01:1000000000.0:1800.0:-1
ipc-2014-optimal-citycar-p2-2-4-2-1.pddl,CRASHED:43.5424:52.0:1800.0:-1
ipc-2014-optimal-citycar-p2-2-5-2-2.pddl,CRASHED:228.875:76.0:1800.0:-1
ipc-2014-optimal-citycar-p2-2-6-1-1.pddl,CRASHED:102.748:58.0:1800.0:-1
ipc-2014-optimal-citycar-p2-2-6-2-2.pddl,CRASHED:130.009:58.0:1800.0:-1
ipc-2014-optimal-citycar-p2-3-2-3-1.pddl,CRASHED:122.804:68.0:1800.0:-1
ipc-2014-optimal-citycar-p2-3-3-3-1.pddl,CRASHED:234.146:78.0:1800.0:-1
ipc-2014-optimal-citycar-p2-3-4-3-1.pddl,CRASHED:327.718:82.0:1800.0:-1
ipc-2014-optimal-citycar-p2-3-6-3-2.pddl,TIMEOUT:1801.09:-1.0:1800.0:-1
ipc-2014-optimal-citycar-p3-3-2-2-1.pddl,CRASHED:1253.52:70.0:1800.0:-1
ipc-2014-optimal-citycar-p3-3-2-2-2.pddl,CRASHED:1487.73:92.0:1800.0:-1
ipc-2014-optimal-citycar-p3-3-2-3-1.pddl,CRASHED:646.027:48.0:1800.0:-1
ipc-2014-optimal-citycar-p3-3-2-3-2.pddl,CRASHED:595.975:70.0:1800.0:-1
ipc-2014-optimal-citycar-p3-3-3-3-1.pddl,TIMEOUT:1801.04:-1.0:1800.0:-1
ipc-2014-optimal-citycar-p3-3-3-3-2.pddl,CRASHED:1629.95:76.0:1800.0:-1
ipc-2014-optimal-floortile-p01-4-3-2.pddl,CRASHED:33.02:56.0:1800.0:-1
ipc-2014-optimal-floortile-p01-4-4-2.pddl,CRASHED:73.3548:68.0:1800.0:-1
ipc-2014-optimal-floortile-p01-5-3-2.pddl,CRASHED:57.3333:63.0:1800.0:-1
ipc-2014-optimal-floortile-p01-5-4-2.pddl,CRASHED:194.466:91.0:1800.0:-1
ipc-2014-optimal-floortile-p01-5-5-2.pddl,CRASHED:1.92:1000000000.0:1800.0:-1
ipc-2014-optimal-floortile-p01-6-4-2.pddl,CRASHED:970.274:104.0:1800.0:-1
ipc-2014-optimal-floortile-p01-6-5-2.pddl,TIMEOUT:1801.09:-1.0:1800.0:-1
ipc-2014-optimal-floortile-p02-4-4-2.pddl,CRASHED:73.9478:75.0:1800.0:-1
ipc-2014-optimal-floortile-p02-5-3-2.pddl,CRASHED:57.4383:65.0:1800.0:-1
ipc-2014-optimal-floortile-p02-5-4-2.pddl,CRASHED:360.214:98.0:1800.0:-1
ipc-2014-optimal-floortile-p02-5-5-2.pddl,TIMEOUT:1801.05:-1.0:1800.0:-1
ipc-2014-optimal-floortile-p02-6-4-2.pddl,CRASHED:908.064:109.0:1800.0:-1
ipc-2014-optimal-floortile-p02-6-5-2.pddl,TIMEOUT:1801.02:-1.0:1800.0:-1
ipc-2014-optimal-floortile-p03-4-3-2.pddl,CRASHED:20.5449:56.0:1800.0:-1
ipc-2014-optimal-floortile-p03-4-4-2.pddl,CRASHED:61.7836:72.0:1800.0:-1
ipc-2014-optimal-floortile-p03-5-3-2.pddl,CRASHED:36.8504:65.0:1800.0:-1
ipc-2014-optimal-floortile-p03-5-4-2.pddl,CRASHED:244.79:83.0:1800.0:-1
ipc-2014-optimal-floortile-p03-5-5-2.pddl,TIMEOUT:1801.0:-1.0:1800.0:-1
ipc-2014-optimal-floortile-p03-6-4-2.pddl,CRASHED:1112.35:116.0:1800.0:-1
ipc-2014-optimal-floortile-p03-6-5-2.pddl,CRASHED:1164.66:1000000000.0:1800.0:-1
ipc-2014-optimal-ged-d-1-2.pddl,CRASHED:0.041993:1000000000.0:1800.0:-1
ipc-2014-optimal-ged-d-1-3.pddl,CRASHED:0.041993:1000000000.0:1800.0:-1
ipc-2014-optimal-ged-d-1-4.pddl,CRASHED:0.036993:1000000000.0:1800.0:-1
ipc-2014-optimal-ged-d-1-8.pddl,CRASHED:0.040993:1000000000.0:1800.0:-1
ipc-2014-optimal-ged-d-2-1.pddl,CRASHED:0.038993:1000000000.0:1800.0:-1
ipc-2014-optimal-ged-d-2-3.pddl,CRASHED:0.037993:1000000000.0:1800.0:-1
ipc-2014-optimal-ged-d-2-4.pddl,CRASHED:0.041993:1000000000.0:1800.0:-1
ipc-2014-optimal-ged-d-2-8.pddl,CRASHED:0.038993:1000000000.0:1800.0:-1
ipc-2014-optimal-ged-d-3-1.pddl,CRASHED:0.042992:1000000000.0:1800.0:-1
ipc-2014-optimal-ged-d-3-2.pddl,CRASHED:0.038993:1000000000.0:1800.0:-1
ipc-2014-optimal-ged-d-3-4.pddl,CRASHED:0.037993:1000000000.0:1800.0:-1
ipc-2014-optimal-ged-d-4-2.pddl,CRASHED:0.038993:1000000000.0:1800.0:-1
ipc-2014-optimal-ged-d-4-3.pddl,CRASHED:0.037993:1000000000.0:1800.0:-1
ipc-2014-optimal-ged-d-4-8.pddl,CRASHED:0.037994:1000000000.0:1800.0:-1
ipc-2014-optimal-ged-d-7-5.pddl,CRASHED:0.037994:1000000000.0:1800.0:-1
ipc-2014-optimal-ged-d-7-6.pddl,CRASHED:0.038993:1000000000.0:1800.0:-1
ipc-2014-optimal-ged-d-8-1.pddl,CRASHED:0.037994:1000000000.0:1800.0:-1
ipc-2014-optimal-ged-d-8-2.pddl,CRASHED:0.039993:1000000000.0:1800.0:-1
ipc-2014-optimal-ged-d-8-4.pddl,CRASHED:0.039993:1000000000.0:1800.0:-1
ipc-2014-optimal-ged-d-8-9.pddl,CRASHED:0.039993:1000000000.0:1800.0:-1
ipc-2014-optimal-hiking-1-2-3.pddl,CRASHED:2.27465:11.0:1800.0:-1
ipc-2014-optimal-hiking-1-2-4.pddl,CRASHED:1.88571:17.0:1800.0:-1
ipc-2014-optimal-hiking-1-2-5.pddl,CRASHED:2.77:25.0:1800.0:-1
ipc-2014-optimal-hiking-1-2-7.pddl,CRASHED:5.53716:38.0:1800.0:-1
ipc-2014-optimal-hiking-1-2-8.pddl,CRASHED:5.2602:45.0:1800.0:-1
ipc-2014-optimal-hiking-2-2-3.pddl,CRASHED:4.55331:10.0:1800.0:-1
ipc-2014-optimal-hiking-2-2-4.pddl,CRASHED:7.61784:16.0:1800.0:-1
ipc-2014-optimal-hiking-2-2-5.pddl,CRASHED:31.5692:22.0:1800.0:-1
ipc-2014-optimal-hiking-2-2-6.pddl,CRASHED:107.573:30.0:1800.0:-1
ipc-2014-optimal-hiking-2-2-7.pddl,CRASHED:501.524:34.0:1800.0:-1
ipc-2014-optimal-hiking-2-2-8.pddl,CRASHED:657.326:42.0:1800.0:-1
ipc-2014-optimal-hiking-2-3-4.pddl,CRASHED:14.2848:17.0:1800.0:-1
ipc-2014-optimal-hiking-2-3-5.pddl,CRASHED:2.98:1000000000.0:1800.0:-1
ipc-2014-optimal-hiking-2-3-6.pddl,CRASHED:321.496:28.0:1800.0:-1
ipc-2014-optimal-hiking-2-3-7.pddl,CRASHED:1544.94:35.0:1800.0:-1
ipc-2014-optimal-hiking-2-4-3.pddl,CRASHED:9.72252:10.0:1800.0:-1
ipc-2014-optimal-hiking-2-4-4.pddl,CRASHED:17.4783:17.0:1800.0:-1
ipc-2014-optimal-hiking-2-4-5.pddl,CRASHED:284.909:23.0:1800.0:-1
ipc-2014-optimal-hiking-2-4-6.pddl,TIMEOUT:1801.03:-1.0:1800.0:-1
ipc-2014-optimal-hiking-2-4-7.pddl,TIMEOUT:1801.03:-1.0:1800.0:-1
ipc-2014-optimal-maintenance-1.3.010.010.1-001.pddl,CRASHED:1.12783:1000000000.0:1800.0:-1
ipc-2014-optimal-maintenance-1.3.010.010.1-002.pddl,CRASHED:1.13583:1000000000.0:1800.0:-1
ipc-2014-optimal-maintenance-1.3.010.010.2-000.pddl,CRASHED:1.13683:1000000000.0:1800.0:-1
ipc-2014-optimal-maintenance-1.3.010.010.2-001.pddl,CRASHED:1.14382:1000000000.0:1800.0:-1
ipc-2014-optimal-maintenance-1.3.010.010.2-002.pddl,CRASHED:1.15682:1000000000.0:1800.0:-1
ipc-2014-optimal-maintenance-1.3.015.020.1-000.pddl,CRASHED:0.046991:1000000000.0:1800.0:-1
ipc-2014-optimal-maintenance-1.3.015.020.1-001.pddl,CRASHED:0.046992:1000000000.0:1800.0:-1
ipc-2014-optimal-maintenance-1.3.015.020.1-002.pddl,CRASHED:0.046992:1000000000.0:1800.0:-1
ipc-2014-optimal-maintenance-1.3.015.020.2-000.pddl,CRASHED:0.050991:1000000000.0:1800.0:-1
ipc-2014-optimal-maintenance-1.3.015.020.2-001.pddl,CRASHED:0.046992:1000000000.0:1800.0:-1
ipc-2014-optimal-maintenance-1.3.015.020.2-002.pddl,CRASHED:0.049991:1000000000.0:1800.0:-1
ipc-2014-optimal-maintenance-1.3.025.050.1-000.pddl,CRASHED:13.4999:1000000000.0:1800.0:-1
ipc-2014-optimal-maintenance-1.3.025.050.1-001.pddl,CRASHED:17.9053:1000000000.0:1800.0:-1
ipc-2014-optimal-maintenance-1.3.025.050.1-002.pddl,CRASHED:13.129:1000000000.0:1800.0:-1
ipc-2014-optimal-maintenance-1.3.025.100.1-000.pddl,CRASHED:66.2369:1000000000.0:1800.0:-1
ipc-2014-optimal-maintenance-1.3.025.100.1-001.pddl,CRASHED:71.4541:1000000000.0:1800.0:-1
ipc-2014-optimal-maintenance-1.3.025.100.1-002.pddl,CRASHED:60.3668:1000000000.0:1800.0:-1
ipc-2014-optimal-maintenance-1.3.025.100.2-000.pddl,CRASHED:557.1:1000000000.0:1800.0:-1
ipc-2014-optimal-maintenance-1.3.025.100.2-001.pddl,CRASHED:0.407937:1000000000.0:1800.0:-1
ipc-2014-optimal-maintenance-1.3.025.100.2-002.pddl,CRASHED:0.404938:1000000000.0:1800.0:-1
ipc-2014-optimal-openstacks-p20_1.pddl,CRASHED:31.6682:3.0:1800.0:-1
ipc-2014-optimal-openstacks-p20_2.pddl,CRASHED:34.9077:4.0:1800.0:-1
ipc-2014-optimal-openstacks-p20_3.pddl,CRASHED:39.9349:6.0:1800.0:-1
ipc-2014-optimal-openstacks-p25_1.pddl,CRASHED:46.302:4.0:1800.0:-1
ipc-2014-optimal-openstacks-p25_3.pddl,CRASHED:48.0267:9.0:1800.0:-1
ipc-2014-optimal-openstacks-p30_1.pddl,CRASHED:66.4229:4.0:1800.0:-1
ipc-2014-optimal-openstacks-p30_2.pddl,CRASHED:64.3832:4.0:1800.0:-1
ipc-2014-optimal-openstacks-p30_3.pddl,CRASHED:99.3459:12.0:1800.0:-1
ipc-2014-optimal-openstacks-p35_1.pddl,CRASHED:102.947:4.0:1800.0:-1
ipc-2014-optimal-openstacks-p35_2.pddl,CRASHED:107.585:5.0:1800.0:-1
ipc-2014-optimal-openstacks-p35_3.pddl,CRASHED:186.495:14.0:1800.0:-1
ipc-2014-optimal-openstacks-p40_1.pddl,CRASHED:159.402:3.0:1800.0:-1
ipc-2014-optimal-openstacks-p40_2.pddl,CRASHED:162.984:4.0:1800.0:-1
ipc-2014-optimal-openstacks-p40_3.pddl,CRASHED:487.634:15.0:1800.0:-1
ipc-2014-optimal-openstacks-p45_1.pddl,CRASHED:221.814:4.0:1800.0:-1
ipc-2014-optimal-openstacks-p45_2.pddl,CRASHED:235.44:5.0:1800.0:-1
ipc-2014-optimal-openstacks-p45_3.pddl,CRASHED:819.738:19.0:1800.0:-1
ipc-2014-optimal-openstacks-p50_1.pddl,CRASHED:330.869:4.0:1800.0:-1
ipc-2014-optimal-openstacks-p50_2.pddl,CRASHED:565.544:5.0:1800.0:-1
ipc-2014-optimal-openstacks-p50_3.pddl,CRASHED:1631.75:18.0:1800.0:-1
ipc-2014-optimal-parking-12_7-01.pddl,TIMEOUT:1801.08:-1.0:1800.0:-1
ipc-2014-optimal-parking-12_7-02.pddl,TIMEOUT:1801.1:-1.0:1800.0:-1
ipc-2014-optimal-parking-12_7-03.pddl,TIMEOUT:1801.01:-1.0:1800.0:-1
ipc-2014-optimal-parking-12_7-04.pddl,TIMEOUT:1801.04:-1.0:1800.0:-1
ipc-2014-optimal-parking-14_8-01.pddl,TIMEOUT:1801.04:-1.0:1800.0:-1
ipc-2014-optimal-parking-14_8-02.pddl,TIMEOUT:1801.07:-1.0:1800.0:-1
ipc-2014-optimal-parking-14_8-03.pddl,CRASHED:4.15:1000000000.0:1800.0:-1
ipc-2014-optimal-parking-14_8-04.pddl,TIMEOUT:1801.1:-1.0:1800.0:-1
ipc-2014-optimal-parking-16_9-01.pddl,TIMEOUT:1801.08:-1.0:1800.0:-1
ipc-2014-optimal-parking-16_9-02.pddl,TIMEOUT:1801.09:-1.0:1800.0:-1
ipc-2014-optimal-parking-16_9-03.pddl,TIMEOUT:1801.01:-1.0:1800.0:-1
ipc-2014-optimal-parking-16_9-04.pddl,TIMEOUT:1801.03:-1.0:1800.0:-1
ipc-2014-optimal-parking-18_10-01.pddl,TIMEOUT:1801.06:-1.0:1800.0:-1
ipc-2014-optimal-parking-18_10-02.pddl,TIMEOUT:1801.09:-1.0:1800.0:-1
ipc-2014-optimal-parking-18_10-03.pddl,TIMEOUT:1801.1:-1.0:1800.0:-1
ipc-2014-optimal-parking-18_10-04.pddl,TIMEOUT:1801.02:-1.0:1800.0:-1
ipc-2014-optimal-parking-20_11-01.pddl,TIMEOUT:1801.08:-1.0:1800.0:-1
ipc-2014-optimal-parking-20_11-02.pddl,TIMEOUT:1801.05:-1.0:1800.0:-1
ipc-2014-optimal-parking-20_11-03.pddl,TIMEOUT:1801.04:-1.0:1800.0:-1
ipc-2014-optimal-parking-20_11-04.pddl,TIMEOUT:1801.03:-1.0:1800.0:-1
ipc-2014-optimal-tetris-01-10.pddl,CRASHED:41.26:1000000000.0:1800.0:-1
ipc-2014-optimal-tetris-01-04.pddl,TIMEOUT:1801.08:-1.0:1800.0:-1
ipc-2014-optimal-tetris-01-06.pddl,TIMEOUT:1801.08:-1.0:1800.0:-1
ipc-2014-optimal-tetris-01-08.pddl,CRASHED:47.4:1000000000.0:1800.0:-1
ipc-2014-optimal-tetris-02-10.pddl,CRASHED:38.61:1000000000.0:1800.0:-1
ipc-2014-optimal-tetris-02-04.pddl,CRASHED:313.143:10.0:1800.0:-1
ipc-2014-optimal-tetris-02-06.pddl,CRASHED:41.65:1000000000.0:1800.0:-1
ipc-2014-optimal-tetris-02-08.pddl,CRASHED:48.95:1000000000.0:1800.0:-1
ipc-2014-optimal-tetris-03-10.pddl,CRASHED:79.62:1000000000.0:1800.0:-1
ipc-2014-optimal-tetris-03-04.pddl,CRASHED:562.89:11.0:1800.0:-1
ipc-2014-optimal-tetris-03-06.pddl,TIMEOUT:1801.06:-1.0:1800.0:-1
ipc-2014-optimal-tetris-03-08.pddl,CRASHED:60.79:1000000000.0:1800.0:-1
ipc-2014-optimal-tetris-04-10.pddl,CRASHED:65.18:1000000000.0:1800.0:-1
ipc-2014-optimal-tetris-04-04.pddl,TIMEOUT:1801.09:-1.0:1800.0:-1
ipc-2014-optimal-tetris-04-06.pddl,TIMEOUT:1801.03:-1.0:1800.0:-1
ipc-2014-optimal-tetris-04-08.pddl,CRASHED:54.33:1000000000.0:1800.0:-1
ipc-2014-optimal-tetris-05-10.pddl,CRASHED:73.28:1000000000.0:1800.0:-1
ipc-2014-optimal-tetris-05-04.pddl,TIMEOUT:1801.05:-1.0:1800.0:-1
ipc-2014-optimal-tetris-05-06.pddl,TIMEOUT:1801.07:-1.0:1800.0:-1
ipc-2014-optimal-tetris-05-08.pddl,CRASHED:61.65:1000000000.0:1800.0:-1
ipc-2014-optimal-tidybot-01.pddl,TIMEOUT:1801.07:-1.0:1800.0:-1
ipc-2014-optimal-tidybot-02.pddl,TIMEOUT:1801.02:-1.0:1800.0:-1
ipc-2014-optimal-tidybot-03.pddl,TIMEOUT:1801.09:-1.0:1800.0:-1
ipc-2014-optimal-tidybot-04.pddl,TIMEOUT:1801.09:-1.0:1800.0:-1
ipc-2014-optimal-tidybot-05.pddl,TIMEOUT:1801.05:-1.0:1800.0:-1
ipc-2014-optimal-tidybot-06.pddl,TIMEOUT:1801.03:-1.0:1800.0:-1
ipc-2014-optimal-tidybot-07.pddl,TIMEOUT:1801.04:-1.0:1800.0:-1
ipc-2014-optimal-tidybot-08.pddl,TIMEOUT:1801.1:-1.0:1800.0:-1
ipc-2014-optimal-tidybot-09.pddl,TIMEOUT:1801.02:-1.0:1800.0:-1
ipc-2014-optimal-tidybot-10.pddl,TIMEOUT:1801.02:-1.0:1800.0:-1
ipc-2014-optimal-tidybot-11.pddl,TIMEOUT:1801.08:-1.0:1800.0:-1
ipc-2014-optimal-tidybot-12.pddl,TIMEOUT:1801.09:-1.0:1800.0:-1
ipc-2014-optimal-tidybot-13.pddl,TIMEOUT:1801.02:-1.0:1800.0:-1
ipc-2014-optimal-tidybot-14.pddl,TIMEOUT:1801.05:-1.0:1800.0:-1
ipc-2014-optimal-tidybot-15.pddl,TIMEOUT:1801.04:-1.0:1800.0:-1
ipc-2014-optimal-tidybot-16.pddl,TIMEOUT:1801.04:-1.0:1800.0:-1
ipc-2014-optimal-tidybot-17.pddl,TIMEOUT:1801.03:-1.0:1800.0:-1
ipc-2014-optimal-tidybot-18.pddl,TIMEOUT:1801.03:-1.0:1800.0:-1
ipc-2014-optimal-tidybot-19.pddl,TIMEOUT:1801.04:-1.0:1800.0:-1
ipc-2014-optimal-tidybot-20.pddl,TIMEOUT:1801.02:-1.0:1800.0:-1
ipc-2014-optimal-transport-01.pddl,CRASHED:5.62914:148.0:1800.0:-1
ipc-2014-optimal-transport-02.pddl,CRASHED:20.8278:191.0:1800.0:-1
ipc-2014-optimal-transport-03.pddl,CRASHED:36.0345:300.0:1800.0:-1
ipc-2014-optimal-transport-04.pddl,CRASHED:1346.14:250.0:1800.0:-1
ipc-2014-optimal-transport-05.pddl,CRASHED:1.86:1000000000.0:1800.0:-1
ipc-2014-optimal-transport-06.pddl,TIMEOUT:1801.06:-1.0:1800.0:-1
ipc-2014-optimal-transport-07.pddl,CRASHED:39.179:967.0:1800.0:-1
ipc-2014-optimal-transport-08.pddl,TIMEOUT:1801.09:-1.0:1800.0:-1
ipc-2014-optimal-transport-09.pddl,TIMEOUT:1801.06:-1.0:1800.0:-1
ipc-2014-optimal-transport-10.pddl,TIMEOUT:1801.06:-1.0:1800.0:-1
ipc-2014-optimal-transport-11.pddl,TIMEOUT:1801.08:-1.0:1800.0:-1
ipc-2014-optimal-transport-12.pddl,TIMEOUT:1801.04:-1.0:1800.0:-1
ipc-2014-optimal-transport-13.pddl,CRASHED:22.5636:594.0:1800.0:-1
ipc-2014-optimal-transport-14.pddl,CRASHED:113.93:526.0:1800.0:-1
ipc-2014-optimal-transport-15.pddl,TIMEOUT:1801.05:-1.0:1800.0:-1
ipc-2014-optimal-transport-16.pddl,TIMEOUT:1801.04:-1.0:1800.0:-1
ipc-2014-optimal-transport-17.pddl,TIMEOUT:1801.04:-1.0:1800.0:-1
ipc-2014-optimal-transport-18.pddl,CRASHED:4.16:1000000000.0:1800.0:-1
ipc-2014-optimal-transport-19.pddl,TIMEOUT:1801.03:-1.0:1800.0:-1
ipc-2014-optimal-transport-20.pddl,TIMEOUT:1801.07:-1.0:1800.0:-1
ipc-2014-optimal-visitall-05-10.pddl,CRASHED:424.28:1000000000.0:1800.0:-1
ipc-2014-optimal-visitall-05-05.pddl,CRASHED:9.2056:21.0:1800.0:-1
ipc-2014-optimal-visitall-05-06.pddl,CRASHED:13.8269:25.0:1800.0:-1
ipc-2014-optimal-visitall-05-07.pddl,CRASHED:29.4965:34.0:1800.0:-1
ipc-2014-optimal-visitall-05-08.pddl,CRASHED:96.9713:43.0:1800.0:-1
ipc-2014-optimal-visitall-05-09.pddl,CRASHED:563.31:1000000000.0:1800.0:-1
ipc-2014-optimal-visitall-01-10.pddl,CRASHED:398.37:1000000000.0:1800.0:-1
ipc-2014-optimal-visitall-01-11.pddl,CRASHED:478.46:1000000000.0:1800.0:-1
ipc-2014-optimal-visitall-01-12.pddl,CRASHED:483.57:1000000000.0:1800.0:-1
ipc-2014-optimal-visitall-01-13.pddl,CRASHED:741.76:1000000000.0:1800.0:-1
ipc-2014-optimal-visitall-01-14.pddl,CRASHED:818.3:1000000000.0:1800.0:-1
ipc-2014-optimal-visitall-01-15.pddl,CRASHED:1189.76:1000000000.0:1800.0:-1
ipc-2014-optimal-visitall-01-16.pddl,CRASHED:1465.69:1000000000.0:1800.0:-1
ipc-2014-optimal-visitall-01-17.pddl,TIMEOUT:1801.02:-1.0:1800.0:-1
ipc-2014-optimal-visitall-01-18.pddl,TIMEOUT:1801.09:-1.0:1800.0:-1
ipc-2014-optimal-visitall-01-05.pddl,CRASHED:9.56754:24.0:1800.0:-1
ipc-2014-optimal-visitall-01-06.pddl,CRASHED:32.649:35.0:1800.0:-1
ipc-2014-optimal-visitall-01-07.pddl,CRASHED:385.49:1000000000.0:1800.0:-1
ipc-2014-optimal-visitall-01-08.pddl,CRASHED:390.87:1000000000.0:1800.0:-1
ipc-2014-optimal-visitall-01-09.pddl,CRASHED:333.09:1000000000.0:1800.0:-1
