instance,ipc-2014-optimal-symba-1
ipc-2014-optimal-barman-p433.1.pddl,TIMEOUT:1801.15:-1.0:1800.0:-1
ipc-2014-optimal-barman-p433.2.pddl,TIMEOUT:1801.13:-1.0:1800.0:-1
ipc-2014-optimal-barman-p433.3.pddl,TIMEOUT:1801.14:-1.0:1800.0:-1
ipc-2014-optimal-barman-p435.1.pddl,SAT:31.3642:49.0:1800.0:-1
ipc-2014-optimal-barman-p435.2.pddl,CRASHED:46.9099:1000000000.0:1800.0:-1
ipc-2014-optimal-barman-p435.3.pddl,CRASHED:36.5964:49.0:1800.0:-1
ipc-2014-optimal-barman-p443.1.pddl,TIMEOUT:1801.01:-1.0:1800.0:-1
ipc-2014-optimal-barman-p443.2.pddl,TIMEOUT:1801.12:-1.0:1800.0:-1
ipc-2014-optimal-barman-p443.3.pddl,TIMEOUT:1801.09:-1.0:1800.0:-1
ipc-2014-optimal-barman-p536.1.pddl,TIMEOUT:1801.05:-1.0:1800.0:-1
ipc-2014-optimal-barman-p536.2.pddl,TIMEOUT:1801.06:-1.0:1800.0:-1
ipc-2014-optimal-barman-p536.3.pddl,TIMEOUT:1801.08:-1.0:1800.0:-1
ipc-2014-optimal-barman-p638.1.pddl,TIMEOUT:1801.0:-1.0:1800.0:-1
ipc-2014-optimal-barman-p638.2.pddl,TIMEOUT:1801.08:-1.0:1800.0:-1
ipc-2014-optimal-barman-p638.3.pddl,CRASHED:32.0751:1000000000.0:1800.0:-1
ipc-2014-optimal-barman-p739.1.pddl,CRASHED:24.3113:1000000000.0:1800.0:-1
ipc-2014-optimal-barman-p739.2.pddl,CRASHED:38.4452:1000000000.0:1800.0:-1
ipc-2014-optimal-barman-p739.3.pddl,TIMEOUT:1801.01:-1.0:1800.0:-1
ipc-2014-optimal-barman-p839.1.pddl,TIMEOUT:1801.05:-1.0:1800.0:-1
ipc-2014-optimal-barman-p839.2.pddl,TIMEOUT:1801.02:-1.0:1800.0:-1
ipc-2014-optimal-cavediving-01.pddl,TIMEOUT:1801.11:-1.0:1800.0:-1
ipc-2014-optimal-cavediving-01_easy.pddl,TIMEOUT:1801.1:-1.0:1800.0:-1
ipc-2014-optimal-cavediving-02_easy.pddl,TIMEOUT:1801.1:-1.0:1800.0:-1
ipc-2014-optimal-cavediving-03_easy.pddl,TIMEOUT:1801.14:-1.0:1800.0:-1
ipc-2014-optimal-cavediving-04_easy.pddl,TIMEOUT:1801.11:-1.0:1800.0:-1
ipc-2014-optimal-cavediving-05A_easy.pddl,TIMEOUT:1801.09:-1.0:1800.0:-1
ipc-2014-optimal-cavediving-06A_easy.pddl,TIMEOUT:1801.1:-1.0:1800.0:-1
ipc-2014-optimal-cavediving-07_easy.pddl,SAT:4.42033:131.0:1800.0:-1
ipc-2014-optimal-cavediving-08_easy.pddl,TIMEOUT:1801.14:-1.0:1800.0:-1
ipc-2014-optimal-cavediving-09_easy.pddl,TIMEOUT:1801.09:-1.0:1800.0:-1
ipc-2014-optimal-cavediving-10_easy.pddl,TIMEOUT:1801.14:-1.0:1800.0:-1
ipc-2014-optimal-cavediving-11_easy.pddl,TIMEOUT:1801.17:-1.0:1800.0:-1
ipc-2014-optimal-cavediving-12_easy.pddl,TIMEOUT:1801.09:-1.0:1800.0:-1
ipc-2014-optimal-cavediving-13_easy.pddl,TIMEOUT:1801.15:-1.0:1800.0:-1
ipc-2014-optimal-cavediving-14_easy.pddl,TIMEOUT:1801.09:-1.0:1800.0:-1
ipc-2014-optimal-cavediving-15_easy.pddl,TIMEOUT:1801.07:-1.0:1800.0:-1
ipc-2014-optimal-cavediving-16_easy.pddl,TIMEOUT:1801.09:-1.0:1800.0:-1
ipc-2014-optimal-cavediving-18A_easy.pddl,SAT:4.98224:131.0:1800.0:-1
ipc-2014-optimal-cavediving-18_easy.pddl,SAT:10.8903:131.0:1800.0:-1
ipc-2014-optimal-cavediving-20A_easy.pddl,TIMEOUT:1801.11:-1.0:1800.0:-1
ipc-2014-optimal-childsnack-01-2.pddl,TIMEOUT:1801.0:-1.0:1800.0:-1
ipc-2014-optimal-childsnack-01.pddl,TIMEOUT:1801.05:-1.0:1800.0:-1
ipc-2014-optimal-childsnack-02-2.pddl,TIMEOUT:1801.09:-1.0:1800.0:-1
ipc-2014-optimal-childsnack-02.pddl,TIMEOUT:1801.07:-1.0:1800.0:-1
ipc-2014-optimal-childsnack-03-2.pddl,TIMEOUT:1801.01:-1.0:1800.0:-1
ipc-2014-optimal-childsnack-03.pddl,TIMEOUT:1801.02:-1.0:1800.0:-1
ipc-2014-optimal-childsnack-04-2.pddl,TIMEOUT:1801.08:-1.0:1800.0:-1
ipc-2014-optimal-childsnack-04.pddl,CRASHED:83.1304:1000000000.0:1800.0:-1
ipc-2014-optimal-childsnack-05-2.pddl,CRASHED:18.1732:1000000000.0:1800.0:-1
ipc-2014-optimal-childsnack-05.pddl,TIMEOUT:1801.03:-1.0:1800.0:-1
ipc-2014-optimal-childsnack-06-2.pddl,CRASHED:85.0601:1000000000.0:1800.0:-1
ipc-2014-optimal-childsnack-06.pddl,TIMEOUT:1801.05:-1.0:1800.0:-1
ipc-2014-optimal-childsnack-07-2.pddl,CRASHED:76.3954:1000000000.0:1800.0:-1
ipc-2014-optimal-childsnack-07.pddl,TIMEOUT:1801.07:-1.0:1800.0:-1
ipc-2014-optimal-childsnack-08-2.pddl,TIMEOUT:1801.05:-1.0:1800.0:-1
ipc-2014-optimal-childsnack-08.pddl,TIMEOUT:1801.05:-1.0:1800.0:-1
ipc-2014-optimal-childsnack-09-2.pddl,CRASHED:10.3524:1000000000.0:1800.0:-1
ipc-2014-optimal-childsnack-09.pddl,CRASHED:10.9263:1000000000.0:1800.0:-1
ipc-2014-optimal-childsnack-10-2.pddl,TIMEOUT:1801.0:-1.0:1800.0:-1
ipc-2014-optimal-childsnack-10.pddl,TIMEOUT:1801.01:-1.0:1800.0:-1
ipc-2014-optimal-citycar-p2-2-2-1-2.pddl,SAT:2.74158:46.0:1800.0:-1
ipc-2014-optimal-citycar-p2-2-2-2-1.pddl,SAT:3.01754:64.0:1800.0:-1
ipc-2014-optimal-citycar-p2-2-3-1-2.pddl,SAT:5.2522:50.0:1800.0:-1
ipc-2014-optimal-citycar-p2-2-3-2-1.pddl,SAT:4.52031:48.0:1800.0:-1
ipc-2014-optimal-citycar-p2-2-3-2-2.pddl,SAT:4.6133:50.0:1800.0:-1
ipc-2014-optimal-citycar-p2-2-4-1-2.pddl,SAT:11.9212:52.0:1800.0:-1
ipc-2014-optimal-citycar-p2-2-4-2-1.pddl,SAT:10.1625:52.0:1800.0:-1
ipc-2014-optimal-citycar-p2-2-5-2-2.pddl,SAT:170.017:76.0:1800.0:-1
ipc-2014-optimal-citycar-p2-2-6-1-1.pddl,CRASHED:71.0332:1000000000.0:1800.0:-1
ipc-2014-optimal-citycar-p2-2-6-2-2.pddl,SAT:156.621:58.0:1800.0:-1
ipc-2014-optimal-citycar-p2-3-2-3-1.pddl,SAT:9.69353:68.0:1800.0:-1
ipc-2014-optimal-citycar-p2-3-3-3-1.pddl,SAT:48.1567:78.0:1800.0:-1
ipc-2014-optimal-citycar-p2-3-4-3-1.pddl,TIMEOUT:1801.02:-1.0:1800.0:-1
ipc-2014-optimal-citycar-p2-3-6-3-2.pddl,CRASHED:219.787:1000000000.0:1800.0:-1
ipc-2014-optimal-citycar-p3-3-2-2-1.pddl,CRASHED:110.072:70.0:1800.0:-1
ipc-2014-optimal-citycar-p3-3-2-2-2.pddl,TIMEOUT:1801.06:-1.0:1800.0:-1
ipc-2014-optimal-citycar-p3-3-2-3-1.pddl,SAT:51.1942:48.0:1800.0:-1
ipc-2014-optimal-citycar-p3-3-2-3-2.pddl,SAT:110.7:70.0:1800.0:-1
ipc-2014-optimal-citycar-p3-3-3-3-1.pddl,TIMEOUT:1801.08:-1.0:1800.0:-1
ipc-2014-optimal-citycar-p3-3-3-3-2.pddl,TIMEOUT:1801.1:-1.0:1800.0:-1
ipc-2014-optimal-floortile-p01-4-3-2.pddl,SAT:1.91271:56.0:1800.0:-1
ipc-2014-optimal-floortile-p01-4-4-2.pddl,SAT:5.63214:68.0:1800.0:-1
ipc-2014-optimal-floortile-p01-5-3-2.pddl,SAT:2.41163:63.0:1800.0:-1
ipc-2014-optimal-floortile-p01-5-4-2.pddl,SAT:10.9843:91.0:1800.0:-1
ipc-2014-optimal-floortile-p01-5-5-2.pddl,SAT:61.0347:111.0:1800.0:-1
ipc-2014-optimal-floortile-p01-6-4-2.pddl,SAT:23.6904:104.0:1800.0:-1
ipc-2014-optimal-floortile-p01-6-5-2.pddl,TIMEOUT:1801.0:-1.0:1800.0:-1
ipc-2014-optimal-floortile-p02-4-4-2.pddl,SAT:6.11907:75.0:1800.0:-1
ipc-2014-optimal-floortile-p02-5-3-2.pddl,SAT:2.47062:65.0:1800.0:-1
ipc-2014-optimal-floortile-p02-5-4-2.pddl,SAT:13.248:98.0:1800.0:-1
ipc-2014-optimal-floortile-p02-5-5-2.pddl,SAT:66.038:106.0:1800.0:-1
ipc-2014-optimal-floortile-p02-6-4-2.pddl,SAT:27.1959:109.0:1800.0:-1
ipc-2014-optimal-floortile-p02-6-5-2.pddl,TIMEOUT:1801.08:-1.0:1800.0:-1
ipc-2014-optimal-floortile-p03-4-3-2.pddl,SAT:1.74373:56.0:1800.0:-1
ipc-2014-optimal-floortile-p03-4-4-2.pddl,SAT:6.41502:72.0:1800.0:-1
ipc-2014-optimal-floortile-p03-5-3-2.pddl,SAT:2.5956:65.0:1800.0:-1
ipc-2014-optimal-floortile-p03-5-4-2.pddl,SAT:11.9952:83.0:1800.0:-1
ipc-2014-optimal-floortile-p03-5-5-2.pddl,SAT:63.3354:100.0:1800.0:-1
ipc-2014-optimal-floortile-p03-6-4-2.pddl,SAT:31.0683:116.0:1800.0:-1
ipc-2014-optimal-floortile-p03-6-5-2.pddl,CRASHED:144.642:1000000000.0:1800.0:-1
ipc-2014-optimal-ged-d-1-2.pddl,SAT:1.01084:1.0:1800.0:-1
ipc-2014-optimal-ged-d-1-3.pddl,SAT:2.72958:4.0:1800.0:-1
ipc-2014-optimal-ged-d-1-4.pddl,SAT:0.996847:1.0:1800.0:-1
ipc-2014-optimal-ged-d-1-8.pddl,SAT:5.06023:4.0:1800.0:-1
ipc-2014-optimal-ged-d-2-1.pddl,SAT:0.935856:1.0:1800.0:-1
ipc-2014-optimal-ged-d-2-3.pddl,SAT:1.42078:3.0:1800.0:-1
ipc-2014-optimal-ged-d-2-4.pddl,SAT:1.08783:2.0:1800.0:-1
ipc-2014-optimal-ged-d-2-8.pddl,TIMEOUT:1801.06:-1.0:1800.0:-1
ipc-2014-optimal-ged-d-3-1.pddl,SAT:2.80857:4.0:1800.0:-1
ipc-2014-optimal-ged-d-3-2.pddl,SAT:1.40879:3.0:1800.0:-1
ipc-2014-optimal-ged-d-3-4.pddl,SAT:12.0152:5.0:1800.0:-1
ipc-2014-optimal-ged-d-4-2.pddl,SAT:1.14982:2.0:1800.0:-1
ipc-2014-optimal-ged-d-4-3.pddl,SAT:12.2151:5.0:1800.0:-1
ipc-2014-optimal-ged-d-4-8.pddl,TIMEOUT:1801.03:-1.0:1800.0:-1
ipc-2014-optimal-ged-d-7-5.pddl,SAT:4.6043:4.0:1800.0:-1
ipc-2014-optimal-ged-d-7-6.pddl,SAT:3.34249:4.0:1800.0:-1
ipc-2014-optimal-ged-d-8-1.pddl,SAT:4.93925:4.0:1800.0:-1
ipc-2014-optimal-ged-d-8-2.pddl,TIMEOUT:1801.06:-1.0:1800.0:-1
ipc-2014-optimal-ged-d-8-4.pddl,CRASHED:61.0677:1000000000.0:1800.0:-1
ipc-2014-optimal-ged-d-8-9.pddl,TIMEOUT:1801.1:-1.0:1800.0:-1
ipc-2014-optimal-hiking-1-2-3.pddl,SAT:0.629904:11.0:1800.0:-1
ipc-2014-optimal-hiking-1-2-4.pddl,SAT:0.708892:17.0:1800.0:-1
ipc-2014-optimal-hiking-1-2-5.pddl,SAT:0.830873:25.0:1800.0:-1
ipc-2014-optimal-hiking-1-2-7.pddl,SAT:1.42978:38.0:1800.0:-1
ipc-2014-optimal-hiking-1-2-8.pddl,SAT:1.74573:45.0:1800.0:-1
ipc-2014-optimal-hiking-2-2-3.pddl,SAT:1.18682:10.0:1800.0:-1
ipc-2014-optimal-hiking-2-2-4.pddl,SAT:2.58561:16.0:1800.0:-1
ipc-2014-optimal-hiking-2-2-5.pddl,SAT:17.5563:22.0:1800.0:-1
ipc-2014-optimal-hiking-2-2-6.pddl,SAT:113.378:30.0:1800.0:-1
ipc-2014-optimal-hiking-2-2-7.pddl,TIMEOUT:1801.08:-1.0:1800.0:-1
ipc-2014-optimal-hiking-2-2-8.pddl,TIMEOUT:1801.09:-1.0:1800.0:-1
ipc-2014-optimal-hiking-2-3-4.pddl,SAT:6.76897:17.0:1800.0:-1
ipc-2014-optimal-hiking-2-3-5.pddl,SAT:113.045:24.0:1800.0:-1
ipc-2014-optimal-hiking-2-3-6.pddl,TIMEOUT:1801.0:-1.0:1800.0:-1
ipc-2014-optimal-hiking-2-3-7.pddl,TIMEOUT:1801.06:-1.0:1800.0:-1
ipc-2014-optimal-hiking-2-4-3.pddl,SAT:1.80872:10.0:1800.0:-1
ipc-2014-optimal-hiking-2-4-4.pddl,SAT:7.71083:17.0:1800.0:-1
ipc-2014-optimal-hiking-2-4-5.pddl,CRASHED:148.026:23.0:1800.0:-1
ipc-2014-optimal-hiking-2-4-6.pddl,TIMEOUT:1801.01:-1.0:1800.0:-1
ipc-2014-optimal-hiking-2-4-7.pddl,CRASHED:73.9388:1000000000.0:1800.0:-1
ipc-2014-optimal-maintenance-1.3.010.010.1-001.pddl,TIMEOUT:1801.09:-1.0:1800.0:-1
ipc-2014-optimal-maintenance-1.3.010.010.1-002.pddl,TIMEOUT:1801.16:-1.0:1800.0:-1
ipc-2014-optimal-maintenance-1.3.010.010.2-000.pddl,SAT:0.794878:4.0:1800.0:-1
ipc-2014-optimal-maintenance-1.3.010.010.2-001.pddl,TIMEOUT:1801.1:-1.0:1800.0:-1
ipc-2014-optimal-maintenance-1.3.010.010.2-002.pddl,SAT:0.868866:6.0:1800.0:-1
ipc-2014-optimal-maintenance-1.3.015.020.1-000.pddl,TIMEOUT:1801.16:-1.0:1800.0:-1
ipc-2014-optimal-maintenance-1.3.015.020.1-001.pddl,TIMEOUT:1801.07:-1.0:1800.0:-1
ipc-2014-optimal-maintenance-1.3.015.020.1-002.pddl,TIMEOUT:1801.13:-1.0:1800.0:-1
ipc-2014-optimal-maintenance-1.3.015.020.2-000.pddl,CRASHED:1.46078:1000000000.0:1800.0:-1
ipc-2014-optimal-maintenance-1.3.015.020.2-001.pddl,SAT:1.24381:11.0:1800.0:-1
ipc-2014-optimal-maintenance-1.3.015.020.2-002.pddl,SAT:1.14682:9.0:1800.0:-1
ipc-2014-optimal-maintenance-1.3.025.050.1-000.pddl,TIMEOUT:1801.14:-1.0:1800.0:-1
ipc-2014-optimal-maintenance-1.3.025.050.1-001.pddl,TIMEOUT:1801.08:-1.0:1800.0:-1
ipc-2014-optimal-maintenance-1.3.025.050.1-002.pddl,TIMEOUT:1801.15:-1.0:1800.0:-1
ipc-2014-optimal-maintenance-1.3.025.100.1-000.pddl,TIMEOUT:1801.09:-1.0:1800.0:-1
ipc-2014-optimal-maintenance-1.3.025.100.1-001.pddl,TIMEOUT:1801.18:-1.0:1800.0:-1
ipc-2014-optimal-maintenance-1.3.025.100.1-002.pddl,TIMEOUT:1801.13:-1.0:1800.0:-1
ipc-2014-optimal-maintenance-1.3.025.100.2-000.pddl,TIMEOUT:1801.06:-1.0:1800.0:-1
ipc-2014-optimal-maintenance-1.3.025.100.2-001.pddl,TIMEOUT:1801.12:-1.0:1800.0:-1
ipc-2014-optimal-maintenance-1.3.025.100.2-002.pddl,TIMEOUT:1801.06:-1.0:1800.0:-1
ipc-2014-optimal-openstacks-p20_1.pddl,SAT:2.48662:3.0:1800.0:-1
ipc-2014-optimal-openstacks-p20_2.pddl,SAT:2.66459:4.0:1800.0:-1
ipc-2014-optimal-openstacks-p20_3.pddl,SAT:2.70459:6.0:1800.0:-1
ipc-2014-optimal-openstacks-p25_1.pddl,SAT:4.95325:4.0:1800.0:-1
ipc-2014-optimal-openstacks-p25_3.pddl,SAT:6.06808:9.0:1800.0:-1
ipc-2014-optimal-openstacks-p30_1.pddl,SAT:7.2629:4.0:1800.0:-1
ipc-2014-optimal-openstacks-p30_2.pddl,SAT:8.37373:4.0:1800.0:-1
ipc-2014-optimal-openstacks-p30_3.pddl,SAT:16.8144:12.0:1800.0:-1
ipc-2014-optimal-openstacks-p35_1.pddl,SAT:10.7914:4.0:1800.0:-1
ipc-2014-optimal-openstacks-p35_2.pddl,SAT:14.0699:5.0:1800.0:-1
ipc-2014-optimal-openstacks-p35_3.pddl,CRASHED:66.3349:14.0:1800.0:-1
ipc-2014-optimal-openstacks-p40_1.pddl,SAT:18.0623:3.0:1800.0:-1
ipc-2014-optimal-openstacks-p40_2.pddl,SAT:19.1231:4.0:1800.0:-1
ipc-2014-optimal-openstacks-p40_3.pddl,CRASHED:109.775:15.0:1800.0:-1
ipc-2014-optimal-openstacks-p45_1.pddl,SAT:24.5533:4.0:1800.0:-1
ipc-2014-optimal-openstacks-p45_2.pddl,SAT:36.4565:5.0:1800.0:-1
ipc-2014-optimal-openstacks-p45_3.pddl,TIMEOUT:1801.0:-1.0:1800.0:-1
ipc-2014-optimal-openstacks-p50_1.pddl,SAT:46.326:4.0:1800.0:-1
ipc-2014-optimal-openstacks-p50_2.pddl,CRASHED:65.916:5.0:1800.0:-1
ipc-2014-optimal-openstacks-p50_3.pddl,TIMEOUT:1801.03:-1.0:1800.0:-1
ipc-2014-optimal-parking-12_7-01.pddl,CRASHED:178.404:1000000000.0:1800.0:-1
ipc-2014-optimal-parking-12_7-02.pddl,TIMEOUT:1801.09:-1.0:1800.0:-1
ipc-2014-optimal-parking-12_7-03.pddl,CRASHED:183.115:1000000000.0:1800.0:-1
ipc-2014-optimal-parking-12_7-04.pddl,TIMEOUT:1801.01:-1.0:1800.0:-1
ipc-2014-optimal-parking-14_8-01.pddl,TIMEOUT:1801.06:-1.0:1800.0:-1
ipc-2014-optimal-parking-14_8-02.pddl,CRASHED:337.997:1000000000.0:1800.0:-1
ipc-2014-optimal-parking-14_8-03.pddl,TIMEOUT:1801.04:-1.0:1800.0:-1
ipc-2014-optimal-parking-14_8-04.pddl,CRASHED:271.98:1000000000.0:1800.0:-1
ipc-2014-optimal-parking-16_9-01.pddl,TIMEOUT:1801.05:-1.0:1800.0:-1
ipc-2014-optimal-parking-16_9-02.pddl,TIMEOUT:1801.08:-1.0:1800.0:-1
ipc-2014-optimal-parking-16_9-03.pddl,TIMEOUT:1801.02:-1.0:1800.0:-1
ipc-2014-optimal-parking-16_9-04.pddl,CRASHED:611.12:1000000000.0:1800.0:-1
ipc-2014-optimal-parking-18_10-01.pddl,TIMEOUT:1801.07:-1.0:1800.0:-1
ipc-2014-optimal-parking-18_10-02.pddl,CRASHED:641.265:1000000000.0:1800.0:-1
ipc-2014-optimal-parking-18_10-03.pddl,CRASHED:490.484:1000000000.0:1800.0:-1
ipc-2014-optimal-parking-18_10-04.pddl,TIMEOUT:1801.02:-1.0:1800.0:-1
ipc-2014-optimal-parking-20_11-01.pddl,TIMEOUT:1801.07:-1.0:1800.0:-1
ipc-2014-optimal-parking-20_11-02.pddl,TIMEOUT:1801.01:-1.0:1800.0:-1
ipc-2014-optimal-parking-20_11-03.pddl,CRASHED:590.819:1000000000.0:1800.0:-1
ipc-2014-optimal-parking-20_11-04.pddl,TIMEOUT:1801.04:-1.0:1800.0:-1
ipc-2014-optimal-tetris-01-10.pddl,CRASHED:86.2179:1000000000.0:1800.0:-1
ipc-2014-optimal-tetris-01-04.pddl,CRASHED:8.78866:1000000000.0:1800.0:-1
ipc-2014-optimal-tetris-01-06.pddl,TIMEOUT:1801.04:-1.0:1800.0:-1
ipc-2014-optimal-tetris-01-08.pddl,SAT:22.8195:36.0:1800.0:-1
ipc-2014-optimal-tetris-02-10.pddl,CRASHED:101.756:1000000000.0:1800.0:-1
ipc-2014-optimal-tetris-02-04.pddl,SAT:3.84342:10.0:1800.0:-1
ipc-2014-optimal-tetris-02-06.pddl,SAT:33.6809:30.0:1800.0:-1
ipc-2014-optimal-tetris-02-08.pddl,TIMEOUT:1801.08:-1.0:1800.0:-1
ipc-2014-optimal-tetris-03-10.pddl,TIMEOUT:1801.1:-1.0:1800.0:-1
ipc-2014-optimal-tetris-03-04.pddl,SAT:3.00054:11.0:1800.0:-1
ipc-2014-optimal-tetris-03-06.pddl,CRASHED:62.4925:1000000000.0:1800.0:-1
ipc-2014-optimal-tetris-03-08.pddl,CRASHED:180.137:48.0:1800.0:-1
ipc-2014-optimal-tetris-04-10.pddl,CRASHED:183.95:1000000000.0:1800.0:-1
ipc-2014-optimal-tetris-04-04.pddl,CRASHED:5.99909:1000000000.0:1800.0:-1
ipc-2014-optimal-tetris-04-06.pddl,CRASHED:82.4685:1000000000.0:1800.0:-1
ipc-2014-optimal-tetris-04-08.pddl,TIMEOUT:1801.04:-1.0:1800.0:-1
ipc-2014-optimal-tetris-05-10.pddl,CRASHED:184.046:1000000000.0:1800.0:-1
ipc-2014-optimal-tetris-05-04.pddl,CRASHED:6.15406:1000000000.0:1800.0:-1
ipc-2014-optimal-tetris-05-06.pddl,SAT:12.4491:19.0:1800.0:-1
ipc-2014-optimal-tetris-05-08.pddl,TIMEOUT:1801.06:-1.0:1800.0:-1
ipc-2014-optimal-tidybot-01.pddl,TIMEOUT:1801.06:-1.0:1800.0:-1
ipc-2014-optimal-tidybot-02.pddl,TIMEOUT:1801.09:-1.0:1800.0:-1
ipc-2014-optimal-tidybot-03.pddl,SAT:131.743:30.0:1800.0:-1
ipc-2014-optimal-tidybot-04.pddl,TIMEOUT:1801.05:-1.0:1800.0:-1
ipc-2014-optimal-tidybot-05.pddl,TIMEOUT:1801.07:-1.0:1800.0:-1
ipc-2014-optimal-tidybot-06.pddl,TIMEOUT:1801.02:-1.0:1800.0:-1
ipc-2014-optimal-tidybot-07.pddl,CRASHED:229.683:1000000000.0:1800.0:-1
ipc-2014-optimal-tidybot-08.pddl,TIMEOUT:1801.1:-1.0:1800.0:-1
ipc-2014-optimal-tidybot-09.pddl,TIMEOUT:1801.05:-1.0:1800.0:-1
ipc-2014-optimal-tidybot-10.pddl,TIMEOUT:1801.1:-1.0:1800.0:-1
ipc-2014-optimal-tidybot-11.pddl,CRASHED:122.725:1000000000.0:1800.0:-1
ipc-2014-optimal-tidybot-12.pddl,TIMEOUT:1801.01:-1.0:1800.0:-1
ipc-2014-optimal-tidybot-13.pddl,TIMEOUT:1801.07:-1.0:1800.0:-1
ipc-2014-optimal-tidybot-14.pddl,CRASHED:167.607:1000000000.0:1800.0:-1
ipc-2014-optimal-tidybot-15.pddl,TIMEOUT:1801.06:-1.0:1800.0:-1
ipc-2014-optimal-tidybot-16.pddl,TIMEOUT:1801.01:-1.0:1800.0:-1
ipc-2014-optimal-tidybot-17.pddl,SAT:208.321:40.0:1800.0:-1
ipc-2014-optimal-tidybot-18.pddl,TIMEOUT:1801.07:-1.0:1800.0:-1
ipc-2014-optimal-tidybot-19.pddl,CRASHED:208.542:1000000000.0:1800.0:-1
ipc-2014-optimal-tidybot-20.pddl,SAT:153.641:46.0:1800.0:-1
ipc-2014-optimal-transport-01.pddl,SAT:1.3038:148.0:1800.0:-1
ipc-2014-optimal-transport-02.pddl,SAT:10.3974:191.0:1800.0:-1
ipc-2014-optimal-transport-03.pddl,SAT:23.6794:300.0:1800.0:-1
ipc-2014-optimal-transport-04.pddl,CRASHED:543.486:250.0:1800.0:-1
ipc-2014-optimal-transport-05.pddl,CRASHED:466.518:1000000000.0:1800.0:-1
ipc-2014-optimal-transport-06.pddl,CRASHED:553.514:1000000000.0:1800.0:-1
ipc-2014-optimal-transport-07.pddl,SAT:29.4925:967.0:1800.0:-1
ipc-2014-optimal-transport-08.pddl,CRASHED:1787.19:1173.0:1800.0:-1
ipc-2014-optimal-transport-09.pddl,CRASHED:902.541:1000000000.0:1800.0:-1
ipc-2014-optimal-transport-10.pddl,TIMEOUT:1801.03:-1.0:1800.0:-1
ipc-2014-optimal-transport-11.pddl,TIMEOUT:1801.05:-1.0:1800.0:-1
ipc-2014-optimal-transport-12.pddl,TIMEOUT:1801.05:-1.0:1800.0:-1
ipc-2014-optimal-transport-13.pddl,SAT:8.97963:594.0:1800.0:-1
ipc-2014-optimal-transport-14.pddl,SAT:173.561:526.0:1800.0:-1
ipc-2014-optimal-transport-15.pddl,TIMEOUT:1801.08:-1.0:1800.0:-1
ipc-2014-optimal-transport-16.pddl,TIMEOUT:1801.04:-1.0:1800.0:-1
ipc-2014-optimal-transport-17.pddl,TIMEOUT:1801.03:-1.0:1800.0:-1
ipc-2014-optimal-transport-18.pddl,TIMEOUT:1801.08:-1.0:1800.0:-1
ipc-2014-optimal-transport-19.pddl,CRASHED:1027.13:1000000000.0:1800.0:-1
ipc-2014-optimal-transport-20.pddl,CRASHED:989.258:1000000000.0:1800.0:-1
ipc-2014-optimal-visitall-05-10.pddl,TIMEOUT:1801.07:-1.0:1800.0:-1
ipc-2014-optimal-visitall-05-05.pddl,SAT:1.10683:21.0:1800.0:-1
ipc-2014-optimal-visitall-05-06.pddl,SAT:1.47378:25.0:1800.0:-1
ipc-2014-optimal-visitall-05-07.pddl,SAT:4.46732:34.0:1800.0:-1
ipc-2014-optimal-visitall-05-08.pddl,CRASHED:40.3199:43.0:1800.0:-1
ipc-2014-optimal-visitall-05-09.pddl,CRASHED:41.5117:1000000000.0:1800.0:-1
ipc-2014-optimal-visitall-01-10.pddl,CRASHED:72.8359:1000000000.0:1800.0:-1
ipc-2014-optimal-visitall-01-11.pddl,TIMEOUT:1801.09:-1.0:1800.0:-1
ipc-2014-optimal-visitall-01-12.pddl,TIMEOUT:1801.04:-1.0:1800.0:-1
ipc-2014-optimal-visitall-01-13.pddl,TIMEOUT:1801.12:-1.0:1800.0:-1
ipc-2014-optimal-visitall-01-14.pddl,CRASHED:75.9125:1000000000.0:1800.0:-1
ipc-2014-optimal-visitall-01-15.pddl,TIMEOUT:1801.04:-1.0:1800.0:-1
ipc-2014-optimal-visitall-01-16.pddl,TIMEOUT:1801.03:-1.0:1800.0:-1
ipc-2014-optimal-visitall-01-17.pddl,TIMEOUT:1801.06:-1.0:1800.0:-1
ipc-2014-optimal-visitall-01-18.pddl,TIMEOUT:1801.02:-1.0:1800.0:-1
ipc-2014-optimal-visitall-01-05.pddl,SAT:2.35864:24.0:1800.0:-1
ipc-2014-optimal-visitall-01-06.pddl,CRASHED:22.6816:1000000000.0:1800.0:-1
ipc-2014-optimal-visitall-01-07.pddl,TIMEOUT:1801.07:-1.0:1800.0:-1
ipc-2014-optimal-visitall-01-08.pddl,TIMEOUT:1801.08:-1.0:1800.0:-1
ipc-2014-optimal-visitall-01-09.pddl,TIMEOUT:1801.08:-1.0:1800.0:-1
