instance,ipc-2014-agile-cedalion
ipc-2014-agile-barman-p1-11-4-15.pddl,SAT:2.85256:344.0:300.0:-1
ipc-2014-agile-barman-p1-11-5-15.pddl,SAT:3.03654:329.0:300.0:-1
ipc-2014-agile-barman-p1-11-5-16.pddl,SAT:3.14052:441.0:300.0:-1
ipc-2014-agile-barman-p2-10-4-13.pddl,SAT:2.6346:317.0:300.0:-1
ipc-2014-agile-barman-p2-11-4-15.pddl,SAT:2.93155:400.0:300.0:-1
ipc-2014-agile-barman-p2-11-5-15.pddl,SAT:3.02854:417.0:300.0:-1
ipc-2014-agile-barman-p2-11-5-16.pddl,SAT:3.00654:446.0:300.0:-1
ipc-2014-agile-barman-p2-11-5-17.pddl,SAT:3.23851:392.0:300.0:-1
ipc-2014-agile-barman-p3-10-4-13.pddl,SAT:2.6506:289.0:300.0:-1
ipc-2014-agile-barman-p3-11-4-15.pddl,SAT:2.92055:369.0:300.0:-1
ipc-2014-agile-barman-p3-11-5-15.pddl,SAT:3.00754:336.0:300.0:-1
ipc-2014-agile-barman-p3-11-5-16.pddl,SAT:3.10153:435.0:300.0:-1
ipc-2014-agile-barman-p3-11-5-17.pddl,SAT:3.23351:429.0:300.0:-1
ipc-2014-agile-barman-p4-11-4-14.pddl,SAT:2.6556:337.0:300.0:-1
ipc-2014-agile-barman-p4-11-4-15.pddl,SAT:2.88456:349.0:300.0:-1
ipc-2014-agile-barman-p4-11-5-15.pddl,SAT:2.96055:379.0:300.0:-1
ipc-2014-agile-barman-p5-10-4-13.pddl,SAT:2.57361:293.0:300.0:-1
ipc-2014-agile-barman-p5-11-4-15.pddl,SAT:2.85956:378.0:300.0:-1
ipc-2014-agile-barman-p5-11-5-15.pddl,SAT:3.03154:359.0:300.0:-1
ipc-2014-agile-barman-p5-11-5-16.pddl,SAT:3.20851:410.0:300.0:-1
ipc-2014-agile-cavediving-01_easy.pddl,TIMEOUT:300.404:-1.0:300.0:-1
ipc-2014-agile-cavediving-01.pddl,TIMEOUT:300.614:-1.0:300.0:-1
ipc-2014-agile-cavediving-02_easy.pddl,TIMEOUT:301.032:-1.0:300.0:-1
ipc-2014-agile-cavediving-03_easy.pddl,TIMEOUT:301.07:-1.0:300.0:-1
ipc-2014-agile-cavediving-04_easy.pddl,TIMEOUT:300.644:-1.0:300.0:-1
ipc-2014-agile-cavediving-05A_easy.pddl,SAT:35.2586:94.0:300.0:-1
ipc-2014-agile-cavediving-06A_easy.pddl,SAT:35.3346:95.0:300.0:-1
ipc-2014-agile-cavediving-07_easy.pddl,SAT:56.0415:131.0:300.0:-1
ipc-2014-agile-cavediving-08_easy.pddl,SAT:35.6056:90.0:300.0:-1
ipc-2014-agile-cavediving-09_easy.pddl,TIMEOUT:300.6:-1.0:300.0:-1
ipc-2014-agile-cavediving-10_easy.pddl,TIMEOUT:300.645:-1.0:300.0:-1
ipc-2014-agile-cavediving-11_easy.pddl,TIMEOUT:300.719:-1.0:300.0:-1
ipc-2014-agile-cavediving-12_easy.pddl,TIMEOUT:300.518:-1.0:300.0:-1
ipc-2014-agile-cavediving-13_easy.pddl,TIMEOUT:300.615:-1.0:300.0:-1
ipc-2014-agile-cavediving-14_easy.pddl,TIMEOUT:300.837:-1.0:300.0:-1
ipc-2014-agile-cavediving-15_easy.pddl,TIMEOUT:300.646:-1.0:300.0:-1
ipc-2014-agile-cavediving-16_easy.pddl,TIMEOUT:300.873:-1.0:300.0:-1
ipc-2014-agile-cavediving-18A_easy.pddl,SAT:88.8375:131.0:300.0:-1
ipc-2014-agile-cavediving-18_easy.pddl,SAT:102.86:131.0:300.0:-1
ipc-2014-agile-cavediving-20A_easy.pddl,SAT:72.9339:98.0:300.0:-1
ipc-2014-agile-childsnack-05-2.pddl,CRASHED:218.11:1000000000.0:300.0:-1
ipc-2014-agile-childsnack-05.pddl,CRASHED:217.16:1000000000.0:300.0:-1
ipc-2014-agile-childsnack-06-2.pddl,CRASHED:214.08:1000000000.0:300.0:-1
ipc-2014-agile-childsnack-07-2.pddl,CRASHED:212.9:1000000000.0:300.0:-1
ipc-2014-agile-childsnack-08-2.pddl,CRASHED:212.98:1000000000.0:300.0:-1
ipc-2014-agile-childsnack-08.pddl,CRASHED:212.27:1000000000.0:300.0:-1
ipc-2014-agile-childsnack-09-2.pddl,CRASHED:212.34:1000000000.0:300.0:-1
ipc-2014-agile-childsnack-09.pddl,CRASHED:212.0:1000000000.0:300.0:-1
ipc-2014-agile-childsnack-10-2.pddl,CRASHED:211.54:1000000000.0:300.0:-1
ipc-2014-agile-childsnack-10.pddl,CRASHED:212.89:1000000000.0:300.0:-1
ipc-2014-agile-childsnack-11-2.pddl,CRASHED:211.31:1000000000.0:300.0:-1
ipc-2014-agile-childsnack-11.pddl,CRASHED:209.61:1000000000.0:300.0:-1
ipc-2014-agile-childsnack-12.pddl,CRASHED:209.79:1000000000.0:300.0:-1
ipc-2014-agile-childsnack-13-2.pddl,CRASHED:209.87:1000000000.0:300.0:-1
ipc-2014-agile-childsnack-13.pddl,CRASHED:217.67:1000000000.0:300.0:-1
ipc-2014-agile-childsnack-14.pddl,CRASHED:225.6:1000000000.0:300.0:-1
ipc-2014-agile-childsnack-15-2.pddl,CRASHED:224.39:1000000000.0:300.0:-1
ipc-2014-agile-childsnack-16-2.pddl,TIMEOUT:301.06:-1.0:300.0:-1
ipc-2014-agile-childsnack-19-2.pddl,TIMEOUT:300.62:-1.0:300.0:-1
ipc-2014-agile-childsnack-19.pddl,TIMEOUT:300.967:-1.0:300.0:-1
ipc-2014-agile-citycar-p3-2-2-0-1.pddl,SAT:2.22566:330.0:300.0:-1
ipc-2014-agile-citycar-p3-3-2-0-1.pddl,SAT:2.86756:858.0:300.0:-1
ipc-2014-agile-citycar-p3-4-2-0-1.pddl,SAT:87.1807:703.0:300.0:-1
ipc-2014-agile-citycar-p3-5-2-0-1.pddl,SAT:237.279:285.0:300.0:-1
ipc-2014-agile-citycar-p3-5-2-0-2.pddl,SAT:89.5834:730.0:300.0:-1
ipc-2014-agile-citycar-p4-2-2-0-1.pddl,CRASHED:222.66:1000000000.0:300.0:-1
ipc-2014-agile-citycar-p4-2-3-0-1.pddl,CRASHED:225.55:1000000000.0:300.0:-1
ipc-2014-agile-citycar-p4-2-3-0-2.pddl,CRASHED:226.6:1000000000.0:300.0:-1
ipc-2014-agile-citycar-p4-3-2-0-1.pddl,CRASHED:227.55:1000000000.0:300.0:-1
ipc-2014-agile-citycar-p4-3-2-0-2.pddl,CRASHED:229.54:1000000000.0:300.0:-1
ipc-2014-agile-citycar-p4-3-3-0-1.pddl,CRASHED:227.23:1000000000.0:300.0:-1
ipc-2014-agile-citycar-p4-3-3-0-2.pddl,CRASHED:224.6:1000000000.0:300.0:-1
ipc-2014-agile-citycar-p4-4-2-0-1.pddl,CRASHED:230.09:1000000000.0:300.0:-1
ipc-2014-agile-citycar-p4-4-2-0-2.pddl,CRASHED:226.16:1000000000.0:300.0:-1
ipc-2014-agile-citycar-p4-4-3-0-1.pddl,CRASHED:227.46:1000000000.0:300.0:-1
ipc-2014-agile-citycar-p4-4-3-0-2.pddl,CRASHED:231.74:1000000000.0:300.0:-1
ipc-2014-agile-citycar-p4-5-2-0-1.pddl,CRASHED:229.94:1000000000.0:300.0:-1
ipc-2014-agile-citycar-p4-5-2-0-2.pddl,CRASHED:231.47:1000000000.0:300.0:-1
ipc-2014-agile-citycar-p4-5-3-0-1.pddl,CRASHED:230.91:1000000000.0:300.0:-1
ipc-2014-agile-citycar-p4-5-3-0-2.pddl,CRASHED:230.23:1000000000.0:300.0:-1
ipc-2014-agile-floortile-p01-4-3-2.pddl,SAT:45.758:88.0:300.0:-1
ipc-2014-agile-floortile-p01-5-4-2.pddl,TIMEOUT:300.721:-1.0:300.0:-1
ipc-2014-agile-floortile-p01-5-5-2.pddl,TIMEOUT:300.502:-1.0:300.0:-1
ipc-2014-agile-floortile-p01-6-4-2.pddl,TIMEOUT:300.387:-1.0:300.0:-1
ipc-2014-agile-floortile-p01-6-5-2.pddl,TIMEOUT:300.178:-1.0:300.0:-1
ipc-2014-agile-floortile-p01-6-5-3.pddl,TIMEOUT:300.867:-1.0:300.0:-1
ipc-2014-agile-floortile-p02-5-4-2.pddl,TIMEOUT:300.374:-1.0:300.0:-1
ipc-2014-agile-floortile-p02-6-4-2.pddl,TIMEOUT:300.422:-1.0:300.0:-1
ipc-2014-agile-floortile-p02-6-5-2.pddl,TIMEOUT:300.823:-1.0:300.0:-1
ipc-2014-agile-floortile-p02-6-5-3.pddl,TIMEOUT:300.886:-1.0:300.0:-1
ipc-2014-agile-floortile-p03-6-4-2.pddl,TIMEOUT:300.802:-1.0:300.0:-1
ipc-2014-agile-floortile-p03-6-5-2.pddl,TIMEOUT:301.067:-1.0:300.0:-1
ipc-2014-agile-floortile-p03-6-5-3.pddl,TIMEOUT:300.744:-1.0:300.0:-1
ipc-2014-agile-floortile-p04-5-4-2.pddl,TIMEOUT:300.878:-1.0:300.0:-1
ipc-2014-agile-floortile-p04-5-5-2.pddl,TIMEOUT:300.494:-1.0:300.0:-1
ipc-2014-agile-floortile-p04-6-5-2.pddl,TIMEOUT:300.533:-1.0:300.0:-1
ipc-2014-agile-floortile-p04-6-5-3.pddl,TIMEOUT:300.761:-1.0:300.0:-1
ipc-2014-agile-floortile-p05-4-3-2.pddl,SAT:24.2883:95.0:300.0:-1
ipc-2014-agile-floortile-p05-6-5-2.pddl,TIMEOUT:300.802:-1.0:300.0:-1
ipc-2014-agile-floortile-p05-6-5-3.pddl,TIMEOUT:300.904:-1.0:300.0:-1
ipc-2014-agile-ged-d-10-1.pddl,SAT:4.47732:30.0:300.0:-1
ipc-2014-agile-ged-d-10-2.pddl,SAT:4.46532:31.0:300.0:-1
ipc-2014-agile-ged-d-10-3.pddl,SAT:4.73628:47.0:300.0:-1
ipc-2014-agile-ged-d-10-4.pddl,SAT:4.41933:32.0:300.0:-1
ipc-2014-agile-ged-d-10-5.pddl,SAT:18.3912:45.0:300.0:-1
ipc-2014-agile-ged-d-10-6.pddl,SAT:5.67414:90.0:300.0:-1
ipc-2014-agile-ged-d-11-1.pddl,SAT:4.77927:35.0:300.0:-1
ipc-2014-agile-ged-d-11-3.pddl,SAT:4.93325:71.0:300.0:-1
ipc-2014-agile-ged-d-11-5.pddl,SAT:5.51216:64.0:300.0:-1
ipc-2014-agile-ged-d-11-6.pddl,SAT:11.2093:33.0:300.0:-1
ipc-2014-agile-ged-d-12-11.pddl,SAT:5.2792:118.0:300.0:-1
ipc-2014-agile-ged-d-12-2.pddl,SAT:13.462:34.0:300.0:-1
ipc-2014-agile-ged-d-12-3.pddl,SAT:66.058:73.0:300.0:-1
ipc-2014-agile-ged-d-12-5.pddl,SAT:64.5632:104.0:300.0:-1
ipc-2014-agile-ged-d-12-6.pddl,SAT:6.73098:149.0:300.0:-1
ipc-2014-agile-ged-d-12-7.pddl,SAT:72.298:165.0:300.0:-1
ipc-2014-agile-ged-d-12-8.pddl,SAT:37.2243:47.0:300.0:-1
ipc-2014-agile-ged-d-12-9.pddl,SAT:29.0666:50.0:300.0:-1
ipc-2014-agile-ged-d-3-6.pddl,SAT:5.09023:48.0:300.0:-1
ipc-2014-agile-ged-d-9-5.pddl,SAT:5.30419:58.0:300.0:-1
ipc-2014-agile-hiking-3-4-3.pddl,SAT:2.48362:41.0:300.0:-1
ipc-2014-agile-hiking-3-4-4.pddl,SAT:3.47847:30.0:300.0:-1
ipc-2014-agile-hiking-3-4-5.pddl,SAT:5.43117:67.0:300.0:-1
ipc-2014-agile-hiking-3-4-6.pddl,SAT:223.319:71.0:300.0:-1
ipc-2014-agile-hiking-3-4-7.pddl,TIMEOUT:300.065:-1.0:300.0:-1
ipc-2014-agile-hiking-3-4-8.pddl,TIMEOUT:300.241:-1.0:300.0:-1
ipc-2014-agile-hiking-3-4-9.pddl,TIMEOUT:301.01:-1.0:300.0:-1
ipc-2014-agile-hiking-4-5-3.pddl,SAT:4.07738:17.0:300.0:-1
ipc-2014-agile-hiking-4-5-4.pddl,SAT:6.68698:34.0:300.0:-1
ipc-2014-agile-hiking-4-5-5.pddl,SAT:234.916:30.0:300.0:-1
ipc-2014-agile-hiking-4-5-6.pddl,SAT:242.413:45.0:300.0:-1
ipc-2014-agile-hiking-4-5-7.pddl,TIMEOUT:300.211:-1.0:300.0:-1
ipc-2014-agile-hiking-4-5-8.pddl,TIMEOUT:300.239:-1.0:300.0:-1
ipc-2014-agile-hiking-4-5-9.pddl,TIMEOUT:300.61:-1.0:300.0:-1
ipc-2014-agile-hiking-5-6-3.pddl,SAT:7.06092:35.0:300.0:-1
ipc-2014-agile-hiking-5-6-4.pddl,SAT:235.581:25.0:300.0:-1
ipc-2014-agile-hiking-5-6-5.pddl,SAT:237.285:33.0:300.0:-1
ipc-2014-agile-hiking-5-6-6.pddl,SAT:244.771:51.0:300.0:-1
ipc-2014-agile-hiking-5-6-7.pddl,SAT:1.52588e-05:64.0:300.0:-1
ipc-2014-agile-hiking-5-6-8.pddl,SAT:295.503:69.0:300.0:-1
ipc-2014-agile-maintenance-1.3.060.180.5-000.pddl,SAT:130.819:58.0:300.0:-1
ipc-2014-agile-maintenance-1.3.060.180.5-001.pddl,SAT:1.2808:55.0:300.0:-1
ipc-2014-agile-maintenance-1.3.060.180.5-002.pddl,TIMEOUT:301.02:-1.0:300.0:-1
ipc-2014-agile-maintenance-1.3.100.300.5-000.pddl,TIMEOUT:300.103:-1.0:300.0:-1
ipc-2014-agile-maintenance-1.3.100.300.5-001.pddl,TIMEOUT:300.487:-1.0:300.0:-1
ipc-2014-agile-maintenance-1.3.100.300.7-000.pddl,SAT:1.79273:89.0:300.0:-1
ipc-2014-agile-maintenance-1.3.100.300.7-001.pddl,SAT:1.83972:94.0:300.0:-1
ipc-2014-agile-maintenance-1.3.100.300.7-002.pddl,SAT:1.77073:85.0:300.0:-1
ipc-2014-agile-maintenance-1.3.150.500.6-001.pddl,SAT:4.02739:144.0:300.0:-1
ipc-2014-agile-maintenance-1.3.200.500.5-001.pddl,TIMEOUT:301.02:-1.0:300.0:-1
ipc-2014-agile-maintenance-1.3.200.500.5-002.pddl,TIMEOUT:301.09:-1.0:300.0:-1
ipc-2014-agile-maintenance-1.3.200.700.7-000.pddl,SAT:79.4919:168.0:300.0:-1
ipc-2014-agile-maintenance-1.3.200.700.7-001.pddl,SAT:233.915:172.0:300.0:-1
ipc-2014-agile-maintenance-1.3.200.700.7-002.pddl,SAT:66.6969:179.0:300.0:-1
ipc-2014-agile-maintenance-1.3.200.900.5-000.pddl,TIMEOUT:300.171:-1.0:300.0:-1
ipc-2014-agile-maintenance-1.3.200.900.5-001.pddl,TIMEOUT:300.164:-1.0:300.0:-1
ipc-2014-agile-maintenance-1.3.200.900.5-002.pddl,TIMEOUT:300.236:-1.0:300.0:-1
ipc-2014-agile-maintenance-1.3.200.900.8-000.pddl,SAT:4.76927:181.0:300.0:-1
ipc-2014-agile-maintenance-1.3.200.900.8-001.pddl,SAT:5.35119:181.0:300.0:-1
ipc-2014-agile-maintenance-1.3.200.900.8-002.pddl,SAT:9.53674e-07:181.0:300.0:-1
ipc-2014-agile-openstacks-p130_2.pddl,SAT:8.99263:50.0:300.0:-1
ipc-2014-agile-openstacks-p130_3.pddl,SAT:10.6334:103.0:300.0:-1
ipc-2014-agile-openstacks-p150_2.pddl,SAT:11.0503:54.0:300.0:-1
ipc-2014-agile-openstacks-p150_3.pddl,SAT:30.9693:140.0:300.0:-1
ipc-2014-agile-openstacks-p170_1.pddl,SAT:13.194:55.0:300.0:-1
ipc-2014-agile-openstacks-p170_2.pddl,SAT:13.8189:80.0:300.0:-1
ipc-2014-agile-openstacks-p170_3.pddl,SAT:42.46:156.0:300.0:-1
ipc-2014-agile-openstacks-p190_1.pddl,SAT:44.4392:118.0:300.0:-1
ipc-2014-agile-openstacks-p190_2.pddl,SAT:45.5681:121.0:300.0:-1
ipc-2014-agile-openstacks-p190_3.pddl,SAT:55.9545:180.0:300.0:-1
ipc-2014-agile-openstacks-p210_1.pddl,SAT:56.6164:134.0:300.0:-1
ipc-2014-agile-openstacks-p210_2.pddl,SAT:78.2911:101.0:300.0:-1
ipc-2014-agile-openstacks-p230_1.pddl,SAT:73.1709:137.0:300.0:-1
ipc-2014-agile-openstacks-p230_2.pddl,SAT:80.2338:111.0:300.0:-1
ipc-2014-agile-openstacks-p250_1.pddl,SAT:81.5356:117.0:300.0:-1
ipc-2014-agile-openstacks-p250_2.pddl,SAT:84.0992:136.0:300.0:-1
ipc-2014-agile-openstacks-p270_1.pddl,SAT:88.1586:130.0:300.0:-1
ipc-2014-agile-openstacks-p270_2.pddl,SAT:90.8212:157.0:300.0:-1
ipc-2014-agile-openstacks-p290_1.pddl,SAT:100.374:137.0:300.0:-1
ipc-2014-agile-openstacks-p290_2.pddl,SAT:107.047:187.0:300.0:-1
ipc-2014-agile-parking-28_2.pddl,SAT:84.4722:91.0:300.0:-1
ipc-2014-agile-parking-28_3.pddl,SAT:33.7709:68.0:300.0:-1
ipc-2014-agile-parking-30_1.pddl,SAT:46.4489:75.0:300.0:-1
ipc-2014-agile-parking-30_2.pddl,SAT:36.7044:73.0:300.0:-1
ipc-2014-agile-parking-30_3.pddl,SAT:67.2238:94.0:300.0:-1
ipc-2014-agile-parking-32_1.pddl,TIMEOUT:300.672:-1.0:300.0:-1
ipc-2014-agile-parking-32_2.pddl,TIMEOUT:301.031:-1.0:300.0:-1
ipc-2014-agile-parking-32_3.pddl,TIMEOUT:300.573:-1.0:300.0:-1
ipc-2014-agile-parking-34_1.pddl,TIMEOUT:300.099:-1.0:300.0:-1
ipc-2014-agile-parking-34_2.pddl,TIMEOUT:300.745:-1.0:300.0:-1
ipc-2014-agile-parking-34_3.pddl,TIMEOUT:300.946:-1.0:300.0:-1
ipc-2014-agile-parking-36_1.pddl,TIMEOUT:300.286:-1.0:300.0:-1
ipc-2014-agile-parking-36_2.pddl,TIMEOUT:300.163:-1.0:300.0:-1
ipc-2014-agile-parking-36_3.pddl,TIMEOUT:301.1:-1.0:300.0:-1
ipc-2014-agile-parking-38_1.pddl,TIMEOUT:300.053:-1.0:300.0:-1
ipc-2014-agile-parking-38_2.pddl,TIMEOUT:300.143:-1.0:300.0:-1
ipc-2014-agile-parking-38_3.pddl,TIMEOUT:300.911:-1.0:300.0:-1
ipc-2014-agile-parking-40_1.pddl,TIMEOUT:300.637:-1.0:300.0:-1
ipc-2014-agile-parking-40_2.pddl,TIMEOUT:300.686:-1.0:300.0:-1
ipc-2014-agile-parking-40_3.pddl,TIMEOUT:300.765:-1.0:300.0:-1
ipc-2014-agile-tetris-020.pddl,SAT:36.1205:106.0:300.0:-1
ipc-2014-agile-tetris-021.pddl,SAT:74.8606:596.0:300.0:-1
ipc-2014-agile-tetris-022.pddl,SAT:197.321:89.0:300.0:-1
ipc-2014-agile-tetris-023.pddl,SAT:186.364:95.0:300.0:-1
ipc-2014-agile-tetris-024.pddl,SAT:230.115:104.0:300.0:-1
ipc-2014-agile-tetris-025.pddl,SAT:188.045:61.0:300.0:-1
ipc-2014-agile-tetris-026.pddl,SAT:191.361:131.0:300.0:-1
ipc-2014-agile-tetris-027.pddl,SAT:191.336:120.0:300.0:-1
ipc-2014-agile-tetris-028.pddl,SAT:199.349:126.0:300.0:-1
ipc-2014-agile-tetris-029.pddl,TIMEOUT:300.216:-1.0:300.0:-1
ipc-2014-agile-tetris-031.pddl,TIMEOUT:300.67:-1.0:300.0:-1
ipc-2014-agile-tetris-032.pddl,TIMEOUT:300.21:-1.0:300.0:-1
ipc-2014-agile-tetris-033.pddl,SAT:217.223:155.0:300.0:-1
ipc-2014-agile-tetris-034.pddl,SAT:87.6457:243.0:300.0:-1
ipc-2014-agile-tetris-035.pddl,SAT:201.841:134.0:300.0:-1
ipc-2014-agile-tetris-036.pddl,SAT:208.085:111.0:300.0:-1
ipc-2014-agile-tetris-037.pddl,TIMEOUT:301.079:-1.0:300.0:-1
ipc-2014-agile-tetris-038.pddl,TIMEOUT:300.229:-1.0:300.0:-1
ipc-2014-agile-tetris-039.pddl,SAT:239.764:174.0:300.0:-1
ipc-2014-agile-tetris-040.pddl,TIMEOUT:300.746:-1.0:300.0:-1
ipc-2014-agile-thoughtful-bootstrap-typed-01.pddl,CRASHED:0.58491:1000000000.0:300.0:-1
ipc-2014-agile-thoughtful-bootstrap-typed-02.pddl,CRASHED:0.565913:1000000000.0:300.0:-1
ipc-2014-agile-thoughtful-bootstrap-typed-03.pddl,CRASHED:0.565913:1000000000.0:300.0:-1
ipc-2014-agile-thoughtful-bootstrap-typed-04.pddl,CRASHED:0.565913:1000000000.0:300.0:-1
ipc-2014-agile-thoughtful-bootstrap-typed-05.pddl,CRASHED:0.58491:1000000000.0:300.0:-1
ipc-2014-agile-thoughtful-p11_6_53-typed.pddl,CRASHED:0.603907:1000000000.0:300.0:-1
ipc-2014-agile-thoughtful-p11_6_59-typed.pddl,CRASHED:0.606906:1000000000.0:300.0:-1
ipc-2014-agile-thoughtful-p11_6_62-typed.pddl,CRASHED:0.606907:1000000000.0:300.0:-1
ipc-2014-agile-thoughtful-p13_7_78-typed.pddl,CRASHED:0.611906:1000000000.0:300.0:-1
ipc-2014-agile-thoughtful-p13_7_79-typed.pddl,CRASHED:0.607906:1000000000.0:300.0:-1
ipc-2014-agile-thoughtful-p13_7_86-typed.pddl,CRASHED:0.614906:1000000000.0:300.0:-1
ipc-2014-agile-thoughtful-target-typed-20.pddl,CRASHED:0.608906:1000000000.0:300.0:-1
ipc-2014-agile-thoughtful-target-typed-21.pddl,CRASHED:0.608907:1000000000.0:300.0:-1
ipc-2014-agile-thoughtful-target-typed-22.pddl,CRASHED:0.610906:1000000000.0:300.0:-1
ipc-2014-agile-thoughtful-target-typed-23.pddl,CRASHED:0.659899:1000000000.0:300.0:-1
ipc-2014-agile-thoughtful-target-typed-24.pddl,CRASHED:0.616906:1000000000.0:300.0:-1
ipc-2014-agile-thoughtful-target-typed-25.pddl,CRASHED:0.644901:1000000000.0:300.0:-1
ipc-2014-agile-thoughtful-target-typed-26.pddl,CRASHED:0.625904:1000000000.0:300.0:-1
ipc-2014-agile-thoughtful-target-typed-27.pddl,CRASHED:0.622904:1000000000.0:300.0:-1
ipc-2014-agile-thoughtful-target-typed-28.pddl,CRASHED:0.610907:1000000000.0:300.0:-1
ipc-2014-agile-transport-01.pddl,SAT:8.49871:4890.0:300.0:-1
ipc-2014-agile-transport-02.pddl,SAT:10.3054:8048.0:300.0:-1
ipc-2014-agile-transport-03.pddl,SAT:8.92664:6191.0:300.0:-1
ipc-2014-agile-transport-04.pddl,SAT:79.209:15020.0:300.0:-1
ipc-2014-agile-transport-05.pddl,SAT:82.6304:19671.0:300.0:-1
ipc-2014-agile-transport-06.pddl,SAT:79.3229:15020.0:300.0:-1
ipc-2014-agile-transport-07.pddl,SAT:98.737:18693.0:300.0:-1
ipc-2014-agile-transport-08.pddl,SAT:98.615:16523.0:300.0:-1
ipc-2014-agile-transport-09.pddl,SAT:99.0679:18693.0:300.0:-1
ipc-2014-agile-transport-10.pddl,SAT:92.107:21018.0:300.0:-1
ipc-2014-agile-transport-11.pddl,SAT:58.8101:2281.0:300.0:-1
ipc-2014-agile-transport-12.pddl,SAT:69.5794:7429.0:300.0:-1
ipc-2014-agile-transport-13.pddl,SAT:8.48371:5516.0:300.0:-1
ipc-2014-agile-transport-14.pddl,SAT:81.0697:16616.0:300.0:-1
ipc-2014-agile-transport-15.pddl,SAT:82.6894:19430.0:300.0:-1
ipc-2014-agile-transport-16.pddl,SAT:73.1549:15016.0:300.0:-1
ipc-2014-agile-transport-17.pddl,SAT:96.13:14692.0:300.0:-1
ipc-2014-agile-transport-18.pddl,SAT:95.8674:18819.0:300.0:-1
ipc-2014-agile-transport-19.pddl,SAT:83.7163:18949.0:300.0:-1
ipc-2014-agile-transport-20.pddl,SAT:98.406:14402.0:300.0:-1
ipc-2014-agile-visitall-30.pddl,SAT:2.46862:1879.0:300.0:-1
ipc-2014-agile-visitall-31.pddl,SAT:2.43663:2184.0:300.0:-1
ipc-2014-agile-visitall-32.pddl,SAT:2.55361:1972.0:300.0:-1
ipc-2014-agile-visitall-33.pddl,SAT:2.70659:2550.0:300.0:-1
ipc-2014-agile-visitall-50.pddl,SAT:3.64944:4799.0:300.0:-1
ipc-2014-agile-visitall-51.pddl,SAT:3.73843:5092.0:300.0:-1
ipc-2014-agile-visitall-52.pddl,SAT:3.81542:4533.0:300.0:-1
ipc-2014-agile-visitall-53.pddl,SAT:3.9294:6046.0:300.0:-1
ipc-2014-agile-visitall-54.pddl,SAT:4.03339:5920.0:300.0:-1
ipc-2014-agile-visitall-55.pddl,SAT:4.10938:6093.0:300.0:-1
ipc-2014-agile-visitall-56.pddl,SAT:3.99039:6084.0:300.0:-1
ipc-2014-agile-visitall-57.pddl,SAT:4.26335:6223.0:300.0:-1
ipc-2014-agile-visitall-58.pddl,SAT:4.32334:6579.0:300.0:-1
ipc-2014-agile-visitall-59.pddl,SAT:4.49532:6718.0:300.0:-1
ipc-2014-agile-visitall-60.pddl,SAT:4.5893:6537.0:300.0:-1
ipc-2014-agile-visitall-61.pddl,SAT:4.64429:6927.0:300.0:-1
ipc-2014-agile-visitall-62.pddl,SAT:4.68329:7404.0:300.0:-1
ipc-2014-agile-visitall-63.pddl,SAT:4.80427:7749.0:300.0:-1
ipc-2014-agile-visitall-64.pddl,SAT:4.77527:7074.0:300.0:-1
ipc-2014-agile-visitall-65.pddl,SAT:5.05423:7875.0:300.0:-1
