instance,ipc-2014-agile-probe
ipc-2014-agile-barman-p1-11-4-15.pddl,SAT:1.04284:213.0:300.0:-1
ipc-2014-agile-barman-p1-11-5-15.pddl,SAT:65.3081:229.0:300.0:-1
ipc-2014-agile-barman-p1-11-5-16.pddl,SAT:8.17576:213.0:300.0:-1
ipc-2014-agile-barman-p2-10-4-13.pddl,SAT:0.751885:209.0:300.0:-1
ipc-2014-agile-barman-p2-11-4-15.pddl,SAT:0.949855:174.0:300.0:-1
ipc-2014-agile-barman-p2-11-5-15.pddl,SAT:1.11483:180.0:300.0:-1
ipc-2014-agile-barman-p2-11-5-16.pddl,SAT:12.7111:259.0:300.0:-1
ipc-2014-agile-barman-p2-11-5-17.pddl,SAT:12.7121:296.0:300.0:-1
ipc-2014-agile-barman-p3-10-4-13.pddl,SAT:0.652899:172.0:300.0:-1
ipc-2014-agile-barman-p3-11-4-15.pddl,SAT:1.52777:245.0:300.0:-1
ipc-2014-agile-barman-p3-11-5-15.pddl,SAT:3.69344:188.0:300.0:-1
ipc-2014-agile-barman-p3-11-5-16.pddl,SAT:1.3148:196.0:300.0:-1
ipc-2014-agile-barman-p3-11-5-17.pddl,SAT:1.20482:200.0:300.0:-1
ipc-2014-agile-barman-p4-11-4-14.pddl,SAT:0.968851:163.0:300.0:-1
ipc-2014-agile-barman-p4-11-4-15.pddl,SAT:0.826873:193.0:300.0:-1
ipc-2014-agile-barman-p4-11-5-15.pddl,SAT:1.19182:205.0:300.0:-1
ipc-2014-agile-barman-p5-10-4-13.pddl,SAT:0.632903:170.0:300.0:-1
ipc-2014-agile-barman-p5-11-4-15.pddl,SAT:0.870866:189.0:300.0:-1
ipc-2014-agile-barman-p5-11-5-15.pddl,SAT:1.75273:205.0:300.0:-1
ipc-2014-agile-barman-p5-11-5-16.pddl,SAT:81.1377:225.0:300.0:-1
ipc-2014-agile-cavediving-01_easy.pddl,TIMEOUT:301.074:-1.0:300.0:-1
ipc-2014-agile-cavediving-01.pddl,TIMEOUT:301.142:-1.0:300.0:-1
ipc-2014-agile-cavediving-02_easy.pddl,TIMEOUT:301.078:-1.0:300.0:-1
ipc-2014-agile-cavediving-03_easy.pddl,TIMEOUT:301.128:-1.0:300.0:-1
ipc-2014-agile-cavediving-04_easy.pddl,TIMEOUT:301.168:-1.0:300.0:-1
ipc-2014-agile-cavediving-05A_easy.pddl,TIMEOUT:301.095:-1.0:300.0:-1
ipc-2014-agile-cavediving-06A_easy.pddl,TIMEOUT:301.097:-1.0:300.0:-1
ipc-2014-agile-cavediving-07_easy.pddl,TIMEOUT:301.157:-1.0:300.0:-1
ipc-2014-agile-cavediving-08_easy.pddl,TIMEOUT:301.108:-1.0:300.0:-1
ipc-2014-agile-cavediving-09_easy.pddl,TIMEOUT:301.141:-1.0:300.0:-1
ipc-2014-agile-cavediving-10_easy.pddl,TIMEOUT:301.119:-1.0:300.0:-1
ipc-2014-agile-cavediving-11_easy.pddl,TIMEOUT:301.069:-1.0:300.0:-1
ipc-2014-agile-cavediving-12_easy.pddl,TIMEOUT:301.11:-1.0:300.0:-1
ipc-2014-agile-cavediving-13_easy.pddl,TIMEOUT:301.05:-1.0:300.0:-1
ipc-2014-agile-cavediving-14_easy.pddl,TIMEOUT:301.112:-1.0:300.0:-1
ipc-2014-agile-cavediving-15_easy.pddl,TIMEOUT:301.09:-1.0:300.0:-1
ipc-2014-agile-cavediving-16_easy.pddl,TIMEOUT:301.121:-1.0:300.0:-1
ipc-2014-agile-cavediving-18A_easy.pddl,TIMEOUT:301.096:-1.0:300.0:-1
ipc-2014-agile-cavediving-18_easy.pddl,SAT:5.63714:132.0:300.0:-1
ipc-2014-agile-cavediving-20A_easy.pddl,TIMEOUT:301.149:-1.0:300.0:-1
ipc-2014-agile-childsnack-05-2.pddl,TIMEOUT:301.143:-1.0:300.0:-1
ipc-2014-agile-childsnack-05.pddl,TIMEOUT:301.07:-1.0:300.0:-1
ipc-2014-agile-childsnack-06-2.pddl,TIMEOUT:301.11:-1.0:300.0:-1
ipc-2014-agile-childsnack-07-2.pddl,TIMEOUT:301.087:-1.0:300.0:-1
ipc-2014-agile-childsnack-08-2.pddl,TIMEOUT:301.074:-1.0:300.0:-1
ipc-2014-agile-childsnack-08.pddl,TIMEOUT:301.163:-1.0:300.0:-1
ipc-2014-agile-childsnack-09-2.pddl,TIMEOUT:301.103:-1.0:300.0:-1
ipc-2014-agile-childsnack-09.pddl,TIMEOUT:301.094:-1.0:300.0:-1
ipc-2014-agile-childsnack-10-2.pddl,TIMEOUT:301.105:-1.0:300.0:-1
ipc-2014-agile-childsnack-10.pddl,TIMEOUT:301.099:-1.0:300.0:-1
ipc-2014-agile-childsnack-11-2.pddl,TIMEOUT:301.13:-1.0:300.0:-1
ipc-2014-agile-childsnack-11.pddl,TIMEOUT:301.148:-1.0:300.0:-1
ipc-2014-agile-childsnack-12.pddl,TIMEOUT:301.178:-1.0:300.0:-1
ipc-2014-agile-childsnack-13-2.pddl,TIMEOUT:301.16:-1.0:300.0:-1
ipc-2014-agile-childsnack-13.pddl,TIMEOUT:301.189:-1.0:300.0:-1
ipc-2014-agile-childsnack-14.pddl,TIMEOUT:301.134:-1.0:300.0:-1
ipc-2014-agile-childsnack-15-2.pddl,TIMEOUT:301.187:-1.0:300.0:-1
ipc-2014-agile-childsnack-16-2.pddl,TIMEOUT:301.166:-1.0:300.0:-1
ipc-2014-agile-childsnack-19-2.pddl,TIMEOUT:301.113:-1.0:300.0:-1
ipc-2014-agile-childsnack-19.pddl,TIMEOUT:301.153:-1.0:300.0:-1
ipc-2014-agile-citycar-p3-2-2-0-1.pddl,SAT:0.32495:439.0:300.0:-1
ipc-2014-agile-citycar-p3-3-2-0-1.pddl,SAT:0.421935:610.0:300.0:-1
ipc-2014-agile-citycar-p3-4-2-0-1.pddl,SAT:3.12452:552.0:300.0:-1
ipc-2014-agile-citycar-p3-5-2-0-1.pddl,SAT:3.82242:984.0:300.0:-1
ipc-2014-agile-citycar-p3-5-2-0-2.pddl,SAT:0.877865:1078.0:300.0:-1
ipc-2014-agile-citycar-p4-2-2-0-1.pddl,TIMEOUT:301.213:-1.0:300.0:-1
ipc-2014-agile-citycar-p4-2-3-0-1.pddl,TIMEOUT:301.205:-1.0:300.0:-1
ipc-2014-agile-citycar-p4-2-3-0-2.pddl,SAT:4.64129:574.0:300.0:-1
ipc-2014-agile-citycar-p4-3-2-0-1.pddl,SAT:26.355:861.0:300.0:-1
ipc-2014-agile-citycar-p4-3-2-0-2.pddl,TIMEOUT:301.135:-1.0:300.0:-1
ipc-2014-agile-citycar-p4-3-3-0-1.pddl,TIMEOUT:301.105:-1.0:300.0:-1
ipc-2014-agile-citycar-p4-3-3-0-2.pddl,SAT:5.13622:722.0:300.0:-1
ipc-2014-agile-citycar-p4-4-2-0-1.pddl,TIMEOUT:301.156:-1.0:300.0:-1
ipc-2014-agile-citycar-p4-4-2-0-2.pddl,SAT:9.00263:721.0:300.0:-1
ipc-2014-agile-citycar-p4-4-3-0-1.pddl,TIMEOUT:301.139:-1.0:300.0:-1
ipc-2014-agile-citycar-p4-4-3-0-2.pddl,SAT:136.688:916.0:300.0:-1
ipc-2014-agile-citycar-p4-5-2-0-1.pddl,TIMEOUT:301.142:-1.0:300.0:-1
ipc-2014-agile-citycar-p4-5-2-0-2.pddl,TIMEOUT:301.077:-1.0:300.0:-1
ipc-2014-agile-citycar-p4-5-3-0-1.pddl,TIMEOUT:301.123:-1.0:300.0:-1
ipc-2014-agile-citycar-p4-5-3-0-2.pddl,TIMEOUT:301.109:-1.0:300.0:-1
ipc-2014-agile-floortile-p01-4-3-2.pddl,SAT:141.138:104.0:300.0:-1
ipc-2014-agile-floortile-p01-5-4-2.pddl,TIMEOUT:301.096:-1.0:300.0:-1
ipc-2014-agile-floortile-p01-5-5-2.pddl,TIMEOUT:301.129:-1.0:300.0:-1
ipc-2014-agile-floortile-p01-6-4-2.pddl,TIMEOUT:301.149:-1.0:300.0:-1
ipc-2014-agile-floortile-p01-6-5-2.pddl,TIMEOUT:301.087:-1.0:300.0:-1
ipc-2014-agile-floortile-p01-6-5-3.pddl,TIMEOUT:301.09:-1.0:300.0:-1
ipc-2014-agile-floortile-p02-5-4-2.pddl,TIMEOUT:301.112:-1.0:300.0:-1
ipc-2014-agile-floortile-p02-6-4-2.pddl,TIMEOUT:301.134:-1.0:300.0:-1
ipc-2014-agile-floortile-p02-6-5-2.pddl,TIMEOUT:301.106:-1.0:300.0:-1
ipc-2014-agile-floortile-p02-6-5-3.pddl,TIMEOUT:301.095:-1.0:300.0:-1
ipc-2014-agile-floortile-p03-6-4-2.pddl,TIMEOUT:301.16:-1.0:300.0:-1
ipc-2014-agile-floortile-p03-6-5-2.pddl,TIMEOUT:301.169:-1.0:300.0:-1
ipc-2014-agile-floortile-p03-6-5-3.pddl,TIMEOUT:301.163:-1.0:300.0:-1
ipc-2014-agile-floortile-p04-5-4-2.pddl,TIMEOUT:301.135:-1.0:300.0:-1
ipc-2014-agile-floortile-p04-5-5-2.pddl,TIMEOUT:301.167:-1.0:300.0:-1
ipc-2014-agile-floortile-p04-6-5-2.pddl,TIMEOUT:301.088:-1.0:300.0:-1
ipc-2014-agile-floortile-p04-6-5-3.pddl,TIMEOUT:301.182:-1.0:300.0:-1
ipc-2014-agile-floortile-p05-4-3-2.pddl,SAT:0.034994:77.0:300.0:-1
ipc-2014-agile-floortile-p05-6-5-2.pddl,TIMEOUT:301.11:-1.0:300.0:-1
ipc-2014-agile-floortile-p05-6-5-3.pddl,TIMEOUT:301.114:-1.0:300.0:-1
ipc-2014-agile-ged-d-10-1.pddl,SAT:17.8063:81.0:300.0:-1
ipc-2014-agile-ged-d-10-2.pddl,SAT:17.2684:34.0:300.0:-1
ipc-2014-agile-ged-d-10-3.pddl,SAT:2.69859:28.0:300.0:-1
ipc-2014-agile-ged-d-10-4.pddl,SAT:15.8826:72.0:300.0:-1
ipc-2014-agile-ged-d-10-5.pddl,SAT:24.4253:118.0:300.0:-1
ipc-2014-agile-ged-d-10-6.pddl,SAT:15.4367:50.0:300.0:-1
ipc-2014-agile-ged-d-11-1.pddl,SAT:5.79312:61.0:300.0:-1
ipc-2014-agile-ged-d-11-3.pddl,SAT:13.145:58.0:300.0:-1
ipc-2014-agile-ged-d-11-5.pddl,SAT:10.0025:39.0:300.0:-1
ipc-2014-agile-ged-d-11-6.pddl,SAT:11.7902:88.0:300.0:-1
ipc-2014-agile-ged-d-12-11.pddl,SAT:41.5997:93.0:300.0:-1
ipc-2014-agile-ged-d-12-2.pddl,SAT:59.216:64.0:300.0:-1
ipc-2014-agile-ged-d-12-3.pddl,SAT:159.414:103.0:300.0:-1
ipc-2014-agile-ged-d-12-5.pddl,SAT:153.165:117.0:300.0:-1
ipc-2014-agile-ged-d-12-6.pddl,SAT:60.5848:124.0:300.0:-1
ipc-2014-agile-ged-d-12-7.pddl,SAT:141.175:154.0:300.0:-1
ipc-2014-agile-ged-d-12-8.pddl,SAT:211.724:153.0:300.0:-1
ipc-2014-agile-ged-d-12-9.pddl,SAT:98.992:166.0:300.0:-1
ipc-2014-agile-ged-d-3-6.pddl,SAT:12.5301:101.0:300.0:-1
ipc-2014-agile-ged-d-9-5.pddl,SAT:6.62299:61.0:300.0:-1
ipc-2014-agile-hiking-3-4-3.pddl,SAT:0.608907:17.0:300.0:-1
ipc-2014-agile-hiking-3-4-4.pddl,SAT:2.36464:28.0:300.0:-1
ipc-2014-agile-hiking-3-4-5.pddl,SAT:6.73998:46.0:300.0:-1
ipc-2014-agile-hiking-3-4-6.pddl,SAT:24.2463:57.0:300.0:-1
ipc-2014-agile-hiking-3-4-7.pddl,SAT:43.1394:61.0:300.0:-1
ipc-2014-agile-hiking-3-4-8.pddl,SAT:71.15:74.0:300.0:-1
ipc-2014-agile-hiking-3-4-9.pddl,SAT:107.88:79.0:300.0:-1
ipc-2014-agile-hiking-4-5-3.pddl,SAT:3.49447:19.0:300.0:-1
ipc-2014-agile-hiking-4-5-4.pddl,SAT:16.6275:31.0:300.0:-1
ipc-2014-agile-hiking-4-5-5.pddl,SAT:69.8334:67.0:300.0:-1
ipc-2014-agile-hiking-4-5-6.pddl,SAT:94.0257:63.0:300.0:-1
ipc-2014-agile-hiking-4-5-7.pddl,SAT:159.521:61.0:300.0:-1
ipc-2014-agile-hiking-4-5-8.pddl,TIMEOUT:301.117:-1.0:300.0:-1
ipc-2014-agile-hiking-4-5-9.pddl,TIMEOUT:301.15:-1.0:300.0:-1
ipc-2014-agile-hiking-5-6-3.pddl,SAT:18.8141:22.0:300.0:-1
ipc-2014-agile-hiking-5-6-4.pddl,SAT:52.494:30.0:300.0:-1
ipc-2014-agile-hiking-5-6-5.pddl,SAT:181.887:54.0:300.0:-1
ipc-2014-agile-hiking-5-6-6.pddl,TIMEOUT:301.11:-1.0:300.0:-1
ipc-2014-agile-hiking-5-6-7.pddl,TIMEOUT:301.129:-1.0:300.0:-1
ipc-2014-agile-hiking-5-6-8.pddl,TIMEOUT:301.181:-1.0:300.0:-1
ipc-2014-agile-maintenance-1.3.060.180.5-000.pddl,SAT:0.354945:46.0:300.0:-1
ipc-2014-agile-maintenance-1.3.060.180.5-001.pddl,SAT:0.350945:42.0:300.0:-1
ipc-2014-agile-maintenance-1.3.060.180.5-002.pddl,SAT:0.377942:49.0:300.0:-1
ipc-2014-agile-maintenance-1.3.100.300.5-000.pddl,SAT:1.48277:72.0:300.0:-1
ipc-2014-agile-maintenance-1.3.100.300.5-001.pddl,TIMEOUT:301.23:-1.0:300.0:-1
ipc-2014-agile-maintenance-1.3.100.300.7-000.pddl,SAT:1.48377:55.0:300.0:-1
ipc-2014-agile-maintenance-1.3.100.300.7-001.pddl,SAT:1.50777:61.0:300.0:-1
ipc-2014-agile-maintenance-1.3.100.300.7-002.pddl,SAT:1.50077:58.0:300.0:-1
ipc-2014-agile-maintenance-1.3.150.500.6-001.pddl,SAT:6.08308:103.0:300.0:-1
ipc-2014-agile-maintenance-1.3.200.500.5-001.pddl,TIMEOUT:301.6:-1.0:300.0:-1
ipc-2014-agile-maintenance-1.3.200.500.5-002.pddl,SAT:7.93479:141.0:300.0:-1
ipc-2014-agile-maintenance-1.3.200.700.7-000.pddl,CRASHED:3.2875:1000000000.0:300.0:-1
ipc-2014-agile-maintenance-1.3.200.700.7-001.pddl,CRASHED:3.49247:1000000000.0:300.0:-1
ipc-2014-agile-maintenance-1.3.200.700.7-002.pddl,CRASHED:3.34149:1000000000.0:300.0:-1
ipc-2014-agile-maintenance-1.3.200.900.5-000.pddl,CRASHED:6.02708:1000000000.0:300.0:-1
ipc-2014-agile-maintenance-1.3.200.900.5-001.pddl,CRASHED:6.17506:1000000000.0:300.0:-1
ipc-2014-agile-maintenance-1.3.200.900.5-002.pddl,CRASHED:6.13307:1000000000.0:300.0:-1
ipc-2014-agile-maintenance-1.3.200.900.8-000.pddl,CRASHED:5.86711:1000000000.0:300.0:-1
ipc-2014-agile-maintenance-1.3.200.900.8-001.pddl,CRASHED:6.30704:1000000000.0:300.0:-1
ipc-2014-agile-maintenance-1.3.200.900.8-002.pddl,CRASHED:6.03808:1000000000.0:300.0:-1
ipc-2014-agile-openstacks-p130_2.pddl,TIMEOUT:301.048:-1.0:300.0:-1
ipc-2014-agile-openstacks-p130_3.pddl,TIMEOUT:301.134:-1.0:300.0:-1
ipc-2014-agile-openstacks-p150_2.pddl,TIMEOUT:301.086:-1.0:300.0:-1
ipc-2014-agile-openstacks-p150_3.pddl,TIMEOUT:301.068:-1.0:300.0:-1
ipc-2014-agile-openstacks-p170_1.pddl,TIMEOUT:301.068:-1.0:300.0:-1
ipc-2014-agile-openstacks-p170_2.pddl,TIMEOUT:301.081:-1.0:300.0:-1
ipc-2014-agile-openstacks-p170_3.pddl,TIMEOUT:301.098:-1.0:300.0:-1
ipc-2014-agile-openstacks-p190_1.pddl,TIMEOUT:301.125:-1.0:300.0:-1
ipc-2014-agile-openstacks-p190_2.pddl,TIMEOUT:301.106:-1.0:300.0:-1
ipc-2014-agile-openstacks-p190_3.pddl,TIMEOUT:301.134:-1.0:300.0:-1
ipc-2014-agile-openstacks-p210_1.pddl,TIMEOUT:301.128:-1.0:300.0:-1
ipc-2014-agile-openstacks-p210_2.pddl,TIMEOUT:301.169:-1.0:300.0:-1
ipc-2014-agile-openstacks-p230_1.pddl,TIMEOUT:301.087:-1.0:300.0:-1
ipc-2014-agile-openstacks-p230_2.pddl,TIMEOUT:301.137:-1.0:300.0:-1
ipc-2014-agile-openstacks-p250_1.pddl,TIMEOUT:301.194:-1.0:300.0:-1
ipc-2014-agile-openstacks-p250_2.pddl,TIMEOUT:301.19:-1.0:300.0:-1
ipc-2014-agile-openstacks-p270_1.pddl,TIMEOUT:301.216:-1.0:300.0:-1
ipc-2014-agile-openstacks-p270_2.pddl,TIMEOUT:301.214:-1.0:300.0:-1
ipc-2014-agile-openstacks-p290_1.pddl,TIMEOUT:301.181:-1.0:300.0:-1
ipc-2014-agile-openstacks-p290_2.pddl,TIMEOUT:301.191:-1.0:300.0:-1
ipc-2014-agile-parking-28_2.pddl,SAT:88.6585:99.0:300.0:-1
ipc-2014-agile-parking-28_3.pddl,SAT:277.355:173.0:300.0:-1
ipc-2014-agile-parking-30_1.pddl,SAT:186.564:97.0:300.0:-1
ipc-2014-agile-parking-30_2.pddl,TIMEOUT:301.066:-1.0:300.0:-1
ipc-2014-agile-parking-30_3.pddl,TIMEOUT:301.129:-1.0:300.0:-1
ipc-2014-agile-parking-32_1.pddl,TIMEOUT:301.156:-1.0:300.0:-1
ipc-2014-agile-parking-32_2.pddl,TIMEOUT:301.142:-1.0:300.0:-1
ipc-2014-agile-parking-32_3.pddl,TIMEOUT:301.099:-1.0:300.0:-1
ipc-2014-agile-parking-34_1.pddl,TIMEOUT:301.176:-1.0:300.0:-1
ipc-2014-agile-parking-34_2.pddl,TIMEOUT:301.124:-1.0:300.0:-1
ipc-2014-agile-parking-34_3.pddl,TIMEOUT:301.111:-1.0:300.0:-1
ipc-2014-agile-parking-36_1.pddl,TIMEOUT:301.183:-1.0:300.0:-1
ipc-2014-agile-parking-36_2.pddl,TIMEOUT:301.145:-1.0:300.0:-1
ipc-2014-agile-parking-36_3.pddl,TIMEOUT:301.128:-1.0:300.0:-1
ipc-2014-agile-parking-38_1.pddl,TIMEOUT:301.178:-1.0:300.0:-1
ipc-2014-agile-parking-38_2.pddl,TIMEOUT:301.192:-1.0:300.0:-1
ipc-2014-agile-parking-38_3.pddl,TIMEOUT:301.167:-1.0:300.0:-1
ipc-2014-agile-parking-40_1.pddl,TIMEOUT:301.174:-1.0:300.0:-1
ipc-2014-agile-parking-40_2.pddl,TIMEOUT:301.185:-1.0:300.0:-1
ipc-2014-agile-parking-40_3.pddl,TIMEOUT:301.227:-1.0:300.0:-1
ipc-2014-agile-tetris-020.pddl,TIMEOUT:301.072:-1.0:300.0:-1
ipc-2014-agile-tetris-021.pddl,TIMEOUT:301.073:-1.0:300.0:-1
ipc-2014-agile-tetris-022.pddl,TIMEOUT:301.075:-1.0:300.0:-1
ipc-2014-agile-tetris-023.pddl,TIMEOUT:301.049:-1.0:300.0:-1
ipc-2014-agile-tetris-024.pddl,TIMEOUT:301.035:-1.0:300.0:-1
ipc-2014-agile-tetris-025.pddl,TIMEOUT:301.094:-1.0:300.0:-1
ipc-2014-agile-tetris-026.pddl,TIMEOUT:301.036:-1.0:300.0:-1
ipc-2014-agile-tetris-027.pddl,TIMEOUT:301.076:-1.0:300.0:-1
ipc-2014-agile-tetris-028.pddl,TIMEOUT:301.089:-1.0:300.0:-1
ipc-2014-agile-tetris-029.pddl,TIMEOUT:301.037:-1.0:300.0:-1
ipc-2014-agile-tetris-031.pddl,TIMEOUT:301.108:-1.0:300.0:-1
ipc-2014-agile-tetris-032.pddl,TIMEOUT:301.026:-1.0:300.0:-1
ipc-2014-agile-tetris-033.pddl,TIMEOUT:301.08:-1.0:300.0:-1
ipc-2014-agile-tetris-034.pddl,TIMEOUT:301.027:-1.0:300.0:-1
ipc-2014-agile-tetris-035.pddl,TIMEOUT:301.062:-1.0:300.0:-1
ipc-2014-agile-tetris-036.pddl,TIMEOUT:301.091:-1.0:300.0:-1
ipc-2014-agile-tetris-037.pddl,TIMEOUT:301.109:-1.0:300.0:-1
ipc-2014-agile-tetris-038.pddl,TIMEOUT:301.045:-1.0:300.0:-1
ipc-2014-agile-tetris-039.pddl,TIMEOUT:301.089:-1.0:300.0:-1
ipc-2014-agile-tetris-040.pddl,TIMEOUT:301.038:-1.0:300.0:-1
ipc-2014-agile-thoughtful-bootstrap-typed-01.pddl,SAT:0.224965:39.0:300.0:-1
ipc-2014-agile-thoughtful-bootstrap-typed-02.pddl,SAT:0.202968:35.0:300.0:-1
ipc-2014-agile-thoughtful-bootstrap-typed-03.pddl,SAT:0.231963:44.0:300.0:-1
ipc-2014-agile-thoughtful-bootstrap-typed-04.pddl,SAT:0.236963:37.0:300.0:-1
ipc-2014-agile-thoughtful-bootstrap-typed-05.pddl,SAT:0.208967:34.0:300.0:-1
ipc-2014-agile-thoughtful-p11_6_53-typed.pddl,SAT:15.5656:128.0:300.0:-1
ipc-2014-agile-thoughtful-p11_6_59-typed.pddl,SAT:9.2196:127.0:300.0:-1
ipc-2014-agile-thoughtful-p11_6_62-typed.pddl,TIMEOUT:301.067:-1.0:300.0:-1
ipc-2014-agile-thoughtful-p13_7_78-typed.pddl,TIMEOUT:301.099:-1.0:300.0:-1
ipc-2014-agile-thoughtful-p13_7_79-typed.pddl,TIMEOUT:301.109:-1.0:300.0:-1
ipc-2014-agile-thoughtful-p13_7_86-typed.pddl,SAT:13.478:169.0:300.0:-1
ipc-2014-agile-thoughtful-target-typed-20.pddl,SAT:14.9057:154.0:300.0:-1
ipc-2014-agile-thoughtful-target-typed-21.pddl,SAT:26.17:186.0:300.0:-1
ipc-2014-agile-thoughtful-target-typed-22.pddl,SAT:29.4445:145.0:300.0:-1
ipc-2014-agile-thoughtful-target-typed-23.pddl,SAT:16.5415:137.0:300.0:-1
ipc-2014-agile-thoughtful-target-typed-24.pddl,TIMEOUT:301.139:-1.0:300.0:-1
ipc-2014-agile-thoughtful-target-typed-25.pddl,SAT:18.6682:140.0:300.0:-1
ipc-2014-agile-thoughtful-target-typed-26.pddl,SAT:14.1738:156.0:300.0:-1
ipc-2014-agile-thoughtful-target-typed-27.pddl,SAT:40.8078:184.0:300.0:-1
ipc-2014-agile-thoughtful-target-typed-28.pddl,SAT:21.0868:178.0:300.0:-1
ipc-2014-agile-transport-01.pddl,SAT:62.4975:3161.0:300.0:-1
ipc-2014-agile-transport-02.pddl,SAT:114.521:4305.0:300.0:-1
ipc-2014-agile-transport-03.pddl,SAT:88.1676:3522.0:300.0:-1
ipc-2014-agile-transport-04.pddl,TIMEOUT:301.21:-1.0:300.0:-1
ipc-2014-agile-transport-05.pddl,TIMEOUT:301.234:-1.0:300.0:-1
ipc-2014-agile-transport-06.pddl,TIMEOUT:301.17:-1.0:300.0:-1
ipc-2014-agile-transport-07.pddl,TIMEOUT:301.265:-1.0:300.0:-1
ipc-2014-agile-transport-08.pddl,TIMEOUT:301.331:-1.0:300.0:-1
ipc-2014-agile-transport-09.pddl,TIMEOUT:301.293:-1.0:300.0:-1
ipc-2014-agile-transport-10.pddl,TIMEOUT:301.255:-1.0:300.0:-1
ipc-2014-agile-transport-11.pddl,SAT:121.074:2948.0:300.0:-1
ipc-2014-agile-transport-12.pddl,SAT:169.487:4445.0:300.0:-1
ipc-2014-agile-transport-13.pddl,SAT:56.2774:3203.0:300.0:-1
ipc-2014-agile-transport-14.pddl,TIMEOUT:301.157:-1.0:300.0:-1
ipc-2014-agile-transport-15.pddl,TIMEOUT:301.221:-1.0:300.0:-1
ipc-2014-agile-transport-16.pddl,TIMEOUT:301.171:-1.0:300.0:-1
ipc-2014-agile-transport-17.pddl,TIMEOUT:301.239:-1.0:300.0:-1
ipc-2014-agile-transport-18.pddl,TIMEOUT:301.296:-1.0:300.0:-1
ipc-2014-agile-transport-19.pddl,TIMEOUT:301.181:-1.0:300.0:-1
ipc-2014-agile-transport-20.pddl,TIMEOUT:301.248:-1.0:300.0:-1
ipc-2014-agile-visitall-30.pddl,SAT:61.4487:1121.0:300.0:-1
ipc-2014-agile-visitall-31.pddl,SAT:71.4871:1184.0:300.0:-1
ipc-2014-agile-visitall-32.pddl,SAT:89.0555:1306.0:300.0:-1
ipc-2014-agile-visitall-33.pddl,SAT:104.061:1369.0:300.0:-1
ipc-2014-agile-visitall-50.pddl,TIMEOUT:301.152:-1.0:300.0:-1
ipc-2014-agile-visitall-51.pddl,TIMEOUT:301.152:-1.0:300.0:-1
ipc-2014-agile-visitall-52.pddl,TIMEOUT:301.133:-1.0:300.0:-1
ipc-2014-agile-visitall-53.pddl,TIMEOUT:301.165:-1.0:300.0:-1
ipc-2014-agile-visitall-54.pddl,TIMEOUT:301.225:-1.0:300.0:-1
ipc-2014-agile-visitall-55.pddl,TIMEOUT:301.178:-1.0:300.0:-1
ipc-2014-agile-visitall-56.pddl,TIMEOUT:301.184:-1.0:300.0:-1
ipc-2014-agile-visitall-57.pddl,TIMEOUT:301.204:-1.0:300.0:-1
ipc-2014-agile-visitall-58.pddl,TIMEOUT:301.193:-1.0:300.0:-1
ipc-2014-agile-visitall-59.pddl,TIMEOUT:301.238:-1.0:300.0:-1
ipc-2014-agile-visitall-60.pddl,TIMEOUT:301.197:-1.0:300.0:-1
ipc-2014-agile-visitall-61.pddl,TIMEOUT:301.259:-1.0:300.0:-1
ipc-2014-agile-visitall-62.pddl,TIMEOUT:301.224:-1.0:300.0:-1
ipc-2014-agile-visitall-63.pddl,TIMEOUT:301.285:-1.0:300.0:-1
ipc-2014-agile-visitall-64.pddl,TIMEOUT:301.225:-1.0:300.0:-1
ipc-2014-agile-visitall-65.pddl,TIMEOUT:301.254:-1.0:300.0:-1
