instance,ipc-2014-optimal-miplan
ipc-2014-optimal-barman-p433.1.pddl,CRASHED:3.9654:1000000000.0:1800.0:-1
ipc-2014-optimal-barman-p433.2.pddl,CRASHED:4.12737:1000000000.0:1800.0:-1
ipc-2014-optimal-barman-p433.3.pddl,CRASHED:4.05838:1000000000.0:1800.0:-1
ipc-2014-optimal-barman-p435.1.pddl,CRASHED:1247.43:1000000000.0:1800.0:-1
ipc-2014-optimal-barman-p435.2.pddl,CRASHED:1779.03:1000000000.0:1800.0:-1
ipc-2014-optimal-barman-p435.3.pddl,CRASHED:1782.36:1000000000.0:1800.0:-1
ipc-2014-optimal-barman-p443.1.pddl,CRASHED:4.24635:1000000000.0:1800.0:-1
ipc-2014-optimal-barman-p443.2.pddl,CRASHED:4.28135:1000000000.0:1800.0:-1
ipc-2014-optimal-barman-p443.3.pddl,CRASHED:4.11337:1000000000.0:1800.0:-1
ipc-2014-optimal-barman-p536.1.pddl,CRASHED:1778.01:1000000000.0:1800.0:-1
ipc-2014-optimal-barman-p536.2.pddl,CRASHED:1777.8:1000000000.0:1800.0:-1
ipc-2014-optimal-barman-p536.3.pddl,CRASHED:1244.72:1000000000.0:1800.0:-1
ipc-2014-optimal-barman-p638.1.pddl,CRASHED:1791.22:1000000000.0:1800.0:-1
ipc-2014-optimal-barman-p638.2.pddl,CRASHED:1244.29:1000000000.0:1800.0:-1
ipc-2014-optimal-barman-p638.3.pddl,CRASHED:1781.39:1000000000.0:1800.0:-1
ipc-2014-optimal-barman-p739.1.pddl,CRASHED:1244.36:1000000000.0:1800.0:-1
ipc-2014-optimal-barman-p739.2.pddl,CRASHED:1244.89:1000000000.0:1800.0:-1
ipc-2014-optimal-barman-p739.3.pddl,CRASHED:1779.23:1000000000.0:1800.0:-1
ipc-2014-optimal-barman-p839.1.pddl,CRASHED:1780.51:1000000000.0:1800.0:-1
ipc-2014-optimal-barman-p839.2.pddl,CRASHED:1779.45:1000000000.0:1800.0:-1
ipc-2014-optimal-cavediving-01.pddl,CRASHED:163.994:1000000000.0:1800.0:-1
ipc-2014-optimal-cavediving-01_easy.pddl,CRASHED:152.915:1000000000.0:1800.0:-1
ipc-2014-optimal-cavediving-02_easy.pddl,CRASHED:155.299:1000000000.0:1800.0:-1
ipc-2014-optimal-cavediving-03_easy.pddl,CRASHED:144.701:1000000000.0:1800.0:-1
ipc-2014-optimal-cavediving-04_easy.pddl,CRASHED:161.775:1000000000.0:1800.0:-1
ipc-2014-optimal-cavediving-05A_easy.pddl,SAT:24.7682:94.0:1800.0:-1
ipc-2014-optimal-cavediving-06A_easy.pddl,SAT:24.0033:95.0:1800.0:-1
ipc-2014-optimal-cavediving-07_easy.pddl,SAT:38.6431:131.0:1800.0:-1
ipc-2014-optimal-cavediving-08_easy.pddl,SAT:23.9074:90.0:1800.0:-1
ipc-2014-optimal-cavediving-09_easy.pddl,CRASHED:296.888:1000000000.0:1800.0:-1
ipc-2014-optimal-cavediving-10_easy.pddl,CRASHED:301.518:1000000000.0:1800.0:-1
ipc-2014-optimal-cavediving-11_easy.pddl,CRASHED:292.869:1000000000.0:1800.0:-1
ipc-2014-optimal-cavediving-12_easy.pddl,CRASHED:292.632:1000000000.0:1800.0:-1
ipc-2014-optimal-cavediving-13_easy.pddl,CRASHED:162.351:1000000000.0:1800.0:-1
ipc-2014-optimal-cavediving-14_easy.pddl,CRASHED:161.33:1000000000.0:1800.0:-1
ipc-2014-optimal-cavediving-15_easy.pddl,CRASHED:151.993:1000000000.0:1800.0:-1
ipc-2014-optimal-cavediving-16_easy.pddl,CRASHED:158.16:1000000000.0:1800.0:-1
ipc-2014-optimal-cavediving-18A_easy.pddl,SAT:64.3962:131.0:1800.0:-1
ipc-2014-optimal-cavediving-18_easy.pddl,CRASHED:125.103:131.0:1800.0:-1
ipc-2014-optimal-cavediving-20A_easy.pddl,SAT:40.7468:98.0:1800.0:-1
ipc-2014-optimal-childsnack-01-2.pddl,CRASHED:1774.03:1000000000.0:1800.0:-1
ipc-2014-optimal-childsnack-01.pddl,CRASHED:1771.49:1000000000.0:1800.0:-1
ipc-2014-optimal-childsnack-02-2.pddl,CRASHED:1773.93:1000000000.0:1800.0:-1
ipc-2014-optimal-childsnack-02.pddl,CRASHED:1780.92:1000000000.0:1800.0:-1
ipc-2014-optimal-childsnack-03-2.pddl,CRASHED:1779.43:1000000000.0:1800.0:-1
ipc-2014-optimal-childsnack-03.pddl,CRASHED:1247.38:1000000000.0:1800.0:-1
ipc-2014-optimal-childsnack-04-2.pddl,CRASHED:1780.4:1000000000.0:1800.0:-1
ipc-2014-optimal-childsnack-04.pddl,CRASHED:1782.14:1000000000.0:1800.0:-1
ipc-2014-optimal-childsnack-05-2.pddl,CRASHED:1247.61:1000000000.0:1800.0:-1
ipc-2014-optimal-childsnack-05.pddl,CRASHED:1787.3:1000000000.0:1800.0:-1
ipc-2014-optimal-childsnack-06-2.pddl,CRASHED:1788.98:1000000000.0:1800.0:-1
ipc-2014-optimal-childsnack-06.pddl,CRASHED:1241.28:1000000000.0:1800.0:-1
ipc-2014-optimal-childsnack-07-2.pddl,CRASHED:1786.38:1000000000.0:1800.0:-1
ipc-2014-optimal-childsnack-07.pddl,CRASHED:1239.51:1000000000.0:1800.0:-1
ipc-2014-optimal-childsnack-08-2.pddl,CRASHED:1787.52:1000000000.0:1800.0:-1
ipc-2014-optimal-childsnack-08.pddl,CRASHED:1787.15:1000000000.0:1800.0:-1
ipc-2014-optimal-childsnack-09-2.pddl,CRASHED:1305.07:1000000000.0:1800.0:-1
ipc-2014-optimal-childsnack-09.pddl,CRASHED:1791.65:1000000000.0:1800.0:-1
ipc-2014-optimal-childsnack-10-2.pddl,CRASHED:1408.17:1000000000.0:1800.0:-1
ipc-2014-optimal-childsnack-10.pddl,CRASHED:1402.25:1000000000.0:1800.0:-1
ipc-2014-optimal-citycar-p2-2-2-1-2.pddl,SAT:7.37888:46.0:1800.0:-1
ipc-2014-optimal-citycar-p2-2-2-2-1.pddl,SAT:12.4091:64.0:1800.0:-1
ipc-2014-optimal-citycar-p2-2-3-1-2.pddl,SAT:10.0555:50.0:1800.0:-1
ipc-2014-optimal-citycar-p2-2-3-2-1.pddl,SAT:9.96648:48.0:1800.0:-1
ipc-2014-optimal-citycar-p2-2-3-2-2.pddl,SAT:10.0675:50.0:1800.0:-1
ipc-2014-optimal-citycar-p2-2-4-1-2.pddl,SAT:12.7931:52.0:1800.0:-1
ipc-2014-optimal-citycar-p2-2-4-2-1.pddl,SAT:12.6941:52.0:1800.0:-1
ipc-2014-optimal-citycar-p2-2-5-2-2.pddl,SAT:521.3:76.0:1800.0:-1
ipc-2014-optimal-citycar-p2-2-6-1-1.pddl,SAT:35.9375:58.0:1800.0:-1
ipc-2014-optimal-citycar-p2-2-6-2-2.pddl,SAT:36.1225:58.0:1800.0:-1
ipc-2014-optimal-citycar-p2-3-2-3-1.pddl,SAT:519.34:68.0:1800.0:-1
ipc-2014-optimal-citycar-p2-3-3-3-1.pddl,SAT:519.69:78.0:1800.0:-1
ipc-2014-optimal-citycar-p2-3-4-3-1.pddl,CRASHED:1723.42:1000000000.0:1800.0:-1
ipc-2014-optimal-citycar-p2-3-6-3-2.pddl,CRASHED:1717.17:1000000000.0:1800.0:-1
ipc-2014-optimal-citycar-p3-3-2-2-1.pddl,CRASHED:1717.03:1000000000.0:1800.0:-1
ipc-2014-optimal-citycar-p3-3-2-2-2.pddl,CRASHED:1717.25:1000000000.0:1800.0:-1
ipc-2014-optimal-citycar-p3-3-2-3-1.pddl,SAT:44.5892:48.0:1800.0:-1
ipc-2014-optimal-citycar-p3-3-2-3-2.pddl,CRASHED:1716.41:1000000000.0:1800.0:-1
ipc-2014-optimal-citycar-p3-3-3-3-1.pddl,CRASHED:1596.25:1000000000.0:1800.0:-1
ipc-2014-optimal-citycar-p3-3-3-3-2.pddl,CRASHED:1590.16:1000000000.0:1800.0:-1
ipc-2014-optimal-floortile-p01-4-3-2.pddl,SAT:132.656:56.0:1800.0:-1
ipc-2014-optimal-floortile-p01-4-4-2.pddl,SAT:474.697:68.0:1800.0:-1
ipc-2014-optimal-floortile-p01-5-3-2.pddl,CRASHED:400.105:63.0:1800.0:-1
ipc-2014-optimal-floortile-p01-5-4-2.pddl,CRASHED:1779.32:1000000000.0:1800.0:-1
ipc-2014-optimal-floortile-p01-5-5-2.pddl,CRASHED:1784.07:1000000000.0:1800.0:-1
ipc-2014-optimal-floortile-p01-6-4-2.pddl,CRASHED:1780.97:1000000000.0:1800.0:-1
ipc-2014-optimal-floortile-p01-6-5-2.pddl,CRASHED:1778.93:1000000000.0:1800.0:-1
ipc-2014-optimal-floortile-p02-4-4-2.pddl,CRASHED:1300.89:1000000000.0:1800.0:-1
ipc-2014-optimal-floortile-p02-5-3-2.pddl,CRASHED:419.96:65.0:1800.0:-1
ipc-2014-optimal-floortile-p02-5-4-2.pddl,CRASHED:1327.42:1000000000.0:1800.0:-1
ipc-2014-optimal-floortile-p02-5-5-2.pddl,CRASHED:1778.78:1000000000.0:1800.0:-1
ipc-2014-optimal-floortile-p02-6-4-2.pddl,CRASHED:1780.31:1000000000.0:1800.0:-1
ipc-2014-optimal-floortile-p02-6-5-2.pddl,CRASHED:1308.95:1000000000.0:1800.0:-1
ipc-2014-optimal-floortile-p03-4-3-2.pddl,SAT:146.825:56.0:1800.0:-1
ipc-2014-optimal-floortile-p03-4-4-2.pddl,CRASHED:1307.89:1000000000.0:1800.0:-1
ipc-2014-optimal-floortile-p03-5-3-2.pddl,CRASHED:431.846:65.0:1800.0:-1
ipc-2014-optimal-floortile-p03-5-4-2.pddl,CRASHED:1780.16:1000000000.0:1800.0:-1
ipc-2014-optimal-floortile-p03-5-5-2.pddl,CRASHED:0.199982:1000000000.0:1800.0:-1
ipc-2014-optimal-floortile-p03-6-4-2.pddl,CRASHED:1370.21:1000000000.0:1800.0:-1
ipc-2014-optimal-floortile-p03-6-5-2.pddl,CRASHED:1778.06:1000000000.0:1800.0:-1
ipc-2014-optimal-ged-d-1-2.pddl,SAT:1.51477:1.0:1800.0:-1
ipc-2014-optimal-ged-d-1-3.pddl,SAT:6.08307:4.0:1800.0:-1
ipc-2014-optimal-ged-d-1-4.pddl,SAT:1.54176:1.0:1800.0:-1
ipc-2014-optimal-ged-d-1-8.pddl,SAT:24.0933:4.0:1800.0:-1
ipc-2014-optimal-ged-d-2-1.pddl,SAT:1.51177:1.0:1800.0:-1
ipc-2014-optimal-ged-d-2-3.pddl,SAT:1.86471:3.0:1800.0:-1
ipc-2014-optimal-ged-d-2-4.pddl,SAT:1.57076:2.0:1800.0:-1
ipc-2014-optimal-ged-d-2-8.pddl,CRASHED:29.5199:1000000000.0:1800.0:-1
ipc-2014-optimal-ged-d-3-1.pddl,SAT:6.01108:4.0:1800.0:-1
ipc-2014-optimal-ged-d-3-2.pddl,SAT:1.81372:3.0:1800.0:-1
ipc-2014-optimal-ged-d-3-4.pddl,CRASHED:339.976:5.0:1800.0:-1
ipc-2014-optimal-ged-d-4-2.pddl,SAT:1.59376:2.0:1800.0:-1
ipc-2014-optimal-ged-d-4-3.pddl,CRASHED:338.853:5.0:1800.0:-1
ipc-2014-optimal-ged-d-4-8.pddl,CRASHED:1782.05:1000000000.0:1800.0:-1
ipc-2014-optimal-ged-d-7-5.pddl,SAT:25.6161:4.0:1800.0:-1
ipc-2014-optimal-ged-d-7-6.pddl,SAT:7.65783:4.0:1800.0:-1
ipc-2014-optimal-ged-d-8-1.pddl,SAT:24.3183:4.0:1800.0:-1
ipc-2014-optimal-ged-d-8-2.pddl,CRASHED:33.5001:1000000000.0:1800.0:-1
ipc-2014-optimal-ged-d-8-4.pddl,CRASHED:39.36:1000000000.0:1800.0:-1
ipc-2014-optimal-ged-d-8-9.pddl,CRASHED:1782.09:1000000000.0:1800.0:-1
ipc-2014-optimal-hiking-1-2-3.pddl,SAT:1.20882:11.0:1800.0:-1
ipc-2014-optimal-hiking-1-2-4.pddl,SAT:20.8098:17.0:1800.0:-1
ipc-2014-optimal-hiking-1-2-5.pddl,SAT:21.2508:25.0:1800.0:-1
ipc-2014-optimal-hiking-1-2-7.pddl,SAT:24.9532:38.0:1800.0:-1
ipc-2014-optimal-hiking-1-2-8.pddl,SAT:32.0781:45.0:1800.0:-1
ipc-2014-optimal-hiking-2-2-3.pddl,SAT:21.4567:10.0:1800.0:-1
ipc-2014-optimal-hiking-2-2-4.pddl,SAT:60.8687:16.0:1800.0:-1
ipc-2014-optimal-hiking-2-2-5.pddl,SAT:296.468:22.0:1800.0:-1
ipc-2014-optimal-hiking-2-2-6.pddl,CRASHED:1787.31:1000000000.0:1800.0:-1
ipc-2014-optimal-hiking-2-2-7.pddl,CRASHED:1246.59:1000000000.0:1800.0:-1
ipc-2014-optimal-hiking-2-2-8.pddl,CRASHED:1246.73:1000000000.0:1800.0:-1
ipc-2014-optimal-hiking-2-3-4.pddl,SAT:212.06:17.0:1800.0:-1
ipc-2014-optimal-hiking-2-3-5.pddl,SAT:453.432:24.0:1800.0:-1
ipc-2014-optimal-hiking-2-3-6.pddl,CRASHED:1787.12:1000000000.0:1800.0:-1
ipc-2014-optimal-hiking-2-3-7.pddl,CRASHED:1244.29:1000000000.0:1800.0:-1
ipc-2014-optimal-hiking-2-4-3.pddl,SAT:24.7872:10.0:1800.0:-1
ipc-2014-optimal-hiking-2-4-4.pddl,SAT:300.748:17.0:1800.0:-1
ipc-2014-optimal-hiking-2-4-5.pddl,CRASHED:1786.89:1000000000.0:1800.0:-1
ipc-2014-optimal-hiking-2-4-6.pddl,CRASHED:1792.19:1000000000.0:1800.0:-1
ipc-2014-optimal-hiking-2-4-7.pddl,CRASHED:1793.16:1000000000.0:1800.0:-1
ipc-2014-optimal-maintenance-1.3.010.010.1-001.pddl,CRASHED:3.62745:1000000000.0:1800.0:-1
ipc-2014-optimal-maintenance-1.3.010.010.1-002.pddl,CRASHED:3.56646:1000000000.0:1800.0:-1
ipc-2014-optimal-maintenance-1.3.010.010.2-000.pddl,SAT:0.608906:4.0:1800.0:-1
ipc-2014-optimal-maintenance-1.3.010.010.2-001.pddl,SAT:0.588909:7.0:1800.0:-1
ipc-2014-optimal-maintenance-1.3.010.010.2-002.pddl,SAT:0.593909:6.0:1800.0:-1
ipc-2014-optimal-maintenance-1.3.015.020.1-000.pddl,CRASHED:5.61515:1000000000.0:1800.0:-1
ipc-2014-optimal-maintenance-1.3.015.020.1-001.pddl,CRASHED:15.9226:1000000000.0:1800.0:-1
ipc-2014-optimal-maintenance-1.3.015.020.1-002.pddl,CRASHED:25.1822:1000000000.0:1800.0:-1
ipc-2014-optimal-maintenance-1.3.015.020.2-000.pddl,CRASHED:131.459:1000000000.0:1800.0:-1
ipc-2014-optimal-maintenance-1.3.015.020.2-001.pddl,SAT:1.05384:11.0:1800.0:-1
ipc-2014-optimal-maintenance-1.3.015.020.2-002.pddl,SAT:1.06584:9.0:1800.0:-1
ipc-2014-optimal-maintenance-1.3.025.050.1-000.pddl,CRASHED:175.022:1000000000.0:1800.0:-1
ipc-2014-optimal-maintenance-1.3.025.050.1-001.pddl,CRASHED:183.411:1000000000.0:1800.0:-1
ipc-2014-optimal-maintenance-1.3.025.050.1-002.pddl,CRASHED:175.801:1000000000.0:1800.0:-1
ipc-2014-optimal-maintenance-1.3.025.100.1-000.pddl,CRASHED:153.68:1000000000.0:1800.0:-1
ipc-2014-optimal-maintenance-1.3.025.100.1-001.pddl,CRASHED:151.63:1000000000.0:1800.0:-1
ipc-2014-optimal-maintenance-1.3.025.100.1-002.pddl,CRASHED:156.581:1000000000.0:1800.0:-1
ipc-2014-optimal-maintenance-1.3.025.100.2-000.pddl,CRASHED:1058.54:1000000000.0:1800.0:-1
ipc-2014-optimal-maintenance-1.3.025.100.2-001.pddl,CRASHED:1391.58:1000000000.0:1800.0:-1
ipc-2014-optimal-maintenance-1.3.025.100.2-002.pddl,CRASHED:1126.64:1000000000.0:1800.0:-1
ipc-2014-optimal-openstacks-p20_1.pddl,CRASHED:1499.1:3.0:1800.0:-1
ipc-2014-optimal-openstacks-p20_2.pddl,CRASHED:1592.97:4.0:1800.0:-1
ipc-2014-optimal-openstacks-p20_3.pddl,SAT:45.1661:6.0:1800.0:-1
ipc-2014-optimal-openstacks-p25_1.pddl,CRASHED:1778.75:1000000000.0:1800.0:-1
ipc-2014-optimal-openstacks-p25_3.pddl,CRASHED:1268.05:1000000000.0:1800.0:-1
ipc-2014-optimal-openstacks-p30_1.pddl,CRASHED:1783.47:1000000000.0:1800.0:-1
ipc-2014-optimal-openstacks-p30_2.pddl,CRASHED:1327.06:1000000000.0:1800.0:-1
ipc-2014-optimal-openstacks-p30_3.pddl,CRASHED:1269.46:1000000000.0:1800.0:-1
ipc-2014-optimal-openstacks-p35_1.pddl,CRASHED:1783.91:1000000000.0:1800.0:-1
ipc-2014-optimal-openstacks-p35_2.pddl,CRASHED:1784.14:1000000000.0:1800.0:-1
ipc-2014-optimal-openstacks-p35_3.pddl,CRASHED:1266.41:1000000000.0:1800.0:-1
ipc-2014-optimal-openstacks-p40_1.pddl,CRASHED:1784.45:1000000000.0:1800.0:-1
ipc-2014-optimal-openstacks-p40_2.pddl,CRASHED:1782.88:1000000000.0:1800.0:-1
ipc-2014-optimal-openstacks-p40_3.pddl,CRASHED:1782.98:1000000000.0:1800.0:-1
ipc-2014-optimal-openstacks-p45_1.pddl,CRASHED:1788.4:1000000000.0:1800.0:-1
ipc-2014-optimal-openstacks-p45_2.pddl,CRASHED:1458.95:1000000000.0:1800.0:-1
ipc-2014-optimal-openstacks-p45_3.pddl,CRASHED:1788.74:1000000000.0:1800.0:-1
ipc-2014-optimal-openstacks-p50_1.pddl,CRASHED:1783.82:1000000000.0:1800.0:-1
ipc-2014-optimal-openstacks-p50_2.pddl,CRASHED:1788.04:1000000000.0:1800.0:-1
ipc-2014-optimal-openstacks-p50_3.pddl,CRASHED:1789.68:1000000000.0:1800.0:-1
ipc-2014-optimal-parking-12_7-01.pddl,SAT:178.84:18.0:1800.0:-1
ipc-2014-optimal-parking-12_7-02.pddl,SAT:183.925:18.0:1800.0:-1
ipc-2014-optimal-parking-12_7-03.pddl,SAT:177.844:17.0:1800.0:-1
ipc-2014-optimal-parking-12_7-04.pddl,SAT:201.868:19.0:1800.0:-1
ipc-2014-optimal-parking-14_8-01.pddl,CRASHED:1791.92:1000000000.0:1800.0:-1
ipc-2014-optimal-parking-14_8-02.pddl,SAT:335.094:22.0:1800.0:-1
ipc-2014-optimal-parking-14_8-03.pddl,SAT:216.656:21.0:1800.0:-1
ipc-2014-optimal-parking-14_8-04.pddl,CRASHED:1789.61:1000000000.0:1800.0:-1
ipc-2014-optimal-parking-16_9-01.pddl,CRASHED:163.28:1000000000.0:1800.0:-1
ipc-2014-optimal-parking-16_9-02.pddl,CRASHED:163.26:1000000000.0:1800.0:-1
ipc-2014-optimal-parking-16_9-03.pddl,CRASHED:1628.96:1000000000.0:1800.0:-1
ipc-2014-optimal-parking-16_9-04.pddl,CRASHED:1621.0:1000000000.0:1800.0:-1
ipc-2014-optimal-parking-18_10-01.pddl,CRASHED:319.71:1000000000.0:1800.0:-1
ipc-2014-optimal-parking-18_10-02.pddl,CRASHED:1612.51:1000000000.0:1800.0:-1
ipc-2014-optimal-parking-18_10-03.pddl,CRASHED:1622.25:1000000000.0:1800.0:-1
ipc-2014-optimal-parking-18_10-04.pddl,CRASHED:306.61:1000000000.0:1800.0:-1
ipc-2014-optimal-parking-20_11-01.pddl,CRASHED:301.32:1000000000.0:1800.0:-1
ipc-2014-optimal-parking-20_11-02.pddl,CRASHED:1534.06:1000000000.0:1800.0:-1
ipc-2014-optimal-parking-20_11-03.pddl,CRASHED:1553.46:1000000000.0:1800.0:-1
ipc-2014-optimal-parking-20_11-04.pddl,CRASHED:1552.05:1000000000.0:1800.0:-1
ipc-2014-optimal-tetris-01-10.pddl,CRASHED:519.19:1000000000.0:1800.0:-1
ipc-2014-optimal-tetris-01-04.pddl,CRASHED:486.992:1000000000.0:1800.0:-1
ipc-2014-optimal-tetris-01-06.pddl,SAT:260.874:30.0:1800.0:-1
ipc-2014-optimal-tetris-01-08.pddl,CRASHED:52.0631:36.0:1800.0:-1
ipc-2014-optimal-tetris-02-10.pddl,CRASHED:1760.62:1000000000.0:1800.0:-1
ipc-2014-optimal-tetris-02-04.pddl,SAT:1.06084:10.0:1800.0:-1
ipc-2014-optimal-tetris-02-06.pddl,SAT:53.4699:30.0:1800.0:-1
ipc-2014-optimal-tetris-02-08.pddl,CRASHED:765.14:1000000000.0:1800.0:-1
ipc-2014-optimal-tetris-03-10.pddl,CRASHED:613.81:1000000000.0:1800.0:-1
ipc-2014-optimal-tetris-03-04.pddl,SAT:22.9115:11.0:1800.0:-1
ipc-2014-optimal-tetris-03-06.pddl,SAT:192.591:21.0:1800.0:-1
ipc-2014-optimal-tetris-03-08.pddl,CRASHED:457.57:48.0:1800.0:-1
ipc-2014-optimal-tetris-04-10.pddl,CRASHED:519.87:1000000000.0:1800.0:-1
ipc-2014-optimal-tetris-04-04.pddl,CRASHED:197.49:1000000000.0:1800.0:-1
ipc-2014-optimal-tetris-04-06.pddl,SAT:234.352:27.0:1800.0:-1
ipc-2014-optimal-tetris-04-08.pddl,CRASHED:519.05:1000000000.0:1800.0:-1
ipc-2014-optimal-tetris-05-10.pddl,CRASHED:351.19:1000000000.0:1800.0:-1
ipc-2014-optimal-tetris-05-04.pddl,CRASHED:328.267:1000000000.0:1800.0:-1
ipc-2014-optimal-tetris-05-06.pddl,SAT:25.3991:19.0:1800.0:-1
ipc-2014-optimal-tetris-05-08.pddl,CRASHED:431.13:1000000000.0:1800.0:-1
ipc-2014-optimal-tidybot-01.pddl,CRASHED:1706.65:1000000000.0:1800.0:-1
ipc-2014-optimal-tidybot-02.pddl,CRASHED:321.68:35.0:1800.0:-1
ipc-2014-optimal-tidybot-03.pddl,SAT:75.4015:30.0:1800.0:-1
ipc-2014-optimal-tidybot-04.pddl,CRASHED:321.77:24.0:1800.0:-1
ipc-2014-optimal-tidybot-05.pddl,CRASHED:1714.02:1000000000.0:1800.0:-1
ipc-2014-optimal-tidybot-06.pddl,CRASHED:1706.46:1000000000.0:1800.0:-1
ipc-2014-optimal-tidybot-07.pddl,CRASHED:1712.68:1000000000.0:1800.0:-1
ipc-2014-optimal-tidybot-08.pddl,SAT:58.989:25.0:1800.0:-1
ipc-2014-optimal-tidybot-09.pddl,CRASHED:1681.16:1000000000.0:1800.0:-1
ipc-2014-optimal-tidybot-10.pddl,CRASHED:1570.06:1000000000.0:1800.0:-1
ipc-2014-optimal-tidybot-11.pddl,SAT:42.1786:29.0:1800.0:-1
ipc-2014-optimal-tidybot-12.pddl,CRASHED:288.99:35.0:1800.0:-1
ipc-2014-optimal-tidybot-13.pddl,CRASHED:321.18:30.0:1800.0:-1
ipc-2014-optimal-tidybot-14.pddl,SAT:56.3294:25.0:1800.0:-1
ipc-2014-optimal-tidybot-15.pddl,CRASHED:1707.38:1000000000.0:1800.0:-1
ipc-2014-optimal-tidybot-16.pddl,CRASHED:1706.56:1000000000.0:1800.0:-1
ipc-2014-optimal-tidybot-17.pddl,CRASHED:1707.32:1000000000.0:1800.0:-1
ipc-2014-optimal-tidybot-18.pddl,CRASHED:1703.81:1000000000.0:1800.0:-1
ipc-2014-optimal-tidybot-19.pddl,CRASHED:1707.62:1000000000.0:1800.0:-1
ipc-2014-optimal-tidybot-20.pddl,CRASHED:1704.72:1000000000.0:1800.0:-1
ipc-2014-optimal-transport-01.pddl,SAT:21.2618:148.0:1800.0:-1
ipc-2014-optimal-transport-02.pddl,SAT:25.6521:191.0:1800.0:-1
ipc-2014-optimal-transport-03.pddl,SAT:69.4764:300.0:1800.0:-1
ipc-2014-optimal-transport-04.pddl,CRASHED:1782.65:1000000000.0:1800.0:-1
ipc-2014-optimal-transport-05.pddl,CRASHED:1781.37:1000000000.0:1800.0:-1
ipc-2014-optimal-transport-06.pddl,CRASHED:1777.45:1000000000.0:1800.0:-1
ipc-2014-optimal-transport-07.pddl,SAT:63.4304:967.0:1800.0:-1
ipc-2014-optimal-transport-08.pddl,CRASHED:493.859:1173.0:1800.0:-1
ipc-2014-optimal-transport-09.pddl,CRASHED:1781.08:1000000000.0:1800.0:-1
ipc-2014-optimal-transport-10.pddl,CRASHED:1781.77:1000000000.0:1800.0:-1
ipc-2014-optimal-transport-11.pddl,CRASHED:1788.27:1000000000.0:1800.0:-1
ipc-2014-optimal-transport-12.pddl,CRASHED:1785.59:1000000000.0:1800.0:-1
ipc-2014-optimal-transport-13.pddl,SAT:32.0121:594.0:1800.0:-1
ipc-2014-optimal-transport-14.pddl,SAT:283.356:526.0:1800.0:-1
ipc-2014-optimal-transport-15.pddl,CRASHED:1781.34:1000000000.0:1800.0:-1
ipc-2014-optimal-transport-16.pddl,CRASHED:1248.69:1000000000.0:1800.0:-1
ipc-2014-optimal-transport-17.pddl,CRASHED:1597.41:1000000000.0:1800.0:-1
ipc-2014-optimal-transport-18.pddl,CRASHED:1793.19:1000000000.0:1800.0:-1
ipc-2014-optimal-transport-19.pddl,CRASHED:1616.18:1000000000.0:1800.0:-1
ipc-2014-optimal-transport-20.pddl,CRASHED:162.86:1000000000.0:1800.0:-1
ipc-2014-optimal-visitall-05-10.pddl,CRASHED:1778.86:1000000000.0:1800.0:-1
ipc-2014-optimal-visitall-05-05.pddl,SAT:4.21936:21.0:1800.0:-1
ipc-2014-optimal-visitall-05-06.pddl,SAT:6.67698:25.0:1800.0:-1
ipc-2014-optimal-visitall-05-07.pddl,SAT:115.645:34.0:1800.0:-1
ipc-2014-optimal-visitall-05-08.pddl,CRASHED:656.681:43.0:1800.0:-1
ipc-2014-optimal-visitall-05-09.pddl,CRASHED:1782.95:1000000000.0:1800.0:-1
ipc-2014-optimal-visitall-01-10.pddl,SAT:172.589:99.0:1800.0:-1
ipc-2014-optimal-visitall-01-11.pddl,SAT:174.128:120.0:1800.0:-1
ipc-2014-optimal-visitall-01-12.pddl,SAT:218.338:143.0:1800.0:-1
ipc-2014-optimal-visitall-01-13.pddl,SAT:175.315:168.0:1800.0:-1
ipc-2014-optimal-visitall-01-14.pddl,CRASHED:1259.91:1000000000.0:1800.0:-1
ipc-2014-optimal-visitall-01-15.pddl,CRASHED:1779.71:1000000000.0:1800.0:-1
ipc-2014-optimal-visitall-01-16.pddl,CRASHED:1587.12:1000000000.0:1800.0:-1
ipc-2014-optimal-visitall-01-17.pddl,CRASHED:1776.33:1000000000.0:1800.0:-1
ipc-2014-optimal-visitall-01-18.pddl,CRASHED:1781.52:1000000000.0:1800.0:-1
ipc-2014-optimal-visitall-01-05.pddl,SAT:25.0522:24.0:1800.0:-1
ipc-2014-optimal-visitall-01-06.pddl,SAT:172.101:35.0:1800.0:-1
ipc-2014-optimal-visitall-01-07.pddl,SAT:173.511:48.0:1800.0:-1
ipc-2014-optimal-visitall-01-08.pddl,SAT:172.439:63.0:1800.0:-1
ipc-2014-optimal-visitall-01-09.pddl,SAT:173.799:80.0:1800.0:-1
