instance,ipc-2014-agile-madagascar-pc
ipc-2014-agile-barman-p1-11-4-15.pddl,TIMEOUT:301.192:-1.0:300.0:-1
ipc-2014-agile-barman-p1-11-5-15.pddl,TIMEOUT:301.254:-1.0:300.0:-1
ipc-2014-agile-barman-p1-11-5-16.pddl,TIMEOUT:301.234:-1.0:300.0:-1
ipc-2014-agile-barman-p2-10-4-13.pddl,TIMEOUT:301.137:-1.0:300.0:-1
ipc-2014-agile-barman-p2-11-4-15.pddl,TIMEOUT:301.182:-1.0:300.0:-1
ipc-2014-agile-barman-p2-11-5-15.pddl,TIMEOUT:301.288:-1.0:300.0:-1
ipc-2014-agile-barman-p2-11-5-16.pddl,TIMEOUT:301.244:-1.0:300.0:-1
ipc-2014-agile-barman-p2-11-5-17.pddl,TIMEOUT:301.238:-1.0:300.0:-1
ipc-2014-agile-barman-p3-10-4-13.pddl,TIMEOUT:301.141:-1.0:300.0:-1
ipc-2014-agile-barman-p3-11-4-15.pddl,TIMEOUT:301.231:-1.0:300.0:-1
ipc-2014-agile-barman-p3-11-5-15.pddl,TIMEOUT:301.244:-1.0:300.0:-1
ipc-2014-agile-barman-p3-11-5-16.pddl,TIMEOUT:301.274:-1.0:300.0:-1
ipc-2014-agile-barman-p3-11-5-17.pddl,TIMEOUT:301.234:-1.0:300.0:-1
ipc-2014-agile-barman-p4-11-4-14.pddl,TIMEOUT:301.193:-1.0:300.0:-1
ipc-2014-agile-barman-p4-11-4-15.pddl,TIMEOUT:301.229:-1.0:300.0:-1
ipc-2014-agile-barman-p4-11-5-15.pddl,SAT:126.528:441.0:300.0:-1
ipc-2014-agile-barman-p5-10-4-13.pddl,TIMEOUT:301.209:-1.0:300.0:-1
ipc-2014-agile-barman-p5-11-4-15.pddl,TIMEOUT:301.204:-1.0:300.0:-1
ipc-2014-agile-barman-p5-11-5-15.pddl,TIMEOUT:301.228:-1.0:300.0:-1
ipc-2014-agile-barman-p5-11-5-16.pddl,TIMEOUT:301.236:-1.0:300.0:-1
ipc-2014-agile-cavediving-01_easy.pddl,TIMEOUT:301.226:-1.0:300.0:-1
ipc-2014-agile-cavediving-01.pddl,TIMEOUT:301.29:-1.0:300.0:-1
ipc-2014-agile-cavediving-02_easy.pddl,TIMEOUT:301.286:-1.0:300.0:-1
ipc-2014-agile-cavediving-03_easy.pddl,TIMEOUT:301.293:-1.0:300.0:-1
ipc-2014-agile-cavediving-04_easy.pddl,TIMEOUT:301.291:-1.0:300.0:-1
ipc-2014-agile-cavediving-05A_easy.pddl,SAT:103.83:94.0:300.0:-1
ipc-2014-agile-cavediving-06A_easy.pddl,SAT:103.915:95.0:300.0:-1
ipc-2014-agile-cavediving-07_easy.pddl,TIMEOUT:301.198:-1.0:300.0:-1
ipc-2014-agile-cavediving-08_easy.pddl,SAT:105.008:90.0:300.0:-1
ipc-2014-agile-cavediving-09_easy.pddl,TIMEOUT:301.406:-1.0:300.0:-1
ipc-2014-agile-cavediving-10_easy.pddl,TIMEOUT:301.332:-1.0:300.0:-1
ipc-2014-agile-cavediving-11_easy.pddl,TIMEOUT:301.398:-1.0:300.0:-1
ipc-2014-agile-cavediving-12_easy.pddl,TIMEOUT:301.33:-1.0:300.0:-1
ipc-2014-agile-cavediving-13_easy.pddl,TIMEOUT:301.295:-1.0:300.0:-1
ipc-2014-agile-cavediving-14_easy.pddl,TIMEOUT:301.29:-1.0:300.0:-1
ipc-2014-agile-cavediving-15_easy.pddl,TIMEOUT:301.243:-1.0:300.0:-1
ipc-2014-agile-cavediving-16_easy.pddl,TIMEOUT:301.28:-1.0:300.0:-1
ipc-2014-agile-cavediving-18A_easy.pddl,TIMEOUT:301.137:-1.0:300.0:-1
ipc-2014-agile-cavediving-18_easy.pddl,SAT:0.115982:132.0:300.0:-1
ipc-2014-agile-cavediving-20A_easy.pddl,TIMEOUT:301.228:-1.0:300.0:-1
ipc-2014-agile-childsnack-05-2.pddl,SAT:0.089986:36.0:300.0:-1
ipc-2014-agile-childsnack-05.pddl,SAT:0.094984:38.0:300.0:-1
ipc-2014-agile-childsnack-06-2.pddl,SAT:0.127979:38.0:300.0:-1
ipc-2014-agile-childsnack-07-2.pddl,SAT:0.158975:43.0:300.0:-1
ipc-2014-agile-childsnack-08-2.pddl,CRASHED:89.3664:1000000000.0:300.0:-1
ipc-2014-agile-childsnack-08.pddl,SAT:0.219966:47.0:300.0:-1
ipc-2014-agile-childsnack-09-2.pddl,SAT:0.38594:47.0:300.0:-1
ipc-2014-agile-childsnack-09.pddl,CRASHED:29.6865:1000000000.0:300.0:-1
ipc-2014-agile-childsnack-10-2.pddl,CRASHED:31.4102:1000000000.0:300.0:-1
ipc-2014-agile-childsnack-10.pddl,CRASHED:28.0797:1000000000.0:300.0:-1
ipc-2014-agile-childsnack-11-2.pddl,CRASHED:184.72:1000000000.0:300.0:-1
ipc-2014-agile-childsnack-11.pddl,CRASHED:145.419:1000000000.0:300.0:-1
ipc-2014-agile-childsnack-12.pddl,CRASHED:36.5694:1000000000.0:300.0:-1
ipc-2014-agile-childsnack-13-2.pddl,CRASHED:109.295:1000000000.0:300.0:-1
ipc-2014-agile-childsnack-13.pddl,CRASHED:119.435:1000000000.0:300.0:-1
ipc-2014-agile-childsnack-14.pddl,CRASHED:45.952:1000000000.0:300.0:-1
ipc-2014-agile-childsnack-15-2.pddl,CRASHED:24.1953:1000000000.0:300.0:-1
ipc-2014-agile-childsnack-16-2.pddl,CRASHED:73.7938:1000000000.0:300.0:-1
ipc-2014-agile-childsnack-19-2.pddl,CRASHED:50.1254:1000000000.0:300.0:-1
ipc-2014-agile-childsnack-19.pddl,CRASHED:57.2423:1000000000.0:300.0:-1
ipc-2014-agile-citycar-p3-2-2-0-1.pddl,SAT:0.134979:291.0:300.0:-1
ipc-2014-agile-citycar-p3-3-2-0-1.pddl,SAT:0.791879:651.0:300.0:-1
ipc-2014-agile-citycar-p3-4-2-0-1.pddl,SAT:0.392939:722.0:300.0:-1
ipc-2014-agile-citycar-p3-5-2-0-1.pddl,SAT:61.7976:694.0:300.0:-1
ipc-2014-agile-citycar-p3-5-2-0-2.pddl,SAT:10.0995:1041.0:300.0:-1
ipc-2014-agile-citycar-p4-2-2-0-1.pddl,SAT:45.3861:336.0:300.0:-1
ipc-2014-agile-citycar-p4-2-3-0-1.pddl,SAT:60.2998:417.0:300.0:-1
ipc-2014-agile-citycar-p4-2-3-0-2.pddl,SAT:275.064:494.0:300.0:-1
ipc-2014-agile-citycar-p4-3-2-0-1.pddl,SAT:45.5081:1185.0:300.0:-1
ipc-2014-agile-citycar-p4-3-2-0-2.pddl,TIMEOUT:301.3:-1.0:300.0:-1
ipc-2014-agile-citycar-p4-3-3-0-1.pddl,TIMEOUT:301.334:-1.0:300.0:-1
ipc-2014-agile-citycar-p4-3-3-0-2.pddl,TIMEOUT:301.351:-1.0:300.0:-1
ipc-2014-agile-citycar-p4-4-2-0-1.pddl,TIMEOUT:301.383:-1.0:300.0:-1
ipc-2014-agile-citycar-p4-4-2-0-2.pddl,TIMEOUT:301.343:-1.0:300.0:-1
ipc-2014-agile-citycar-p4-4-3-0-1.pddl,TIMEOUT:301.402:-1.0:300.0:-1
ipc-2014-agile-citycar-p4-4-3-0-2.pddl,TIMEOUT:301.388:-1.0:300.0:-1
ipc-2014-agile-citycar-p4-5-2-0-1.pddl,TIMEOUT:301.34:-1.0:300.0:-1
ipc-2014-agile-citycar-p4-5-2-0-2.pddl,TIMEOUT:301.349:-1.0:300.0:-1
ipc-2014-agile-citycar-p4-5-3-0-1.pddl,TIMEOUT:301.309:-1.0:300.0:-1
ipc-2014-agile-citycar-p4-5-3-0-2.pddl,TIMEOUT:301.324:-1.0:300.0:-1
ipc-2014-agile-floortile-p01-4-3-2.pddl,SAT:0.014996:94.0:300.0:-1
ipc-2014-agile-floortile-p01-5-4-2.pddl,SAT:0.026995:173.0:300.0:-1
ipc-2014-agile-floortile-p01-5-5-2.pddl,SAT:0.041993:197.0:300.0:-1
ipc-2014-agile-floortile-p01-6-4-2.pddl,SAT:0.030995:190.0:300.0:-1
ipc-2014-agile-floortile-p01-6-5-2.pddl,SAT:0.052991:230.0:300.0:-1
ipc-2014-agile-floortile-p01-6-5-3.pddl,SAT:0.067989:223.0:300.0:-1
ipc-2014-agile-floortile-p02-5-4-2.pddl,SAT:0.030994:178.0:300.0:-1
ipc-2014-agile-floortile-p02-6-4-2.pddl,SAT:0.036993:207.0:300.0:-1
ipc-2014-agile-floortile-p02-6-5-2.pddl,SAT:0.065989:251.0:300.0:-1
ipc-2014-agile-floortile-p02-6-5-3.pddl,SAT:0.064989:235.0:300.0:-1
ipc-2014-agile-floortile-p03-6-4-2.pddl,SAT:0.035993:214.0:300.0:-1
ipc-2014-agile-floortile-p03-6-5-2.pddl,SAT:0.049991:248.0:300.0:-1
ipc-2014-agile-floortile-p03-6-5-3.pddl,SAT:0.05899:253.0:300.0:-1
ipc-2014-agile-floortile-p04-5-4-2.pddl,SAT:0.030994:175.0:300.0:-1
ipc-2014-agile-floortile-p04-5-5-2.pddl,SAT:0.042992:214.0:300.0:-1
ipc-2014-agile-floortile-p04-6-5-2.pddl,SAT:0.068989:261.0:300.0:-1
ipc-2014-agile-floortile-p04-6-5-3.pddl,SAT:0.069989:231.0:300.0:-1
ipc-2014-agile-floortile-p05-4-3-2.pddl,SAT:0.015996:96.0:300.0:-1
ipc-2014-agile-floortile-p05-6-5-2.pddl,SAT:0.052991:223.0:300.0:-1
ipc-2014-agile-floortile-p05-6-5-3.pddl,SAT:0.063989:243.0:300.0:-1
ipc-2014-agile-ged-d-10-1.pddl,SAT:13.4999:99.0:300.0:-1
ipc-2014-agile-ged-d-10-2.pddl,SAT:28.0947:212.0:300.0:-1
ipc-2014-agile-ged-d-10-3.pddl,SAT:31.5462:130.0:300.0:-1
ipc-2014-agile-ged-d-10-4.pddl,SAT:59.9409:193.0:300.0:-1
ipc-2014-agile-ged-d-10-5.pddl,TIMEOUT:301.347:-1.0:300.0:-1
ipc-2014-agile-ged-d-10-6.pddl,SAT:222.762:139.0:300.0:-1
ipc-2014-agile-ged-d-11-1.pddl,SAT:69.7094:110.0:300.0:-1
ipc-2014-agile-ged-d-11-3.pddl,SAT:46.6919:75.0:300.0:-1
ipc-2014-agile-ged-d-11-5.pddl,SAT:65.2181:116.0:300.0:-1
ipc-2014-agile-ged-d-11-6.pddl,TIMEOUT:301.252:-1.0:300.0:-1
ipc-2014-agile-ged-d-12-11.pddl,SAT:77.2543:190.0:300.0:-1
ipc-2014-agile-ged-d-12-2.pddl,TIMEOUT:301.334:-1.0:300.0:-1
ipc-2014-agile-ged-d-12-3.pddl,TIMEOUT:301.334:-1.0:300.0:-1
ipc-2014-agile-ged-d-12-5.pddl,TIMEOUT:301.354:-1.0:300.0:-1
ipc-2014-agile-ged-d-12-6.pddl,TIMEOUT:301.29:-1.0:300.0:-1
ipc-2014-agile-ged-d-12-7.pddl,TIMEOUT:301.338:-1.0:300.0:-1
ipc-2014-agile-ged-d-12-8.pddl,TIMEOUT:301.452:-1.0:300.0:-1
ipc-2014-agile-ged-d-12-9.pddl,TIMEOUT:301.372:-1.0:300.0:-1
ipc-2014-agile-ged-d-3-6.pddl,SAT:49.4995:102.0:300.0:-1
ipc-2014-agile-ged-d-9-5.pddl,SAT:170.412:167.0:300.0:-1
ipc-2014-agile-hiking-3-4-3.pddl,SAT:0.293955:18.0:300.0:-1
ipc-2014-agile-hiking-3-4-4.pddl,CRASHED:29.4565:1000000000.0:300.0:-1
ipc-2014-agile-hiking-3-4-5.pddl,CRASHED:25.5411:1000000000.0:300.0:-1
ipc-2014-agile-hiking-3-4-6.pddl,TIMEOUT:301.357:-1.0:300.0:-1
ipc-2014-agile-hiking-3-4-7.pddl,TIMEOUT:301.38:-1.0:300.0:-1
ipc-2014-agile-hiking-3-4-8.pddl,CRASHED:29.1236:1000000000.0:300.0:-1
ipc-2014-agile-hiking-3-4-9.pddl,CRASHED:31.5272:1000000000.0:300.0:-1
ipc-2014-agile-hiking-4-5-3.pddl,SAT:1.19482:29.0:300.0:-1
ipc-2014-agile-hiking-4-5-4.pddl,SAT:3.65944:47.0:300.0:-1
ipc-2014-agile-hiking-4-5-5.pddl,CRASHED:30.2524:1000000000.0:300.0:-1
ipc-2014-agile-hiking-4-5-6.pddl,TIMEOUT:301.421:-1.0:300.0:-1
ipc-2014-agile-hiking-4-5-7.pddl,TIMEOUT:301.445:-1.0:300.0:-1
ipc-2014-agile-hiking-4-5-8.pddl,TIMEOUT:301.402:-1.0:300.0:-1
ipc-2014-agile-hiking-4-5-9.pddl,CRASHED:81.6696:1000000000.0:300.0:-1
ipc-2014-agile-hiking-5-6-3.pddl,SAT:3.54946:36.0:300.0:-1
ipc-2014-agile-hiking-5-6-4.pddl,CRASHED:31.9891:1000000000.0:300.0:-1
ipc-2014-agile-hiking-5-6-5.pddl,CRASHED:41.9916:1000000000.0:300.0:-1
ipc-2014-agile-hiking-5-6-6.pddl,CRASHED:62.9274:1000000000.0:300.0:-1
ipc-2014-agile-hiking-5-6-7.pddl,CRASHED:115.22:1000000000.0:300.0:-1
ipc-2014-agile-hiking-5-6-8.pddl,CRASHED:173.426:1000000000.0:300.0:-1
ipc-2014-agile-maintenance-1.3.060.180.5-000.pddl,SAT:0.088985:54.0:300.0:-1
ipc-2014-agile-maintenance-1.3.060.180.5-001.pddl,TIMEOUT:301.082:-1.0:300.0:-1
ipc-2014-agile-maintenance-1.3.060.180.5-002.pddl,SAT:71.8161:55.0:300.0:-1
ipc-2014-agile-maintenance-1.3.100.300.5-000.pddl,TIMEOUT:301.101:-1.0:300.0:-1
ipc-2014-agile-maintenance-1.3.100.300.5-001.pddl,TIMEOUT:301.113:-1.0:300.0:-1
ipc-2014-agile-maintenance-1.3.100.300.7-000.pddl,SAT:0.273957:83.0:300.0:-1
ipc-2014-agile-maintenance-1.3.100.300.7-001.pddl,SAT:0.264958:80.0:300.0:-1
ipc-2014-agile-maintenance-1.3.100.300.7-002.pddl,SAT:0.264959:77.0:300.0:-1
ipc-2014-agile-maintenance-1.3.150.500.6-001.pddl,SAT:0.985849:133.0:300.0:-1
ipc-2014-agile-maintenance-1.3.200.500.5-001.pddl,SAT:1.38579:180.0:300.0:-1
ipc-2014-agile-maintenance-1.3.200.500.5-002.pddl,TIMEOUT:301.114:-1.0:300.0:-1
ipc-2014-agile-maintenance-1.3.200.700.7-000.pddl,SAT:2.48662:176.0:300.0:-1
ipc-2014-agile-maintenance-1.3.200.700.7-001.pddl,SAT:2.6516:171.0:300.0:-1
ipc-2014-agile-maintenance-1.3.200.700.7-002.pddl,SAT:2.6136:170.0:300.0:-1
ipc-2014-agile-maintenance-1.3.200.900.5-000.pddl,TIMEOUT:301.124:-1.0:300.0:-1
ipc-2014-agile-maintenance-1.3.200.900.5-001.pddl,TIMEOUT:301.157:-1.0:300.0:-1
ipc-2014-agile-maintenance-1.3.200.900.5-002.pddl,TIMEOUT:301.128:-1.0:300.0:-1
ipc-2014-agile-maintenance-1.3.200.900.8-000.pddl,SAT:4.95925:186.0:300.0:-1
ipc-2014-agile-maintenance-1.3.200.900.8-001.pddl,SAT:4.79827:172.0:300.0:-1
ipc-2014-agile-maintenance-1.3.200.900.8-002.pddl,SAT:4.82527:179.0:300.0:-1
ipc-2014-agile-openstacks-p130_2.pddl,TIMEOUT:301.39:-1.0:300.0:-1
ipc-2014-agile-openstacks-p130_3.pddl,TIMEOUT:301.407:-1.0:300.0:-1
ipc-2014-agile-openstacks-p150_2.pddl,TIMEOUT:301.38:-1.0:300.0:-1
ipc-2014-agile-openstacks-p150_3.pddl,TIMEOUT:301.436:-1.0:300.0:-1
ipc-2014-agile-openstacks-p170_1.pddl,CRASHED:69.5664:1000000000.0:300.0:-1
ipc-2014-agile-openstacks-p170_2.pddl,CRASHED:73.8558:1000000000.0:300.0:-1
ipc-2014-agile-openstacks-p170_3.pddl,TIMEOUT:301.379:-1.0:300.0:-1
ipc-2014-agile-openstacks-p190_1.pddl,CRASHED:149.65:1000000000.0:300.0:-1
ipc-2014-agile-openstacks-p190_2.pddl,CRASHED:138.804:1000000000.0:300.0:-1
ipc-2014-agile-openstacks-p190_3.pddl,CRASHED:160.119:1000000000.0:300.0:-1
ipc-2014-agile-openstacks-p210_1.pddl,TIMEOUT:301.423:-1.0:300.0:-1
ipc-2014-agile-openstacks-p210_2.pddl,TIMEOUT:301.422:-1.0:300.0:-1
ipc-2014-agile-openstacks-p230_1.pddl,CRASHED:178.305:1000000000.0:300.0:-1
ipc-2014-agile-openstacks-p230_2.pddl,CRASHED:210.637:1000000000.0:300.0:-1
ipc-2014-agile-openstacks-p250_1.pddl,CRASHED:254.907:1000000000.0:300.0:-1
ipc-2014-agile-openstacks-p250_2.pddl,CRASHED:253.191:1000000000.0:300.0:-1
ipc-2014-agile-openstacks-p270_1.pddl,TIMEOUT:301.281:-1.0:300.0:-1
ipc-2014-agile-openstacks-p270_2.pddl,TIMEOUT:301.269:-1.0:300.0:-1
ipc-2014-agile-openstacks-p290_1.pddl,TIMEOUT:301.232:-1.0:300.0:-1
ipc-2014-agile-openstacks-p290_2.pddl,TIMEOUT:301.037:-1.0:300.0:-1
ipc-2014-agile-parking-28_2.pddl,SAT:117.662:127.0:300.0:-1
ipc-2014-agile-parking-28_3.pddl,SAT:107.714:86.0:300.0:-1
ipc-2014-agile-parking-30_1.pddl,SAT:168.146:135.0:300.0:-1
ipc-2014-agile-parking-30_2.pddl,TIMEOUT:301.351:-1.0:300.0:-1
ipc-2014-agile-parking-30_3.pddl,SAT:207.473:163.0:300.0:-1
ipc-2014-agile-parking-32_1.pddl,SAT:281.316:161.0:300.0:-1
ipc-2014-agile-parking-32_2.pddl,SAT:283.245:138.0:300.0:-1
ipc-2014-agile-parking-32_3.pddl,SAT:267.944:178.0:300.0:-1
ipc-2014-agile-parking-34_1.pddl,TIMEOUT:301.291:-1.0:300.0:-1
ipc-2014-agile-parking-34_2.pddl,TIMEOUT:301.228:-1.0:300.0:-1
ipc-2014-agile-parking-34_3.pddl,TIMEOUT:301.261:-1.0:300.0:-1
ipc-2014-agile-parking-36_1.pddl,TIMEOUT:301.12:-1.0:300.0:-1
ipc-2014-agile-parking-36_2.pddl,TIMEOUT:301.116:-1.0:300.0:-1
ipc-2014-agile-parking-36_3.pddl,TIMEOUT:301.146:-1.0:300.0:-1
ipc-2014-agile-parking-38_1.pddl,TIMEOUT:301.207:-1.0:300.0:-1
ipc-2014-agile-parking-38_2.pddl,TIMEOUT:301.16:-1.0:300.0:-1
ipc-2014-agile-parking-38_3.pddl,TIMEOUT:301.167:-1.0:300.0:-1
ipc-2014-agile-parking-40_1.pddl,TIMEOUT:301.176:-1.0:300.0:-1
ipc-2014-agile-parking-40_2.pddl,TIMEOUT:301.189:-1.0:300.0:-1
ipc-2014-agile-parking-40_3.pddl,TIMEOUT:301.145:-1.0:300.0:-1
ipc-2014-agile-tetris-020.pddl,SAT:40.8658:56.0:300.0:-1
ipc-2014-agile-tetris-021.pddl,SAT:170.146:145.0:300.0:-1
ipc-2014-agile-tetris-022.pddl,SAT:153.806:102.0:300.0:-1
ipc-2014-agile-tetris-023.pddl,SAT:124.178:105.0:300.0:-1
ipc-2014-agile-tetris-024.pddl,SAT:162.844:161.0:300.0:-1
ipc-2014-agile-tetris-025.pddl,CRASHED:175.53:1000000000.0:300.0:-1
ipc-2014-agile-tetris-026.pddl,CRASHED:241.158:1000000000.0:300.0:-1
ipc-2014-agile-tetris-027.pddl,CRASHED:247.008:1000000000.0:300.0:-1
ipc-2014-agile-tetris-028.pddl,CRASHED:214.081:1000000000.0:300.0:-1
ipc-2014-agile-tetris-029.pddl,CRASHED:194.067:1000000000.0:300.0:-1
ipc-2014-agile-tetris-031.pddl,CRASHED:275.025:1000000000.0:300.0:-1
ipc-2014-agile-tetris-032.pddl,TIMEOUT:301.542:-1.0:300.0:-1
ipc-2014-agile-tetris-033.pddl,TIMEOUT:301.579:-1.0:300.0:-1
ipc-2014-agile-tetris-034.pddl,TIMEOUT:301.478:-1.0:300.0:-1
ipc-2014-agile-tetris-035.pddl,CRASHED:271.121:1000000000.0:300.0:-1
ipc-2014-agile-tetris-036.pddl,CRASHED:245.783:1000000000.0:300.0:-1
ipc-2014-agile-tetris-037.pddl,SAT:186.036:147.0:300.0:-1
ipc-2014-agile-tetris-038.pddl,TIMEOUT:301.408:-1.0:300.0:-1
ipc-2014-agile-tetris-039.pddl,CRASHED:292.282:1000000000.0:300.0:-1
ipc-2014-agile-tetris-040.pddl,TIMEOUT:301.463:-1.0:300.0:-1
ipc-2014-agile-thoughtful-bootstrap-typed-01.pddl,SAT:1.9547:42.0:300.0:-1
ipc-2014-agile-thoughtful-bootstrap-typed-02.pddl,SAT:1.84872:31.0:300.0:-1
ipc-2014-agile-thoughtful-bootstrap-typed-03.pddl,SAT:2.12868:49.0:300.0:-1
ipc-2014-agile-thoughtful-bootstrap-typed-04.pddl,SAT:2.16267:46.0:300.0:-1
ipc-2014-agile-thoughtful-bootstrap-typed-05.pddl,SAT:1.9937:68.0:300.0:-1
ipc-2014-agile-thoughtful-p11_6_53-typed.pddl,TIMEOUT:301.417:-1.0:300.0:-1
ipc-2014-agile-thoughtful-p11_6_59-typed.pddl,CRASHED:109.312:1000000000.0:300.0:-1
ipc-2014-agile-thoughtful-p11_6_62-typed.pddl,TIMEOUT:301.41:-1.0:300.0:-1
ipc-2014-agile-thoughtful-p13_7_78-typed.pddl,CRASHED:188.192:1000000000.0:300.0:-1
ipc-2014-agile-thoughtful-p13_7_79-typed.pddl,CRASHED:179.863:1000000000.0:300.0:-1
ipc-2014-agile-thoughtful-p13_7_86-typed.pddl,CRASHED:182.705:1000000000.0:300.0:-1
ipc-2014-agile-thoughtful-target-typed-20.pddl,CRASHED:184.933:1000000000.0:300.0:-1
ipc-2014-agile-thoughtful-target-typed-21.pddl,CRASHED:182.629:1000000000.0:300.0:-1
ipc-2014-agile-thoughtful-target-typed-22.pddl,TIMEOUT:301.359:-1.0:300.0:-1
ipc-2014-agile-thoughtful-target-typed-23.pddl,CRASHED:188.052:1000000000.0:300.0:-1
ipc-2014-agile-thoughtful-target-typed-24.pddl,TIMEOUT:301.346:-1.0:300.0:-1
ipc-2014-agile-thoughtful-target-typed-25.pddl,CRASHED:187.846:1000000000.0:300.0:-1
ipc-2014-agile-thoughtful-target-typed-26.pddl,TIMEOUT:301.316:-1.0:300.0:-1
ipc-2014-agile-thoughtful-target-typed-27.pddl,CRASHED:283.838:1000000000.0:300.0:-1
ipc-2014-agile-thoughtful-target-typed-28.pddl,CRASHED:203.818:1000000000.0:300.0:-1
ipc-2014-agile-transport-01.pddl,CRASHED:87.2367:1000000000.0:300.0:-1
ipc-2014-agile-transport-02.pddl,TIMEOUT:301.302:-1.0:300.0:-1
ipc-2014-agile-transport-03.pddl,TIMEOUT:301.313:-1.0:300.0:-1
ipc-2014-agile-transport-04.pddl,TIMEOUT:301.435:-1.0:300.0:-1
ipc-2014-agile-transport-05.pddl,CRASHED:121.933:1000000000.0:300.0:-1
ipc-2014-agile-transport-06.pddl,TIMEOUT:301.362:-1.0:300.0:-1
ipc-2014-agile-transport-07.pddl,CRASHED:289.526:1000000000.0:300.0:-1
ipc-2014-agile-transport-08.pddl,TIMEOUT:301.325:-1.0:300.0:-1
ipc-2014-agile-transport-09.pddl,CRASHED:286.788:1000000000.0:300.0:-1
ipc-2014-agile-transport-10.pddl,CRASHED:209.814:1000000000.0:300.0:-1
ipc-2014-agile-transport-11.pddl,TIMEOUT:301.322:-1.0:300.0:-1
ipc-2014-agile-transport-12.pddl,TIMEOUT:301.403:-1.0:300.0:-1
ipc-2014-agile-transport-13.pddl,CRASHED:238.083:1000000000.0:300.0:-1
ipc-2014-agile-transport-14.pddl,CRASHED:86.3949:1000000000.0:300.0:-1
ipc-2014-agile-transport-15.pddl,CRASHED:103.586:1000000000.0:300.0:-1
ipc-2014-agile-transport-16.pddl,CRASHED:69.9374:1000000000.0:300.0:-1
ipc-2014-agile-transport-17.pddl,CRASHED:233.329:1000000000.0:300.0:-1
ipc-2014-agile-transport-18.pddl,TIMEOUT:301.454:-1.0:300.0:-1
ipc-2014-agile-transport-19.pddl,TIMEOUT:301.272:-1.0:300.0:-1
ipc-2014-agile-transport-20.pddl,CRASHED:269.392:1000000000.0:300.0:-1
ipc-2014-agile-visitall-30.pddl,TIMEOUT:301.226:-1.0:300.0:-1
ipc-2014-agile-visitall-31.pddl,TIMEOUT:301.173:-1.0:300.0:-1
ipc-2014-agile-visitall-32.pddl,TIMEOUT:301.215:-1.0:300.0:-1
ipc-2014-agile-visitall-33.pddl,TIMEOUT:301.231:-1.0:300.0:-1
ipc-2014-agile-visitall-50.pddl,TIMEOUT:301.037:-1.0:300.0:-1
ipc-2014-agile-visitall-51.pddl,TIMEOUT:301.016:-1.0:300.0:-1
ipc-2014-agile-visitall-52.pddl,TIMEOUT:301.083:-1.0:300.0:-1
ipc-2014-agile-visitall-53.pddl,TIMEOUT:301.108:-1.0:300.0:-1
ipc-2014-agile-visitall-54.pddl,TIMEOUT:301.07:-1.0:300.0:-1
ipc-2014-agile-visitall-55.pddl,TIMEOUT:301.092:-1.0:300.0:-1
ipc-2014-agile-visitall-56.pddl,TIMEOUT:301.016:-1.0:300.0:-1
ipc-2014-agile-visitall-57.pddl,TIMEOUT:301.071:-1.0:300.0:-1
ipc-2014-agile-visitall-58.pddl,TIMEOUT:301.038:-1.0:300.0:-1
ipc-2014-agile-visitall-59.pddl,TIMEOUT:301.05:-1.0:300.0:-1
ipc-2014-agile-visitall-60.pddl,TIMEOUT:301.049:-1.0:300.0:-1
ipc-2014-agile-visitall-61.pddl,TIMEOUT:301.033:-1.0:300.0:-1
ipc-2014-agile-visitall-62.pddl,TIMEOUT:301.081:-1.0:300.0:-1
ipc-2014-agile-visitall-63.pddl,TIMEOUT:301.08:-1.0:300.0:-1
ipc-2014-agile-visitall-64.pddl,TIMEOUT:301.082:-1.0:300.0:-1
ipc-2014-agile-visitall-65.pddl,TIMEOUT:301.072:-1.0:300.0:-1
