instance,ipc-2014-agile-mercury
ipc-2014-agile-barman-p1-11-4-15.pddl,SAT:4.67229:233.0:300.0:-1
ipc-2014-agile-barman-p1-11-5-15.pddl,TIMEOUT:301.04:-1.0:300.0:-1
ipc-2014-agile-barman-p1-11-5-16.pddl,SAT:283.907:190.0:300.0:-1
ipc-2014-agile-barman-p2-10-4-13.pddl,SAT:249.584:194.0:300.0:-1
ipc-2014-agile-barman-p2-11-4-15.pddl,TIMEOUT:301.01:-1.0:300.0:-1
ipc-2014-agile-barman-p2-11-5-15.pddl,TIMEOUT:301.01:-1.0:300.0:-1
ipc-2014-agile-barman-p2-11-5-16.pddl,TIMEOUT:301.03:-1.0:300.0:-1
ipc-2014-agile-barman-p2-11-5-17.pddl,TIMEOUT:301.06:-1.0:300.0:-1
ipc-2014-agile-barman-p3-10-4-13.pddl,SAT:133.373:299.0:300.0:-1
ipc-2014-agile-barman-p3-11-4-15.pddl,SAT:247.692:221.0:300.0:-1
ipc-2014-agile-barman-p3-11-5-15.pddl,SAT:5.8861:275.0:300.0:-1
ipc-2014-agile-barman-p3-11-5-16.pddl,TIMEOUT:301.05:-1.0:300.0:-1
ipc-2014-agile-barman-p3-11-5-17.pddl,TIMEOUT:301.05:-1.0:300.0:-1
ipc-2014-agile-barman-p4-11-4-14.pddl,SAT:5.53116:310.0:300.0:-1
ipc-2014-agile-barman-p4-11-4-15.pddl,TIMEOUT:301.08:-1.0:300.0:-1
ipc-2014-agile-barman-p4-11-5-15.pddl,SAT:174.698:291.0:300.0:-1
ipc-2014-agile-barman-p5-10-4-13.pddl,SAT:6.40702:180.0:300.0:-1
ipc-2014-agile-barman-p5-11-4-15.pddl,SAT:4.87526:279.0:300.0:-1
ipc-2014-agile-barman-p5-11-5-15.pddl,SAT:20.3319:297.0:300.0:-1
ipc-2014-agile-barman-p5-11-5-16.pddl,SAT:195.074:235.0:300.0:-1
ipc-2014-agile-cavediving-01_easy.pddl,TIMEOUT:301.11:-1.0:300.0:-1
ipc-2014-agile-cavediving-01.pddl,TIMEOUT:301.06:-1.0:300.0:-1
ipc-2014-agile-cavediving-02_easy.pddl,TIMEOUT:301.07:-1.0:300.0:-1
ipc-2014-agile-cavediving-03_easy.pddl,TIMEOUT:301.04:-1.0:300.0:-1
ipc-2014-agile-cavediving-04_easy.pddl,TIMEOUT:301.04:-1.0:300.0:-1
ipc-2014-agile-cavediving-05A_easy.pddl,SAT:27.3168:94.0:300.0:-1
ipc-2014-agile-cavediving-06A_easy.pddl,SAT:27.2709:95.0:300.0:-1
ipc-2014-agile-cavediving-07_easy.pddl,SAT:43.1674:131.0:300.0:-1
ipc-2014-agile-cavediving-08_easy.pddl,SAT:27.1799:90.0:300.0:-1
ipc-2014-agile-cavediving-09_easy.pddl,TIMEOUT:301.04:-1.0:300.0:-1
ipc-2014-agile-cavediving-10_easy.pddl,TIMEOUT:301.03:-1.0:300.0:-1
ipc-2014-agile-cavediving-11_easy.pddl,TIMEOUT:301.03:-1.0:300.0:-1
ipc-2014-agile-cavediving-12_easy.pddl,TIMEOUT:301.09:-1.0:300.0:-1
ipc-2014-agile-cavediving-13_easy.pddl,TIMEOUT:301.04:-1.0:300.0:-1
ipc-2014-agile-cavediving-14_easy.pddl,TIMEOUT:301.08:-1.0:300.0:-1
ipc-2014-agile-cavediving-15_easy.pddl,TIMEOUT:301.07:-1.0:300.0:-1
ipc-2014-agile-cavediving-16_easy.pddl,TIMEOUT:301.05:-1.0:300.0:-1
ipc-2014-agile-cavediving-18A_easy.pddl,SAT:104.002:131.0:300.0:-1
ipc-2014-agile-cavediving-18_easy.pddl,SAT:223.677:131.0:300.0:-1
ipc-2014-agile-cavediving-20A_easy.pddl,SAT:62.9594:98.0:300.0:-1
ipc-2014-agile-childsnack-05-2.pddl,SAT:40.9888:52.0:300.0:-1
ipc-2014-agile-childsnack-05.pddl,SAT:139.325:53.0:300.0:-1
ipc-2014-agile-childsnack-06-2.pddl,SAT:81.8216:60.0:300.0:-1
ipc-2014-agile-childsnack-07-2.pddl,SAT:219.287:66.0:300.0:-1
ipc-2014-agile-childsnack-08-2.pddl,TIMEOUT:301.01:-1.0:300.0:-1
ipc-2014-agile-childsnack-08.pddl,SAT:131.112:68.0:300.0:-1
ipc-2014-agile-childsnack-09-2.pddl,CRASHED:300.64:1000000000.0:300.0:-1
ipc-2014-agile-childsnack-09.pddl,TIMEOUT:301.1:-1.0:300.0:-1
ipc-2014-agile-childsnack-10-2.pddl,TIMEOUT:301.07:-1.0:300.0:-1
ipc-2014-agile-childsnack-10.pddl,TIMEOUT:301.06:-1.0:300.0:-1
ipc-2014-agile-childsnack-11-2.pddl,CRASHED:291.98:1000000000.0:300.0:-1
ipc-2014-agile-childsnack-11.pddl,TIMEOUT:301.0:-1.0:300.0:-1
ipc-2014-agile-childsnack-12.pddl,CRASHED:291.71:1000000000.0:300.0:-1
ipc-2014-agile-childsnack-13-2.pddl,TIMEOUT:301.01:-1.0:300.0:-1
ipc-2014-agile-childsnack-13.pddl,CRASHED:297.35:1000000000.0:300.0:-1
ipc-2014-agile-childsnack-14.pddl,TIMEOUT:301.1:-1.0:300.0:-1
ipc-2014-agile-childsnack-15-2.pddl,TIMEOUT:301.06:-1.0:300.0:-1
ipc-2014-agile-childsnack-16-2.pddl,TIMEOUT:301.02:-1.0:300.0:-1
ipc-2014-agile-childsnack-19-2.pddl,CRASHED:247.27:1000000000.0:300.0:-1
ipc-2014-agile-childsnack-19.pddl,CRASHED:244.64:1000000000.0:300.0:-1
ipc-2014-agile-citycar-p3-2-2-0-1.pddl,SAT:4.36134:201.0:300.0:-1
ipc-2014-agile-citycar-p3-3-2-0-1.pddl,SAT:24.4643:384.0:300.0:-1
ipc-2014-agile-citycar-p3-4-2-0-1.pddl,SAT:36.6674:231.0:300.0:-1
ipc-2014-agile-citycar-p3-5-2-0-1.pddl,SAT:68.0906:279.0:300.0:-1
ipc-2014-agile-citycar-p3-5-2-0-2.pddl,SAT:235.242:199.0:300.0:-1
ipc-2014-agile-citycar-p4-2-2-0-1.pddl,TIMEOUT:301.03:-1.0:300.0:-1
ipc-2014-agile-citycar-p4-2-3-0-1.pddl,TIMEOUT:301.05:-1.0:300.0:-1
ipc-2014-agile-citycar-p4-2-3-0-2.pddl,TIMEOUT:301.02:-1.0:300.0:-1
ipc-2014-agile-citycar-p4-3-2-0-1.pddl,TIMEOUT:301.08:-1.0:300.0:-1
ipc-2014-agile-citycar-p4-3-2-0-2.pddl,TIMEOUT:301.01:-1.0:300.0:-1
ipc-2014-agile-citycar-p4-3-3-0-1.pddl,TIMEOUT:301.05:-1.0:300.0:-1
ipc-2014-agile-citycar-p4-3-3-0-2.pddl,TIMEOUT:301.02:-1.0:300.0:-1
ipc-2014-agile-citycar-p4-4-2-0-1.pddl,TIMEOUT:301.03:-1.0:300.0:-1
ipc-2014-agile-citycar-p4-4-2-0-2.pddl,TIMEOUT:301.1:-1.0:300.0:-1
ipc-2014-agile-citycar-p4-4-3-0-1.pddl,TIMEOUT:301.02:-1.0:300.0:-1
ipc-2014-agile-citycar-p4-4-3-0-2.pddl,TIMEOUT:301.09:-1.0:300.0:-1
ipc-2014-agile-citycar-p4-5-2-0-1.pddl,TIMEOUT:301.03:-1.0:300.0:-1
ipc-2014-agile-citycar-p4-5-2-0-2.pddl,TIMEOUT:301.07:-1.0:300.0:-1
ipc-2014-agile-citycar-p4-5-3-0-1.pddl,TIMEOUT:301.1:-1.0:300.0:-1
ipc-2014-agile-citycar-p4-5-3-0-2.pddl,TIMEOUT:301.04:-1.0:300.0:-1
ipc-2014-agile-floortile-p01-4-3-2.pddl,SAT:7.2049:94.0:300.0:-1
ipc-2014-agile-floortile-p01-5-4-2.pddl,TIMEOUT:301.06:-1.0:300.0:-1
ipc-2014-agile-floortile-p01-5-5-2.pddl,TIMEOUT:301.02:-1.0:300.0:-1
ipc-2014-agile-floortile-p01-6-4-2.pddl,TIMEOUT:301.07:-1.0:300.0:-1
ipc-2014-agile-floortile-p01-6-5-2.pddl,TIMEOUT:301.08:-1.0:300.0:-1
ipc-2014-agile-floortile-p01-6-5-3.pddl,TIMEOUT:301.09:-1.0:300.0:-1
ipc-2014-agile-floortile-p02-5-4-2.pddl,TIMEOUT:301.0:-1.0:300.0:-1
ipc-2014-agile-floortile-p02-6-4-2.pddl,TIMEOUT:301.01:-1.0:300.0:-1
ipc-2014-agile-floortile-p02-6-5-2.pddl,TIMEOUT:301.06:-1.0:300.0:-1
ipc-2014-agile-floortile-p02-6-5-3.pddl,TIMEOUT:301.02:-1.0:300.0:-1
ipc-2014-agile-floortile-p03-6-4-2.pddl,TIMEOUT:301.1:-1.0:300.0:-1
ipc-2014-agile-floortile-p03-6-5-2.pddl,TIMEOUT:301.01:-1.0:300.0:-1
ipc-2014-agile-floortile-p03-6-5-3.pddl,TIMEOUT:301.0:-1.0:300.0:-1
ipc-2014-agile-floortile-p04-5-4-2.pddl,TIMEOUT:301.03:-1.0:300.0:-1
ipc-2014-agile-floortile-p04-5-5-2.pddl,TIMEOUT:301.01:-1.0:300.0:-1
ipc-2014-agile-floortile-p04-6-5-2.pddl,TIMEOUT:301.02:-1.0:300.0:-1
ipc-2014-agile-floortile-p04-6-5-3.pddl,TIMEOUT:301.05:-1.0:300.0:-1
ipc-2014-agile-floortile-p05-4-3-2.pddl,SAT:1.00685:93.0:300.0:-1
ipc-2014-agile-floortile-p05-6-5-2.pddl,TIMEOUT:301.01:-1.0:300.0:-1
ipc-2014-agile-floortile-p05-6-5-3.pddl,TIMEOUT:301.08:-1.0:300.0:-1
ipc-2014-agile-ged-d-10-1.pddl,SAT:5.2362:24.0:300.0:-1
ipc-2014-agile-ged-d-10-2.pddl,SAT:5.33219:25.0:300.0:-1
ipc-2014-agile-ged-d-10-3.pddl,SAT:5.74313:31.0:300.0:-1
ipc-2014-agile-ged-d-10-4.pddl,SAT:5.2612:24.0:300.0:-1
ipc-2014-agile-ged-d-10-5.pddl,SAT:7.45187:33.0:300.0:-1
ipc-2014-agile-ged-d-10-6.pddl,SAT:7.2549:34.0:300.0:-1
ipc-2014-agile-ged-d-11-1.pddl,SAT:3.58:27.0:300.0:-1
ipc-2014-agile-ged-d-11-3.pddl,SAT:5.81012:28.0:300.0:-1
ipc-2014-agile-ged-d-11-5.pddl,SAT:6.81596:30.0:300.0:-1
ipc-2014-agile-ged-d-11-6.pddl,SAT:6.44702:37.0:300.0:-1
ipc-2014-agile-ged-d-12-11.pddl,SAT:6.22605:27.0:300.0:-1
ipc-2014-agile-ged-d-12-2.pddl,SAT:9.12661:40.0:300.0:-1
ipc-2014-agile-ged-d-12-3.pddl,SAT:15.1277:61.0:300.0:-1
ipc-2014-agile-ged-d-12-5.pddl,SAT:12.7051:60.0:300.0:-1
ipc-2014-agile-ged-d-12-6.pddl,SAT:12.2651:39.0:300.0:-1
ipc-2014-agile-ged-d-12-7.pddl,SAT:13.139:44.0:300.0:-1
ipc-2014-agile-ged-d-12-8.pddl,SAT:20.1459:71.0:300.0:-1
ipc-2014-agile-ged-d-12-9.pddl,SAT:16.5155:70.0:300.0:-1
ipc-2014-agile-ged-d-3-6.pddl,SAT:5.96709:29.0:300.0:-1
ipc-2014-agile-ged-d-9-5.pddl,SAT:6.01608:26.0:300.0:-1
ipc-2014-agile-hiking-3-4-3.pddl,SAT:2.38264:13.0:300.0:-1
ipc-2014-agile-hiking-3-4-4.pddl,SAT:3.2875:24.0:300.0:-1
ipc-2014-agile-hiking-3-4-5.pddl,TIMEOUT:301.08:-1.0:300.0:-1
ipc-2014-agile-hiking-3-4-6.pddl,TIMEOUT:301.01:-1.0:300.0:-1
ipc-2014-agile-hiking-3-4-7.pddl,TIMEOUT:301.08:-1.0:300.0:-1
ipc-2014-agile-hiking-3-4-8.pddl,TIMEOUT:301.02:-1.0:300.0:-1
ipc-2014-agile-hiking-3-4-9.pddl,TIMEOUT:301.13:-1.0:300.0:-1
ipc-2014-agile-hiking-4-5-3.pddl,SAT:4.15737:15.0:300.0:-1
ipc-2014-agile-hiking-4-5-4.pddl,SAT:6.65199:22.0:300.0:-1
ipc-2014-agile-hiking-4-5-5.pddl,SAT:9.92549:32.0:300.0:-1
ipc-2014-agile-hiking-4-5-6.pddl,TIMEOUT:301.07:-1.0:300.0:-1
ipc-2014-agile-hiking-4-5-7.pddl,TIMEOUT:301.03:-1.0:300.0:-1
ipc-2014-agile-hiking-4-5-8.pddl,TIMEOUT:301.01:-1.0:300.0:-1
ipc-2014-agile-hiking-4-5-9.pddl,TIMEOUT:301.05:-1.0:300.0:-1
ipc-2014-agile-hiking-5-6-3.pddl,SAT:7.18291:18.0:300.0:-1
ipc-2014-agile-hiking-5-6-4.pddl,SAT:13.5269:27.0:300.0:-1
ipc-2014-agile-hiking-5-6-5.pddl,SAT:23.6804:34.0:300.0:-1
ipc-2014-agile-hiking-5-6-6.pddl,TIMEOUT:301.1:-1.0:300.0:-1
ipc-2014-agile-hiking-5-6-7.pddl,TIMEOUT:301.07:-1.0:300.0:-1
ipc-2014-agile-hiking-5-6-8.pddl,TIMEOUT:301.03:-1.0:300.0:-1
ipc-2014-agile-maintenance-1.3.060.180.5-000.pddl,TIMEOUT:301.08:-1.0:300.0:-1
ipc-2014-agile-maintenance-1.3.060.180.5-001.pddl,TIMEOUT:301.02:-1.0:300.0:-1
ipc-2014-agile-maintenance-1.3.060.180.5-002.pddl,TIMEOUT:301.08:-1.0:300.0:-1
ipc-2014-agile-maintenance-1.3.100.300.5-000.pddl,TIMEOUT:301.01:-1.0:300.0:-1
ipc-2014-agile-maintenance-1.3.100.300.5-001.pddl,TIMEOUT:301.02:-1.0:300.0:-1
ipc-2014-agile-maintenance-1.3.100.300.7-000.pddl,SAT:2.00769:82.0:300.0:-1
ipc-2014-agile-maintenance-1.3.100.300.7-001.pddl,SAT:1.9447:77.0:300.0:-1
ipc-2014-agile-maintenance-1.3.100.300.7-002.pddl,SAT:1.92971:74.0:300.0:-1
ipc-2014-agile-maintenance-1.3.150.500.6-001.pddl,SAT:2.6506:133.0:300.0:-1
ipc-2014-agile-maintenance-1.3.200.500.5-001.pddl,TIMEOUT:301.07:-1.0:300.0:-1
ipc-2014-agile-maintenance-1.3.200.500.5-002.pddl,TIMEOUT:301.06:-1.0:300.0:-1
ipc-2014-agile-maintenance-1.3.200.700.7-000.pddl,SAT:4.08238:173.0:300.0:-1
ipc-2014-agile-maintenance-1.3.200.700.7-001.pddl,SAT:4.18536:168.0:300.0:-1
ipc-2014-agile-maintenance-1.3.200.700.7-002.pddl,SAT:3.76543:169.0:300.0:-1
ipc-2014-agile-maintenance-1.3.200.900.5-000.pddl,TIMEOUT:301.03:-1.0:300.0:-1
ipc-2014-agile-maintenance-1.3.200.900.5-001.pddl,TIMEOUT:301.04:-1.0:300.0:-1
ipc-2014-agile-maintenance-1.3.200.900.5-002.pddl,TIMEOUT:301.03:-1.0:300.0:-1
ipc-2014-agile-maintenance-1.3.200.900.8-000.pddl,SAT:4.63529:166.0:300.0:-1
ipc-2014-agile-maintenance-1.3.200.900.8-001.pddl,SAT:4.81127:160.0:300.0:-1
ipc-2014-agile-maintenance-1.3.200.900.8-002.pddl,SAT:4.69029:168.0:300.0:-1
ipc-2014-agile-openstacks-p130_2.pddl,SAT:20.7338:50.0:300.0:-1
ipc-2014-agile-openstacks-p130_3.pddl,SAT:39.769:104.0:300.0:-1
ipc-2014-agile-openstacks-p150_2.pddl,SAT:31.8392:54.0:300.0:-1
ipc-2014-agile-openstacks-p150_3.pddl,SAT:71.2812:128.0:300.0:-1
ipc-2014-agile-openstacks-p170_1.pddl,SAT:45.4261:55.0:300.0:-1
ipc-2014-agile-openstacks-p170_2.pddl,SAT:57.5043:80.0:300.0:-1
ipc-2014-agile-openstacks-p170_3.pddl,SAT:132.698:141.0:300.0:-1
ipc-2014-agile-openstacks-p190_1.pddl,SAT:92.283:76.0:300.0:-1
ipc-2014-agile-openstacks-p190_2.pddl,SAT:107.931:94.0:300.0:-1
ipc-2014-agile-openstacks-p190_3.pddl,SAT:226.287:164.0:300.0:-1
ipc-2014-agile-openstacks-p210_1.pddl,SAT:131.738:89.0:300.0:-1
ipc-2014-agile-openstacks-p210_2.pddl,SAT:153.563:102.0:300.0:-1
ipc-2014-agile-openstacks-p230_1.pddl,SAT:197.232:79.0:300.0:-1
ipc-2014-agile-openstacks-p230_2.pddl,SAT:263.043:112.0:300.0:-1
ipc-2014-agile-openstacks-p250_1.pddl,TIMEOUT:301.0:-1.0:300.0:-1
ipc-2014-agile-openstacks-p250_2.pddl,TIMEOUT:301.06:-1.0:300.0:-1
ipc-2014-agile-openstacks-p270_1.pddl,TIMEOUT:301.04:-1.0:300.0:-1
ipc-2014-agile-openstacks-p270_2.pddl,TIMEOUT:301.02:-1.0:300.0:-1
ipc-2014-agile-openstacks-p290_1.pddl,TIMEOUT:301.1:-1.0:300.0:-1
ipc-2014-agile-openstacks-p290_2.pddl,TIMEOUT:301.01:-1.0:300.0:-1
ipc-2014-agile-parking-28_2.pddl,SAT:137.425:135.0:300.0:-1
ipc-2014-agile-parking-28_3.pddl,SAT:154.935:109.0:300.0:-1
ipc-2014-agile-parking-30_1.pddl,TIMEOUT:301.09:-1.0:300.0:-1
ipc-2014-agile-parking-30_2.pddl,SAT:179.748:73.0:300.0:-1
ipc-2014-agile-parking-30_3.pddl,TIMEOUT:301.07:-1.0:300.0:-1
ipc-2014-agile-parking-32_1.pddl,TIMEOUT:301.07:-1.0:300.0:-1
ipc-2014-agile-parking-32_2.pddl,TIMEOUT:301.09:-1.0:300.0:-1
ipc-2014-agile-parking-32_3.pddl,TIMEOUT:301.07:-1.0:300.0:-1
ipc-2014-agile-parking-34_1.pddl,TIMEOUT:301.12:-1.0:300.0:-1
ipc-2014-agile-parking-34_2.pddl,TIMEOUT:301.02:-1.0:300.0:-1
ipc-2014-agile-parking-34_3.pddl,TIMEOUT:301.02:-1.0:300.0:-1
ipc-2014-agile-parking-36_1.pddl,SAT:221.639:116.0:300.0:-1
ipc-2014-agile-parking-36_2.pddl,TIMEOUT:301.09:-1.0:300.0:-1
ipc-2014-agile-parking-36_3.pddl,TIMEOUT:301.01:-1.0:300.0:-1
ipc-2014-agile-parking-38_1.pddl,TIMEOUT:301.08:-1.0:300.0:-1
ipc-2014-agile-parking-38_2.pddl,TIMEOUT:301.06:-1.0:300.0:-1
ipc-2014-agile-parking-38_3.pddl,TIMEOUT:301.02:-1.0:300.0:-1
ipc-2014-agile-parking-40_1.pddl,TIMEOUT:301.03:-1.0:300.0:-1
ipc-2014-agile-parking-40_2.pddl,TIMEOUT:301.03:-1.0:300.0:-1
ipc-2014-agile-parking-40_3.pddl,TIMEOUT:301.02:-1.0:300.0:-1
ipc-2014-agile-tetris-020.pddl,SAT:6.27504:60.0:300.0:-1
ipc-2014-agile-tetris-021.pddl,SAT:105.63:110.0:300.0:-1
ipc-2014-agile-tetris-022.pddl,SAT:217.891:184.0:300.0:-1
ipc-2014-agile-tetris-023.pddl,SAT:266.503:116.0:300.0:-1
ipc-2014-agile-tetris-024.pddl,TIMEOUT:301.08:-1.0:300.0:-1
ipc-2014-agile-tetris-025.pddl,SAT:46.6969:96.0:300.0:-1
ipc-2014-agile-tetris-026.pddl,TIMEOUT:301.0:-1.0:300.0:-1
ipc-2014-agile-tetris-027.pddl,TIMEOUT:301.0:-1.0:300.0:-1
ipc-2014-agile-tetris-028.pddl,TIMEOUT:301.01:-1.0:300.0:-1
ipc-2014-agile-tetris-029.pddl,TIMEOUT:301.01:-1.0:300.0:-1
ipc-2014-agile-tetris-031.pddl,TIMEOUT:301.07:-1.0:300.0:-1
ipc-2014-agile-tetris-032.pddl,TIMEOUT:301.1:-1.0:300.0:-1
ipc-2014-agile-tetris-033.pddl,TIMEOUT:301.07:-1.0:300.0:-1
ipc-2014-agile-tetris-034.pddl,SAT:203.427:205.0:300.0:-1
ipc-2014-agile-tetris-035.pddl,TIMEOUT:301.1:-1.0:300.0:-1
ipc-2014-agile-tetris-036.pddl,SAT:124.708:129.0:300.0:-1
ipc-2014-agile-tetris-037.pddl,TIMEOUT:301.07:-1.0:300.0:-1
ipc-2014-agile-tetris-038.pddl,TIMEOUT:301.11:-1.0:300.0:-1
ipc-2014-agile-tetris-039.pddl,TIMEOUT:301.02:-1.0:300.0:-1
ipc-2014-agile-tetris-040.pddl,TIMEOUT:301.06:-1.0:300.0:-1
ipc-2014-agile-thoughtful-bootstrap-typed-01.pddl,CRASHED:0.58691:1000000000.0:300.0:-1
ipc-2014-agile-thoughtful-bootstrap-typed-02.pddl,CRASHED:0.569913:1000000000.0:300.0:-1
ipc-2014-agile-thoughtful-bootstrap-typed-03.pddl,CRASHED:0.572912:1000000000.0:300.0:-1
ipc-2014-agile-thoughtful-bootstrap-typed-04.pddl,CRASHED:0.571912:1000000000.0:300.0:-1
ipc-2014-agile-thoughtful-bootstrap-typed-05.pddl,CRASHED:0.570912:1000000000.0:300.0:-1
ipc-2014-agile-thoughtful-p11_6_53-typed.pddl,CRASHED:0.605907:1000000000.0:300.0:-1
ipc-2014-agile-thoughtful-p11_6_59-typed.pddl,CRASHED:0.607907:1000000000.0:300.0:-1
ipc-2014-agile-thoughtful-p11_6_62-typed.pddl,CRASHED:0.607907:1000000000.0:300.0:-1
ipc-2014-agile-thoughtful-p13_7_78-typed.pddl,CRASHED:0.617905:1000000000.0:300.0:-1
ipc-2014-agile-thoughtful-p13_7_79-typed.pddl,CRASHED:0.618905:1000000000.0:300.0:-1
ipc-2014-agile-thoughtful-p13_7_86-typed.pddl,CRASHED:0.610906:1000000000.0:300.0:-1
ipc-2014-agile-thoughtful-target-typed-20.pddl,CRASHED:0.675897:1000000000.0:300.0:-1
ipc-2014-agile-thoughtful-target-typed-21.pddl,CRASHED:0.670897:1000000000.0:300.0:-1
ipc-2014-agile-thoughtful-target-typed-22.pddl,CRASHED:0.657899:1000000000.0:300.0:-1
ipc-2014-agile-thoughtful-target-typed-23.pddl,CRASHED:0.638902:1000000000.0:300.0:-1
ipc-2014-agile-thoughtful-target-typed-24.pddl,CRASHED:0.664898:1000000000.0:300.0:-1
ipc-2014-agile-thoughtful-target-typed-25.pddl,CRASHED:0.671897:1000000000.0:300.0:-1
ipc-2014-agile-thoughtful-target-typed-26.pddl,CRASHED:0.639901:1000000000.0:300.0:-1
ipc-2014-agile-thoughtful-target-typed-27.pddl,CRASHED:0.642901:1000000000.0:300.0:-1
ipc-2014-agile-thoughtful-target-typed-28.pddl,CRASHED:0.635902:1000000000.0:300.0:-1
ipc-2014-agile-transport-01.pddl,SAT:8.49071:1474.0:300.0:-1
ipc-2014-agile-transport-02.pddl,SAT:10.4984:2528.0:300.0:-1
ipc-2014-agile-transport-03.pddl,SAT:9.58854:1885.0:300.0:-1
ipc-2014-agile-transport-04.pddl,SAT:28.4317:6061.0:300.0:-1
ipc-2014-agile-transport-05.pddl,SAT:34.4168:9166.0:300.0:-1
ipc-2014-agile-transport-06.pddl,SAT:28.5777:6061.0:300.0:-1
ipc-2014-agile-transport-07.pddl,SAT:50.5003:5686.0:300.0:-1
ipc-2014-agile-transport-08.pddl,SAT:61.8416:4725.0:300.0:-1
ipc-2014-agile-transport-09.pddl,SAT:50.7373:5686.0:300.0:-1
ipc-2014-agile-transport-10.pddl,SAT:48.0617:5638.0:300.0:-1
ipc-2014-agile-transport-11.pddl,SAT:13.228:1687.0:300.0:-1
ipc-2014-agile-transport-12.pddl,SAT:13.5069:1868.0:300.0:-1
ipc-2014-agile-transport-13.pddl,SAT:9.15361:1691.0:300.0:-1
ipc-2014-agile-transport-14.pddl,SAT:29.8345:6850.0:300.0:-1
ipc-2014-agile-transport-15.pddl,SAT:30.4354:6947.0:300.0:-1
ipc-2014-agile-transport-16.pddl,SAT:19.456:5952.0:300.0:-1
ipc-2014-agile-transport-17.pddl,SAT:51.4142:5963.0:300.0:-1
ipc-2014-agile-transport-18.pddl,SAT:55.6955:5825.0:300.0:-1
ipc-2014-agile-transport-19.pddl,SAT:33.8429:4418.0:300.0:-1
ipc-2014-agile-transport-20.pddl,SAT:59.057:6118.0:300.0:-1
ipc-2014-agile-visitall-30.pddl,SAT:8.61969:909.0:300.0:-1
ipc-2014-agile-visitall-31.pddl,SAT:10.2524:980.0:300.0:-1
ipc-2014-agile-visitall-32.pddl,SAT:11.8692:1033.0:300.0:-1
ipc-2014-agile-visitall-33.pddl,SAT:13.448:1118.0:300.0:-1
ipc-2014-agile-visitall-50.pddl,SAT:133.417:2509.0:300.0:-1
ipc-2014-agile-visitall-51.pddl,SAT:153.923:2620.0:300.0:-1
ipc-2014-agile-visitall-52.pddl,SAT:172.651:2713.0:300.0:-1
ipc-2014-agile-visitall-53.pddl,SAT:188.231:2858.0:300.0:-1
ipc-2014-agile-visitall-54.pddl,SAT:210.036:2925.0:300.0:-1
ipc-2014-agile-visitall-55.pddl,SAT:241.413:3044.0:300.0:-1
ipc-2014-agile-visitall-56.pddl,SAT:268.28:3145.0:300.0:-1
ipc-2014-agile-visitall-57.pddl,SAT:297.663:3302.0:300.0:-1
ipc-2014-agile-visitall-58.pddl,TIMEOUT:301.11:-1.0:300.0:-1
ipc-2014-agile-visitall-59.pddl,TIMEOUT:301.04:-1.0:300.0:-1
ipc-2014-agile-visitall-60.pddl,TIMEOUT:301.09:-1.0:300.0:-1
ipc-2014-agile-visitall-61.pddl,TIMEOUT:301.01:-1.0:300.0:-1
ipc-2014-agile-visitall-62.pddl,TIMEOUT:301.04:-1.0:300.0:-1
ipc-2014-agile-visitall-63.pddl,TIMEOUT:301.06:-1.0:300.0:-1
ipc-2014-agile-visitall-64.pddl,TIMEOUT:301.07:-1.0:300.0:-1
ipc-2014-agile-visitall-65.pddl,TIMEOUT:301.02:-1.0:300.0:-1
