instance,ipc-2014-agile-siw
ipc-2014-agile-barman-p1-11-4-15.pddl,TIMEOUT:301.128:-1.0:300.0:-1
ipc-2014-agile-barman-p1-11-5-15.pddl,TIMEOUT:301.119:-1.0:300.0:-1
ipc-2014-agile-barman-p1-11-5-16.pddl,CRASHED:0.502922:1000000000.0:300.0:-1
ipc-2014-agile-barman-p2-10-4-13.pddl,TIMEOUT:301.139:-1.0:300.0:-1
ipc-2014-agile-barman-p2-11-4-15.pddl,TIMEOUT:301.145:-1.0:300.0:-1
ipc-2014-agile-barman-p2-11-5-15.pddl,TIMEOUT:301.104:-1.0:300.0:-1
ipc-2014-agile-barman-p2-11-5-16.pddl,CRASHED:0.524919:1000000000.0:300.0:-1
ipc-2014-agile-barman-p2-11-5-17.pddl,CRASHED:0.610906:1000000000.0:300.0:-1
ipc-2014-agile-barman-p3-10-4-13.pddl,TIMEOUT:301.123:-1.0:300.0:-1
ipc-2014-agile-barman-p3-11-4-15.pddl,TIMEOUT:301.097:-1.0:300.0:-1
ipc-2014-agile-barman-p3-11-5-15.pddl,TIMEOUT:301.145:-1.0:300.0:-1
ipc-2014-agile-barman-p3-11-5-16.pddl,CRASHED:0.501922:1000000000.0:300.0:-1
ipc-2014-agile-barman-p3-11-5-17.pddl,CRASHED:0.609906:1000000000.0:300.0:-1
ipc-2014-agile-barman-p4-11-4-14.pddl,TIMEOUT:301.075:-1.0:300.0:-1
ipc-2014-agile-barman-p4-11-4-15.pddl,TIMEOUT:301.132:-1.0:300.0:-1
ipc-2014-agile-barman-p4-11-5-15.pddl,TIMEOUT:301.111:-1.0:300.0:-1
ipc-2014-agile-barman-p5-10-4-13.pddl,TIMEOUT:301.105:-1.0:300.0:-1
ipc-2014-agile-barman-p5-11-4-15.pddl,TIMEOUT:301.114:-1.0:300.0:-1
ipc-2014-agile-barman-p5-11-5-15.pddl,TIMEOUT:301.11:-1.0:300.0:-1
ipc-2014-agile-barman-p5-11-5-16.pddl,CRASHED:0.497924:1000000000.0:300.0:-1
ipc-2014-agile-cavediving-01_easy.pddl,CRASHED:0.316951:1000000000.0:300.0:-1
ipc-2014-agile-cavediving-01.pddl,CRASHED:0.361944:1000000000.0:300.0:-1
ipc-2014-agile-cavediving-02_easy.pddl,CRASHED:0.304952:1000000000.0:300.0:-1
ipc-2014-agile-cavediving-03_easy.pddl,CRASHED:0.295954:1000000000.0:300.0:-1
ipc-2014-agile-cavediving-04_easy.pddl,CRASHED:0.32195:1000000000.0:300.0:-1
ipc-2014-agile-cavediving-05A_easy.pddl,CRASHED:0.220966:1000000000.0:300.0:-1
ipc-2014-agile-cavediving-06A_easy.pddl,CRASHED:0.220965:1000000000.0:300.0:-1
ipc-2014-agile-cavediving-07_easy.pddl,CRASHED:0.219966:1000000000.0:300.0:-1
ipc-2014-agile-cavediving-08_easy.pddl,CRASHED:0.219966:1000000000.0:300.0:-1
ipc-2014-agile-cavediving-09_easy.pddl,CRASHED:3.46847:1000000000.0:300.0:-1
ipc-2014-agile-cavediving-10_easy.pddl,CRASHED:3.51147:1000000000.0:300.0:-1
ipc-2014-agile-cavediving-11_easy.pddl,CRASHED:3.51646:1000000000.0:300.0:-1
ipc-2014-agile-cavediving-12_easy.pddl,CRASHED:3.48747:1000000000.0:300.0:-1
ipc-2014-agile-cavediving-13_easy.pddl,CRASHED:0.519919:1000000000.0:300.0:-1
ipc-2014-agile-cavediving-14_easy.pddl,CRASHED:0.487925:1000000000.0:300.0:-1
ipc-2014-agile-cavediving-15_easy.pddl,CRASHED:0.396939:1000000000.0:300.0:-1
ipc-2014-agile-cavediving-16_easy.pddl,CRASHED:0.512921:1000000000.0:300.0:-1
ipc-2014-agile-cavediving-18A_easy.pddl,CRASHED:0.039993:1000000000.0:300.0:-1
ipc-2014-agile-cavediving-18_easy.pddl,CRASHED:0.045992:1000000000.0:300.0:-1
ipc-2014-agile-cavediving-20A_easy.pddl,CRASHED:0.043992:1000000000.0:300.0:-1
ipc-2014-agile-childsnack-05-2.pddl,CRASHED:65.755:1000000000.0:300.0:-1
ipc-2014-agile-childsnack-05.pddl,CRASHED:65.642:1000000000.0:300.0:-1
ipc-2014-agile-childsnack-06-2.pddl,CRASHED:217.162:1000000000.0:300.0:-1
ipc-2014-agile-childsnack-07-2.pddl,TIMEOUT:301.038:-1.0:300.0:-1
ipc-2014-agile-childsnack-08-2.pddl,TIMEOUT:301.022:-1.0:300.0:-1
ipc-2014-agile-childsnack-08.pddl,TIMEOUT:301.09:-1.0:300.0:-1
ipc-2014-agile-childsnack-09-2.pddl,TIMEOUT:301.024:-1.0:300.0:-1
ipc-2014-agile-childsnack-09.pddl,TIMEOUT:301.052:-1.0:300.0:-1
ipc-2014-agile-childsnack-10-2.pddl,TIMEOUT:301.097:-1.0:300.0:-1
ipc-2014-agile-childsnack-10.pddl,TIMEOUT:301.029:-1.0:300.0:-1
ipc-2014-agile-childsnack-11-2.pddl,TIMEOUT:301.026:-1.0:300.0:-1
ipc-2014-agile-childsnack-11.pddl,TIMEOUT:301.059:-1.0:300.0:-1
ipc-2014-agile-childsnack-12.pddl,TIMEOUT:301.11:-1.0:300.0:-1
ipc-2014-agile-childsnack-13-2.pddl,TIMEOUT:301.107:-1.0:300.0:-1
ipc-2014-agile-childsnack-13.pddl,TIMEOUT:301.115:-1.0:300.0:-1
ipc-2014-agile-childsnack-14.pddl,TIMEOUT:301.095:-1.0:300.0:-1
ipc-2014-agile-childsnack-15-2.pddl,TIMEOUT:301.038:-1.0:300.0:-1
ipc-2014-agile-childsnack-16-2.pddl,TIMEOUT:301.055:-1.0:300.0:-1
ipc-2014-agile-childsnack-19-2.pddl,TIMEOUT:301.064:-1.0:300.0:-1
ipc-2014-agile-childsnack-19.pddl,TIMEOUT:301.095:-1.0:300.0:-1
ipc-2014-agile-citycar-p3-2-2-0-1.pddl,SAT:12.4541:88.0:300.0:-1
ipc-2014-agile-citycar-p3-3-2-0-1.pddl,SAT:19.1591:142.0:300.0:-1
ipc-2014-agile-citycar-p3-4-2-0-1.pddl,SAT:15.7226:106.0:300.0:-1
ipc-2014-agile-citycar-p3-5-2-0-1.pddl,SAT:21.8137:150.0:300.0:-1
ipc-2014-agile-citycar-p3-5-2-0-2.pddl,SAT:19.705:90.0:300.0:-1
ipc-2014-agile-citycar-p4-2-2-0-1.pddl,SAT:265.699:152.0:300.0:-1
ipc-2014-agile-citycar-p4-2-3-0-1.pddl,SAT:268.304:142.0:300.0:-1
ipc-2014-agile-citycar-p4-2-3-0-2.pddl,SAT:256.924:122.0:300.0:-1
ipc-2014-agile-citycar-p4-3-2-0-1.pddl,SAT:280.314:118.0:300.0:-1
ipc-2014-agile-citycar-p4-3-2-0-2.pddl,TIMEOUT:301.089:-1.0:300.0:-1
ipc-2014-agile-citycar-p4-3-3-0-1.pddl,TIMEOUT:301.066:-1.0:300.0:-1
ipc-2014-agile-citycar-p4-3-3-0-2.pddl,TIMEOUT:301.026:-1.0:300.0:-1
ipc-2014-agile-citycar-p4-4-2-0-1.pddl,TIMEOUT:301.105:-1.0:300.0:-1
ipc-2014-agile-citycar-p4-4-2-0-2.pddl,SAT:296.32:164.0:300.0:-1
ipc-2014-agile-citycar-p4-4-3-0-1.pddl,TIMEOUT:301.041:-1.0:300.0:-1
ipc-2014-agile-citycar-p4-4-3-0-2.pddl,TIMEOUT:301.033:-1.0:300.0:-1
ipc-2014-agile-citycar-p4-5-2-0-1.pddl,TIMEOUT:301.076:-1.0:300.0:-1
ipc-2014-agile-citycar-p4-5-2-0-2.pddl,TIMEOUT:301.133:-1.0:300.0:-1
ipc-2014-agile-citycar-p4-5-3-0-1.pddl,TIMEOUT:301.137:-1.0:300.0:-1
ipc-2014-agile-citycar-p4-5-3-0-2.pddl,TIMEOUT:301.054:-1.0:300.0:-1
ipc-2014-agile-floortile-p01-4-3-2.pddl,CRASHED:1.47677:1000000000.0:300.0:-1
ipc-2014-agile-floortile-p01-5-4-2.pddl,CRASHED:0.327949:1000000000.0:300.0:-1
ipc-2014-agile-floortile-p01-5-5-2.pddl,CRASHED:1.18182:1000000000.0:300.0:-1
ipc-2014-agile-floortile-p01-6-4-2.pddl,CRASHED:1.20282:1000000000.0:300.0:-1
ipc-2014-agile-floortile-p01-6-5-2.pddl,CRASHED:5.54516:1000000000.0:300.0:-1
ipc-2014-agile-floortile-p01-6-5-3.pddl,CRASHED:37.5033:1000000000.0:300.0:-1
ipc-2014-agile-floortile-p02-5-4-2.pddl,CRASHED:0.313951:1000000000.0:300.0:-1
ipc-2014-agile-floortile-p02-6-4-2.pddl,CRASHED:2.41263:1000000000.0:300.0:-1
ipc-2014-agile-floortile-p02-6-5-2.pddl,CRASHED:1.14482:1000000000.0:300.0:-1
ipc-2014-agile-floortile-p02-6-5-3.pddl,CRASHED:8.39772:1000000000.0:300.0:-1
ipc-2014-agile-floortile-p03-6-4-2.pddl,CRASHED:0.738886:1000000000.0:300.0:-1
ipc-2014-agile-floortile-p03-6-5-2.pddl,CRASHED:5.72013:1000000000.0:300.0:-1
ipc-2014-agile-floortile-p03-6-5-3.pddl,CRASHED:5.33319:1000000000.0:300.0:-1
ipc-2014-agile-floortile-p04-5-4-2.pddl,CRASHED:0.240962:1000000000.0:300.0:-1
ipc-2014-agile-floortile-p04-5-5-2.pddl,CRASHED:0.776881:1000000000.0:300.0:-1
ipc-2014-agile-floortile-p04-6-5-2.pddl,CRASHED:1.72174:1000000000.0:300.0:-1
ipc-2014-agile-floortile-p04-6-5-3.pddl,CRASHED:9.03563:1000000000.0:300.0:-1
ipc-2014-agile-floortile-p05-4-3-2.pddl,CRASHED:0.494924:1000000000.0:300.0:-1
ipc-2014-agile-floortile-p05-6-5-2.pddl,CRASHED:3.17252:1000000000.0:300.0:-1
ipc-2014-agile-floortile-p05-6-5-3.pddl,CRASHED:6.76797:1000000000.0:300.0:-1
ipc-2014-agile-ged-d-10-1.pddl,CRASHED:2.40463:1000000000.0:300.0:-1
ipc-2014-agile-ged-d-10-2.pddl,CRASHED:2.39464:1000000000.0:300.0:-1
ipc-2014-agile-ged-d-10-3.pddl,CRASHED:3.19151:1000000000.0:300.0:-1
ipc-2014-agile-ged-d-10-4.pddl,CRASHED:2.50662:1000000000.0:300.0:-1
ipc-2014-agile-ged-d-10-5.pddl,CRASHED:6.63699:1000000000.0:300.0:-1
ipc-2014-agile-ged-d-10-6.pddl,CRASHED:6.78897:1000000000.0:300.0:-1
ipc-2014-agile-ged-d-11-1.pddl,CRASHED:3.16352:1000000000.0:300.0:-1
ipc-2014-agile-ged-d-11-3.pddl,CRASHED:3.2895:1000000000.0:300.0:-1
ipc-2014-agile-ged-d-11-5.pddl,CRASHED:4.96025:1000000000.0:300.0:-1
ipc-2014-agile-ged-d-11-6.pddl,CRASHED:4.00739:1000000000.0:300.0:-1
ipc-2014-agile-ged-d-12-11.pddl,CRASHED:4.01939:1000000000.0:300.0:-1
ipc-2014-agile-ged-d-12-2.pddl,CRASHED:10.1365:1000000000.0:300.0:-1
ipc-2014-agile-ged-d-12-3.pddl,CRASHED:11.2573:1000000000.0:300.0:-1
ipc-2014-agile-ged-d-12-5.pddl,CRASHED:21.3468:1000000000.0:300.0:-1
ipc-2014-agile-ged-d-12-6.pddl,CRASHED:9.91749:1000000000.0:300.0:-1
ipc-2014-agile-ged-d-12-7.pddl,CRASHED:11.9402:1000000000.0:300.0:-1
ipc-2014-agile-ged-d-12-8.pddl,CRASHED:19.0451:1000000000.0:300.0:-1
ipc-2014-agile-ged-d-12-9.pddl,CRASHED:19.3221:1000000000.0:300.0:-1
ipc-2014-agile-ged-d-3-6.pddl,CRASHED:2.97955:1000000000.0:300.0:-1
ipc-2014-agile-ged-d-9-5.pddl,SAT:1.92571:20.0:300.0:-1
ipc-2014-agile-hiking-3-4-3.pddl,SAT:0.375942:13.0:300.0:-1
ipc-2014-agile-hiking-3-4-4.pddl,SAT:141.062:27.0:300.0:-1
ipc-2014-agile-hiking-3-4-5.pddl,TIMEOUT:301.035:-1.0:300.0:-1
ipc-2014-agile-hiking-3-4-6.pddl,TIMEOUT:301.068:-1.0:300.0:-1
ipc-2014-agile-hiking-3-4-7.pddl,TIMEOUT:301.038:-1.0:300.0:-1
ipc-2014-agile-hiking-3-4-8.pddl,TIMEOUT:301.089:-1.0:300.0:-1
ipc-2014-agile-hiking-3-4-9.pddl,TIMEOUT:301.139:-1.0:300.0:-1
ipc-2014-agile-hiking-4-5-3.pddl,SAT:2.01069:15.0:300.0:-1
ipc-2014-agile-hiking-4-5-4.pddl,TIMEOUT:301.032:-1.0:300.0:-1
ipc-2014-agile-hiking-4-5-5.pddl,TIMEOUT:301.059:-1.0:300.0:-1
ipc-2014-agile-hiking-4-5-6.pddl,TIMEOUT:301.073:-1.0:300.0:-1
ipc-2014-agile-hiking-4-5-7.pddl,TIMEOUT:301.064:-1.0:300.0:-1
ipc-2014-agile-hiking-4-5-8.pddl,TIMEOUT:301.142:-1.0:300.0:-1
ipc-2014-agile-hiking-4-5-9.pddl,TIMEOUT:301.161:-1.0:300.0:-1
ipc-2014-agile-hiking-5-6-3.pddl,SAT:11.0733:17.0:300.0:-1
ipc-2014-agile-hiking-5-6-4.pddl,TIMEOUT:301.095:-1.0:300.0:-1
ipc-2014-agile-hiking-5-6-5.pddl,TIMEOUT:301.076:-1.0:300.0:-1
ipc-2014-agile-hiking-5-6-6.pddl,TIMEOUT:301.132:-1.0:300.0:-1
ipc-2014-agile-hiking-5-6-7.pddl,TIMEOUT:301.194:-1.0:300.0:-1
ipc-2014-agile-hiking-5-6-8.pddl,TIMEOUT:301.158:-1.0:300.0:-1
ipc-2014-agile-maintenance-1.3.060.180.5-000.pddl,CRASHED:0.18797:1000000000.0:300.0:-1
ipc-2014-agile-maintenance-1.3.060.180.5-001.pddl,CRASHED:30.2574:1000000000.0:300.0:-1
ipc-2014-agile-maintenance-1.3.060.180.5-002.pddl,CRASHED:2.04469:1000000000.0:300.0:-1
ipc-2014-agile-maintenance-1.3.100.300.5-000.pddl,CRASHED:274.752:1000000000.0:300.0:-1
ipc-2014-agile-maintenance-1.3.100.300.5-001.pddl,CRASHED:160.802:1000000000.0:300.0:-1
ipc-2014-agile-maintenance-1.3.100.300.7-000.pddl,CRASHED:108.085:1000000000.0:300.0:-1
ipc-2014-agile-maintenance-1.3.100.300.7-001.pddl,CRASHED:50.7493:1000000000.0:300.0:-1
ipc-2014-agile-maintenance-1.3.100.300.7-002.pddl,TIMEOUT:301.185:-1.0:300.0:-1
ipc-2014-agile-maintenance-1.3.150.500.6-001.pddl,CRASHED:5.95309:1000000000.0:300.0:-1
ipc-2014-agile-maintenance-1.3.200.500.5-001.pddl,CRASHED:9.8945:1000000000.0:300.0:-1
ipc-2014-agile-maintenance-1.3.200.500.5-002.pddl,CRASHED:9.28459:1000000000.0:300.0:-1
ipc-2014-agile-maintenance-1.3.200.700.7-000.pddl,CRASHED:3.40248:1000000000.0:300.0:-1
ipc-2014-agile-maintenance-1.3.200.700.7-001.pddl,CRASHED:3.37349:1000000000.0:300.0:-1
ipc-2014-agile-maintenance-1.3.200.700.7-002.pddl,CRASHED:3.37049:1000000000.0:300.0:-1
ipc-2014-agile-maintenance-1.3.200.900.5-000.pddl,CRASHED:3.12852:1000000000.0:300.0:-1
ipc-2014-agile-maintenance-1.3.200.900.5-001.pddl,CRASHED:3.10153:1000000000.0:300.0:-1
ipc-2014-agile-maintenance-1.3.200.900.5-002.pddl,CRASHED:3.12252:1000000000.0:300.0:-1
ipc-2014-agile-maintenance-1.3.200.900.8-000.pddl,CRASHED:3.18152:1000000000.0:300.0:-1
ipc-2014-agile-maintenance-1.3.200.900.8-001.pddl,CRASHED:3.17752:1000000000.0:300.0:-1
ipc-2014-agile-maintenance-1.3.200.900.8-002.pddl,CRASHED:3.16552:1000000000.0:300.0:-1
ipc-2014-agile-openstacks-p130_2.pddl,CRASHED:176.198:1000000000.0:300.0:-1
ipc-2014-agile-openstacks-p130_3.pddl,CRASHED:44.6752:1000000000.0:300.0:-1
ipc-2014-agile-openstacks-p150_2.pddl,TIMEOUT:301.147:-1.0:300.0:-1
ipc-2014-agile-openstacks-p150_3.pddl,CRASHED:77.7012:1000000000.0:300.0:-1
ipc-2014-agile-openstacks-p170_1.pddl,TIMEOUT:301.114:-1.0:300.0:-1
ipc-2014-agile-openstacks-p170_2.pddl,CRASHED:286.149:1000000000.0:300.0:-1
ipc-2014-agile-openstacks-p170_3.pddl,CRASHED:125.253:1000000000.0:300.0:-1
ipc-2014-agile-openstacks-p190_1.pddl,TIMEOUT:301.101:-1.0:300.0:-1
ipc-2014-agile-openstacks-p190_2.pddl,TIMEOUT:301.14:-1.0:300.0:-1
ipc-2014-agile-openstacks-p190_3.pddl,CRASHED:178.291:1000000000.0:300.0:-1
ipc-2014-agile-openstacks-p210_1.pddl,TIMEOUT:301.161:-1.0:300.0:-1
ipc-2014-agile-openstacks-p210_2.pddl,TIMEOUT:301.115:-1.0:300.0:-1
ipc-2014-agile-openstacks-p230_1.pddl,TIMEOUT:301.192:-1.0:300.0:-1
ipc-2014-agile-openstacks-p230_2.pddl,TIMEOUT:301.1:-1.0:300.0:-1
ipc-2014-agile-openstacks-p250_1.pddl,TIMEOUT:301.13:-1.0:300.0:-1
ipc-2014-agile-openstacks-p250_2.pddl,TIMEOUT:301.201:-1.0:300.0:-1
ipc-2014-agile-openstacks-p270_1.pddl,TIMEOUT:301.183:-1.0:300.0:-1
ipc-2014-agile-openstacks-p270_2.pddl,TIMEOUT:301.147:-1.0:300.0:-1
ipc-2014-agile-openstacks-p290_1.pddl,TIMEOUT:301.161:-1.0:300.0:-1
ipc-2014-agile-openstacks-p290_2.pddl,TIMEOUT:301.184:-1.0:300.0:-1
ipc-2014-agile-parking-28_2.pddl,SAT:22.4416:52.0:300.0:-1
ipc-2014-agile-parking-28_3.pddl,SAT:21.6157:53.0:300.0:-1
ipc-2014-agile-parking-30_1.pddl,SAT:30.4724:50.0:300.0:-1
ipc-2014-agile-parking-30_2.pddl,SAT:31.7842:57.0:300.0:-1
ipc-2014-agile-parking-30_3.pddl,SAT:32.3561:56.0:300.0:-1
ipc-2014-agile-parking-32_1.pddl,SAT:47.4008:60.0:300.0:-1
ipc-2014-agile-parking-32_2.pddl,SAT:44.1803:61.0:300.0:-1
ipc-2014-agile-parking-32_3.pddl,SAT:44.6052:63.0:300.0:-1
ipc-2014-agile-parking-34_1.pddl,SAT:64.9041:69.0:300.0:-1
ipc-2014-agile-parking-34_2.pddl,SAT:63.0454:66.0:300.0:-1
ipc-2014-agile-parking-34_3.pddl,SAT:65.512:70.0:300.0:-1
ipc-2014-agile-parking-36_1.pddl,SAT:89.7014:74.0:300.0:-1
ipc-2014-agile-parking-36_2.pddl,SAT:92.9569:75.0:300.0:-1
ipc-2014-agile-parking-36_3.pddl,SAT:86.8348:66.0:300.0:-1
ipc-2014-agile-parking-38_1.pddl,SAT:115.84:73.0:300.0:-1
ipc-2014-agile-parking-38_2.pddl,SAT:118.204:71.0:300.0:-1
ipc-2014-agile-parking-38_3.pddl,SAT:117.432:75.0:300.0:-1
ipc-2014-agile-parking-40_1.pddl,SAT:156.636:77.0:300.0:-1
ipc-2014-agile-parking-40_2.pddl,SAT:160.11:79.0:300.0:-1
ipc-2014-agile-parking-40_3.pddl,SAT:157.823:83.0:300.0:-1
ipc-2014-agile-tetris-020.pddl,SAT:115.603:54.0:300.0:-1
ipc-2014-agile-tetris-021.pddl,TIMEOUT:301.024:-1.0:300.0:-1
ipc-2014-agile-tetris-022.pddl,TIMEOUT:301.023:-1.0:300.0:-1
ipc-2014-agile-tetris-023.pddl,TIMEOUT:301.029:-1.0:300.0:-1
ipc-2014-agile-tetris-024.pddl,TIMEOUT:301.06:-1.0:300.0:-1
ipc-2014-agile-tetris-025.pddl,TIMEOUT:301.023:-1.0:300.0:-1
ipc-2014-agile-tetris-026.pddl,TIMEOUT:301.106:-1.0:300.0:-1
ipc-2014-agile-tetris-027.pddl,TIMEOUT:301.029:-1.0:300.0:-1
ipc-2014-agile-tetris-028.pddl,TIMEOUT:301.029:-1.0:300.0:-1
ipc-2014-agile-tetris-029.pddl,TIMEOUT:301.097:-1.0:300.0:-1
ipc-2014-agile-tetris-031.pddl,TIMEOUT:301.074:-1.0:300.0:-1
ipc-2014-agile-tetris-032.pddl,TIMEOUT:301.058:-1.0:300.0:-1
ipc-2014-agile-tetris-033.pddl,TIMEOUT:301.028:-1.0:300.0:-1
ipc-2014-agile-tetris-034.pddl,TIMEOUT:301.083:-1.0:300.0:-1
ipc-2014-agile-tetris-035.pddl,TIMEOUT:301.056:-1.0:300.0:-1
ipc-2014-agile-tetris-036.pddl,TIMEOUT:301.089:-1.0:300.0:-1
ipc-2014-agile-tetris-037.pddl,TIMEOUT:301.097:-1.0:300.0:-1
ipc-2014-agile-tetris-038.pddl,TIMEOUT:301.041:-1.0:300.0:-1
ipc-2014-agile-tetris-039.pddl,TIMEOUT:301.071:-1.0:300.0:-1
ipc-2014-agile-tetris-040.pddl,TIMEOUT:301.02:-1.0:300.0:-1
ipc-2014-agile-thoughtful-bootstrap-typed-01.pddl,SAT:0.105982:33.0:300.0:-1
ipc-2014-agile-thoughtful-bootstrap-typed-02.pddl,SAT:0.089986:28.0:300.0:-1
ipc-2014-agile-thoughtful-bootstrap-typed-03.pddl,SAT:0.122981:35.0:300.0:-1
ipc-2014-agile-thoughtful-bootstrap-typed-04.pddl,SAT:0.109982:31.0:300.0:-1
ipc-2014-agile-thoughtful-bootstrap-typed-05.pddl,SAT:0.111982:33.0:300.0:-1
ipc-2014-agile-thoughtful-p11_6_53-typed.pddl,SAT:4.20436:115.0:300.0:-1
ipc-2014-agile-thoughtful-p11_6_59-typed.pddl,SAT:3.17352:111.0:300.0:-1
ipc-2014-agile-thoughtful-p11_6_62-typed.pddl,SAT:3.43448:106.0:300.0:-1
ipc-2014-agile-thoughtful-p13_7_78-typed.pddl,SAT:5.8821:131.0:300.0:-1
ipc-2014-agile-thoughtful-p13_7_79-typed.pddl,SAT:5.09523:126.0:300.0:-1
ipc-2014-agile-thoughtful-p13_7_86-typed.pddl,SAT:5.21221:144.0:300.0:-1
ipc-2014-agile-thoughtful-target-typed-20.pddl,SAT:4.89525:109.0:300.0:-1
ipc-2014-agile-thoughtful-target-typed-21.pddl,CRASHED:6.07408:1000000000.0:300.0:-1
ipc-2014-agile-thoughtful-target-typed-22.pddl,SAT:5.05923:151.0:300.0:-1
ipc-2014-agile-thoughtful-target-typed-23.pddl,SAT:5.9061:136.0:300.0:-1
ipc-2014-agile-thoughtful-target-typed-24.pddl,SAT:5.2692:139.0:300.0:-1
ipc-2014-agile-thoughtful-target-typed-25.pddl,SAT:6.11607:113.0:300.0:-1
ipc-2014-agile-thoughtful-target-typed-26.pddl,SAT:5.22721:135.0:300.0:-1
ipc-2014-agile-thoughtful-target-typed-27.pddl,SAT:5.20521:112.0:300.0:-1
ipc-2014-agile-thoughtful-target-typed-28.pddl,CRASHED:4.83726:1000000000.0:300.0:-1
ipc-2014-agile-transport-01.pddl,SAT:52.1371:2274.0:300.0:-1
ipc-2014-agile-transport-02.pddl,SAT:258.981:3144.0:300.0:-1
ipc-2014-agile-transport-03.pddl,SAT:150.355:2783.0:300.0:-1
ipc-2014-agile-transport-04.pddl,TIMEOUT:301.193:-1.0:300.0:-1
ipc-2014-agile-transport-05.pddl,TIMEOUT:301.195:-1.0:300.0:-1
ipc-2014-agile-transport-06.pddl,TIMEOUT:301.152:-1.0:300.0:-1
ipc-2014-agile-transport-07.pddl,TIMEOUT:301.196:-1.0:300.0:-1
ipc-2014-agile-transport-08.pddl,TIMEOUT:301.211:-1.0:300.0:-1
ipc-2014-agile-transport-09.pddl,TIMEOUT:301.168:-1.0:300.0:-1
ipc-2014-agile-transport-10.pddl,TIMEOUT:301.202:-1.0:300.0:-1
ipc-2014-agile-transport-11.pddl,SAT:278.018:2069.0:300.0:-1
ipc-2014-agile-transport-12.pddl,SAT:267.082:2936.0:300.0:-1
ipc-2014-agile-transport-13.pddl,SAT:99.3269:2178.0:300.0:-1
ipc-2014-agile-transport-14.pddl,TIMEOUT:301.195:-1.0:300.0:-1
ipc-2014-agile-transport-15.pddl,TIMEOUT:301.14:-1.0:300.0:-1
ipc-2014-agile-transport-16.pddl,TIMEOUT:301.163:-1.0:300.0:-1
ipc-2014-agile-transport-17.pddl,TIMEOUT:301.127:-1.0:300.0:-1
ipc-2014-agile-transport-18.pddl,TIMEOUT:301.207:-1.0:300.0:-1
ipc-2014-agile-transport-19.pddl,TIMEOUT:301.192:-1.0:300.0:-1
ipc-2014-agile-transport-20.pddl,TIMEOUT:301.175:-1.0:300.0:-1
ipc-2014-agile-visitall-30.pddl,SAT:10.3864:919.0:300.0:-1
ipc-2014-agile-visitall-31.pddl,SAT:12.5421:1004.0:300.0:-1
ipc-2014-agile-visitall-32.pddl,SAT:14.8387:1046.0:300.0:-1
ipc-2014-agile-visitall-33.pddl,SAT:17.5343:1136.0:300.0:-1
ipc-2014-agile-visitall-50.pddl,SAT:178.532:2534.0:300.0:-1
ipc-2014-agile-visitall-51.pddl,SAT:199.796:2674.0:300.0:-1
ipc-2014-agile-visitall-52.pddl,SAT:221.78:2741.0:300.0:-1
ipc-2014-agile-visitall-53.pddl,SAT:247.673:2886.0:300.0:-1
ipc-2014-agile-visitall-54.pddl,SAT:275.284:2953.0:300.0:-1
ipc-2014-agile-visitall-55.pddl,TIMEOUT:301.106:-1.0:300.0:-1
ipc-2014-agile-visitall-56.pddl,TIMEOUT:301.083:-1.0:300.0:-1
ipc-2014-agile-visitall-57.pddl,TIMEOUT:301.183:-1.0:300.0:-1
ipc-2014-agile-visitall-58.pddl,TIMEOUT:301.096:-1.0:300.0:-1
ipc-2014-agile-visitall-59.pddl,TIMEOUT:301.136:-1.0:300.0:-1
ipc-2014-agile-visitall-60.pddl,TIMEOUT:301.152:-1.0:300.0:-1
ipc-2014-agile-visitall-61.pddl,TIMEOUT:301.154:-1.0:300.0:-1
ipc-2014-agile-visitall-62.pddl,TIMEOUT:301.079:-1.0:300.0:-1
ipc-2014-agile-visitall-63.pddl,TIMEOUT:301.083:-1.0:300.0:-1
ipc-2014-agile-visitall-64.pddl,TIMEOUT:301.104:-1.0:300.0:-1
ipc-2014-agile-visitall-65.pddl,TIMEOUT:301.187:-1.0:300.0:-1
