instance,ipc-2014-agile-yahsp3-mt
ipc-2014-agile-barman-p1-11-4-15.pddl,CRASHED:62.3935:1000000000.0:300.0:-1
ipc-2014-agile-barman-p1-11-5-15.pddl,CRASHED:110.159:1000000000.0:300.0:-1
ipc-2014-agile-barman-p1-11-5-16.pddl,CRASHED:31.1903:1000000000.0:300.0:-1
ipc-2014-agile-barman-p2-10-4-13.pddl,CRASHED:16.7804:1000000000.0:300.0:-1
ipc-2014-agile-barman-p2-11-4-15.pddl,CRASHED:61.2127:1000000000.0:300.0:-1
ipc-2014-agile-barman-p2-11-5-15.pddl,CRASHED:44.8142:1000000000.0:300.0:-1
ipc-2014-agile-barman-p2-11-5-16.pddl,CRASHED:40.0939:1000000000.0:300.0:-1
ipc-2014-agile-barman-p2-11-5-17.pddl,CRASHED:176.089:1000000000.0:300.0:-1
ipc-2014-agile-barman-p3-10-4-13.pddl,CRASHED:27.5738:1000000000.0:300.0:-1
ipc-2014-agile-barman-p3-11-4-15.pddl,CRASHED:36.6874:1000000000.0:300.0:-1
ipc-2014-agile-barman-p3-11-5-15.pddl,CRASHED:68.8485:1000000000.0:300.0:-1
ipc-2014-agile-barman-p3-11-5-16.pddl,CRASHED:35.9785:1000000000.0:300.0:-1
ipc-2014-agile-barman-p3-11-5-17.pddl,CRASHED:30.6013:1000000000.0:300.0:-1
ipc-2014-agile-barman-p4-11-4-14.pddl,CRASHED:44.0503:1000000000.0:300.0:-1
ipc-2014-agile-barman-p4-11-4-15.pddl,CRASHED:69.5644:1000000000.0:300.0:-1
ipc-2014-agile-barman-p4-11-5-15.pddl,SAT:8.93564:472.0:300.0:-1
ipc-2014-agile-barman-p5-10-4-13.pddl,CRASHED:36.7164:1000000000.0:300.0:-1
ipc-2014-agile-barman-p5-11-4-15.pddl,CRASHED:77.3762:1000000000.0:300.0:-1
ipc-2014-agile-barman-p5-11-5-15.pddl,CRASHED:65.3431:1000000000.0:300.0:-1
ipc-2014-agile-barman-p5-11-5-16.pddl,CRASHED:35.1097:1000000000.0:300.0:-1
ipc-2014-agile-cavediving-01_easy.pddl,CRASHED:0.008997:1000000000.0:300.0:-1
ipc-2014-agile-cavediving-01.pddl,CRASHED:0.007998:1000000000.0:300.0:-1
ipc-2014-agile-cavediving-02_easy.pddl,CRASHED:0.007998:1000000000.0:300.0:-1
ipc-2014-agile-cavediving-03_easy.pddl,CRASHED:0.007998:1000000000.0:300.0:-1
ipc-2014-agile-cavediving-04_easy.pddl,CRASHED:0.008998:1000000000.0:300.0:-1
ipc-2014-agile-cavediving-05A_easy.pddl,CRASHED:0.007997:1000000000.0:300.0:-1
ipc-2014-agile-cavediving-06A_easy.pddl,CRASHED:0.007998:1000000000.0:300.0:-1
ipc-2014-agile-cavediving-07_easy.pddl,CRASHED:0.007998:1000000000.0:300.0:-1
ipc-2014-agile-cavediving-08_easy.pddl,CRASHED:0.007998:1000000000.0:300.0:-1
ipc-2014-agile-cavediving-09_easy.pddl,CRASHED:0.007997:1000000000.0:300.0:-1
ipc-2014-agile-cavediving-10_easy.pddl,CRASHED:0.007998:1000000000.0:300.0:-1
ipc-2014-agile-cavediving-11_easy.pddl,CRASHED:0.007998:1000000000.0:300.0:-1
ipc-2014-agile-cavediving-12_easy.pddl,CRASHED:0.007997:1000000000.0:300.0:-1
ipc-2014-agile-cavediving-13_easy.pddl,CRASHED:0.007998:1000000000.0:300.0:-1
ipc-2014-agile-cavediving-14_easy.pddl,CRASHED:0.007998:1000000000.0:300.0:-1
ipc-2014-agile-cavediving-15_easy.pddl,CRASHED:0.006998:1000000000.0:300.0:-1
ipc-2014-agile-cavediving-16_easy.pddl,CRASHED:0.006998:1000000000.0:300.0:-1
ipc-2014-agile-cavediving-18A_easy.pddl,CRASHED:0.006998:1000000000.0:300.0:-1
ipc-2014-agile-cavediving-18_easy.pddl,CRASHED:0.006998:1000000000.0:300.0:-1
ipc-2014-agile-cavediving-20A_easy.pddl,CRASHED:0.008998:1000000000.0:300.0:-1
ipc-2014-agile-childsnack-05-2.pddl,TIMEOUT:302.648:-1.0:300.0:-1
ipc-2014-agile-childsnack-05.pddl,CRASHED:6.19306:1000000000.0:300.0:-1
ipc-2014-agile-childsnack-06-2.pddl,TIMEOUT:303.279:-1.0:300.0:-1
ipc-2014-agile-childsnack-07-2.pddl,SAT:0.109982:63.0:300.0:-1
ipc-2014-agile-childsnack-08-2.pddl,TIMEOUT:302.487:-1.0:300.0:-1
ipc-2014-agile-childsnack-08.pddl,TIMEOUT:302.544:-1.0:300.0:-1
ipc-2014-agile-childsnack-09-2.pddl,TIMEOUT:303.531:-1.0:300.0:-1
ipc-2014-agile-childsnack-09.pddl,TIMEOUT:302.862:-1.0:300.0:-1
ipc-2014-agile-childsnack-10-2.pddl,TIMEOUT:302.794:-1.0:300.0:-1
ipc-2014-agile-childsnack-10.pddl,TIMEOUT:302.59:-1.0:300.0:-1
ipc-2014-agile-childsnack-11-2.pddl,TIMEOUT:302.542:-1.0:300.0:-1
ipc-2014-agile-childsnack-11.pddl,TIMEOUT:303.096:-1.0:300.0:-1
ipc-2014-agile-childsnack-12.pddl,TIMEOUT:303.587:-1.0:300.0:-1
ipc-2014-agile-childsnack-13-2.pddl,TIMEOUT:302.495:-1.0:300.0:-1
ipc-2014-agile-childsnack-13.pddl,TIMEOUT:302.4:-1.0:300.0:-1
ipc-2014-agile-childsnack-14.pddl,TIMEOUT:302.7:-1.0:300.0:-1
ipc-2014-agile-childsnack-15-2.pddl,TIMEOUT:301.866:-1.0:300.0:-1
ipc-2014-agile-childsnack-16-2.pddl,TIMEOUT:302.337:-1.0:300.0:-1
ipc-2014-agile-childsnack-19-2.pddl,TIMEOUT:302.568:-1.0:300.0:-1
ipc-2014-agile-childsnack-19.pddl,TIMEOUT:302.847:-1.0:300.0:-1
ipc-2014-agile-citycar-p3-2-2-0-1.pddl,CRASHED:0.008997:1000000000.0:300.0:-1
ipc-2014-agile-citycar-p3-3-2-0-1.pddl,CRASHED:0.007998:1000000000.0:300.0:-1
ipc-2014-agile-citycar-p3-4-2-0-1.pddl,CRASHED:0.007997:1000000000.0:300.0:-1
ipc-2014-agile-citycar-p3-5-2-0-1.pddl,CRASHED:0.007997:1000000000.0:300.0:-1
ipc-2014-agile-citycar-p3-5-2-0-2.pddl,CRASHED:0.014997:1000000000.0:300.0:-1
ipc-2014-agile-citycar-p4-2-2-0-1.pddl,CRASHED:0.012997:1000000000.0:300.0:-1
ipc-2014-agile-citycar-p4-2-3-0-1.pddl,CRASHED:0.012997:1000000000.0:300.0:-1
ipc-2014-agile-citycar-p4-2-3-0-2.pddl,CRASHED:0.012997:1000000000.0:300.0:-1
ipc-2014-agile-citycar-p4-3-2-0-1.pddl,CRASHED:0.012997:1000000000.0:300.0:-1
ipc-2014-agile-citycar-p4-3-2-0-2.pddl,CRASHED:0.012997:1000000000.0:300.0:-1
ipc-2014-agile-citycar-p4-3-3-0-1.pddl,CRASHED:0.007998:1000000000.0:300.0:-1
ipc-2014-agile-citycar-p4-3-3-0-2.pddl,CRASHED:0.011997:1000000000.0:300.0:-1
ipc-2014-agile-citycar-p4-4-2-0-1.pddl,CRASHED:0.013997:1000000000.0:300.0:-1
ipc-2014-agile-citycar-p4-4-2-0-2.pddl,CRASHED:0.012997:1000000000.0:300.0:-1
ipc-2014-agile-citycar-p4-4-3-0-1.pddl,CRASHED:0.013997:1000000000.0:300.0:-1
ipc-2014-agile-citycar-p4-4-3-0-2.pddl,CRASHED:0.006998:1000000000.0:300.0:-1
ipc-2014-agile-citycar-p4-5-2-0-1.pddl,CRASHED:0.007997:1000000000.0:300.0:-1
ipc-2014-agile-citycar-p4-5-2-0-2.pddl,CRASHED:0.006998:1000000000.0:300.0:-1
ipc-2014-agile-citycar-p4-5-3-0-1.pddl,CRASHED:0.006998:1000000000.0:300.0:-1
ipc-2014-agile-citycar-p4-5-3-0-2.pddl,CRASHED:0.006998:1000000000.0:300.0:-1
ipc-2014-agile-floortile-p01-4-3-2.pddl,CRASHED:24.9222:1000000000.0:300.0:-1
ipc-2014-agile-floortile-p01-5-4-2.pddl,TIMEOUT:302.333:-1.0:300.0:-1
ipc-2014-agile-floortile-p01-5-5-2.pddl,TIMEOUT:303.101:-1.0:300.0:-1
ipc-2014-agile-floortile-p01-6-4-2.pddl,TIMEOUT:303.452:-1.0:300.0:-1
ipc-2014-agile-floortile-p01-6-5-2.pddl,TIMEOUT:302.333:-1.0:300.0:-1
ipc-2014-agile-floortile-p01-6-5-3.pddl,TIMEOUT:303.338:-1.0:300.0:-1
ipc-2014-agile-floortile-p02-5-4-2.pddl,TIMEOUT:303.027:-1.0:300.0:-1
ipc-2014-agile-floortile-p02-6-4-2.pddl,TIMEOUT:302.63:-1.0:300.0:-1
ipc-2014-agile-floortile-p02-6-5-2.pddl,TIMEOUT:303.121:-1.0:300.0:-1
ipc-2014-agile-floortile-p02-6-5-3.pddl,TIMEOUT:302.297:-1.0:300.0:-1
ipc-2014-agile-floortile-p03-6-4-2.pddl,TIMEOUT:302.575:-1.0:300.0:-1
ipc-2014-agile-floortile-p03-6-5-2.pddl,TIMEOUT:302.792:-1.0:300.0:-1
ipc-2014-agile-floortile-p03-6-5-3.pddl,TIMEOUT:302.313:-1.0:300.0:-1
ipc-2014-agile-floortile-p04-5-4-2.pddl,TIMEOUT:303.586:-1.0:300.0:-1
ipc-2014-agile-floortile-p04-5-5-2.pddl,TIMEOUT:303.355:-1.0:300.0:-1
ipc-2014-agile-floortile-p04-6-5-2.pddl,TIMEOUT:303.428:-1.0:300.0:-1
ipc-2014-agile-floortile-p04-6-5-3.pddl,TIMEOUT:303.086:-1.0:300.0:-1
ipc-2014-agile-floortile-p05-4-3-2.pddl,CRASHED:6.86696:1000000000.0:300.0:-1
ipc-2014-agile-floortile-p05-6-5-2.pddl,TIMEOUT:303.361:-1.0:300.0:-1
ipc-2014-agile-floortile-p05-6-5-3.pddl,TIMEOUT:301.984:-1.0:300.0:-1
ipc-2014-agile-ged-d-10-1.pddl,SAT:32.0231:28.0:300.0:-1
ipc-2014-agile-ged-d-10-2.pddl,CRASHED:92.188:1000000000.0:300.0:-1
ipc-2014-agile-ged-d-10-3.pddl,CRASHED:131.079:1000000000.0:300.0:-1
ipc-2014-agile-ged-d-10-4.pddl,SAT:17.9313:32.0:300.0:-1
ipc-2014-agile-ged-d-10-5.pddl,TIMEOUT:302.445:-1.0:300.0:-1
ipc-2014-agile-ged-d-10-6.pddl,CRASHED:196.302:1000000000.0:300.0:-1
ipc-2014-agile-ged-d-11-1.pddl,SAT:25.7571:147.0:300.0:-1
ipc-2014-agile-ged-d-11-3.pddl,CRASHED:114.751:1000000000.0:300.0:-1
ipc-2014-agile-ged-d-11-5.pddl,TIMEOUT:302.159:-1.0:300.0:-1
ipc-2014-agile-ged-d-11-6.pddl,CRASHED:125.375:1000000000.0:300.0:-1
ipc-2014-agile-ged-d-12-11.pddl,CRASHED:112.963:1000000000.0:300.0:-1
ipc-2014-agile-ged-d-12-2.pddl,CRASHED:207.862:1000000000.0:300.0:-1
ipc-2014-agile-ged-d-12-3.pddl,TIMEOUT:302.2:-1.0:300.0:-1
ipc-2014-agile-ged-d-12-5.pddl,TIMEOUT:302.283:-1.0:300.0:-1
ipc-2014-agile-ged-d-12-6.pddl,TIMEOUT:302.164:-1.0:300.0:-1
ipc-2014-agile-ged-d-12-7.pddl,TIMEOUT:302.686:-1.0:300.0:-1
ipc-2014-agile-ged-d-12-8.pddl,TIMEOUT:302.554:-1.0:300.0:-1
ipc-2014-agile-ged-d-12-9.pddl,TIMEOUT:302.634:-1.0:300.0:-1
ipc-2014-agile-ged-d-3-6.pddl,CRASHED:168.291:1000000000.0:300.0:-1
ipc-2014-agile-ged-d-9-5.pddl,CRASHED:192.587:1000000000.0:300.0:-1
ipc-2014-agile-hiking-3-4-3.pddl,SAT:0.049991:35.0:300.0:-1
ipc-2014-agile-hiking-3-4-4.pddl,SAT:0.12598:173.0:300.0:-1
ipc-2014-agile-hiking-3-4-5.pddl,SAT:1.41978:676.0:300.0:-1
ipc-2014-agile-hiking-3-4-6.pddl,SAT:10.4774:2080.0:300.0:-1
ipc-2014-agile-hiking-3-4-7.pddl,SAT:140.108:3030.0:300.0:-1
ipc-2014-agile-hiking-3-4-8.pddl,TIMEOUT:301.697:-1.0:300.0:-1
ipc-2014-agile-hiking-3-4-9.pddl,TIMEOUT:301.317:-1.0:300.0:-1
ipc-2014-agile-hiking-4-5-3.pddl,SAT:0.12598:24.0:300.0:-1
ipc-2014-agile-hiking-4-5-4.pddl,SAT:0.302953:116.0:300.0:-1
ipc-2014-agile-hiking-4-5-5.pddl,SAT:1.70674:583.0:300.0:-1
ipc-2014-agile-hiking-4-5-6.pddl,SAT:27.8668:1618.0:300.0:-1
ipc-2014-agile-hiking-4-5-7.pddl,SAT:75.8445:2237.0:300.0:-1
ipc-2014-agile-hiking-4-5-8.pddl,TIMEOUT:301.423:-1.0:300.0:-1
ipc-2014-agile-hiking-4-5-9.pddl,TIMEOUT:301.203:-1.0:300.0:-1
ipc-2014-agile-hiking-5-6-3.pddl,SAT:0.339947:59.0:300.0:-1
ipc-2014-agile-hiking-5-6-4.pddl,SAT:0.695893:144.0:300.0:-1
ipc-2014-agile-hiking-5-6-5.pddl,SAT:4.17836:434.0:300.0:-1
ipc-2014-agile-hiking-5-6-6.pddl,SAT:21.8797:707.0:300.0:-1
ipc-2014-agile-hiking-5-6-7.pddl,SAT:149.914:2136.0:300.0:-1
ipc-2014-agile-hiking-5-6-8.pddl,TIMEOUT:301.408:-1.0:300.0:-1
ipc-2014-agile-maintenance-1.3.060.180.5-000.pddl,CRASHED:0.008997:1000000000.0:300.0:-1
ipc-2014-agile-maintenance-1.3.060.180.5-001.pddl,CRASHED:0.007998:1000000000.0:300.0:-1
ipc-2014-agile-maintenance-1.3.060.180.5-002.pddl,CRASHED:0.007998:1000000000.0:300.0:-1
ipc-2014-agile-maintenance-1.3.100.300.5-000.pddl,CRASHED:0.007997:1000000000.0:300.0:-1
ipc-2014-agile-maintenance-1.3.100.300.5-001.pddl,CRASHED:0.007998:1000000000.0:300.0:-1
ipc-2014-agile-maintenance-1.3.100.300.7-000.pddl,CRASHED:0.007998:1000000000.0:300.0:-1
ipc-2014-agile-maintenance-1.3.100.300.7-001.pddl,CRASHED:0.007997:1000000000.0:300.0:-1
ipc-2014-agile-maintenance-1.3.100.300.7-002.pddl,CRASHED:0.008997:1000000000.0:300.0:-1
ipc-2014-agile-maintenance-1.3.150.500.6-001.pddl,CRASHED:0.007997:1000000000.0:300.0:-1
ipc-2014-agile-maintenance-1.3.200.500.5-001.pddl,CRASHED:0.007997:1000000000.0:300.0:-1
ipc-2014-agile-maintenance-1.3.200.500.5-002.pddl,CRASHED:0.007998:1000000000.0:300.0:-1
ipc-2014-agile-maintenance-1.3.200.700.7-000.pddl,CRASHED:0.008997:1000000000.0:300.0:-1
ipc-2014-agile-maintenance-1.3.200.700.7-001.pddl,CRASHED:0.007998:1000000000.0:300.0:-1
ipc-2014-agile-maintenance-1.3.200.700.7-002.pddl,CRASHED:0.007998:1000000000.0:300.0:-1
ipc-2014-agile-maintenance-1.3.200.900.5-000.pddl,CRASHED:0.007997:1000000000.0:300.0:-1
ipc-2014-agile-maintenance-1.3.200.900.5-001.pddl,CRASHED:0.007998:1000000000.0:300.0:-1
ipc-2014-agile-maintenance-1.3.200.900.5-002.pddl,CRASHED:0.007998:1000000000.0:300.0:-1
ipc-2014-agile-maintenance-1.3.200.900.8-000.pddl,CRASHED:0.007998:1000000000.0:300.0:-1
ipc-2014-agile-maintenance-1.3.200.900.8-001.pddl,CRASHED:0.007998:1000000000.0:300.0:-1
ipc-2014-agile-maintenance-1.3.200.900.8-002.pddl,CRASHED:0.007997:1000000000.0:300.0:-1
ipc-2014-agile-openstacks-p130_2.pddl,CRASHED:1.01184:1000000000.0:300.0:-1
ipc-2014-agile-openstacks-p130_3.pddl,CRASHED:1.25881:1000000000.0:300.0:-1
ipc-2014-agile-openstacks-p150_2.pddl,CRASHED:1.54676:1000000000.0:300.0:-1
ipc-2014-agile-openstacks-p150_3.pddl,CRASHED:1.9557:1000000000.0:300.0:-1
ipc-2014-agile-openstacks-p170_1.pddl,CRASHED:2.26066:1000000000.0:300.0:-1
ipc-2014-agile-openstacks-p170_2.pddl,CRASHED:2.45163:1000000000.0:300.0:-1
ipc-2014-agile-openstacks-p170_3.pddl,CRASHED:2.79457:1000000000.0:300.0:-1
ipc-2014-agile-openstacks-p190_1.pddl,CRASHED:3.41648:1000000000.0:300.0:-1
ipc-2014-agile-openstacks-p190_2.pddl,CRASHED:3.58645:1000000000.0:300.0:-1
ipc-2014-agile-openstacks-p190_3.pddl,CRASHED:4.13437:1000000000.0:300.0:-1
ipc-2014-agile-openstacks-p210_1.pddl,CRASHED:4.64329:1000000000.0:300.0:-1
ipc-2014-agile-openstacks-p210_2.pddl,CRASHED:4.72028:1000000000.0:300.0:-1
ipc-2014-agile-openstacks-p230_1.pddl,CRASHED:6.28304:1000000000.0:300.0:-1
ipc-2014-agile-openstacks-p230_2.pddl,CRASHED:6.22105:1000000000.0:300.0:-1
ipc-2014-agile-openstacks-p250_1.pddl,CRASHED:8.15676:1000000000.0:300.0:-1
ipc-2014-agile-openstacks-p250_2.pddl,CRASHED:8.03678:1000000000.0:300.0:-1
ipc-2014-agile-openstacks-p270_1.pddl,CRASHED:9.72152:1000000000.0:300.0:-1
ipc-2014-agile-openstacks-p270_2.pddl,CRASHED:9.52755:1000000000.0:300.0:-1
ipc-2014-agile-openstacks-p290_1.pddl,CRASHED:12.2321:1000000000.0:300.0:-1
ipc-2014-agile-openstacks-p290_2.pddl,CRASHED:13.388:1000000000.0:300.0:-1
ipc-2014-agile-parking-28_2.pddl,TIMEOUT:301.64:-1.0:300.0:-1
ipc-2014-agile-parking-28_3.pddl,TIMEOUT:301.275:-1.0:300.0:-1
ipc-2014-agile-parking-30_1.pddl,TIMEOUT:301.871:-1.0:300.0:-1
ipc-2014-agile-parking-30_2.pddl,TIMEOUT:301.762:-1.0:300.0:-1
ipc-2014-agile-parking-30_3.pddl,TIMEOUT:301.397:-1.0:300.0:-1
ipc-2014-agile-parking-32_1.pddl,TIMEOUT:301.373:-1.0:300.0:-1
ipc-2014-agile-parking-32_2.pddl,TIMEOUT:301.839:-1.0:300.0:-1
ipc-2014-agile-parking-32_3.pddl,TIMEOUT:301.908:-1.0:300.0:-1
ipc-2014-agile-parking-34_1.pddl,TIMEOUT:301.324:-1.0:300.0:-1
ipc-2014-agile-parking-34_2.pddl,TIMEOUT:301.503:-1.0:300.0:-1
ipc-2014-agile-parking-34_3.pddl,TIMEOUT:301.408:-1.0:300.0:-1
ipc-2014-agile-parking-36_1.pddl,TIMEOUT:301.433:-1.0:300.0:-1
ipc-2014-agile-parking-36_2.pddl,TIMEOUT:301.55:-1.0:300.0:-1
ipc-2014-agile-parking-36_3.pddl,TIMEOUT:301.341:-1.0:300.0:-1
ipc-2014-agile-parking-38_1.pddl,TIMEOUT:301.887:-1.0:300.0:-1
ipc-2014-agile-parking-38_2.pddl,TIMEOUT:301.394:-1.0:300.0:-1
ipc-2014-agile-parking-38_3.pddl,TIMEOUT:301.512:-1.0:300.0:-1
ipc-2014-agile-parking-40_1.pddl,TIMEOUT:301.436:-1.0:300.0:-1
ipc-2014-agile-parking-40_2.pddl,TIMEOUT:301.326:-1.0:300.0:-1
ipc-2014-agile-parking-40_3.pddl,TIMEOUT:301.634:-1.0:300.0:-1
ipc-2014-agile-tetris-020.pddl,SAT:8.5297:66.0:300.0:-1
ipc-2014-agile-tetris-021.pddl,CRASHED:19.3901:1000000000.0:300.0:-1
ipc-2014-agile-tetris-022.pddl,CRASHED:18.1902:1000000000.0:300.0:-1
ipc-2014-agile-tetris-023.pddl,CRASHED:17.8913:1000000000.0:300.0:-1
ipc-2014-agile-tetris-024.pddl,CRASHED:19.3441:1000000000.0:300.0:-1
ipc-2014-agile-tetris-025.pddl,CRASHED:241.093:1000000000.0:300.0:-1
ipc-2014-agile-tetris-026.pddl,CRASHED:27.8668:1000000000.0:300.0:-1
ipc-2014-agile-tetris-027.pddl,CRASHED:22.6796:1000000000.0:300.0:-1
ipc-2014-agile-tetris-028.pddl,CRASHED:21.0128:1000000000.0:300.0:-1
ipc-2014-agile-tetris-029.pddl,TIMEOUT:302.612:-1.0:300.0:-1
ipc-2014-agile-tetris-031.pddl,CRASHED:37.0554:1000000000.0:300.0:-1
ipc-2014-agile-tetris-032.pddl,CRASHED:27.5688:1000000000.0:300.0:-1
ipc-2014-agile-tetris-033.pddl,CRASHED:34.5417:1000000000.0:300.0:-1
ipc-2014-agile-tetris-034.pddl,CRASHED:34.1178:1000000000.0:300.0:-1
ipc-2014-agile-tetris-035.pddl,CRASHED:41.1777:1000000000.0:300.0:-1
ipc-2014-agile-tetris-036.pddl,CRASHED:38.6621:1000000000.0:300.0:-1
ipc-2014-agile-tetris-037.pddl,CRASHED:25.988:1000000000.0:300.0:-1
ipc-2014-agile-tetris-038.pddl,CRASHED:32.3691:1000000000.0:300.0:-1
ipc-2014-agile-tetris-039.pddl,CRASHED:37.3673:1000000000.0:300.0:-1
ipc-2014-agile-tetris-040.pddl,CRASHED:32.748:1000000000.0:300.0:-1
ipc-2014-agile-thoughtful-bootstrap-typed-01.pddl,SAT:0.736887:43.0:300.0:-1
ipc-2014-agile-thoughtful-bootstrap-typed-02.pddl,SAT:0.752885:49.0:300.0:-1
ipc-2014-agile-thoughtful-bootstrap-typed-03.pddl,SAT:0.740886:58.0:300.0:-1
ipc-2014-agile-thoughtful-bootstrap-typed-04.pddl,SAT:0.733888:41.0:300.0:-1
ipc-2014-agile-thoughtful-bootstrap-typed-05.pddl,SAT:0.733887:44.0:300.0:-1
ipc-2014-agile-thoughtful-p11_6_53-typed.pddl,SAT:13.127:251.0:300.0:-1
ipc-2014-agile-thoughtful-p11_6_59-typed.pddl,SAT:13.134:252.0:300.0:-1
ipc-2014-agile-thoughtful-p11_6_62-typed.pddl,SAT:15.7226:238.0:300.0:-1
ipc-2014-agile-thoughtful-p13_7_78-typed.pddl,SAT:72.635:272.0:300.0:-1
ipc-2014-agile-thoughtful-p13_7_79-typed.pddl,SAT:25.2992:218.0:300.0:-1
ipc-2014-agile-thoughtful-p13_7_86-typed.pddl,SAT:25.5051:297.0:300.0:-1
ipc-2014-agile-thoughtful-target-typed-20.pddl,SAT:25.6691:240.0:300.0:-1
ipc-2014-agile-thoughtful-target-typed-21.pddl,SAT:26.24:265.0:300.0:-1
ipc-2014-agile-thoughtful-target-typed-22.pddl,SAT:31.9811:224.0:300.0:-1
ipc-2014-agile-thoughtful-target-typed-23.pddl,SAT:119.247:289.0:300.0:-1
ipc-2014-agile-thoughtful-target-typed-24.pddl,SAT:26.284:208.0:300.0:-1
ipc-2014-agile-thoughtful-target-typed-25.pddl,SAT:25.7481:262.0:300.0:-1
ipc-2014-agile-thoughtful-target-typed-26.pddl,SAT:25.4551:217.0:300.0:-1
ipc-2014-agile-thoughtful-target-typed-27.pddl,SAT:25.5381:249.0:300.0:-1
ipc-2014-agile-thoughtful-target-typed-28.pddl,SAT:25.5121:251.0:300.0:-1
ipc-2014-agile-transport-01.pddl,SAT:1.12383:3810.0:300.0:-1
ipc-2014-agile-transport-02.pddl,SAT:2.18367:6184.0:300.0:-1
ipc-2014-agile-transport-03.pddl,SAT:1.3068:3743.0:300.0:-1
ipc-2014-agile-transport-04.pddl,SAT:7.2659:10850.0:300.0:-1
ipc-2014-agile-transport-05.pddl,SAT:22.2606:15192.0:300.0:-1
ipc-2014-agile-transport-06.pddl,SAT:7.37788:10850.0:300.0:-1
ipc-2014-agile-transport-07.pddl,SAT:8.69268:9553.0:300.0:-1
ipc-2014-agile-transport-08.pddl,SAT:12.1632:10621.0:300.0:-1
ipc-2014-agile-transport-09.pddl,SAT:8.69468:9553.0:300.0:-1
ipc-2014-agile-transport-10.pddl,SAT:9.02763:10048.0:300.0:-1
ipc-2014-agile-transport-11.pddl,SAT:1.81672:3135.0:300.0:-1
ipc-2014-agile-transport-12.pddl,SAT:2.27465:4243.0:300.0:-1
ipc-2014-agile-transport-13.pddl,SAT:3.37349:5166.0:300.0:-1
ipc-2014-agile-transport-14.pddl,SAT:7.91779:13141.0:300.0:-1
ipc-2014-agile-transport-15.pddl,SAT:18.6542:14125.0:300.0:-1
ipc-2014-agile-transport-16.pddl,SAT:10.3574:9618.0:300.0:-1
ipc-2014-agile-transport-17.pddl,SAT:11.1853:11167.0:300.0:-1
ipc-2014-agile-transport-18.pddl,SAT:11.1993:11132.0:300.0:-1
ipc-2014-agile-transport-19.pddl,SAT:7.44587:10489.0:300.0:-1
ipc-2014-agile-transport-20.pddl,SAT:7.97279:7929.0:300.0:-1
ipc-2014-agile-visitall-30.pddl,SAT:4.96225:1594.0:300.0:-1
ipc-2014-agile-visitall-31.pddl,SAT:6.13507:1764.0:300.0:-1
ipc-2014-agile-visitall-32.pddl,SAT:7.56285:1830.0:300.0:-1
ipc-2014-agile-visitall-33.pddl,SAT:9.57454:2018.0:300.0:-1
ipc-2014-agile-visitall-50.pddl,SAT:113.544:4725.0:300.0:-1
ipc-2014-agile-visitall-51.pddl,SAT:126.762:4941.0:300.0:-1
ipc-2014-agile-visitall-52.pddl,SAT:145.659:5337.0:300.0:-1
ipc-2014-agile-visitall-53.pddl,SAT:166.442:5338.0:300.0:-1
ipc-2014-agile-visitall-54.pddl,SAT:190.29:5769.0:300.0:-1
ipc-2014-agile-visitall-55.pddl,SAT:203.535:5918.0:300.0:-1
ipc-2014-agile-visitall-56.pddl,SAT:216.589:6328.0:300.0:-1
ipc-2014-agile-visitall-57.pddl,SAT:258.526:6646.0:300.0:-1
ipc-2014-agile-visitall-58.pddl,SAT:288.827:6797.0:300.0:-1
ipc-2014-agile-visitall-59.pddl,TIMEOUT:301.104:-1.0:300.0:-1
ipc-2014-agile-visitall-60.pddl,TIMEOUT:301.046:-1.0:300.0:-1
ipc-2014-agile-visitall-61.pddl,TIMEOUT:301.095:-1.0:300.0:-1
ipc-2014-agile-visitall-62.pddl,TIMEOUT:301.093:-1.0:300.0:-1
ipc-2014-agile-visitall-63.pddl,TIMEOUT:301.062:-1.0:300.0:-1
ipc-2014-agile-visitall-64.pddl,TIMEOUT:301.13:-1.0:300.0:-1
ipc-2014-agile-visitall-65.pddl,TIMEOUT:301.1:-1.0:300.0:-1
