instance,ipc-2014-agile-yahsp3
ipc-2014-agile-barman-p1-11-4-15.pddl,TIMEOUT:301.067:-1.0:300.0:-1
ipc-2014-agile-barman-p1-11-5-15.pddl,TIMEOUT:301.1:-1.0:300.0:-1
ipc-2014-agile-barman-p1-11-5-16.pddl,TIMEOUT:301.049:-1.0:300.0:-1
ipc-2014-agile-barman-p2-10-4-13.pddl,TIMEOUT:301.111:-1.0:300.0:-1
ipc-2014-agile-barman-p2-11-4-15.pddl,TIMEOUT:301.12:-1.0:300.0:-1
ipc-2014-agile-barman-p2-11-5-15.pddl,TIMEOUT:301.073:-1.0:300.0:-1
ipc-2014-agile-barman-p2-11-5-16.pddl,TIMEOUT:301.026:-1.0:300.0:-1
ipc-2014-agile-barman-p2-11-5-17.pddl,TIMEOUT:301.095:-1.0:300.0:-1
ipc-2014-agile-barman-p3-10-4-13.pddl,TIMEOUT:301.087:-1.0:300.0:-1
ipc-2014-agile-barman-p3-11-4-15.pddl,TIMEOUT:301.068:-1.0:300.0:-1
ipc-2014-agile-barman-p3-11-5-15.pddl,SAT:109.886:377.0:300.0:-1
ipc-2014-agile-barman-p3-11-5-16.pddl,TIMEOUT:301.055:-1.0:300.0:-1
ipc-2014-agile-barman-p3-11-5-17.pddl,TIMEOUT:301.085:-1.0:300.0:-1
ipc-2014-agile-barman-p4-11-4-14.pddl,TIMEOUT:301.036:-1.0:300.0:-1
ipc-2014-agile-barman-p4-11-4-15.pddl,TIMEOUT:301.074:-1.0:300.0:-1
ipc-2014-agile-barman-p4-11-5-15.pddl,TIMEOUT:301.061:-1.0:300.0:-1
ipc-2014-agile-barman-p5-10-4-13.pddl,TIMEOUT:301.112:-1.0:300.0:-1
ipc-2014-agile-barman-p5-11-4-15.pddl,TIMEOUT:301.039:-1.0:300.0:-1
ipc-2014-agile-barman-p5-11-5-15.pddl,TIMEOUT:301.033:-1.0:300.0:-1
ipc-2014-agile-barman-p5-11-5-16.pddl,TIMEOUT:301.046:-1.0:300.0:-1
ipc-2014-agile-cavediving-01_easy.pddl,CRASHED:0.007997:1000000000.0:300.0:-1
ipc-2014-agile-cavediving-01.pddl,CRASHED:0.008997:1000000000.0:300.0:-1
ipc-2014-agile-cavediving-02_easy.pddl,CRASHED:0.007998:1000000000.0:300.0:-1
ipc-2014-agile-cavediving-03_easy.pddl,CRASHED:0.010997:1000000000.0:300.0:-1
ipc-2014-agile-cavediving-04_easy.pddl,CRASHED:0.009997:1000000000.0:300.0:-1
ipc-2014-agile-cavediving-05A_easy.pddl,CRASHED:0.009997:1000000000.0:300.0:-1
ipc-2014-agile-cavediving-06A_easy.pddl,CRASHED:0.009997:1000000000.0:300.0:-1
ipc-2014-agile-cavediving-07_easy.pddl,CRASHED:0.009998:1000000000.0:300.0:-1
ipc-2014-agile-cavediving-08_easy.pddl,CRASHED:0.013997:1000000000.0:300.0:-1
ipc-2014-agile-cavediving-09_easy.pddl,CRASHED:0.011998:1000000000.0:300.0:-1
ipc-2014-agile-cavediving-10_easy.pddl,CRASHED:0.011997:1000000000.0:300.0:-1
ipc-2014-agile-cavediving-11_easy.pddl,CRASHED:0.012997:1000000000.0:300.0:-1
ipc-2014-agile-cavediving-12_easy.pddl,CRASHED:0.012997:1000000000.0:300.0:-1
ipc-2014-agile-cavediving-13_easy.pddl,CRASHED:0.011997:1000000000.0:300.0:-1
ipc-2014-agile-cavediving-14_easy.pddl,CRASHED:0.011997:1000000000.0:300.0:-1
ipc-2014-agile-cavediving-15_easy.pddl,CRASHED:0.011997:1000000000.0:300.0:-1
ipc-2014-agile-cavediving-16_easy.pddl,CRASHED:0.011997:1000000000.0:300.0:-1
ipc-2014-agile-cavediving-18A_easy.pddl,CRASHED:0.012997:1000000000.0:300.0:-1
ipc-2014-agile-cavediving-18_easy.pddl,CRASHED:0.011997:1000000000.0:300.0:-1
ipc-2014-agile-cavediving-20A_easy.pddl,CRASHED:0.011997:1000000000.0:300.0:-1
ipc-2014-agile-childsnack-05-2.pddl,TIMEOUT:301.113:-1.0:300.0:-1
ipc-2014-agile-childsnack-05.pddl,TIMEOUT:301.142:-1.0:300.0:-1
ipc-2014-agile-childsnack-06-2.pddl,TIMEOUT:301.144:-1.0:300.0:-1
ipc-2014-agile-childsnack-07-2.pddl,TIMEOUT:301.215:-1.0:300.0:-1
ipc-2014-agile-childsnack-08-2.pddl,TIMEOUT:301.136:-1.0:300.0:-1
ipc-2014-agile-childsnack-08.pddl,TIMEOUT:301.171:-1.0:300.0:-1
ipc-2014-agile-childsnack-09-2.pddl,TIMEOUT:301.191:-1.0:300.0:-1
ipc-2014-agile-childsnack-09.pddl,TIMEOUT:301.217:-1.0:300.0:-1
ipc-2014-agile-childsnack-10-2.pddl,TIMEOUT:301.082:-1.0:300.0:-1
ipc-2014-agile-childsnack-10.pddl,TIMEOUT:301.243:-1.0:300.0:-1
ipc-2014-agile-childsnack-11-2.pddl,TIMEOUT:301.113:-1.0:300.0:-1
ipc-2014-agile-childsnack-11.pddl,TIMEOUT:301.305:-1.0:300.0:-1
ipc-2014-agile-childsnack-12.pddl,TIMEOUT:301.099:-1.0:300.0:-1
ipc-2014-agile-childsnack-13-2.pddl,TIMEOUT:301.304:-1.0:300.0:-1
ipc-2014-agile-childsnack-13.pddl,TIMEOUT:301.255:-1.0:300.0:-1
ipc-2014-agile-childsnack-14.pddl,TIMEOUT:301.279:-1.0:300.0:-1
ipc-2014-agile-childsnack-15-2.pddl,TIMEOUT:301.188:-1.0:300.0:-1
ipc-2014-agile-childsnack-16-2.pddl,TIMEOUT:301.198:-1.0:300.0:-1
ipc-2014-agile-childsnack-19-2.pddl,TIMEOUT:301.094:-1.0:300.0:-1
ipc-2014-agile-childsnack-19.pddl,TIMEOUT:301.151:-1.0:300.0:-1
ipc-2014-agile-citycar-p3-2-2-0-1.pddl,CRASHED:0.008997:1000000000.0:300.0:-1
ipc-2014-agile-citycar-p3-3-2-0-1.pddl,CRASHED:0.007998:1000000000.0:300.0:-1
ipc-2014-agile-citycar-p3-4-2-0-1.pddl,CRASHED:0.007998:1000000000.0:300.0:-1
ipc-2014-agile-citycar-p3-5-2-0-1.pddl,CRASHED:0.007997:1000000000.0:300.0:-1
ipc-2014-agile-citycar-p3-5-2-0-2.pddl,CRASHED:0.007997:1000000000.0:300.0:-1
ipc-2014-agile-citycar-p4-2-2-0-1.pddl,CRASHED:0.007998:1000000000.0:300.0:-1
ipc-2014-agile-citycar-p4-2-3-0-1.pddl,CRASHED:0.007998:1000000000.0:300.0:-1
ipc-2014-agile-citycar-p4-2-3-0-2.pddl,CRASHED:0.007998:1000000000.0:300.0:-1
ipc-2014-agile-citycar-p4-3-2-0-1.pddl,CRASHED:0.007998:1000000000.0:300.0:-1
ipc-2014-agile-citycar-p4-3-2-0-2.pddl,CRASHED:0.007997:1000000000.0:300.0:-1
ipc-2014-agile-citycar-p4-3-3-0-1.pddl,CRASHED:0.007998:1000000000.0:300.0:-1
ipc-2014-agile-citycar-p4-3-3-0-2.pddl,CRASHED:0.007998:1000000000.0:300.0:-1
ipc-2014-agile-citycar-p4-4-2-0-1.pddl,CRASHED:0.007998:1000000000.0:300.0:-1
ipc-2014-agile-citycar-p4-4-2-0-2.pddl,CRASHED:0.008997:1000000000.0:300.0:-1
ipc-2014-agile-citycar-p4-4-3-0-1.pddl,CRASHED:0.007998:1000000000.0:300.0:-1
ipc-2014-agile-citycar-p4-4-3-0-2.pddl,CRASHED:0.007998:1000000000.0:300.0:-1
ipc-2014-agile-citycar-p4-5-2-0-1.pddl,CRASHED:0.006998:1000000000.0:300.0:-1
ipc-2014-agile-citycar-p4-5-2-0-2.pddl,CRASHED:0.006998:1000000000.0:300.0:-1
ipc-2014-agile-citycar-p4-5-3-0-1.pddl,CRASHED:0.006998:1000000000.0:300.0:-1
ipc-2014-agile-citycar-p4-5-3-0-2.pddl,CRASHED:0.006998:1000000000.0:300.0:-1
ipc-2014-agile-floortile-p01-4-3-2.pddl,SAT:25.7211:107.0:300.0:-1
ipc-2014-agile-floortile-p01-5-4-2.pddl,TIMEOUT:301.237:-1.0:300.0:-1
ipc-2014-agile-floortile-p01-5-5-2.pddl,TIMEOUT:301.176:-1.0:300.0:-1
ipc-2014-agile-floortile-p01-6-4-2.pddl,TIMEOUT:301.136:-1.0:300.0:-1
ipc-2014-agile-floortile-p01-6-5-2.pddl,TIMEOUT:301.124:-1.0:300.0:-1
ipc-2014-agile-floortile-p01-6-5-3.pddl,TIMEOUT:301.137:-1.0:300.0:-1
ipc-2014-agile-floortile-p02-5-4-2.pddl,TIMEOUT:301.221:-1.0:300.0:-1
ipc-2014-agile-floortile-p02-6-4-2.pddl,TIMEOUT:301.174:-1.0:300.0:-1
ipc-2014-agile-floortile-p02-6-5-2.pddl,TIMEOUT:301.123:-1.0:300.0:-1
ipc-2014-agile-floortile-p02-6-5-3.pddl,TIMEOUT:301.145:-1.0:300.0:-1
ipc-2014-agile-floortile-p03-6-4-2.pddl,TIMEOUT:301.162:-1.0:300.0:-1
ipc-2014-agile-floortile-p03-6-5-2.pddl,TIMEOUT:301.14:-1.0:300.0:-1
ipc-2014-agile-floortile-p03-6-5-3.pddl,TIMEOUT:301.162:-1.0:300.0:-1
ipc-2014-agile-floortile-p04-5-4-2.pddl,TIMEOUT:301.137:-1.0:300.0:-1
ipc-2014-agile-floortile-p04-5-5-2.pddl,TIMEOUT:301.165:-1.0:300.0:-1
ipc-2014-agile-floortile-p04-6-5-2.pddl,TIMEOUT:301.143:-1.0:300.0:-1
ipc-2014-agile-floortile-p04-6-5-3.pddl,TIMEOUT:301.099:-1.0:300.0:-1
ipc-2014-agile-floortile-p05-4-3-2.pddl,SAT:14.7458:101.0:300.0:-1
ipc-2014-agile-floortile-p05-6-5-2.pddl,TIMEOUT:301.155:-1.0:300.0:-1
ipc-2014-agile-floortile-p05-6-5-3.pddl,TIMEOUT:301.146:-1.0:300.0:-1
ipc-2014-agile-ged-d-10-1.pddl,SAT:1.49677:35.0:300.0:-1
ipc-2014-agile-ged-d-10-2.pddl,SAT:1.37479:49.0:300.0:-1
ipc-2014-agile-ged-d-10-3.pddl,SAT:0.952854:58.0:300.0:-1
ipc-2014-agile-ged-d-10-4.pddl,SAT:0.749885:49.0:300.0:-1
ipc-2014-agile-ged-d-10-5.pddl,SAT:0.563914:38.0:300.0:-1
ipc-2014-agile-ged-d-10-6.pddl,SAT:3.37149:113.0:300.0:-1
ipc-2014-agile-ged-d-11-1.pddl,SAT:0.314951:112.0:300.0:-1
ipc-2014-agile-ged-d-11-3.pddl,SAT:1.24181:73.0:300.0:-1
ipc-2014-agile-ged-d-11-5.pddl,SAT:3.40748:78.0:300.0:-1
ipc-2014-agile-ged-d-11-6.pddl,SAT:1.49977:97.0:300.0:-1
ipc-2014-agile-ged-d-12-11.pddl,SAT:2.85856:55.0:300.0:-1
ipc-2014-agile-ged-d-12-2.pddl,SAT:0.588909:148.0:300.0:-1
ipc-2014-agile-ged-d-12-3.pddl,SAT:17.0204:57.0:300.0:-1
ipc-2014-agile-ged-d-12-5.pddl,SAT:33.7189:233.0:300.0:-1
ipc-2014-agile-ged-d-12-6.pddl,SAT:5.9041:139.0:300.0:-1
ipc-2014-agile-ged-d-12-7.pddl,SAT:19.0581:74.0:300.0:-1
ipc-2014-agile-ged-d-12-8.pddl,SAT:43.8553:199.0:300.0:-1
ipc-2014-agile-ged-d-12-9.pddl,SAT:36.8164:95.0:300.0:-1
ipc-2014-agile-ged-d-3-6.pddl,SAT:0.652899:39.0:300.0:-1
ipc-2014-agile-ged-d-9-5.pddl,SAT:1.68174:163.0:300.0:-1
ipc-2014-agile-hiking-3-4-3.pddl,SAT:0.096984:34.0:300.0:-1
ipc-2014-agile-hiking-3-4-4.pddl,SAT:0.212967:1042.0:300.0:-1
ipc-2014-agile-hiking-3-4-5.pddl,SAT:0.675896:1843.0:300.0:-1
ipc-2014-agile-hiking-3-4-6.pddl,SAT:23.3594:1124.0:300.0:-1
ipc-2014-agile-hiking-3-4-7.pddl,SAT:278.315:1912.0:300.0:-1
ipc-2014-agile-hiking-3-4-8.pddl,TIMEOUT:301.048:-1.0:300.0:-1
ipc-2014-agile-hiking-3-4-9.pddl,TIMEOUT:301.037:-1.0:300.0:-1
ipc-2014-agile-hiking-4-5-3.pddl,SAT:0.129979:64.0:300.0:-1
ipc-2014-agile-hiking-4-5-4.pddl,SAT:0.924859:245.0:300.0:-1
ipc-2014-agile-hiking-4-5-5.pddl,SAT:0.805876:779.0:300.0:-1
ipc-2014-agile-hiking-4-5-6.pddl,SAT:22.1286:3640.0:300.0:-1
ipc-2014-agile-hiking-4-5-7.pddl,TIMEOUT:301.136:-1.0:300.0:-1
ipc-2014-agile-hiking-4-5-8.pddl,TIMEOUT:301.035:-1.0:300.0:-1
ipc-2014-agile-hiking-4-5-9.pddl,TIMEOUT:301.033:-1.0:300.0:-1
ipc-2014-agile-hiking-5-6-3.pddl,SAT:0.266959:48.0:300.0:-1
ipc-2014-agile-hiking-5-6-4.pddl,SAT:1.01384:671.0:300.0:-1
ipc-2014-agile-hiking-5-6-5.pddl,SAT:32.2191:1133.0:300.0:-1
ipc-2014-agile-hiking-5-6-6.pddl,SAT:46.8369:3510.0:300.0:-1
ipc-2014-agile-hiking-5-6-7.pddl,SAT:20.02:4058.0:300.0:-1
ipc-2014-agile-hiking-5-6-8.pddl,TIMEOUT:301.062:-1.0:300.0:-1
ipc-2014-agile-maintenance-1.3.060.180.5-000.pddl,CRASHED:0.012998:1000000000.0:300.0:-1
ipc-2014-agile-maintenance-1.3.060.180.5-001.pddl,CRASHED:0.011997:1000000000.0:300.0:-1
ipc-2014-agile-maintenance-1.3.060.180.5-002.pddl,CRASHED:0.011997:1000000000.0:300.0:-1
ipc-2014-agile-maintenance-1.3.100.300.5-000.pddl,CRASHED:0.011997:1000000000.0:300.0:-1
ipc-2014-agile-maintenance-1.3.100.300.5-001.pddl,CRASHED:0.007998:1000000000.0:300.0:-1
ipc-2014-agile-maintenance-1.3.100.300.7-000.pddl,CRASHED:0.006998:1000000000.0:300.0:-1
ipc-2014-agile-maintenance-1.3.100.300.7-001.pddl,CRASHED:0.006998:1000000000.0:300.0:-1
ipc-2014-agile-maintenance-1.3.100.300.7-002.pddl,CRASHED:0.006998:1000000000.0:300.0:-1
ipc-2014-agile-maintenance-1.3.150.500.6-001.pddl,CRASHED:0.007998:1000000000.0:300.0:-1
ipc-2014-agile-maintenance-1.3.200.500.5-001.pddl,CRASHED:0.006998:1000000000.0:300.0:-1
ipc-2014-agile-maintenance-1.3.200.500.5-002.pddl,CRASHED:0.007998:1000000000.0:300.0:-1
ipc-2014-agile-maintenance-1.3.200.700.7-000.pddl,CRASHED:0.007998:1000000000.0:300.0:-1
ipc-2014-agile-maintenance-1.3.200.700.7-001.pddl,CRASHED:0.007998:1000000000.0:300.0:-1
ipc-2014-agile-maintenance-1.3.200.700.7-002.pddl,CRASHED:0.006998:1000000000.0:300.0:-1
ipc-2014-agile-maintenance-1.3.200.900.5-000.pddl,CRASHED:0.006998:1000000000.0:300.0:-1
ipc-2014-agile-maintenance-1.3.200.900.5-001.pddl,CRASHED:0.006998:1000000000.0:300.0:-1
ipc-2014-agile-maintenance-1.3.200.900.5-002.pddl,CRASHED:0.007998:1000000000.0:300.0:-1
ipc-2014-agile-maintenance-1.3.200.900.8-000.pddl,CRASHED:0.006998:1000000000.0:300.0:-1
ipc-2014-agile-maintenance-1.3.200.900.8-001.pddl,CRASHED:0.007998:1000000000.0:300.0:-1
ipc-2014-agile-maintenance-1.3.200.900.8-002.pddl,CRASHED:0.007997:1000000000.0:300.0:-1
ipc-2014-agile-openstacks-p130_2.pddl,CRASHED:1.01984:1000000000.0:300.0:-1
ipc-2014-agile-openstacks-p130_3.pddl,CRASHED:1.3018:1000000000.0:300.0:-1
ipc-2014-agile-openstacks-p150_2.pddl,CRASHED:1.53877:1000000000.0:300.0:-1
ipc-2014-agile-openstacks-p150_3.pddl,CRASHED:1.9437:1000000000.0:300.0:-1
ipc-2014-agile-openstacks-p170_1.pddl,CRASHED:2.29165:1000000000.0:300.0:-1
ipc-2014-agile-openstacks-p170_2.pddl,CRASHED:2.46062:1000000000.0:300.0:-1
ipc-2014-agile-openstacks-p170_3.pddl,CRASHED:2.79157:1000000000.0:300.0:-1
ipc-2014-agile-openstacks-p190_1.pddl,CRASHED:3.44448:1000000000.0:300.0:-1
ipc-2014-agile-openstacks-p190_2.pddl,CRASHED:3.59345:1000000000.0:300.0:-1
ipc-2014-agile-openstacks-p190_3.pddl,CRASHED:4.15237:1000000000.0:300.0:-1
ipc-2014-agile-openstacks-p210_1.pddl,CRASHED:4.72528:1000000000.0:300.0:-1
ipc-2014-agile-openstacks-p210_2.pddl,CRASHED:4.78227:1000000000.0:300.0:-1
ipc-2014-agile-openstacks-p230_1.pddl,CRASHED:6.33904:1000000000.0:300.0:-1
ipc-2014-agile-openstacks-p230_2.pddl,CRASHED:6.30304:1000000000.0:300.0:-1
ipc-2014-agile-openstacks-p250_1.pddl,CRASHED:8.37373:1000000000.0:300.0:-1
ipc-2014-agile-openstacks-p250_2.pddl,CRASHED:8.29374:1000000000.0:300.0:-1
ipc-2014-agile-openstacks-p270_1.pddl,CRASHED:9.66053:1000000000.0:300.0:-1
ipc-2014-agile-openstacks-p270_2.pddl,CRASHED:9.92249:1000000000.0:300.0:-1
ipc-2014-agile-openstacks-p290_1.pddl,CRASHED:12.4251:1000000000.0:300.0:-1
ipc-2014-agile-openstacks-p290_2.pddl,CRASHED:13.316:1000000000.0:300.0:-1
ipc-2014-agile-parking-28_2.pddl,TIMEOUT:301.083:-1.0:300.0:-1
ipc-2014-agile-parking-28_3.pddl,TIMEOUT:301.118:-1.0:300.0:-1
ipc-2014-agile-parking-30_1.pddl,TIMEOUT:301.067:-1.0:300.0:-1
ipc-2014-agile-parking-30_2.pddl,TIMEOUT:301.127:-1.0:300.0:-1
ipc-2014-agile-parking-30_3.pddl,TIMEOUT:301.096:-1.0:300.0:-1
ipc-2014-agile-parking-32_1.pddl,TIMEOUT:301.065:-1.0:300.0:-1
ipc-2014-agile-parking-32_2.pddl,TIMEOUT:301.055:-1.0:300.0:-1
ipc-2014-agile-parking-32_3.pddl,TIMEOUT:301.111:-1.0:300.0:-1
ipc-2014-agile-parking-34_1.pddl,TIMEOUT:301.111:-1.0:300.0:-1
ipc-2014-agile-parking-34_2.pddl,TIMEOUT:301.093:-1.0:300.0:-1
ipc-2014-agile-parking-34_3.pddl,TIMEOUT:301.118:-1.0:300.0:-1
ipc-2014-agile-parking-36_1.pddl,TIMEOUT:301.035:-1.0:300.0:-1
ipc-2014-agile-parking-36_2.pddl,TIMEOUT:301.128:-1.0:300.0:-1
ipc-2014-agile-parking-36_3.pddl,TIMEOUT:301.059:-1.0:300.0:-1
ipc-2014-agile-parking-38_1.pddl,TIMEOUT:301.113:-1.0:300.0:-1
ipc-2014-agile-parking-38_2.pddl,TIMEOUT:301.074:-1.0:300.0:-1
ipc-2014-agile-parking-38_3.pddl,TIMEOUT:301.123:-1.0:300.0:-1
ipc-2014-agile-parking-40_1.pddl,TIMEOUT:301.058:-1.0:300.0:-1
ipc-2014-agile-parking-40_2.pddl,TIMEOUT:301.08:-1.0:300.0:-1
ipc-2014-agile-parking-40_3.pddl,TIMEOUT:301.061:-1.0:300.0:-1
ipc-2014-agile-tetris-020.pddl,SAT:78.3921:83.0:300.0:-1
ipc-2014-agile-tetris-021.pddl,CRASHED:19.2461:1000000000.0:300.0:-1
ipc-2014-agile-tetris-022.pddl,CRASHED:17.6973:1000000000.0:300.0:-1
ipc-2014-agile-tetris-023.pddl,CRASHED:17.6913:1000000000.0:300.0:-1
ipc-2014-agile-tetris-024.pddl,CRASHED:19.407:1000000000.0:300.0:-1
ipc-2014-agile-tetris-025.pddl,TIMEOUT:301.123:-1.0:300.0:-1
ipc-2014-agile-tetris-026.pddl,CRASHED:27.3958:1000000000.0:300.0:-1
ipc-2014-agile-tetris-027.pddl,CRASHED:22.3436:1000000000.0:300.0:-1
ipc-2014-agile-tetris-028.pddl,CRASHED:20.6899:1000000000.0:300.0:-1
ipc-2014-agile-tetris-029.pddl,TIMEOUT:301.03:-1.0:300.0:-1
ipc-2014-agile-tetris-031.pddl,CRASHED:37.2803:1000000000.0:300.0:-1
ipc-2014-agile-tetris-032.pddl,CRASHED:27.8248:1000000000.0:300.0:-1
ipc-2014-agile-tetris-033.pddl,CRASHED:34.6947:1000000000.0:300.0:-1
ipc-2014-agile-tetris-034.pddl,CRASHED:34.3908:1000000000.0:300.0:-1
ipc-2014-agile-tetris-035.pddl,CRASHED:41.4047:1000000000.0:300.0:-1
ipc-2014-agile-tetris-036.pddl,CRASHED:40.1569:1000000000.0:300.0:-1
ipc-2014-agile-tetris-037.pddl,CRASHED:26.422:1000000000.0:300.0:-1
ipc-2014-agile-tetris-038.pddl,CRASHED:32.856:1000000000.0:300.0:-1
ipc-2014-agile-tetris-039.pddl,CRASHED:37.7523:1000000000.0:300.0:-1
ipc-2014-agile-tetris-040.pddl,CRASHED:33.5469:1000000000.0:300.0:-1
ipc-2014-agile-thoughtful-bootstrap-typed-01.pddl,SAT:0.764883:46.0:300.0:-1
ipc-2014-agile-thoughtful-bootstrap-typed-02.pddl,SAT:0.731888:74.0:300.0:-1
ipc-2014-agile-thoughtful-bootstrap-typed-03.pddl,SAT:0.737887:61.0:300.0:-1
ipc-2014-agile-thoughtful-bootstrap-typed-04.pddl,SAT:0.725889:41.0:300.0:-1
ipc-2014-agile-thoughtful-bootstrap-typed-05.pddl,SAT:0.737887:53.0:300.0:-1
ipc-2014-agile-thoughtful-p11_6_53-typed.pddl,SAT:121.599:288.0:300.0:-1
ipc-2014-agile-thoughtful-p11_6_59-typed.pddl,TIMEOUT:301.09:-1.0:300.0:-1
ipc-2014-agile-thoughtful-p11_6_62-typed.pddl,SAT:13.7739:318.0:300.0:-1
ipc-2014-agile-thoughtful-p13_7_78-typed.pddl,TIMEOUT:301.047:-1.0:300.0:-1
ipc-2014-agile-thoughtful-p13_7_79-typed.pddl,TIMEOUT:301.139:-1.0:300.0:-1
ipc-2014-agile-thoughtful-p13_7_86-typed.pddl,TIMEOUT:301.138:-1.0:300.0:-1
ipc-2014-agile-thoughtful-target-typed-20.pddl,TIMEOUT:301.103:-1.0:300.0:-1
ipc-2014-agile-thoughtful-target-typed-21.pddl,TIMEOUT:301.087:-1.0:300.0:-1
ipc-2014-agile-thoughtful-target-typed-22.pddl,TIMEOUT:301.094:-1.0:300.0:-1
ipc-2014-agile-thoughtful-target-typed-23.pddl,TIMEOUT:301.048:-1.0:300.0:-1
ipc-2014-agile-thoughtful-target-typed-24.pddl,SAT:25.4841:199.0:300.0:-1
ipc-2014-agile-thoughtful-target-typed-25.pddl,TIMEOUT:301.132:-1.0:300.0:-1
ipc-2014-agile-thoughtful-target-typed-26.pddl,TIMEOUT:301.108:-1.0:300.0:-1
ipc-2014-agile-thoughtful-target-typed-27.pddl,SAT:25.0912:230.0:300.0:-1
ipc-2014-agile-thoughtful-target-typed-28.pddl,SAT:37.4503:246.0:300.0:-1
ipc-2014-agile-transport-01.pddl,SAT:0.839872:4683.0:300.0:-1
ipc-2014-agile-transport-02.pddl,SAT:1.20981:5361.0:300.0:-1
ipc-2014-agile-transport-03.pddl,SAT:0.869867:4263.0:300.0:-1
ipc-2014-agile-transport-04.pddl,SAT:3.99339:9712.0:300.0:-1
ipc-2014-agile-transport-05.pddl,SAT:7.47586:15500.0:300.0:-1
ipc-2014-agile-transport-06.pddl,SAT:4.00539:9712.0:300.0:-1
ipc-2014-agile-transport-07.pddl,SAT:5.61815:11670.0:300.0:-1
ipc-2014-agile-transport-08.pddl,SAT:8.10477:12502.0:300.0:-1
ipc-2014-agile-transport-09.pddl,SAT:5.66614:11670.0:300.0:-1
ipc-2014-agile-transport-10.pddl,SAT:4.89925:10021.0:300.0:-1
ipc-2014-agile-transport-11.pddl,SAT:1.14382:3491.0:300.0:-1
ipc-2014-agile-transport-12.pddl,SAT:1.49777:5020.0:300.0:-1
ipc-2014-agile-transport-13.pddl,SAT:0.963853:5929.0:300.0:-1
ipc-2014-agile-transport-14.pddl,SAT:4.6093:11687.0:300.0:-1
ipc-2014-agile-transport-15.pddl,SAT:6.16106:12437.0:300.0:-1
ipc-2014-agile-transport-16.pddl,SAT:3.37749:13661.0:300.0:-1
ipc-2014-agile-transport-17.pddl,SAT:5.79012:10606.0:300.0:-1
ipc-2014-agile-transport-18.pddl,SAT:8.34073:12877.0:300.0:-1
ipc-2014-agile-transport-19.pddl,SAT:4.32034:11273.0:300.0:-1
ipc-2014-agile-transport-20.pddl,SAT:6.71998:9041.0:300.0:-1
ipc-2014-agile-visitall-30.pddl,SAT:0.766883:1116.0:300.0:-1
ipc-2014-agile-visitall-31.pddl,SAT:0.932857:1217.0:300.0:-1
ipc-2014-agile-visitall-32.pddl,SAT:0.972852:1230.0:300.0:-1
ipc-2014-agile-visitall-33.pddl,SAT:1.3108:1390.0:300.0:-1
ipc-2014-agile-visitall-50.pddl,SAT:11.5552:2967.0:300.0:-1
ipc-2014-agile-visitall-51.pddl,SAT:12.1482:3051.0:300.0:-1
ipc-2014-agile-visitall-52.pddl,SAT:11.9682:3180.0:300.0:-1
ipc-2014-agile-visitall-53.pddl,SAT:14.2678:3206.0:300.0:-1
ipc-2014-agile-visitall-54.pddl,SAT:15.7686:3349.0:300.0:-1
ipc-2014-agile-visitall-55.pddl,SAT:16.3595:3496.0:300.0:-1
ipc-2014-agile-visitall-56.pddl,SAT:19.776:3634.0:300.0:-1
ipc-2014-agile-visitall-57.pddl,SAT:17.7863:3842.0:300.0:-1
ipc-2014-agile-visitall-58.pddl,SAT:22.8535:3768.0:300.0:-1
ipc-2014-agile-visitall-59.pddl,SAT:24.4603:3964.0:300.0:-1
ipc-2014-agile-visitall-60.pddl,SAT:25.6121:4089.0:300.0:-1
ipc-2014-agile-visitall-61.pddl,SAT:29.9854:4275.0:300.0:-1
ipc-2014-agile-visitall-62.pddl,SAT:33.7219:4279.0:300.0:-1
ipc-2014-agile-visitall-63.pddl,SAT:34.0138:4707.0:300.0:-1
ipc-2014-agile-visitall-64.pddl,SAT:45.2391:4809.0:300.0:-1
ipc-2014-agile-visitall-65.pddl,SAT:44.1773:4976.0:300.0:-1
