instance,ipc-2014-agile-yahsp3
ipc-2014-agile-barman-p1-11-4-15.pddl,TIMEOUT:301.052:-1.0:300.0:-1
ipc-2014-agile-barman-p1-11-5-15.pddl,TIMEOUT:301.094:-1.0:300.0:-1
ipc-2014-agile-barman-p1-11-5-16.pddl,TIMEOUT:301.042:-1.0:300.0:-1
ipc-2014-agile-barman-p2-10-4-13.pddl,TIMEOUT:301.045:-1.0:300.0:-1
ipc-2014-agile-barman-p2-11-4-15.pddl,TIMEOUT:301.13:-1.0:300.0:-1
ipc-2014-agile-barman-p2-11-5-15.pddl,TIMEOUT:301.109:-1.0:300.0:-1
ipc-2014-agile-barman-p2-11-5-16.pddl,TIMEOUT:301.026:-1.0:300.0:-1
ipc-2014-agile-barman-p2-11-5-17.pddl,TIMEOUT:301.031:-1.0:300.0:-1
ipc-2014-agile-barman-p3-10-4-13.pddl,TIMEOUT:301.081:-1.0:300.0:-1
ipc-2014-agile-barman-p3-11-4-15.pddl,TIMEOUT:301.127:-1.0:300.0:-1
ipc-2014-agile-barman-p3-11-5-15.pddl,SAT:61.2687:377.0:300.0:-1
ipc-2014-agile-barman-p3-11-5-16.pddl,TIMEOUT:301.05:-1.0:300.0:-1
ipc-2014-agile-barman-p3-11-5-17.pddl,TIMEOUT:301.104:-1.0:300.0:-1
ipc-2014-agile-barman-p4-11-4-14.pddl,TIMEOUT:301.044:-1.0:300.0:-1
ipc-2014-agile-barman-p4-11-4-15.pddl,TIMEOUT:301.036:-1.0:300.0:-1
ipc-2014-agile-barman-p4-11-5-15.pddl,TIMEOUT:301.089:-1.0:300.0:-1
ipc-2014-agile-barman-p5-10-4-13.pddl,TIMEOUT:301.046:-1.0:300.0:-1
ipc-2014-agile-barman-p5-11-4-15.pddl,TIMEOUT:301.067:-1.0:300.0:-1
ipc-2014-agile-barman-p5-11-5-15.pddl,TIMEOUT:301.095:-1.0:300.0:-1
ipc-2014-agile-barman-p5-11-5-16.pddl,TIMEOUT:301.102:-1.0:300.0:-1
ipc-2014-agile-cavediving-01_easy.pddl,CRASHED:0.003019:1000000000.0:300.0:-1
ipc-2014-agile-cavediving-01.pddl,CRASHED:0.003027:1000000000.0:300.0:-1
ipc-2014-agile-cavediving-02_easy.pddl,CRASHED:0.002953:1000000000.0:300.0:-1
ipc-2014-agile-cavediving-03_easy.pddl,CRASHED:0.003031:1000000000.0:300.0:-1
ipc-2014-agile-cavediving-04_easy.pddl,CRASHED:0.003116:1000000000.0:300.0:-1
ipc-2014-agile-cavediving-05A_easy.pddl,CRASHED:0.003049:1000000000.0:300.0:-1
ipc-2014-agile-cavediving-06A_easy.pddl,CRASHED:0.003046:1000000000.0:300.0:-1
ipc-2014-agile-cavediving-07_easy.pddl,CRASHED:0.002961:1000000000.0:300.0:-1
ipc-2014-agile-cavediving-08_easy.pddl,CRASHED:0.003087:1000000000.0:300.0:-1
ipc-2014-agile-cavediving-09_easy.pddl,CRASHED:0.003074:1000000000.0:300.0:-1
ipc-2014-agile-cavediving-10_easy.pddl,CRASHED:0.002991:1000000000.0:300.0:-1
ipc-2014-agile-cavediving-11_easy.pddl,CRASHED:0.002992:1000000000.0:300.0:-1
ipc-2014-agile-cavediving-12_easy.pddl,CRASHED:0.003046:1000000000.0:300.0:-1
ipc-2014-agile-cavediving-13_easy.pddl,CRASHED:0.003043:1000000000.0:300.0:-1
ipc-2014-agile-cavediving-14_easy.pddl,CRASHED:0.003049:1000000000.0:300.0:-1
ipc-2014-agile-cavediving-15_easy.pddl,CRASHED:0.003011:1000000000.0:300.0:-1
ipc-2014-agile-cavediving-16_easy.pddl,CRASHED:0.003016:1000000000.0:300.0:-1
ipc-2014-agile-cavediving-18A_easy.pddl,CRASHED:0.002973:1000000000.0:300.0:-1
ipc-2014-agile-cavediving-18_easy.pddl,CRASHED:0.00304:1000000000.0:300.0:-1
ipc-2014-agile-cavediving-20A_easy.pddl,CRASHED:0.003097:1000000000.0:300.0:-1
ipc-2014-agile-childsnack-05-2.pddl,TIMEOUT:301.181:-1.0:300.0:-1
ipc-2014-agile-childsnack-05.pddl,TIMEOUT:301.176:-1.0:300.0:-1
ipc-2014-agile-childsnack-06-2.pddl,TIMEOUT:301.149:-1.0:300.0:-1
ipc-2014-agile-childsnack-07-2.pddl,TIMEOUT:301.269:-1.0:300.0:-1
ipc-2014-agile-childsnack-08-2.pddl,TIMEOUT:301.244:-1.0:300.0:-1
ipc-2014-agile-childsnack-08.pddl,TIMEOUT:301.241:-1.0:300.0:-1
ipc-2014-agile-childsnack-09-2.pddl,TIMEOUT:301.567:-1.0:300.0:-1
ipc-2014-agile-childsnack-09.pddl,TIMEOUT:301.534:-1.0:300.0:-1
ipc-2014-agile-childsnack-10-2.pddl,TIMEOUT:301.208:-1.0:300.0:-1
ipc-2014-agile-childsnack-10.pddl,TIMEOUT:301.402:-1.0:300.0:-1
ipc-2014-agile-childsnack-11-2.pddl,TIMEOUT:301.278:-1.0:300.0:-1
ipc-2014-agile-childsnack-11.pddl,TIMEOUT:301.417:-1.0:300.0:-1
ipc-2014-agile-childsnack-12.pddl,TIMEOUT:301.257:-1.0:300.0:-1
ipc-2014-agile-childsnack-13-2.pddl,TIMEOUT:301.382:-1.0:300.0:-1
ipc-2014-agile-childsnack-13.pddl,TIMEOUT:301.426:-1.0:300.0:-1
ipc-2014-agile-childsnack-14.pddl,TIMEOUT:301.424:-1.0:300.0:-1
ipc-2014-agile-childsnack-15-2.pddl,TIMEOUT:301.23:-1.0:300.0:-1
ipc-2014-agile-childsnack-16-2.pddl,TIMEOUT:301.124:-1.0:300.0:-1
ipc-2014-agile-childsnack-19-2.pddl,TIMEOUT:301.141:-1.0:300.0:-1
ipc-2014-agile-childsnack-19.pddl,TIMEOUT:301.253:-1.0:300.0:-1
ipc-2014-agile-citycar-p3-2-2-0-1.pddl,CRASHED:0.002959:1000000000.0:300.0:-1
ipc-2014-agile-citycar-p3-3-2-0-1.pddl,CRASHED:0.00301:1000000000.0:300.0:-1
ipc-2014-agile-citycar-p3-4-2-0-1.pddl,CRASHED:0.002922:1000000000.0:300.0:-1
ipc-2014-agile-citycar-p3-5-2-0-1.pddl,CRASHED:0.003054:1000000000.0:300.0:-1
ipc-2014-agile-citycar-p3-5-2-0-2.pddl,CRASHED:0.003528:1000000000.0:300.0:-1
ipc-2014-agile-citycar-p4-2-2-0-1.pddl,CRASHED:0.003087:1000000000.0:300.0:-1
ipc-2014-agile-citycar-p4-2-3-0-1.pddl,CRASHED:0.003168:1000000000.0:300.0:-1
ipc-2014-agile-citycar-p4-2-3-0-2.pddl,CRASHED:0.003204:1000000000.0:300.0:-1
ipc-2014-agile-citycar-p4-3-2-0-1.pddl,CRASHED:0.003186:1000000000.0:300.0:-1
ipc-2014-agile-citycar-p4-3-2-0-2.pddl,CRASHED:0.003195:1000000000.0:300.0:-1
ipc-2014-agile-citycar-p4-3-3-0-1.pddl,CRASHED:0.003216:1000000000.0:300.0:-1
ipc-2014-agile-citycar-p4-3-3-0-2.pddl,CRASHED:0.003177:1000000000.0:300.0:-1
ipc-2014-agile-citycar-p4-4-2-0-1.pddl,CRASHED:0.003117:1000000000.0:300.0:-1
ipc-2014-agile-citycar-p4-4-2-0-2.pddl,CRASHED:0.003201:1000000000.0:300.0:-1
ipc-2014-agile-citycar-p4-4-3-0-1.pddl,CRASHED:0.003158:1000000000.0:300.0:-1
ipc-2014-agile-citycar-p4-4-3-0-2.pddl,CRASHED:0.003156:1000000000.0:300.0:-1
ipc-2014-agile-citycar-p4-5-2-0-1.pddl,CRASHED:0.003107:1000000000.0:300.0:-1
ipc-2014-agile-citycar-p4-5-2-0-2.pddl,CRASHED:0.003181:1000000000.0:300.0:-1
ipc-2014-agile-citycar-p4-5-3-0-1.pddl,CRASHED:0.003166:1000000000.0:300.0:-1
ipc-2014-agile-citycar-p4-5-3-0-2.pddl,CRASHED:0.003204:1000000000.0:300.0:-1
ipc-2014-agile-floortile-p01-4-3-2.pddl,SAT:24.6426:107.0:300.0:-1
ipc-2014-agile-floortile-p01-5-4-2.pddl,TIMEOUT:301.228:-1.0:300.0:-1
ipc-2014-agile-floortile-p01-5-5-2.pddl,TIMEOUT:301.156:-1.0:300.0:-1
ipc-2014-agile-floortile-p01-6-4-2.pddl,TIMEOUT:301.14:-1.0:300.0:-1
ipc-2014-agile-floortile-p01-6-5-2.pddl,TIMEOUT:301.145:-1.0:300.0:-1
ipc-2014-agile-floortile-p01-6-5-3.pddl,TIMEOUT:301.104:-1.0:300.0:-1
ipc-2014-agile-floortile-p02-5-4-2.pddl,TIMEOUT:301.141:-1.0:300.0:-1
ipc-2014-agile-floortile-p02-6-4-2.pddl,TIMEOUT:301.204:-1.0:300.0:-1
ipc-2014-agile-floortile-p02-6-5-2.pddl,TIMEOUT:301.152:-1.0:300.0:-1
ipc-2014-agile-floortile-p02-6-5-3.pddl,TIMEOUT:301.181:-1.0:300.0:-1
ipc-2014-agile-floortile-p03-6-4-2.pddl,TIMEOUT:301.208:-1.0:300.0:-1
ipc-2014-agile-floortile-p03-6-5-2.pddl,TIMEOUT:301.218:-1.0:300.0:-1
ipc-2014-agile-floortile-p03-6-5-3.pddl,TIMEOUT:301.131:-1.0:300.0:-1
ipc-2014-agile-floortile-p04-5-4-2.pddl,TIMEOUT:301.219:-1.0:300.0:-1
ipc-2014-agile-floortile-p04-5-5-2.pddl,TIMEOUT:301.205:-1.0:300.0:-1
ipc-2014-agile-floortile-p04-6-5-2.pddl,TIMEOUT:301.217:-1.0:300.0:-1
ipc-2014-agile-floortile-p04-6-5-3.pddl,TIMEOUT:301.143:-1.0:300.0:-1
ipc-2014-agile-floortile-p05-4-3-2.pddl,SAT:11.9296:101.0:300.0:-1
ipc-2014-agile-floortile-p05-6-5-2.pddl,TIMEOUT:301.226:-1.0:300.0:-1
ipc-2014-agile-floortile-p05-6-5-3.pddl,TIMEOUT:301.193:-1.0:300.0:-1
ipc-2014-agile-ged-d-10-1.pddl,SAT:0.881076:35.0:300.0:-1
ipc-2014-agile-ged-d-10-2.pddl,SAT:0.819586:49.0:300.0:-1
ipc-2014-agile-ged-d-10-3.pddl,SAT:0.659596:58.0:300.0:-1
ipc-2014-agile-ged-d-10-4.pddl,SAT:0.433494:49.0:300.0:-1
ipc-2014-agile-ged-d-10-5.pddl,SAT:0.419313:38.0:300.0:-1
ipc-2014-agile-ged-d-10-6.pddl,SAT:2.57901:113.0:300.0:-1
ipc-2014-agile-ged-d-11-1.pddl,SAT:0.217699:112.0:300.0:-1
ipc-2014-agile-ged-d-11-3.pddl,SAT:0.850367:73.0:300.0:-1
ipc-2014-agile-ged-d-11-5.pddl,SAT:2.77606:78.0:300.0:-1
ipc-2014-agile-ged-d-11-6.pddl,SAT:1.19374:97.0:300.0:-1
ipc-2014-agile-ged-d-12-11.pddl,SAT:2.23573:55.0:300.0:-1
ipc-2014-agile-ged-d-12-2.pddl,SAT:0.446698:148.0:300.0:-1
ipc-2014-agile-ged-d-12-3.pddl,SAT:15.5176:57.0:300.0:-1
ipc-2014-agile-ged-d-12-5.pddl,SAT:29.3592:233.0:300.0:-1
ipc-2014-agile-ged-d-12-6.pddl,SAT:4.54164:139.0:300.0:-1
ipc-2014-agile-ged-d-12-7.pddl,SAT:15.346:74.0:300.0:-1
ipc-2014-agile-ged-d-12-8.pddl,SAT:37.5496:199.0:300.0:-1
ipc-2014-agile-ged-d-12-9.pddl,SAT:30.9598:95.0:300.0:-1
ipc-2014-agile-ged-d-3-6.pddl,SAT:0.481016:39.0:300.0:-1
ipc-2014-agile-ged-d-9-5.pddl,SAT:1.29419:163.0:300.0:-1
ipc-2014-agile-hiking-3-4-3.pddl,SAT:0.059976:34.0:300.0:-1
ipc-2014-agile-hiking-3-4-4.pddl,SAT:0.180661:1042.0:300.0:-1
ipc-2014-agile-hiking-3-4-5.pddl,SAT:0.668026:1843.0:300.0:-1
ipc-2014-agile-hiking-3-4-6.pddl,SAT:24.8195:1124.0:300.0:-1
ipc-2014-agile-hiking-3-4-7.pddl,SAT:245.288:1912.0:300.0:-1
ipc-2014-agile-hiking-3-4-8.pddl,TIMEOUT:301.095:-1.0:300.0:-1
ipc-2014-agile-hiking-3-4-9.pddl,TIMEOUT:301.09:-1.0:300.0:-1
ipc-2014-agile-hiking-4-5-3.pddl,SAT:0.117225:64.0:300.0:-1
ipc-2014-agile-hiking-4-5-4.pddl,SAT:0.823808:245.0:300.0:-1
ipc-2014-agile-hiking-4-5-5.pddl,SAT:0.746292:779.0:300.0:-1
ipc-2014-agile-hiking-4-5-6.pddl,SAT:25.0628:3640.0:300.0:-1
ipc-2014-agile-hiking-4-5-7.pddl,TIMEOUT:301.04:-1.0:300.0:-1
ipc-2014-agile-hiking-4-5-8.pddl,TIMEOUT:301.051:-1.0:300.0:-1
ipc-2014-agile-hiking-4-5-9.pddl,TIMEOUT:301.027:-1.0:300.0:-1
ipc-2014-agile-hiking-5-6-3.pddl,SAT:0.256428:48.0:300.0:-1
ipc-2014-agile-hiking-5-6-4.pddl,SAT:1.21425:671.0:300.0:-1
ipc-2014-agile-hiking-5-6-5.pddl,SAT:41.3959:1133.0:300.0:-1
ipc-2014-agile-hiking-5-6-6.pddl,SAT:59.2814:3510.0:300.0:-1
ipc-2014-agile-hiking-5-6-7.pddl,SAT:23.9339:4058.0:300.0:-1
ipc-2014-agile-hiking-5-6-8.pddl,TIMEOUT:301.019:-1.0:300.0:-1
ipc-2014-agile-maintenance-1.3.060.180.5-000.pddl,CRASHED:0.003026:1000000000.0:300.0:-1
ipc-2014-agile-maintenance-1.3.060.180.5-001.pddl,CRASHED:0.002682:1000000000.0:300.0:-1
ipc-2014-agile-maintenance-1.3.060.180.5-002.pddl,CRASHED:0.00264:1000000000.0:300.0:-1
ipc-2014-agile-maintenance-1.3.100.300.5-000.pddl,CRASHED:0.002632:1000000000.0:300.0:-1
ipc-2014-agile-maintenance-1.3.100.300.5-001.pddl,CRASHED:0.002795:1000000000.0:300.0:-1
ipc-2014-agile-maintenance-1.3.100.300.7-000.pddl,CRASHED:0.002655:1000000000.0:300.0:-1
ipc-2014-agile-maintenance-1.3.100.300.7-001.pddl,CRASHED:0.002695:1000000000.0:300.0:-1
ipc-2014-agile-maintenance-1.3.100.300.7-002.pddl,CRASHED:0.002642:1000000000.0:300.0:-1
ipc-2014-agile-maintenance-1.3.150.500.6-001.pddl,CRASHED:0.002658:1000000000.0:300.0:-1
ipc-2014-agile-maintenance-1.3.200.500.5-001.pddl,CRASHED:0.002666:1000000000.0:300.0:-1
ipc-2014-agile-maintenance-1.3.200.500.5-002.pddl,CRASHED:0.002706:1000000000.0:300.0:-1
ipc-2014-agile-maintenance-1.3.200.700.7-000.pddl,CRASHED:0.0027:1000000000.0:300.0:-1
ipc-2014-agile-maintenance-1.3.200.700.7-001.pddl,CRASHED:0.002668:1000000000.0:300.0:-1
ipc-2014-agile-maintenance-1.3.200.700.7-002.pddl,CRASHED:0.002761:1000000000.0:300.0:-1
ipc-2014-agile-maintenance-1.3.200.900.5-000.pddl,CRASHED:0.002658:1000000000.0:300.0:-1
ipc-2014-agile-maintenance-1.3.200.900.5-001.pddl,CRASHED:0.002776:1000000000.0:300.0:-1
ipc-2014-agile-maintenance-1.3.200.900.5-002.pddl,CRASHED:0.002698:1000000000.0:300.0:-1
ipc-2014-agile-maintenance-1.3.200.900.8-000.pddl,CRASHED:0.002688:1000000000.0:300.0:-1
ipc-2014-agile-maintenance-1.3.200.900.8-001.pddl,CRASHED:0.002597:1000000000.0:300.0:-1
ipc-2014-agile-maintenance-1.3.200.900.8-002.pddl,CRASHED:0.002666:1000000000.0:300.0:-1
ipc-2014-agile-openstacks-p130_2.pddl,CRASHED:0.922681:1000000000.0:300.0:-1
ipc-2014-agile-openstacks-p130_3.pddl,CRASHED:1.17096:1000000000.0:300.0:-1
ipc-2014-agile-openstacks-p150_2.pddl,CRASHED:1.37984:1000000000.0:300.0:-1
ipc-2014-agile-openstacks-p150_3.pddl,CRASHED:1.83198:1000000000.0:300.0:-1
ipc-2014-agile-openstacks-p170_1.pddl,CRASHED:2.0186:1000000000.0:300.0:-1
ipc-2014-agile-openstacks-p170_2.pddl,CRASHED:2.18151:1000000000.0:300.0:-1
ipc-2014-agile-openstacks-p170_3.pddl,CRASHED:2.69368:1000000000.0:300.0:-1
ipc-2014-agile-openstacks-p190_1.pddl,CRASHED:3.21687:1000000000.0:300.0:-1
ipc-2014-agile-openstacks-p190_2.pddl,CRASHED:3.39433:1000000000.0:300.0:-1
ipc-2014-agile-openstacks-p190_3.pddl,CRASHED:3.90776:1000000000.0:300.0:-1
ipc-2014-agile-openstacks-p210_1.pddl,CRASHED:4.31229:1000000000.0:300.0:-1
ipc-2014-agile-openstacks-p210_2.pddl,CRASHED:4.44456:1000000000.0:300.0:-1
ipc-2014-agile-openstacks-p230_1.pddl,CRASHED:6.16672:1000000000.0:300.0:-1
ipc-2014-agile-openstacks-p230_2.pddl,CRASHED:5.9573:1000000000.0:300.0:-1
ipc-2014-agile-openstacks-p250_1.pddl,CRASHED:8.0841:1000000000.0:300.0:-1
ipc-2014-agile-openstacks-p250_2.pddl,CRASHED:7.75735:1000000000.0:300.0:-1
ipc-2014-agile-openstacks-p270_1.pddl,CRASHED:9.06428:1000000000.0:300.0:-1
ipc-2014-agile-openstacks-p270_2.pddl,CRASHED:9.18551:1000000000.0:300.0:-1
ipc-2014-agile-openstacks-p290_1.pddl,CRASHED:11.6462:1000000000.0:300.0:-1
ipc-2014-agile-openstacks-p290_2.pddl,CRASHED:12.7139:1000000000.0:300.0:-1
ipc-2014-agile-parking-28_2.pddl,TIMEOUT:301.111:-1.0:300.0:-1
ipc-2014-agile-parking-28_3.pddl,TIMEOUT:301.105:-1.0:300.0:-1
ipc-2014-agile-parking-30_1.pddl,TIMEOUT:301.029:-1.0:300.0:-1
ipc-2014-agile-parking-30_2.pddl,TIMEOUT:301.05:-1.0:300.0:-1
ipc-2014-agile-parking-30_3.pddl,TIMEOUT:301.081:-1.0:300.0:-1
ipc-2014-agile-parking-32_1.pddl,TIMEOUT:301.115:-1.0:300.0:-1
ipc-2014-agile-parking-32_2.pddl,TIMEOUT:301.039:-1.0:300.0:-1
ipc-2014-agile-parking-32_3.pddl,TIMEOUT:301.126:-1.0:300.0:-1
ipc-2014-agile-parking-34_1.pddl,TIMEOUT:301.081:-1.0:300.0:-1
ipc-2014-agile-parking-34_2.pddl,TIMEOUT:301.041:-1.0:300.0:-1
ipc-2014-agile-parking-34_3.pddl,TIMEOUT:301.046:-1.0:300.0:-1
ipc-2014-agile-parking-36_1.pddl,TIMEOUT:301.076:-1.0:300.0:-1
ipc-2014-agile-parking-36_2.pddl,TIMEOUT:301.1:-1.0:300.0:-1
ipc-2014-agile-parking-36_3.pddl,TIMEOUT:301.083:-1.0:300.0:-1
ipc-2014-agile-parking-38_1.pddl,TIMEOUT:301.083:-1.0:300.0:-1
ipc-2014-agile-parking-38_2.pddl,TIMEOUT:301.117:-1.0:300.0:-1
ipc-2014-agile-parking-38_3.pddl,TIMEOUT:301.118:-1.0:300.0:-1
ipc-2014-agile-parking-40_1.pddl,TIMEOUT:301.122:-1.0:300.0:-1
ipc-2014-agile-parking-40_2.pddl,TIMEOUT:301.072:-1.0:300.0:-1
ipc-2014-agile-parking-40_3.pddl,TIMEOUT:301.127:-1.0:300.0:-1
ipc-2014-agile-tetris-020.pddl,SAT:75.2655:83.0:300.0:-1
ipc-2014-agile-tetris-021.pddl,CRASHED:17.546:1000000000.0:300.0:-1
ipc-2014-agile-tetris-022.pddl,CRASHED:15.8143:1000000000.0:300.0:-1
ipc-2014-agile-tetris-023.pddl,CRASHED:15.88:1000000000.0:300.0:-1
ipc-2014-agile-tetris-024.pddl,CRASHED:17.1884:1000000000.0:300.0:-1
ipc-2014-agile-tetris-025.pddl,TIMEOUT:301.058:-1.0:300.0:-1
ipc-2014-agile-tetris-026.pddl,CRASHED:25.8214:1000000000.0:300.0:-1
ipc-2014-agile-tetris-027.pddl,CRASHED:20.797:1000000000.0:300.0:-1
ipc-2014-agile-tetris-028.pddl,CRASHED:18.9768:1000000000.0:300.0:-1
ipc-2014-agile-tetris-029.pddl,TIMEOUT:301.042:-1.0:300.0:-1
ipc-2014-agile-tetris-031.pddl,CRASHED:34.6943:1000000000.0:300.0:-1
ipc-2014-agile-tetris-032.pddl,CRASHED:24.6535:1000000000.0:300.0:-1
ipc-2014-agile-tetris-033.pddl,CRASHED:31.9464:1000000000.0:300.0:-1
ipc-2014-agile-tetris-034.pddl,CRASHED:31.5536:1000000000.0:300.0:-1
ipc-2014-agile-tetris-035.pddl,CRASHED:37.8608:1000000000.0:300.0:-1
ipc-2014-agile-tetris-036.pddl,CRASHED:37.299:1000000000.0:300.0:-1
ipc-2014-agile-tetris-037.pddl,CRASHED:23.0427:1000000000.0:300.0:-1
ipc-2014-agile-tetris-038.pddl,CRASHED:29.9161:1000000000.0:300.0:-1
ipc-2014-agile-tetris-039.pddl,CRASHED:33.6257:1000000000.0:300.0:-1
ipc-2014-agile-tetris-040.pddl,CRASHED:29.7991:1000000000.0:300.0:-1
ipc-2014-agile-thoughtful-bootstrap-typed-01.pddl,SAT:0.697753:46.0:300.0:-1
ipc-2014-agile-thoughtful-bootstrap-typed-02.pddl,SAT:0.661374:74.0:300.0:-1
ipc-2014-agile-thoughtful-bootstrap-typed-03.pddl,SAT:0.664481:61.0:300.0:-1
ipc-2014-agile-thoughtful-bootstrap-typed-04.pddl,SAT:0.661798:41.0:300.0:-1
ipc-2014-agile-thoughtful-bootstrap-typed-05.pddl,SAT:0.654413:53.0:300.0:-1
ipc-2014-agile-thoughtful-p11_6_53-typed.pddl,SAT:168.054:288.0:300.0:-1
ipc-2014-agile-thoughtful-p11_6_59-typed.pddl,TIMEOUT:301.06:-1.0:300.0:-1
ipc-2014-agile-thoughtful-p11_6_62-typed.pddl,SAT:12.3846:318.0:300.0:-1
ipc-2014-agile-thoughtful-p13_7_78-typed.pddl,TIMEOUT:301.106:-1.0:300.0:-1
ipc-2014-agile-thoughtful-p13_7_79-typed.pddl,TIMEOUT:301.061:-1.0:300.0:-1
ipc-2014-agile-thoughtful-p13_7_86-typed.pddl,TIMEOUT:301.06:-1.0:300.0:-1
ipc-2014-agile-thoughtful-target-typed-20.pddl,TIMEOUT:301.063:-1.0:300.0:-1
ipc-2014-agile-thoughtful-target-typed-21.pddl,TIMEOUT:301.059:-1.0:300.0:-1
ipc-2014-agile-thoughtful-target-typed-22.pddl,TIMEOUT:301.112:-1.0:300.0:-1
ipc-2014-agile-thoughtful-target-typed-23.pddl,TIMEOUT:301.103:-1.0:300.0:-1
ipc-2014-agile-thoughtful-target-typed-24.pddl,SAT:22.8588:199.0:300.0:-1
ipc-2014-agile-thoughtful-target-typed-25.pddl,TIMEOUT:301.044:-1.0:300.0:-1
ipc-2014-agile-thoughtful-target-typed-26.pddl,TIMEOUT:301.072:-1.0:300.0:-1
ipc-2014-agile-thoughtful-target-typed-27.pddl,SAT:23.7924:230.0:300.0:-1
ipc-2014-agile-thoughtful-target-typed-28.pddl,SAT:38.5286:246.0:300.0:-1
ipc-2014-agile-transport-01.pddl,SAT:0.965569:4683.0:300.0:-1
ipc-2014-agile-transport-02.pddl,SAT:1.46494:5361.0:300.0:-1
ipc-2014-agile-transport-03.pddl,SAT:0.94185:4263.0:300.0:-1
ipc-2014-agile-transport-04.pddl,SAT:4.80907:9712.0:300.0:-1
ipc-2014-agile-transport-05.pddl,SAT:9.53228:15500.0:300.0:-1
ipc-2014-agile-transport-06.pddl,SAT:5.05715:9712.0:300.0:-1
ipc-2014-agile-transport-07.pddl,SAT:6.8505:11670.0:300.0:-1
ipc-2014-agile-transport-08.pddl,SAT:9.80957:12502.0:300.0:-1
ipc-2014-agile-transport-09.pddl,SAT:6.85641:11670.0:300.0:-1
ipc-2014-agile-transport-10.pddl,SAT:5.99675:10021.0:300.0:-1
ipc-2014-agile-transport-11.pddl,SAT:1.3497:3491.0:300.0:-1
ipc-2014-agile-transport-12.pddl,SAT:1.95743:5020.0:300.0:-1
ipc-2014-agile-transport-13.pddl,SAT:1.30506:5929.0:300.0:-1
ipc-2014-agile-transport-14.pddl,SAT:6.1864:11687.0:300.0:-1
ipc-2014-agile-transport-15.pddl,SAT:8.577:12437.0:300.0:-1
ipc-2014-agile-transport-16.pddl,SAT:4.81368:13661.0:300.0:-1
ipc-2014-agile-transport-17.pddl,SAT:6.96074:10606.0:300.0:-1
ipc-2014-agile-transport-18.pddl,SAT:9.85575:12877.0:300.0:-1
ipc-2014-agile-transport-19.pddl,SAT:5.39469:11273.0:300.0:-1
ipc-2014-agile-transport-20.pddl,SAT:7.60066:9041.0:300.0:-1
ipc-2014-agile-visitall-30.pddl,SAT:0.578962:1116.0:300.0:-1
ipc-2014-agile-visitall-31.pddl,SAT:0.70928:1217.0:300.0:-1
ipc-2014-agile-visitall-32.pddl,SAT:0.802523:1230.0:300.0:-1
ipc-2014-agile-visitall-33.pddl,SAT:1.0728:1390.0:300.0:-1
ipc-2014-agile-visitall-50.pddl,SAT:10.3444:2967.0:300.0:-1
ipc-2014-agile-visitall-51.pddl,SAT:10.9065:3051.0:300.0:-1
ipc-2014-agile-visitall-52.pddl,SAT:10.3913:3180.0:300.0:-1
ipc-2014-agile-visitall-53.pddl,SAT:12.4401:3206.0:300.0:-1
ipc-2014-agile-visitall-54.pddl,SAT:14.0187:3349.0:300.0:-1
ipc-2014-agile-visitall-55.pddl,SAT:14.3872:3496.0:300.0:-1
ipc-2014-agile-visitall-56.pddl,SAT:17.583:3634.0:300.0:-1
ipc-2014-agile-visitall-57.pddl,SAT:16.4691:3842.0:300.0:-1
ipc-2014-agile-visitall-58.pddl,SAT:21.3723:3768.0:300.0:-1
ipc-2014-agile-visitall-59.pddl,SAT:22.9817:3964.0:300.0:-1
ipc-2014-agile-visitall-60.pddl,SAT:24.4244:4089.0:300.0:-1
ipc-2014-agile-visitall-61.pddl,SAT:28.8639:4275.0:300.0:-1
ipc-2014-agile-visitall-62.pddl,SAT:32.2362:4279.0:300.0:-1
ipc-2014-agile-visitall-63.pddl,SAT:31.2246:4707.0:300.0:-1
ipc-2014-agile-visitall-64.pddl,SAT:45.3899:4809.0:300.0:-1
ipc-2014-agile-visitall-65.pddl,SAT:42.2823:4976.0:300.0:-1
