instance,ipc-2014-optimal-dpmplan
ipc-2014-optimal-barman-p433.1.pddl,CRASHED:1.71627:1000000000.0:1800.0:-1
ipc-2014-optimal-barman-p433.2.pddl,CRASHED:2.0787:1000000000.0:1800.0:-1
ipc-2014-optimal-barman-p433.3.pddl,CRASHED:2.08054:1000000000.0:1800.0:-1
ipc-2014-optimal-barman-p435.1.pddl,CRASHED:1770.77:1000000000.0:1800.0:-1
ipc-2014-optimal-barman-p435.2.pddl,CRASHED:1771.38:1000000000.0:1800.0:-1
ipc-2014-optimal-barman-p435.3.pddl,CRASHED:1241.4:1000000000.0:1800.0:-1
ipc-2014-optimal-barman-p443.1.pddl,CRASHED:1.53151:1000000000.0:1800.0:-1
ipc-2014-optimal-barman-p443.2.pddl,CRASHED:1.46762:1000000000.0:1800.0:-1
ipc-2014-optimal-barman-p443.3.pddl,CRASHED:1.68568:1000000000.0:1800.0:-1
ipc-2014-optimal-barman-p536.1.pddl,CRASHED:1771.16:1000000000.0:1800.0:-1
ipc-2014-optimal-barman-p536.2.pddl,CRASHED:1771.33:1000000000.0:1800.0:-1
ipc-2014-optimal-barman-p536.3.pddl,CRASHED:1772.1:1000000000.0:1800.0:-1
ipc-2014-optimal-barman-p638.1.pddl,CRASHED:1239.22:1000000000.0:1800.0:-1
ipc-2014-optimal-barman-p638.2.pddl,CRASHED:1239.13:1000000000.0:1800.0:-1
ipc-2014-optimal-barman-p638.3.pddl,CRASHED:1770.32:1000000000.0:1800.0:-1
ipc-2014-optimal-barman-p739.1.pddl,CRASHED:1771.13:1000000000.0:1800.0:-1
ipc-2014-optimal-barman-p739.2.pddl,CRASHED:1772.95:1000000000.0:1800.0:-1
ipc-2014-optimal-barman-p739.3.pddl,CRASHED:1239.11:1000000000.0:1800.0:-1
ipc-2014-optimal-barman-p839.1.pddl,CRASHED:1770.71:1000000000.0:1800.0:-1
ipc-2014-optimal-barman-p839.2.pddl,CRASHED:1293.79:1000000000.0:1800.0:-1
ipc-2014-optimal-cavediving-01.pddl,CRASHED:156.101:1000000000.0:1800.0:-1
ipc-2014-optimal-cavediving-01_easy.pddl,CRASHED:147.008:1000000000.0:1800.0:-1
ipc-2014-optimal-cavediving-02_easy.pddl,CRASHED:128.958:1000000000.0:1800.0:-1
ipc-2014-optimal-cavediving-03_easy.pddl,CRASHED:127.299:1000000000.0:1800.0:-1
ipc-2014-optimal-cavediving-04_easy.pddl,CRASHED:133.397:1000000000.0:1800.0:-1
ipc-2014-optimal-cavediving-05A_easy.pddl,SAT:19.0934:94.0:1800.0:-1
ipc-2014-optimal-cavediving-06A_easy.pddl,SAT:20.6355:95.0:1800.0:-1
ipc-2014-optimal-cavediving-07_easy.pddl,SAT:32.9699:131.0:1800.0:-1
ipc-2014-optimal-cavediving-08_easy.pddl,SAT:19.147:90.0:1800.0:-1
ipc-2014-optimal-cavediving-09_easy.pddl,CRASHED:272.396:1000000000.0:1800.0:-1
ipc-2014-optimal-cavediving-10_easy.pddl,CRASHED:276.681:1000000000.0:1800.0:-1
ipc-2014-optimal-cavediving-11_easy.pddl,CRASHED:276.865:1000000000.0:1800.0:-1
ipc-2014-optimal-cavediving-12_easy.pddl,CRASHED:248.481:1000000000.0:1800.0:-1
ipc-2014-optimal-cavediving-13_easy.pddl,CRASHED:142.883:1000000000.0:1800.0:-1
ipc-2014-optimal-cavediving-14_easy.pddl,CRASHED:144.985:1000000000.0:1800.0:-1
ipc-2014-optimal-cavediving-15_easy.pddl,CRASHED:139.186:1000000000.0:1800.0:-1
ipc-2014-optimal-cavediving-16_easy.pddl,CRASHED:144.621:1000000000.0:1800.0:-1
ipc-2014-optimal-cavediving-18A_easy.pddl,SAT:56.5834:131.0:1800.0:-1
ipc-2014-optimal-cavediving-18_easy.pddl,CRASHED:114.373:131.0:1800.0:-1
ipc-2014-optimal-cavediving-20A_easy.pddl,SAT:33.9106:98.0:1800.0:-1
ipc-2014-optimal-childsnack-01-2.pddl,CRASHED:1560.75:1000000000.0:1800.0:-1
ipc-2014-optimal-childsnack-01.pddl,CRASHED:1602.69:1000000000.0:1800.0:-1
ipc-2014-optimal-childsnack-02-2.pddl,CRASHED:1771.04:1000000000.0:1800.0:-1
ipc-2014-optimal-childsnack-02.pddl,CRASHED:1766.89:1000000000.0:1800.0:-1
ipc-2014-optimal-childsnack-03-2.pddl,CRASHED:1770.31:1000000000.0:1800.0:-1
ipc-2014-optimal-childsnack-03.pddl,CRASHED:1296.98:1000000000.0:1800.0:-1
ipc-2014-optimal-childsnack-04-2.pddl,CRASHED:1297.12:1000000000.0:1800.0:-1
ipc-2014-optimal-childsnack-04.pddl,CRASHED:1771.09:1000000000.0:1800.0:-1
ipc-2014-optimal-childsnack-05-2.pddl,CRASHED:1772.38:1000000000.0:1800.0:-1
ipc-2014-optimal-childsnack-05.pddl,CRASHED:1297.31:1000000000.0:1800.0:-1
ipc-2014-optimal-childsnack-06-2.pddl,CRASHED:1773.29:1000000000.0:1800.0:-1
ipc-2014-optimal-childsnack-06.pddl,CRASHED:1297.18:1000000000.0:1800.0:-1
ipc-2014-optimal-childsnack-07-2.pddl,CRASHED:1297.02:1000000000.0:1800.0:-1
ipc-2014-optimal-childsnack-07.pddl,CRASHED:1297.14:1000000000.0:1800.0:-1
ipc-2014-optimal-childsnack-08-2.pddl,CRASHED:1292.36:1000000000.0:1800.0:-1
ipc-2014-optimal-childsnack-08.pddl,CRASHED:1292.05:1000000000.0:1800.0:-1
ipc-2014-optimal-childsnack-09-2.pddl,CRASHED:58.55:1000000000.0:1800.0:-1
ipc-2014-optimal-childsnack-09.pddl,CRASHED:58.61:1000000000.0:1800.0:-1
ipc-2014-optimal-childsnack-10-2.pddl,CRASHED:1291.69:1000000000.0:1800.0:-1
ipc-2014-optimal-childsnack-10.pddl,CRASHED:58.29:1000000000.0:1800.0:-1
ipc-2014-optimal-citycar-p2-2-2-1-2.pddl,SAT:5.0319:46.0:1800.0:-1
ipc-2014-optimal-citycar-p2-2-2-2-1.pddl,SAT:9.0876:64.0:1800.0:-1
ipc-2014-optimal-citycar-p2-2-3-1-2.pddl,SAT:6.8874:50.0:1800.0:-1
ipc-2014-optimal-citycar-p2-2-3-2-1.pddl,SAT:6.18864:48.0:1800.0:-1
ipc-2014-optimal-citycar-p2-2-3-2-2.pddl,SAT:6.41751:50.0:1800.0:-1
ipc-2014-optimal-citycar-p2-2-4-1-2.pddl,SAT:8.33415:52.0:1800.0:-1
ipc-2014-optimal-citycar-p2-2-4-2-1.pddl,SAT:8.23969:52.0:1800.0:-1
ipc-2014-optimal-citycar-p2-2-5-2-2.pddl,SAT:392.79:76.0:1800.0:-1
ipc-2014-optimal-citycar-p2-2-6-1-1.pddl,CRASHED:409.09:58.0:1800.0:-1
ipc-2014-optimal-citycar-p2-2-6-2-2.pddl,CRASHED:405.67:58.0:1800.0:-1
ipc-2014-optimal-citycar-p2-3-2-3-1.pddl,SAT:374.79:68.0:1800.0:-1
ipc-2014-optimal-citycar-p2-3-3-3-1.pddl,SAT:393.24:78.0:1800.0:-1
ipc-2014-optimal-citycar-p2-3-4-3-1.pddl,CRASHED:1572.83:1000000000.0:1800.0:-1
ipc-2014-optimal-citycar-p2-3-6-3-2.pddl,CRASHED:1551.8:1000000000.0:1800.0:-1
ipc-2014-optimal-citycar-p3-3-2-2-1.pddl,CRASHED:1542.8:1000000000.0:1800.0:-1
ipc-2014-optimal-citycar-p3-3-2-2-2.pddl,CRASHED:1535.91:1000000000.0:1800.0:-1
ipc-2014-optimal-citycar-p3-3-2-3-1.pddl,SAT:52.99:48.0:1800.0:-1
ipc-2014-optimal-citycar-p3-3-2-3-2.pddl,CRASHED:1547.22:1000000000.0:1800.0:-1
ipc-2014-optimal-citycar-p3-3-3-3-1.pddl,CRASHED:1453.4:1000000000.0:1800.0:-1
ipc-2014-optimal-citycar-p3-3-3-3-2.pddl,CRASHED:1453.54:1000000000.0:1800.0:-1
ipc-2014-optimal-floortile-p01-4-3-2.pddl,SAT:167.201:56.0:1800.0:-1
ipc-2014-optimal-floortile-p01-4-4-2.pddl,CRASHED:475.039:68.0:1800.0:-1
ipc-2014-optimal-floortile-p01-5-3-2.pddl,CRASHED:401.74:63.0:1800.0:-1
ipc-2014-optimal-floortile-p01-5-4-2.pddl,CRASHED:1773.16:1000000000.0:1800.0:-1
ipc-2014-optimal-floortile-p01-5-5-2.pddl,CRASHED:1774.87:1000000000.0:1800.0:-1
ipc-2014-optimal-floortile-p01-6-4-2.pddl,CRASHED:1312.66:1000000000.0:1800.0:-1
ipc-2014-optimal-floortile-p01-6-5-2.pddl,CRASHED:1772.42:1000000000.0:1800.0:-1
ipc-2014-optimal-floortile-p02-4-4-2.pddl,CRASHED:1770.93:1000000000.0:1800.0:-1
ipc-2014-optimal-floortile-p02-5-3-2.pddl,CRASHED:424.685:65.0:1800.0:-1
ipc-2014-optimal-floortile-p02-5-4-2.pddl,CRASHED:1772.14:1000000000.0:1800.0:-1
ipc-2014-optimal-floortile-p02-5-5-2.pddl,CRASHED:1771.35:1000000000.0:1800.0:-1
ipc-2014-optimal-floortile-p02-6-4-2.pddl,CRASHED:1769.58:1000000000.0:1800.0:-1
ipc-2014-optimal-floortile-p02-6-5-2.pddl,CRASHED:1773.75:1000000000.0:1800.0:-1
ipc-2014-optimal-floortile-p03-4-3-2.pddl,SAT:181.499:56.0:1800.0:-1
ipc-2014-optimal-floortile-p03-4-4-2.pddl,CRASHED:1294.41:1000000000.0:1800.0:-1
ipc-2014-optimal-floortile-p03-5-3-2.pddl,CRASHED:486.489:65.0:1800.0:-1
ipc-2014-optimal-floortile-p03-5-4-2.pddl,CRASHED:1770.86:1000000000.0:1800.0:-1
ipc-2014-optimal-floortile-p03-5-5-2.pddl,CRASHED:1770.8:1000000000.0:1800.0:-1
ipc-2014-optimal-floortile-p03-6-4-2.pddl,CRASHED:1773.61:1000000000.0:1800.0:-1
ipc-2014-optimal-floortile-p03-6-5-2.pddl,CRASHED:1283.91:1000000000.0:1800.0:-1
ipc-2014-optimal-ged-d-1-2.pddl,SAT:0.729056:1.0:1800.0:-1
ipc-2014-optimal-ged-d-1-3.pddl,SAT:5.71868:4.0:1800.0:-1
ipc-2014-optimal-ged-d-1-4.pddl,SAT:0.673394:1.0:1800.0:-1
ipc-2014-optimal-ged-d-1-8.pddl,SAT:23.2215:4.0:1800.0:-1
ipc-2014-optimal-ged-d-2-1.pddl,SAT:0.687803:1.0:1800.0:-1
ipc-2014-optimal-ged-d-2-3.pddl,SAT:0.925214:3.0:1800.0:-1
ipc-2014-optimal-ged-d-2-4.pddl,SAT:0.741458:2.0:1800.0:-1
ipc-2014-optimal-ged-d-2-8.pddl,CRASHED:1332.3:1000000000.0:1800.0:-1
ipc-2014-optimal-ged-d-3-1.pddl,SAT:5.89572:4.0:1800.0:-1
ipc-2014-optimal-ged-d-3-2.pddl,SAT:0.936883:3.0:1800.0:-1
ipc-2014-optimal-ged-d-3-4.pddl,CRASHED:59.09:5.0:1800.0:-1
ipc-2014-optimal-ged-d-4-2.pddl,SAT:0.71927:2.0:1800.0:-1
ipc-2014-optimal-ged-d-4-3.pddl,CRASHED:59.14:5.0:1800.0:-1
ipc-2014-optimal-ged-d-4-8.pddl,CRASHED:58.94:1000000000.0:1800.0:-1
ipc-2014-optimal-ged-d-7-5.pddl,SAT:22.7199:4.0:1800.0:-1
ipc-2014-optimal-ged-d-7-6.pddl,SAT:5.61351:4.0:1800.0:-1
ipc-2014-optimal-ged-d-8-1.pddl,SAT:23.9587:4.0:1800.0:-1
ipc-2014-optimal-ged-d-8-2.pddl,CRASHED:58.66:1000000000.0:1800.0:-1
ipc-2014-optimal-ged-d-8-4.pddl,CRASHED:58.73:1000000000.0:1800.0:-1
ipc-2014-optimal-ged-d-8-9.pddl,CRASHED:58.57:1000000000.0:1800.0:-1
ipc-2014-optimal-hiking-1-2-3.pddl,SAT:0.924057:11.0:1800.0:-1
ipc-2014-optimal-hiking-1-2-4.pddl,SAT:10.5521:17.0:1800.0:-1
ipc-2014-optimal-hiking-1-2-5.pddl,SAT:11.266:25.0:1800.0:-1
ipc-2014-optimal-hiking-1-2-7.pddl,SAT:22.0987:38.0:1800.0:-1
ipc-2014-optimal-hiking-1-2-8.pddl,SAT:44.9001:45.0:1800.0:-1
ipc-2014-optimal-hiking-2-2-3.pddl,SAT:12.8399:10.0:1800.0:-1
ipc-2014-optimal-hiking-2-2-4.pddl,SAT:66.5789:16.0:1800.0:-1
ipc-2014-optimal-hiking-2-2-5.pddl,SAT:58.99:22.0:1800.0:-1
ipc-2014-optimal-hiking-2-2-6.pddl,CRASHED:1296.67:1000000000.0:1800.0:-1
ipc-2014-optimal-hiking-2-2-7.pddl,CRASHED:58.43:1000000000.0:1800.0:-1
ipc-2014-optimal-hiking-2-2-8.pddl,CRASHED:58.19:1000000000.0:1800.0:-1
ipc-2014-optimal-hiking-2-3-4.pddl,SAT:232.88:17.0:1800.0:-1
ipc-2014-optimal-hiking-2-3-5.pddl,SAT:58.9:24.0:1800.0:-1
ipc-2014-optimal-hiking-2-3-6.pddl,CRASHED:58.58:1000000000.0:1800.0:-1
ipc-2014-optimal-hiking-2-3-7.pddl,CRASHED:57.84:1000000000.0:1800.0:-1
ipc-2014-optimal-hiking-2-4-3.pddl,SAT:29.9739:10.0:1800.0:-1
ipc-2014-optimal-hiking-2-4-4.pddl,SAT:58.82:17.0:1800.0:-1
ipc-2014-optimal-hiking-2-4-5.pddl,CRASHED:58.46:1000000000.0:1800.0:-1
ipc-2014-optimal-hiking-2-4-6.pddl,CRASHED:1290.92:1000000000.0:1800.0:-1
ipc-2014-optimal-hiking-2-4-7.pddl,CRASHED:57.35:1000000000.0:1800.0:-1
ipc-2014-optimal-maintenance-1.3.010.010.1-001.pddl,CRASHED:1.41276:1000000000.0:1800.0:-1
ipc-2014-optimal-maintenance-1.3.010.010.1-002.pddl,CRASHED:1.86834:1000000000.0:1800.0:-1
ipc-2014-optimal-maintenance-1.3.010.010.2-000.pddl,SAT:0.406546:4.0:1800.0:-1
ipc-2014-optimal-maintenance-1.3.010.010.2-001.pddl,SAT:0.417386:7.0:1800.0:-1
ipc-2014-optimal-maintenance-1.3.010.010.2-002.pddl,SAT:0.350431:6.0:1800.0:-1
ipc-2014-optimal-maintenance-1.3.015.020.1-000.pddl,CRASHED:4.21736:1000000000.0:1800.0:-1
ipc-2014-optimal-maintenance-1.3.015.020.1-001.pddl,CRASHED:13.0484:1000000000.0:1800.0:-1
ipc-2014-optimal-maintenance-1.3.015.020.1-002.pddl,CRASHED:19.2342:1000000000.0:1800.0:-1
ipc-2014-optimal-maintenance-1.3.015.020.2-000.pddl,CRASHED:136.1:1000000000.0:1800.0:-1
ipc-2014-optimal-maintenance-1.3.015.020.2-001.pddl,SAT:0.504072:11.0:1800.0:-1
ipc-2014-optimal-maintenance-1.3.015.020.2-002.pddl,SAT:0.501483:9.0:1800.0:-1
ipc-2014-optimal-maintenance-1.3.025.050.1-000.pddl,CRASHED:149.619:1000000000.0:1800.0:-1
ipc-2014-optimal-maintenance-1.3.025.050.1-001.pddl,CRASHED:175.355:1000000000.0:1800.0:-1
ipc-2014-optimal-maintenance-1.3.025.050.1-002.pddl,CRASHED:162.82:1000000000.0:1800.0:-1
ipc-2014-optimal-maintenance-1.3.025.100.1-000.pddl,CRASHED:167.626:1000000000.0:1800.0:-1
ipc-2014-optimal-maintenance-1.3.025.100.1-001.pddl,CRASHED:160.644:1000000000.0:1800.0:-1
ipc-2014-optimal-maintenance-1.3.025.100.1-002.pddl,CRASHED:166.574:1000000000.0:1800.0:-1
ipc-2014-optimal-maintenance-1.3.025.100.2-000.pddl,CRASHED:996.669:1000000000.0:1800.0:-1
ipc-2014-optimal-maintenance-1.3.025.100.2-001.pddl,CRASHED:1148.77:1000000000.0:1800.0:-1
ipc-2014-optimal-maintenance-1.3.025.100.2-002.pddl,CRASHED:1003.09:1000000000.0:1800.0:-1
ipc-2014-optimal-openstacks-p20_1.pddl,CRASHED:1280.45:3.0:1800.0:-1
ipc-2014-optimal-openstacks-p20_2.pddl,CRASHED:1283.93:4.0:1800.0:-1
ipc-2014-optimal-openstacks-p20_3.pddl,SAT:18.3539:6.0:1800.0:-1
ipc-2014-optimal-openstacks-p25_1.pddl,CRASHED:148.33:1000000000.0:1800.0:-1
ipc-2014-optimal-openstacks-p25_3.pddl,CRASHED:1771.66:1000000000.0:1800.0:-1
ipc-2014-optimal-openstacks-p30_1.pddl,CRASHED:1775.32:1000000000.0:1800.0:-1
ipc-2014-optimal-openstacks-p30_2.pddl,CRASHED:58.96:1000000000.0:1800.0:-1
ipc-2014-optimal-openstacks-p30_3.pddl,CRASHED:1772.89:1000000000.0:1800.0:-1
ipc-2014-optimal-openstacks-p35_1.pddl,CRASHED:1773.48:1000000000.0:1800.0:-1
ipc-2014-optimal-openstacks-p35_2.pddl,CRASHED:1773.76:1000000000.0:1800.0:-1
ipc-2014-optimal-openstacks-p35_3.pddl,CRASHED:58.76:1000000000.0:1800.0:-1
ipc-2014-optimal-openstacks-p40_1.pddl,CRASHED:58.83:1000000000.0:1800.0:-1
ipc-2014-optimal-openstacks-p40_2.pddl,CRASHED:1306.84:1000000000.0:1800.0:-1
ipc-2014-optimal-openstacks-p40_3.pddl,CRASHED:58.45:1000000000.0:1800.0:-1
ipc-2014-optimal-openstacks-p45_1.pddl,CRASHED:58.15:1000000000.0:1800.0:-1
ipc-2014-optimal-openstacks-p45_2.pddl,CRASHED:58.23:1000000000.0:1800.0:-1
ipc-2014-optimal-openstacks-p45_3.pddl,CRASHED:58.03:1000000000.0:1800.0:-1
ipc-2014-optimal-openstacks-p50_1.pddl,CRASHED:57.84:1000000000.0:1800.0:-1
ipc-2014-optimal-openstacks-p50_2.pddl,CRASHED:1301.43:1000000000.0:1800.0:-1
ipc-2014-optimal-openstacks-p50_3.pddl,CRASHED:57.76:1000000000.0:1800.0:-1
ipc-2014-optimal-parking-12_7-01.pddl,SAT:58.2:18.0:1800.0:-1
ipc-2014-optimal-parking-12_7-02.pddl,SAT:58.11:18.0:1800.0:-1
ipc-2014-optimal-parking-12_7-03.pddl,SAT:58.23:17.0:1800.0:-1
ipc-2014-optimal-parking-12_7-04.pddl,SAT:58.81:19.0:1800.0:-1
ipc-2014-optimal-parking-14_8-01.pddl,CRASHED:58.24:1000000000.0:1800.0:-1
ipc-2014-optimal-parking-14_8-02.pddl,SAT:58.3:22.0:1800.0:-1
ipc-2014-optimal-parking-14_8-03.pddl,SAT:58.02:21.0:1800.0:-1
ipc-2014-optimal-parking-14_8-04.pddl,CRASHED:58.08:1000000000.0:1800.0:-1
ipc-2014-optimal-parking-16_9-01.pddl,CRASHED:1389.32:1000000000.0:1800.0:-1
ipc-2014-optimal-parking-16_9-02.pddl,CRASHED:1382.26:1000000000.0:1800.0:-1
ipc-2014-optimal-parking-16_9-03.pddl,CRASHED:57.2:1000000000.0:1800.0:-1
ipc-2014-optimal-parking-16_9-04.pddl,CRASHED:57.05:1000000000.0:1800.0:-1
ipc-2014-optimal-parking-18_10-01.pddl,CRASHED:55.9:1000000000.0:1800.0:-1
ipc-2014-optimal-parking-18_10-02.pddl,CRASHED:55.93:1000000000.0:1800.0:-1
ipc-2014-optimal-parking-18_10-03.pddl,CRASHED:55.82:1000000000.0:1800.0:-1
ipc-2014-optimal-parking-18_10-04.pddl,CRASHED:1555.83:1000000000.0:1800.0:-1
ipc-2014-optimal-parking-20_11-01.pddl,CRASHED:1647.57:1000000000.0:1800.0:-1
ipc-2014-optimal-parking-20_11-02.pddl,CRASHED:1648.89:1000000000.0:1800.0:-1
ipc-2014-optimal-parking-20_11-03.pddl,CRASHED:326.67:1000000000.0:1800.0:-1
ipc-2014-optimal-parking-20_11-04.pddl,CRASHED:1591.57:1000000000.0:1800.0:-1
ipc-2014-optimal-tetris-01-10.pddl,CRASHED:506.42:1000000000.0:1800.0:-1
ipc-2014-optimal-tetris-01-04.pddl,CRASHED:480.609:1000000000.0:1800.0:-1
ipc-2014-optimal-tetris-01-06.pddl,SAT:57.89:30.0:1800.0:-1
ipc-2014-optimal-tetris-01-08.pddl,CRASHED:65.8128:36.0:1800.0:-1
ipc-2014-optimal-tetris-02-10.pddl,CRASHED:166.4:1000000000.0:1800.0:-1
ipc-2014-optimal-tetris-02-04.pddl,SAT:0.533309:10.0:1800.0:-1
ipc-2014-optimal-tetris-02-06.pddl,SAT:61.3797:30.0:1800.0:-1
ipc-2014-optimal-tetris-02-08.pddl,CRASHED:507.37:1000000000.0:1800.0:-1
ipc-2014-optimal-tetris-03-10.pddl,CRASHED:444.56:1000000000.0:1800.0:-1
ipc-2014-optimal-tetris-03-04.pddl,SAT:12.7378:11.0:1800.0:-1
ipc-2014-optimal-tetris-03-06.pddl,SAT:56.98:21.0:1800.0:-1
ipc-2014-optimal-tetris-03-08.pddl,CRASHED:451.48:48.0:1800.0:-1
ipc-2014-optimal-tetris-04-10.pddl,CRASHED:634.64:1000000000.0:1800.0:-1
ipc-2014-optimal-tetris-04-04.pddl,CRASHED:260.29:1000000000.0:1800.0:-1
ipc-2014-optimal-tetris-04-06.pddl,SAT:57.64:27.0:1800.0:-1
ipc-2014-optimal-tetris-04-08.pddl,CRASHED:486.75:1000000000.0:1800.0:-1
ipc-2014-optimal-tetris-05-10.pddl,CRASHED:413.98:1000000000.0:1800.0:-1
ipc-2014-optimal-tetris-05-04.pddl,CRASHED:347.871:1000000000.0:1800.0:-1
ipc-2014-optimal-tetris-05-06.pddl,SAT:19.3712:19.0:1800.0:-1
ipc-2014-optimal-tetris-05-08.pddl,CRASHED:477.56:1000000000.0:1800.0:-1
ipc-2014-optimal-tidybot-01.pddl,CRASHED:1620.7:1000000000.0:1800.0:-1
ipc-2014-optimal-tidybot-02.pddl,CRASHED:286.28:35.0:1800.0:-1
ipc-2014-optimal-tidybot-03.pddl,CRASHED:287.09:30.0:1800.0:-1
ipc-2014-optimal-tidybot-04.pddl,CRASHED:286.05:24.0:1800.0:-1
ipc-2014-optimal-tidybot-05.pddl,CRASHED:1623.24:1000000000.0:1800.0:-1
ipc-2014-optimal-tidybot-06.pddl,CRASHED:1617.76:1000000000.0:1800.0:-1
ipc-2014-optimal-tidybot-07.pddl,CRASHED:1623.64:1000000000.0:1800.0:-1
ipc-2014-optimal-tidybot-08.pddl,SAT:16.81:25.0:1800.0:-1
ipc-2014-optimal-tidybot-09.pddl,CRASHED:1564.9:1000000000.0:1800.0:-1
ipc-2014-optimal-tidybot-10.pddl,CRASHED:1556.73:1000000000.0:1800.0:-1
ipc-2014-optimal-tidybot-11.pddl,SAT:21.44:29.0:1800.0:-1
ipc-2014-optimal-tidybot-12.pddl,CRASHED:310.07:35.0:1800.0:-1
ipc-2014-optimal-tidybot-13.pddl,CRASHED:309.9:30.0:1800.0:-1
ipc-2014-optimal-tidybot-14.pddl,SAT:46.82:25.0:1800.0:-1
ipc-2014-optimal-tidybot-15.pddl,CRASHED:1622.66:1000000000.0:1800.0:-1
ipc-2014-optimal-tidybot-16.pddl,CRASHED:1617.6:1000000000.0:1800.0:-1
ipc-2014-optimal-tidybot-17.pddl,CRASHED:1617.91:1000000000.0:1800.0:-1
ipc-2014-optimal-tidybot-18.pddl,CRASHED:1622.22:1000000000.0:1800.0:-1
ipc-2014-optimal-tidybot-19.pddl,CRASHED:1633.16:1000000000.0:1800.0:-1
ipc-2014-optimal-tidybot-20.pddl,CRASHED:1632.99:1000000000.0:1800.0:-1
ipc-2014-optimal-transport-01.pddl,SAT:10.6303:148.0:1800.0:-1
ipc-2014-optimal-transport-02.pddl,SAT:33.7373:191.0:1800.0:-1
ipc-2014-optimal-transport-03.pddl,SAT:73.6924:300.0:1800.0:-1
ipc-2014-optimal-transport-04.pddl,CRASHED:1775.71:1000000000.0:1800.0:-1
ipc-2014-optimal-transport-05.pddl,CRASHED:1776.84:1000000000.0:1800.0:-1
ipc-2014-optimal-transport-06.pddl,CRASHED:1777.17:1000000000.0:1800.0:-1
ipc-2014-optimal-transport-07.pddl,SAT:68.5775:967.0:1800.0:-1
ipc-2014-optimal-transport-08.pddl,CRASHED:59.26:1173.0:1800.0:-1
ipc-2014-optimal-transport-09.pddl,CRASHED:1773.18:1000000000.0:1800.0:-1
ipc-2014-optimal-transport-10.pddl,CRASHED:58.84:1000000000.0:1800.0:-1
ipc-2014-optimal-transport-11.pddl,CRASHED:1324.85:1000000000.0:1800.0:-1
ipc-2014-optimal-transport-12.pddl,CRASHED:58.31:1000000000.0:1800.0:-1
ipc-2014-optimal-transport-13.pddl,SAT:16.0394:594.0:1800.0:-1
ipc-2014-optimal-transport-14.pddl,SAT:306.201:526.0:1800.0:-1
ipc-2014-optimal-transport-15.pddl,CRASHED:1773.55:1000000000.0:1800.0:-1
ipc-2014-optimal-transport-16.pddl,CRASHED:58.54:1000000000.0:1800.0:-1
ipc-2014-optimal-transport-17.pddl,CRASHED:57.57:1000000000.0:1800.0:-1
ipc-2014-optimal-transport-18.pddl,CRASHED:1290.68:1000000000.0:1800.0:-1
ipc-2014-optimal-transport-19.pddl,CRASHED:57.77:1000000000.0:1800.0:-1
ipc-2014-optimal-transport-20.pddl,CRASHED:57.81:1000000000.0:1800.0:-1
ipc-2014-optimal-visitall-05-10.pddl,CRASHED:1771.27:1000000000.0:1800.0:-1
ipc-2014-optimal-visitall-05-05.pddl,SAT:3.16446:21.0:1800.0:-1
ipc-2014-optimal-visitall-05-06.pddl,SAT:5.2691:25.0:1800.0:-1
ipc-2014-optimal-visitall-05-07.pddl,SAT:29.0199:34.0:1800.0:-1
ipc-2014-optimal-visitall-05-08.pddl,CRASHED:590.335:43.0:1800.0:-1
ipc-2014-optimal-visitall-05-09.pddl,CRASHED:1775.46:1000000000.0:1800.0:-1
ipc-2014-optimal-visitall-01-10.pddl,SAT:202.529:99.0:1800.0:-1
ipc-2014-optimal-visitall-01-11.pddl,SAT:202.376:120.0:1800.0:-1
ipc-2014-optimal-visitall-01-12.pddl,SAT:241.001:143.0:1800.0:-1
ipc-2014-optimal-visitall-01-13.pddl,SAT:202.069:168.0:1800.0:-1
ipc-2014-optimal-visitall-01-14.pddl,CRASHED:1553.44:1000000000.0:1800.0:-1
ipc-2014-optimal-visitall-01-15.pddl,CRASHED:1769.49:1000000000.0:1800.0:-1
ipc-2014-optimal-visitall-01-16.pddl,CRASHED:1320.69:1000000000.0:1800.0:-1
ipc-2014-optimal-visitall-01-17.pddl,CRASHED:1770.79:1000000000.0:1800.0:-1
ipc-2014-optimal-visitall-01-18.pddl,CRASHED:1773.64:1000000000.0:1800.0:-1
ipc-2014-optimal-visitall-01-05.pddl,SAT:15.2255:24.0:1800.0:-1
ipc-2014-optimal-visitall-01-06.pddl,SAT:200.826:35.0:1800.0:-1
ipc-2014-optimal-visitall-01-07.pddl,SAT:201.222:48.0:1800.0:-1
ipc-2014-optimal-visitall-01-08.pddl,SAT:200.861:63.0:1800.0:-1
ipc-2014-optimal-visitall-01-09.pddl,SAT:201.16:80.0:1800.0:-1
