instance,ipc-2014-optimal-miplan
ipc-2014-optimal-barman-p433.1.pddl,CRASHED:2.6046:1000000000.0:1800.0:-1
ipc-2014-optimal-barman-p433.2.pddl,CRASHED:2.53861:1000000000.0:1800.0:-1
ipc-2014-optimal-barman-p433.3.pddl,CRASHED:2.55761:1000000000.0:1800.0:-1
ipc-2014-optimal-barman-p435.1.pddl,CRASHED:1780.65:1000000000.0:1800.0:-1
ipc-2014-optimal-barman-p435.2.pddl,CRASHED:1778.18:1000000000.0:1800.0:-1
ipc-2014-optimal-barman-p435.3.pddl,CRASHED:1246.35:1000000000.0:1800.0:-1
ipc-2014-optimal-barman-p443.1.pddl,CRASHED:2.6186:1000000000.0:1800.0:-1
ipc-2014-optimal-barman-p443.2.pddl,CRASHED:2.54261:1000000000.0:1800.0:-1
ipc-2014-optimal-barman-p443.3.pddl,CRASHED:2.54561:1000000000.0:1800.0:-1
ipc-2014-optimal-barman-p536.1.pddl,CRASHED:1781.52:1000000000.0:1800.0:-1
ipc-2014-optimal-barman-p536.2.pddl,CRASHED:1246.52:1000000000.0:1800.0:-1
ipc-2014-optimal-barman-p536.3.pddl,CRASHED:1779.8:1000000000.0:1800.0:-1
ipc-2014-optimal-barman-p638.1.pddl,CRASHED:1781.57:1000000000.0:1800.0:-1
ipc-2014-optimal-barman-p638.2.pddl,CRASHED:1781.7:1000000000.0:1800.0:-1
ipc-2014-optimal-barman-p638.3.pddl,CRASHED:1792.38:1000000000.0:1800.0:-1
ipc-2014-optimal-barman-p739.1.pddl,CRASHED:1246.42:1000000000.0:1800.0:-1
ipc-2014-optimal-barman-p739.2.pddl,CRASHED:1244.48:1000000000.0:1800.0:-1
ipc-2014-optimal-barman-p739.3.pddl,CRASHED:1246.92:1000000000.0:1800.0:-1
ipc-2014-optimal-barman-p839.1.pddl,CRASHED:1247.33:1000000000.0:1800.0:-1
ipc-2014-optimal-barman-p839.2.pddl,CRASHED:1244.18:1000000000.0:1800.0:-1
ipc-2014-optimal-cavediving-01.pddl,CRASHED:158.317:1000000000.0:1800.0:-1
ipc-2014-optimal-cavediving-01_easy.pddl,CRASHED:148.145:1000000000.0:1800.0:-1
ipc-2014-optimal-cavediving-02_easy.pddl,CRASHED:148.407:1000000000.0:1800.0:-1
ipc-2014-optimal-cavediving-03_easy.pddl,CRASHED:146.565:1000000000.0:1800.0:-1
ipc-2014-optimal-cavediving-04_easy.pddl,CRASHED:162.424:1000000000.0:1800.0:-1
ipc-2014-optimal-cavediving-05A_easy.pddl,SAT:23.4664:94.0:1800.0:-1
ipc-2014-optimal-cavediving-06A_easy.pddl,SAT:23.4964:95.0:1800.0:-1
ipc-2014-optimal-cavediving-07_easy.pddl,SAT:38.9641:131.0:1800.0:-1
ipc-2014-optimal-cavediving-08_easy.pddl,SAT:23.4624:90.0:1800.0:-1
ipc-2014-optimal-cavediving-09_easy.pddl,CRASHED:295.601:1000000000.0:1800.0:-1
ipc-2014-optimal-cavediving-10_easy.pddl,CRASHED:301.661:1000000000.0:1800.0:-1
ipc-2014-optimal-cavediving-11_easy.pddl,CRASHED:301.399:1000000000.0:1800.0:-1
ipc-2014-optimal-cavediving-12_easy.pddl,CRASHED:302.292:1000000000.0:1800.0:-1
ipc-2014-optimal-cavediving-13_easy.pddl,CRASHED:165.768:1000000000.0:1800.0:-1
ipc-2014-optimal-cavediving-14_easy.pddl,CRASHED:165.755:1000000000.0:1800.0:-1
ipc-2014-optimal-cavediving-15_easy.pddl,CRASHED:155.843:1000000000.0:1800.0:-1
ipc-2014-optimal-cavediving-16_easy.pddl,CRASHED:163.054:1000000000.0:1800.0:-1
ipc-2014-optimal-cavediving-18A_easy.pddl,SAT:63.2684:131.0:1800.0:-1
ipc-2014-optimal-cavediving-18_easy.pddl,CRASHED:119.062:131.0:1800.0:-1
ipc-2014-optimal-cavediving-20A_easy.pddl,SAT:38.9901:98.0:1800.0:-1
ipc-2014-optimal-childsnack-01-2.pddl,CRASHED:1724.07:1000000000.0:1800.0:-1
ipc-2014-optimal-childsnack-01.pddl,CRASHED:1733.32:1000000000.0:1800.0:-1
ipc-2014-optimal-childsnack-02-2.pddl,CRASHED:195.4:1000000000.0:1800.0:-1
ipc-2014-optimal-childsnack-02.pddl,CRASHED:1727.91:1000000000.0:1800.0:-1
ipc-2014-optimal-childsnack-03-2.pddl,CRASHED:1777.23:1000000000.0:1800.0:-1
ipc-2014-optimal-childsnack-03.pddl,CRASHED:1236.79:1000000000.0:1800.0:-1
ipc-2014-optimal-childsnack-04-2.pddl,CRASHED:1780.22:1000000000.0:1800.0:-1
ipc-2014-optimal-childsnack-04.pddl,CRASHED:1247.86:1000000000.0:1800.0:-1
ipc-2014-optimal-childsnack-05-2.pddl,CRASHED:1784.22:1000000000.0:1800.0:-1
ipc-2014-optimal-childsnack-05.pddl,CRASHED:1785.98:1000000000.0:1800.0:-1
ipc-2014-optimal-childsnack-06-2.pddl,CRASHED:1242.92:1000000000.0:1800.0:-1
ipc-2014-optimal-childsnack-06.pddl,CRASHED:1780.2:1000000000.0:1800.0:-1
ipc-2014-optimal-childsnack-07-2.pddl,CRASHED:1783.8:1000000000.0:1800.0:-1
ipc-2014-optimal-childsnack-07.pddl,CRASHED:1239.0:1000000000.0:1800.0:-1
ipc-2014-optimal-childsnack-08-2.pddl,CRASHED:1234.05:1000000000.0:1800.0:-1
ipc-2014-optimal-childsnack-08.pddl,CRASHED:1793.43:1000000000.0:1800.0:-1
ipc-2014-optimal-childsnack-09-2.pddl,CRASHED:1451.88:1000000000.0:1800.0:-1
ipc-2014-optimal-childsnack-09.pddl,CRASHED:1789.2:1000000000.0:1800.0:-1
ipc-2014-optimal-childsnack-10-2.pddl,CRASHED:1787.96:1000000000.0:1800.0:-1
ipc-2014-optimal-childsnack-10.pddl,CRASHED:1787.26:1000000000.0:1800.0:-1
ipc-2014-optimal-citycar-p2-2-2-1-2.pddl,SAT:7.82481:46.0:1800.0:-1
ipc-2014-optimal-citycar-p2-2-2-2-1.pddl,SAT:12.828:64.0:1800.0:-1
ipc-2014-optimal-citycar-p2-2-3-1-2.pddl,SAT:10.2724:50.0:1800.0:-1
ipc-2014-optimal-citycar-p2-2-3-2-1.pddl,SAT:10.1345:48.0:1800.0:-1
ipc-2014-optimal-citycar-p2-2-3-2-2.pddl,SAT:10.2414:50.0:1800.0:-1
ipc-2014-optimal-citycar-p2-2-4-1-2.pddl,SAT:13.329:52.0:1800.0:-1
ipc-2014-optimal-citycar-p2-2-4-2-1.pddl,SAT:13.201:52.0:1800.0:-1
ipc-2014-optimal-citycar-p2-2-5-2-2.pddl,SAT:515.27:76.0:1800.0:-1
ipc-2014-optimal-citycar-p2-2-6-1-1.pddl,SAT:33.3119:58.0:1800.0:-1
ipc-2014-optimal-citycar-p2-2-6-2-2.pddl,SAT:33.4979:58.0:1800.0:-1
ipc-2014-optimal-citycar-p2-3-2-3-1.pddl,SAT:508.84:68.0:1800.0:-1
ipc-2014-optimal-citycar-p2-3-3-3-1.pddl,SAT:512.38:78.0:1800.0:-1
ipc-2014-optimal-citycar-p2-3-4-3-1.pddl,CRASHED:1728.82:1000000000.0:1800.0:-1
ipc-2014-optimal-citycar-p2-3-6-3-2.pddl,CRASHED:1721.32:1000000000.0:1800.0:-1
ipc-2014-optimal-citycar-p3-3-2-2-1.pddl,CRASHED:1721.45:1000000000.0:1800.0:-1
ipc-2014-optimal-citycar-p3-3-2-2-2.pddl,CRASHED:1722.09:1000000000.0:1800.0:-1
ipc-2014-optimal-citycar-p3-3-2-3-1.pddl,SAT:45.0492:48.0:1800.0:-1
ipc-2014-optimal-citycar-p3-3-2-3-2.pddl,CRASHED:1717.48:1000000000.0:1800.0:-1
ipc-2014-optimal-citycar-p3-3-3-3-1.pddl,CRASHED:1620.3:1000000000.0:1800.0:-1
ipc-2014-optimal-citycar-p3-3-3-3-2.pddl,CRASHED:1612.11:1000000000.0:1800.0:-1
ipc-2014-optimal-floortile-p01-4-3-2.pddl,SAT:132.19:56.0:1800.0:-1
ipc-2014-optimal-floortile-p01-4-4-2.pddl,SAT:463.086:68.0:1800.0:-1
ipc-2014-optimal-floortile-p01-5-3-2.pddl,CRASHED:388.486:63.0:1800.0:-1
ipc-2014-optimal-floortile-p01-5-4-2.pddl,CRASHED:1781.84:1000000000.0:1800.0:-1
ipc-2014-optimal-floortile-p01-5-5-2.pddl,CRASHED:1782.29:1000000000.0:1800.0:-1
ipc-2014-optimal-floortile-p01-6-4-2.pddl,CRASHED:1781.32:1000000000.0:1800.0:-1
ipc-2014-optimal-floortile-p01-6-5-2.pddl,CRASHED:1778.82:1000000000.0:1800.0:-1
ipc-2014-optimal-floortile-p02-4-4-2.pddl,CRASHED:1781.51:1000000000.0:1800.0:-1
ipc-2014-optimal-floortile-p02-5-3-2.pddl,CRASHED:420.93:65.0:1800.0:-1
ipc-2014-optimal-floortile-p02-5-4-2.pddl,CRASHED:1314.4:1000000000.0:1800.0:-1
ipc-2014-optimal-floortile-p02-5-5-2.pddl,CRASHED:1779.15:1000000000.0:1800.0:-1
ipc-2014-optimal-floortile-p02-6-4-2.pddl,CRASHED:1783.34:1000000000.0:1800.0:-1
ipc-2014-optimal-floortile-p02-6-5-2.pddl,CRASHED:1785.62:1000000000.0:1800.0:-1
ipc-2014-optimal-floortile-p03-4-3-2.pddl,SAT:148.65:56.0:1800.0:-1
ipc-2014-optimal-floortile-p03-4-4-2.pddl,CRASHED:1777.98:1000000000.0:1800.0:-1
ipc-2014-optimal-floortile-p03-5-3-2.pddl,CRASHED:412.66:65.0:1800.0:-1
ipc-2014-optimal-floortile-p03-5-4-2.pddl,CRASHED:1779.14:1000000000.0:1800.0:-1
ipc-2014-optimal-floortile-p03-5-5-2.pddl,CRASHED:1279.07:1000000000.0:1800.0:-1
ipc-2014-optimal-floortile-p03-6-4-2.pddl,CRASHED:1782.34:1000000000.0:1800.0:-1
ipc-2014-optimal-floortile-p03-6-5-2.pddl,CRASHED:1290.76:1000000000.0:1800.0:-1
ipc-2014-optimal-ged-d-1-2.pddl,SAT:1.23981:1.0:1800.0:-1
ipc-2014-optimal-ged-d-1-3.pddl,SAT:6.23505:4.0:1800.0:-1
ipc-2014-optimal-ged-d-1-4.pddl,SAT:1.20981:1.0:1800.0:-1
ipc-2014-optimal-ged-d-1-8.pddl,SAT:25.3321:4.0:1800.0:-1
ipc-2014-optimal-ged-d-2-1.pddl,SAT:1.21081:1.0:1800.0:-1
ipc-2014-optimal-ged-d-2-3.pddl,SAT:1.45978:3.0:1800.0:-1
ipc-2014-optimal-ged-d-2-4.pddl,SAT:1.19482:2.0:1800.0:-1
ipc-2014-optimal-ged-d-2-8.pddl,CRASHED:1306.89:1000000000.0:1800.0:-1
ipc-2014-optimal-ged-d-3-1.pddl,SAT:6.09107:4.0:1800.0:-1
ipc-2014-optimal-ged-d-3-2.pddl,SAT:1.47877:3.0:1800.0:-1
ipc-2014-optimal-ged-d-3-4.pddl,CRASHED:340.395:5.0:1800.0:-1
ipc-2014-optimal-ged-d-4-2.pddl,SAT:1.25981:2.0:1800.0:-1
ipc-2014-optimal-ged-d-4-3.pddl,CRASHED:341.588:5.0:1800.0:-1
ipc-2014-optimal-ged-d-4-8.pddl,CRASHED:1791.6:1000000000.0:1800.0:-1
ipc-2014-optimal-ged-d-7-5.pddl,SAT:25.0612:4.0:1800.0:-1
ipc-2014-optimal-ged-d-7-6.pddl,SAT:7.47586:4.0:1800.0:-1
ipc-2014-optimal-ged-d-8-1.pddl,SAT:24.5463:4.0:1800.0:-1
ipc-2014-optimal-ged-d-8-2.pddl,CRASHED:1782.7:1000000000.0:1800.0:-1
ipc-2014-optimal-ged-d-8-4.pddl,CRASHED:1783.47:1000000000.0:1800.0:-1
ipc-2014-optimal-ged-d-8-9.pddl,CRASHED:1301.69:1000000000.0:1800.0:-1
ipc-2014-optimal-hiking-1-2-3.pddl,SAT:1.24481:11.0:1800.0:-1
ipc-2014-optimal-hiking-1-2-4.pddl,SAT:20.9198:17.0:1800.0:-1
ipc-2014-optimal-hiking-1-2-5.pddl,SAT:21.2638:25.0:1800.0:-1
ipc-2014-optimal-hiking-1-2-7.pddl,SAT:25.2702:38.0:1800.0:-1
ipc-2014-optimal-hiking-1-2-8.pddl,SAT:32.669:45.0:1800.0:-1
ipc-2014-optimal-hiking-2-2-3.pddl,SAT:21.5687:10.0:1800.0:-1
ipc-2014-optimal-hiking-2-2-4.pddl,SAT:61.0137:16.0:1800.0:-1
ipc-2014-optimal-hiking-2-2-5.pddl,SAT:301.903:22.0:1800.0:-1
ipc-2014-optimal-hiking-2-2-6.pddl,CRASHED:1246.99:1000000000.0:1800.0:-1
ipc-2014-optimal-hiking-2-2-7.pddl,CRASHED:1785.3:1000000000.0:1800.0:-1
ipc-2014-optimal-hiking-2-2-8.pddl,CRASHED:1788.43:1000000000.0:1800.0:-1
ipc-2014-optimal-hiking-2-3-4.pddl,SAT:210.801:17.0:1800.0:-1
ipc-2014-optimal-hiking-2-3-5.pddl,SAT:472.611:24.0:1800.0:-1
ipc-2014-optimal-hiking-2-3-6.pddl,CRASHED:1246.32:1000000000.0:1800.0:-1
ipc-2014-optimal-hiking-2-3-7.pddl,CRASHED:1787.74:1000000000.0:1800.0:-1
ipc-2014-optimal-hiking-2-4-3.pddl,SAT:25.1392:10.0:1800.0:-1
ipc-2014-optimal-hiking-2-4-4.pddl,SAT:321.332:17.0:1800.0:-1
ipc-2014-optimal-hiking-2-4-5.pddl,CRASHED:1789.22:1000000000.0:1800.0:-1
ipc-2014-optimal-hiking-2-4-6.pddl,CRASHED:1791.22:1000000000.0:1800.0:-1
ipc-2014-optimal-hiking-2-4-7.pddl,CRASHED:1800.83:1000000000.0:1800.0:-1
ipc-2014-optimal-maintenance-1.3.010.010.1-001.pddl,CRASHED:2.33664:1000000000.0:1800.0:-1
ipc-2014-optimal-maintenance-1.3.010.010.1-002.pddl,CRASHED:2.34364:1000000000.0:1800.0:-1
ipc-2014-optimal-maintenance-1.3.010.010.2-000.pddl,SAT:0.629904:4.0:1800.0:-1
ipc-2014-optimal-maintenance-1.3.010.010.2-001.pddl,SAT:0.620905:7.0:1800.0:-1
ipc-2014-optimal-maintenance-1.3.010.010.2-002.pddl,SAT:0.620905:6.0:1800.0:-1
ipc-2014-optimal-maintenance-1.3.015.020.1-000.pddl,CRASHED:5.30019:1000000000.0:1800.0:-1
ipc-2014-optimal-maintenance-1.3.015.020.1-001.pddl,CRASHED:14.8797:1000000000.0:1800.0:-1
ipc-2014-optimal-maintenance-1.3.015.020.1-002.pddl,CRASHED:22.2006:1000000000.0:1800.0:-1
ipc-2014-optimal-maintenance-1.3.015.020.2-000.pddl,CRASHED:120.171:1000000000.0:1800.0:-1
ipc-2014-optimal-maintenance-1.3.015.020.2-001.pddl,SAT:0.735887:11.0:1800.0:-1
ipc-2014-optimal-maintenance-1.3.015.020.2-002.pddl,SAT:0.757884:9.0:1800.0:-1
ipc-2014-optimal-maintenance-1.3.025.050.1-000.pddl,CRASHED:190.713:1000000000.0:1800.0:-1
ipc-2014-optimal-maintenance-1.3.025.050.1-001.pddl,CRASHED:204.92:1000000000.0:1800.0:-1
ipc-2014-optimal-maintenance-1.3.025.050.1-002.pddl,CRASHED:181.778:1000000000.0:1800.0:-1
ipc-2014-optimal-maintenance-1.3.025.100.1-000.pddl,CRASHED:163.638:1000000000.0:1800.0:-1
ipc-2014-optimal-maintenance-1.3.025.100.1-001.pddl,CRASHED:158.328:1000000000.0:1800.0:-1
ipc-2014-optimal-maintenance-1.3.025.100.1-002.pddl,CRASHED:164.483:1000000000.0:1800.0:-1
ipc-2014-optimal-maintenance-1.3.025.100.2-000.pddl,CRASHED:1096.95:1000000000.0:1800.0:-1
ipc-2014-optimal-maintenance-1.3.025.100.2-001.pddl,CRASHED:1363.98:1000000000.0:1800.0:-1
ipc-2014-optimal-maintenance-1.3.025.100.2-002.pddl,CRASHED:195.3:1000000000.0:1800.0:-1
ipc-2014-optimal-openstacks-p20_1.pddl,CRASHED:1474.64:3.0:1800.0:-1
ipc-2014-optimal-openstacks-p20_2.pddl,CRASHED:1568.05:4.0:1800.0:-1
ipc-2014-optimal-openstacks-p20_3.pddl,SAT:43.2094:6.0:1800.0:-1
ipc-2014-optimal-openstacks-p25_1.pddl,CRASHED:1779.43:1000000000.0:1800.0:-1
ipc-2014-optimal-openstacks-p25_3.pddl,CRASHED:1265.49:1000000000.0:1800.0:-1
ipc-2014-optimal-openstacks-p30_1.pddl,CRASHED:1779.75:1000000000.0:1800.0:-1
ipc-2014-optimal-openstacks-p30_2.pddl,CRASHED:1787.66:1000000000.0:1800.0:-1
ipc-2014-optimal-openstacks-p30_3.pddl,CRASHED:1786.71:1000000000.0:1800.0:-1
ipc-2014-optimal-openstacks-p35_1.pddl,CRASHED:1787.93:1000000000.0:1800.0:-1
ipc-2014-optimal-openstacks-p35_2.pddl,CRASHED:1782.95:1000000000.0:1800.0:-1
ipc-2014-optimal-openstacks-p35_3.pddl,CRASHED:1787.05:1000000000.0:1800.0:-1
ipc-2014-optimal-openstacks-p40_1.pddl,CRASHED:1783.31:1000000000.0:1800.0:-1
ipc-2014-optimal-openstacks-p40_2.pddl,CRASHED:1777.47:1000000000.0:1800.0:-1
ipc-2014-optimal-openstacks-p40_3.pddl,CRASHED:1782.32:1000000000.0:1800.0:-1
ipc-2014-optimal-openstacks-p45_1.pddl,CRASHED:1778.68:1000000000.0:1800.0:-1
ipc-2014-optimal-openstacks-p45_2.pddl,CRASHED:160.13:1000000000.0:1800.0:-1
ipc-2014-optimal-openstacks-p45_3.pddl,CRASHED:1291.75:1000000000.0:1800.0:-1
ipc-2014-optimal-openstacks-p50_1.pddl,CRASHED:1779.17:1000000000.0:1800.0:-1
ipc-2014-optimal-openstacks-p50_2.pddl,CRASHED:1407.61:1000000000.0:1800.0:-1
ipc-2014-optimal-openstacks-p50_3.pddl,CRASHED:1475.7:1000000000.0:1800.0:-1
ipc-2014-optimal-parking-12_7-01.pddl,SAT:80.64:18.0:1800.0:-1
ipc-2014-optimal-parking-12_7-02.pddl,SAT:184.063:18.0:1800.0:-1
ipc-2014-optimal-parking-12_7-03.pddl,SAT:179.633:17.0:1800.0:-1
ipc-2014-optimal-parking-12_7-04.pddl,SAT:201.096:19.0:1800.0:-1
ipc-2014-optimal-parking-14_8-01.pddl,TIMEOUT:1801.05:-1.0:1800.0:-1
ipc-2014-optimal-parking-14_8-02.pddl,SAT:332.353:22.0:1800.0:-1
ipc-2014-optimal-parking-14_8-03.pddl,SAT:217.013:21.0:1800.0:-1
ipc-2014-optimal-parking-14_8-04.pddl,CRASHED:1796.72:1000000000.0:1800.0:-1
ipc-2014-optimal-parking-16_9-01.pddl,CRASHED:1794.51:1000000000.0:1800.0:-1
ipc-2014-optimal-parking-16_9-02.pddl,CRASHED:1794.66:1000000000.0:1800.0:-1
ipc-2014-optimal-parking-16_9-03.pddl,CRASHED:1793.66:1000000000.0:1800.0:-1
ipc-2014-optimal-parking-16_9-04.pddl,CRASHED:1487.61:1000000000.0:1800.0:-1
ipc-2014-optimal-parking-18_10-01.pddl,CRASHED:321.42:1000000000.0:1800.0:-1
ipc-2014-optimal-parking-18_10-02.pddl,CRASHED:1625.98:1000000000.0:1800.0:-1
ipc-2014-optimal-parking-18_10-03.pddl,CRASHED:320.98:1000000000.0:1800.0:-1
ipc-2014-optimal-parking-18_10-04.pddl,CRASHED:321.46:1000000000.0:1800.0:-1
ipc-2014-optimal-parking-20_11-01.pddl,CRASHED:1527.14:1000000000.0:1800.0:-1
ipc-2014-optimal-parking-20_11-02.pddl,CRASHED:321.07:1000000000.0:1800.0:-1
ipc-2014-optimal-parking-20_11-03.pddl,CRASHED:1529.52:1000000000.0:1800.0:-1
ipc-2014-optimal-parking-20_11-04.pddl,CRASHED:322.02:1000000000.0:1800.0:-1
ipc-2014-optimal-tetris-01-10.pddl,CRASHED:519.04:1000000000.0:1800.0:-1
ipc-2014-optimal-tetris-01-04.pddl,CRASHED:81.97:1000000000.0:1800.0:-1
ipc-2014-optimal-tetris-01-06.pddl,SAT:257.091:30.0:1800.0:-1
ipc-2014-optimal-tetris-01-08.pddl,CRASHED:49.8764:36.0:1800.0:-1
ipc-2014-optimal-tetris-02-10.pddl,CRASHED:523.79:1000000000.0:1800.0:-1
ipc-2014-optimal-tetris-02-04.pddl,SAT:0.884865:10.0:1800.0:-1
ipc-2014-optimal-tetris-02-06.pddl,SAT:54.4507:30.0:1800.0:-1
ipc-2014-optimal-tetris-02-08.pddl,CRASHED:714.48:1000000000.0:1800.0:-1
ipc-2014-optimal-tetris-03-10.pddl,CRASHED:520.73:1000000000.0:1800.0:-1
ipc-2014-optimal-tetris-03-04.pddl,SAT:22.6106:11.0:1800.0:-1
ipc-2014-optimal-tetris-03-06.pddl,SAT:192.888:21.0:1800.0:-1
ipc-2014-optimal-tetris-03-08.pddl,CRASHED:1758.49:1000000000.0:1800.0:-1
ipc-2014-optimal-tetris-04-10.pddl,CRASHED:516.11:1000000000.0:1800.0:-1
ipc-2014-optimal-tetris-04-04.pddl,CRASHED:287.444:1000000000.0:1800.0:-1
ipc-2014-optimal-tetris-04-06.pddl,SAT:236.013:27.0:1800.0:-1
ipc-2014-optimal-tetris-04-08.pddl,CRASHED:712.13:1000000000.0:1800.0:-1
ipc-2014-optimal-tetris-05-10.pddl,CRASHED:1637.53:1000000000.0:1800.0:-1
ipc-2014-optimal-tetris-05-04.pddl,CRASHED:197.5:1000000000.0:1800.0:-1
ipc-2014-optimal-tetris-05-06.pddl,SAT:25.1622:19.0:1800.0:-1
ipc-2014-optimal-tetris-05-08.pddl,CRASHED:517.79:1000000000.0:1800.0:-1
ipc-2014-optimal-tidybot-01.pddl,CRASHED:1709.17:1000000000.0:1800.0:-1
ipc-2014-optimal-tidybot-02.pddl,CRASHED:320.62:35.0:1800.0:-1
ipc-2014-optimal-tidybot-03.pddl,CRASHED:320.25:30.0:1800.0:-1
ipc-2014-optimal-tidybot-04.pddl,CRASHED:321.97:24.0:1800.0:-1
ipc-2014-optimal-tidybot-05.pddl,CRASHED:1713.16:1000000000.0:1800.0:-1
ipc-2014-optimal-tidybot-06.pddl,CRASHED:1708.67:1000000000.0:1800.0:-1
ipc-2014-optimal-tidybot-07.pddl,CRASHED:1713.09:1000000000.0:1800.0:-1
ipc-2014-optimal-tidybot-08.pddl,SAT:59.5259:25.0:1800.0:-1
ipc-2014-optimal-tidybot-09.pddl,CRASHED:1686.67:1000000000.0:1800.0:-1
ipc-2014-optimal-tidybot-10.pddl,CRASHED:1680.17:1000000000.0:1800.0:-1
ipc-2014-optimal-tidybot-11.pddl,SAT:43.3294:29.0:1800.0:-1
ipc-2014-optimal-tidybot-12.pddl,CRASHED:321.85:35.0:1800.0:-1
ipc-2014-optimal-tidybot-13.pddl,CRASHED:321.77:30.0:1800.0:-1
ipc-2014-optimal-tidybot-14.pddl,SAT:49.4685:25.0:1800.0:-1
ipc-2014-optimal-tidybot-15.pddl,CRASHED:1706.78:1000000000.0:1800.0:-1
ipc-2014-optimal-tidybot-16.pddl,CRASHED:1708.03:1000000000.0:1800.0:-1
ipc-2014-optimal-tidybot-17.pddl,CRASHED:1708.39:1000000000.0:1800.0:-1
ipc-2014-optimal-tidybot-18.pddl,CRASHED:1705.79:1000000000.0:1800.0:-1
ipc-2014-optimal-tidybot-19.pddl,CRASHED:1708.26:1000000000.0:1800.0:-1
ipc-2014-optimal-tidybot-20.pddl,CRASHED:1701.66:1000000000.0:1800.0:-1
ipc-2014-optimal-transport-01.pddl,SAT:21.3638:148.0:1800.0:-1
ipc-2014-optimal-transport-02.pddl,SAT:25.5411:191.0:1800.0:-1
ipc-2014-optimal-transport-03.pddl,SAT:68.8455:300.0:1800.0:-1
ipc-2014-optimal-transport-04.pddl,CRASHED:1287.23:1000000000.0:1800.0:-1
ipc-2014-optimal-transport-05.pddl,CRASHED:1325.61:1000000000.0:1800.0:-1
ipc-2014-optimal-transport-06.pddl,CRASHED:1780.7:1000000000.0:1800.0:-1
ipc-2014-optimal-transport-07.pddl,SAT:63.6623:967.0:1800.0:-1
ipc-2014-optimal-transport-08.pddl,CRASHED:496.098:1173.0:1800.0:-1
ipc-2014-optimal-transport-09.pddl,CRASHED:1785.99:1000000000.0:1800.0:-1
ipc-2014-optimal-transport-10.pddl,CRASHED:1783.26:1000000000.0:1800.0:-1
ipc-2014-optimal-transport-11.pddl,CRASHED:195.93:1000000000.0:1800.0:-1
ipc-2014-optimal-transport-12.pddl,CRASHED:1780.75:1000000000.0:1800.0:-1
ipc-2014-optimal-transport-13.pddl,SAT:32.3631:594.0:1800.0:-1
ipc-2014-optimal-transport-14.pddl,SAT:70.26:526.0:1800.0:-1
ipc-2014-optimal-transport-15.pddl,CRASHED:1789.6:1000000000.0:1800.0:-1
ipc-2014-optimal-transport-16.pddl,CRASHED:1790.13:1000000000.0:1800.0:-1
ipc-2014-optimal-transport-17.pddl,CRASHED:1793.06:1000000000.0:1800.0:-1
ipc-2014-optimal-transport-18.pddl,CRASHED:1245.7:1000000000.0:1800.0:-1
ipc-2014-optimal-transport-19.pddl,CRASHED:1795.06:1000000000.0:1800.0:-1
ipc-2014-optimal-transport-20.pddl,CRASHED:1797.06:1000000000.0:1800.0:-1
ipc-2014-optimal-visitall-05-10.pddl,CRASHED:1784.76:1000000000.0:1800.0:-1
ipc-2014-optimal-visitall-05-05.pddl,SAT:4.02539:21.0:1800.0:-1
ipc-2014-optimal-visitall-05-06.pddl,SAT:6.60899:25.0:1800.0:-1
ipc-2014-optimal-visitall-05-07.pddl,SAT:115.531:34.0:1800.0:-1
ipc-2014-optimal-visitall-05-08.pddl,CRASHED:656.042:43.0:1800.0:-1
ipc-2014-optimal-visitall-05-09.pddl,CRASHED:1784.61:1000000000.0:1800.0:-1
ipc-2014-optimal-visitall-01-10.pddl,SAT:173.053:99.0:1800.0:-1
ipc-2014-optimal-visitall-01-11.pddl,SAT:173.586:120.0:1800.0:-1
ipc-2014-optimal-visitall-01-12.pddl,SAT:218.438:143.0:1800.0:-1
ipc-2014-optimal-visitall-01-13.pddl,SAT:174.112:168.0:1800.0:-1
ipc-2014-optimal-visitall-01-14.pddl,CRASHED:1777.7:1000000000.0:1800.0:-1
ipc-2014-optimal-visitall-01-15.pddl,CRASHED:1269.92:1000000000.0:1800.0:-1
ipc-2014-optimal-visitall-01-16.pddl,CRASHED:1531.94:1000000000.0:1800.0:-1
ipc-2014-optimal-visitall-01-17.pddl,CRASHED:1784.83:1000000000.0:1800.0:-1
ipc-2014-optimal-visitall-01-18.pddl,CRASHED:1789.01:1000000000.0:1800.0:-1
ipc-2014-optimal-visitall-01-05.pddl,SAT:25.1462:24.0:1800.0:-1
ipc-2014-optimal-visitall-01-06.pddl,SAT:172.531:35.0:1800.0:-1
ipc-2014-optimal-visitall-01-07.pddl,SAT:172.179:48.0:1800.0:-1
ipc-2014-optimal-visitall-01-08.pddl,SAT:172.554:63.0:1800.0:-1
ipc-2014-optimal-visitall-01-09.pddl,SAT:172.779:80.0:1800.0:-1
