instance,ipc-2014-optimal-hpp-ce
ipc-2014-optimal-barman-p433.1.pddl,TIMEOUT:1801.07:-1.0:1800.0:-1
ipc-2014-optimal-barman-p433.2.pddl,TIMEOUT:1801.02:-1.0:1800.0:-1
ipc-2014-optimal-barman-p433.3.pddl,TIMEOUT:1801.07:-1.0:1800.0:-1
ipc-2014-optimal-barman-p435.1.pddl,TIMEOUT:1801.07:-1.0:1800.0:-1
ipc-2014-optimal-barman-p435.2.pddl,TIMEOUT:1801.11:-1.0:1800.0:-1
ipc-2014-optimal-barman-p435.3.pddl,TIMEOUT:1801.1:-1.0:1800.0:-1
ipc-2014-optimal-barman-p443.1.pddl,TIMEOUT:1801.08:-1.0:1800.0:-1
ipc-2014-optimal-barman-p443.2.pddl,TIMEOUT:1801.1:-1.0:1800.0:-1
ipc-2014-optimal-barman-p443.3.pddl,TIMEOUT:1801.09:-1.0:1800.0:-1
ipc-2014-optimal-barman-p536.1.pddl,TIMEOUT:1801.1:-1.0:1800.0:-1
ipc-2014-optimal-barman-p536.2.pddl,TIMEOUT:1801.07:-1.0:1800.0:-1
ipc-2014-optimal-barman-p536.3.pddl,TIMEOUT:1801.03:-1.0:1800.0:-1
ipc-2014-optimal-barman-p638.1.pddl,TIMEOUT:1801.06:-1.0:1800.0:-1
ipc-2014-optimal-barman-p638.2.pddl,TIMEOUT:1801.08:-1.0:1800.0:-1
ipc-2014-optimal-barman-p638.3.pddl,TIMEOUT:1801.04:-1.0:1800.0:-1
ipc-2014-optimal-barman-p739.1.pddl,TIMEOUT:1801.03:-1.0:1800.0:-1
ipc-2014-optimal-barman-p739.2.pddl,TIMEOUT:1801.06:-1.0:1800.0:-1
ipc-2014-optimal-barman-p739.3.pddl,TIMEOUT:1801.03:-1.0:1800.0:-1
ipc-2014-optimal-barman-p839.1.pddl,TIMEOUT:1801.07:-1.0:1800.0:-1
ipc-2014-optimal-barman-p839.2.pddl,TIMEOUT:1801.07:-1.0:1800.0:-1
ipc-2014-optimal-cavediving-01.pddl,TIMEOUT:1801.05:-1.0:1800.0:-1
ipc-2014-optimal-cavediving-01_easy.pddl,TIMEOUT:1801.06:-1.0:1800.0:-1
ipc-2014-optimal-cavediving-02_easy.pddl,TIMEOUT:1801.07:-1.0:1800.0:-1
ipc-2014-optimal-cavediving-03_easy.pddl,TIMEOUT:1801.01:-1.0:1800.0:-1
ipc-2014-optimal-cavediving-04_easy.pddl,TIMEOUT:1801.05:-1.0:1800.0:-1
ipc-2014-optimal-cavediving-05A_easy.pddl,TIMEOUT:1801.06:-1.0:1800.0:-1
ipc-2014-optimal-cavediving-06A_easy.pddl,TIMEOUT:1801.05:-1.0:1800.0:-1
ipc-2014-optimal-cavediving-07_easy.pddl,TIMEOUT:1801.03:-1.0:1800.0:-1
ipc-2014-optimal-cavediving-08_easy.pddl,TIMEOUT:1801.01:-1.0:1800.0:-1
ipc-2014-optimal-cavediving-09_easy.pddl,TIMEOUT:1801.03:-1.0:1800.0:-1
ipc-2014-optimal-cavediving-10_easy.pddl,TIMEOUT:1801.11:-1.0:1800.0:-1
ipc-2014-optimal-cavediving-11_easy.pddl,TIMEOUT:1801.02:-1.0:1800.0:-1
ipc-2014-optimal-cavediving-12_easy.pddl,TIMEOUT:1801.07:-1.0:1800.0:-1
ipc-2014-optimal-cavediving-13_easy.pddl,TIMEOUT:1801.02:-1.0:1800.0:-1
ipc-2014-optimal-cavediving-14_easy.pddl,TIMEOUT:1801.01:-1.0:1800.0:-1
ipc-2014-optimal-cavediving-15_easy.pddl,TIMEOUT:1801.06:-1.0:1800.0:-1
ipc-2014-optimal-cavediving-16_easy.pddl,TIMEOUT:1801.04:-1.0:1800.0:-1
ipc-2014-optimal-cavediving-18A_easy.pddl,TIMEOUT:1801.1:-1.0:1800.0:-1
ipc-2014-optimal-cavediving-18_easy.pddl,TIMEOUT:1801.09:-1.0:1800.0:-1
ipc-2014-optimal-cavediving-20A_easy.pddl,TIMEOUT:1801.06:-1.0:1800.0:-1
ipc-2014-optimal-childsnack-01-2.pddl,TIMEOUT:1801.1:-1.0:1800.0:-1
ipc-2014-optimal-childsnack-01.pddl,TIMEOUT:1801.05:-1.0:1800.0:-1
ipc-2014-optimal-childsnack-02-2.pddl,TIMEOUT:1801.04:-1.0:1800.0:-1
ipc-2014-optimal-childsnack-02.pddl,TIMEOUT:1801.05:-1.0:1800.0:-1
ipc-2014-optimal-childsnack-03-2.pddl,TIMEOUT:1801.07:-1.0:1800.0:-1
ipc-2014-optimal-childsnack-03.pddl,TIMEOUT:1801.1:-1.0:1800.0:-1
ipc-2014-optimal-childsnack-04-2.pddl,TIMEOUT:1801.02:-1.0:1800.0:-1
ipc-2014-optimal-childsnack-04.pddl,TIMEOUT:1801.02:-1.0:1800.0:-1
ipc-2014-optimal-childsnack-05-2.pddl,TIMEOUT:1801.06:-1.0:1800.0:-1
ipc-2014-optimal-childsnack-05.pddl,TIMEOUT:1801.06:-1.0:1800.0:-1
ipc-2014-optimal-childsnack-06-2.pddl,TIMEOUT:1801.06:-1.0:1800.0:-1
ipc-2014-optimal-childsnack-06.pddl,TIMEOUT:1801.09:-1.0:1800.0:-1
ipc-2014-optimal-childsnack-07-2.pddl,TIMEOUT:1801.05:-1.0:1800.0:-1
ipc-2014-optimal-childsnack-07.pddl,TIMEOUT:1801.08:-1.0:1800.0:-1
ipc-2014-optimal-childsnack-08-2.pddl,TIMEOUT:1801.1:-1.0:1800.0:-1
ipc-2014-optimal-childsnack-08.pddl,TIMEOUT:1801.02:-1.0:1800.0:-1
ipc-2014-optimal-childsnack-09-2.pddl,TIMEOUT:1801.02:-1.0:1800.0:-1
ipc-2014-optimal-childsnack-09.pddl,TIMEOUT:1801.09:-1.0:1800.0:-1
ipc-2014-optimal-childsnack-10-2.pddl,TIMEOUT:1801.04:-1.0:1800.0:-1
ipc-2014-optimal-childsnack-10.pddl,TIMEOUT:1801.08:-1.0:1800.0:-1
ipc-2014-optimal-citycar-p2-2-2-1-2.pddl,SAT:2.80387:46.0:1800.0:-1
ipc-2014-optimal-citycar-p2-2-2-2-1.pddl,SAT:26.9703:64.0:1800.0:-1
ipc-2014-optimal-citycar-p2-2-3-1-2.pddl,SAT:667.286:50.0:1800.0:-1
ipc-2014-optimal-citycar-p2-2-3-2-1.pddl,SAT:71.5565:48.0:1800.0:-1
ipc-2014-optimal-citycar-p2-2-3-2-2.pddl,SAT:923.062:50.0:1800.0:-1
ipc-2014-optimal-citycar-p2-2-4-1-2.pddl,TIMEOUT:1801.05:-1.0:1800.0:-1
ipc-2014-optimal-citycar-p2-2-4-2-1.pddl,TIMEOUT:1801.04:-1.0:1800.0:-1
ipc-2014-optimal-citycar-p2-2-5-2-2.pddl,TIMEOUT:1801.06:-1.0:1800.0:-1
ipc-2014-optimal-citycar-p2-2-6-1-1.pddl,TIMEOUT:1801.11:-1.0:1800.0:-1
ipc-2014-optimal-citycar-p2-2-6-2-2.pddl,TIMEOUT:1801.11:-1.0:1800.0:-1
ipc-2014-optimal-citycar-p2-3-2-3-1.pddl,SAT:1124.84:68.0:1800.0:-1
ipc-2014-optimal-citycar-p2-3-3-3-1.pddl,TIMEOUT:1801.07:-1.0:1800.0:-1
ipc-2014-optimal-citycar-p2-3-4-3-1.pddl,TIMEOUT:1801.12:-1.0:1800.0:-1
ipc-2014-optimal-citycar-p2-3-6-3-2.pddl,TIMEOUT:1801.04:-1.0:1800.0:-1
ipc-2014-optimal-citycar-p3-3-2-2-1.pddl,TIMEOUT:1801.02:-1.0:1800.0:-1
ipc-2014-optimal-citycar-p3-3-2-2-2.pddl,TIMEOUT:1801.09:-1.0:1800.0:-1
ipc-2014-optimal-citycar-p3-3-2-3-1.pddl,SAT:198.463:48.0:1800.0:-1
ipc-2014-optimal-citycar-p3-3-2-3-2.pddl,TIMEOUT:1801.02:-1.0:1800.0:-1
ipc-2014-optimal-citycar-p3-3-3-3-1.pddl,TIMEOUT:1801.1:-1.0:1800.0:-1
ipc-2014-optimal-citycar-p3-3-3-3-2.pddl,TIMEOUT:1801.01:-1.0:1800.0:-1
ipc-2014-optimal-floortile-p01-4-3-2.pddl,CRASHED:0.007637:1000000000.0:1800.0:-1
ipc-2014-optimal-floortile-p01-4-4-2.pddl,CRASHED:0.007145:1000000000.0:1800.0:-1
ipc-2014-optimal-floortile-p01-5-3-2.pddl,CRASHED:0.008239:1000000000.0:1800.0:-1
ipc-2014-optimal-floortile-p01-5-4-2.pddl,CRASHED:0.008286:1000000000.0:1800.0:-1
ipc-2014-optimal-floortile-p01-5-5-2.pddl,CRASHED:0.006973:1000000000.0:1800.0:-1
ipc-2014-optimal-floortile-p01-6-4-2.pddl,CRASHED:0.007355:1000000000.0:1800.0:-1
ipc-2014-optimal-floortile-p01-6-5-2.pddl,CRASHED:0.008184:1000000000.0:1800.0:-1
ipc-2014-optimal-floortile-p02-4-4-2.pddl,CRASHED:0.008265:1000000000.0:1800.0:-1
ipc-2014-optimal-floortile-p02-5-3-2.pddl,CRASHED:0.008266:1000000000.0:1800.0:-1
ipc-2014-optimal-floortile-p02-5-4-2.pddl,CRASHED:0.00819:1000000000.0:1800.0:-1
ipc-2014-optimal-floortile-p02-5-5-2.pddl,CRASHED:0.007827:1000000000.0:1800.0:-1
ipc-2014-optimal-floortile-p02-6-4-2.pddl,CRASHED:0.007153:1000000000.0:1800.0:-1
ipc-2014-optimal-floortile-p02-6-5-2.pddl,CRASHED:0.00698:1000000000.0:1800.0:-1
ipc-2014-optimal-floortile-p03-4-3-2.pddl,CRASHED:0.007217:1000000000.0:1800.0:-1
ipc-2014-optimal-floortile-p03-4-4-2.pddl,CRASHED:0.006798:1000000000.0:1800.0:-1
ipc-2014-optimal-floortile-p03-5-3-2.pddl,CRASHED:0.006513:1000000000.0:1800.0:-1
ipc-2014-optimal-floortile-p03-5-4-2.pddl,CRASHED:0.007064:1000000000.0:1800.0:-1
ipc-2014-optimal-floortile-p03-5-5-2.pddl,CRASHED:0.006675:1000000000.0:1800.0:-1
ipc-2014-optimal-floortile-p03-6-4-2.pddl,CRASHED:0.007408:1000000000.0:1800.0:-1
ipc-2014-optimal-floortile-p03-6-5-2.pddl,CRASHED:0.006829:1000000000.0:1800.0:-1
ipc-2014-optimal-ged-d-1-2.pddl,SAT:0.248678:1.0:1800.0:-1
ipc-2014-optimal-ged-d-1-3.pddl,TIMEOUT:1801.01:-1.0:1800.0:-1
ipc-2014-optimal-ged-d-1-4.pddl,SAT:0.241339:1.0:1800.0:-1
ipc-2014-optimal-ged-d-1-8.pddl,TIMEOUT:1801.03:-1.0:1800.0:-1
ipc-2014-optimal-ged-d-2-1.pddl,SAT:0.256938:1.0:1800.0:-1
ipc-2014-optimal-ged-d-2-3.pddl,TIMEOUT:1801.08:-1.0:1800.0:-1
ipc-2014-optimal-ged-d-2-4.pddl,CRASHED:43.9351:1000000000.0:1800.0:-1
ipc-2014-optimal-ged-d-2-8.pddl,TIMEOUT:1801.04:-1.0:1800.0:-1
ipc-2014-optimal-ged-d-3-1.pddl,TIMEOUT:1801.04:-1.0:1800.0:-1
ipc-2014-optimal-ged-d-3-2.pddl,TIMEOUT:1801.08:-1.0:1800.0:-1
ipc-2014-optimal-ged-d-3-4.pddl,TIMEOUT:1801.07:-1.0:1800.0:-1
ipc-2014-optimal-ged-d-4-2.pddl,TIMEOUT:1801.08:-1.0:1800.0:-1
ipc-2014-optimal-ged-d-4-3.pddl,TIMEOUT:1801.03:-1.0:1800.0:-1
ipc-2014-optimal-ged-d-4-8.pddl,TIMEOUT:1801.02:-1.0:1800.0:-1
ipc-2014-optimal-ged-d-7-5.pddl,TIMEOUT:1801.05:-1.0:1800.0:-1
ipc-2014-optimal-ged-d-7-6.pddl,TIMEOUT:1801.03:-1.0:1800.0:-1
ipc-2014-optimal-ged-d-8-1.pddl,TIMEOUT:1801.1:-1.0:1800.0:-1
ipc-2014-optimal-ged-d-8-2.pddl,TIMEOUT:1801.02:-1.0:1800.0:-1
ipc-2014-optimal-ged-d-8-4.pddl,TIMEOUT:1801.02:-1.0:1800.0:-1
ipc-2014-optimal-ged-d-8-9.pddl,TIMEOUT:1801.11:-1.0:1800.0:-1
ipc-2014-optimal-hiking-1-2-3.pddl,TIMEOUT:1801.04:-1.0:1800.0:-1
ipc-2014-optimal-hiking-1-2-4.pddl,TIMEOUT:1801.02:-1.0:1800.0:-1
ipc-2014-optimal-hiking-1-2-5.pddl,TIMEOUT:1801.04:-1.0:1800.0:-1
ipc-2014-optimal-hiking-1-2-7.pddl,TIMEOUT:1801.04:-1.0:1800.0:-1
ipc-2014-optimal-hiking-1-2-8.pddl,TIMEOUT:1801.07:-1.0:1800.0:-1
ipc-2014-optimal-hiking-2-2-3.pddl,TIMEOUT:1801.09:-1.0:1800.0:-1
ipc-2014-optimal-hiking-2-2-4.pddl,TIMEOUT:1801.07:-1.0:1800.0:-1
ipc-2014-optimal-hiking-2-2-5.pddl,TIMEOUT:1801.08:-1.0:1800.0:-1
ipc-2014-optimal-hiking-2-2-6.pddl,TIMEOUT:1801.08:-1.0:1800.0:-1
ipc-2014-optimal-hiking-2-2-7.pddl,TIMEOUT:1801.03:-1.0:1800.0:-1
ipc-2014-optimal-hiking-2-2-8.pddl,TIMEOUT:1801.06:-1.0:1800.0:-1
ipc-2014-optimal-hiking-2-3-4.pddl,TIMEOUT:1801.09:-1.0:1800.0:-1
ipc-2014-optimal-hiking-2-3-5.pddl,TIMEOUT:1801.09:-1.0:1800.0:-1
ipc-2014-optimal-hiking-2-3-6.pddl,TIMEOUT:1801.1:-1.0:1800.0:-1
ipc-2014-optimal-hiking-2-3-7.pddl,TIMEOUT:1801.05:-1.0:1800.0:-1
ipc-2014-optimal-hiking-2-4-3.pddl,TIMEOUT:1801.04:-1.0:1800.0:-1
ipc-2014-optimal-hiking-2-4-4.pddl,TIMEOUT:1801.05:-1.0:1800.0:-1
ipc-2014-optimal-hiking-2-4-5.pddl,TIMEOUT:1801.09:-1.0:1800.0:-1
ipc-2014-optimal-hiking-2-4-6.pddl,TIMEOUT:1801.04:-1.0:1800.0:-1
ipc-2014-optimal-hiking-2-4-7.pddl,TIMEOUT:1801.0:-1.0:1800.0:-1
ipc-2014-optimal-maintenance-1.3.010.010.1-001.pddl,CRASHED:0.010183:1000000000.0:1800.0:-1
ipc-2014-optimal-maintenance-1.3.010.010.1-002.pddl,CRASHED:0.010076:1000000000.0:1800.0:-1
ipc-2014-optimal-maintenance-1.3.010.010.2-000.pddl,SAT:0.010766:4.0:1800.0:-1
ipc-2014-optimal-maintenance-1.3.010.010.2-001.pddl,SAT:0.038532:7.0:1800.0:-1
ipc-2014-optimal-maintenance-1.3.010.010.2-002.pddl,SAT:0.017749:6.0:1800.0:-1
ipc-2014-optimal-maintenance-1.3.015.020.1-000.pddl,CRASHED:0.016065:1000000000.0:1800.0:-1
ipc-2014-optimal-maintenance-1.3.015.020.1-001.pddl,CRASHED:0.0171:1000000000.0:1800.0:-1
ipc-2014-optimal-maintenance-1.3.015.020.1-002.pddl,CRASHED:0.016586:1000000000.0:1800.0:-1
ipc-2014-optimal-maintenance-1.3.015.020.2-000.pddl,TIMEOUT:1801.04:-1.0:1800.0:-1
ipc-2014-optimal-maintenance-1.3.015.020.2-001.pddl,SAT:0.066915:11.0:1800.0:-1
ipc-2014-optimal-maintenance-1.3.015.020.2-002.pddl,SAT:0.023523:9.0:1800.0:-1
ipc-2014-optimal-maintenance-1.3.025.050.1-000.pddl,CRASHED:0.026502:1000000000.0:1800.0:-1
ipc-2014-optimal-maintenance-1.3.025.050.1-001.pddl,CRASHED:0.024209:1000000000.0:1800.0:-1
ipc-2014-optimal-maintenance-1.3.025.050.1-002.pddl,CRASHED:0.019465:1000000000.0:1800.0:-1
ipc-2014-optimal-maintenance-1.3.025.100.1-000.pddl,CRASHED:0.017838:1000000000.0:1800.0:-1
ipc-2014-optimal-maintenance-1.3.025.100.1-001.pddl,CRASHED:0.018176:1000000000.0:1800.0:-1
ipc-2014-optimal-maintenance-1.3.025.100.1-002.pddl,CRASHED:0.017822:1000000000.0:1800.0:-1
ipc-2014-optimal-maintenance-1.3.025.100.2-000.pddl,TIMEOUT:1801.04:-1.0:1800.0:-1
ipc-2014-optimal-maintenance-1.3.025.100.2-001.pddl,TIMEOUT:1801.01:-1.0:1800.0:-1
ipc-2014-optimal-maintenance-1.3.025.100.2-002.pddl,TIMEOUT:1801.0:-1.0:1800.0:-1
ipc-2014-optimal-openstacks-p20_1.pddl,TIMEOUT:1801.08:-1.0:1800.0:-1
ipc-2014-optimal-openstacks-p20_2.pddl,TIMEOUT:1801.02:-1.0:1800.0:-1
ipc-2014-optimal-openstacks-p20_3.pddl,TIMEOUT:1801.05:-1.0:1800.0:-1
ipc-2014-optimal-openstacks-p25_1.pddl,TIMEOUT:1801.02:-1.0:1800.0:-1
ipc-2014-optimal-openstacks-p25_3.pddl,TIMEOUT:1801.07:-1.0:1800.0:-1
ipc-2014-optimal-openstacks-p30_1.pddl,TIMEOUT:1801.04:-1.0:1800.0:-1
ipc-2014-optimal-openstacks-p30_2.pddl,TIMEOUT:1801.11:-1.0:1800.0:-1
ipc-2014-optimal-openstacks-p30_3.pddl,TIMEOUT:1801.02:-1.0:1800.0:-1
ipc-2014-optimal-openstacks-p35_1.pddl,TIMEOUT:1801.06:-1.0:1800.0:-1
ipc-2014-optimal-openstacks-p35_2.pddl,TIMEOUT:1801.02:-1.0:1800.0:-1
ipc-2014-optimal-openstacks-p35_3.pddl,TIMEOUT:1801.01:-1.0:1800.0:-1
ipc-2014-optimal-openstacks-p40_1.pddl,TIMEOUT:1801.02:-1.0:1800.0:-1
ipc-2014-optimal-openstacks-p40_2.pddl,TIMEOUT:1801.06:-1.0:1800.0:-1
ipc-2014-optimal-openstacks-p40_3.pddl,TIMEOUT:1801.03:-1.0:1800.0:-1
ipc-2014-optimal-openstacks-p45_1.pddl,TIMEOUT:1801.07:-1.0:1800.0:-1
ipc-2014-optimal-openstacks-p45_2.pddl,TIMEOUT:1801.01:-1.0:1800.0:-1
ipc-2014-optimal-openstacks-p45_3.pddl,TIMEOUT:1801.04:-1.0:1800.0:-1
ipc-2014-optimal-openstacks-p50_1.pddl,TIMEOUT:1801.07:-1.0:1800.0:-1
ipc-2014-optimal-openstacks-p50_2.pddl,TIMEOUT:1801.02:-1.0:1800.0:-1
ipc-2014-optimal-openstacks-p50_3.pddl,TIMEOUT:1801.05:-1.0:1800.0:-1
ipc-2014-optimal-parking-12_7-01.pddl,TIMEOUT:1801.04:-1.0:1800.0:-1
ipc-2014-optimal-parking-12_7-02.pddl,TIMEOUT:1801.09:-1.0:1800.0:-1
ipc-2014-optimal-parking-12_7-03.pddl,TIMEOUT:1801.07:-1.0:1800.0:-1
ipc-2014-optimal-parking-12_7-04.pddl,TIMEOUT:1801.08:-1.0:1800.0:-1
ipc-2014-optimal-parking-14_8-01.pddl,TIMEOUT:1801.11:-1.0:1800.0:-1
ipc-2014-optimal-parking-14_8-02.pddl,TIMEOUT:1801.09:-1.0:1800.0:-1
ipc-2014-optimal-parking-14_8-03.pddl,TIMEOUT:1801.06:-1.0:1800.0:-1
ipc-2014-optimal-parking-14_8-04.pddl,TIMEOUT:1801.05:-1.0:1800.0:-1
ipc-2014-optimal-parking-16_9-01.pddl,TIMEOUT:1801.04:-1.0:1800.0:-1
ipc-2014-optimal-parking-16_9-02.pddl,TIMEOUT:1801.05:-1.0:1800.0:-1
ipc-2014-optimal-parking-16_9-03.pddl,TIMEOUT:1801.06:-1.0:1800.0:-1
ipc-2014-optimal-parking-16_9-04.pddl,TIMEOUT:1801.09:-1.0:1800.0:-1
ipc-2014-optimal-parking-18_10-01.pddl,TIMEOUT:1801.07:-1.0:1800.0:-1
ipc-2014-optimal-parking-18_10-02.pddl,TIMEOUT:1801.03:-1.0:1800.0:-1
ipc-2014-optimal-parking-18_10-03.pddl,TIMEOUT:1801.04:-1.0:1800.0:-1
ipc-2014-optimal-parking-18_10-04.pddl,TIMEOUT:1801.07:-1.0:1800.0:-1
ipc-2014-optimal-parking-20_11-01.pddl,TIMEOUT:1801.07:-1.0:1800.0:-1
ipc-2014-optimal-parking-20_11-02.pddl,TIMEOUT:1801.04:-1.0:1800.0:-1
ipc-2014-optimal-parking-20_11-03.pddl,TIMEOUT:1801.04:-1.0:1800.0:-1
ipc-2014-optimal-parking-20_11-04.pddl,TIMEOUT:1801.09:-1.0:1800.0:-1
ipc-2014-optimal-tetris-01-10.pddl,CRASHED:9.55956:1000000000.0:1800.0:-1
ipc-2014-optimal-tetris-01-04.pddl,CRASHED:1.28266:1000000000.0:1800.0:-1
ipc-2014-optimal-tetris-01-06.pddl,CRASHED:2.1428:1000000000.0:1800.0:-1
ipc-2014-optimal-tetris-01-08.pddl,CRASHED:7.5075:1000000000.0:1800.0:-1
ipc-2014-optimal-tetris-02-10.pddl,CRASHED:9.84361:1000000000.0:1800.0:-1
ipc-2014-optimal-tetris-02-04.pddl,CRASHED:0.68276:1000000000.0:1800.0:-1
ipc-2014-optimal-tetris-02-06.pddl,CRASHED:3.44475:1000000000.0:1800.0:-1
ipc-2014-optimal-tetris-02-08.pddl,CRASHED:7.58132:1000000000.0:1800.0:-1
ipc-2014-optimal-tetris-03-10.pddl,CRASHED:22.7467:1000000000.0:1800.0:-1
ipc-2014-optimal-tetris-03-04.pddl,CRASHED:0.669756:1000000000.0:1800.0:-1
ipc-2014-optimal-tetris-03-06.pddl,CRASHED:2.01175:1000000000.0:1800.0:-1
ipc-2014-optimal-tetris-03-08.pddl,CRASHED:13.4188:1000000000.0:1800.0:-1
ipc-2014-optimal-tetris-04-10.pddl,CRASHED:0.006985:1000000000.0:1800.0:-1
ipc-2014-optimal-tetris-04-04.pddl,CRASHED:1.20661:1000000000.0:1800.0:-1
ipc-2014-optimal-tetris-04-06.pddl,CRASHED:2.08227:1000000000.0:1800.0:-1
ipc-2014-optimal-tetris-04-08.pddl,CRASHED:10.641:1000000000.0:1800.0:-1
ipc-2014-optimal-tetris-05-10.pddl,CRASHED:23.373:1000000000.0:1800.0:-1
ipc-2014-optimal-tetris-05-04.pddl,CRASHED:1.22012:1000000000.0:1800.0:-1
ipc-2014-optimal-tetris-05-06.pddl,CRASHED:2.07135:1000000000.0:1800.0:-1
ipc-2014-optimal-tetris-05-08.pddl,CRASHED:12.8221:1000000000.0:1800.0:-1
ipc-2014-optimal-tidybot-01.pddl,CRASHED:0.007253:1000000000.0:1800.0:-1
ipc-2014-optimal-tidybot-02.pddl,CRASHED:0.00725:1000000000.0:1800.0:-1
ipc-2014-optimal-tidybot-03.pddl,CRASHED:0.007724:1000000000.0:1800.0:-1
ipc-2014-optimal-tidybot-04.pddl,CRASHED:0.007064:1000000000.0:1800.0:-1
ipc-2014-optimal-tidybot-05.pddl,CRASHED:0.007442:1000000000.0:1800.0:-1
ipc-2014-optimal-tidybot-06.pddl,CRASHED:0.007466:1000000000.0:1800.0:-1
ipc-2014-optimal-tidybot-07.pddl,CRASHED:0.007416:1000000000.0:1800.0:-1
ipc-2014-optimal-tidybot-08.pddl,CRASHED:0.007816:1000000000.0:1800.0:-1
ipc-2014-optimal-tidybot-09.pddl,CRASHED:0.007757:1000000000.0:1800.0:-1
ipc-2014-optimal-tidybot-10.pddl,CRASHED:0.007021:1000000000.0:1800.0:-1
ipc-2014-optimal-tidybot-11.pddl,CRASHED:0.007841:1000000000.0:1800.0:-1
ipc-2014-optimal-tidybot-12.pddl,CRASHED:0.007261:1000000000.0:1800.0:-1
ipc-2014-optimal-tidybot-13.pddl,CRASHED:0.007477:1000000000.0:1800.0:-1
ipc-2014-optimal-tidybot-14.pddl,CRASHED:0.007452:1000000000.0:1800.0:-1
ipc-2014-optimal-tidybot-15.pddl,CRASHED:0.006957:1000000000.0:1800.0:-1
ipc-2014-optimal-tidybot-16.pddl,CRASHED:0.00794:1000000000.0:1800.0:-1
ipc-2014-optimal-tidybot-17.pddl,CRASHED:0.007094:1000000000.0:1800.0:-1
ipc-2014-optimal-tidybot-18.pddl,CRASHED:0.007595:1000000000.0:1800.0:-1
ipc-2014-optimal-tidybot-19.pddl,CRASHED:0.007234:1000000000.0:1800.0:-1
ipc-2014-optimal-tidybot-20.pddl,CRASHED:0.007012:1000000000.0:1800.0:-1
ipc-2014-optimal-transport-01.pddl,CRASHED:1342.51:1000000000.0:1800.0:-1
ipc-2014-optimal-transport-02.pddl,TIMEOUT:1801.07:-1.0:1800.0:-1
ipc-2014-optimal-transport-03.pddl,TIMEOUT:1801.02:-1.0:1800.0:-1
ipc-2014-optimal-transport-04.pddl,TIMEOUT:1801.06:-1.0:1800.0:-1
ipc-2014-optimal-transport-05.pddl,TIMEOUT:1801.03:-1.0:1800.0:-1
ipc-2014-optimal-transport-06.pddl,TIMEOUT:1801.07:-1.0:1800.0:-1
ipc-2014-optimal-transport-07.pddl,TIMEOUT:1801.02:-1.0:1800.0:-1
ipc-2014-optimal-transport-08.pddl,TIMEOUT:1801.06:-1.0:1800.0:-1
ipc-2014-optimal-transport-09.pddl,TIMEOUT:1801.07:-1.0:1800.0:-1
ipc-2014-optimal-transport-10.pddl,TIMEOUT:1801.08:-1.0:1800.0:-1
ipc-2014-optimal-transport-11.pddl,TIMEOUT:1801.02:-1.0:1800.0:-1
ipc-2014-optimal-transport-12.pddl,TIMEOUT:1801.08:-1.0:1800.0:-1
ipc-2014-optimal-transport-13.pddl,TIMEOUT:1801.07:-1.0:1800.0:-1
ipc-2014-optimal-transport-14.pddl,TIMEOUT:1801.04:-1.0:1800.0:-1
ipc-2014-optimal-transport-15.pddl,TIMEOUT:1801.01:-1.0:1800.0:-1
ipc-2014-optimal-transport-16.pddl,TIMEOUT:1801.06:-1.0:1800.0:-1
ipc-2014-optimal-transport-17.pddl,TIMEOUT:1801.02:-1.0:1800.0:-1
ipc-2014-optimal-transport-18.pddl,TIMEOUT:1801.05:-1.0:1800.0:-1
ipc-2014-optimal-transport-19.pddl,TIMEOUT:1801.1:-1.0:1800.0:-1
ipc-2014-optimal-transport-20.pddl,TIMEOUT:1801.09:-1.0:1800.0:-1
ipc-2014-optimal-visitall-05-10.pddl,TIMEOUT:1801.07:-1.0:1800.0:-1
ipc-2014-optimal-visitall-05-05.pddl,TIMEOUT:1801.1:-1.0:1800.0:-1
ipc-2014-optimal-visitall-05-06.pddl,TIMEOUT:1801.01:-1.0:1800.0:-1
ipc-2014-optimal-visitall-05-07.pddl,TIMEOUT:1801.04:-1.0:1800.0:-1
ipc-2014-optimal-visitall-05-08.pddl,TIMEOUT:1801.03:-1.0:1800.0:-1
ipc-2014-optimal-visitall-05-09.pddl,TIMEOUT:1801.01:-1.0:1800.0:-1
ipc-2014-optimal-visitall-01-10.pddl,TIMEOUT:1801.11:-1.0:1800.0:-1
ipc-2014-optimal-visitall-01-11.pddl,TIMEOUT:1801.04:-1.0:1800.0:-1
ipc-2014-optimal-visitall-01-12.pddl,TIMEOUT:1801.1:-1.0:1800.0:-1
ipc-2014-optimal-visitall-01-13.pddl,TIMEOUT:1801.04:-1.0:1800.0:-1
ipc-2014-optimal-visitall-01-14.pddl,TIMEOUT:1801.06:-1.0:1800.0:-1
ipc-2014-optimal-visitall-01-15.pddl,TIMEOUT:1801.04:-1.0:1800.0:-1
ipc-2014-optimal-visitall-01-16.pddl,TIMEOUT:1801.06:-1.0:1800.0:-1
ipc-2014-optimal-visitall-01-17.pddl,TIMEOUT:1801.04:-1.0:1800.0:-1
ipc-2014-optimal-visitall-01-18.pddl,TIMEOUT:1801.08:-1.0:1800.0:-1
ipc-2014-optimal-visitall-01-05.pddl,TIMEOUT:1801.1:-1.0:1800.0:-1
ipc-2014-optimal-visitall-01-06.pddl,TIMEOUT:1801.04:-1.0:1800.0:-1
ipc-2014-optimal-visitall-01-07.pddl,TIMEOUT:1801.09:-1.0:1800.0:-1
ipc-2014-optimal-visitall-01-08.pddl,TIMEOUT:1801.06:-1.0:1800.0:-1
ipc-2014-optimal-visitall-01-09.pddl,TIMEOUT:1801.08:-1.0:1800.0:-1
