instance,ipc-2014-agile-cedalion
ipc-2014-agile-barman-p1-11-4-15.pddl,SAT:2.76758:344.0:300.0:-1
ipc-2014-agile-barman-p1-11-5-15.pddl,SAT:2.88956:329.0:300.0:-1
ipc-2014-agile-barman-p1-11-5-16.pddl,SAT:2.96555:441.0:300.0:-1
ipc-2014-agile-barman-p2-10-4-13.pddl,SAT:2.54461:317.0:300.0:-1
ipc-2014-agile-barman-p2-11-4-15.pddl,SAT:2.82657:400.0:300.0:-1
ipc-2014-agile-barman-p2-11-5-15.pddl,SAT:2.89756:417.0:300.0:-1
ipc-2014-agile-barman-p2-11-5-16.pddl,SAT:3.02654:446.0:300.0:-1
ipc-2014-agile-barman-p2-11-5-17.pddl,SAT:3.2995:392.0:300.0:-1
ipc-2014-agile-barman-p3-10-4-13.pddl,SAT:2.69659:289.0:300.0:-1
ipc-2014-agile-barman-p3-11-4-15.pddl,SAT:2.95355:369.0:300.0:-1
ipc-2014-agile-barman-p3-11-5-15.pddl,SAT:3.05553:336.0:300.0:-1
ipc-2014-agile-barman-p3-11-5-16.pddl,SAT:3.17152:435.0:300.0:-1
ipc-2014-agile-barman-p3-11-5-17.pddl,SAT:3.3035:429.0:300.0:-1
ipc-2014-agile-barman-p4-11-4-14.pddl,SAT:2.74158:337.0:300.0:-1
ipc-2014-agile-barman-p4-11-4-15.pddl,SAT:2.57:349.0:300.0:-1
ipc-2014-agile-barman-p4-11-5-15.pddl,SAT:3.03354:379.0:300.0:-1
ipc-2014-agile-barman-p5-10-4-13.pddl,SAT:2.6486:293.0:300.0:-1
ipc-2014-agile-barman-p5-11-4-15.pddl,SAT:2.94855:378.0:300.0:-1
ipc-2014-agile-barman-p5-11-5-15.pddl,SAT:2.99854:359.0:300.0:-1
ipc-2014-agile-barman-p5-11-5-16.pddl,SAT:3.17952:410.0:300.0:-1
ipc-2014-agile-cavediving-01_easy.pddl,TIMEOUT:300.527:-1.0:300.0:-1
ipc-2014-agile-cavediving-01.pddl,TIMEOUT:300.828:-1.0:300.0:-1
ipc-2014-agile-cavediving-02_easy.pddl,TIMEOUT:301.032:-1.0:300.0:-1
ipc-2014-agile-cavediving-03_easy.pddl,TIMEOUT:300.916:-1.0:300.0:-1
ipc-2014-agile-cavediving-04_easy.pddl,TIMEOUT:300.986:-1.0:300.0:-1
ipc-2014-agile-cavediving-05A_easy.pddl,SAT:36.3385:94.0:300.0:-1
ipc-2014-agile-cavediving-06A_easy.pddl,SAT:35.8476:95.0:300.0:-1
ipc-2014-agile-cavediving-07_easy.pddl,SAT:56.6904:131.0:300.0:-1
ipc-2014-agile-cavediving-08_easy.pddl,SAT:36.0685:90.0:300.0:-1
ipc-2014-agile-cavediving-09_easy.pddl,TIMEOUT:301.092:-1.0:300.0:-1
ipc-2014-agile-cavediving-10_easy.pddl,TIMEOUT:300.752:-1.0:300.0:-1
ipc-2014-agile-cavediving-11_easy.pddl,TIMEOUT:300.643:-1.0:300.0:-1
ipc-2014-agile-cavediving-12_easy.pddl,TIMEOUT:300.531:-1.0:300.0:-1
ipc-2014-agile-cavediving-13_easy.pddl,TIMEOUT:300.834:-1.0:300.0:-1
ipc-2014-agile-cavediving-14_easy.pddl,TIMEOUT:300.525:-1.0:300.0:-1
ipc-2014-agile-cavediving-15_easy.pddl,TIMEOUT:300.805:-1.0:300.0:-1
ipc-2014-agile-cavediving-16_easy.pddl,TIMEOUT:300.371:-1.0:300.0:-1
ipc-2014-agile-cavediving-18A_easy.pddl,SAT:86.7048:131.0:300.0:-1
ipc-2014-agile-cavediving-18_easy.pddl,SAT:102.487:131.0:300.0:-1
ipc-2014-agile-cavediving-20A_easy.pddl,SAT:73.2189:98.0:300.0:-1
ipc-2014-agile-childsnack-05-2.pddl,CRASHED:217.66:1000000000.0:300.0:-1
ipc-2014-agile-childsnack-05.pddl,CRASHED:217.15:1000000000.0:300.0:-1
ipc-2014-agile-childsnack-06-2.pddl,CRASHED:218.64:1000000000.0:300.0:-1
ipc-2014-agile-childsnack-07-2.pddl,CRASHED:217.42:1000000000.0:300.0:-1
ipc-2014-agile-childsnack-08-2.pddl,CRASHED:213.95:1000000000.0:300.0:-1
ipc-2014-agile-childsnack-08.pddl,CRASHED:216.96:1000000000.0:300.0:-1
ipc-2014-agile-childsnack-09-2.pddl,CRASHED:211.03:1000000000.0:300.0:-1
ipc-2014-agile-childsnack-09.pddl,CRASHED:210.19:1000000000.0:300.0:-1
ipc-2014-agile-childsnack-10-2.pddl,CRASHED:209.13:1000000000.0:300.0:-1
ipc-2014-agile-childsnack-10.pddl,CRASHED:213.74:1000000000.0:300.0:-1
ipc-2014-agile-childsnack-11-2.pddl,CRASHED:213.38:1000000000.0:300.0:-1
ipc-2014-agile-childsnack-11.pddl,CRASHED:208.27:1000000000.0:300.0:-1
ipc-2014-agile-childsnack-12.pddl,CRASHED:206.12:1000000000.0:300.0:-1
ipc-2014-agile-childsnack-13-2.pddl,CRASHED:205.4:1000000000.0:300.0:-1
ipc-2014-agile-childsnack-13.pddl,CRASHED:211.92:1000000000.0:300.0:-1
ipc-2014-agile-childsnack-14.pddl,CRASHED:214.09:1000000000.0:300.0:-1
ipc-2014-agile-childsnack-15-2.pddl,CRASHED:220.59:1000000000.0:300.0:-1
ipc-2014-agile-childsnack-16-2.pddl,CRASHED:229.29:1000000000.0:300.0:-1
ipc-2014-agile-childsnack-19-2.pddl,CRASHED:231.56:1000000000.0:300.0:-1
ipc-2014-agile-childsnack-19.pddl,CRASHED:231.52:1000000000.0:300.0:-1
ipc-2014-agile-citycar-p3-2-2-0-1.pddl,SAT:2.26166:330.0:300.0:-1
ipc-2014-agile-citycar-p3-3-2-0-1.pddl,SAT:2.83357:858.0:300.0:-1
ipc-2014-agile-citycar-p3-4-2-0-1.pddl,SAT:87.4007:703.0:300.0:-1
ipc-2014-agile-citycar-p3-5-2-0-1.pddl,SAT:236.438:285.0:300.0:-1
ipc-2014-agile-citycar-p3-5-2-0-2.pddl,SAT:89.1125:730.0:300.0:-1
ipc-2014-agile-citycar-p4-2-2-0-1.pddl,CRASHED:222.01:1000000000.0:300.0:-1
ipc-2014-agile-citycar-p4-2-3-0-1.pddl,CRASHED:225.23:1000000000.0:300.0:-1
ipc-2014-agile-citycar-p4-2-3-0-2.pddl,CRASHED:228.17:1000000000.0:300.0:-1
ipc-2014-agile-citycar-p4-3-2-0-1.pddl,CRASHED:233.67:1000000000.0:300.0:-1
ipc-2014-agile-citycar-p4-3-2-0-2.pddl,CRASHED:228.73:1000000000.0:300.0:-1
ipc-2014-agile-citycar-p4-3-3-0-1.pddl,CRASHED:224.38:1000000000.0:300.0:-1
ipc-2014-agile-citycar-p4-3-3-0-2.pddl,CRASHED:224.27:1000000000.0:300.0:-1
ipc-2014-agile-citycar-p4-4-2-0-1.pddl,CRASHED:229.24:1000000000.0:300.0:-1
ipc-2014-agile-citycar-p4-4-2-0-2.pddl,TIMEOUT:300.649:-1.0:300.0:-1
ipc-2014-agile-citycar-p4-4-3-0-1.pddl,TIMEOUT:300.338:-1.0:300.0:-1
ipc-2014-agile-citycar-p4-4-3-0-2.pddl,TIMEOUT:300.808:-1.0:300.0:-1
ipc-2014-agile-citycar-p4-5-2-0-1.pddl,TIMEOUT:300.803:-1.0:300.0:-1
ipc-2014-agile-citycar-p4-5-2-0-2.pddl,TIMEOUT:300.502:-1.0:300.0:-1
ipc-2014-agile-citycar-p4-5-3-0-1.pddl,TIMEOUT:300.709:-1.0:300.0:-1
ipc-2014-agile-citycar-p4-5-3-0-2.pddl,TIMEOUT:300.484:-1.0:300.0:-1
ipc-2014-agile-floortile-p01-4-3-2.pddl,SAT:46.194:88.0:300.0:-1
ipc-2014-agile-floortile-p01-5-4-2.pddl,TIMEOUT:300.425:-1.0:300.0:-1
ipc-2014-agile-floortile-p01-5-5-2.pddl,TIMEOUT:300.22:-1.0:300.0:-1
ipc-2014-agile-floortile-p01-6-4-2.pddl,TIMEOUT:300.39:-1.0:300.0:-1
ipc-2014-agile-floortile-p01-6-5-2.pddl,TIMEOUT:300.645:-1.0:300.0:-1
ipc-2014-agile-floortile-p01-6-5-3.pddl,TIMEOUT:300.055:-1.0:300.0:-1
ipc-2014-agile-floortile-p02-5-4-2.pddl,TIMEOUT:300.644:-1.0:300.0:-1
ipc-2014-agile-floortile-p02-6-4-2.pddl,TIMEOUT:301.086:-1.0:300.0:-1
ipc-2014-agile-floortile-p02-6-5-2.pddl,TIMEOUT:300.62:-1.0:300.0:-1
ipc-2014-agile-floortile-p02-6-5-3.pddl,TIMEOUT:300.126:-1.0:300.0:-1
ipc-2014-agile-floortile-p03-6-4-2.pddl,TIMEOUT:301.055:-1.0:300.0:-1
ipc-2014-agile-floortile-p03-6-5-2.pddl,TIMEOUT:300.747:-1.0:300.0:-1
ipc-2014-agile-floortile-p03-6-5-3.pddl,TIMEOUT:300.621:-1.0:300.0:-1
ipc-2014-agile-floortile-p04-5-4-2.pddl,TIMEOUT:300.347:-1.0:300.0:-1
ipc-2014-agile-floortile-p04-5-5-2.pddl,TIMEOUT:301.0:-1.0:300.0:-1
ipc-2014-agile-floortile-p04-6-5-2.pddl,TIMEOUT:300.746:-1.0:300.0:-1
ipc-2014-agile-floortile-p04-6-5-3.pddl,TIMEOUT:300.778:-1.0:300.0:-1
ipc-2014-agile-floortile-p05-4-3-2.pddl,SAT:23.6494:95.0:300.0:-1
ipc-2014-agile-floortile-p05-6-5-2.pddl,TIMEOUT:300.48:-1.0:300.0:-1
ipc-2014-agile-floortile-p05-6-5-3.pddl,TIMEOUT:300.763:-1.0:300.0:-1
ipc-2014-agile-ged-d-10-1.pddl,SAT:4.32134:30.0:300.0:-1
ipc-2014-agile-ged-d-10-2.pddl,SAT:4.87826:31.0:300.0:-1
ipc-2014-agile-ged-d-10-3.pddl,SAT:4.5833:47.0:300.0:-1
ipc-2014-agile-ged-d-10-4.pddl,SAT:4.98624:32.0:300.0:-1
ipc-2014-agile-ged-d-10-5.pddl,SAT:25.3231:45.0:300.0:-1
ipc-2014-agile-ged-d-10-6.pddl,SAT:11.6112:40.0:300.0:-1
ipc-2014-agile-ged-d-11-1.pddl,SAT:8.28974:31.0:300.0:-1
ipc-2014-agile-ged-d-11-3.pddl,SAT:7.75182:27.0:300.0:-1
ipc-2014-agile-ged-d-11-5.pddl,SAT:17.4263:34.0:300.0:-1
ipc-2014-agile-ged-d-11-6.pddl,SAT:11.3403:33.0:300.0:-1
ipc-2014-agile-ged-d-12-11.pddl,SAT:5.10322:118.0:300.0:-1
ipc-2014-agile-ged-d-12-2.pddl,SAT:14.4408:34.0:300.0:-1
ipc-2014-agile-ged-d-12-3.pddl,SAT:66.4199:73.0:300.0:-1
ipc-2014-agile-ged-d-12-5.pddl,SAT:66.7549:143.0:300.0:-1
ipc-2014-agile-ged-d-12-6.pddl,SAT:6.99794:136.0:300.0:-1
ipc-2014-agile-ged-d-12-7.pddl,SAT:51.4662:48.0:300.0:-1
ipc-2014-agile-ged-d-12-8.pddl,SAT:28.2777:47.0:300.0:-1
ipc-2014-agile-ged-d-12-9.pddl,SAT:28.5837:50.0:300.0:-1
ipc-2014-agile-ged-d-3-6.pddl,SAT:7.47386:19.0:300.0:-1
ipc-2014-agile-ged-d-9-5.pddl,SAT:4.86026:58.0:300.0:-1
ipc-2014-agile-hiking-3-4-3.pddl,SAT:2.40663:41.0:300.0:-1
ipc-2014-agile-hiking-3-4-4.pddl,SAT:3.32949:30.0:300.0:-1
ipc-2014-agile-hiking-3-4-5.pddl,SAT:5.2272:67.0:300.0:-1
ipc-2014-agile-hiking-3-4-6.pddl,SAT:220.16:71.0:300.0:-1
ipc-2014-agile-hiking-3-4-7.pddl,TIMEOUT:300.4:-1.0:300.0:-1
ipc-2014-agile-hiking-3-4-8.pddl,TIMEOUT:300.711:-1.0:300.0:-1
ipc-2014-agile-hiking-3-4-9.pddl,TIMEOUT:300.655:-1.0:300.0:-1
ipc-2014-agile-hiking-4-5-3.pddl,SAT:4.39133:17.0:300.0:-1
ipc-2014-agile-hiking-4-5-4.pddl,SAT:234.528:22.0:300.0:-1
ipc-2014-agile-hiking-4-5-5.pddl,SAT:234.587:30.0:300.0:-1
ipc-2014-agile-hiking-4-5-6.pddl,SAT:243.385:45.0:300.0:-1
ipc-2014-agile-hiking-4-5-7.pddl,TIMEOUT:300.827:-1.0:300.0:-1
ipc-2014-agile-hiking-4-5-8.pddl,TIMEOUT:300.605:-1.0:300.0:-1
ipc-2014-agile-hiking-4-5-9.pddl,TIMEOUT:301.05:-1.0:300.0:-1
ipc-2014-agile-hiking-5-6-3.pddl,SAT:6.93794:35.0:300.0:-1
ipc-2014-agile-hiking-5-6-4.pddl,SAT:235.96:25.0:300.0:-1
ipc-2014-agile-hiking-5-6-5.pddl,SAT:237.545:33.0:300.0:-1
ipc-2014-agile-hiking-5-6-6.pddl,SAT:246.535:51.0:300.0:-1
ipc-2014-agile-hiking-5-6-7.pddl,SAT:276.496:64.0:300.0:-1
ipc-2014-agile-hiking-5-6-8.pddl,SAT:293.089:69.0:300.0:-1
ipc-2014-agile-maintenance-1.3.060.180.5-000.pddl,SAT:130.93:58.0:300.0:-1
ipc-2014-agile-maintenance-1.3.060.180.5-001.pddl,SAT:1.20581:55.0:300.0:-1
ipc-2014-agile-maintenance-1.3.060.180.5-002.pddl,TIMEOUT:300.161:-1.0:300.0:-1
ipc-2014-agile-maintenance-1.3.100.300.5-000.pddl,TIMEOUT:300.087:-1.0:300.0:-1
ipc-2014-agile-maintenance-1.3.100.300.5-001.pddl,TIMEOUT:301.02:-1.0:300.0:-1
ipc-2014-agile-maintenance-1.3.100.300.7-000.pddl,SAT:1.9577:89.0:300.0:-1
ipc-2014-agile-maintenance-1.3.100.300.7-001.pddl,SAT:1.9897:94.0:300.0:-1
ipc-2014-agile-maintenance-1.3.100.300.7-002.pddl,SAT:2.00069:85.0:300.0:-1
ipc-2014-agile-maintenance-1.3.150.500.6-001.pddl,SAT:4.52031:144.0:300.0:-1
ipc-2014-agile-maintenance-1.3.200.500.5-001.pddl,TIMEOUT:300.548:-1.0:300.0:-1
ipc-2014-agile-maintenance-1.3.200.500.5-002.pddl,TIMEOUT:300.334:-1.0:300.0:-1
ipc-2014-agile-maintenance-1.3.200.700.7-000.pddl,SAT:81.0847:168.0:300.0:-1
ipc-2014-agile-maintenance-1.3.200.700.7-001.pddl,SAT:233.249:172.0:300.0:-1
ipc-2014-agile-maintenance-1.3.200.700.7-002.pddl,SAT:67.3438:179.0:300.0:-1
ipc-2014-agile-maintenance-1.3.200.900.5-000.pddl,TIMEOUT:300.765:-1.0:300.0:-1
ipc-2014-agile-maintenance-1.3.200.900.5-001.pddl,TIMEOUT:300.801:-1.0:300.0:-1
ipc-2014-agile-maintenance-1.3.200.900.5-002.pddl,TIMEOUT:300.144:-1.0:300.0:-1
ipc-2014-agile-maintenance-1.3.200.900.8-000.pddl,SAT:5.73713:181.0:300.0:-1
ipc-2014-agile-maintenance-1.3.200.900.8-001.pddl,SAT:4.70228:181.0:300.0:-1
ipc-2014-agile-maintenance-1.3.200.900.8-002.pddl,SAT:74.1947:181.0:300.0:-1
ipc-2014-agile-openstacks-p130_2.pddl,SAT:8.33573:50.0:300.0:-1
ipc-2014-agile-openstacks-p130_3.pddl,SAT:9.8925:103.0:300.0:-1
ipc-2014-agile-openstacks-p150_2.pddl,SAT:10.3884:54.0:300.0:-1
ipc-2014-agile-openstacks-p150_3.pddl,SAT:28.1917:140.0:300.0:-1
ipc-2014-agile-openstacks-p170_1.pddl,SAT:12.976:55.0:300.0:-1
ipc-2014-agile-openstacks-p170_2.pddl,SAT:13.9719:80.0:300.0:-1
ipc-2014-agile-openstacks-p170_3.pddl,SAT:41.2697:156.0:300.0:-1
ipc-2014-agile-openstacks-p190_1.pddl,SAT:43.2744:118.0:300.0:-1
ipc-2014-agile-openstacks-p190_2.pddl,SAT:43.2854:121.0:300.0:-1
ipc-2014-agile-openstacks-p190_3.pddl,SAT:54.1538:180.0:300.0:-1
ipc-2014-agile-openstacks-p210_1.pddl,SAT:54.6177:134.0:300.0:-1
ipc-2014-agile-openstacks-p210_2.pddl,SAT:77.9531:101.0:300.0:-1
ipc-2014-agile-openstacks-p230_1.pddl,SAT:65.587:137.0:300.0:-1
ipc-2014-agile-openstacks-p230_2.pddl,SAT:1.90735e-06:159.0:300.0:-1
ipc-2014-agile-openstacks-p250_1.pddl,SAT:1.90735e-06:117.0:300.0:-1
ipc-2014-agile-openstacks-p250_2.pddl,SAT:1.90735e-06:136.0:300.0:-1
ipc-2014-agile-openstacks-p270_1.pddl,SAT:94.3177:141.0:300.0:-1
ipc-2014-agile-openstacks-p270_2.pddl,SAT:95.9554:167.0:300.0:-1
ipc-2014-agile-openstacks-p290_1.pddl,SAT:106.818:137.0:300.0:-1
ipc-2014-agile-openstacks-p290_2.pddl,SAT:114.968:187.0:300.0:-1
ipc-2014-agile-parking-28_2.pddl,SAT:85.376:91.0:300.0:-1
ipc-2014-agile-parking-28_3.pddl,SAT:32.569:68.0:300.0:-1
ipc-2014-agile-parking-30_1.pddl,SAT:44.0833:75.0:300.0:-1
ipc-2014-agile-parking-30_2.pddl,SAT:35.8925:73.0:300.0:-1
ipc-2014-agile-parking-30_3.pddl,SAT:86.6288:71.0:300.0:-1
ipc-2014-agile-parking-32_1.pddl,TIMEOUT:300.906:-1.0:300.0:-1
ipc-2014-agile-parking-32_2.pddl,TIMEOUT:301.082:-1.0:300.0:-1
ipc-2014-agile-parking-32_3.pddl,TIMEOUT:301.141:-1.0:300.0:-1
ipc-2014-agile-parking-34_1.pddl,TIMEOUT:300.902:-1.0:300.0:-1
ipc-2014-agile-parking-34_2.pddl,TIMEOUT:300.111:-1.0:300.0:-1
ipc-2014-agile-parking-34_3.pddl,TIMEOUT:300.427:-1.0:300.0:-1
ipc-2014-agile-parking-36_1.pddl,TIMEOUT:300.618:-1.0:300.0:-1
ipc-2014-agile-parking-36_2.pddl,TIMEOUT:300.257:-1.0:300.0:-1
ipc-2014-agile-parking-36_3.pddl,TIMEOUT:300.818:-1.0:300.0:-1
ipc-2014-agile-parking-38_1.pddl,TIMEOUT:301.04:-1.0:300.0:-1
ipc-2014-agile-parking-38_2.pddl,TIMEOUT:300.784:-1.0:300.0:-1
ipc-2014-agile-parking-38_3.pddl,TIMEOUT:300.909:-1.0:300.0:-1
ipc-2014-agile-parking-40_1.pddl,TIMEOUT:300.645:-1.0:300.0:-1
ipc-2014-agile-parking-40_2.pddl,TIMEOUT:300.88:-1.0:300.0:-1
ipc-2014-agile-parking-40_3.pddl,TIMEOUT:300.752:-1.0:300.0:-1
ipc-2014-agile-tetris-020.pddl,SAT:37.9702:106.0:300.0:-1
ipc-2014-agile-tetris-021.pddl,SAT:74.2087:596.0:300.0:-1
ipc-2014-agile-tetris-022.pddl,SAT:196.988:89.0:300.0:-1
ipc-2014-agile-tetris-023.pddl,SAT:9.53674e-07:95.0:300.0:-1
ipc-2014-agile-tetris-024.pddl,TIMEOUT:300.206:-1.0:300.0:-1
ipc-2014-agile-tetris-025.pddl,SAT:188.136:61.0:300.0:-1
ipc-2014-agile-tetris-026.pddl,SAT:192.123:131.0:300.0:-1
ipc-2014-agile-tetris-027.pddl,SAT:193.685:120.0:300.0:-1
ipc-2014-agile-tetris-028.pddl,SAT:204.639:126.0:300.0:-1
ipc-2014-agile-tetris-029.pddl,TIMEOUT:300.161:-1.0:300.0:-1
ipc-2014-agile-tetris-031.pddl,TIMEOUT:301.195:-1.0:300.0:-1
ipc-2014-agile-tetris-032.pddl,TIMEOUT:300.096:-1.0:300.0:-1
ipc-2014-agile-tetris-033.pddl,SAT:216.007:155.0:300.0:-1
ipc-2014-agile-tetris-034.pddl,SAT:86.7068:243.0:300.0:-1
ipc-2014-agile-tetris-035.pddl,SAT:202.33:134.0:300.0:-1
ipc-2014-agile-tetris-036.pddl,SAT:207.271:111.0:300.0:-1
ipc-2014-agile-tetris-037.pddl,TIMEOUT:300.86:-1.0:300.0:-1
ipc-2014-agile-tetris-038.pddl,TIMEOUT:300.258:-1.0:300.0:-1
ipc-2014-agile-tetris-039.pddl,TIMEOUT:301.012:-1.0:300.0:-1
ipc-2014-agile-tetris-040.pddl,TIMEOUT:300.472:-1.0:300.0:-1
ipc-2014-agile-thoughtful-bootstrap-typed-01.pddl,CRASHED:0.659899:1000000000.0:300.0:-1
ipc-2014-agile-thoughtful-bootstrap-typed-02.pddl,CRASHED:0.560914:1000000000.0:300.0:-1
ipc-2014-agile-thoughtful-bootstrap-typed-03.pddl,CRASHED:0.549916:1000000000.0:300.0:-1
ipc-2014-agile-thoughtful-bootstrap-typed-04.pddl,CRASHED:0.551915:1000000000.0:300.0:-1
ipc-2014-agile-thoughtful-bootstrap-typed-05.pddl,CRASHED:0.547916:1000000000.0:300.0:-1
ipc-2014-agile-thoughtful-p11_6_53-typed.pddl,CRASHED:0.589909:1000000000.0:300.0:-1
ipc-2014-agile-thoughtful-p11_6_59-typed.pddl,CRASHED:0.605906:1000000000.0:300.0:-1
ipc-2014-agile-thoughtful-p11_6_62-typed.pddl,CRASHED:0.592909:1000000000.0:300.0:-1
ipc-2014-agile-thoughtful-p13_7_78-typed.pddl,CRASHED:0.589909:1000000000.0:300.0:-1
ipc-2014-agile-thoughtful-p13_7_79-typed.pddl,CRASHED:0.592908:1000000000.0:300.0:-1
ipc-2014-agile-thoughtful-p13_7_86-typed.pddl,CRASHED:0.592909:1000000000.0:300.0:-1
ipc-2014-agile-thoughtful-target-typed-20.pddl,CRASHED:0.593909:1000000000.0:300.0:-1
ipc-2014-agile-thoughtful-target-typed-21.pddl,CRASHED:0.590909:1000000000.0:300.0:-1
ipc-2014-agile-thoughtful-target-typed-22.pddl,CRASHED:0.58991:1000000000.0:300.0:-1
ipc-2014-agile-thoughtful-target-typed-23.pddl,CRASHED:0.590909:1000000000.0:300.0:-1
ipc-2014-agile-thoughtful-target-typed-24.pddl,CRASHED:0.596908:1000000000.0:300.0:-1
ipc-2014-agile-thoughtful-target-typed-25.pddl,CRASHED:0.594909:1000000000.0:300.0:-1
ipc-2014-agile-thoughtful-target-typed-26.pddl,CRASHED:0.591909:1000000000.0:300.0:-1
ipc-2014-agile-thoughtful-target-typed-27.pddl,CRASHED:0.590909:1000000000.0:300.0:-1
ipc-2014-agile-thoughtful-target-typed-28.pddl,CRASHED:0.590909:1000000000.0:300.0:-1
ipc-2014-agile-transport-01.pddl,SAT:8.06977:4890.0:300.0:-1
ipc-2014-agile-transport-02.pddl,SAT:9.73452:8048.0:300.0:-1
ipc-2014-agile-transport-03.pddl,SAT:8.42872:6191.0:300.0:-1
ipc-2014-agile-transport-04.pddl,SAT:78.0801:15020.0:300.0:-1
ipc-2014-agile-transport-05.pddl,SAT:81.3036:19671.0:300.0:-1
ipc-2014-agile-transport-06.pddl,SAT:78.4991:15020.0:300.0:-1
ipc-2014-agile-transport-07.pddl,SAT:96.6523:18693.0:300.0:-1
ipc-2014-agile-transport-08.pddl,SAT:98.793:16523.0:300.0:-1
ipc-2014-agile-transport-09.pddl,SAT:96.5093:18693.0:300.0:-1
ipc-2014-agile-transport-10.pddl,SAT:90.4363:21018.0:300.0:-1
ipc-2014-agile-transport-11.pddl,SAT:61.3627:2281.0:300.0:-1
ipc-2014-agile-transport-12.pddl,SAT:69.4164:7429.0:300.0:-1
ipc-2014-agile-transport-13.pddl,SAT:8.87265:5516.0:300.0:-1
ipc-2014-agile-transport-14.pddl,SAT:81.5206:16616.0:300.0:-1
ipc-2014-agile-transport-15.pddl,SAT:83.9572:19430.0:300.0:-1
ipc-2014-agile-transport-16.pddl,SAT:73.6028:15016.0:300.0:-1
ipc-2014-agile-transport-17.pddl,SAT:93.5558:14692.0:300.0:-1
ipc-2014-agile-transport-18.pddl,SAT:93.4788:18819.0:300.0:-1
ipc-2014-agile-transport-19.pddl,SAT:83.7973:18949.0:300.0:-1
ipc-2014-agile-transport-20.pddl,SAT:98.336:14402.0:300.0:-1
ipc-2014-agile-visitall-30.pddl,SAT:2.40963:1879.0:300.0:-1
ipc-2014-agile-visitall-31.pddl,SAT:2.42763:2184.0:300.0:-1
ipc-2014-agile-visitall-32.pddl,SAT:2.6266:1972.0:300.0:-1
ipc-2014-agile-visitall-33.pddl,SAT:2.77458:2550.0:300.0:-1
ipc-2014-agile-visitall-50.pddl,SAT:3.39348:4799.0:300.0:-1
ipc-2014-agile-visitall-51.pddl,SAT:3.46847:5092.0:300.0:-1
ipc-2014-agile-visitall-52.pddl,SAT:3.46747:4533.0:300.0:-1
ipc-2014-agile-visitall-53.pddl,SAT:3.67944:6046.0:300.0:-1
ipc-2014-agile-visitall-54.pddl,SAT:3.71244:5920.0:300.0:-1
ipc-2014-agile-visitall-55.pddl,SAT:3.80142:6093.0:300.0:-1
ipc-2014-agile-visitall-56.pddl,SAT:3.81342:6084.0:300.0:-1
ipc-2014-agile-visitall-57.pddl,SAT:3.9604:6223.0:300.0:-1
ipc-2014-agile-visitall-58.pddl,SAT:4.03739:6579.0:300.0:-1
ipc-2014-agile-visitall-59.pddl,SAT:4.14837:6718.0:300.0:-1
ipc-2014-agile-visitall-60.pddl,SAT:4.17836:6537.0:300.0:-1
ipc-2014-agile-visitall-61.pddl,SAT:4.31634:6927.0:300.0:-1
ipc-2014-agile-visitall-62.pddl,SAT:4.92425:7404.0:300.0:-1
ipc-2014-agile-visitall-63.pddl,SAT:4.98424:7749.0:300.0:-1
ipc-2014-agile-visitall-64.pddl,SAT:5.00824:7074.0:300.0:-1
ipc-2014-agile-visitall-65.pddl,SAT:5.29619:7875.0:300.0:-1
