instance,ipc-2014-agile-jasper
ipc-2014-agile-barman-p1-11-4-15.pddl,SAT:17.5603:286.0:300.0:-1
ipc-2014-agile-barman-p1-11-5-15.pddl,SAT:160.656:278.0:300.0:-1
ipc-2014-agile-barman-p1-11-5-16.pddl,SAT:6.07108:241.0:300.0:-1
ipc-2014-agile-barman-p2-10-4-13.pddl,SAT:7.13891:308.0:300.0:-1
ipc-2014-agile-barman-p2-11-4-15.pddl,SAT:12.4521:305.0:300.0:-1
ipc-2014-agile-barman-p2-11-5-15.pddl,SAT:7.27389:202.0:300.0:-1
ipc-2014-agile-barman-p2-11-5-16.pddl,SAT:23.5944:347.0:300.0:-1
ipc-2014-agile-barman-p2-11-5-17.pddl,SAT:22.0037:332.0:300.0:-1
ipc-2014-agile-barman-p3-10-4-13.pddl,SAT:10.8364:382.0:300.0:-1
ipc-2014-agile-barman-p3-11-4-15.pddl,SAT:20.2589:410.0:300.0:-1
ipc-2014-agile-barman-p3-11-5-15.pddl,SAT:11.5322:352.0:300.0:-1
ipc-2014-agile-barman-p3-11-5-16.pddl,SAT:11.1603:240.0:300.0:-1
ipc-2014-agile-barman-p3-11-5-17.pddl,SAT:8.34473:240.0:300.0:-1
ipc-2014-agile-barman-p4-11-4-14.pddl,SAT:6.82796:336.0:300.0:-1
ipc-2014-agile-barman-p4-11-4-15.pddl,SAT:22.0007:296.0:300.0:-1
ipc-2014-agile-barman-p4-11-5-15.pddl,SAT:16.0656:262.0:300.0:-1
ipc-2014-agile-barman-p5-10-4-13.pddl,SAT:9.43357:277.0:300.0:-1
ipc-2014-agile-barman-p5-11-4-15.pddl,SAT:4.44032:248.0:300.0:-1
ipc-2014-agile-barman-p5-11-5-15.pddl,SAT:10.2254:294.0:300.0:-1
ipc-2014-agile-barman-p5-11-5-16.pddl,SAT:8.12976:289.0:300.0:-1
ipc-2014-agile-cavediving-01_easy.pddl,TIMEOUT:301.07:-1.0:300.0:-1
ipc-2014-agile-cavediving-01.pddl,TIMEOUT:301.03:-1.0:300.0:-1
ipc-2014-agile-cavediving-02_easy.pddl,TIMEOUT:301.02:-1.0:300.0:-1
ipc-2014-agile-cavediving-03_easy.pddl,TIMEOUT:301.04:-1.0:300.0:-1
ipc-2014-agile-cavediving-04_easy.pddl,TIMEOUT:301.01:-1.0:300.0:-1
ipc-2014-agile-cavediving-05A_easy.pddl,SAT:0.725889:94.0:300.0:-1
ipc-2014-agile-cavediving-06A_easy.pddl,SAT:0.308952:96.0:300.0:-1
ipc-2014-agile-cavediving-07_easy.pddl,SAT:0.666897:133.0:300.0:-1
ipc-2014-agile-cavediving-08_easy.pddl,SAT:0.487924:90.0:300.0:-1
ipc-2014-agile-cavediving-09_easy.pddl,TIMEOUT:301.02:-1.0:300.0:-1
ipc-2014-agile-cavediving-10_easy.pddl,TIMEOUT:301.0:-1.0:300.0:-1
ipc-2014-agile-cavediving-11_easy.pddl,TIMEOUT:301.02:-1.0:300.0:-1
ipc-2014-agile-cavediving-12_easy.pddl,TIMEOUT:301.05:-1.0:300.0:-1
ipc-2014-agile-cavediving-13_easy.pddl,TIMEOUT:301.02:-1.0:300.0:-1
ipc-2014-agile-cavediving-14_easy.pddl,TIMEOUT:301.02:-1.0:300.0:-1
ipc-2014-agile-cavediving-15_easy.pddl,TIMEOUT:301.04:-1.0:300.0:-1
ipc-2014-agile-cavediving-16_easy.pddl,TIMEOUT:301.04:-1.0:300.0:-1
ipc-2014-agile-cavediving-18A_easy.pddl,SAT:2.51862:131.0:300.0:-1
ipc-2014-agile-cavediving-18_easy.pddl,SAT:6.02408:133.0:300.0:-1
ipc-2014-agile-cavediving-20A_easy.pddl,SAT:1.52477:100.0:300.0:-1
ipc-2014-agile-childsnack-05-2.pddl,TIMEOUT:301.05:-1.0:300.0:-1
ipc-2014-agile-childsnack-05.pddl,TIMEOUT:301.01:-1.0:300.0:-1
ipc-2014-agile-childsnack-06-2.pddl,TIMEOUT:301.06:-1.0:300.0:-1
ipc-2014-agile-childsnack-07-2.pddl,TIMEOUT:301.03:-1.0:300.0:-1
ipc-2014-agile-childsnack-08-2.pddl,CRASHED:264.46:1000000000.0:300.0:-1
ipc-2014-agile-childsnack-08.pddl,TIMEOUT:301.08:-1.0:300.0:-1
ipc-2014-agile-childsnack-09-2.pddl,CRASHED:271.01:1000000000.0:300.0:-1
ipc-2014-agile-childsnack-09.pddl,CRASHED:256.96:1000000000.0:300.0:-1
ipc-2014-agile-childsnack-10-2.pddl,CRASHED:259.54:1000000000.0:300.0:-1
ipc-2014-agile-childsnack-10.pddl,CRASHED:242.36:1000000000.0:300.0:-1
ipc-2014-agile-childsnack-11-2.pddl,CRASHED:248.17:1000000000.0:300.0:-1
ipc-2014-agile-childsnack-11.pddl,CRASHED:245.3:1000000000.0:300.0:-1
ipc-2014-agile-childsnack-12.pddl,CRASHED:237.04:1000000000.0:300.0:-1
ipc-2014-agile-childsnack-13-2.pddl,TIMEOUT:301.04:-1.0:300.0:-1
ipc-2014-agile-childsnack-13.pddl,TIMEOUT:301.04:-1.0:300.0:-1
ipc-2014-agile-childsnack-14.pddl,TIMEOUT:301.08:-1.0:300.0:-1
ipc-2014-agile-childsnack-15-2.pddl,CRASHED:287.78:1000000000.0:300.0:-1
ipc-2014-agile-childsnack-16-2.pddl,CRASHED:296.15:1000000000.0:300.0:-1
ipc-2014-agile-childsnack-19-2.pddl,CRASHED:292.09:1000000000.0:300.0:-1
ipc-2014-agile-childsnack-19.pddl,CRASHED:256.93:1000000000.0:300.0:-1
ipc-2014-agile-citycar-p3-2-2-0-1.pddl,SAT:2.88456:612.0:300.0:-1
ipc-2014-agile-citycar-p3-3-2-0-1.pddl,SAT:6.43702:396.0:300.0:-1
ipc-2014-agile-citycar-p3-4-2-0-1.pddl,SAT:34.9437:758.0:300.0:-1
ipc-2014-agile-citycar-p3-5-2-0-1.pddl,SAT:127.985:3481.0:300.0:-1
ipc-2014-agile-citycar-p3-5-2-0-2.pddl,SAT:30.0654:696.0:300.0:-1
ipc-2014-agile-citycar-p4-2-2-0-1.pddl,TIMEOUT:301.03:-1.0:300.0:-1
ipc-2014-agile-citycar-p4-2-3-0-1.pddl,TIMEOUT:301.09:-1.0:300.0:-1
ipc-2014-agile-citycar-p4-2-3-0-2.pddl,TIMEOUT:301.06:-1.0:300.0:-1
ipc-2014-agile-citycar-p4-3-2-0-1.pddl,TIMEOUT:301.05:-1.0:300.0:-1
ipc-2014-agile-citycar-p4-3-2-0-2.pddl,TIMEOUT:301.08:-1.0:300.0:-1
ipc-2014-agile-citycar-p4-3-3-0-1.pddl,TIMEOUT:301.06:-1.0:300.0:-1
ipc-2014-agile-citycar-p4-3-3-0-2.pddl,TIMEOUT:301.09:-1.0:300.0:-1
ipc-2014-agile-citycar-p4-4-2-0-1.pddl,TIMEOUT:301.03:-1.0:300.0:-1
ipc-2014-agile-citycar-p4-4-2-0-2.pddl,TIMEOUT:301.03:-1.0:300.0:-1
ipc-2014-agile-citycar-p4-4-3-0-1.pddl,TIMEOUT:301.05:-1.0:300.0:-1
ipc-2014-agile-citycar-p4-4-3-0-2.pddl,TIMEOUT:301.07:-1.0:300.0:-1
ipc-2014-agile-citycar-p4-5-2-0-1.pddl,TIMEOUT:301.01:-1.0:300.0:-1
ipc-2014-agile-citycar-p4-5-2-0-2.pddl,TIMEOUT:301.07:-1.0:300.0:-1
ipc-2014-agile-citycar-p4-5-3-0-1.pddl,TIMEOUT:301.03:-1.0:300.0:-1
ipc-2014-agile-citycar-p4-5-3-0-2.pddl,TIMEOUT:301.04:-1.0:300.0:-1
ipc-2014-agile-floortile-p01-4-3-2.pddl,SAT:9.11461:102.0:300.0:-1
ipc-2014-agile-floortile-p01-5-4-2.pddl,TIMEOUT:301.03:-1.0:300.0:-1
ipc-2014-agile-floortile-p01-5-5-2.pddl,TIMEOUT:301.1:-1.0:300.0:-1
ipc-2014-agile-floortile-p01-6-4-2.pddl,TIMEOUT:301.02:-1.0:300.0:-1
ipc-2014-agile-floortile-p01-6-5-2.pddl,TIMEOUT:301.04:-1.0:300.0:-1
ipc-2014-agile-floortile-p01-6-5-3.pddl,TIMEOUT:301.04:-1.0:300.0:-1
ipc-2014-agile-floortile-p02-5-4-2.pddl,TIMEOUT:301.05:-1.0:300.0:-1
ipc-2014-agile-floortile-p02-6-4-2.pddl,TIMEOUT:301.02:-1.0:300.0:-1
ipc-2014-agile-floortile-p02-6-5-2.pddl,TIMEOUT:301.03:-1.0:300.0:-1
ipc-2014-agile-floortile-p02-6-5-3.pddl,TIMEOUT:301.07:-1.0:300.0:-1
ipc-2014-agile-floortile-p03-6-4-2.pddl,TIMEOUT:301.07:-1.0:300.0:-1
ipc-2014-agile-floortile-p03-6-5-2.pddl,TIMEOUT:301.08:-1.0:300.0:-1
ipc-2014-agile-floortile-p03-6-5-3.pddl,TIMEOUT:301.11:-1.0:300.0:-1
ipc-2014-agile-floortile-p04-5-4-2.pddl,TIMEOUT:301.02:-1.0:300.0:-1
ipc-2014-agile-floortile-p04-5-5-2.pddl,TIMEOUT:301.09:-1.0:300.0:-1
ipc-2014-agile-floortile-p04-6-5-2.pddl,TIMEOUT:301.03:-1.0:300.0:-1
ipc-2014-agile-floortile-p04-6-5-3.pddl,TIMEOUT:301.02:-1.0:300.0:-1
ipc-2014-agile-floortile-p05-4-3-2.pddl,SAT:4.6073:114.0:300.0:-1
ipc-2014-agile-floortile-p05-6-5-2.pddl,TIMEOUT:301.06:-1.0:300.0:-1
ipc-2014-agile-floortile-p05-6-5-3.pddl,TIMEOUT:301.1:-1.0:300.0:-1
ipc-2014-agile-ged-d-10-1.pddl,SAT:4.5933:40.0:300.0:-1
ipc-2014-agile-ged-d-10-2.pddl,SAT:4.6223:41.0:300.0:-1
ipc-2014-agile-ged-d-10-3.pddl,SAT:4.93325:55.0:300.0:-1
ipc-2014-agile-ged-d-10-4.pddl,SAT:3.68844:38.0:300.0:-1
ipc-2014-agile-ged-d-10-5.pddl,SAT:7.99378:57.0:300.0:-1
ipc-2014-agile-ged-d-10-6.pddl,SAT:6.91095:48.0:300.0:-1
ipc-2014-agile-ged-d-11-1.pddl,SAT:4.39833:33.0:300.0:-1
ipc-2014-agile-ged-d-11-3.pddl,SAT:3.9414:29.0:300.0:-1
ipc-2014-agile-ged-d-11-5.pddl,SAT:5.69313:40.0:300.0:-1
ipc-2014-agile-ged-d-11-6.pddl,SAT:4.54131:35.0:300.0:-1
ipc-2014-agile-ged-d-12-11.pddl,SAT:5.39118:37.0:300.0:-1
ipc-2014-agile-ged-d-12-2.pddl,SAT:11.5082:66.0:300.0:-1
ipc-2014-agile-ged-d-12-3.pddl,SAT:10.8713:63.0:300.0:-1
ipc-2014-agile-ged-d-12-5.pddl,SAT:12.849:66.0:300.0:-1
ipc-2014-agile-ged-d-12-6.pddl,SAT:8.46271:63.0:300.0:-1
ipc-2014-agile-ged-d-12-7.pddl,SAT:9.94149:66.0:300.0:-1
ipc-2014-agile-ged-d-12-8.pddl,SAT:16.9444:89.0:300.0:-1
ipc-2014-agile-ged-d-12-9.pddl,SAT:16.9924:72.0:300.0:-1
ipc-2014-agile-ged-d-3-6.pddl,SAT:3.97839:29.0:300.0:-1
ipc-2014-agile-ged-d-9-5.pddl,SAT:4.40633:28.0:300.0:-1
ipc-2014-agile-hiking-3-4-3.pddl,SAT:1.92171:12.0:300.0:-1
ipc-2014-agile-hiking-3-4-4.pddl,SAT:3.39048:21.0:300.0:-1
ipc-2014-agile-hiking-3-4-5.pddl,SAT:9.93549:42.0:300.0:-1
ipc-2014-agile-hiking-3-4-6.pddl,SAT:36.9174:115.0:300.0:-1
ipc-2014-agile-hiking-3-4-7.pddl,SAT:77.8422:116.0:300.0:-1
ipc-2014-agile-hiking-3-4-8.pddl,SAT:151.434:123.0:300.0:-1
ipc-2014-agile-hiking-3-4-9.pddl,SAT:285.926:235.0:300.0:-1
ipc-2014-agile-hiking-4-5-3.pddl,SAT:5.04423:15.0:300.0:-1
ipc-2014-agile-hiking-4-5-4.pddl,SAT:11.6172:27.0:300.0:-1
ipc-2014-agile-hiking-4-5-5.pddl,SAT:39.677:48.0:300.0:-1
ipc-2014-agile-hiking-4-5-6.pddl,SAT:97.0083:81.0:300.0:-1
ipc-2014-agile-hiking-4-5-7.pddl,SAT:217.019:157.0:300.0:-1
ipc-2014-agile-hiking-4-5-8.pddl,TIMEOUT:301.02:-1.0:300.0:-1
ipc-2014-agile-hiking-4-5-9.pddl,TIMEOUT:301.07:-1.0:300.0:-1
ipc-2014-agile-hiking-5-6-3.pddl,SAT:14.7918:22.0:300.0:-1
ipc-2014-agile-hiking-5-6-4.pddl,SAT:65.811:31.0:300.0:-1
ipc-2014-agile-hiking-5-6-5.pddl,SAT:100.17:59.0:300.0:-1
ipc-2014-agile-hiking-5-6-6.pddl,TIMEOUT:301.07:-1.0:300.0:-1
ipc-2014-agile-hiking-5-6-7.pddl,TIMEOUT:301.04:-1.0:300.0:-1
ipc-2014-agile-hiking-5-6-8.pddl,TIMEOUT:301.04:-1.0:300.0:-1
ipc-2014-agile-maintenance-1.3.060.180.5-000.pddl,SAT:15.6456:57.0:300.0:-1
ipc-2014-agile-maintenance-1.3.060.180.5-001.pddl,SAT:32.849:55.0:300.0:-1
ipc-2014-agile-maintenance-1.3.060.180.5-002.pddl,SAT:30.1284:55.0:300.0:-1
ipc-2014-agile-maintenance-1.3.100.300.5-000.pddl,TIMEOUT:301.1:-1.0:300.0:-1
ipc-2014-agile-maintenance-1.3.100.300.5-001.pddl,SAT:43.0275:94.0:300.0:-1
ipc-2014-agile-maintenance-1.3.100.300.7-000.pddl,SAT:3.17452:79.0:300.0:-1
ipc-2014-agile-maintenance-1.3.100.300.7-001.pddl,SAT:3.33549:88.0:300.0:-1
ipc-2014-agile-maintenance-1.3.100.300.7-002.pddl,SAT:3.19851:80.0:300.0:-1
ipc-2014-agile-maintenance-1.3.150.500.6-001.pddl,SAT:227.725:124.0:300.0:-1
ipc-2014-agile-maintenance-1.3.200.500.5-001.pddl,TIMEOUT:301.02:-1.0:300.0:-1
ipc-2014-agile-maintenance-1.3.200.500.5-002.pddl,TIMEOUT:301.08:-1.0:300.0:-1
ipc-2014-agile-maintenance-1.3.200.700.7-000.pddl,TIMEOUT:301.0:-1.0:300.0:-1
ipc-2014-agile-maintenance-1.3.200.700.7-001.pddl,SAT:13.364:162.0:300.0:-1
ipc-2014-agile-maintenance-1.3.200.700.7-002.pddl,SAT:13.432:164.0:300.0:-1
ipc-2014-agile-maintenance-1.3.200.900.5-000.pddl,TIMEOUT:301.06:-1.0:300.0:-1
ipc-2014-agile-maintenance-1.3.200.900.5-001.pddl,TIMEOUT:301.0:-1.0:300.0:-1
ipc-2014-agile-maintenance-1.3.200.900.5-002.pddl,TIMEOUT:301.07:-1.0:300.0:-1
ipc-2014-agile-maintenance-1.3.200.900.8-000.pddl,SAT:21.1348:168.0:300.0:-1
ipc-2014-agile-maintenance-1.3.200.900.8-001.pddl,SAT:253.771:180.0:300.0:-1
ipc-2014-agile-maintenance-1.3.200.900.8-002.pddl,SAT:21.2008:154.0:300.0:-1
ipc-2014-agile-openstacks-p130_2.pddl,SAT:18.2812:62.0:300.0:-1
ipc-2014-agile-openstacks-p130_3.pddl,SAT:23.8364:108.0:300.0:-1
ipc-2014-agile-openstacks-p150_2.pddl,SAT:26.207:75.0:300.0:-1
ipc-2014-agile-openstacks-p150_3.pddl,SAT:36.3345:131.0:300.0:-1
ipc-2014-agile-openstacks-p170_1.pddl,SAT:34.2018:72.0:300.0:-1
ipc-2014-agile-openstacks-p170_2.pddl,SAT:36.2565:103.0:300.0:-1
ipc-2014-agile-openstacks-p170_3.pddl,SAT:48.7506:146.0:300.0:-1
ipc-2014-agile-openstacks-p190_1.pddl,SAT:46.7419:103.0:300.0:-1
ipc-2014-agile-openstacks-p190_2.pddl,SAT:49.1215:113.0:300.0:-1
ipc-2014-agile-openstacks-p190_3.pddl,SAT:67.5657:170.0:300.0:-1
ipc-2014-agile-openstacks-p210_1.pddl,SAT:62.8584:107.0:300.0:-1
ipc-2014-agile-openstacks-p210_2.pddl,SAT:65.516:128.0:300.0:-1
ipc-2014-agile-openstacks-p230_1.pddl,SAT:81.7646:119.0:300.0:-1
ipc-2014-agile-openstacks-p230_2.pddl,SAT:89.6884:140.0:300.0:-1
ipc-2014-agile-openstacks-p250_1.pddl,SAT:107.37:144.0:300.0:-1
ipc-2014-agile-openstacks-p250_2.pddl,SAT:113.246:160.0:300.0:-1
ipc-2014-agile-openstacks-p270_1.pddl,SAT:140.285:154.0:300.0:-1
ipc-2014-agile-openstacks-p270_2.pddl,SAT:149.129:177.0:300.0:-1
ipc-2014-agile-openstacks-p290_1.pddl,SAT:182.588:171.0:300.0:-1
ipc-2014-agile-openstacks-p290_2.pddl,SAT:196.636:205.0:300.0:-1
ipc-2014-agile-parking-28_2.pddl,SAT:51.8921:91.0:300.0:-1
ipc-2014-agile-parking-28_3.pddl,SAT:107.398:125.0:300.0:-1
ipc-2014-agile-parking-30_1.pddl,SAT:120.922:161.0:300.0:-1
ipc-2014-agile-parking-30_2.pddl,SAT:49.3415:82.0:300.0:-1
ipc-2014-agile-parking-30_3.pddl,SAT:125.012:133.0:300.0:-1
ipc-2014-agile-parking-32_1.pddl,SAT:102.788:101.0:300.0:-1
ipc-2014-agile-parking-32_2.pddl,SAT:139.938:112.0:300.0:-1
ipc-2014-agile-parking-32_3.pddl,SAT:291.8:199.0:300.0:-1
ipc-2014-agile-parking-34_1.pddl,SAT:163.937:113.0:300.0:-1
ipc-2014-agile-parking-34_2.pddl,SAT:132.35:119.0:300.0:-1
ipc-2014-agile-parking-34_3.pddl,SAT:124.688:103.0:300.0:-1
ipc-2014-agile-parking-36_1.pddl,TIMEOUT:301.04:-1.0:300.0:-1
ipc-2014-agile-parking-36_2.pddl,TIMEOUT:301.1:-1.0:300.0:-1
ipc-2014-agile-parking-36_3.pddl,TIMEOUT:301.02:-1.0:300.0:-1
ipc-2014-agile-parking-38_1.pddl,SAT:147.277:115.0:300.0:-1
ipc-2014-agile-parking-38_2.pddl,SAT:297.517:137.0:300.0:-1
ipc-2014-agile-parking-38_3.pddl,SAT:179.678:114.0:300.0:-1
ipc-2014-agile-parking-40_1.pddl,TIMEOUT:301.03:-1.0:300.0:-1
ipc-2014-agile-parking-40_2.pddl,TIMEOUT:301.03:-1.0:300.0:-1
ipc-2014-agile-parking-40_3.pddl,TIMEOUT:301.03:-1.0:300.0:-1
ipc-2014-agile-tetris-020.pddl,SAT:30.7823:116.0:300.0:-1
ipc-2014-agile-tetris-021.pddl,SAT:76.0064:270.0:300.0:-1
ipc-2014-agile-tetris-022.pddl,TIMEOUT:301.03:-1.0:300.0:-1
ipc-2014-agile-tetris-023.pddl,SAT:145.481:374.0:300.0:-1
ipc-2014-agile-tetris-024.pddl,TIMEOUT:301.05:-1.0:300.0:-1
ipc-2014-agile-tetris-025.pddl,SAT:48.7416:145.0:300.0:-1
ipc-2014-agile-tetris-026.pddl,TIMEOUT:301.07:-1.0:300.0:-1
ipc-2014-agile-tetris-027.pddl,TIMEOUT:301.08:-1.0:300.0:-1
ipc-2014-agile-tetris-028.pddl,SAT:233.56:321.0:300.0:-1
ipc-2014-agile-tetris-029.pddl,SAT:84.7411:248.0:300.0:-1
ipc-2014-agile-tetris-031.pddl,TIMEOUT:301.06:-1.0:300.0:-1
ipc-2014-agile-tetris-032.pddl,TIMEOUT:301.03:-1.0:300.0:-1
ipc-2014-agile-tetris-033.pddl,TIMEOUT:301.02:-1.0:300.0:-1
ipc-2014-agile-tetris-034.pddl,TIMEOUT:301.07:-1.0:300.0:-1
ipc-2014-agile-tetris-035.pddl,TIMEOUT:301.08:-1.0:300.0:-1
ipc-2014-agile-tetris-036.pddl,TIMEOUT:301.06:-1.0:300.0:-1
ipc-2014-agile-tetris-037.pddl,SAT:173.643:351.0:300.0:-1
ipc-2014-agile-tetris-038.pddl,TIMEOUT:301.05:-1.0:300.0:-1
ipc-2014-agile-tetris-039.pddl,TIMEOUT:301.08:-1.0:300.0:-1
ipc-2014-agile-tetris-040.pddl,TIMEOUT:301.03:-1.0:300.0:-1
ipc-2014-agile-thoughtful-bootstrap-typed-01.pddl,CRASHED:0.135978:1000000000.0:300.0:-1
ipc-2014-agile-thoughtful-bootstrap-typed-02.pddl,CRASHED:0.12498:1000000000.0:300.0:-1
ipc-2014-agile-thoughtful-bootstrap-typed-03.pddl,CRASHED:0.12498:1000000000.0:300.0:-1
ipc-2014-agile-thoughtful-bootstrap-typed-04.pddl,CRASHED:0.117981:1000000000.0:300.0:-1
ipc-2014-agile-thoughtful-bootstrap-typed-05.pddl,CRASHED:0.118981:1000000000.0:300.0:-1
ipc-2014-agile-thoughtful-p11_6_53-typed.pddl,CRASHED:0.128979:1000000000.0:300.0:-1
ipc-2014-agile-thoughtful-p11_6_59-typed.pddl,CRASHED:0.12898:1000000000.0:300.0:-1
ipc-2014-agile-thoughtful-p11_6_62-typed.pddl,CRASHED:0.140978:1000000000.0:300.0:-1
ipc-2014-agile-thoughtful-p13_7_78-typed.pddl,CRASHED:0.138978:1000000000.0:300.0:-1
ipc-2014-agile-thoughtful-p13_7_79-typed.pddl,CRASHED:0.139978:1000000000.0:300.0:-1
ipc-2014-agile-thoughtful-p13_7_86-typed.pddl,CRASHED:0.135979:1000000000.0:300.0:-1
ipc-2014-agile-thoughtful-target-typed-20.pddl,CRASHED:0.131979:1000000000.0:300.0:-1
ipc-2014-agile-thoughtful-target-typed-21.pddl,CRASHED:0.129979:1000000000.0:300.0:-1
ipc-2014-agile-thoughtful-target-typed-22.pddl,CRASHED:0.130979:1000000000.0:300.0:-1
ipc-2014-agile-thoughtful-target-typed-23.pddl,CRASHED:0.135978:1000000000.0:300.0:-1
ipc-2014-agile-thoughtful-target-typed-24.pddl,CRASHED:0.239963:1000000000.0:300.0:-1
ipc-2014-agile-thoughtful-target-typed-25.pddl,CRASHED:0.225965:1000000000.0:300.0:-1
ipc-2014-agile-thoughtful-target-typed-26.pddl,CRASHED:0.224965:1000000000.0:300.0:-1
ipc-2014-agile-thoughtful-target-typed-27.pddl,CRASHED:0.226965:1000000000.0:300.0:-1
ipc-2014-agile-thoughtful-target-typed-28.pddl,CRASHED:0.226964:1000000000.0:300.0:-1
ipc-2014-agile-transport-01.pddl,SAT:31.7072:2104.0:300.0:-1
ipc-2014-agile-transport-02.pddl,SAT:122.303:3913.0:300.0:-1
ipc-2014-agile-transport-03.pddl,SAT:44.5212:3076.0:300.0:-1
ipc-2014-agile-transport-04.pddl,TIMEOUT:301.03:-1.0:300.0:-1
ipc-2014-agile-transport-05.pddl,TIMEOUT:301.03:-1.0:300.0:-1
ipc-2014-agile-transport-06.pddl,TIMEOUT:301.05:-1.0:300.0:-1
ipc-2014-agile-transport-07.pddl,TIMEOUT:301.09:-1.0:300.0:-1
ipc-2014-agile-transport-08.pddl,TIMEOUT:301.03:-1.0:300.0:-1
ipc-2014-agile-transport-09.pddl,TIMEOUT:301.09:-1.0:300.0:-1
ipc-2014-agile-transport-10.pddl,TIMEOUT:301.06:-1.0:300.0:-1
ipc-2014-agile-transport-11.pddl,SAT:239.949:3189.0:300.0:-1
ipc-2014-agile-transport-12.pddl,SAT:91.5931:2371.0:300.0:-1
ipc-2014-agile-transport-13.pddl,SAT:45.4531:2647.0:300.0:-1
ipc-2014-agile-transport-14.pddl,TIMEOUT:301.08:-1.0:300.0:-1
ipc-2014-agile-transport-15.pddl,TIMEOUT:301.06:-1.0:300.0:-1
ipc-2014-agile-transport-16.pddl,TIMEOUT:301.02:-1.0:300.0:-1
ipc-2014-agile-transport-17.pddl,TIMEOUT:301.02:-1.0:300.0:-1
ipc-2014-agile-transport-18.pddl,TIMEOUT:301.06:-1.0:300.0:-1
ipc-2014-agile-transport-19.pddl,SAT:208.333:6860.0:300.0:-1
ipc-2014-agile-transport-20.pddl,TIMEOUT:301.04:-1.0:300.0:-1
ipc-2014-agile-visitall-30.pddl,SAT:14.2488:1285.0:300.0:-1
ipc-2014-agile-visitall-31.pddl,SAT:15.8826:1294.0:300.0:-1
ipc-2014-agile-visitall-32.pddl,SAT:13.6989:1412.0:300.0:-1
ipc-2014-agile-visitall-33.pddl,SAT:17.7183:1418.0:300.0:-1
ipc-2014-agile-visitall-50.pddl,SAT:131.867:3239.0:300.0:-1
ipc-2014-agile-visitall-51.pddl,SAT:116.823:3445.0:300.0:-1
ipc-2014-agile-visitall-52.pddl,SAT:155.23:3541.0:300.0:-1
ipc-2014-agile-visitall-53.pddl,SAT:173.533:3771.0:300.0:-1
ipc-2014-agile-visitall-54.pddl,SAT:186.626:3835.0:300.0:-1
ipc-2014-agile-visitall-55.pddl,SAT:231.884:4222.0:300.0:-1
ipc-2014-agile-visitall-56.pddl,SAT:219.794:4173.0:300.0:-1
ipc-2014-agile-visitall-57.pddl,SAT:216.711:4212.0:300.0:-1
ipc-2014-agile-visitall-58.pddl,TIMEOUT:301.08:-1.0:300.0:-1
ipc-2014-agile-visitall-59.pddl,TIMEOUT:301.08:-1.0:300.0:-1
ipc-2014-agile-visitall-60.pddl,TIMEOUT:301.03:-1.0:300.0:-1
ipc-2014-agile-visitall-61.pddl,TIMEOUT:301.08:-1.0:300.0:-1
ipc-2014-agile-visitall-62.pddl,TIMEOUT:301.05:-1.0:300.0:-1
ipc-2014-agile-visitall-63.pddl,TIMEOUT:301.12:-1.0:300.0:-1
ipc-2014-agile-visitall-64.pddl,TIMEOUT:301.05:-1.0:300.0:-1
ipc-2014-agile-visitall-65.pddl,TIMEOUT:301.04:-1.0:300.0:-1
