instance,ipc-2014-agile-probe
ipc-2014-agile-barman-p1-11-4-15.pddl,SAT:1.08083:213.0:300.0:-1
ipc-2014-agile-barman-p1-11-5-15.pddl,SAT:68.0387:229.0:300.0:-1
ipc-2014-agile-barman-p1-11-5-16.pddl,SAT:8.26874:213.0:300.0:-1
ipc-2014-agile-barman-p2-10-4-13.pddl,SAT:0.756884:209.0:300.0:-1
ipc-2014-agile-barman-p2-11-4-15.pddl,SAT:0.941856:174.0:300.0:-1
ipc-2014-agile-barman-p2-11-5-15.pddl,SAT:1.07383:180.0:300.0:-1
ipc-2014-agile-barman-p2-11-5-16.pddl,SAT:11.9892:259.0:300.0:-1
ipc-2014-agile-barman-p2-11-5-17.pddl,SAT:11.9642:296.0:300.0:-1
ipc-2014-agile-barman-p3-10-4-13.pddl,SAT:0.642901:172.0:300.0:-1
ipc-2014-agile-barman-p3-11-4-15.pddl,SAT:1.44978:245.0:300.0:-1
ipc-2014-agile-barman-p3-11-5-15.pddl,SAT:3.46547:188.0:300.0:-1
ipc-2014-agile-barman-p3-11-5-16.pddl,SAT:1.26181:196.0:300.0:-1
ipc-2014-agile-barman-p3-11-5-17.pddl,SAT:1.15382:200.0:300.0:-1
ipc-2014-agile-barman-p4-11-4-14.pddl,SAT:0.997847:163.0:300.0:-1
ipc-2014-agile-barman-p4-11-4-15.pddl,SAT:0.867867:193.0:300.0:-1
ipc-2014-agile-barman-p4-11-5-15.pddl,SAT:1.17482:205.0:300.0:-1
ipc-2014-agile-barman-p5-10-4-13.pddl,SAT:0.666898:170.0:300.0:-1
ipc-2014-agile-barman-p5-11-4-15.pddl,SAT:0.837872:189.0:300.0:-1
ipc-2014-agile-barman-p5-11-5-15.pddl,SAT:1.69874:205.0:300.0:-1
ipc-2014-agile-barman-p5-11-5-16.pddl,SAT:77.0253:225.0:300.0:-1
ipc-2014-agile-cavediving-01_easy.pddl,TIMEOUT:301.116:-1.0:300.0:-1
ipc-2014-agile-cavediving-01.pddl,TIMEOUT:301.125:-1.0:300.0:-1
ipc-2014-agile-cavediving-02_easy.pddl,TIMEOUT:301.193:-1.0:300.0:-1
ipc-2014-agile-cavediving-03_easy.pddl,TIMEOUT:301.098:-1.0:300.0:-1
ipc-2014-agile-cavediving-04_easy.pddl,TIMEOUT:301.176:-1.0:300.0:-1
ipc-2014-agile-cavediving-05A_easy.pddl,TIMEOUT:301.141:-1.0:300.0:-1
ipc-2014-agile-cavediving-06A_easy.pddl,TIMEOUT:301.098:-1.0:300.0:-1
ipc-2014-agile-cavediving-07_easy.pddl,TIMEOUT:301.146:-1.0:300.0:-1
ipc-2014-agile-cavediving-08_easy.pddl,TIMEOUT:301.123:-1.0:300.0:-1
ipc-2014-agile-cavediving-09_easy.pddl,TIMEOUT:301.093:-1.0:300.0:-1
ipc-2014-agile-cavediving-10_easy.pddl,TIMEOUT:301.106:-1.0:300.0:-1
ipc-2014-agile-cavediving-11_easy.pddl,TIMEOUT:301.083:-1.0:300.0:-1
ipc-2014-agile-cavediving-12_easy.pddl,TIMEOUT:301.095:-1.0:300.0:-1
ipc-2014-agile-cavediving-13_easy.pddl,TIMEOUT:301.142:-1.0:300.0:-1
ipc-2014-agile-cavediving-14_easy.pddl,TIMEOUT:301.153:-1.0:300.0:-1
ipc-2014-agile-cavediving-15_easy.pddl,TIMEOUT:301.12:-1.0:300.0:-1
ipc-2014-agile-cavediving-16_easy.pddl,TIMEOUT:301.104:-1.0:300.0:-1
ipc-2014-agile-cavediving-18A_easy.pddl,TIMEOUT:301.142:-1.0:300.0:-1
ipc-2014-agile-cavediving-18_easy.pddl,SAT:5.41218:132.0:300.0:-1
ipc-2014-agile-cavediving-20A_easy.pddl,TIMEOUT:301.086:-1.0:300.0:-1
ipc-2014-agile-childsnack-05-2.pddl,TIMEOUT:301.111:-1.0:300.0:-1
ipc-2014-agile-childsnack-05.pddl,TIMEOUT:301.083:-1.0:300.0:-1
ipc-2014-agile-childsnack-06-2.pddl,TIMEOUT:301.099:-1.0:300.0:-1
ipc-2014-agile-childsnack-07-2.pddl,TIMEOUT:301.144:-1.0:300.0:-1
ipc-2014-agile-childsnack-08-2.pddl,TIMEOUT:301.127:-1.0:300.0:-1
ipc-2014-agile-childsnack-08.pddl,TIMEOUT:301.08:-1.0:300.0:-1
ipc-2014-agile-childsnack-09-2.pddl,TIMEOUT:301.089:-1.0:300.0:-1
ipc-2014-agile-childsnack-09.pddl,TIMEOUT:301.09:-1.0:300.0:-1
ipc-2014-agile-childsnack-10-2.pddl,TIMEOUT:301.152:-1.0:300.0:-1
ipc-2014-agile-childsnack-10.pddl,TIMEOUT:301.157:-1.0:300.0:-1
ipc-2014-agile-childsnack-11-2.pddl,TIMEOUT:301.132:-1.0:300.0:-1
ipc-2014-agile-childsnack-11.pddl,TIMEOUT:301.113:-1.0:300.0:-1
ipc-2014-agile-childsnack-12.pddl,TIMEOUT:301.164:-1.0:300.0:-1
ipc-2014-agile-childsnack-13-2.pddl,TIMEOUT:301.146:-1.0:300.0:-1
ipc-2014-agile-childsnack-13.pddl,TIMEOUT:301.164:-1.0:300.0:-1
ipc-2014-agile-childsnack-14.pddl,TIMEOUT:301.132:-1.0:300.0:-1
ipc-2014-agile-childsnack-15-2.pddl,TIMEOUT:301.14:-1.0:300.0:-1
ipc-2014-agile-childsnack-16-2.pddl,TIMEOUT:301.172:-1.0:300.0:-1
ipc-2014-agile-childsnack-19-2.pddl,TIMEOUT:301.213:-1.0:300.0:-1
ipc-2014-agile-childsnack-19.pddl,TIMEOUT:301.102:-1.0:300.0:-1
ipc-2014-agile-citycar-p3-2-2-0-1.pddl,SAT:0.354945:439.0:300.0:-1
ipc-2014-agile-citycar-p3-3-2-0-1.pddl,SAT:0.468928:610.0:300.0:-1
ipc-2014-agile-citycar-p3-4-2-0-1.pddl,SAT:3.42748:552.0:300.0:-1
ipc-2014-agile-citycar-p3-5-2-0-1.pddl,SAT:3.86641:984.0:300.0:-1
ipc-2014-agile-citycar-p3-5-2-0-2.pddl,SAT:0.925858:1078.0:300.0:-1
ipc-2014-agile-citycar-p4-2-2-0-1.pddl,TIMEOUT:301.133:-1.0:300.0:-1
ipc-2014-agile-citycar-p4-2-3-0-1.pddl,TIMEOUT:301.137:-1.0:300.0:-1
ipc-2014-agile-citycar-p4-2-3-0-2.pddl,SAT:4.71728:574.0:300.0:-1
ipc-2014-agile-citycar-p4-3-2-0-1.pddl,SAT:28.8656:861.0:300.0:-1
ipc-2014-agile-citycar-p4-3-2-0-2.pddl,TIMEOUT:301.196:-1.0:300.0:-1
ipc-2014-agile-citycar-p4-3-3-0-1.pddl,TIMEOUT:301.199:-1.0:300.0:-1
ipc-2014-agile-citycar-p4-3-3-0-2.pddl,SAT:5.08623:722.0:300.0:-1
ipc-2014-agile-citycar-p4-4-2-0-1.pddl,TIMEOUT:301.078:-1.0:300.0:-1
ipc-2014-agile-citycar-p4-4-2-0-2.pddl,SAT:8.34773:721.0:300.0:-1
ipc-2014-agile-citycar-p4-4-3-0-1.pddl,TIMEOUT:301.184:-1.0:300.0:-1
ipc-2014-agile-citycar-p4-4-3-0-2.pddl,SAT:162.111:916.0:300.0:-1
ipc-2014-agile-citycar-p4-5-2-0-1.pddl,TIMEOUT:301.074:-1.0:300.0:-1
ipc-2014-agile-citycar-p4-5-2-0-2.pddl,TIMEOUT:301.119:-1.0:300.0:-1
ipc-2014-agile-citycar-p4-5-3-0-1.pddl,TIMEOUT:301.076:-1.0:300.0:-1
ipc-2014-agile-citycar-p4-5-3-0-2.pddl,TIMEOUT:301.143:-1.0:300.0:-1
ipc-2014-agile-floortile-p01-4-3-2.pddl,SAT:155.859:104.0:300.0:-1
ipc-2014-agile-floortile-p01-5-4-2.pddl,TIMEOUT:301.083:-1.0:300.0:-1
ipc-2014-agile-floortile-p01-5-5-2.pddl,TIMEOUT:301.144:-1.0:300.0:-1
ipc-2014-agile-floortile-p01-6-4-2.pddl,TIMEOUT:301.135:-1.0:300.0:-1
ipc-2014-agile-floortile-p01-6-5-2.pddl,TIMEOUT:301.153:-1.0:300.0:-1
ipc-2014-agile-floortile-p01-6-5-3.pddl,TIMEOUT:301.086:-1.0:300.0:-1
ipc-2014-agile-floortile-p02-5-4-2.pddl,TIMEOUT:301.089:-1.0:300.0:-1
ipc-2014-agile-floortile-p02-6-4-2.pddl,TIMEOUT:301.143:-1.0:300.0:-1
ipc-2014-agile-floortile-p02-6-5-2.pddl,TIMEOUT:301.086:-1.0:300.0:-1
ipc-2014-agile-floortile-p02-6-5-3.pddl,TIMEOUT:301.122:-1.0:300.0:-1
ipc-2014-agile-floortile-p03-6-4-2.pddl,TIMEOUT:301.126:-1.0:300.0:-1
ipc-2014-agile-floortile-p03-6-5-2.pddl,TIMEOUT:301.136:-1.0:300.0:-1
ipc-2014-agile-floortile-p03-6-5-3.pddl,TIMEOUT:301.167:-1.0:300.0:-1
ipc-2014-agile-floortile-p04-5-4-2.pddl,TIMEOUT:301.12:-1.0:300.0:-1
ipc-2014-agile-floortile-p04-5-5-2.pddl,TIMEOUT:301.109:-1.0:300.0:-1
ipc-2014-agile-floortile-p04-6-5-2.pddl,TIMEOUT:301.084:-1.0:300.0:-1
ipc-2014-agile-floortile-p04-6-5-3.pddl,TIMEOUT:301.122:-1.0:300.0:-1
ipc-2014-agile-floortile-p05-4-3-2.pddl,SAT:0.034994:77.0:300.0:-1
ipc-2014-agile-floortile-p05-6-5-2.pddl,TIMEOUT:301.132:-1.0:300.0:-1
ipc-2014-agile-floortile-p05-6-5-3.pddl,TIMEOUT:301.127:-1.0:300.0:-1
ipc-2014-agile-ged-d-10-1.pddl,SAT:17.7443:81.0:300.0:-1
ipc-2014-agile-ged-d-10-2.pddl,SAT:17.3754:34.0:300.0:-1
ipc-2014-agile-ged-d-10-3.pddl,SAT:2.73758:28.0:300.0:-1
ipc-2014-agile-ged-d-10-4.pddl,SAT:15.9206:72.0:300.0:-1
ipc-2014-agile-ged-d-10-5.pddl,SAT:24.5043:118.0:300.0:-1
ipc-2014-agile-ged-d-10-6.pddl,SAT:15.4297:50.0:300.0:-1
ipc-2014-agile-ged-d-11-1.pddl,SAT:5.82611:61.0:300.0:-1
ipc-2014-agile-ged-d-11-3.pddl,SAT:13.296:58.0:300.0:-1
ipc-2014-agile-ged-d-11-5.pddl,SAT:9.93549:39.0:300.0:-1
ipc-2014-agile-ged-d-11-6.pddl,SAT:10.3444:88.0:300.0:-1
ipc-2014-agile-ged-d-12-11.pddl,SAT:36.7754:93.0:300.0:-1
ipc-2014-agile-ged-d-12-2.pddl,SAT:54.2128:64.0:300.0:-1
ipc-2014-agile-ged-d-12-3.pddl,SAT:144.779:103.0:300.0:-1
ipc-2014-agile-ged-d-12-5.pddl,SAT:139.676:117.0:300.0:-1
ipc-2014-agile-ged-d-12-6.pddl,SAT:55.9815:124.0:300.0:-1
ipc-2014-agile-ged-d-12-7.pddl,SAT:130.217:154.0:300.0:-1
ipc-2014-agile-ged-d-12-8.pddl,SAT:206.602:153.0:300.0:-1
ipc-2014-agile-ged-d-12-9.pddl,SAT:107.236:166.0:300.0:-1
ipc-2014-agile-ged-d-3-6.pddl,SAT:12.6571:101.0:300.0:-1
ipc-2014-agile-ged-d-9-5.pddl,SAT:6.65699:61.0:300.0:-1
ipc-2014-agile-hiking-3-4-3.pddl,SAT:0.613905:17.0:300.0:-1
ipc-2014-agile-hiking-3-4-4.pddl,SAT:2.40963:28.0:300.0:-1
ipc-2014-agile-hiking-3-4-5.pddl,SAT:6.76897:46.0:300.0:-1
ipc-2014-agile-hiking-3-4-6.pddl,SAT:23.3874:57.0:300.0:-1
ipc-2014-agile-hiking-3-4-7.pddl,SAT:42.8505:61.0:300.0:-1
ipc-2014-agile-hiking-3-4-8.pddl,SAT:70.5503:74.0:300.0:-1
ipc-2014-agile-hiking-3-4-9.pddl,SAT:101.127:79.0:300.0:-1
ipc-2014-agile-hiking-4-5-3.pddl,SAT:3.02954:19.0:300.0:-1
ipc-2014-agile-hiking-4-5-4.pddl,SAT:14.0859:31.0:300.0:-1
ipc-2014-agile-hiking-4-5-5.pddl,SAT:64.8881:67.0:300.0:-1
ipc-2014-agile-hiking-4-5-6.pddl,SAT:93.5028:63.0:300.0:-1
ipc-2014-agile-hiking-4-5-7.pddl,SAT:159.066:61.0:300.0:-1
ipc-2014-agile-hiking-4-5-8.pddl,TIMEOUT:301.095:-1.0:300.0:-1
ipc-2014-agile-hiking-4-5-9.pddl,TIMEOUT:301.126:-1.0:300.0:-1
ipc-2014-agile-hiking-5-6-3.pddl,SAT:17.8433:22.0:300.0:-1
ipc-2014-agile-hiking-5-6-4.pddl,SAT:51.6391:30.0:300.0:-1
ipc-2014-agile-hiking-5-6-5.pddl,SAT:180.124:54.0:300.0:-1
ipc-2014-agile-hiking-5-6-6.pddl,TIMEOUT:301.149:-1.0:300.0:-1
ipc-2014-agile-hiking-5-6-7.pddl,TIMEOUT:301.144:-1.0:300.0:-1
ipc-2014-agile-hiking-5-6-8.pddl,TIMEOUT:301.138:-1.0:300.0:-1
ipc-2014-agile-maintenance-1.3.060.180.5-000.pddl,SAT:0.365944:46.0:300.0:-1
ipc-2014-agile-maintenance-1.3.060.180.5-001.pddl,SAT:0.361944:42.0:300.0:-1
ipc-2014-agile-maintenance-1.3.060.180.5-002.pddl,SAT:0.39394:49.0:300.0:-1
ipc-2014-agile-maintenance-1.3.100.300.5-000.pddl,SAT:1.46078:72.0:300.0:-1
ipc-2014-agile-maintenance-1.3.100.300.5-001.pddl,TIMEOUT:301.142:-1.0:300.0:-1
ipc-2014-agile-maintenance-1.3.100.300.7-000.pddl,SAT:1.49677:55.0:300.0:-1
ipc-2014-agile-maintenance-1.3.100.300.7-001.pddl,SAT:1.52977:61.0:300.0:-1
ipc-2014-agile-maintenance-1.3.100.300.7-002.pddl,SAT:1.51177:58.0:300.0:-1
ipc-2014-agile-maintenance-1.3.150.500.6-001.pddl,SAT:5.49316:103.0:300.0:-1
ipc-2014-agile-maintenance-1.3.200.500.5-001.pddl,TIMEOUT:301.59:-1.0:300.0:-1
ipc-2014-agile-maintenance-1.3.200.500.5-002.pddl,SAT:7.09592:141.0:300.0:-1
ipc-2014-agile-maintenance-1.3.200.700.7-000.pddl,CRASHED:3.34149:1000000000.0:300.0:-1
ipc-2014-agile-maintenance-1.3.200.700.7-001.pddl,CRASHED:3.19251:1000000000.0:300.0:-1
ipc-2014-agile-maintenance-1.3.200.700.7-002.pddl,CRASHED:3.16452:1000000000.0:300.0:-1
ipc-2014-agile-maintenance-1.3.200.900.5-000.pddl,CRASHED:6.43702:1000000000.0:300.0:-1
ipc-2014-agile-maintenance-1.3.200.900.5-001.pddl,CRASHED:6.48801:1000000000.0:300.0:-1
ipc-2014-agile-maintenance-1.3.200.900.5-002.pddl,CRASHED:6.29904:1000000000.0:300.0:-1
ipc-2014-agile-maintenance-1.3.200.900.8-000.pddl,CRASHED:6.14906:1000000000.0:300.0:-1
ipc-2014-agile-maintenance-1.3.200.900.8-001.pddl,CRASHED:6.20306:1000000000.0:300.0:-1
ipc-2014-agile-maintenance-1.3.200.900.8-002.pddl,CRASHED:6.17206:1000000000.0:300.0:-1
ipc-2014-agile-openstacks-p130_2.pddl,TIMEOUT:301.097:-1.0:300.0:-1
ipc-2014-agile-openstacks-p130_3.pddl,TIMEOUT:301.141:-1.0:300.0:-1
ipc-2014-agile-openstacks-p150_2.pddl,TIMEOUT:301.095:-1.0:300.0:-1
ipc-2014-agile-openstacks-p150_3.pddl,TIMEOUT:301.072:-1.0:300.0:-1
ipc-2014-agile-openstacks-p170_1.pddl,TIMEOUT:301.085:-1.0:300.0:-1
ipc-2014-agile-openstacks-p170_2.pddl,TIMEOUT:301.097:-1.0:300.0:-1
ipc-2014-agile-openstacks-p170_3.pddl,TIMEOUT:301.139:-1.0:300.0:-1
ipc-2014-agile-openstacks-p190_1.pddl,TIMEOUT:301.086:-1.0:300.0:-1
ipc-2014-agile-openstacks-p190_2.pddl,TIMEOUT:301.125:-1.0:300.0:-1
ipc-2014-agile-openstacks-p190_3.pddl,TIMEOUT:301.125:-1.0:300.0:-1
ipc-2014-agile-openstacks-p210_1.pddl,TIMEOUT:301.152:-1.0:300.0:-1
ipc-2014-agile-openstacks-p210_2.pddl,TIMEOUT:301.113:-1.0:300.0:-1
ipc-2014-agile-openstacks-p230_1.pddl,TIMEOUT:301.075:-1.0:300.0:-1
ipc-2014-agile-openstacks-p230_2.pddl,TIMEOUT:301.101:-1.0:300.0:-1
ipc-2014-agile-openstacks-p250_1.pddl,TIMEOUT:301.154:-1.0:300.0:-1
ipc-2014-agile-openstacks-p250_2.pddl,TIMEOUT:301.174:-1.0:300.0:-1
ipc-2014-agile-openstacks-p270_1.pddl,TIMEOUT:301.154:-1.0:300.0:-1
ipc-2014-agile-openstacks-p270_2.pddl,TIMEOUT:301.182:-1.0:300.0:-1
ipc-2014-agile-openstacks-p290_1.pddl,TIMEOUT:301.204:-1.0:300.0:-1
ipc-2014-agile-openstacks-p290_2.pddl,TIMEOUT:301.135:-1.0:300.0:-1
ipc-2014-agile-parking-28_2.pddl,SAT:84.6121:99.0:300.0:-1
ipc-2014-agile-parking-28_3.pddl,SAT:265.82:173.0:300.0:-1
ipc-2014-agile-parking-30_1.pddl,SAT:186.232:97.0:300.0:-1
ipc-2014-agile-parking-30_2.pddl,TIMEOUT:301.088:-1.0:300.0:-1
ipc-2014-agile-parking-30_3.pddl,TIMEOUT:301.109:-1.0:300.0:-1
ipc-2014-agile-parking-32_1.pddl,TIMEOUT:301.118:-1.0:300.0:-1
ipc-2014-agile-parking-32_2.pddl,TIMEOUT:301.126:-1.0:300.0:-1
ipc-2014-agile-parking-32_3.pddl,TIMEOUT:301.07:-1.0:300.0:-1
ipc-2014-agile-parking-34_1.pddl,TIMEOUT:301.118:-1.0:300.0:-1
ipc-2014-agile-parking-34_2.pddl,TIMEOUT:301.141:-1.0:300.0:-1
ipc-2014-agile-parking-34_3.pddl,TIMEOUT:301.159:-1.0:300.0:-1
ipc-2014-agile-parking-36_1.pddl,TIMEOUT:301.16:-1.0:300.0:-1
ipc-2014-agile-parking-36_2.pddl,TIMEOUT:301.113:-1.0:300.0:-1
ipc-2014-agile-parking-36_3.pddl,TIMEOUT:301.117:-1.0:300.0:-1
ipc-2014-agile-parking-38_1.pddl,TIMEOUT:301.195:-1.0:300.0:-1
ipc-2014-agile-parking-38_2.pddl,TIMEOUT:301.128:-1.0:300.0:-1
ipc-2014-agile-parking-38_3.pddl,TIMEOUT:301.188:-1.0:300.0:-1
ipc-2014-agile-parking-40_1.pddl,TIMEOUT:301.193:-1.0:300.0:-1
ipc-2014-agile-parking-40_2.pddl,TIMEOUT:301.154:-1.0:300.0:-1
ipc-2014-agile-parking-40_3.pddl,TIMEOUT:301.216:-1.0:300.0:-1
ipc-2014-agile-tetris-020.pddl,TIMEOUT:301.055:-1.0:300.0:-1
ipc-2014-agile-tetris-021.pddl,TIMEOUT:301.1:-1.0:300.0:-1
ipc-2014-agile-tetris-022.pddl,TIMEOUT:301.095:-1.0:300.0:-1
ipc-2014-agile-tetris-023.pddl,TIMEOUT:301.098:-1.0:300.0:-1
ipc-2014-agile-tetris-024.pddl,TIMEOUT:301.076:-1.0:300.0:-1
ipc-2014-agile-tetris-025.pddl,TIMEOUT:301.115:-1.0:300.0:-1
ipc-2014-agile-tetris-026.pddl,TIMEOUT:301.038:-1.0:300.0:-1
ipc-2014-agile-tetris-027.pddl,TIMEOUT:301.037:-1.0:300.0:-1
ipc-2014-agile-tetris-028.pddl,TIMEOUT:301.032:-1.0:300.0:-1
ipc-2014-agile-tetris-029.pddl,TIMEOUT:301.109:-1.0:300.0:-1
ipc-2014-agile-tetris-031.pddl,TIMEOUT:301.109:-1.0:300.0:-1
ipc-2014-agile-tetris-032.pddl,TIMEOUT:301.11:-1.0:300.0:-1
ipc-2014-agile-tetris-033.pddl,TIMEOUT:301.077:-1.0:300.0:-1
ipc-2014-agile-tetris-034.pddl,TIMEOUT:301.028:-1.0:300.0:-1
ipc-2014-agile-tetris-035.pddl,TIMEOUT:301.109:-1.0:300.0:-1
ipc-2014-agile-tetris-036.pddl,TIMEOUT:301.097:-1.0:300.0:-1
ipc-2014-agile-tetris-037.pddl,TIMEOUT:301.124:-1.0:300.0:-1
ipc-2014-agile-tetris-038.pddl,TIMEOUT:301.108:-1.0:300.0:-1
ipc-2014-agile-tetris-039.pddl,TIMEOUT:301.113:-1.0:300.0:-1
ipc-2014-agile-tetris-040.pddl,TIMEOUT:301.097:-1.0:300.0:-1
ipc-2014-agile-thoughtful-bootstrap-typed-01.pddl,SAT:0.216966:39.0:300.0:-1
ipc-2014-agile-thoughtful-bootstrap-typed-02.pddl,SAT:0.195969:35.0:300.0:-1
ipc-2014-agile-thoughtful-bootstrap-typed-03.pddl,SAT:0.224965:44.0:300.0:-1
ipc-2014-agile-thoughtful-bootstrap-typed-04.pddl,SAT:0.228964:37.0:300.0:-1
ipc-2014-agile-thoughtful-bootstrap-typed-05.pddl,SAT:0.200968:34.0:300.0:-1
ipc-2014-agile-thoughtful-p11_6_53-typed.pddl,SAT:12.852:128.0:300.0:-1
ipc-2014-agile-thoughtful-p11_6_59-typed.pddl,SAT:8.06477:127.0:300.0:-1
ipc-2014-agile-thoughtful-p11_6_62-typed.pddl,TIMEOUT:301.1:-1.0:300.0:-1
ipc-2014-agile-thoughtful-p13_7_78-typed.pddl,TIMEOUT:301.121:-1.0:300.0:-1
ipc-2014-agile-thoughtful-p13_7_79-typed.pddl,TIMEOUT:301.108:-1.0:300.0:-1
ipc-2014-agile-thoughtful-p13_7_86-typed.pddl,SAT:14.0389:169.0:300.0:-1
ipc-2014-agile-thoughtful-target-typed-20.pddl,SAT:16.0156:154.0:300.0:-1
ipc-2014-agile-thoughtful-target-typed-21.pddl,SAT:28.0787:186.0:300.0:-1
ipc-2014-agile-thoughtful-target-typed-22.pddl,SAT:29.3425:145.0:300.0:-1
ipc-2014-agile-thoughtful-target-typed-23.pddl,SAT:14.5458:137.0:300.0:-1
ipc-2014-agile-thoughtful-target-typed-24.pddl,TIMEOUT:301.098:-1.0:300.0:-1
ipc-2014-agile-thoughtful-target-typed-25.pddl,SAT:16.5675:140.0:300.0:-1
ipc-2014-agile-thoughtful-target-typed-26.pddl,SAT:12.4911:156.0:300.0:-1
ipc-2014-agile-thoughtful-target-typed-27.pddl,SAT:35.7036:184.0:300.0:-1
ipc-2014-agile-thoughtful-target-typed-28.pddl,SAT:19.0721:178.0:300.0:-1
ipc-2014-agile-transport-01.pddl,SAT:58.7781:3161.0:300.0:-1
ipc-2014-agile-transport-02.pddl,SAT:107.829:4305.0:300.0:-1
ipc-2014-agile-transport-03.pddl,SAT:85.48:3522.0:300.0:-1
ipc-2014-agile-transport-04.pddl,TIMEOUT:301.245:-1.0:300.0:-1
ipc-2014-agile-transport-05.pddl,TIMEOUT:301.221:-1.0:300.0:-1
ipc-2014-agile-transport-06.pddl,TIMEOUT:301.229:-1.0:300.0:-1
ipc-2014-agile-transport-07.pddl,TIMEOUT:301.307:-1.0:300.0:-1
ipc-2014-agile-transport-08.pddl,TIMEOUT:301.283:-1.0:300.0:-1
ipc-2014-agile-transport-09.pddl,TIMEOUT:301.238:-1.0:300.0:-1
ipc-2014-agile-transport-10.pddl,TIMEOUT:301.322:-1.0:300.0:-1
ipc-2014-agile-transport-11.pddl,SAT:116.558:2948.0:300.0:-1
ipc-2014-agile-transport-12.pddl,SAT:167.114:4445.0:300.0:-1
ipc-2014-agile-transport-13.pddl,SAT:54.9756:3203.0:300.0:-1
ipc-2014-agile-transport-14.pddl,TIMEOUT:301.164:-1.0:300.0:-1
ipc-2014-agile-transport-15.pddl,TIMEOUT:301.237:-1.0:300.0:-1
ipc-2014-agile-transport-16.pddl,TIMEOUT:301.136:-1.0:300.0:-1
ipc-2014-agile-transport-17.pddl,TIMEOUT:301.291:-1.0:300.0:-1
ipc-2014-agile-transport-18.pddl,TIMEOUT:301.283:-1.0:300.0:-1
ipc-2014-agile-transport-19.pddl,TIMEOUT:301.212:-1.0:300.0:-1
ipc-2014-agile-transport-20.pddl,TIMEOUT:301.247:-1.0:300.0:-1
ipc-2014-agile-visitall-30.pddl,SAT:62.1356:1121.0:300.0:-1
ipc-2014-agile-visitall-31.pddl,SAT:72.274:1184.0:300.0:-1
ipc-2014-agile-visitall-32.pddl,SAT:89.7484:1306.0:300.0:-1
ipc-2014-agile-visitall-33.pddl,SAT:98.338:1369.0:300.0:-1
ipc-2014-agile-visitall-50.pddl,TIMEOUT:301.161:-1.0:300.0:-1
ipc-2014-agile-visitall-51.pddl,TIMEOUT:301.152:-1.0:300.0:-1
ipc-2014-agile-visitall-52.pddl,TIMEOUT:301.138:-1.0:300.0:-1
ipc-2014-agile-visitall-53.pddl,TIMEOUT:301.145:-1.0:300.0:-1
ipc-2014-agile-visitall-54.pddl,TIMEOUT:301.175:-1.0:300.0:-1
ipc-2014-agile-visitall-55.pddl,TIMEOUT:301.138:-1.0:300.0:-1
ipc-2014-agile-visitall-56.pddl,TIMEOUT:301.181:-1.0:300.0:-1
ipc-2014-agile-visitall-57.pddl,TIMEOUT:301.219:-1.0:300.0:-1
ipc-2014-agile-visitall-58.pddl,TIMEOUT:301.2:-1.0:300.0:-1
ipc-2014-agile-visitall-59.pddl,TIMEOUT:301.239:-1.0:300.0:-1
ipc-2014-agile-visitall-60.pddl,TIMEOUT:301.238:-1.0:300.0:-1
ipc-2014-agile-visitall-61.pddl,TIMEOUT:301.223:-1.0:300.0:-1
ipc-2014-agile-visitall-62.pddl,TIMEOUT:301.288:-1.0:300.0:-1
ipc-2014-agile-visitall-63.pddl,TIMEOUT:301.21:-1.0:300.0:-1
ipc-2014-agile-visitall-64.pddl,TIMEOUT:301.225:-1.0:300.0:-1
ipc-2014-agile-visitall-65.pddl,TIMEOUT:301.224:-1.0:300.0:-1
