instance,ipc-2014-optimal-dynamic-gamer
ipc-2014-optimal-ged-d-1-2.pddl,TIMEOUT:1800.000000:-1.000000:1800.000000:-1
ipc-2014-optimal-ged-d-1-3.pddl,TIMEOUT:1800.000000:-1.000000:1800.000000:-1
ipc-2014-optimal-ged-d-1-4.pddl,TIMEOUT:1800.000000:-1.000000:1800.000000:-1
ipc-2014-optimal-ged-d-1-8.pddl,TIMEOUT:1800.000000:-1.000000:1800.000000:-1
ipc-2014-optimal-ged-d-2-1.pddl,TIMEOUT:1800.000000:-1.000000:1800.000000:-1
ipc-2014-optimal-ged-d-2-3.pddl,TIMEOUT:1800.000000:-1.000000:1800.000000:-1
ipc-2014-optimal-ged-d-2-4.pddl,TIMEOUT:1800.000000:-1.000000:1800.000000:-1
ipc-2014-optimal-ged-d-2-8.pddl,TIMEOUT:1800.000000:-1.000000:1800.000000:-1
ipc-2014-optimal-ged-d-3-1.pddl,TIMEOUT:1800.000000:-1.000000:1800.000000:-1
ipc-2014-optimal-ged-d-3-2.pddl,TIMEOUT:1800.000000:-1.000000:1800.000000:-1
ipc-2014-optimal-ged-d-3-4.pddl,TIMEOUT:1800.000000:-1.000000:1800.000000:-1
ipc-2014-optimal-ged-d-4-2.pddl,TIMEOUT:1800.000000:-1.000000:1800.000000:-1
ipc-2014-optimal-ged-d-4-3.pddl,TIMEOUT:1800.000000:-1.000000:1800.000000:-1
ipc-2014-optimal-ged-d-4-8.pddl,TIMEOUT:1800.000000:-1.000000:1800.000000:-1
ipc-2014-optimal-ged-d-7-5.pddl,TIMEOUT:1800.000000:-1.000000:1800.000000:-1
ipc-2014-optimal-ged-d-7-6.pddl,TIMEOUT:1800.000000:-1.000000:1800.000000:-1
ipc-2014-optimal-ged-d-8-1.pddl,TIMEOUT:1800.000000:-1.000000:1800.000000:-1
ipc-2014-optimal-ged-d-8-2.pddl,TIMEOUT:1800.000000:-1.000000:1800.000000:-1
ipc-2014-optimal-ged-d-8-4.pddl,TIMEOUT:1800.000000:-1.000000:1800.000000:-1
ipc-2014-optimal-ged-d-8-9.pddl,TIMEOUT:1800.000000:-1.000000:1800.000000:-1
ipc-2014-optimal-barman-p433.1.pddl,TIMEOUT:1800.000000:-1.000000:1800.000000:-1
ipc-2014-optimal-barman-p433.2.pddl,TIMEOUT:1800.000000:-1.000000:1800.000000:-1
ipc-2014-optimal-barman-p433.3.pddl,TIMEOUT:1800.000000:-1.000000:1800.000000:-1
ipc-2014-optimal-barman-p435.1.pddl,SUCCESS:1800.000000:49.000000:1800.000000:-1
ipc-2014-optimal-barman-p435.2.pddl,SUCCESS:1800.000000:49.000000:1800.000000:-1
ipc-2014-optimal-barman-p435.3.pddl,SUCCESS:1800.000000:49.000000:1800.000000:-1
ipc-2014-optimal-barman-p443.1.pddl,TIMEOUT:1800.000000:-1.000000:1800.000000:-1
ipc-2014-optimal-barman-p443.2.pddl,TIMEOUT:1800.000000:-1.000000:1800.000000:-1
ipc-2014-optimal-barman-p443.3.pddl,TIMEOUT:1800.000000:-1.000000:1800.000000:-1
ipc-2014-optimal-barman-p536.1.pddl,TIMEOUT:1800.000000:-1.000000:1800.000000:-1
ipc-2014-optimal-barman-p536.2.pddl,TIMEOUT:1800.000000:-1.000000:1800.000000:-1
ipc-2014-optimal-barman-p536.3.pddl,TIMEOUT:1800.000000:-1.000000:1800.000000:-1
ipc-2014-optimal-barman-p638.1.pddl,TIMEOUT:1800.000000:-1.000000:1800.000000:-1
ipc-2014-optimal-barman-p638.2.pddl,TIMEOUT:1800.000000:-1.000000:1800.000000:-1
ipc-2014-optimal-barman-p638.3.pddl,TIMEOUT:1800.000000:-1.000000:1800.000000:-1
ipc-2014-optimal-barman-p739.1.pddl,TIMEOUT:1800.000000:-1.000000:1800.000000:-1
ipc-2014-optimal-barman-p739.2.pddl,TIMEOUT:1800.000000:-1.000000:1800.000000:-1
ipc-2014-optimal-barman-p739.3.pddl,TIMEOUT:1800.000000:-1.000000:1800.000000:-1
ipc-2014-optimal-barman-p839.1.pddl,TIMEOUT:1800.000000:-1.000000:1800.000000:-1
ipc-2014-optimal-barman-p839.2.pddl,TIMEOUT:1800.000000:-1.000000:1800.000000:-1
ipc-2014-optimal-cavediving-01.pddl,TIMEOUT:1800.000000:-1.000000:1800.000000:-1
ipc-2014-optimal-cavediving-01_easy.pddl,TIMEOUT:1800.000000:-1.000000:1800.000000:-1
ipc-2014-optimal-cavediving-02_easy.pddl,TIMEOUT:1800.000000:-1.000000:1800.000000:-1
ipc-2014-optimal-cavediving-03_easy.pddl,TIMEOUT:1800.000000:-1.000000:1800.000000:-1
ipc-2014-optimal-cavediving-04_easy.pddl,TIMEOUT:1800.000000:-1.000000:1800.000000:-1
ipc-2014-optimal-cavediving-05A_easy.pddl,CRASHED:1800.000000:-2.000000:1800.000000:-1
ipc-2014-optimal-cavediving-06A_easy.pddl,CRASHED:1800.000000:-2.000000:1800.000000:-1
ipc-2014-optimal-cavediving-07_easy.pddl,SUCCESS:1800.000000:131.000000:1800.000000:-1
ipc-2014-optimal-cavediving-08_easy.pddl,CRASHED:1800.000000:-2.000000:1800.000000:-1
ipc-2014-optimal-cavediving-09_easy.pddl,TIMEOUT:1800.000000:-1.000000:1800.000000:-1
ipc-2014-optimal-cavediving-10_easy.pddl,TIMEOUT:1800.000000:-1.000000:1800.000000:-1
ipc-2014-optimal-cavediving-11_easy.pddl,TIMEOUT:1800.000000:-1.000000:1800.000000:-1
ipc-2014-optimal-cavediving-12_easy.pddl,TIMEOUT:1800.000000:-1.000000:1800.000000:-1
ipc-2014-optimal-cavediving-13_easy.pddl,TIMEOUT:1800.000000:-1.000000:1800.000000:-1
ipc-2014-optimal-cavediving-14_easy.pddl,TIMEOUT:1800.000000:-1.000000:1800.000000:-1
ipc-2014-optimal-cavediving-15_easy.pddl,TIMEOUT:1800.000000:-1.000000:1800.000000:-1
ipc-2014-optimal-cavediving-16_easy.pddl,TIMEOUT:1800.000000:-1.000000:1800.000000:-1
ipc-2014-optimal-cavediving-18A_easy.pddl,SUCCESS:1800.000000:131.000000:1800.000000:-1
ipc-2014-optimal-cavediving-18_easy.pddl,SUCCESS:1800.000000:131.000000:1800.000000:-1
ipc-2014-optimal-cavediving-20A_easy.pddl,CRASHED:1800.000000:-2.000000:1800.000000:-1
ipc-2014-optimal-childsnack-01.pddl,SUCCESS:1800.000000:20.000000:1800.000000:-1
ipc-2014-optimal-childsnack-01-2.pddl,SUCCESS:1800.000000:21.000000:1800.000000:-1
ipc-2014-optimal-childsnack-02.pddl,SUCCESS:1800.000000:23.000000:1800.000000:-1
ipc-2014-optimal-childsnack-02-2.pddl,SUCCESS:1800.000000:24.000000:1800.000000:-1
ipc-2014-optimal-childsnack-03.pddl,SUCCESS:1800.000000:27.000000:1800.000000:-1
ipc-2014-optimal-childsnack-03-2.pddl,SUCCESS:1800.000000:27.000000:1800.000000:-1
ipc-2014-optimal-childsnack-04.pddl,SUCCESS:1800.000000:30.000000:1800.000000:-1
ipc-2014-optimal-childsnack-04-2.pddl,SUCCESS:1800.000000:30.000000:1800.000000:-1
ipc-2014-optimal-childsnack-05.pddl,SUCCESS:1800.000000:33.000000:1800.000000:-1
ipc-2014-optimal-childsnack-05-2.pddl,SUCCESS:1800.000000:33.000000:1800.000000:-1
ipc-2014-optimal-childsnack-06.pddl,TIMEOUT:1800.000000:-1.000000:1800.000000:-1
ipc-2014-optimal-childsnack-06-2.pddl,TIMEOUT:1800.000000:-1.000000:1800.000000:-1
ipc-2014-optimal-childsnack-07.pddl,TIMEOUT:1800.000000:-1.000000:1800.000000:-1
ipc-2014-optimal-childsnack-07-2.pddl,TIMEOUT:1800.000000:-1.000000:1800.000000:-1
ipc-2014-optimal-childsnack-08.pddl,TIMEOUT:1800.000000:-1.000000:1800.000000:-1
ipc-2014-optimal-childsnack-08-2.pddl,TIMEOUT:1800.000000:-1.000000:1800.000000:-1
ipc-2014-optimal-childsnack-09.pddl,TIMEOUT:1800.000000:-1.000000:1800.000000:-1
ipc-2014-optimal-childsnack-09-2.pddl,TIMEOUT:1800.000000:-1.000000:1800.000000:-1
ipc-2014-optimal-childsnack-10.pddl,TIMEOUT:1800.000000:-1.000000:1800.000000:-1
ipc-2014-optimal-childsnack-10-2.pddl,TIMEOUT:1800.000000:-1.000000:1800.000000:-1
ipc-2014-optimal-citycar-p2-2-2-1-2.pddl,SUCCESS:1800.000000:46.000000:1800.000000:-1
ipc-2014-optimal-citycar-p2-2-2-2-1.pddl,SUCCESS:1800.000000:64.000000:1800.000000:-1
ipc-2014-optimal-citycar-p2-2-3-1-2.pddl,SUCCESS:1800.000000:50.000000:1800.000000:-1
ipc-2014-optimal-citycar-p2-2-3-2-1.pddl,SUCCESS:1800.000000:48.000000:1800.000000:-1
ipc-2014-optimal-citycar-p2-2-3-2-2.pddl,SUCCESS:1800.000000:50.000000:1800.000000:-1
ipc-2014-optimal-citycar-p2-2-4-1-2.pddl,SUCCESS:1800.000000:52.000000:1800.000000:-1
ipc-2014-optimal-citycar-p2-2-4-2-1.pddl,SUCCESS:1800.000000:52.000000:1800.000000:-1
ipc-2014-optimal-citycar-p2-2-5-2-2.pddl,SUCCESS:1800.000000:76.000000:1800.000000:-1
ipc-2014-optimal-citycar-p2-2-6-1-1.pddl,SUCCESS:1800.000000:58.000000:1800.000000:-1
ipc-2014-optimal-citycar-p2-2-6-2-2.pddl,SUCCESS:1800.000000:58.000000:1800.000000:-1
ipc-2014-optimal-citycar-p2-3-2-3-1.pddl,SUCCESS:1800.000000:68.000000:1800.000000:-1
ipc-2014-optimal-citycar-p2-3-3-3-1.pddl,SUCCESS:1800.000000:78.000000:1800.000000:-1
ipc-2014-optimal-citycar-p2-3-4-3-1.pddl,SUCCESS:1800.000000:82.000000:1800.000000:-1
ipc-2014-optimal-citycar-p2-3-6-3-2.pddl,TIMEOUT:1800.000000:-1.000000:1800.000000:-1
ipc-2014-optimal-citycar-p3-3-2-2-1.pddl,TIMEOUT:1800.000000:-1.000000:1800.000000:-1
ipc-2014-optimal-citycar-p3-3-2-2-2.pddl,TIMEOUT:1800.000000:-1.000000:1800.000000:-1
ipc-2014-optimal-citycar-p3-3-2-3-1.pddl,SUCCESS:1800.000000:48.000000:1800.000000:-1
ipc-2014-optimal-citycar-p3-3-2-3-2.pddl,SUCCESS:1800.000000:70.000000:1800.000000:-1
ipc-2014-optimal-citycar-p3-3-3-3-1.pddl,TIMEOUT:1800.000000:-1.000000:1800.000000:-1
ipc-2014-optimal-citycar-p3-3-3-3-2.pddl,TIMEOUT:1800.000000:-1.000000:1800.000000:-1
ipc-2014-optimal-floortile-p01-4-3-2.pddl,SUCCESS:1800.000000:56.000000:1800.000000:-1
ipc-2014-optimal-floortile-p01-4-4-2.pddl,SUCCESS:1800.000000:68.000000:1800.000000:-1
ipc-2014-optimal-floortile-p01-5-3-2.pddl,SUCCESS:1800.000000:63.000000:1800.000000:-1
ipc-2014-optimal-floortile-p01-5-4-2.pddl,SUCCESS:1800.000000:91.000000:1800.000000:-1
ipc-2014-optimal-floortile-p01-5-5-2.pddl,TIMEOUT:1800.000000:-1.000000:1800.000000:-1
ipc-2014-optimal-floortile-p01-6-4-2.pddl,SUCCESS:1800.000000:104.000000:1800.000000:-1
ipc-2014-optimal-floortile-p01-6-5-2.pddl,TIMEOUT:1800.000000:-1.000000:1800.000000:-1
ipc-2014-optimal-floortile-p02-4-4-2.pddl,SUCCESS:1800.000000:75.000000:1800.000000:-1
ipc-2014-optimal-floortile-p02-5-3-2.pddl,SUCCESS:1800.000000:65.000000:1800.000000:-1
ipc-2014-optimal-floortile-p02-5-4-2.pddl,SUCCESS:1800.000000:98.000000:1800.000000:-1
ipc-2014-optimal-floortile-p02-5-5-2.pddl,TIMEOUT:1800.000000:-1.000000:1800.000000:-1
ipc-2014-optimal-floortile-p02-6-4-2.pddl,SUCCESS:1800.000000:109.000000:1800.000000:-1
ipc-2014-optimal-floortile-p02-6-5-2.pddl,TIMEOUT:1800.000000:-1.000000:1800.000000:-1
ipc-2014-optimal-floortile-p03-4-3-2.pddl,SUCCESS:1800.000000:56.000000:1800.000000:-1
ipc-2014-optimal-floortile-p03-4-4-2.pddl,SUCCESS:1800.000000:72.000000:1800.000000:-1
ipc-2014-optimal-floortile-p03-5-3-2.pddl,SUCCESS:1800.000000:65.000000:1800.000000:-1
ipc-2014-optimal-floortile-p03-5-4-2.pddl,SUCCESS:1800.000000:83.000000:1800.000000:-1
ipc-2014-optimal-floortile-p03-5-5-2.pddl,TIMEOUT:1800.000000:-1.000000:1800.000000:-1
ipc-2014-optimal-floortile-p03-6-4-2.pddl,SUCCESS:1800.000000:116.000000:1800.000000:-1
ipc-2014-optimal-floortile-p03-6-5-2.pddl,TIMEOUT:1800.000000:-1.000000:1800.000000:-1
ipc-2014-optimal-hiking-1-2-3.pddl,SUCCESS:1800.000000:11.000000:1800.000000:-1
ipc-2014-optimal-hiking-1-2-4.pddl,SUCCESS:1800.000000:17.000000:1800.000000:-1
ipc-2014-optimal-hiking-1-2-5.pddl,SUCCESS:1800.000000:25.000000:1800.000000:-1
ipc-2014-optimal-hiking-1-2-7.pddl,SUCCESS:1800.000000:38.000000:1800.000000:-1
ipc-2014-optimal-hiking-1-2-8.pddl,SUCCESS:1800.000000:45.000000:1800.000000:-1
ipc-2014-optimal-hiking-2-2-3.pddl,SUCCESS:1800.000000:10.000000:1800.000000:-1
ipc-2014-optimal-hiking-2-2-4.pddl,SUCCESS:1800.000000:16.000000:1800.000000:-1
ipc-2014-optimal-hiking-2-2-5.pddl,SUCCESS:1800.000000:22.000000:1800.000000:-1
ipc-2014-optimal-hiking-2-2-6.pddl,SUCCESS:1800.000000:30.000000:1800.000000:-1
ipc-2014-optimal-hiking-2-2-7.pddl,SUCCESS:1800.000000:34.000000:1800.000000:-1
ipc-2014-optimal-hiking-2-2-8.pddl,SUCCESS:1800.000000:42.000000:1800.000000:-1
ipc-2014-optimal-hiking-2-3-4.pddl,SUCCESS:1800.000000:17.000000:1800.000000:-1
ipc-2014-optimal-hiking-2-3-5.pddl,SUCCESS:1800.000000:24.000000:1800.000000:-1
ipc-2014-optimal-hiking-2-3-6.pddl,SUCCESS:1800.000000:28.000000:1800.000000:-1
ipc-2014-optimal-hiking-2-3-7.pddl,TIMEOUT:1800.000000:-1.000000:1800.000000:-1
ipc-2014-optimal-hiking-2-4-3.pddl,SUCCESS:1800.000000:10.000000:1800.000000:-1
ipc-2014-optimal-hiking-2-4-4.pddl,SUCCESS:1800.000000:17.000000:1800.000000:-1
ipc-2014-optimal-hiking-2-4-5.pddl,SUCCESS:1800.000000:23.000000:1800.000000:-1
ipc-2014-optimal-hiking-2-4-6.pddl,TIMEOUT:1800.000000:-1.000000:1800.000000:-1
ipc-2014-optimal-hiking-2-4-7.pddl,TIMEOUT:1800.000000:-1.000000:1800.000000:-1
ipc-2014-optimal-maintenance-1.3.010.010.1-001.pddl,TIMEOUT:1800.000000:-1.000000:1800.000000:-1
ipc-2014-optimal-maintenance-1.3.010.010.1-002.pddl,TIMEOUT:1800.000000:-1.000000:1800.000000:-1
ipc-2014-optimal-maintenance-1.3.010.010.2-000.pddl,SUCCESS:1800.000000:4.000000:1800.000000:-1
ipc-2014-optimal-maintenance-1.3.010.010.2-001.pddl,SUCCESS:1800.000000:7.000000:1800.000000:-1
ipc-2014-optimal-maintenance-1.3.010.010.2-002.pddl,SUCCESS:1800.000000:6.000000:1800.000000:-1
ipc-2014-optimal-maintenance-1.3.015.020.1-000.pddl,TIMEOUT:1800.000000:-1.000000:1800.000000:-1
ipc-2014-optimal-maintenance-1.3.015.020.1-001.pddl,TIMEOUT:1800.000000:-1.000000:1800.000000:-1
ipc-2014-optimal-maintenance-1.3.015.020.1-002.pddl,TIMEOUT:1800.000000:-1.000000:1800.000000:-1
ipc-2014-optimal-maintenance-1.3.015.020.2-000.pddl,TIMEOUT:1800.000000:-1.000000:1800.000000:-1
ipc-2014-optimal-maintenance-1.3.015.020.2-001.pddl,TIMEOUT:1800.000000:-1.000000:1800.000000:-1
ipc-2014-optimal-maintenance-1.3.015.020.2-002.pddl,TIMEOUT:1800.000000:-1.000000:1800.000000:-1
ipc-2014-optimal-maintenance-1.3.025.050.1-000.pddl,TIMEOUT:1800.000000:-1.000000:1800.000000:-1
ipc-2014-optimal-maintenance-1.3.025.050.1-001.pddl,TIMEOUT:1800.000000:-1.000000:1800.000000:-1
ipc-2014-optimal-maintenance-1.3.025.050.1-002.pddl,TIMEOUT:1800.000000:-1.000000:1800.000000:-1
ipc-2014-optimal-maintenance-1.3.025.100.1-000.pddl,TIMEOUT:1800.000000:-1.000000:1800.000000:-1
ipc-2014-optimal-maintenance-1.3.025.100.1-001.pddl,TIMEOUT:1800.000000:-1.000000:1800.000000:-1
ipc-2014-optimal-maintenance-1.3.025.100.1-002.pddl,TIMEOUT:1800.000000:-1.000000:1800.000000:-1
ipc-2014-optimal-maintenance-1.3.025.100.2-000.pddl,TIMEOUT:1800.000000:-1.000000:1800.000000:-1
ipc-2014-optimal-maintenance-1.3.025.100.2-001.pddl,TIMEOUT:1800.000000:-1.000000:1800.000000:-1
ipc-2014-optimal-maintenance-1.3.025.100.2-002.pddl,TIMEOUT:1800.000000:-1.000000:1800.000000:-1
ipc-2014-optimal-openstacks-p20_1.pddl,SUCCESS:1800.000000:3.000000:1800.000000:-1
ipc-2014-optimal-openstacks-p20_2.pddl,SUCCESS:1800.000000:4.000000:1800.000000:-1
ipc-2014-optimal-openstacks-p20_3.pddl,SUCCESS:1800.000000:6.000000:1800.000000:-1
ipc-2014-optimal-openstacks-p25_1.pddl,SUCCESS:1800.000000:4.000000:1800.000000:-1
ipc-2014-optimal-openstacks-p25_3.pddl,SUCCESS:1800.000000:9.000000:1800.000000:-1
ipc-2014-optimal-openstacks-p30_1.pddl,SUCCESS:1800.000000:4.000000:1800.000000:-1
ipc-2014-optimal-openstacks-p30_2.pddl,SUCCESS:1800.000000:4.000000:1800.000000:-1
ipc-2014-optimal-openstacks-p30_3.pddl,SUCCESS:1800.000000:12.000000:1800.000000:-1
ipc-2014-optimal-openstacks-p35_1.pddl,SUCCESS:1800.000000:4.000000:1800.000000:-1
ipc-2014-optimal-openstacks-p35_2.pddl,SUCCESS:1800.000000:5.000000:1800.000000:-1
ipc-2014-optimal-openstacks-p35_3.pddl,SUCCESS:1800.000000:14.000000:1800.000000:-1
ipc-2014-optimal-openstacks-p40_1.pddl,SUCCESS:1800.000000:3.000000:1800.000000:-1
ipc-2014-optimal-openstacks-p40_2.pddl,SUCCESS:1800.000000:4.000000:1800.000000:-1
ipc-2014-optimal-openstacks-p40_3.pddl,SUCCESS:1800.000000:15.000000:1800.000000:-1
ipc-2014-optimal-openstacks-p45_1.pddl,SUCCESS:1800.000000:4.000000:1800.000000:-1
ipc-2014-optimal-openstacks-p45_2.pddl,SUCCESS:1800.000000:5.000000:1800.000000:-1
ipc-2014-optimal-openstacks-p45_3.pddl,SUCCESS:1800.000000:19.000000:1800.000000:-1
ipc-2014-optimal-openstacks-p50_1.pddl,SUCCESS:1800.000000:4.000000:1800.000000:-1
ipc-2014-optimal-openstacks-p50_2.pddl,SUCCESS:1800.000000:5.000000:1800.000000:-1
ipc-2014-optimal-openstacks-p50_3.pddl,TIMEOUT:1800.000000:-1.000000:1800.000000:-1
ipc-2014-optimal-parking-12_7-01.pddl,TIMEOUT:1800.000000:-1.000000:1800.000000:-1
ipc-2014-optimal-parking-12_7-02.pddl,TIMEOUT:1800.000000:-1.000000:1800.000000:-1
ipc-2014-optimal-parking-12_7-03.pddl,TIMEOUT:1800.000000:-1.000000:1800.000000:-1
ipc-2014-optimal-parking-12_7-04.pddl,TIMEOUT:1800.000000:-1.000000:1800.000000:-1
ipc-2014-optimal-parking-14_8-01.pddl,TIMEOUT:1800.000000:-1.000000:1800.000000:-1
ipc-2014-optimal-parking-14_8-02.pddl,TIMEOUT:1800.000000:-1.000000:1800.000000:-1
ipc-2014-optimal-parking-14_8-03.pddl,TIMEOUT:1800.000000:-1.000000:1800.000000:-1
ipc-2014-optimal-parking-14_8-04.pddl,TIMEOUT:1800.000000:-1.000000:1800.000000:-1
ipc-2014-optimal-parking-16_9-01.pddl,TIMEOUT:1800.000000:-1.000000:1800.000000:-1
ipc-2014-optimal-parking-16_9-02.pddl,TIMEOUT:1800.000000:-1.000000:1800.000000:-1
ipc-2014-optimal-parking-16_9-03.pddl,TIMEOUT:1800.000000:-1.000000:1800.000000:-1
ipc-2014-optimal-parking-16_9-04.pddl,TIMEOUT:1800.000000:-1.000000:1800.000000:-1
ipc-2014-optimal-parking-18_10-01.pddl,TIMEOUT:1800.000000:-1.000000:1800.000000:-1
ipc-2014-optimal-parking-18_10-02.pddl,TIMEOUT:1800.000000:-1.000000:1800.000000:-1
ipc-2014-optimal-parking-18_10-03.pddl,TIMEOUT:1800.000000:-1.000000:1800.000000:-1
ipc-2014-optimal-parking-18_10-04.pddl,TIMEOUT:1800.000000:-1.000000:1800.000000:-1
ipc-2014-optimal-parking-20_11-01.pddl,TIMEOUT:1800.000000:-1.000000:1800.000000:-1
ipc-2014-optimal-parking-20_11-02.pddl,TIMEOUT:1800.000000:-1.000000:1800.000000:-1
ipc-2014-optimal-parking-20_11-03.pddl,TIMEOUT:1800.000000:-1.000000:1800.000000:-1
ipc-2014-optimal-parking-20_11-04.pddl,TIMEOUT:1800.000000:-1.000000:1800.000000:-1
ipc-2014-optimal-tetris-01-10.pddl,TIMEOUT:1800.000000:-1.000000:1800.000000:-1
ipc-2014-optimal-tetris-01-04.pddl,TIMEOUT:1800.000000:-1.000000:1800.000000:-1
ipc-2014-optimal-tetris-01-06.pddl,TIMEOUT:1800.000000:-1.000000:1800.000000:-1
ipc-2014-optimal-tetris-01-08.pddl,TIMEOUT:1800.000000:-1.000000:1800.000000:-1
ipc-2014-optimal-tetris-02-10.pddl,TIMEOUT:1800.000000:-1.000000:1800.000000:-1
ipc-2014-optimal-tetris-02-04.pddl,SUCCESS:1800.000000:10.000000:1800.000000:-1
ipc-2014-optimal-tetris-02-06.pddl,TIMEOUT:1800.000000:-1.000000:1800.000000:-1
ipc-2014-optimal-tetris-02-08.pddl,TIMEOUT:1800.000000:-1.000000:1800.000000:-1
ipc-2014-optimal-tetris-03-10.pddl,TIMEOUT:1800.000000:-1.000000:1800.000000:-1
ipc-2014-optimal-tetris-03-04.pddl,SUCCESS:1800.000000:11.000000:1800.000000:-1
ipc-2014-optimal-tetris-03-06.pddl,TIMEOUT:1800.000000:-1.000000:1800.000000:-1
ipc-2014-optimal-tetris-03-08.pddl,TIMEOUT:1800.000000:-1.000000:1800.000000:-1
ipc-2014-optimal-tetris-04-10.pddl,TIMEOUT:1800.000000:-1.000000:1800.000000:-1
ipc-2014-optimal-tetris-04-04.pddl,TIMEOUT:1800.000000:-1.000000:1800.000000:-1
ipc-2014-optimal-tetris-04-06.pddl,TIMEOUT:1800.000000:-1.000000:1800.000000:-1
ipc-2014-optimal-tetris-04-08.pddl,TIMEOUT:1800.000000:-1.000000:1800.000000:-1
ipc-2014-optimal-tetris-05-10.pddl,TIMEOUT:1800.000000:-1.000000:1800.000000:-1
ipc-2014-optimal-tetris-05-04.pddl,TIMEOUT:1800.000000:-1.000000:1800.000000:-1
ipc-2014-optimal-tetris-05-06.pddl,TIMEOUT:1800.000000:-1.000000:1800.000000:-1
ipc-2014-optimal-tetris-05-08.pddl,TIMEOUT:1800.000000:-1.000000:1800.000000:-1
ipc-2014-optimal-tidybot-01.pddl,TIMEOUT:1800.000000:-1.000000:1800.000000:-1
ipc-2014-optimal-tidybot-02.pddl,TIMEOUT:1800.000000:-1.000000:1800.000000:-1
ipc-2014-optimal-tidybot-03.pddl,TIMEOUT:1800.000000:-1.000000:1800.000000:-1
ipc-2014-optimal-tidybot-04.pddl,TIMEOUT:1800.000000:-1.000000:1800.000000:-1
ipc-2014-optimal-tidybot-05.pddl,TIMEOUT:1800.000000:-1.000000:1800.000000:-1
ipc-2014-optimal-tidybot-06.pddl,TIMEOUT:1800.000000:-1.000000:1800.000000:-1
ipc-2014-optimal-tidybot-07.pddl,TIMEOUT:1800.000000:-1.000000:1800.000000:-1
ipc-2014-optimal-tidybot-08.pddl,TIMEOUT:1800.000000:-1.000000:1800.000000:-1
ipc-2014-optimal-tidybot-09.pddl,TIMEOUT:1800.000000:-1.000000:1800.000000:-1
ipc-2014-optimal-tidybot-10.pddl,TIMEOUT:1800.000000:-1.000000:1800.000000:-1
ipc-2014-optimal-tidybot-11.pddl,TIMEOUT:1800.000000:-1.000000:1800.000000:-1
ipc-2014-optimal-tidybot-12.pddl,TIMEOUT:1800.000000:-1.000000:1800.000000:-1
ipc-2014-optimal-tidybot-13.pddl,TIMEOUT:1800.000000:-1.000000:1800.000000:-1
ipc-2014-optimal-tidybot-14.pddl,TIMEOUT:1800.000000:-1.000000:1800.000000:-1
ipc-2014-optimal-tidybot-15.pddl,TIMEOUT:1800.000000:-1.000000:1800.000000:-1
ipc-2014-optimal-tidybot-16.pddl,TIMEOUT:1800.000000:-1.000000:1800.000000:-1
ipc-2014-optimal-tidybot-17.pddl,TIMEOUT:1800.000000:-1.000000:1800.000000:-1
ipc-2014-optimal-tidybot-18.pddl,TIMEOUT:1800.000000:-1.000000:1800.000000:-1
ipc-2014-optimal-tidybot-19.pddl,TIMEOUT:1800.000000:-1.000000:1800.000000:-1
ipc-2014-optimal-tidybot-20.pddl,TIMEOUT:1800.000000:-1.000000:1800.000000:-1
ipc-2014-optimal-transport-01.pddl,SUCCESS:1800.000000:148.000000:1800.000000:-1
ipc-2014-optimal-transport-02.pddl,SUCCESS:1800.000000:191.000000:1800.000000:-1
ipc-2014-optimal-transport-03.pddl,SUCCESS:1800.000000:300.000000:1800.000000:-1
ipc-2014-optimal-transport-04.pddl,TIMEOUT:1800.000000:-1.000000:1800.000000:-1
ipc-2014-optimal-transport-05.pddl,TIMEOUT:1800.000000:-1.000000:1800.000000:-1
ipc-2014-optimal-transport-06.pddl,TIMEOUT:1800.000000:-1.000000:1800.000000:-1
ipc-2014-optimal-transport-07.pddl,SUCCESS:1800.000000:967.000000:1800.000000:-1
ipc-2014-optimal-transport-08.pddl,SUCCESS:1800.000000:1173.000000:1800.000000:-1
ipc-2014-optimal-transport-09.pddl,TIMEOUT:1800.000000:-1.000000:1800.000000:-1
ipc-2014-optimal-transport-10.pddl,TIMEOUT:1800.000000:-1.000000:1800.000000:-1
ipc-2014-optimal-transport-11.pddl,TIMEOUT:1800.000000:-1.000000:1800.000000:-1
ipc-2014-optimal-transport-12.pddl,TIMEOUT:1800.000000:-1.000000:1800.000000:-1
ipc-2014-optimal-transport-13.pddl,SUCCESS:1800.000000:594.000000:1800.000000:-1
ipc-2014-optimal-transport-14.pddl,SUCCESS:1800.000000:526.000000:1800.000000:-1
ipc-2014-optimal-transport-15.pddl,TIMEOUT:1800.000000:-1.000000:1800.000000:-1
ipc-2014-optimal-transport-16.pddl,TIMEOUT:1800.000000:-1.000000:1800.000000:-1
ipc-2014-optimal-transport-17.pddl,TIMEOUT:1800.000000:-1.000000:1800.000000:-1
ipc-2014-optimal-transport-18.pddl,TIMEOUT:1800.000000:-1.000000:1800.000000:-1
ipc-2014-optimal-transport-19.pddl,TIMEOUT:1800.000000:-1.000000:1800.000000:-1
ipc-2014-optimal-transport-20.pddl,TIMEOUT:1800.000000:-1.000000:1800.000000:-1
ipc-2014-optimal-visitall-05-10.pddl,TIMEOUT:1800.000000:-1.000000:1800.000000:-1
ipc-2014-optimal-visitall-05-05.pddl,SUCCESS:1800.000000:21.000000:1800.000000:-1
ipc-2014-optimal-visitall-05-06.pddl,SUCCESS:1800.000000:25.000000:1800.000000:-1
ipc-2014-optimal-visitall-05-07.pddl,SUCCESS:1800.000000:34.000000:1800.000000:-1
ipc-2014-optimal-visitall-05-08.pddl,SUCCESS:1800.000000:43.000000:1800.000000:-1
ipc-2014-optimal-visitall-05-09.pddl,TIMEOUT:1800.000000:-1.000000:1800.000000:-1
ipc-2014-optimal-visitall-01-10.pddl,TIMEOUT:1800.000000:-1.000000:1800.000000:-1
ipc-2014-optimal-visitall-01-11.pddl,TIMEOUT:1800.000000:-1.000000:1800.000000:-1
ipc-2014-optimal-visitall-01-12.pddl,TIMEOUT:1800.000000:-1.000000:1800.000000:-1
ipc-2014-optimal-visitall-01-13.pddl,TIMEOUT:1800.000000:-1.000000:1800.000000:-1
ipc-2014-optimal-visitall-01-14.pddl,TIMEOUT:1800.000000:-1.000000:1800.000000:-1
ipc-2014-optimal-visitall-01-15.pddl,TIMEOUT:1800.000000:-1.000000:1800.000000:-1
ipc-2014-optimal-visitall-01-16.pddl,TIMEOUT:1800.000000:-1.000000:1800.000000:-1
ipc-2014-optimal-visitall-01-17.pddl,TIMEOUT:1800.000000:-1.000000:1800.000000:-1
ipc-2014-optimal-visitall-01-18.pddl,TIMEOUT:1800.000000:-1.000000:1800.000000:-1
ipc-2014-optimal-visitall-01-05.pddl,SUCCESS:1800.000000:24.000000:1800.000000:-1
ipc-2014-optimal-visitall-01-06.pddl,SUCCESS:1800.000000:35.000000:1800.000000:-1
ipc-2014-optimal-visitall-01-07.pddl,TIMEOUT:1800.000000:-1.000000:1800.000000:-1
ipc-2014-optimal-visitall-01-08.pddl,TIMEOUT:1800.000000:-1.000000:1800.000000:-1
ipc-2014-optimal-visitall-01-09.pddl,TIMEOUT:1800.000000:-1.000000:1800.000000:-1
