instance,ipc-2014-optimal-rida-fixed
ipc-2014-optimal-barman-p433.1.pddl,CRASHED:0.348946:1000000000.0:1800.0:-1
ipc-2014-optimal-barman-p433.2.pddl,CRASHED:0.308952:1000000000.0:1800.0:-1
ipc-2014-optimal-barman-p433.3.pddl,CRASHED:0.412936:1000000000.0:1800.0:-1
ipc-2014-optimal-barman-p435.1.pddl,TIMEOUT:1801.06:-1.0:1800.0:-1
ipc-2014-optimal-barman-p435.2.pddl,TIMEOUT:1801.04:-1.0:1800.0:-1
ipc-2014-optimal-barman-p435.3.pddl,CRASHED:733.64:1000000000.0:1800.0:-1
ipc-2014-optimal-barman-p443.1.pddl,CRASHED:0.315951:1000000000.0:1800.0:-1
ipc-2014-optimal-barman-p443.2.pddl,CRASHED:0.302953:1000000000.0:1800.0:-1
ipc-2014-optimal-barman-p443.3.pddl,CRASHED:0.306953:1000000000.0:1800.0:-1
ipc-2014-optimal-barman-p536.1.pddl,CRASHED:568.48:1000000000.0:1800.0:-1
ipc-2014-optimal-barman-p536.2.pddl,CRASHED:560.54:1000000000.0:1800.0:-1
ipc-2014-optimal-barman-p536.3.pddl,CRASHED:554.49:1000000000.0:1800.0:-1
ipc-2014-optimal-barman-p638.1.pddl,CRASHED:602.93:1000000000.0:1800.0:-1
ipc-2014-optimal-barman-p638.2.pddl,TIMEOUT:1801.03:-1.0:1800.0:-1
ipc-2014-optimal-barman-p638.3.pddl,TIMEOUT:1801.05:-1.0:1800.0:-1
ipc-2014-optimal-barman-p739.1.pddl,CRASHED:529.37:1000000000.0:1800.0:-1
ipc-2014-optimal-barman-p739.2.pddl,CRASHED:513.37:1000000000.0:1800.0:-1
ipc-2014-optimal-barman-p739.3.pddl,TIMEOUT:1801.05:-1.0:1800.0:-1
ipc-2014-optimal-barman-p839.1.pddl,CRASHED:483.83:1000000000.0:1800.0:-1
ipc-2014-optimal-barman-p839.2.pddl,CRASHED:472.67:1000000000.0:1800.0:-1
ipc-2014-optimal-cavediving-01.pddl,CRASHED:1.50377:1000000000.0:1800.0:-1
ipc-2014-optimal-cavediving-01_easy.pddl,CRASHED:1.12983:1000000000.0:1800.0:-1
ipc-2014-optimal-cavediving-02_easy.pddl,CRASHED:1.11783:1000000000.0:1800.0:-1
ipc-2014-optimal-cavediving-03_easy.pddl,CRASHED:1.13083:1000000000.0:1800.0:-1
ipc-2014-optimal-cavediving-04_easy.pddl,CRASHED:1.05484:1000000000.0:1800.0:-1
ipc-2014-optimal-cavediving-05A_easy.pddl,CRASHED:0.334948:1000000000.0:1800.0:-1
ipc-2014-optimal-cavediving-06A_easy.pddl,CRASHED:0.383941:1000000000.0:1800.0:-1
ipc-2014-optimal-cavediving-07_easy.pddl,SAT:283.537:131.0:1800.0:-1
ipc-2014-optimal-cavediving-08_easy.pddl,CRASHED:0.365944:1000000000.0:1800.0:-1
ipc-2014-optimal-cavediving-09_easy.pddl,CRASHED:5.44717:1000000000.0:1800.0:-1
ipc-2014-optimal-cavediving-10_easy.pddl,CRASHED:5.69913:1000000000.0:1800.0:-1
ipc-2014-optimal-cavediving-11_easy.pddl,CRASHED:5.46317:1000000000.0:1800.0:-1
ipc-2014-optimal-cavediving-12_easy.pddl,CRASHED:5.2282:1000000000.0:1800.0:-1
ipc-2014-optimal-cavediving-13_easy.pddl,CRASHED:1.57576:1000000000.0:1800.0:-1
ipc-2014-optimal-cavediving-14_easy.pddl,CRASHED:1.57476:1000000000.0:1800.0:-1
ipc-2014-optimal-cavediving-15_easy.pddl,CRASHED:1.35279:1000000000.0:1800.0:-1
ipc-2014-optimal-cavediving-16_easy.pddl,CRASHED:1.56576:1000000000.0:1800.0:-1
ipc-2014-optimal-cavediving-18A_easy.pddl,SAT:238.94:131.0:1800.0:-1
ipc-2014-optimal-cavediving-18_easy.pddl,SAT:283.382:131.0:1800.0:-1
ipc-2014-optimal-cavediving-20A_easy.pddl,CRASHED:0.440932:1000000000.0:1800.0:-1
ipc-2014-optimal-childsnack-01-2.pddl,TIMEOUT:1801.02:-1.0:1800.0:-1
ipc-2014-optimal-childsnack-01.pddl,TIMEOUT:1801.1:-1.0:1800.0:-1
ipc-2014-optimal-childsnack-02-2.pddl,TIMEOUT:1801.06:-1.0:1800.0:-1
ipc-2014-optimal-childsnack-02.pddl,TIMEOUT:1801.05:-1.0:1800.0:-1
ipc-2014-optimal-childsnack-03-2.pddl,TIMEOUT:1801.07:-1.0:1800.0:-1
ipc-2014-optimal-childsnack-03.pddl,TIMEOUT:1801.03:-1.0:1800.0:-1
ipc-2014-optimal-childsnack-04-2.pddl,TIMEOUT:1801.03:-1.0:1800.0:-1
ipc-2014-optimal-childsnack-04.pddl,TIMEOUT:1801.07:-1.0:1800.0:-1
ipc-2014-optimal-childsnack-05-2.pddl,TIMEOUT:1801.01:-1.0:1800.0:-1
ipc-2014-optimal-childsnack-05.pddl,TIMEOUT:1801.05:-1.0:1800.0:-1
ipc-2014-optimal-childsnack-06-2.pddl,TIMEOUT:1801.09:-1.0:1800.0:-1
ipc-2014-optimal-childsnack-06.pddl,TIMEOUT:1801.0:-1.0:1800.0:-1
ipc-2014-optimal-childsnack-07-2.pddl,TIMEOUT:1801.08:-1.0:1800.0:-1
ipc-2014-optimal-childsnack-07.pddl,TIMEOUT:1801.04:-1.0:1800.0:-1
ipc-2014-optimal-childsnack-08-2.pddl,TIMEOUT:1801.05:-1.0:1800.0:-1
ipc-2014-optimal-childsnack-08.pddl,TIMEOUT:1801.04:-1.0:1800.0:-1
ipc-2014-optimal-childsnack-09-2.pddl,TIMEOUT:1801.01:-1.0:1800.0:-1
ipc-2014-optimal-childsnack-09.pddl,TIMEOUT:1801.03:-1.0:1800.0:-1
ipc-2014-optimal-childsnack-10-2.pddl,TIMEOUT:1801.05:-1.0:1800.0:-1
ipc-2014-optimal-childsnack-10.pddl,TIMEOUT:1801.04:-1.0:1800.0:-1
ipc-2014-optimal-citycar-p2-2-2-1-2.pddl,SAT:1.62575:46.0:1800.0:-1
ipc-2014-optimal-citycar-p2-2-2-2-1.pddl,SAT:2.15867:64.0:1800.0:-1
ipc-2014-optimal-citycar-p2-2-3-1-2.pddl,SAT:2.49162:50.0:1800.0:-1
ipc-2014-optimal-citycar-p2-2-3-2-1.pddl,SAT:2.34864:48.0:1800.0:-1
ipc-2014-optimal-citycar-p2-2-3-2-2.pddl,SAT:2.48662:50.0:1800.0:-1
ipc-2014-optimal-citycar-p2-2-4-1-2.pddl,SAT:6.41702:52.0:1800.0:-1
ipc-2014-optimal-citycar-p2-2-4-2-1.pddl,SAT:6.42502:52.0:1800.0:-1
ipc-2014-optimal-citycar-p2-2-5-2-2.pddl,SAT:235.354:76.0:1800.0:-1
ipc-2014-optimal-citycar-p2-2-6-1-1.pddl,SAT:190.826:58.0:1800.0:-1
ipc-2014-optimal-citycar-p2-2-6-2-2.pddl,SAT:180.253:58.0:1800.0:-1
ipc-2014-optimal-citycar-p2-3-2-3-1.pddl,SAT:13.6229:68.0:1800.0:-1
ipc-2014-optimal-citycar-p2-3-3-3-1.pddl,SAT:58.2101:78.0:1800.0:-1
ipc-2014-optimal-citycar-p2-3-4-3-1.pddl,SAT:278.444:82.0:1800.0:-1
ipc-2014-optimal-citycar-p2-3-6-3-2.pddl,TIMEOUT:1801.02:-1.0:1800.0:-1
ipc-2014-optimal-citycar-p3-3-2-2-1.pddl,SAT:211.752:70.0:1800.0:-1
ipc-2014-optimal-citycar-p3-3-2-2-2.pddl,CRASHED:1666.71:1000000000.0:1800.0:-1
ipc-2014-optimal-citycar-p3-3-2-3-1.pddl,SAT:8.65068:48.0:1800.0:-1
ipc-2014-optimal-citycar-p3-3-2-3-2.pddl,SAT:184.4:70.0:1800.0:-1
ipc-2014-optimal-citycar-p3-3-3-3-1.pddl,TIMEOUT:1801.09:-1.0:1800.0:-1
ipc-2014-optimal-citycar-p3-3-3-3-2.pddl,TIMEOUT:1801.04:-1.0:1800.0:-1
ipc-2014-optimal-floortile-p01-4-3-2.pddl,SAT:264.265:56.0:1800.0:-1
ipc-2014-optimal-floortile-p01-4-4-2.pddl,SAT:1431.97:68.0:1800.0:-1
ipc-2014-optimal-floortile-p01-5-3-2.pddl,SAT:423.054:63.0:1800.0:-1
ipc-2014-optimal-floortile-p01-5-4-2.pddl,TIMEOUT:1801.07:-1.0:1800.0:-1
ipc-2014-optimal-floortile-p01-5-5-2.pddl,TIMEOUT:1801.08:-1.0:1800.0:-1
ipc-2014-optimal-floortile-p01-6-4-2.pddl,TIMEOUT:1801.06:-1.0:1800.0:-1
ipc-2014-optimal-floortile-p01-6-5-2.pddl,TIMEOUT:1801.09:-1.0:1800.0:-1
ipc-2014-optimal-floortile-p02-4-4-2.pddl,TIMEOUT:1801.1:-1.0:1800.0:-1
ipc-2014-optimal-floortile-p02-5-3-2.pddl,SAT:492.146:65.0:1800.0:-1
ipc-2014-optimal-floortile-p02-5-4-2.pddl,TIMEOUT:1801.02:-1.0:1800.0:-1
ipc-2014-optimal-floortile-p02-5-5-2.pddl,TIMEOUT:1801.06:-1.0:1800.0:-1
ipc-2014-optimal-floortile-p02-6-4-2.pddl,TIMEOUT:1801.04:-1.0:1800.0:-1
ipc-2014-optimal-floortile-p02-6-5-2.pddl,TIMEOUT:1801.03:-1.0:1800.0:-1
ipc-2014-optimal-floortile-p03-4-3-2.pddl,SAT:272.12:56.0:1800.0:-1
ipc-2014-optimal-floortile-p03-4-4-2.pddl,TIMEOUT:1801.07:-1.0:1800.0:-1
ipc-2014-optimal-floortile-p03-5-3-2.pddl,SAT:545.983:65.0:1800.0:-1
ipc-2014-optimal-floortile-p03-5-4-2.pddl,TIMEOUT:1801.08:-1.0:1800.0:-1
ipc-2014-optimal-floortile-p03-5-5-2.pddl,TIMEOUT:1801.04:-1.0:1800.0:-1
ipc-2014-optimal-floortile-p03-6-4-2.pddl,TIMEOUT:1801.08:-1.0:1800.0:-1
ipc-2014-optimal-floortile-p03-6-5-2.pddl,TIMEOUT:1801.11:-1.0:1800.0:-1
ipc-2014-optimal-ged-d-1-2.pddl,SAT:55.8565:1.0:1800.0:-1
ipc-2014-optimal-ged-d-1-3.pddl,SAT:218.435:4.0:1800.0:-1
ipc-2014-optimal-ged-d-1-4.pddl,SAT:55.8035:1.0:1800.0:-1
ipc-2014-optimal-ged-d-1-8.pddl,SAT:302.684:4.0:1800.0:-1
ipc-2014-optimal-ged-d-2-1.pddl,SAT:56.2324:1.0:1800.0:-1
ipc-2014-optimal-ged-d-2-3.pddl,SAT:158.299:3.0:1800.0:-1
ipc-2014-optimal-ged-d-2-4.pddl,SAT:137.825:2.0:1800.0:-1
ipc-2014-optimal-ged-d-2-8.pddl,CRASHED:439.899:5.0:1800.0:-1
ipc-2014-optimal-ged-d-3-1.pddl,SAT:250.82:4.0:1800.0:-1
ipc-2014-optimal-ged-d-3-2.pddl,SAT:157.359:3.0:1800.0:-1
ipc-2014-optimal-ged-d-3-4.pddl,SAT:297.439:5.0:1800.0:-1
ipc-2014-optimal-ged-d-4-2.pddl,SAT:135.914:2.0:1800.0:-1
ipc-2014-optimal-ged-d-4-3.pddl,SAT:344.005:5.0:1800.0:-1
ipc-2014-optimal-ged-d-4-8.pddl,SAT:334.436:5.0:1800.0:-1
ipc-2014-optimal-ged-d-7-5.pddl,SAT:296.14:4.0:1800.0:-1
ipc-2014-optimal-ged-d-7-6.pddl,SAT:240.569:4.0:1800.0:-1
ipc-2014-optimal-ged-d-8-1.pddl,SAT:298.817:4.0:1800.0:-1
ipc-2014-optimal-ged-d-8-2.pddl,SAT:328.293:5.0:1800.0:-1
ipc-2014-optimal-ged-d-8-4.pddl,CRASHED:458.333:5.0:1800.0:-1
ipc-2014-optimal-ged-d-8-9.pddl,CRASHED:521.61:1000000000.0:1800.0:-1
ipc-2014-optimal-hiking-1-2-3.pddl,SAT:7.79881:11.0:1800.0:-1
ipc-2014-optimal-hiking-1-2-4.pddl,SAT:11.0963:17.0:1800.0:-1
ipc-2014-optimal-hiking-1-2-5.pddl,SAT:18.8181:25.0:1800.0:-1
ipc-2014-optimal-hiking-1-2-7.pddl,SAT:41.1847:38.0:1800.0:-1
ipc-2014-optimal-hiking-1-2-8.pddl,SAT:65.893:45.0:1800.0:-1
ipc-2014-optimal-hiking-2-2-3.pddl,SAT:143.993:10.0:1800.0:-1
ipc-2014-optimal-hiking-2-2-4.pddl,SAT:218.388:16.0:1800.0:-1
ipc-2014-optimal-hiking-2-2-5.pddl,SAT:319.68:22.0:1800.0:-1
ipc-2014-optimal-hiking-2-2-6.pddl,SAT:439.714:30.0:1800.0:-1
ipc-2014-optimal-hiking-2-2-7.pddl,SAT:467.086:34.0:1800.0:-1
ipc-2014-optimal-hiking-2-2-8.pddl,CRASHED:952.905:42.0:1800.0:-1
ipc-2014-optimal-hiking-2-3-4.pddl,SAT:352.565:17.0:1800.0:-1
ipc-2014-optimal-hiking-2-3-5.pddl,SAT:541.137:24.0:1800.0:-1
ipc-2014-optimal-hiking-2-3-6.pddl,SAT:617.947:28.0:1800.0:-1
ipc-2014-optimal-hiking-2-3-7.pddl,CRASHED:1067.83:1000000000.0:1800.0:-1
ipc-2014-optimal-hiking-2-4-3.pddl,SAT:268.104:10.0:1800.0:-1
ipc-2014-optimal-hiking-2-4-4.pddl,SAT:510.704:17.0:1800.0:-1
ipc-2014-optimal-hiking-2-4-5.pddl,SAT:768.201:23.0:1800.0:-1
ipc-2014-optimal-hiking-2-4-6.pddl,CRASHED:1054.48:30.0:1800.0:-1
ipc-2014-optimal-hiking-2-4-7.pddl,CRASHED:834.38:1000000000.0:1800.0:-1
ipc-2014-optimal-maintenance-1.3.010.010.1-001.pddl,CRASHED:7.69083:1000000000.0:1800.0:-1
ipc-2014-optimal-maintenance-1.3.010.010.1-002.pddl,CRASHED:11.8522:1000000000.0:1800.0:-1
ipc-2014-optimal-maintenance-1.3.010.010.2-000.pddl,SAT:22.4326:4.0:1800.0:-1
ipc-2014-optimal-maintenance-1.3.010.010.2-001.pddl,SAT:27.0039:7.0:1800.0:-1
ipc-2014-optimal-maintenance-1.3.010.010.2-002.pddl,SAT:38.8721:6.0:1800.0:-1
ipc-2014-optimal-maintenance-1.3.015.020.1-000.pddl,CRASHED:27.8338:1000000000.0:1800.0:-1
ipc-2014-optimal-maintenance-1.3.015.020.1-001.pddl,CRASHED:20.7998:1000000000.0:1800.0:-1
ipc-2014-optimal-maintenance-1.3.015.020.1-002.pddl,CRASHED:25.7531:1000000000.0:1800.0:-1
ipc-2014-optimal-maintenance-1.3.015.020.2-000.pddl,CRASHED:348.957:1000000000.0:1800.0:-1
ipc-2014-optimal-maintenance-1.3.015.020.2-001.pddl,SAT:135.515:11.0:1800.0:-1
ipc-2014-optimal-maintenance-1.3.015.020.2-002.pddl,SAT:128.391:9.0:1800.0:-1
ipc-2014-optimal-maintenance-1.3.025.050.1-000.pddl,CRASHED:92.307:1000000000.0:1800.0:-1
ipc-2014-optimal-maintenance-1.3.025.050.1-001.pddl,CRASHED:170.243:1000000000.0:1800.0:-1
ipc-2014-optimal-maintenance-1.3.025.050.1-002.pddl,CRASHED:170.577:1000000000.0:1800.0:-1
ipc-2014-optimal-maintenance-1.3.025.100.1-000.pddl,CRASHED:88.2546:1000000000.0:1800.0:-1
ipc-2014-optimal-maintenance-1.3.025.100.1-001.pddl,CRASHED:85.788:1000000000.0:1800.0:-1
ipc-2014-optimal-maintenance-1.3.025.100.1-002.pddl,CRASHED:90.5342:1000000000.0:1800.0:-1
ipc-2014-optimal-maintenance-1.3.025.100.2-000.pddl,TIMEOUT:1801.03:-1.0:1800.0:-1
ipc-2014-optimal-maintenance-1.3.025.100.2-001.pddl,TIMEOUT:1801.03:-1.0:1800.0:-1
ipc-2014-optimal-maintenance-1.3.025.100.2-002.pddl,TIMEOUT:1801.07:-1.0:1800.0:-1
ipc-2014-optimal-openstacks-p20_1.pddl,SAT:341.785:3.0:1800.0:-1
ipc-2014-optimal-openstacks-p20_2.pddl,SAT:299.226:4.0:1800.0:-1
ipc-2014-optimal-openstacks-p20_3.pddl,SAT:186.089:6.0:1800.0:-1
ipc-2014-optimal-openstacks-p25_1.pddl,CRASHED:678.24:1000000000.0:1800.0:-1
ipc-2014-optimal-openstacks-p25_3.pddl,CRASHED:681.05:1000000000.0:1800.0:-1
ipc-2014-optimal-openstacks-p30_1.pddl,TIMEOUT:1801.07:-1.0:1800.0:-1
ipc-2014-optimal-openstacks-p30_2.pddl,TIMEOUT:1801.08:-1.0:1800.0:-1
ipc-2014-optimal-openstacks-p30_3.pddl,TIMEOUT:1801.08:-1.0:1800.0:-1
ipc-2014-optimal-openstacks-p35_1.pddl,TIMEOUT:1801.07:-1.0:1800.0:-1
ipc-2014-optimal-openstacks-p35_2.pddl,TIMEOUT:1801.0:-1.0:1800.0:-1
ipc-2014-optimal-openstacks-p35_3.pddl,CRASHED:650.18:1000000000.0:1800.0:-1
ipc-2014-optimal-openstacks-p40_1.pddl,CRASHED:488.62:1000000000.0:1800.0:-1
ipc-2014-optimal-openstacks-p40_2.pddl,CRASHED:486.24:1000000000.0:1800.0:-1
ipc-2014-optimal-openstacks-p40_3.pddl,CRASHED:732.6:1000000000.0:1800.0:-1
ipc-2014-optimal-openstacks-p45_1.pddl,CRASHED:635.02:1000000000.0:1800.0:-1
ipc-2014-optimal-openstacks-p45_2.pddl,CRASHED:564.74:1000000000.0:1800.0:-1
ipc-2014-optimal-openstacks-p45_3.pddl,CRASHED:743.67:1000000000.0:1800.0:-1
ipc-2014-optimal-openstacks-p50_1.pddl,CRASHED:714.63:1000000000.0:1800.0:-1
ipc-2014-optimal-openstacks-p50_2.pddl,CRASHED:795.57:1000000000.0:1800.0:-1
ipc-2014-optimal-openstacks-p50_3.pddl,CRASHED:738.97:1000000000.0:1800.0:-1
ipc-2014-optimal-parking-12_7-01.pddl,SAT:967.26:18.0:1800.0:-1
ipc-2014-optimal-parking-12_7-02.pddl,SAT:1034.11:18.0:1800.0:-1
ipc-2014-optimal-parking-12_7-03.pddl,SAT:1021.44:17.0:1800.0:-1
ipc-2014-optimal-parking-12_7-04.pddl,SAT:1104.31:19.0:1800.0:-1
ipc-2014-optimal-parking-14_8-01.pddl,CRASHED:1641.16:1000000000.0:1800.0:-1
ipc-2014-optimal-parking-14_8-02.pddl,SAT:1457.16:22.0:1800.0:-1
ipc-2014-optimal-parking-14_8-03.pddl,SAT:1334.86:21.0:1800.0:-1
ipc-2014-optimal-parking-14_8-04.pddl,CRASHED:1721.6:1000000000.0:1800.0:-1
ipc-2014-optimal-parking-16_9-01.pddl,CRASHED:1516.93:1000000000.0:1800.0:-1
ipc-2014-optimal-parking-16_9-02.pddl,CRASHED:1465.54:1000000000.0:1800.0:-1
ipc-2014-optimal-parking-16_9-03.pddl,CRASHED:1463.13:1000000000.0:1800.0:-1
ipc-2014-optimal-parking-16_9-04.pddl,CRASHED:1356.63:1000000000.0:1800.0:-1
ipc-2014-optimal-parking-18_10-01.pddl,TIMEOUT:1801.05:-1.0:1800.0:-1
ipc-2014-optimal-parking-18_10-02.pddl,CRASHED:1780.17:1000000000.0:1800.0:-1
ipc-2014-optimal-parking-18_10-03.pddl,CRASHED:1488.76:1000000000.0:1800.0:-1
ipc-2014-optimal-parking-18_10-04.pddl,CRASHED:1467.51:1000000000.0:1800.0:-1
ipc-2014-optimal-parking-20_11-01.pddl,CRASHED:1713.46:1000000000.0:1800.0:-1
ipc-2014-optimal-parking-20_11-02.pddl,TIMEOUT:1801.06:-1.0:1800.0:-1
ipc-2014-optimal-parking-20_11-03.pddl,TIMEOUT:1801.04:-1.0:1800.0:-1
ipc-2014-optimal-parking-20_11-04.pddl,CRASHED:1625.14:1000000000.0:1800.0:-1
ipc-2014-optimal-tetris-01-10.pddl,TIMEOUT:1801.08:-1.0:1800.0:-1
ipc-2014-optimal-tetris-01-04.pddl,CRASHED:315.348:1000000000.0:1800.0:-1
ipc-2014-optimal-tetris-01-06.pddl,SAT:229.927:30.0:1800.0:-1
ipc-2014-optimal-tetris-01-08.pddl,SAT:1073.94:36.0:1800.0:-1
ipc-2014-optimal-tetris-02-10.pddl,TIMEOUT:1801.01:-1.0:1800.0:-1
ipc-2014-optimal-tetris-02-04.pddl,SAT:531.973:10.0:1800.0:-1
ipc-2014-optimal-tetris-02-06.pddl,SAT:294.528:30.0:1800.0:-1
ipc-2014-optimal-tetris-02-08.pddl,TIMEOUT:1801.0:-1.0:1800.0:-1
ipc-2014-optimal-tetris-03-10.pddl,TIMEOUT:1801.08:-1.0:1800.0:-1
ipc-2014-optimal-tetris-03-04.pddl,SAT:763.435:11.0:1800.0:-1
ipc-2014-optimal-tetris-03-06.pddl,SAT:259.918:21.0:1800.0:-1
ipc-2014-optimal-tetris-03-08.pddl,TIMEOUT:1801.0:-1.0:1800.0:-1
ipc-2014-optimal-tetris-04-10.pddl,TIMEOUT:1801.09:-1.0:1800.0:-1
ipc-2014-optimal-tetris-04-04.pddl,CRASHED:336.446:1000000000.0:1800.0:-1
ipc-2014-optimal-tetris-04-06.pddl,SAT:255.378:27.0:1800.0:-1
ipc-2014-optimal-tetris-04-08.pddl,TIMEOUT:1801.05:-1.0:1800.0:-1
ipc-2014-optimal-tetris-05-10.pddl,TIMEOUT:1801.04:-1.0:1800.0:-1
ipc-2014-optimal-tetris-05-04.pddl,CRASHED:421.433:1000000000.0:1800.0:-1
ipc-2014-optimal-tetris-05-06.pddl,SAT:223.902:19.0:1800.0:-1
ipc-2014-optimal-tetris-05-08.pddl,TIMEOUT:1801.05:-1.0:1800.0:-1
ipc-2014-optimal-tidybot-01.pddl,TIMEOUT:1801.05:-1.0:1800.0:-1
ipc-2014-optimal-tidybot-02.pddl,SAT:507.079:35.0:1800.0:-1
ipc-2014-optimal-tidybot-03.pddl,SAT:463.27:30.0:1800.0:-1
ipc-2014-optimal-tidybot-04.pddl,SAT:366.601:24.0:1800.0:-1
ipc-2014-optimal-tidybot-05.pddl,TIMEOUT:1801.02:-1.0:1800.0:-1
ipc-2014-optimal-tidybot-06.pddl,TIMEOUT:1801.08:-1.0:1800.0:-1
ipc-2014-optimal-tidybot-07.pddl,SAT:1281.28:38.0:1800.0:-1
ipc-2014-optimal-tidybot-08.pddl,SAT:318.969:25.0:1800.0:-1
ipc-2014-optimal-tidybot-09.pddl,TIMEOUT:1801.01:-1.0:1800.0:-1
ipc-2014-optimal-tidybot-10.pddl,TIMEOUT:1801.06:-1.0:1800.0:-1
ipc-2014-optimal-tidybot-11.pddl,SAT:245.282:29.0:1800.0:-1
ipc-2014-optimal-tidybot-12.pddl,SAT:1053.45:35.0:1800.0:-1
ipc-2014-optimal-tidybot-13.pddl,SAT:465.228:30.0:1800.0:-1
ipc-2014-optimal-tidybot-14.pddl,SAT:271.468:25.0:1800.0:-1
ipc-2014-optimal-tidybot-15.pddl,TIMEOUT:1801.05:-1.0:1800.0:-1
ipc-2014-optimal-tidybot-16.pddl,TIMEOUT:1801.02:-1.0:1800.0:-1
ipc-2014-optimal-tidybot-17.pddl,TIMEOUT:1801.02:-1.0:1800.0:-1
ipc-2014-optimal-tidybot-18.pddl,TIMEOUT:1801.08:-1.0:1800.0:-1
ipc-2014-optimal-tidybot-19.pddl,TIMEOUT:1801.06:-1.0:1800.0:-1
ipc-2014-optimal-tidybot-20.pddl,TIMEOUT:1801.08:-1.0:1800.0:-1
ipc-2014-optimal-transport-01.pddl,SAT:61.4157:148.0:1800.0:-1
ipc-2014-optimal-transport-02.pddl,SAT:111.855:191.0:1800.0:-1
ipc-2014-optimal-transport-03.pddl,SAT:224.529:300.0:1800.0:-1
ipc-2014-optimal-transport-04.pddl,TIMEOUT:1801.01:-1.0:1800.0:-1
ipc-2014-optimal-transport-05.pddl,TIMEOUT:1801.01:-1.0:1800.0:-1
ipc-2014-optimal-transport-06.pddl,TIMEOUT:1801.03:-1.0:1800.0:-1
ipc-2014-optimal-transport-07.pddl,SAT:108.082:967.0:1800.0:-1
ipc-2014-optimal-transport-08.pddl,SAT:219.709:1173.0:1800.0:-1
ipc-2014-optimal-transport-09.pddl,CRASHED:767.64:1000000000.0:1800.0:-1
ipc-2014-optimal-transport-10.pddl,CRASHED:770.08:1000000000.0:1800.0:-1
ipc-2014-optimal-transport-11.pddl,TIMEOUT:1801.05:-1.0:1800.0:-1
ipc-2014-optimal-transport-12.pddl,TIMEOUT:1801.04:-1.0:1800.0:-1
ipc-2014-optimal-transport-13.pddl,SAT:124.675:594.0:1800.0:-1
ipc-2014-optimal-transport-14.pddl,SAT:341.872:526.0:1800.0:-1
ipc-2014-optimal-transport-15.pddl,SAT:290.921:753.0:1800.0:-1
ipc-2014-optimal-transport-16.pddl,TIMEOUT:1801.02:-1.0:1800.0:-1
ipc-2014-optimal-transport-17.pddl,TIMEOUT:1801.05:-1.0:1800.0:-1
ipc-2014-optimal-transport-18.pddl,TIMEOUT:1801.02:-1.0:1800.0:-1
ipc-2014-optimal-transport-19.pddl,TIMEOUT:1801.05:-1.0:1800.0:-1
ipc-2014-optimal-transport-20.pddl,TIMEOUT:1801.09:-1.0:1800.0:-1
ipc-2014-optimal-visitall-05-10.pddl,SAT:287.542:60.0:1800.0:-1
ipc-2014-optimal-visitall-05-05.pddl,SAT:37.2143:21.0:1800.0:-1
ipc-2014-optimal-visitall-05-06.pddl,SAT:47.7357:25.0:1800.0:-1
ipc-2014-optimal-visitall-05-07.pddl,SAT:112.792:34.0:1800.0:-1
ipc-2014-optimal-visitall-05-08.pddl,SAT:257.919:43.0:1800.0:-1
ipc-2014-optimal-visitall-05-09.pddl,SAT:238.525:54.0:1800.0:-1
ipc-2014-optimal-visitall-01-10.pddl,SAT:276.512:99.0:1800.0:-1
ipc-2014-optimal-visitall-01-11.pddl,SAT:335.091:120.0:1800.0:-1
ipc-2014-optimal-visitall-01-12.pddl,SAT:699.686:143.0:1800.0:-1
ipc-2014-optimal-visitall-01-13.pddl,SAT:623.697:168.0:1800.0:-1
ipc-2014-optimal-visitall-01-14.pddl,CRASHED:1098.75:1000000000.0:1800.0:-1
ipc-2014-optimal-visitall-01-15.pddl,CRASHED:1109.49:1000000000.0:1800.0:-1
ipc-2014-optimal-visitall-01-16.pddl,CRASHED:1120.86:1000000000.0:1800.0:-1
ipc-2014-optimal-visitall-01-17.pddl,CRASHED:1198.27:1000000000.0:1800.0:-1
ipc-2014-optimal-visitall-01-18.pddl,CRASHED:1075.77:1000000000.0:1800.0:-1
ipc-2014-optimal-visitall-01-05.pddl,SAT:137.909:24.0:1800.0:-1
ipc-2014-optimal-visitall-01-06.pddl,SAT:284.831:35.0:1800.0:-1
ipc-2014-optimal-visitall-01-07.pddl,SAT:234.796:48.0:1800.0:-1
ipc-2014-optimal-visitall-01-08.pddl,SAT:278.123:63.0:1800.0:-1
ipc-2014-optimal-visitall-01-09.pddl,SAT:311.379:80.0:1800.0:-1
