instance,ipc-2014-agile-arvandherd
ipc-2014-agile-barman-p1-11-4-15.pddl,SAT:198.052:198.0:300.0:-1
ipc-2014-agile-barman-p1-11-5-15.pddl,SAT:206.23:177.0:300.0:-1
ipc-2014-agile-barman-p1-11-5-16.pddl,SAT:191.395:172.0:300.0:-1
ipc-2014-agile-barman-p2-10-4-13.pddl,SAT:200.732:153.0:300.0:-1
ipc-2014-agile-barman-p2-11-4-15.pddl,SAT:214.68:184.0:300.0:-1
ipc-2014-agile-barman-p2-11-5-15.pddl,SAT:198.99:174.0:300.0:-1
ipc-2014-agile-barman-p2-11-5-16.pddl,TIMEOUT:301.02:-1.0:300.0:-1
ipc-2014-agile-barman-p2-11-5-17.pddl,SAT:200.95:162.0:300.0:-1
ipc-2014-agile-barman-p3-10-4-13.pddl,SAT:201.416:157.0:300.0:-1
ipc-2014-agile-barman-p3-11-4-15.pddl,SAT:209.063:185.0:300.0:-1
ipc-2014-agile-barman-p3-11-5-15.pddl,SAT:209.062:181.0:300.0:-1
ipc-2014-agile-barman-p3-11-5-16.pddl,SAT:203.282:194.0:300.0:-1
ipc-2014-agile-barman-p3-11-5-17.pddl,TIMEOUT:301.06:-1.0:300.0:-1
ipc-2014-agile-barman-p4-11-4-14.pddl,SAT:195.784:172.0:300.0:-1
ipc-2014-agile-barman-p4-11-4-15.pddl,SAT:210.896:191.0:300.0:-1
ipc-2014-agile-barman-p4-11-5-15.pddl,SAT:204.225:181.0:300.0:-1
ipc-2014-agile-barman-p5-10-4-13.pddl,SAT:205.622:149.0:300.0:-1
ipc-2014-agile-barman-p5-11-4-15.pddl,SAT:200.625:187.0:300.0:-1
ipc-2014-agile-barman-p5-11-5-15.pddl,SAT:212.473:221.0:300.0:-1
ipc-2014-agile-barman-p5-11-5-16.pddl,SAT:203.237:188.0:300.0:-1
ipc-2014-agile-cavediving-01_easy.pddl,TIMEOUT:301.05:-1.0:300.0:-1
ipc-2014-agile-cavediving-01.pddl,TIMEOUT:301.04:-1.0:300.0:-1
ipc-2014-agile-cavediving-02_easy.pddl,TIMEOUT:301.08:-1.0:300.0:-1
ipc-2014-agile-cavediving-03_easy.pddl,TIMEOUT:301.07:-1.0:300.0:-1
ipc-2014-agile-cavediving-04_easy.pddl,TIMEOUT:301.06:-1.0:300.0:-1
ipc-2014-agile-cavediving-05A_easy.pddl,SAT:183.919:94.0:300.0:-1
ipc-2014-agile-cavediving-06A_easy.pddl,SAT:190.053:95.0:300.0:-1
ipc-2014-agile-cavediving-07_easy.pddl,SAT:181.323:131.0:300.0:-1
ipc-2014-agile-cavediving-08_easy.pddl,SAT:193.93:90.0:300.0:-1
ipc-2014-agile-cavediving-09_easy.pddl,TIMEOUT:301.06:-1.0:300.0:-1
ipc-2014-agile-cavediving-10_easy.pddl,TIMEOUT:301.08:-1.0:300.0:-1
ipc-2014-agile-cavediving-11_easy.pddl,TIMEOUT:301.03:-1.0:300.0:-1
ipc-2014-agile-cavediving-12_easy.pddl,TIMEOUT:301.03:-1.0:300.0:-1
ipc-2014-agile-cavediving-13_easy.pddl,TIMEOUT:301.1:-1.0:300.0:-1
ipc-2014-agile-cavediving-14_easy.pddl,TIMEOUT:301.05:-1.0:300.0:-1
ipc-2014-agile-cavediving-15_easy.pddl,TIMEOUT:301.08:-1.0:300.0:-1
ipc-2014-agile-cavediving-16_easy.pddl,TIMEOUT:301.1:-1.0:300.0:-1
ipc-2014-agile-cavediving-18A_easy.pddl,SAT:181.442:131.0:300.0:-1
ipc-2014-agile-cavediving-18_easy.pddl,SAT:181.64:131.0:300.0:-1
ipc-2014-agile-cavediving-20A_easy.pddl,SAT:221.47:98.0:300.0:-1
ipc-2014-agile-childsnack-05-2.pddl,SAT:189.878:48.0:300.0:-1
ipc-2014-agile-childsnack-05.pddl,SAT:1.08383:113.0:300.0:-1
ipc-2014-agile-childsnack-06-2.pddl,SAT:154.649:120.0:300.0:-1
ipc-2014-agile-childsnack-07-2.pddl,SAT:228.499:60.0:300.0:-1
ipc-2014-agile-childsnack-08-2.pddl,SAT:192.216:66.0:300.0:-1
ipc-2014-agile-childsnack-08.pddl,SAT:16.2075:123.0:300.0:-1
ipc-2014-agile-childsnack-09-2.pddl,CRASHED:299.474:1000000000.0:300.0:-1
ipc-2014-agile-childsnack-09.pddl,TIMEOUT:301.03:-1.0:300.0:-1
ipc-2014-agile-childsnack-10-2.pddl,TIMEOUT:301.03:-1.0:300.0:-1
ipc-2014-agile-childsnack-10.pddl,TIMEOUT:301.1:-1.0:300.0:-1
ipc-2014-agile-childsnack-11-2.pddl,TIMEOUT:301.08:-1.0:300.0:-1
ipc-2014-agile-childsnack-11.pddl,TIMEOUT:301.03:-1.0:300.0:-1
ipc-2014-agile-childsnack-12.pddl,TIMEOUT:301.02:-1.0:300.0:-1
ipc-2014-agile-childsnack-13-2.pddl,TIMEOUT:301.08:-1.0:300.0:-1
ipc-2014-agile-childsnack-13.pddl,SAT:259.398:90.0:300.0:-1
ipc-2014-agile-childsnack-14.pddl,TIMEOUT:301.06:-1.0:300.0:-1
ipc-2014-agile-childsnack-15-2.pddl,TIMEOUT:301.02:-1.0:300.0:-1
ipc-2014-agile-childsnack-16-2.pddl,TIMEOUT:301.09:-1.0:300.0:-1
ipc-2014-agile-childsnack-19-2.pddl,TIMEOUT:301.02:-1.0:300.0:-1
ipc-2014-agile-childsnack-19.pddl,TIMEOUT:301.03:-1.0:300.0:-1
ipc-2014-agile-citycar-p3-2-2-0-1.pddl,SAT:0.58491:972.0:300.0:-1
ipc-2014-agile-citycar-p3-3-2-0-1.pddl,SAT:1.2768:1548.0:300.0:-1
ipc-2014-agile-citycar-p3-4-2-0-1.pddl,SAT:1.57276:2241.0:300.0:-1
ipc-2014-agile-citycar-p3-5-2-0-1.pddl,SAT:3.77143:1893.0:300.0:-1
ipc-2014-agile-citycar-p3-5-2-0-2.pddl,SAT:3.50347:1939.0:300.0:-1
ipc-2014-agile-citycar-p4-2-2-0-1.pddl,SAT:13.7659:2544.0:300.0:-1
ipc-2014-agile-citycar-p4-2-3-0-1.pddl,SAT:26.9039:1879.0:300.0:-1
ipc-2014-agile-citycar-p4-2-3-0-2.pddl,SAT:17.2524:2028.0:300.0:-1
ipc-2014-agile-citycar-p4-3-2-0-1.pddl,SAT:34.8677:2020.0:300.0:-1
ipc-2014-agile-citycar-p4-3-2-0-2.pddl,SAT:20.3849:1975.0:300.0:-1
ipc-2014-agile-citycar-p4-3-3-0-1.pddl,SAT:31.9151:2660.0:300.0:-1
ipc-2014-agile-citycar-p4-3-3-0-2.pddl,SAT:80.0258:1764.0:300.0:-1
ipc-2014-agile-citycar-p4-4-2-0-1.pddl,SAT:44.1223:3355.0:300.0:-1
ipc-2014-agile-citycar-p4-4-2-0-2.pddl,SAT:104.065:3260.0:300.0:-1
ipc-2014-agile-citycar-p4-4-3-0-1.pddl,SAT:72.9109:1997.0:300.0:-1
ipc-2014-agile-citycar-p4-4-3-0-2.pddl,SAT:18.8861:3343.0:300.0:-1
ipc-2014-agile-citycar-p4-5-2-0-1.pddl,SAT:49.2745:4409.0:300.0:-1
ipc-2014-agile-citycar-p4-5-2-0-2.pddl,SAT:45.6601:2270.0:300.0:-1
ipc-2014-agile-citycar-p4-5-3-0-1.pddl,TIMEOUT:301.04:-1.0:300.0:-1
ipc-2014-agile-citycar-p4-5-3-0-2.pddl,TIMEOUT:301.02:-1.0:300.0:-1
ipc-2014-agile-floortile-p01-4-3-2.pddl,SAT:201.288:91.0:300.0:-1
ipc-2014-agile-floortile-p01-5-4-2.pddl,TIMEOUT:301.07:-1.0:300.0:-1
ipc-2014-agile-floortile-p01-5-5-2.pddl,TIMEOUT:301.06:-1.0:300.0:-1
ipc-2014-agile-floortile-p01-6-4-2.pddl,TIMEOUT:301.08:-1.0:300.0:-1
ipc-2014-agile-floortile-p01-6-5-2.pddl,TIMEOUT:301.03:-1.0:300.0:-1
ipc-2014-agile-floortile-p01-6-5-3.pddl,TIMEOUT:301.04:-1.0:300.0:-1
ipc-2014-agile-floortile-p02-5-4-2.pddl,TIMEOUT:301.07:-1.0:300.0:-1
ipc-2014-agile-floortile-p02-6-4-2.pddl,TIMEOUT:301.05:-1.0:300.0:-1
ipc-2014-agile-floortile-p02-6-5-2.pddl,TIMEOUT:301.07:-1.0:300.0:-1
ipc-2014-agile-floortile-p02-6-5-3.pddl,TIMEOUT:301.06:-1.0:300.0:-1
ipc-2014-agile-floortile-p03-6-4-2.pddl,TIMEOUT:301.02:-1.0:300.0:-1
ipc-2014-agile-floortile-p03-6-5-2.pddl,TIMEOUT:301.04:-1.0:300.0:-1
ipc-2014-agile-floortile-p03-6-5-3.pddl,TIMEOUT:301.0:-1.0:300.0:-1
ipc-2014-agile-floortile-p04-5-4-2.pddl,TIMEOUT:301.04:-1.0:300.0:-1
ipc-2014-agile-floortile-p04-5-5-2.pddl,TIMEOUT:301.02:-1.0:300.0:-1
ipc-2014-agile-floortile-p04-6-5-2.pddl,TIMEOUT:301.05:-1.0:300.0:-1
ipc-2014-agile-floortile-p04-6-5-3.pddl,TIMEOUT:301.01:-1.0:300.0:-1
ipc-2014-agile-floortile-p05-4-3-2.pddl,SAT:5.12822:179.0:300.0:-1
ipc-2014-agile-floortile-p05-6-5-2.pddl,TIMEOUT:301.02:-1.0:300.0:-1
ipc-2014-agile-floortile-p05-6-5-3.pddl,TIMEOUT:301.01:-1.0:300.0:-1
ipc-2014-agile-ged-d-10-1.pddl,SAT:66.2989:120.0:300.0:-1
ipc-2014-agile-ged-d-10-2.pddl,SAT:6.74297:54.0:300.0:-1
ipc-2014-agile-ged-d-10-3.pddl,SAT:188.157:25.0:300.0:-1
ipc-2014-agile-ged-d-10-4.pddl,SAT:112.118:193.0:300.0:-1
ipc-2014-agile-ged-d-10-5.pddl,SAT:197.09:51.0:300.0:-1
ipc-2014-agile-ged-d-10-6.pddl,SAT:104.846:100.0:300.0:-1
ipc-2014-agile-ged-d-11-1.pddl,SAT:41.0198:82.0:300.0:-1
ipc-2014-agile-ged-d-11-3.pddl,SAT:27.8678:115.0:300.0:-1
ipc-2014-agile-ged-d-11-5.pddl,SAT:188.531:32.0:300.0:-1
ipc-2014-agile-ged-d-11-6.pddl,SAT:189.443:31.0:300.0:-1
ipc-2014-agile-ged-d-12-11.pddl,SAT:50.9753:113.0:300.0:-1
ipc-2014-agile-ged-d-12-2.pddl,SAT:191.465:32.0:300.0:-1
ipc-2014-agile-ged-d-12-3.pddl,SAT:33.3629:144.0:300.0:-1
ipc-2014-agile-ged-d-12-5.pddl,SAT:125.563:76.0:300.0:-1
ipc-2014-agile-ged-d-12-6.pddl,SAT:196.925:53.0:300.0:-1
ipc-2014-agile-ged-d-12-7.pddl,SAT:197.648:50.0:300.0:-1
ipc-2014-agile-ged-d-12-8.pddl,SAT:200.444:68.0:300.0:-1
ipc-2014-agile-ged-d-12-9.pddl,SAT:234.991:58.0:300.0:-1
ipc-2014-agile-ged-d-3-6.pddl,SAT:94.1207:67.0:300.0:-1
ipc-2014-agile-ged-d-9-5.pddl,SAT:178.227:63.0:300.0:-1
ipc-2014-agile-hiking-3-4-3.pddl,SAT:2.01269:382.0:300.0:-1
ipc-2014-agile-hiking-3-4-4.pddl,SAT:3.46447:251.0:300.0:-1
ipc-2014-agile-hiking-3-4-5.pddl,SAT:6.16306:605.0:300.0:-1
ipc-2014-agile-hiking-3-4-6.pddl,SAT:20.6509:880.0:300.0:-1
ipc-2014-agile-hiking-3-4-7.pddl,SAT:19.919:1992.0:300.0:-1
ipc-2014-agile-hiking-3-4-8.pddl,SAT:46.21:3473.0:300.0:-1
ipc-2014-agile-hiking-3-4-9.pddl,SAT:46.4779:2280.0:300.0:-1
ipc-2014-agile-hiking-4-5-3.pddl,SAT:5.30219:493.0:300.0:-1
ipc-2014-agile-hiking-4-5-4.pddl,SAT:8.84066:70.0:300.0:-1
ipc-2014-agile-hiking-4-5-5.pddl,SAT:16.4135:1210.0:300.0:-1
ipc-2014-agile-hiking-4-5-6.pddl,SAT:22.7775:1054.0:300.0:-1
ipc-2014-agile-hiking-4-5-7.pddl,SAT:138.734:3667.0:300.0:-1
ipc-2014-agile-hiking-4-5-8.pddl,SAT:113.202:4696.0:300.0:-1
ipc-2014-agile-hiking-4-5-9.pddl,SAT:109.992:3362.0:300.0:-1
ipc-2014-agile-hiking-5-6-3.pddl,SAT:11.4403:353.0:300.0:-1
ipc-2014-agile-hiking-5-6-4.pddl,SAT:22.1556:1485.0:300.0:-1
ipc-2014-agile-hiking-5-6-5.pddl,SAT:33.4869:184.0:300.0:-1
ipc-2014-agile-hiking-5-6-6.pddl,SAT:53.8778:727.0:300.0:-1
ipc-2014-agile-hiking-5-6-7.pddl,SAT:226.638:1176.0:300.0:-1
ipc-2014-agile-hiking-5-6-8.pddl,TIMEOUT:301.09:-1.0:300.0:-1
ipc-2014-agile-maintenance-1.3.060.180.5-000.pddl,SAT:10.5944:55.0:300.0:-1
ipc-2014-agile-maintenance-1.3.060.180.5-001.pddl,SAT:6.08707:54.0:300.0:-1
ipc-2014-agile-maintenance-1.3.060.180.5-002.pddl,SAT:179.11:59.0:300.0:-1
ipc-2014-agile-maintenance-1.3.100.300.5-000.pddl,TIMEOUT:301.02:-1.0:300.0:-1
ipc-2014-agile-maintenance-1.3.100.300.5-001.pddl,TIMEOUT:301.03:-1.0:300.0:-1
ipc-2014-agile-maintenance-1.3.100.300.7-000.pddl,SAT:4.01339:78.0:300.0:-1
ipc-2014-agile-maintenance-1.3.100.300.7-001.pddl,SAT:3.44348:78.0:300.0:-1
ipc-2014-agile-maintenance-1.3.100.300.7-002.pddl,SAT:4.40033:90.0:300.0:-1
ipc-2014-agile-maintenance-1.3.150.500.6-001.pddl,SAT:31.6702:126.0:300.0:-1
ipc-2014-agile-maintenance-1.3.200.500.5-001.pddl,TIMEOUT:301.02:-1.0:300.0:-1
ipc-2014-agile-maintenance-1.3.200.500.5-002.pddl,SAT:16.5395:173.0:300.0:-1
ipc-2014-agile-maintenance-1.3.200.700.7-000.pddl,SAT:19.412:177.0:300.0:-1
ipc-2014-agile-maintenance-1.3.200.700.7-001.pddl,SAT:52.2461:169.0:300.0:-1
ipc-2014-agile-maintenance-1.3.200.700.7-002.pddl,SAT:15.0807:160.0:300.0:-1
ipc-2014-agile-maintenance-1.3.200.900.5-000.pddl,TIMEOUT:301.02:-1.0:300.0:-1
ipc-2014-agile-maintenance-1.3.200.900.5-001.pddl,TIMEOUT:301.0:-1.0:300.0:-1
ipc-2014-agile-maintenance-1.3.200.900.5-002.pddl,TIMEOUT:301.08:-1.0:300.0:-1
ipc-2014-agile-maintenance-1.3.200.900.8-000.pddl,SAT:46.7609:180.0:300.0:-1
ipc-2014-agile-maintenance-1.3.200.900.8-001.pddl,SAT:35.7126:167.0:300.0:-1
ipc-2014-agile-maintenance-1.3.200.900.8-002.pddl,SAT:28.0407:184.0:300.0:-1
ipc-2014-agile-openstacks-p130_2.pddl,SAT:20.8928:89.0:300.0:-1
ipc-2014-agile-openstacks-p130_3.pddl,SAT:21.4887:122.0:300.0:-1
ipc-2014-agile-openstacks-p150_2.pddl,SAT:24.5583:115.0:300.0:-1
ipc-2014-agile-openstacks-p150_3.pddl,SAT:36.5874:140.0:300.0:-1
ipc-2014-agile-openstacks-p170_1.pddl,SAT:34.6067:96.0:300.0:-1
ipc-2014-agile-openstacks-p170_2.pddl,SAT:34.5657:113.0:300.0:-1
ipc-2014-agile-openstacks-p170_3.pddl,SAT:41.4747:170.0:300.0:-1
ipc-2014-agile-openstacks-p190_1.pddl,SAT:39.8849:144.0:300.0:-1
ipc-2014-agile-openstacks-p190_2.pddl,SAT:47.5598:149.0:300.0:-1
ipc-2014-agile-openstacks-p190_3.pddl,SAT:56.8544:182.0:300.0:-1
ipc-2014-agile-openstacks-p210_1.pddl,SAT:49.6854:177.0:300.0:-1
ipc-2014-agile-openstacks-p210_2.pddl,SAT:52.307:166.0:300.0:-1
ipc-2014-agile-openstacks-p230_1.pddl,SAT:76.8153:160.0:300.0:-1
ipc-2014-agile-openstacks-p230_2.pddl,SAT:86.9668:176.0:300.0:-1
ipc-2014-agile-openstacks-p250_1.pddl,SAT:85.581:201.0:300.0:-1
ipc-2014-agile-openstacks-p250_2.pddl,SAT:92.5279:181.0:300.0:-1
ipc-2014-agile-openstacks-p270_1.pddl,SAT:96.9523:229.0:300.0:-1
ipc-2014-agile-openstacks-p270_2.pddl,SAT:108.273:222.0:300.0:-1
ipc-2014-agile-openstacks-p290_1.pddl,SAT:120.395:210.0:300.0:-1
ipc-2014-agile-openstacks-p290_2.pddl,SAT:132.455:254.0:300.0:-1
ipc-2014-agile-parking-28_2.pddl,TIMEOUT:301.02:-1.0:300.0:-1
ipc-2014-agile-parking-28_3.pddl,TIMEOUT:301.05:-1.0:300.0:-1
ipc-2014-agile-parking-30_1.pddl,TIMEOUT:301.04:-1.0:300.0:-1
ipc-2014-agile-parking-30_2.pddl,TIMEOUT:301.03:-1.0:300.0:-1
ipc-2014-agile-parking-30_3.pddl,TIMEOUT:301.03:-1.0:300.0:-1
ipc-2014-agile-parking-32_1.pddl,TIMEOUT:301.02:-1.0:300.0:-1
ipc-2014-agile-parking-32_2.pddl,TIMEOUT:301.1:-1.0:300.0:-1
ipc-2014-agile-parking-32_3.pddl,TIMEOUT:301.02:-1.0:300.0:-1
ipc-2014-agile-parking-34_1.pddl,TIMEOUT:301.03:-1.0:300.0:-1
ipc-2014-agile-parking-34_2.pddl,TIMEOUT:301.07:-1.0:300.0:-1
ipc-2014-agile-parking-34_3.pddl,TIMEOUT:301.07:-1.0:300.0:-1
ipc-2014-agile-parking-36_1.pddl,TIMEOUT:301.0:-1.0:300.0:-1
ipc-2014-agile-parking-36_2.pddl,TIMEOUT:301.1:-1.0:300.0:-1
ipc-2014-agile-parking-36_3.pddl,TIMEOUT:301.06:-1.0:300.0:-1
ipc-2014-agile-parking-38_1.pddl,TIMEOUT:301.08:-1.0:300.0:-1
ipc-2014-agile-parking-38_2.pddl,TIMEOUT:301.1:-1.0:300.0:-1
ipc-2014-agile-parking-38_3.pddl,TIMEOUT:301.06:-1.0:300.0:-1
ipc-2014-agile-parking-40_1.pddl,TIMEOUT:301.08:-1.0:300.0:-1
ipc-2014-agile-parking-40_2.pddl,TIMEOUT:301.05:-1.0:300.0:-1
ipc-2014-agile-parking-40_3.pddl,TIMEOUT:301.09:-1.0:300.0:-1
ipc-2014-agile-tetris-020.pddl,SAT:5.66314:165.0:300.0:-1
ipc-2014-agile-tetris-021.pddl,SAT:21.9427:203.0:300.0:-1
ipc-2014-agile-tetris-022.pddl,SAT:24.0953:558.0:300.0:-1
ipc-2014-agile-tetris-023.pddl,SAT:26.9199:313.0:300.0:-1
ipc-2014-agile-tetris-024.pddl,SAT:81.8256:386.0:300.0:-1
ipc-2014-agile-tetris-025.pddl,SAT:9.53455:584.0:300.0:-1
ipc-2014-agile-tetris-026.pddl,TIMEOUT:301.02:-1.0:300.0:-1
ipc-2014-agile-tetris-027.pddl,TIMEOUT:301.11:-1.0:300.0:-1
ipc-2014-agile-tetris-028.pddl,SAT:48.0857:427.0:300.0:-1
ipc-2014-agile-tetris-029.pddl,SAT:12.8061:420.0:300.0:-1
ipc-2014-agile-tetris-031.pddl,TIMEOUT:301.0:-1.0:300.0:-1
ipc-2014-agile-tetris-032.pddl,SAT:43.7983:947.0:300.0:-1
ipc-2014-agile-tetris-033.pddl,SAT:150.656:1193.0:300.0:-1
ipc-2014-agile-tetris-034.pddl,SAT:45.5071:468.0:300.0:-1
ipc-2014-agile-tetris-035.pddl,SAT:120.379:1050.0:300.0:-1
ipc-2014-agile-tetris-036.pddl,SAT:54.5537:786.0:300.0:-1
ipc-2014-agile-tetris-037.pddl,SAT:16.1555:885.0:300.0:-1
ipc-2014-agile-tetris-038.pddl,SAT:48.0807:1304.0:300.0:-1
ipc-2014-agile-tetris-039.pddl,SAT:162.751:1589.0:300.0:-1
ipc-2014-agile-tetris-040.pddl,TIMEOUT:301.08:-1.0:300.0:-1
ipc-2014-agile-thoughtful-bootstrap-typed-01.pddl,CRASHED:0.132979:1000000000.0:300.0:-1
ipc-2014-agile-thoughtful-bootstrap-typed-02.pddl,CRASHED:0.12598:1000000000.0:300.0:-1
ipc-2014-agile-thoughtful-bootstrap-typed-03.pddl,CRASHED:0.12698:1000000000.0:300.0:-1
ipc-2014-agile-thoughtful-bootstrap-typed-04.pddl,CRASHED:0.118981:1000000000.0:300.0:-1
ipc-2014-agile-thoughtful-bootstrap-typed-05.pddl,CRASHED:0.118981:1000000000.0:300.0:-1
ipc-2014-agile-thoughtful-p11_6_53-typed.pddl,CRASHED:0.136978:1000000000.0:300.0:-1
ipc-2014-agile-thoughtful-p11_6_59-typed.pddl,CRASHED:0.12798:1000000000.0:300.0:-1
ipc-2014-agile-thoughtful-p11_6_62-typed.pddl,CRASHED:0.12798:1000000000.0:300.0:-1
ipc-2014-agile-thoughtful-p13_7_78-typed.pddl,CRASHED:0.130979:1000000000.0:300.0:-1
ipc-2014-agile-thoughtful-p13_7_79-typed.pddl,CRASHED:0.130979:1000000000.0:300.0:-1
ipc-2014-agile-thoughtful-p13_7_86-typed.pddl,CRASHED:0.131979:1000000000.0:300.0:-1
ipc-2014-agile-thoughtful-target-typed-20.pddl,CRASHED:0.130979:1000000000.0:300.0:-1
ipc-2014-agile-thoughtful-target-typed-21.pddl,CRASHED:0.134979:1000000000.0:300.0:-1
ipc-2014-agile-thoughtful-target-typed-22.pddl,CRASHED:0.128979:1000000000.0:300.0:-1
ipc-2014-agile-thoughtful-target-typed-23.pddl,CRASHED:0.12798:1000000000.0:300.0:-1
ipc-2014-agile-thoughtful-target-typed-24.pddl,CRASHED:0.139977:1000000000.0:300.0:-1
ipc-2014-agile-thoughtful-target-typed-25.pddl,CRASHED:0.131979:1000000000.0:300.0:-1
ipc-2014-agile-thoughtful-target-typed-26.pddl,CRASHED:0.130979:1000000000.0:300.0:-1
ipc-2014-agile-thoughtful-target-typed-27.pddl,CRASHED:0.13098:1000000000.0:300.0:-1
ipc-2014-agile-thoughtful-target-typed-28.pddl,CRASHED:0.13098:1000000000.0:300.0:-1
ipc-2014-agile-transport-01.pddl,SAT:39.0641:21524.0:300.0:-1
ipc-2014-agile-transport-02.pddl,SAT:133.901:26928.0:300.0:-1
ipc-2014-agile-transport-03.pddl,SAT:21.5807:22620.0:300.0:-1
ipc-2014-agile-transport-04.pddl,TIMEOUT:301.03:-1.0:300.0:-1
ipc-2014-agile-transport-05.pddl,TIMEOUT:301.07:-1.0:300.0:-1
ipc-2014-agile-transport-06.pddl,TIMEOUT:301.07:-1.0:300.0:-1
ipc-2014-agile-transport-07.pddl,TIMEOUT:301.08:-1.0:300.0:-1
ipc-2014-agile-transport-08.pddl,TIMEOUT:301.08:-1.0:300.0:-1
ipc-2014-agile-transport-09.pddl,TIMEOUT:301.05:-1.0:300.0:-1
ipc-2014-agile-transport-10.pddl,TIMEOUT:301.05:-1.0:300.0:-1
ipc-2014-agile-transport-11.pddl,SAT:46.4279:19632.0:300.0:-1
ipc-2014-agile-transport-12.pddl,TIMEOUT:301.08:-1.0:300.0:-1
ipc-2014-agile-transport-13.pddl,SAT:53.3789:22708.0:300.0:-1
ipc-2014-agile-transport-14.pddl,TIMEOUT:301.03:-1.0:300.0:-1
ipc-2014-agile-transport-15.pddl,TIMEOUT:301.03:-1.0:300.0:-1
ipc-2014-agile-transport-16.pddl,TIMEOUT:301.1:-1.0:300.0:-1
ipc-2014-agile-transport-17.pddl,TIMEOUT:301.1:-1.0:300.0:-1
ipc-2014-agile-transport-18.pddl,TIMEOUT:301.05:-1.0:300.0:-1
ipc-2014-agile-transport-19.pddl,TIMEOUT:301.06:-1.0:300.0:-1
ipc-2014-agile-transport-20.pddl,TIMEOUT:301.02:-1.0:300.0:-1
ipc-2014-agile-visitall-30.pddl,SAT:213.183:1233.0:300.0:-1
ipc-2014-agile-visitall-31.pddl,SAT:96.9333:6032.0:300.0:-1
ipc-2014-agile-visitall-32.pddl,SAT:149.057:6662.0:300.0:-1
ipc-2014-agile-visitall-33.pddl,SAT:227.797:1476.0:300.0:-1
ipc-2014-agile-visitall-50.pddl,TIMEOUT:301.09:-1.0:300.0:-1
ipc-2014-agile-visitall-51.pddl,TIMEOUT:301.05:-1.0:300.0:-1
ipc-2014-agile-visitall-52.pddl,TIMEOUT:301.11:-1.0:300.0:-1
ipc-2014-agile-visitall-53.pddl,TIMEOUT:301.02:-1.0:300.0:-1
ipc-2014-agile-visitall-54.pddl,TIMEOUT:301.01:-1.0:300.0:-1
ipc-2014-agile-visitall-55.pddl,TIMEOUT:301.02:-1.0:300.0:-1
ipc-2014-agile-visitall-56.pddl,TIMEOUT:301.05:-1.0:300.0:-1
ipc-2014-agile-visitall-57.pddl,TIMEOUT:301.03:-1.0:300.0:-1
ipc-2014-agile-visitall-58.pddl,TIMEOUT:301.04:-1.0:300.0:-1
ipc-2014-agile-visitall-59.pddl,TIMEOUT:301.06:-1.0:300.0:-1
ipc-2014-agile-visitall-60.pddl,TIMEOUT:301.06:-1.0:300.0:-1
ipc-2014-agile-visitall-61.pddl,TIMEOUT:301.03:-1.0:300.0:-1
ipc-2014-agile-visitall-62.pddl,TIMEOUT:301.1:-1.0:300.0:-1
ipc-2014-agile-visitall-63.pddl,TIMEOUT:301.01:-1.0:300.0:-1
ipc-2014-agile-visitall-64.pddl,TIMEOUT:301.04:-1.0:300.0:-1
ipc-2014-agile-visitall-65.pddl,TIMEOUT:301.07:-1.0:300.0:-1
