instance,ipc-2014-agile-bfs-f
ipc-2014-agile-barman-p1-11-4-15.pddl,SAT:36.9724:183.0:300.0:-1
ipc-2014-agile-barman-p1-11-5-15.pddl,SAT:40.9678:185.0:300.0:-1
ipc-2014-agile-barman-p1-11-5-16.pddl,SAT:1.42578:154.0:300.0:-1
ipc-2014-agile-barman-p2-10-4-13.pddl,SAT:2.34664:144.0:300.0:-1
ipc-2014-agile-barman-p2-11-4-15.pddl,SAT:2.92255:165.0:300.0:-1
ipc-2014-agile-barman-p2-11-5-15.pddl,SAT:1.12783:153.0:300.0:-1
ipc-2014-agile-barman-p2-11-5-16.pddl,SAT:4.78127:173.0:300.0:-1
ipc-2014-agile-barman-p2-11-5-17.pddl,SAT:19.3461:203.0:300.0:-1
ipc-2014-agile-barman-p3-10-4-13.pddl,SAT:1.64075:141.0:300.0:-1
ipc-2014-agile-barman-p3-11-4-15.pddl,SAT:2.17367:166.0:300.0:-1
ipc-2014-agile-barman-p3-11-5-15.pddl,SAT:7.08792:178.0:300.0:-1
ipc-2014-agile-barman-p3-11-5-16.pddl,SAT:1.61575:168.0:300.0:-1
ipc-2014-agile-barman-p3-11-5-17.pddl,SAT:5.80712:175.0:300.0:-1
ipc-2014-agile-barman-p4-11-4-14.pddl,SAT:3.22951:161.0:300.0:-1
ipc-2014-agile-barman-p4-11-4-15.pddl,SAT:6.68898:159.0:300.0:-1
ipc-2014-agile-barman-p4-11-5-15.pddl,SAT:5.02923:156.0:300.0:-1
ipc-2014-agile-barman-p5-10-4-13.pddl,SAT:1.71474:142.0:300.0:-1
ipc-2014-agile-barman-p5-11-4-15.pddl,SAT:5.32219:176.0:300.0:-1
ipc-2014-agile-barman-p5-11-5-15.pddl,SAT:7.8958:157.0:300.0:-1
ipc-2014-agile-barman-p5-11-5-16.pddl,SAT:4.18436:160.0:300.0:-1
ipc-2014-agile-cavediving-01_easy.pddl,TIMEOUT:301.172:-1.0:300.0:-1
ipc-2014-agile-cavediving-01.pddl,TIMEOUT:301.165:-1.0:300.0:-1
ipc-2014-agile-cavediving-02_easy.pddl,TIMEOUT:301.191:-1.0:300.0:-1
ipc-2014-agile-cavediving-03_easy.pddl,TIMEOUT:301.131:-1.0:300.0:-1
ipc-2014-agile-cavediving-04_easy.pddl,TIMEOUT:301.146:-1.0:300.0:-1
ipc-2014-agile-cavediving-05A_easy.pddl,SAT:0.306953:94.0:300.0:-1
ipc-2014-agile-cavediving-06A_easy.pddl,SAT:0.302953:95.0:300.0:-1
ipc-2014-agile-cavediving-07_easy.pddl,SAT:0.536917:131.0:300.0:-1
ipc-2014-agile-cavediving-08_easy.pddl,SAT:0.316951:90.0:300.0:-1
ipc-2014-agile-cavediving-09_easy.pddl,TIMEOUT:301.133:-1.0:300.0:-1
ipc-2014-agile-cavediving-10_easy.pddl,TIMEOUT:301.175:-1.0:300.0:-1
ipc-2014-agile-cavediving-11_easy.pddl,TIMEOUT:301.175:-1.0:300.0:-1
ipc-2014-agile-cavediving-12_easy.pddl,TIMEOUT:301.174:-1.0:300.0:-1
ipc-2014-agile-cavediving-13_easy.pddl,TIMEOUT:301.168:-1.0:300.0:-1
ipc-2014-agile-cavediving-14_easy.pddl,TIMEOUT:301.165:-1.0:300.0:-1
ipc-2014-agile-cavediving-15_easy.pddl,TIMEOUT:301.177:-1.0:300.0:-1
ipc-2014-agile-cavediving-16_easy.pddl,TIMEOUT:301.104:-1.0:300.0:-1
ipc-2014-agile-cavediving-18A_easy.pddl,SAT:0.858868:131.0:300.0:-1
ipc-2014-agile-cavediving-18_easy.pddl,SAT:2.34064:131.0:300.0:-1
ipc-2014-agile-cavediving-20A_easy.pddl,SAT:0.756884:98.0:300.0:-1
ipc-2014-agile-childsnack-05-2.pddl,SAT:32.0021:46.0:300.0:-1
ipc-2014-agile-childsnack-05.pddl,SAT:0.557914:47.0:300.0:-1
ipc-2014-agile-childsnack-06-2.pddl,SAT:56.1905:50.0:300.0:-1
ipc-2014-agile-childsnack-07-2.pddl,SAT:1.60076:57.0:300.0:-1
ipc-2014-agile-childsnack-08-2.pddl,TIMEOUT:301.314:-1.0:300.0:-1
ipc-2014-agile-childsnack-08.pddl,SAT:216.759:61.0:300.0:-1
ipc-2014-agile-childsnack-09-2.pddl,TIMEOUT:301.323:-1.0:300.0:-1
ipc-2014-agile-childsnack-09.pddl,SAT:9.80251:67.0:300.0:-1
ipc-2014-agile-childsnack-10-2.pddl,SAT:8.37973:72.0:300.0:-1
ipc-2014-agile-childsnack-10.pddl,SAT:6.18606:72.0:300.0:-1
ipc-2014-agile-childsnack-11-2.pddl,SAT:8.73067:77.0:300.0:-1
ipc-2014-agile-childsnack-11.pddl,TIMEOUT:301.323:-1.0:300.0:-1
ipc-2014-agile-childsnack-12.pddl,TIMEOUT:301.264:-1.0:300.0:-1
ipc-2014-agile-childsnack-13-2.pddl,TIMEOUT:301.26:-1.0:300.0:-1
ipc-2014-agile-childsnack-13.pddl,TIMEOUT:301.355:-1.0:300.0:-1
ipc-2014-agile-childsnack-14.pddl,TIMEOUT:301.262:-1.0:300.0:-1
ipc-2014-agile-childsnack-15-2.pddl,TIMEOUT:301.338:-1.0:300.0:-1
ipc-2014-agile-childsnack-16-2.pddl,TIMEOUT:301.275:-1.0:300.0:-1
ipc-2014-agile-childsnack-19-2.pddl,TIMEOUT:301.369:-1.0:300.0:-1
ipc-2014-agile-childsnack-19.pddl,TIMEOUT:301.257:-1.0:300.0:-1
ipc-2014-agile-citycar-p3-2-2-0-1.pddl,SAT:1.44278:110.0:300.0:-1
ipc-2014-agile-citycar-p3-3-2-0-1.pddl,SAT:20.1309:285.0:300.0:-1
ipc-2014-agile-citycar-p3-4-2-0-1.pddl,SAT:7.38288:240.0:300.0:-1
ipc-2014-agile-citycar-p3-5-2-0-1.pddl,SAT:9.1946:241.0:300.0:-1
ipc-2014-agile-citycar-p3-5-2-0-2.pddl,SAT:27.0189:273.0:300.0:-1
ipc-2014-agile-citycar-p4-2-2-0-1.pddl,TIMEOUT:301.189:-1.0:300.0:-1
ipc-2014-agile-citycar-p4-2-3-0-1.pddl,TIMEOUT:301.213:-1.0:300.0:-1
ipc-2014-agile-citycar-p4-2-3-0-2.pddl,TIMEOUT:301.2:-1.0:300.0:-1
ipc-2014-agile-citycar-p4-3-2-0-1.pddl,TIMEOUT:301.152:-1.0:300.0:-1
ipc-2014-agile-citycar-p4-3-2-0-2.pddl,TIMEOUT:301.349:-1.0:300.0:-1
ipc-2014-agile-citycar-p4-3-3-0-1.pddl,TIMEOUT:301.32:-1.0:300.0:-1
ipc-2014-agile-citycar-p4-3-3-0-2.pddl,TIMEOUT:301.188:-1.0:300.0:-1
ipc-2014-agile-citycar-p4-4-2-0-1.pddl,TIMEOUT:301.355:-1.0:300.0:-1
ipc-2014-agile-citycar-p4-4-2-0-2.pddl,TIMEOUT:301.191:-1.0:300.0:-1
ipc-2014-agile-citycar-p4-4-3-0-1.pddl,TIMEOUT:301.162:-1.0:300.0:-1
ipc-2014-agile-citycar-p4-4-3-0-2.pddl,TIMEOUT:301.232:-1.0:300.0:-1
ipc-2014-agile-citycar-p4-5-2-0-1.pddl,TIMEOUT:301.43:-1.0:300.0:-1
ipc-2014-agile-citycar-p4-5-2-0-2.pddl,TIMEOUT:301.17:-1.0:300.0:-1
ipc-2014-agile-citycar-p4-5-3-0-1.pddl,TIMEOUT:301.151:-1.0:300.0:-1
ipc-2014-agile-citycar-p4-5-3-0-2.pddl,TIMEOUT:301.179:-1.0:300.0:-1
ipc-2014-agile-floortile-p01-4-3-2.pddl,SAT:2.45163:101.0:300.0:-1
ipc-2014-agile-floortile-p01-5-4-2.pddl,TIMEOUT:301.182:-1.0:300.0:-1
ipc-2014-agile-floortile-p01-5-5-2.pddl,SAT:182.693:175.0:300.0:-1
ipc-2014-agile-floortile-p01-6-4-2.pddl,SAT:284.154:191.0:300.0:-1
ipc-2014-agile-floortile-p01-6-5-2.pddl,TIMEOUT:301.214:-1.0:300.0:-1
ipc-2014-agile-floortile-p01-6-5-3.pddl,TIMEOUT:301.18:-1.0:300.0:-1
ipc-2014-agile-floortile-p02-5-4-2.pddl,TIMEOUT:301.202:-1.0:300.0:-1
ipc-2014-agile-floortile-p02-6-4-2.pddl,TIMEOUT:301.195:-1.0:300.0:-1
ipc-2014-agile-floortile-p02-6-5-2.pddl,TIMEOUT:301.216:-1.0:300.0:-1
ipc-2014-agile-floortile-p02-6-5-3.pddl,TIMEOUT:301.159:-1.0:300.0:-1
ipc-2014-agile-floortile-p03-6-4-2.pddl,TIMEOUT:301.174:-1.0:300.0:-1
ipc-2014-agile-floortile-p03-6-5-2.pddl,TIMEOUT:301.194:-1.0:300.0:-1
ipc-2014-agile-floortile-p03-6-5-3.pddl,TIMEOUT:301.218:-1.0:300.0:-1
ipc-2014-agile-floortile-p04-5-4-2.pddl,TIMEOUT:301.181:-1.0:300.0:-1
ipc-2014-agile-floortile-p04-5-5-2.pddl,TIMEOUT:301.168:-1.0:300.0:-1
ipc-2014-agile-floortile-p04-6-5-2.pddl,TIMEOUT:301.145:-1.0:300.0:-1
ipc-2014-agile-floortile-p04-6-5-3.pddl,TIMEOUT:301.162:-1.0:300.0:-1
ipc-2014-agile-floortile-p05-4-3-2.pddl,SAT:0.282956:72.0:300.0:-1
ipc-2014-agile-floortile-p05-6-5-2.pddl,TIMEOUT:301.182:-1.0:300.0:-1
ipc-2014-agile-floortile-p05-6-5-3.pddl,TIMEOUT:301.16:-1.0:300.0:-1
ipc-2014-agile-ged-d-10-1.pddl,SAT:5.41118:39.0:300.0:-1
ipc-2014-agile-ged-d-10-2.pddl,SAT:5.44417:40.0:300.0:-1
ipc-2014-agile-ged-d-10-3.pddl,SAT:7.2049:41.0:300.0:-1
ipc-2014-agile-ged-d-10-4.pddl,SAT:3.64145:34.0:300.0:-1
ipc-2014-agile-ged-d-10-5.pddl,TIMEOUT:301.087:-1.0:300.0:-1
ipc-2014-agile-ged-d-10-6.pddl,TIMEOUT:301.155:-1.0:300.0:-1
ipc-2014-agile-ged-d-11-1.pddl,SAT:6.567:45.0:300.0:-1
ipc-2014-agile-ged-d-11-3.pddl,TIMEOUT:301.08:-1.0:300.0:-1
ipc-2014-agile-ged-d-11-5.pddl,SAT:12.7161:55.0:300.0:-1
ipc-2014-agile-ged-d-11-6.pddl,TIMEOUT:301.1:-1.0:300.0:-1
ipc-2014-agile-ged-d-12-11.pddl,TIMEOUT:301.121:-1.0:300.0:-1
ipc-2014-agile-ged-d-12-2.pddl,TIMEOUT:301.046:-1.0:300.0:-1
ipc-2014-agile-ged-d-12-3.pddl,TIMEOUT:301.102:-1.0:300.0:-1
ipc-2014-agile-ged-d-12-5.pddl,TIMEOUT:301.114:-1.0:300.0:-1
ipc-2014-agile-ged-d-12-6.pddl,TIMEOUT:301.101:-1.0:300.0:-1
ipc-2014-agile-ged-d-12-7.pddl,SAT:39.8199:62.0:300.0:-1
ipc-2014-agile-ged-d-12-8.pddl,TIMEOUT:301.046:-1.0:300.0:-1
ipc-2014-agile-ged-d-12-9.pddl,TIMEOUT:301.045:-1.0:300.0:-1
ipc-2014-agile-ged-d-3-6.pddl,SAT:3.05353:32.0:300.0:-1
ipc-2014-agile-ged-d-9-5.pddl,SAT:235.25:31.0:300.0:-1
ipc-2014-agile-hiking-3-4-3.pddl,SAT:11.7162:17.0:300.0:-1
ipc-2014-agile-hiking-3-4-4.pddl,SAT:34.5437:23.0:300.0:-1
ipc-2014-agile-hiking-3-4-5.pddl,SAT:190.01:45.0:300.0:-1
ipc-2014-agile-hiking-3-4-6.pddl,TIMEOUT:301.116:-1.0:300.0:-1
ipc-2014-agile-hiking-3-4-7.pddl,TIMEOUT:301.117:-1.0:300.0:-1
ipc-2014-agile-hiking-3-4-8.pddl,TIMEOUT:301.082:-1.0:300.0:-1
ipc-2014-agile-hiking-3-4-9.pddl,TIMEOUT:301.12:-1.0:300.0:-1
ipc-2014-agile-hiking-4-5-3.pddl,SAT:128.899:20.0:300.0:-1
ipc-2014-agile-hiking-4-5-4.pddl,TIMEOUT:301.096:-1.0:300.0:-1
ipc-2014-agile-hiking-4-5-5.pddl,TIMEOUT:301.088:-1.0:300.0:-1
ipc-2014-agile-hiking-4-5-6.pddl,TIMEOUT:301.067:-1.0:300.0:-1
ipc-2014-agile-hiking-4-5-7.pddl,TIMEOUT:301.09:-1.0:300.0:-1
ipc-2014-agile-hiking-4-5-8.pddl,TIMEOUT:301.075:-1.0:300.0:-1
ipc-2014-agile-hiking-4-5-9.pddl,TIMEOUT:301.073:-1.0:300.0:-1
ipc-2014-agile-hiking-5-6-3.pddl,TIMEOUT:301.115:-1.0:300.0:-1
ipc-2014-agile-hiking-5-6-4.pddl,TIMEOUT:301.11:-1.0:300.0:-1
ipc-2014-agile-hiking-5-6-5.pddl,TIMEOUT:301.085:-1.0:300.0:-1
ipc-2014-agile-hiking-5-6-6.pddl,TIMEOUT:301.157:-1.0:300.0:-1
ipc-2014-agile-hiking-5-6-7.pddl,TIMEOUT:301.189:-1.0:300.0:-1
ipc-2014-agile-hiking-5-6-8.pddl,TIMEOUT:301.182:-1.0:300.0:-1
ipc-2014-agile-maintenance-1.3.060.180.5-000.pddl,SAT:3.55646:40.0:300.0:-1
ipc-2014-agile-maintenance-1.3.060.180.5-001.pddl,SAT:8.24075:44.0:300.0:-1
ipc-2014-agile-maintenance-1.3.060.180.5-002.pddl,SAT:3.63645:43.0:300.0:-1
ipc-2014-agile-maintenance-1.3.100.300.5-000.pddl,SAT:28.3437:68.0:300.0:-1
ipc-2014-agile-maintenance-1.3.100.300.5-001.pddl,SAT:29.4675:72.0:300.0:-1
ipc-2014-agile-maintenance-1.3.100.300.7-000.pddl,SAT:29.4805:56.0:300.0:-1
ipc-2014-agile-maintenance-1.3.100.300.7-001.pddl,SAT:28.1777:54.0:300.0:-1
ipc-2014-agile-maintenance-1.3.100.300.7-002.pddl,SAT:29.6945:56.0:300.0:-1
ipc-2014-agile-maintenance-1.3.150.500.6-001.pddl,SAT:5.39218:98.0:300.0:-1
ipc-2014-agile-maintenance-1.3.200.500.5-001.pddl,CRASHED:44.0483:1000000000.0:300.0:-1
ipc-2014-agile-maintenance-1.3.200.500.5-002.pddl,SAT:8.71867:127.0:300.0:-1
ipc-2014-agile-maintenance-1.3.200.700.7-000.pddl,CRASHED:3.01754:1000000000.0:300.0:-1
ipc-2014-agile-maintenance-1.3.200.700.7-001.pddl,CRASHED:3.98839:1000000000.0:300.0:-1
ipc-2014-agile-maintenance-1.3.200.700.7-002.pddl,CRASHED:4.03339:1000000000.0:300.0:-1
ipc-2014-agile-maintenance-1.3.200.900.5-000.pddl,CRASHED:2.81357:1000000000.0:300.0:-1
ipc-2014-agile-maintenance-1.3.200.900.5-001.pddl,CRASHED:2.52261:1000000000.0:300.0:-1
ipc-2014-agile-maintenance-1.3.200.900.5-002.pddl,CRASHED:2.49862:1000000000.0:300.0:-1
ipc-2014-agile-maintenance-1.3.200.900.8-000.pddl,CRASHED:2.53661:1000000000.0:300.0:-1
ipc-2014-agile-maintenance-1.3.200.900.8-001.pddl,CRASHED:2.54261:1000000000.0:300.0:-1
ipc-2014-agile-maintenance-1.3.200.900.8-002.pddl,CRASHED:2.58161:1000000000.0:300.0:-1
ipc-2014-agile-openstacks-p130_2.pddl,SAT:203.565:64.0:300.0:-1
ipc-2014-agile-openstacks-p130_3.pddl,SAT:284.692:108.0:300.0:-1
ipc-2014-agile-openstacks-p150_2.pddl,TIMEOUT:301.085:-1.0:300.0:-1
ipc-2014-agile-openstacks-p150_3.pddl,TIMEOUT:301.109:-1.0:300.0:-1
ipc-2014-agile-openstacks-p170_1.pddl,TIMEOUT:301.112:-1.0:300.0:-1
ipc-2014-agile-openstacks-p170_2.pddl,TIMEOUT:301.088:-1.0:300.0:-1
ipc-2014-agile-openstacks-p170_3.pddl,TIMEOUT:301.149:-1.0:300.0:-1
ipc-2014-agile-openstacks-p190_1.pddl,TIMEOUT:301.161:-1.0:300.0:-1
ipc-2014-agile-openstacks-p190_2.pddl,TIMEOUT:301.161:-1.0:300.0:-1
ipc-2014-agile-openstacks-p190_3.pddl,TIMEOUT:301.13:-1.0:300.0:-1
ipc-2014-agile-openstacks-p210_1.pddl,TIMEOUT:301.175:-1.0:300.0:-1
ipc-2014-agile-openstacks-p210_2.pddl,TIMEOUT:301.156:-1.0:300.0:-1
ipc-2014-agile-openstacks-p230_1.pddl,TIMEOUT:301.107:-1.0:300.0:-1
ipc-2014-agile-openstacks-p230_2.pddl,TIMEOUT:301.206:-1.0:300.0:-1
ipc-2014-agile-openstacks-p250_1.pddl,TIMEOUT:301.101:-1.0:300.0:-1
ipc-2014-agile-openstacks-p250_2.pddl,TIMEOUT:301.195:-1.0:300.0:-1
ipc-2014-agile-openstacks-p270_1.pddl,TIMEOUT:301.179:-1.0:300.0:-1
ipc-2014-agile-openstacks-p270_2.pddl,TIMEOUT:301.149:-1.0:300.0:-1
ipc-2014-agile-openstacks-p290_1.pddl,TIMEOUT:301.171:-1.0:300.0:-1
ipc-2014-agile-openstacks-p290_2.pddl,TIMEOUT:301.19:-1.0:300.0:-1
ipc-2014-agile-parking-28_2.pddl,SAT:158.041:96.0:300.0:-1
ipc-2014-agile-parking-28_3.pddl,SAT:148.006:90.0:300.0:-1
ipc-2014-agile-parking-30_1.pddl,SAT:80.7127:58.0:300.0:-1
ipc-2014-agile-parking-30_2.pddl,SAT:234.99:98.0:300.0:-1
ipc-2014-agile-parking-30_3.pddl,SAT:176.081:96.0:300.0:-1
ipc-2014-agile-parking-32_1.pddl,TIMEOUT:301.157:-1.0:300.0:-1
ipc-2014-agile-parking-32_2.pddl,TIMEOUT:301.078:-1.0:300.0:-1
ipc-2014-agile-parking-32_3.pddl,TIMEOUT:301.136:-1.0:300.0:-1
ipc-2014-agile-parking-34_1.pddl,TIMEOUT:301.168:-1.0:300.0:-1
ipc-2014-agile-parking-34_2.pddl,TIMEOUT:301.124:-1.0:300.0:-1
ipc-2014-agile-parking-34_3.pddl,TIMEOUT:301.134:-1.0:300.0:-1
ipc-2014-agile-parking-36_1.pddl,TIMEOUT:301.183:-1.0:300.0:-1
ipc-2014-agile-parking-36_2.pddl,TIMEOUT:301.108:-1.0:300.0:-1
ipc-2014-agile-parking-36_3.pddl,TIMEOUT:301.13:-1.0:300.0:-1
ipc-2014-agile-parking-38_1.pddl,TIMEOUT:301.199:-1.0:300.0:-1
ipc-2014-agile-parking-38_2.pddl,TIMEOUT:301.18:-1.0:300.0:-1
ipc-2014-agile-parking-38_3.pddl,TIMEOUT:301.139:-1.0:300.0:-1
ipc-2014-agile-parking-40_1.pddl,TIMEOUT:301.113:-1.0:300.0:-1
ipc-2014-agile-parking-40_2.pddl,TIMEOUT:301.213:-1.0:300.0:-1
ipc-2014-agile-parking-40_3.pddl,TIMEOUT:301.174:-1.0:300.0:-1
ipc-2014-agile-tetris-020.pddl,SAT:108.877:55.0:300.0:-1
ipc-2014-agile-tetris-021.pddl,TIMEOUT:301.097:-1.0:300.0:-1
ipc-2014-agile-tetris-022.pddl,TIMEOUT:301.048:-1.0:300.0:-1
ipc-2014-agile-tetris-023.pddl,TIMEOUT:301.03:-1.0:300.0:-1
ipc-2014-agile-tetris-024.pddl,TIMEOUT:301.104:-1.0:300.0:-1
ipc-2014-agile-tetris-025.pddl,TIMEOUT:301.066:-1.0:300.0:-1
ipc-2014-agile-tetris-026.pddl,TIMEOUT:301.031:-1.0:300.0:-1
ipc-2014-agile-tetris-027.pddl,TIMEOUT:301.019:-1.0:300.0:-1
ipc-2014-agile-tetris-028.pddl,TIMEOUT:301.117:-1.0:300.0:-1
ipc-2014-agile-tetris-029.pddl,TIMEOUT:301.052:-1.0:300.0:-1
ipc-2014-agile-tetris-031.pddl,TIMEOUT:301.055:-1.0:300.0:-1
ipc-2014-agile-tetris-032.pddl,TIMEOUT:301.071:-1.0:300.0:-1
ipc-2014-agile-tetris-033.pddl,TIMEOUT:301.089:-1.0:300.0:-1
ipc-2014-agile-tetris-034.pddl,TIMEOUT:301.031:-1.0:300.0:-1
ipc-2014-agile-tetris-035.pddl,TIMEOUT:301.122:-1.0:300.0:-1
ipc-2014-agile-tetris-036.pddl,TIMEOUT:301.023:-1.0:300.0:-1
ipc-2014-agile-tetris-037.pddl,TIMEOUT:301.07:-1.0:300.0:-1
ipc-2014-agile-tetris-038.pddl,TIMEOUT:301.103:-1.0:300.0:-1
ipc-2014-agile-tetris-039.pddl,TIMEOUT:301.111:-1.0:300.0:-1
ipc-2014-agile-tetris-040.pddl,TIMEOUT:301.031:-1.0:300.0:-1
ipc-2014-agile-thoughtful-bootstrap-typed-01.pddl,SAT:0.117981:29.0:300.0:-1
ipc-2014-agile-thoughtful-bootstrap-typed-02.pddl,SAT:0.109983:31.0:300.0:-1
ipc-2014-agile-thoughtful-bootstrap-typed-03.pddl,SAT:0.12498:34.0:300.0:-1
ipc-2014-agile-thoughtful-bootstrap-typed-04.pddl,SAT:0.12198:32.0:300.0:-1
ipc-2014-agile-thoughtful-bootstrap-typed-05.pddl,SAT:0.137978:35.0:300.0:-1
ipc-2014-agile-thoughtful-p11_6_53-typed.pddl,SAT:5.06523:114.0:300.0:-1
ipc-2014-agile-thoughtful-p11_6_59-typed.pddl,TIMEOUT:301.173:-1.0:300.0:-1
ipc-2014-agile-thoughtful-p11_6_62-typed.pddl,TIMEOUT:301.096:-1.0:300.0:-1
ipc-2014-agile-thoughtful-p13_7_78-typed.pddl,SAT:9.35758:149.0:300.0:-1
ipc-2014-agile-thoughtful-p13_7_79-typed.pddl,SAT:5.9381:123.0:300.0:-1
ipc-2014-agile-thoughtful-p13_7_86-typed.pddl,SAT:6.72098:143.0:300.0:-1
ipc-2014-agile-thoughtful-target-typed-20.pddl,SAT:9.41057:126.0:300.0:-1
ipc-2014-agile-thoughtful-target-typed-21.pddl,TIMEOUT:301.125:-1.0:300.0:-1
ipc-2014-agile-thoughtful-target-typed-22.pddl,SAT:10.4314:154.0:300.0:-1
ipc-2014-agile-thoughtful-target-typed-23.pddl,SAT:7.07592:141.0:300.0:-1
ipc-2014-agile-thoughtful-target-typed-24.pddl,SAT:9.58354:153.0:300.0:-1
ipc-2014-agile-thoughtful-target-typed-25.pddl,SAT:21.8967:146.0:300.0:-1
ipc-2014-agile-thoughtful-target-typed-26.pddl,TIMEOUT:301.118:-1.0:300.0:-1
ipc-2014-agile-thoughtful-target-typed-27.pddl,SAT:14.8127:140.0:300.0:-1
ipc-2014-agile-thoughtful-target-typed-28.pddl,SAT:22.6796:137.0:300.0:-1
ipc-2014-agile-transport-01.pddl,SAT:105.724:3106.0:300.0:-1
ipc-2014-agile-transport-02.pddl,SAT:231.287:3526.0:300.0:-1
ipc-2014-agile-transport-03.pddl,SAT:142.938:2949.0:300.0:-1
ipc-2014-agile-transport-04.pddl,TIMEOUT:301.161:-1.0:300.0:-1
ipc-2014-agile-transport-05.pddl,TIMEOUT:301.15:-1.0:300.0:-1
ipc-2014-agile-transport-06.pddl,TIMEOUT:301.162:-1.0:300.0:-1
ipc-2014-agile-transport-07.pddl,TIMEOUT:301.238:-1.0:300.0:-1
ipc-2014-agile-transport-08.pddl,TIMEOUT:301.22:-1.0:300.0:-1
ipc-2014-agile-transport-09.pddl,TIMEOUT:301.182:-1.0:300.0:-1
ipc-2014-agile-transport-10.pddl,TIMEOUT:301.166:-1.0:300.0:-1
ipc-2014-agile-transport-11.pddl,SAT:249.603:2366.0:300.0:-1
ipc-2014-agile-transport-12.pddl,SAT:235.093:3603.0:300.0:-1
ipc-2014-agile-transport-13.pddl,SAT:73.1349:2762.0:300.0:-1
ipc-2014-agile-transport-14.pddl,TIMEOUT:301.149:-1.0:300.0:-1
ipc-2014-agile-transport-15.pddl,TIMEOUT:301.211:-1.0:300.0:-1
ipc-2014-agile-transport-16.pddl,TIMEOUT:301.141:-1.0:300.0:-1
ipc-2014-agile-transport-17.pddl,TIMEOUT:301.15:-1.0:300.0:-1
ipc-2014-agile-transport-18.pddl,TIMEOUT:301.156:-1.0:300.0:-1
ipc-2014-agile-transport-19.pddl,TIMEOUT:301.178:-1.0:300.0:-1
ipc-2014-agile-transport-20.pddl,TIMEOUT:301.211:-1.0:300.0:-1
ipc-2014-agile-visitall-30.pddl,SAT:8.60869:899.0:300.0:-1
ipc-2014-agile-visitall-31.pddl,SAT:10.1315:960.0:300.0:-1
ipc-2014-agile-visitall-32.pddl,SAT:12.0622:1023.0:300.0:-1
ipc-2014-agile-visitall-33.pddl,SAT:14.1428:1088.0:300.0:-1
ipc-2014-agile-visitall-50.pddl,SAT:131.354:2499.0:300.0:-1
ipc-2014-agile-visitall-51.pddl,SAT:145.839:2600.0:300.0:-1
ipc-2014-agile-visitall-52.pddl,SAT:158.551:2703.0:300.0:-1
ipc-2014-agile-visitall-53.pddl,SAT:179.685:2808.0:300.0:-1
ipc-2014-agile-visitall-54.pddl,SAT:199.261:2915.0:300.0:-1
ipc-2014-agile-visitall-55.pddl,SAT:241.011:3024.0:300.0:-1
ipc-2014-agile-visitall-56.pddl,SAT:265.376:3135.0:300.0:-1
ipc-2014-agile-visitall-57.pddl,SAT:291.957:3248.0:300.0:-1
ipc-2014-agile-visitall-58.pddl,TIMEOUT:301.174:-1.0:300.0:-1
ipc-2014-agile-visitall-59.pddl,TIMEOUT:301.19:-1.0:300.0:-1
ipc-2014-agile-visitall-60.pddl,TIMEOUT:301.127:-1.0:300.0:-1
ipc-2014-agile-visitall-61.pddl,TIMEOUT:301.128:-1.0:300.0:-1
ipc-2014-agile-visitall-62.pddl,TIMEOUT:301.078:-1.0:300.0:-1
ipc-2014-agile-visitall-63.pddl,TIMEOUT:301.173:-1.0:300.0:-1
ipc-2014-agile-visitall-64.pddl,TIMEOUT:301.108:-1.0:300.0:-1
ipc-2014-agile-visitall-65.pddl,TIMEOUT:301.163:-1.0:300.0:-1
