instance,ipc-2014-agile-madagascar-pc
ipc-2014-agile-barman-p1-11-4-15.pddl,TIMEOUT:301.25:-1.0:300.0:-1
ipc-2014-agile-barman-p1-11-5-15.pddl,TIMEOUT:301.277:-1.0:300.0:-1
ipc-2014-agile-barman-p1-11-5-16.pddl,TIMEOUT:301.265:-1.0:300.0:-1
ipc-2014-agile-barman-p2-10-4-13.pddl,TIMEOUT:301.228:-1.0:300.0:-1
ipc-2014-agile-barman-p2-11-4-15.pddl,TIMEOUT:301.25:-1.0:300.0:-1
ipc-2014-agile-barman-p2-11-5-15.pddl,TIMEOUT:301.272:-1.0:300.0:-1
ipc-2014-agile-barman-p2-11-5-16.pddl,TIMEOUT:301.301:-1.0:300.0:-1
ipc-2014-agile-barman-p2-11-5-17.pddl,TIMEOUT:301.295:-1.0:300.0:-1
ipc-2014-agile-barman-p3-10-4-13.pddl,TIMEOUT:301.247:-1.0:300.0:-1
ipc-2014-agile-barman-p3-11-4-15.pddl,TIMEOUT:301.271:-1.0:300.0:-1
ipc-2014-agile-barman-p3-11-5-15.pddl,TIMEOUT:301.242:-1.0:300.0:-1
ipc-2014-agile-barman-p3-11-5-16.pddl,TIMEOUT:301.242:-1.0:300.0:-1
ipc-2014-agile-barman-p3-11-5-17.pddl,TIMEOUT:301.225:-1.0:300.0:-1
ipc-2014-agile-barman-p4-11-4-14.pddl,TIMEOUT:301.143:-1.0:300.0:-1
ipc-2014-agile-barman-p4-11-4-15.pddl,TIMEOUT:301.156:-1.0:300.0:-1
ipc-2014-agile-barman-p4-11-5-15.pddl,SAT:120.412:441.0:300.0:-1
ipc-2014-agile-barman-p5-10-4-13.pddl,TIMEOUT:301.215:-1.0:300.0:-1
ipc-2014-agile-barman-p5-11-4-15.pddl,TIMEOUT:301.2:-1.0:300.0:-1
ipc-2014-agile-barman-p5-11-5-15.pddl,TIMEOUT:301.18:-1.0:300.0:-1
ipc-2014-agile-barman-p5-11-5-16.pddl,TIMEOUT:301.232:-1.0:300.0:-1
ipc-2014-agile-cavediving-01_easy.pddl,TIMEOUT:301.288:-1.0:300.0:-1
ipc-2014-agile-cavediving-01.pddl,TIMEOUT:301.339:-1.0:300.0:-1
ipc-2014-agile-cavediving-02_easy.pddl,TIMEOUT:301.224:-1.0:300.0:-1
ipc-2014-agile-cavediving-03_easy.pddl,TIMEOUT:301.291:-1.0:300.0:-1
ipc-2014-agile-cavediving-04_easy.pddl,TIMEOUT:301.24:-1.0:300.0:-1
ipc-2014-agile-cavediving-05A_easy.pddl,SAT:103.764:94.0:300.0:-1
ipc-2014-agile-cavediving-06A_easy.pddl,SAT:103.885:95.0:300.0:-1
ipc-2014-agile-cavediving-07_easy.pddl,TIMEOUT:301.14:-1.0:300.0:-1
ipc-2014-agile-cavediving-08_easy.pddl,SAT:112.404:90.0:300.0:-1
ipc-2014-agile-cavediving-09_easy.pddl,TIMEOUT:301.398:-1.0:300.0:-1
ipc-2014-agile-cavediving-10_easy.pddl,TIMEOUT:301.424:-1.0:300.0:-1
ipc-2014-agile-cavediving-11_easy.pddl,TIMEOUT:301.434:-1.0:300.0:-1
ipc-2014-agile-cavediving-12_easy.pddl,TIMEOUT:301.32:-1.0:300.0:-1
ipc-2014-agile-cavediving-13_easy.pddl,TIMEOUT:301.383:-1.0:300.0:-1
ipc-2014-agile-cavediving-14_easy.pddl,TIMEOUT:301.401:-1.0:300.0:-1
ipc-2014-agile-cavediving-15_easy.pddl,TIMEOUT:301.389:-1.0:300.0:-1
ipc-2014-agile-cavediving-16_easy.pddl,TIMEOUT:301.42:-1.0:300.0:-1
ipc-2014-agile-cavediving-18A_easy.pddl,TIMEOUT:301.137:-1.0:300.0:-1
ipc-2014-agile-cavediving-18_easy.pddl,SAT:0.12298:132.0:300.0:-1
ipc-2014-agile-cavediving-20A_easy.pddl,TIMEOUT:301.215:-1.0:300.0:-1
ipc-2014-agile-childsnack-05-2.pddl,SAT:0.096984:36.0:300.0:-1
ipc-2014-agile-childsnack-05.pddl,SAT:0.104983:38.0:300.0:-1
ipc-2014-agile-childsnack-06-2.pddl,SAT:0.139978:38.0:300.0:-1
ipc-2014-agile-childsnack-07-2.pddl,SAT:0.174972:43.0:300.0:-1
ipc-2014-agile-childsnack-08-2.pddl,CRASHED:103.754:1000000000.0:300.0:-1
ipc-2014-agile-childsnack-08.pddl,SAT:0.230964:47.0:300.0:-1
ipc-2014-agile-childsnack-09-2.pddl,SAT:0.412936:47.0:300.0:-1
ipc-2014-agile-childsnack-09.pddl,CRASHED:33.5889:1000000000.0:300.0:-1
ipc-2014-agile-childsnack-10-2.pddl,CRASHED:35.1607:1000000000.0:300.0:-1
ipc-2014-agile-childsnack-10.pddl,CRASHED:27.3148:1000000000.0:300.0:-1
ipc-2014-agile-childsnack-11-2.pddl,CRASHED:179.912:1000000000.0:300.0:-1
ipc-2014-agile-childsnack-11.pddl,CRASHED:139.728:1000000000.0:300.0:-1
ipc-2014-agile-childsnack-12.pddl,CRASHED:37.4483:1000000000.0:300.0:-1
ipc-2014-agile-childsnack-13-2.pddl,CRASHED:107.885:1000000000.0:300.0:-1
ipc-2014-agile-childsnack-13.pddl,CRASHED:120.499:1000000000.0:300.0:-1
ipc-2014-agile-childsnack-14.pddl,CRASHED:45.6931:1000000000.0:300.0:-1
ipc-2014-agile-childsnack-15-2.pddl,CRASHED:24.1383:1000000000.0:300.0:-1
ipc-2014-agile-childsnack-16-2.pddl,CRASHED:64.4652:1000000000.0:300.0:-1
ipc-2014-agile-childsnack-19-2.pddl,CRASHED:43.6544:1000000000.0:300.0:-1
ipc-2014-agile-childsnack-19.pddl,CRASHED:51.0842:1000000000.0:300.0:-1
ipc-2014-agile-citycar-p3-2-2-0-1.pddl,SAT:0.12698:291.0:300.0:-1
ipc-2014-agile-citycar-p3-3-2-0-1.pddl,SAT:0.754884:651.0:300.0:-1
ipc-2014-agile-citycar-p3-4-2-0-1.pddl,SAT:0.356945:722.0:300.0:-1
ipc-2014-agile-citycar-p3-5-2-0-1.pddl,SAT:57.3023:694.0:300.0:-1
ipc-2014-agile-citycar-p3-5-2-0-2.pddl,SAT:9.62954:1041.0:300.0:-1
ipc-2014-agile-citycar-p4-2-2-0-1.pddl,SAT:43.1534:336.0:300.0:-1
ipc-2014-agile-citycar-p4-2-3-0-1.pddl,SAT:55.4426:417.0:300.0:-1
ipc-2014-agile-citycar-p4-2-3-0-2.pddl,SAT:248.199:494.0:300.0:-1
ipc-2014-agile-citycar-p4-3-2-0-1.pddl,SAT:50.4583:1185.0:300.0:-1
ipc-2014-agile-citycar-p4-3-2-0-2.pddl,TIMEOUT:301.297:-1.0:300.0:-1
ipc-2014-agile-citycar-p4-3-3-0-1.pddl,TIMEOUT:301.346:-1.0:300.0:-1
ipc-2014-agile-citycar-p4-3-3-0-2.pddl,TIMEOUT:301.273:-1.0:300.0:-1
ipc-2014-agile-citycar-p4-4-2-0-1.pddl,TIMEOUT:301.331:-1.0:300.0:-1
ipc-2014-agile-citycar-p4-4-2-0-2.pddl,TIMEOUT:301.339:-1.0:300.0:-1
ipc-2014-agile-citycar-p4-4-3-0-1.pddl,TIMEOUT:301.455:-1.0:300.0:-1
ipc-2014-agile-citycar-p4-4-3-0-2.pddl,TIMEOUT:301.41:-1.0:300.0:-1
ipc-2014-agile-citycar-p4-5-2-0-1.pddl,TIMEOUT:301.322:-1.0:300.0:-1
ipc-2014-agile-citycar-p4-5-2-0-2.pddl,TIMEOUT:301.315:-1.0:300.0:-1
ipc-2014-agile-citycar-p4-5-3-0-1.pddl,TIMEOUT:301.402:-1.0:300.0:-1
ipc-2014-agile-citycar-p4-5-3-0-2.pddl,TIMEOUT:301.369:-1.0:300.0:-1
ipc-2014-agile-floortile-p01-4-3-2.pddl,SAT:0.014997:94.0:300.0:-1
ipc-2014-agile-floortile-p01-5-4-2.pddl,SAT:0.025995:173.0:300.0:-1
ipc-2014-agile-floortile-p01-5-5-2.pddl,SAT:0.040993:197.0:300.0:-1
ipc-2014-agile-floortile-p01-6-4-2.pddl,SAT:0.030994:190.0:300.0:-1
ipc-2014-agile-floortile-p01-6-5-2.pddl,SAT:0.053991:230.0:300.0:-1
ipc-2014-agile-floortile-p01-6-5-3.pddl,SAT:0.067988:223.0:300.0:-1
ipc-2014-agile-floortile-p02-5-4-2.pddl,SAT:0.031995:178.0:300.0:-1
ipc-2014-agile-floortile-p02-6-4-2.pddl,SAT:0.037993:207.0:300.0:-1
ipc-2014-agile-floortile-p02-6-5-2.pddl,SAT:0.066989:251.0:300.0:-1
ipc-2014-agile-floortile-p02-6-5-3.pddl,SAT:0.065989:235.0:300.0:-1
ipc-2014-agile-floortile-p03-6-4-2.pddl,SAT:0.036993:214.0:300.0:-1
ipc-2014-agile-floortile-p03-6-5-2.pddl,SAT:0.049991:248.0:300.0:-1
ipc-2014-agile-floortile-p03-6-5-3.pddl,SAT:0.05899:253.0:300.0:-1
ipc-2014-agile-floortile-p04-5-4-2.pddl,SAT:0.030995:175.0:300.0:-1
ipc-2014-agile-floortile-p04-5-5-2.pddl,SAT:0.042992:214.0:300.0:-1
ipc-2014-agile-floortile-p04-6-5-2.pddl,SAT:0.067989:261.0:300.0:-1
ipc-2014-agile-floortile-p04-6-5-3.pddl,SAT:0.067988:231.0:300.0:-1
ipc-2014-agile-floortile-p05-4-3-2.pddl,SAT:0.013997:96.0:300.0:-1
ipc-2014-agile-floortile-p05-6-5-2.pddl,SAT:0.05399:223.0:300.0:-1
ipc-2014-agile-floortile-p05-6-5-3.pddl,SAT:0.06399:243.0:300.0:-1
ipc-2014-agile-ged-d-10-1.pddl,SAT:13.134:99.0:300.0:-1
ipc-2014-agile-ged-d-10-2.pddl,SAT:27.5548:212.0:300.0:-1
ipc-2014-agile-ged-d-10-3.pddl,SAT:31.1353:130.0:300.0:-1
ipc-2014-agile-ged-d-10-4.pddl,SAT:57.3433:193.0:300.0:-1
ipc-2014-agile-ged-d-10-5.pddl,TIMEOUT:301.325:-1.0:300.0:-1
ipc-2014-agile-ged-d-10-6.pddl,SAT:200.013:139.0:300.0:-1
ipc-2014-agile-ged-d-11-1.pddl,SAT:64.8201:110.0:300.0:-1
ipc-2014-agile-ged-d-11-3.pddl,SAT:44.2413:75.0:300.0:-1
ipc-2014-agile-ged-d-11-5.pddl,SAT:65.593:116.0:300.0:-1
ipc-2014-agile-ged-d-11-6.pddl,TIMEOUT:301.326:-1.0:300.0:-1
ipc-2014-agile-ged-d-12-11.pddl,SAT:81.6766:190.0:300.0:-1
ipc-2014-agile-ged-d-12-2.pddl,TIMEOUT:301.324:-1.0:300.0:-1
ipc-2014-agile-ged-d-12-3.pddl,TIMEOUT:301.378:-1.0:300.0:-1
ipc-2014-agile-ged-d-12-5.pddl,TIMEOUT:301.385:-1.0:300.0:-1
ipc-2014-agile-ged-d-12-6.pddl,TIMEOUT:301.343:-1.0:300.0:-1
ipc-2014-agile-ged-d-12-7.pddl,TIMEOUT:301.323:-1.0:300.0:-1
ipc-2014-agile-ged-d-12-8.pddl,TIMEOUT:301.341:-1.0:300.0:-1
ipc-2014-agile-ged-d-12-9.pddl,TIMEOUT:301.379:-1.0:300.0:-1
ipc-2014-agile-ged-d-3-6.pddl,SAT:49.8964:102.0:300.0:-1
ipc-2014-agile-ged-d-9-5.pddl,SAT:169.2:167.0:300.0:-1
ipc-2014-agile-hiking-3-4-3.pddl,SAT:0.288955:18.0:300.0:-1
ipc-2014-agile-hiking-3-4-4.pddl,CRASHED:29.4265:1000000000.0:300.0:-1
ipc-2014-agile-hiking-3-4-5.pddl,CRASHED:25.991:1000000000.0:300.0:-1
ipc-2014-agile-hiking-3-4-6.pddl,TIMEOUT:301.314:-1.0:300.0:-1
ipc-2014-agile-hiking-3-4-7.pddl,TIMEOUT:301.394:-1.0:300.0:-1
ipc-2014-agile-hiking-3-4-8.pddl,CRASHED:27.2399:1000000000.0:300.0:-1
ipc-2014-agile-hiking-3-4-9.pddl,CRASHED:28.9516:1000000000.0:300.0:-1
ipc-2014-agile-hiking-4-5-3.pddl,SAT:1.17182:29.0:300.0:-1
ipc-2014-agile-hiking-4-5-4.pddl,SAT:3.39948:47.0:300.0:-1
ipc-2014-agile-hiking-4-5-5.pddl,CRASHED:30.5114:1000000000.0:300.0:-1
ipc-2014-agile-hiking-4-5-6.pddl,TIMEOUT:301.437:-1.0:300.0:-1
ipc-2014-agile-hiking-4-5-7.pddl,TIMEOUT:301.339:-1.0:300.0:-1
ipc-2014-agile-hiking-4-5-8.pddl,TIMEOUT:301.41:-1.0:300.0:-1
ipc-2014-agile-hiking-4-5-9.pddl,CRASHED:59.9059:1000000000.0:300.0:-1
ipc-2014-agile-hiking-5-6-3.pddl,SAT:3.79842:36.0:300.0:-1
ipc-2014-agile-hiking-5-6-4.pddl,CRASHED:36.5834:1000000000.0:300.0:-1
ipc-2014-agile-hiking-5-6-5.pddl,CRASHED:40.3549:1000000000.0:300.0:-1
ipc-2014-agile-hiking-5-6-6.pddl,CRASHED:60.0859:1000000000.0:300.0:-1
ipc-2014-agile-hiking-5-6-7.pddl,CRASHED:89.4064:1000000000.0:300.0:-1
ipc-2014-agile-hiking-5-6-8.pddl,CRASHED:121.126:1000000000.0:300.0:-1
ipc-2014-agile-maintenance-1.3.060.180.5-000.pddl,SAT:0.076988:54.0:300.0:-1
ipc-2014-agile-maintenance-1.3.060.180.5-001.pddl,TIMEOUT:301.135:-1.0:300.0:-1
ipc-2014-agile-maintenance-1.3.060.180.5-002.pddl,SAT:78.0171:55.0:300.0:-1
ipc-2014-agile-maintenance-1.3.100.300.5-000.pddl,TIMEOUT:301.083:-1.0:300.0:-1
ipc-2014-agile-maintenance-1.3.100.300.5-001.pddl,TIMEOUT:301.08:-1.0:300.0:-1
ipc-2014-agile-maintenance-1.3.100.300.7-000.pddl,SAT:0.269958:83.0:300.0:-1
ipc-2014-agile-maintenance-1.3.100.300.7-001.pddl,SAT:0.268958:80.0:300.0:-1
ipc-2014-agile-maintenance-1.3.100.300.7-002.pddl,SAT:0.266958:77.0:300.0:-1
ipc-2014-agile-maintenance-1.3.150.500.6-001.pddl,SAT:0.87:133.0:300.0:-1
ipc-2014-agile-maintenance-1.3.200.500.5-001.pddl,SAT:1.39579:180.0:300.0:-1
ipc-2014-agile-maintenance-1.3.200.500.5-002.pddl,TIMEOUT:301.103:-1.0:300.0:-1
ipc-2014-agile-maintenance-1.3.200.700.7-000.pddl,SAT:2.48062:176.0:300.0:-1
ipc-2014-agile-maintenance-1.3.200.700.7-001.pddl,SAT:2.54461:171.0:300.0:-1
ipc-2014-agile-maintenance-1.3.200.700.7-002.pddl,SAT:2.48162:170.0:300.0:-1
ipc-2014-agile-maintenance-1.3.200.900.5-000.pddl,TIMEOUT:301.165:-1.0:300.0:-1
ipc-2014-agile-maintenance-1.3.200.900.5-001.pddl,TIMEOUT:301.176:-1.0:300.0:-1
ipc-2014-agile-maintenance-1.3.200.900.5-002.pddl,TIMEOUT:301.18:-1.0:300.0:-1
ipc-2014-agile-maintenance-1.3.200.900.8-000.pddl,SAT:4.75628:186.0:300.0:-1
ipc-2014-agile-maintenance-1.3.200.900.8-001.pddl,SAT:4.64329:172.0:300.0:-1
ipc-2014-agile-maintenance-1.3.200.900.8-002.pddl,SAT:4.6083:179.0:300.0:-1
ipc-2014-agile-openstacks-p130_2.pddl,TIMEOUT:301.372:-1.0:300.0:-1
ipc-2014-agile-openstacks-p130_3.pddl,TIMEOUT:301.399:-1.0:300.0:-1
ipc-2014-agile-openstacks-p150_2.pddl,TIMEOUT:301.338:-1.0:300.0:-1
ipc-2014-agile-openstacks-p150_3.pddl,TIMEOUT:301.364:-1.0:300.0:-1
ipc-2014-agile-openstacks-p170_1.pddl,CRASHED:65.619:1000000000.0:300.0:-1
ipc-2014-agile-openstacks-p170_2.pddl,CRASHED:69.5414:1000000000.0:300.0:-1
ipc-2014-agile-openstacks-p170_3.pddl,TIMEOUT:301.404:-1.0:300.0:-1
ipc-2014-agile-openstacks-p190_1.pddl,CRASHED:140.046:1000000000.0:300.0:-1
ipc-2014-agile-openstacks-p190_2.pddl,CRASHED:130.343:1000000000.0:300.0:-1
ipc-2014-agile-openstacks-p190_3.pddl,CRASHED:151.586:1000000000.0:300.0:-1
ipc-2014-agile-openstacks-p210_1.pddl,TIMEOUT:301.405:-1.0:300.0:-1
ipc-2014-agile-openstacks-p210_2.pddl,TIMEOUT:301.364:-1.0:300.0:-1
ipc-2014-agile-openstacks-p230_1.pddl,CRASHED:174.189:1000000000.0:300.0:-1
ipc-2014-agile-openstacks-p230_2.pddl,CRASHED:192.78:1000000000.0:300.0:-1
ipc-2014-agile-openstacks-p250_1.pddl,CRASHED:233.403:1000000000.0:300.0:-1
ipc-2014-agile-openstacks-p250_2.pddl,CRASHED:249.483:1000000000.0:300.0:-1
ipc-2014-agile-openstacks-p270_1.pddl,TIMEOUT:301.278:-1.0:300.0:-1
ipc-2014-agile-openstacks-p270_2.pddl,TIMEOUT:301.349:-1.0:300.0:-1
ipc-2014-agile-openstacks-p290_1.pddl,TIMEOUT:301.303:-1.0:300.0:-1
ipc-2014-agile-openstacks-p290_2.pddl,TIMEOUT:301.073:-1.0:300.0:-1
ipc-2014-agile-parking-28_2.pddl,SAT:108.899:127.0:300.0:-1
ipc-2014-agile-parking-28_3.pddl,SAT:96.6713:86.0:300.0:-1
ipc-2014-agile-parking-30_1.pddl,SAT:157.814:135.0:300.0:-1
ipc-2014-agile-parking-30_2.pddl,TIMEOUT:301.402:-1.0:300.0:-1
ipc-2014-agile-parking-30_3.pddl,SAT:188.051:163.0:300.0:-1
ipc-2014-agile-parking-32_1.pddl,SAT:237.608:161.0:300.0:-1
ipc-2014-agile-parking-32_2.pddl,SAT:239.328:138.0:300.0:-1
ipc-2014-agile-parking-32_3.pddl,SAT:224.651:178.0:300.0:-1
ipc-2014-agile-parking-34_1.pddl,TIMEOUT:301.359:-1.0:300.0:-1
ipc-2014-agile-parking-34_2.pddl,SAT:283.537:131.0:300.0:-1
ipc-2014-agile-parking-34_3.pddl,TIMEOUT:301.371:-1.0:300.0:-1
ipc-2014-agile-parking-36_1.pddl,TIMEOUT:301.143:-1.0:300.0:-1
ipc-2014-agile-parking-36_2.pddl,TIMEOUT:301.122:-1.0:300.0:-1
ipc-2014-agile-parking-36_3.pddl,TIMEOUT:301.212:-1.0:300.0:-1
ipc-2014-agile-parking-38_1.pddl,TIMEOUT:301.185:-1.0:300.0:-1
ipc-2014-agile-parking-38_2.pddl,TIMEOUT:301.175:-1.0:300.0:-1
ipc-2014-agile-parking-38_3.pddl,TIMEOUT:301.231:-1.0:300.0:-1
ipc-2014-agile-parking-40_1.pddl,TIMEOUT:301.171:-1.0:300.0:-1
ipc-2014-agile-parking-40_2.pddl,TIMEOUT:301.23:-1.0:300.0:-1
ipc-2014-agile-parking-40_3.pddl,TIMEOUT:301.155:-1.0:300.0:-1
ipc-2014-agile-tetris-020.pddl,SAT:43.3604:56.0:300.0:-1
ipc-2014-agile-tetris-021.pddl,SAT:164.897:145.0:300.0:-1
ipc-2014-agile-tetris-022.pddl,SAT:153.288:102.0:300.0:-1
ipc-2014-agile-tetris-023.pddl,SAT:122.115:105.0:300.0:-1
ipc-2014-agile-tetris-024.pddl,SAT:167.708:161.0:300.0:-1
ipc-2014-agile-tetris-025.pddl,CRASHED:190.148:1000000000.0:300.0:-1
ipc-2014-agile-tetris-026.pddl,CRASHED:257.172:1000000000.0:300.0:-1
ipc-2014-agile-tetris-027.pddl,CRASHED:269.631:1000000000.0:300.0:-1
ipc-2014-agile-tetris-028.pddl,CRASHED:237.052:1000000000.0:300.0:-1
ipc-2014-agile-tetris-029.pddl,CRASHED:202.489:1000000000.0:300.0:-1
ipc-2014-agile-tetris-031.pddl,CRASHED:279.474:1000000000.0:300.0:-1
ipc-2014-agile-tetris-032.pddl,CRASHED:287.521:1000000000.0:300.0:-1
ipc-2014-agile-tetris-033.pddl,TIMEOUT:301.466:-1.0:300.0:-1
ipc-2014-agile-tetris-034.pddl,TIMEOUT:301.578:-1.0:300.0:-1
ipc-2014-agile-tetris-035.pddl,CRASHED:276.045:1000000000.0:300.0:-1
ipc-2014-agile-tetris-036.pddl,CRASHED:245.28:1000000000.0:300.0:-1
ipc-2014-agile-tetris-037.pddl,SAT:186.136:147.0:300.0:-1
ipc-2014-agile-tetris-038.pddl,TIMEOUT:301.465:-1.0:300.0:-1
ipc-2014-agile-tetris-039.pddl,CRASHED:287.466:1000000000.0:300.0:-1
ipc-2014-agile-tetris-040.pddl,TIMEOUT:301.402:-1.0:300.0:-1
ipc-2014-agile-thoughtful-bootstrap-typed-01.pddl,SAT:1.9807:42.0:300.0:-1
ipc-2014-agile-thoughtful-bootstrap-typed-02.pddl,SAT:1.80372:31.0:300.0:-1
ipc-2014-agile-thoughtful-bootstrap-typed-03.pddl,SAT:1.9327:49.0:300.0:-1
ipc-2014-agile-thoughtful-bootstrap-typed-04.pddl,SAT:1.99969:46.0:300.0:-1
ipc-2014-agile-thoughtful-bootstrap-typed-05.pddl,SAT:1.82672:68.0:300.0:-1
ipc-2014-agile-thoughtful-p11_6_53-typed.pddl,TIMEOUT:301.395:-1.0:300.0:-1
ipc-2014-agile-thoughtful-p11_6_59-typed.pddl,CRASHED:100.327:1000000000.0:300.0:-1
ipc-2014-agile-thoughtful-p11_6_62-typed.pddl,TIMEOUT:301.416:-1.0:300.0:-1
ipc-2014-agile-thoughtful-p13_7_78-typed.pddl,CRASHED:180.009:1000000000.0:300.0:-1
ipc-2014-agile-thoughtful-p13_7_79-typed.pddl,CRASHED:181.071:1000000000.0:300.0:-1
ipc-2014-agile-thoughtful-p13_7_86-typed.pddl,CRASHED:177.339:1000000000.0:300.0:-1
ipc-2014-agile-thoughtful-target-typed-20.pddl,CRASHED:188.188:1000000000.0:300.0:-1
ipc-2014-agile-thoughtful-target-typed-21.pddl,CRASHED:186.03:1000000000.0:300.0:-1
ipc-2014-agile-thoughtful-target-typed-22.pddl,TIMEOUT:301.398:-1.0:300.0:-1
ipc-2014-agile-thoughtful-target-typed-23.pddl,CRASHED:191.09:1000000000.0:300.0:-1
ipc-2014-agile-thoughtful-target-typed-24.pddl,TIMEOUT:301.322:-1.0:300.0:-1
ipc-2014-agile-thoughtful-target-typed-25.pddl,CRASHED:182.003:1000000000.0:300.0:-1
ipc-2014-agile-thoughtful-target-typed-26.pddl,TIMEOUT:301.402:-1.0:300.0:-1
ipc-2014-agile-thoughtful-target-typed-27.pddl,CRASHED:285.941:1000000000.0:300.0:-1
ipc-2014-agile-thoughtful-target-typed-28.pddl,CRASHED:193.867:1000000000.0:300.0:-1
ipc-2014-agile-transport-01.pddl,CRASHED:75.4235:1000000000.0:300.0:-1
ipc-2014-agile-transport-02.pddl,TIMEOUT:301.331:-1.0:300.0:-1
ipc-2014-agile-transport-03.pddl,TIMEOUT:301.375:-1.0:300.0:-1
ipc-2014-agile-transport-04.pddl,TIMEOUT:301.514:-1.0:300.0:-1
ipc-2014-agile-transport-05.pddl,CRASHED:135.202:1000000000.0:300.0:-1
ipc-2014-agile-transport-06.pddl,TIMEOUT:301.474:-1.0:300.0:-1
ipc-2014-agile-transport-07.pddl,CRASHED:285.462:1000000000.0:300.0:-1
ipc-2014-agile-transport-08.pddl,TIMEOUT:301.414:-1.0:300.0:-1
ipc-2014-agile-transport-09.pddl,CRASHED:292.294:1000000000.0:300.0:-1
ipc-2014-agile-transport-10.pddl,CRASHED:213.785:1000000000.0:300.0:-1
ipc-2014-agile-transport-11.pddl,TIMEOUT:301.339:-1.0:300.0:-1
ipc-2014-agile-transport-12.pddl,TIMEOUT:301.414:-1.0:300.0:-1
ipc-2014-agile-transport-13.pddl,CRASHED:265.517:1000000000.0:300.0:-1
ipc-2014-agile-transport-14.pddl,CRASHED:90.8892:1000000000.0:300.0:-1
ipc-2014-agile-transport-15.pddl,CRASHED:92.8969:1000000000.0:300.0:-1
ipc-2014-agile-transport-16.pddl,CRASHED:61.8596:1000000000.0:300.0:-1
ipc-2014-agile-transport-17.pddl,CRASHED:201.645:1000000000.0:300.0:-1
ipc-2014-agile-transport-18.pddl,TIMEOUT:301.403:-1.0:300.0:-1
ipc-2014-agile-transport-19.pddl,TIMEOUT:301.216:-1.0:300.0:-1
ipc-2014-agile-transport-20.pddl,CRASHED:253.657:1000000000.0:300.0:-1
ipc-2014-agile-visitall-30.pddl,TIMEOUT:301.21:-1.0:300.0:-1
ipc-2014-agile-visitall-31.pddl,TIMEOUT:301.161:-1.0:300.0:-1
ipc-2014-agile-visitall-32.pddl,TIMEOUT:301.207:-1.0:300.0:-1
ipc-2014-agile-visitall-33.pddl,TIMEOUT:301.16:-1.0:300.0:-1
ipc-2014-agile-visitall-50.pddl,TIMEOUT:301.066:-1.0:300.0:-1
ipc-2014-agile-visitall-51.pddl,TIMEOUT:301.066:-1.0:300.0:-1
ipc-2014-agile-visitall-52.pddl,TIMEOUT:301.033:-1.0:300.0:-1
ipc-2014-agile-visitall-53.pddl,TIMEOUT:301.099:-1.0:300.0:-1
ipc-2014-agile-visitall-54.pddl,TIMEOUT:301.04:-1.0:300.0:-1
ipc-2014-agile-visitall-55.pddl,TIMEOUT:301.1:-1.0:300.0:-1
ipc-2014-agile-visitall-56.pddl,TIMEOUT:301.021:-1.0:300.0:-1
ipc-2014-agile-visitall-57.pddl,TIMEOUT:301.117:-1.0:300.0:-1
ipc-2014-agile-visitall-58.pddl,TIMEOUT:301.088:-1.0:300.0:-1
ipc-2014-agile-visitall-59.pddl,TIMEOUT:301.093:-1.0:300.0:-1
ipc-2014-agile-visitall-60.pddl,TIMEOUT:301.062:-1.0:300.0:-1
ipc-2014-agile-visitall-61.pddl,TIMEOUT:301.026:-1.0:300.0:-1
ipc-2014-agile-visitall-62.pddl,TIMEOUT:301.05:-1.0:300.0:-1
ipc-2014-agile-visitall-63.pddl,TIMEOUT:301.077:-1.0:300.0:-1
ipc-2014-agile-visitall-64.pddl,TIMEOUT:301.036:-1.0:300.0:-1
ipc-2014-agile-visitall-65.pddl,TIMEOUT:301.088:-1.0:300.0:-1
