instance,ipc-2014-agile-yahsp3-mt
ipc-2014-agile-barman-p1-11-4-15.pddl,CRASHED:78.5591:1000000000.0:300.0:-1
ipc-2014-agile-barman-p1-11-5-15.pddl,CRASHED:82.3135:1000000000.0:300.0:-1
ipc-2014-agile-barman-p1-11-5-16.pddl,CRASHED:31.4752:1000000000.0:300.0:-1
ipc-2014-agile-barman-p2-10-4-13.pddl,CRASHED:22.6236:1000000000.0:300.0:-1
ipc-2014-agile-barman-p2-11-4-15.pddl,CRASHED:68.6286:1000000000.0:300.0:-1
ipc-2014-agile-barman-p2-11-5-15.pddl,CRASHED:23.4404:1000000000.0:300.0:-1
ipc-2014-agile-barman-p2-11-5-16.pddl,CRASHED:24.7542:1000000000.0:300.0:-1
ipc-2014-agile-barman-p2-11-5-17.pddl,CRASHED:195.366:1000000000.0:300.0:-1
ipc-2014-agile-barman-p3-10-4-13.pddl,CRASHED:15.0967:1000000000.0:300.0:-1
ipc-2014-agile-barman-p3-11-4-15.pddl,CRASHED:30.1484:1000000000.0:300.0:-1
ipc-2014-agile-barman-p3-11-5-15.pddl,CRASHED:61.3927:1000000000.0:300.0:-1
ipc-2014-agile-barman-p3-11-5-16.pddl,CRASHED:35.6446:1000000000.0:300.0:-1
ipc-2014-agile-barman-p3-11-5-17.pddl,SAT:12.7431:551.0:300.0:-1
ipc-2014-agile-barman-p4-11-4-14.pddl,CRASHED:22.9545:1000000000.0:300.0:-1
ipc-2014-agile-barman-p4-11-4-15.pddl,CRASHED:61.0377:1000000000.0:300.0:-1
ipc-2014-agile-barman-p4-11-5-15.pddl,SAT:20.6979:534.0:300.0:-1
ipc-2014-agile-barman-p5-10-4-13.pddl,CRASHED:36.1335:1000000000.0:300.0:-1
ipc-2014-agile-barman-p5-11-4-15.pddl,CRASHED:47.6138:1000000000.0:300.0:-1
ipc-2014-agile-barman-p5-11-5-15.pddl,CRASHED:61.3347:1000000000.0:300.0:-1
ipc-2014-agile-barman-p5-11-5-16.pddl,SAT:25.3511:523.0:300.0:-1
ipc-2014-agile-cavediving-01_easy.pddl,CRASHED:0.008998:1000000000.0:300.0:-1
ipc-2014-agile-cavediving-01.pddl,CRASHED:0.008998:1000000000.0:300.0:-1
ipc-2014-agile-cavediving-02_easy.pddl,CRASHED:0.006998:1000000000.0:300.0:-1
ipc-2014-agile-cavediving-03_easy.pddl,CRASHED:0.007997:1000000000.0:300.0:-1
ipc-2014-agile-cavediving-04_easy.pddl,CRASHED:0.007998:1000000000.0:300.0:-1
ipc-2014-agile-cavediving-05A_easy.pddl,CRASHED:0.007998:1000000000.0:300.0:-1
ipc-2014-agile-cavediving-06A_easy.pddl,CRASHED:0.007998:1000000000.0:300.0:-1
ipc-2014-agile-cavediving-07_easy.pddl,CRASHED:0.007998:1000000000.0:300.0:-1
ipc-2014-agile-cavediving-08_easy.pddl,CRASHED:0.008998:1000000000.0:300.0:-1
ipc-2014-agile-cavediving-09_easy.pddl,CRASHED:0.006998:1000000000.0:300.0:-1
ipc-2014-agile-cavediving-10_easy.pddl,CRASHED:0.006998:1000000000.0:300.0:-1
ipc-2014-agile-cavediving-11_easy.pddl,CRASHED:0.007997:1000000000.0:300.0:-1
ipc-2014-agile-cavediving-12_easy.pddl,CRASHED:0.006998:1000000000.0:300.0:-1
ipc-2014-agile-cavediving-13_easy.pddl,CRASHED:0.007998:1000000000.0:300.0:-1
ipc-2014-agile-cavediving-14_easy.pddl,CRASHED:0.007998:1000000000.0:300.0:-1
ipc-2014-agile-cavediving-15_easy.pddl,CRASHED:0.007998:1000000000.0:300.0:-1
ipc-2014-agile-cavediving-16_easy.pddl,CRASHED:0.007998:1000000000.0:300.0:-1
ipc-2014-agile-cavediving-18A_easy.pddl,CRASHED:0.007998:1000000000.0:300.0:-1
ipc-2014-agile-cavediving-18_easy.pddl,CRASHED:0.006998:1000000000.0:300.0:-1
ipc-2014-agile-cavediving-20A_easy.pddl,CRASHED:0.007998:1000000000.0:300.0:-1
ipc-2014-agile-childsnack-05-2.pddl,TIMEOUT:303.36:-1.0:300.0:-1
ipc-2014-agile-childsnack-05.pddl,TIMEOUT:302.802:-1.0:300.0:-1
ipc-2014-agile-childsnack-06-2.pddl,TIMEOUT:303.056:-1.0:300.0:-1
ipc-2014-agile-childsnack-07-2.pddl,TIMEOUT:302.699:-1.0:300.0:-1
ipc-2014-agile-childsnack-08-2.pddl,TIMEOUT:302.645:-1.0:300.0:-1
ipc-2014-agile-childsnack-08.pddl,TIMEOUT:302.576:-1.0:300.0:-1
ipc-2014-agile-childsnack-09-2.pddl,TIMEOUT:302.751:-1.0:300.0:-1
ipc-2014-agile-childsnack-09.pddl,TIMEOUT:303.377:-1.0:300.0:-1
ipc-2014-agile-childsnack-10-2.pddl,TIMEOUT:302.17:-1.0:300.0:-1
ipc-2014-agile-childsnack-10.pddl,TIMEOUT:302.263:-1.0:300.0:-1
ipc-2014-agile-childsnack-11-2.pddl,TIMEOUT:303.481:-1.0:300.0:-1
ipc-2014-agile-childsnack-11.pddl,TIMEOUT:302.056:-1.0:300.0:-1
ipc-2014-agile-childsnack-12.pddl,TIMEOUT:301.992:-1.0:300.0:-1
ipc-2014-agile-childsnack-13-2.pddl,TIMEOUT:302.353:-1.0:300.0:-1
ipc-2014-agile-childsnack-13.pddl,TIMEOUT:302.161:-1.0:300.0:-1
ipc-2014-agile-childsnack-14.pddl,TIMEOUT:301.977:-1.0:300.0:-1
ipc-2014-agile-childsnack-15-2.pddl,TIMEOUT:302.244:-1.0:300.0:-1
ipc-2014-agile-childsnack-16-2.pddl,TIMEOUT:302.615:-1.0:300.0:-1
ipc-2014-agile-childsnack-19-2.pddl,TIMEOUT:303.118:-1.0:300.0:-1
ipc-2014-agile-childsnack-19.pddl,TIMEOUT:302.479:-1.0:300.0:-1
ipc-2014-agile-citycar-p3-2-2-0-1.pddl,CRASHED:0.008998:1000000000.0:300.0:-1
ipc-2014-agile-citycar-p3-3-2-0-1.pddl,CRASHED:0.008998:1000000000.0:300.0:-1
ipc-2014-agile-citycar-p3-4-2-0-1.pddl,CRASHED:0.007997:1000000000.0:300.0:-1
ipc-2014-agile-citycar-p3-5-2-0-1.pddl,CRASHED:0.007997:1000000000.0:300.0:-1
ipc-2014-agile-citycar-p3-5-2-0-2.pddl,CRASHED:0.008997:1000000000.0:300.0:-1
ipc-2014-agile-citycar-p4-2-2-0-1.pddl,CRASHED:0.007998:1000000000.0:300.0:-1
ipc-2014-agile-citycar-p4-2-3-0-1.pddl,CRASHED:0.007998:1000000000.0:300.0:-1
ipc-2014-agile-citycar-p4-2-3-0-2.pddl,CRASHED:0.007998:1000000000.0:300.0:-1
ipc-2014-agile-citycar-p4-3-2-0-1.pddl,CRASHED:0.007998:1000000000.0:300.0:-1
ipc-2014-agile-citycar-p4-3-2-0-2.pddl,CRASHED:0.006998:1000000000.0:300.0:-1
ipc-2014-agile-citycar-p4-3-3-0-1.pddl,CRASHED:0.007998:1000000000.0:300.0:-1
ipc-2014-agile-citycar-p4-3-3-0-2.pddl,CRASHED:0.009997:1000000000.0:300.0:-1
ipc-2014-agile-citycar-p4-4-2-0-1.pddl,CRASHED:0.007998:1000000000.0:300.0:-1
ipc-2014-agile-citycar-p4-4-2-0-2.pddl,CRASHED:0.007997:1000000000.0:300.0:-1
ipc-2014-agile-citycar-p4-4-3-0-1.pddl,CRASHED:0.007998:1000000000.0:300.0:-1
ipc-2014-agile-citycar-p4-4-3-0-2.pddl,CRASHED:0.007998:1000000000.0:300.0:-1
ipc-2014-agile-citycar-p4-5-2-0-1.pddl,CRASHED:0.007997:1000000000.0:300.0:-1
ipc-2014-agile-citycar-p4-5-2-0-2.pddl,CRASHED:0.007998:1000000000.0:300.0:-1
ipc-2014-agile-citycar-p4-5-3-0-1.pddl,CRASHED:0.008998:1000000000.0:300.0:-1
ipc-2014-agile-citycar-p4-5-3-0-2.pddl,CRASHED:0.007997:1000000000.0:300.0:-1
ipc-2014-agile-floortile-p01-4-3-2.pddl,CRASHED:19.3411:1000000000.0:300.0:-1
ipc-2014-agile-floortile-p01-5-4-2.pddl,TIMEOUT:302.568:-1.0:300.0:-1
ipc-2014-agile-floortile-p01-5-5-2.pddl,TIMEOUT:302.205:-1.0:300.0:-1
ipc-2014-agile-floortile-p01-6-4-2.pddl,TIMEOUT:302.129:-1.0:300.0:-1
ipc-2014-agile-floortile-p01-6-5-2.pddl,TIMEOUT:302.779:-1.0:300.0:-1
ipc-2014-agile-floortile-p01-6-5-3.pddl,TIMEOUT:302.537:-1.0:300.0:-1
ipc-2014-agile-floortile-p02-5-4-2.pddl,TIMEOUT:301.839:-1.0:300.0:-1
ipc-2014-agile-floortile-p02-6-4-2.pddl,TIMEOUT:302.522:-1.0:300.0:-1
ipc-2014-agile-floortile-p02-6-5-2.pddl,TIMEOUT:302.164:-1.0:300.0:-1
ipc-2014-agile-floortile-p02-6-5-3.pddl,TIMEOUT:302.222:-1.0:300.0:-1
ipc-2014-agile-floortile-p03-6-4-2.pddl,TIMEOUT:302.242:-1.0:300.0:-1
ipc-2014-agile-floortile-p03-6-5-2.pddl,TIMEOUT:303.094:-1.0:300.0:-1
ipc-2014-agile-floortile-p03-6-5-3.pddl,TIMEOUT:302.869:-1.0:300.0:-1
ipc-2014-agile-floortile-p04-5-4-2.pddl,TIMEOUT:302.239:-1.0:300.0:-1
ipc-2014-agile-floortile-p04-5-5-2.pddl,TIMEOUT:302.617:-1.0:300.0:-1
ipc-2014-agile-floortile-p04-6-5-2.pddl,TIMEOUT:302.641:-1.0:300.0:-1
ipc-2014-agile-floortile-p04-6-5-3.pddl,TIMEOUT:302.739:-1.0:300.0:-1
ipc-2014-agile-floortile-p05-4-3-2.pddl,CRASHED:8.42172:1000000000.0:300.0:-1
ipc-2014-agile-floortile-p05-6-5-2.pddl,TIMEOUT:303.802:-1.0:300.0:-1
ipc-2014-agile-floortile-p05-6-5-3.pddl,TIMEOUT:302.485:-1.0:300.0:-1
ipc-2014-agile-ged-d-10-1.pddl,SAT:27.8688:38.0:300.0:-1
ipc-2014-agile-ged-d-10-2.pddl,SAT:44.2293:82.0:300.0:-1
ipc-2014-agile-ged-d-10-3.pddl,SAT:3.2485:88.0:300.0:-1
ipc-2014-agile-ged-d-10-4.pddl,CRASHED:70.5973:1000000000.0:300.0:-1
ipc-2014-agile-ged-d-10-5.pddl,TIMEOUT:302.506:-1.0:300.0:-1
ipc-2014-agile-ged-d-10-6.pddl,TIMEOUT:302.467:-1.0:300.0:-1
ipc-2014-agile-ged-d-11-1.pddl,CRASHED:124.621:1000000000.0:300.0:-1
ipc-2014-agile-ged-d-11-3.pddl,CRASHED:85.0691:1000000000.0:300.0:-1
ipc-2014-agile-ged-d-11-5.pddl,TIMEOUT:302.57:-1.0:300.0:-1
ipc-2014-agile-ged-d-11-6.pddl,CRASHED:212.464:1000000000.0:300.0:-1
ipc-2014-agile-ged-d-12-11.pddl,SAT:29.9424:101.0:300.0:-1
ipc-2014-agile-ged-d-12-2.pddl,TIMEOUT:302.741:-1.0:300.0:-1
ipc-2014-agile-ged-d-12-3.pddl,TIMEOUT:302.202:-1.0:300.0:-1
ipc-2014-agile-ged-d-12-5.pddl,TIMEOUT:302.067:-1.0:300.0:-1
ipc-2014-agile-ged-d-12-6.pddl,TIMEOUT:302.112:-1.0:300.0:-1
ipc-2014-agile-ged-d-12-7.pddl,TIMEOUT:302.601:-1.0:300.0:-1
ipc-2014-agile-ged-d-12-8.pddl,TIMEOUT:302.268:-1.0:300.0:-1
ipc-2014-agile-ged-d-12-9.pddl,TIMEOUT:302.669:-1.0:300.0:-1
ipc-2014-agile-ged-d-3-6.pddl,CRASHED:159.893:1000000000.0:300.0:-1
ipc-2014-agile-ged-d-9-5.pddl,CRASHED:229.462:1000000000.0:300.0:-1
ipc-2014-agile-hiking-3-4-3.pddl,SAT:0.048992:35.0:300.0:-1
ipc-2014-agile-hiking-3-4-4.pddl,SAT:0.12298:173.0:300.0:-1
ipc-2014-agile-hiking-3-4-5.pddl,SAT:1.3438:679.0:300.0:-1
ipc-2014-agile-hiking-3-4-6.pddl,SAT:18.1822:2461.0:300.0:-1
ipc-2014-agile-hiking-3-4-7.pddl,SAT:71.4371:2823.0:300.0:-1
ipc-2014-agile-hiking-3-4-8.pddl,TIMEOUT:301.25:-1.0:300.0:-1
ipc-2014-agile-hiking-3-4-9.pddl,TIMEOUT:301.222:-1.0:300.0:-1
ipc-2014-agile-hiking-4-5-3.pddl,SAT:0.111982:24.0:300.0:-1
ipc-2014-agile-hiking-4-5-4.pddl,SAT:0.276957:116.0:300.0:-1
ipc-2014-agile-hiking-4-5-5.pddl,SAT:1.55676:583.0:300.0:-1
ipc-2014-agile-hiking-4-5-6.pddl,SAT:26.273:1618.0:300.0:-1
ipc-2014-agile-hiking-4-5-7.pddl,SAT:68.3886:3180.0:300.0:-1
ipc-2014-agile-hiking-4-5-8.pddl,TIMEOUT:301.408:-1.0:300.0:-1
ipc-2014-agile-hiking-4-5-9.pddl,TIMEOUT:301.809:-1.0:300.0:-1
ipc-2014-agile-hiking-5-6-3.pddl,SAT:0.330949:59.0:300.0:-1
ipc-2014-agile-hiking-5-6-4.pddl,SAT:0.666898:144.0:300.0:-1
ipc-2014-agile-hiking-5-6-5.pddl,SAT:4.95725:449.0:300.0:-1
ipc-2014-agile-hiking-5-6-6.pddl,SAT:21.6087:707.0:300.0:-1
ipc-2014-agile-hiking-5-6-7.pddl,SAT:144.534:2136.0:300.0:-1
ipc-2014-agile-hiking-5-6-8.pddl,TIMEOUT:301.411:-1.0:300.0:-1
ipc-2014-agile-maintenance-1.3.060.180.5-000.pddl,CRASHED:0.007998:1000000000.0:300.0:-1
ipc-2014-agile-maintenance-1.3.060.180.5-001.pddl,CRASHED:0.009998:1000000000.0:300.0:-1
ipc-2014-agile-maintenance-1.3.060.180.5-002.pddl,CRASHED:0.006998:1000000000.0:300.0:-1
ipc-2014-agile-maintenance-1.3.100.300.5-000.pddl,CRASHED:0.007998:1000000000.0:300.0:-1
ipc-2014-agile-maintenance-1.3.100.300.5-001.pddl,CRASHED:0.007998:1000000000.0:300.0:-1
ipc-2014-agile-maintenance-1.3.100.300.7-000.pddl,CRASHED:0.006998:1000000000.0:300.0:-1
ipc-2014-agile-maintenance-1.3.100.300.7-001.pddl,CRASHED:0.007998:1000000000.0:300.0:-1
ipc-2014-agile-maintenance-1.3.100.300.7-002.pddl,CRASHED:0.011997:1000000000.0:300.0:-1
ipc-2014-agile-maintenance-1.3.150.500.6-001.pddl,CRASHED:0.007998:1000000000.0:300.0:-1
ipc-2014-agile-maintenance-1.3.200.500.5-001.pddl,CRASHED:0.007998:1000000000.0:300.0:-1
ipc-2014-agile-maintenance-1.3.200.500.5-002.pddl,CRASHED:0.009998:1000000000.0:300.0:-1
ipc-2014-agile-maintenance-1.3.200.700.7-000.pddl,CRASHED:0.007997:1000000000.0:300.0:-1
ipc-2014-agile-maintenance-1.3.200.700.7-001.pddl,CRASHED:0.007998:1000000000.0:300.0:-1
ipc-2014-agile-maintenance-1.3.200.700.7-002.pddl,CRASHED:0.007998:1000000000.0:300.0:-1
ipc-2014-agile-maintenance-1.3.200.900.5-000.pddl,CRASHED:0.006998:1000000000.0:300.0:-1
ipc-2014-agile-maintenance-1.3.200.900.5-001.pddl,CRASHED:0.006998:1000000000.0:300.0:-1
ipc-2014-agile-maintenance-1.3.200.900.5-002.pddl,CRASHED:0.006998:1000000000.0:300.0:-1
ipc-2014-agile-maintenance-1.3.200.900.8-000.pddl,CRASHED:0.007997:1000000000.0:300.0:-1
ipc-2014-agile-maintenance-1.3.200.900.8-001.pddl,CRASHED:0.006998:1000000000.0:300.0:-1
ipc-2014-agile-maintenance-1.3.200.900.8-002.pddl,CRASHED:0.007998:1000000000.0:300.0:-1
ipc-2014-agile-openstacks-p130_2.pddl,CRASHED:0.854869:1000000000.0:300.0:-1
ipc-2014-agile-openstacks-p130_3.pddl,CRASHED:1.04584:1000000000.0:300.0:-1
ipc-2014-agile-openstacks-p150_2.pddl,CRASHED:1.2968:1000000000.0:300.0:-1
ipc-2014-agile-openstacks-p150_3.pddl,CRASHED:1.50077:1000000000.0:300.0:-1
ipc-2014-agile-openstacks-p170_1.pddl,CRASHED:1.90171:1000000000.0:300.0:-1
ipc-2014-agile-openstacks-p170_2.pddl,CRASHED:2.01269:1000000000.0:300.0:-1
ipc-2014-agile-openstacks-p170_3.pddl,CRASHED:2.21166:1000000000.0:300.0:-1
ipc-2014-agile-openstacks-p190_1.pddl,CRASHED:2.75958:1000000000.0:300.0:-1
ipc-2014-agile-openstacks-p190_2.pddl,CRASHED:2.79757:1000000000.0:300.0:-1
ipc-2014-agile-openstacks-p190_3.pddl,CRASHED:3.13852:1000000000.0:300.0:-1
ipc-2014-agile-openstacks-p210_1.pddl,CRASHED:3.68244:1000000000.0:300.0:-1
ipc-2014-agile-openstacks-p210_2.pddl,CRASHED:3.72343:1000000000.0:300.0:-1
ipc-2014-agile-openstacks-p230_1.pddl,CRASHED:4.87426:1000000000.0:300.0:-1
ipc-2014-agile-openstacks-p230_2.pddl,CRASHED:4.85926:1000000000.0:300.0:-1
ipc-2014-agile-openstacks-p250_1.pddl,CRASHED:6.44102:1000000000.0:300.0:-1
ipc-2014-agile-openstacks-p250_2.pddl,CRASHED:6.32304:1000000000.0:300.0:-1
ipc-2014-agile-openstacks-p270_1.pddl,CRASHED:7.61484:1000000000.0:300.0:-1
ipc-2014-agile-openstacks-p270_2.pddl,CRASHED:7.80181:1000000000.0:300.0:-1
ipc-2014-agile-openstacks-p290_1.pddl,CRASHED:9.8835:1000000000.0:300.0:-1
ipc-2014-agile-openstacks-p290_2.pddl,CRASHED:10.3244:1000000000.0:300.0:-1
ipc-2014-agile-parking-28_2.pddl,TIMEOUT:301.384:-1.0:300.0:-1
ipc-2014-agile-parking-28_3.pddl,TIMEOUT:301.39:-1.0:300.0:-1
ipc-2014-agile-parking-30_1.pddl,TIMEOUT:301.67:-1.0:300.0:-1
ipc-2014-agile-parking-30_2.pddl,TIMEOUT:301.42:-1.0:300.0:-1
ipc-2014-agile-parking-30_3.pddl,TIMEOUT:301.343:-1.0:300.0:-1
ipc-2014-agile-parking-32_1.pddl,TIMEOUT:301.321:-1.0:300.0:-1
ipc-2014-agile-parking-32_2.pddl,TIMEOUT:301.441:-1.0:300.0:-1
ipc-2014-agile-parking-32_3.pddl,TIMEOUT:301.324:-1.0:300.0:-1
ipc-2014-agile-parking-34_1.pddl,TIMEOUT:301.285:-1.0:300.0:-1
ipc-2014-agile-parking-34_2.pddl,TIMEOUT:301.293:-1.0:300.0:-1
ipc-2014-agile-parking-34_3.pddl,TIMEOUT:301.26:-1.0:300.0:-1
ipc-2014-agile-parking-36_1.pddl,TIMEOUT:301.474:-1.0:300.0:-1
ipc-2014-agile-parking-36_2.pddl,TIMEOUT:301.32:-1.0:300.0:-1
ipc-2014-agile-parking-36_3.pddl,TIMEOUT:301.313:-1.0:300.0:-1
ipc-2014-agile-parking-38_1.pddl,TIMEOUT:301.704:-1.0:300.0:-1
ipc-2014-agile-parking-38_2.pddl,TIMEOUT:301.68:-1.0:300.0:-1
ipc-2014-agile-parking-38_3.pddl,TIMEOUT:301.287:-1.0:300.0:-1
ipc-2014-agile-parking-40_1.pddl,TIMEOUT:301.204:-1.0:300.0:-1
ipc-2014-agile-parking-40_2.pddl,TIMEOUT:301.167:-1.0:300.0:-1
ipc-2014-agile-parking-40_3.pddl,TIMEOUT:301.164:-1.0:300.0:-1
ipc-2014-agile-tetris-020.pddl,SAT:7.41387:66.0:300.0:-1
ipc-2014-agile-tetris-021.pddl,CRASHED:17.3604:1000000000.0:300.0:-1
ipc-2014-agile-tetris-022.pddl,CRASHED:16.0086:1000000000.0:300.0:-1
ipc-2014-agile-tetris-023.pddl,CRASHED:16.0996:1000000000.0:300.0:-1
ipc-2014-agile-tetris-024.pddl,CRASHED:17.3814:1000000000.0:300.0:-1
ipc-2014-agile-tetris-025.pddl,TIMEOUT:303.212:-1.0:300.0:-1
ipc-2014-agile-tetris-026.pddl,CRASHED:25.3421:1000000000.0:300.0:-1
ipc-2014-agile-tetris-027.pddl,CRASHED:19.3221:1000000000.0:300.0:-1
ipc-2014-agile-tetris-028.pddl,CRASHED:17.8653:1000000000.0:300.0:-1
ipc-2014-agile-tetris-029.pddl,TIMEOUT:302.444:-1.0:300.0:-1
ipc-2014-agile-tetris-031.pddl,CRASHED:31.5442:1000000000.0:300.0:-1
ipc-2014-agile-tetris-032.pddl,CRASHED:22.9815:1000000000.0:300.0:-1
ipc-2014-agile-tetris-033.pddl,CRASHED:28.8476:1000000000.0:300.0:-1
ipc-2014-agile-tetris-034.pddl,CRASHED:28.7426:1000000000.0:300.0:-1
ipc-2014-agile-tetris-035.pddl,CRASHED:35.6216:1000000000.0:300.0:-1
ipc-2014-agile-tetris-036.pddl,CRASHED:33.6019:1000000000.0:300.0:-1
ipc-2014-agile-tetris-037.pddl,CRASHED:21.4587:1000000000.0:300.0:-1
ipc-2014-agile-tetris-038.pddl,CRASHED:27.0859:1000000000.0:300.0:-1
ipc-2014-agile-tetris-039.pddl,CRASHED:31.3102:1000000000.0:300.0:-1
ipc-2014-agile-tetris-040.pddl,CRASHED:27.0499:1000000000.0:300.0:-1
ipc-2014-agile-thoughtful-bootstrap-typed-01.pddl,SAT:0.695894:43.0:300.0:-1
ipc-2014-agile-thoughtful-bootstrap-typed-02.pddl,SAT:0.679896:49.0:300.0:-1
ipc-2014-agile-thoughtful-bootstrap-typed-03.pddl,SAT:0.669898:58.0:300.0:-1
ipc-2014-agile-thoughtful-bootstrap-typed-04.pddl,SAT:0.6509:41.0:300.0:-1
ipc-2014-agile-thoughtful-bootstrap-typed-05.pddl,SAT:0.6499:44.0:300.0:-1
ipc-2014-agile-thoughtful-p11_6_53-typed.pddl,SAT:11.2963:251.0:300.0:-1
ipc-2014-agile-thoughtful-p11_6_59-typed.pddl,SAT:11.4183:252.0:300.0:-1
ipc-2014-agile-thoughtful-p11_6_62-typed.pddl,SAT:12.2271:264.0:300.0:-1
ipc-2014-agile-thoughtful-p13_7_78-typed.pddl,TIMEOUT:303.021:-1.0:300.0:-1
ipc-2014-agile-thoughtful-p13_7_79-typed.pddl,SAT:23.9694:218.0:300.0:-1
ipc-2014-agile-thoughtful-p13_7_86-typed.pddl,SAT:24.7392:238.0:300.0:-1
ipc-2014-agile-thoughtful-target-typed-20.pddl,SAT:24.4753:240.0:300.0:-1
ipc-2014-agile-thoughtful-target-typed-21.pddl,SAT:22.6975:265.0:300.0:-1
ipc-2014-agile-thoughtful-target-typed-22.pddl,SAT:25.6801:248.0:300.0:-1
ipc-2014-agile-thoughtful-target-typed-23.pddl,SAT:22.2826:300.0:300.0:-1
ipc-2014-agile-thoughtful-target-typed-24.pddl,SAT:24.1923:199.0:300.0:-1
ipc-2014-agile-thoughtful-target-typed-25.pddl,SAT:23.9804:262.0:300.0:-1
ipc-2014-agile-thoughtful-target-typed-26.pddl,SAT:23.9024:217.0:300.0:-1
ipc-2014-agile-thoughtful-target-typed-27.pddl,SAT:21.5967:249.0:300.0:-1
ipc-2014-agile-thoughtful-target-typed-28.pddl,SAT:21.6317:251.0:300.0:-1
ipc-2014-agile-transport-01.pddl,SAT:1.22981:3810.0:300.0:-1
ipc-2014-agile-transport-02.pddl,SAT:2.21466:6184.0:300.0:-1
ipc-2014-agile-transport-03.pddl,SAT:1.05884:3743.0:300.0:-1
ipc-2014-agile-transport-04.pddl,SAT:7.06392:10850.0:300.0:-1
ipc-2014-agile-transport-05.pddl,SAT:21.1528:15192.0:300.0:-1
ipc-2014-agile-transport-06.pddl,SAT:6.99594:10850.0:300.0:-1
ipc-2014-agile-transport-07.pddl,SAT:8.13976:9553.0:300.0:-1
ipc-2014-agile-transport-08.pddl,SAT:11.7432:10621.0:300.0:-1
ipc-2014-agile-transport-09.pddl,SAT:8.5527:9553.0:300.0:-1
ipc-2014-agile-transport-10.pddl,SAT:8.69968:10048.0:300.0:-1
ipc-2014-agile-transport-11.pddl,SAT:1.86272:3135.0:300.0:-1
ipc-2014-agile-transport-12.pddl,SAT:2.36564:4243.0:300.0:-1
ipc-2014-agile-transport-13.pddl,SAT:3.67544:5166.0:300.0:-1
ipc-2014-agile-transport-14.pddl,SAT:8.15876:13141.0:300.0:-1
ipc-2014-agile-transport-15.pddl,SAT:19.612:14125.0:300.0:-1
ipc-2014-agile-transport-16.pddl,SAT:10.9883:9618.0:300.0:-1
ipc-2014-agile-transport-17.pddl,SAT:11.3873:11167.0:300.0:-1
ipc-2014-agile-transport-18.pddl,SAT:11.7642:11132.0:300.0:-1
ipc-2014-agile-transport-19.pddl,SAT:7.95379:10489.0:300.0:-1
ipc-2014-agile-transport-20.pddl,SAT:8.32273:7929.0:300.0:-1
ipc-2014-agile-visitall-30.pddl,SAT:5.13022:1626.0:300.0:-1
ipc-2014-agile-visitall-31.pddl,SAT:6.35203:1764.0:300.0:-1
ipc-2014-agile-visitall-32.pddl,SAT:7.96679:1830.0:300.0:-1
ipc-2014-agile-visitall-33.pddl,SAT:10.0855:2018.0:300.0:-1
ipc-2014-agile-visitall-50.pddl,SAT:122.108:4725.0:300.0:-1
ipc-2014-agile-visitall-51.pddl,SAT:137.301:4941.0:300.0:-1
ipc-2014-agile-visitall-52.pddl,SAT:143.7:5288.0:300.0:-1
ipc-2014-agile-visitall-53.pddl,SAT:172.242:5338.0:300.0:-1
ipc-2014-agile-visitall-54.pddl,SAT:197.909:5769.0:300.0:-1
ipc-2014-agile-visitall-55.pddl,SAT:193.306:5918.0:300.0:-1
ipc-2014-agile-visitall-56.pddl,SAT:212.936:6328.0:300.0:-1
ipc-2014-agile-visitall-57.pddl,SAT:251.07:6646.0:300.0:-1
ipc-2014-agile-visitall-58.pddl,TIMEOUT:301.084:-1.0:300.0:-1
ipc-2014-agile-visitall-59.pddl,TIMEOUT:301.081:-1.0:300.0:-1
ipc-2014-agile-visitall-60.pddl,TIMEOUT:301.129:-1.0:300.0:-1
ipc-2014-agile-visitall-61.pddl,TIMEOUT:301.138:-1.0:300.0:-1
ipc-2014-agile-visitall-62.pddl,TIMEOUT:301.124:-1.0:300.0:-1
ipc-2014-agile-visitall-63.pddl,TIMEOUT:301.084:-1.0:300.0:-1
ipc-2014-agile-visitall-64.pddl,TIMEOUT:301.093:-1.0:300.0:-1
ipc-2014-agile-visitall-65.pddl,TIMEOUT:301.095:-1.0:300.0:-1
