instance,ipc-2014-agile-madagascar
ipc-2014-agile-barman-p1-11-4-15.pddl,TIMEOUT:301.091:-1.0:300.0:-1
ipc-2014-agile-barman-p1-11-5-15.pddl,TIMEOUT:301.12:-1.0:300.0:-1
ipc-2014-agile-barman-p1-11-5-16.pddl,TIMEOUT:301.074:-1.0:300.0:-1
ipc-2014-agile-barman-p2-10-4-13.pddl,TIMEOUT:301.044:-1.0:300.0:-1
ipc-2014-agile-barman-p2-11-4-15.pddl,TIMEOUT:301.147:-1.0:300.0:-1
ipc-2014-agile-barman-p2-11-5-15.pddl,TIMEOUT:301.089:-1.0:300.0:-1
ipc-2014-agile-barman-p2-11-5-16.pddl,TIMEOUT:301.109:-1.0:300.0:-1
ipc-2014-agile-barman-p2-11-5-17.pddl,TIMEOUT:301.08:-1.0:300.0:-1
ipc-2014-agile-barman-p3-10-4-13.pddl,TIMEOUT:301.14:-1.0:300.0:-1
ipc-2014-agile-barman-p3-11-4-15.pddl,TIMEOUT:301.123:-1.0:300.0:-1
ipc-2014-agile-barman-p3-11-5-15.pddl,TIMEOUT:301.115:-1.0:300.0:-1
ipc-2014-agile-barman-p3-11-5-16.pddl,TIMEOUT:301.13:-1.0:300.0:-1
ipc-2014-agile-barman-p3-11-5-17.pddl,TIMEOUT:301.111:-1.0:300.0:-1
ipc-2014-agile-barman-p4-11-4-14.pddl,TIMEOUT:301.114:-1.0:300.0:-1
ipc-2014-agile-barman-p4-11-4-15.pddl,TIMEOUT:301.067:-1.0:300.0:-1
ipc-2014-agile-barman-p4-11-5-15.pddl,TIMEOUT:301.079:-1.0:300.0:-1
ipc-2014-agile-barman-p5-10-4-13.pddl,TIMEOUT:301.133:-1.0:300.0:-1
ipc-2014-agile-barman-p5-11-4-15.pddl,TIMEOUT:301.114:-1.0:300.0:-1
ipc-2014-agile-barman-p5-11-5-15.pddl,TIMEOUT:301.081:-1.0:300.0:-1
ipc-2014-agile-barman-p5-11-5-16.pddl,TIMEOUT:301.076:-1.0:300.0:-1
ipc-2014-agile-cavediving-01_easy.pddl,TIMEOUT:301.131:-1.0:300.0:-1
ipc-2014-agile-cavediving-01.pddl,TIMEOUT:301.228:-1.0:300.0:-1
ipc-2014-agile-cavediving-02_easy.pddl,TIMEOUT:301.213:-1.0:300.0:-1
ipc-2014-agile-cavediving-03_easy.pddl,TIMEOUT:301.149:-1.0:300.0:-1
ipc-2014-agile-cavediving-04_easy.pddl,TIMEOUT:301.15:-1.0:300.0:-1
ipc-2014-agile-cavediving-05A_easy.pddl,SAT:2.66159:99.0:300.0:-1
ipc-2014-agile-cavediving-06A_easy.pddl,SAT:2.66059:100.0:300.0:-1
ipc-2014-agile-cavediving-07_easy.pddl,SAT:5.61715:135.0:300.0:-1
ipc-2014-agile-cavediving-08_easy.pddl,SAT:2.65959:95.0:300.0:-1
ipc-2014-agile-cavediving-09_easy.pddl,TIMEOUT:301.336:-1.0:300.0:-1
ipc-2014-agile-cavediving-10_easy.pddl,TIMEOUT:301.379:-1.0:300.0:-1
ipc-2014-agile-cavediving-11_easy.pddl,TIMEOUT:301.328:-1.0:300.0:-1
ipc-2014-agile-cavediving-12_easy.pddl,TIMEOUT:301.42:-1.0:300.0:-1
ipc-2014-agile-cavediving-13_easy.pddl,TIMEOUT:301.174:-1.0:300.0:-1
ipc-2014-agile-cavediving-14_easy.pddl,TIMEOUT:301.177:-1.0:300.0:-1
ipc-2014-agile-cavediving-15_easy.pddl,TIMEOUT:301.139:-1.0:300.0:-1
ipc-2014-agile-cavediving-16_easy.pddl,TIMEOUT:301.131:-1.0:300.0:-1
ipc-2014-agile-cavediving-18A_easy.pddl,SAT:3.19851:139.0:300.0:-1
ipc-2014-agile-cavediving-18_easy.pddl,SAT:0.889863:135.0:300.0:-1
ipc-2014-agile-cavediving-20A_easy.pddl,SAT:10.5584:104.0:300.0:-1
ipc-2014-agile-childsnack-05-2.pddl,SAT:0.882865:62.0:300.0:-1
ipc-2014-agile-childsnack-05.pddl,SAT:0.305952:38.0:300.0:-1
ipc-2014-agile-childsnack-06-2.pddl,SAT:0.501923:41.0:300.0:-1
ipc-2014-agile-childsnack-07-2.pddl,SAT:3.15852:46.0:300.0:-1
ipc-2014-agile-childsnack-08-2.pddl,SAT:1.63275:49.0:300.0:-1
ipc-2014-agile-childsnack-08.pddl,SAT:2.57561:49.0:300.0:-1
ipc-2014-agile-childsnack-09-2.pddl,SAT:14.4388:50.0:300.0:-1
ipc-2014-agile-childsnack-09.pddl,SAT:2.48962:47.0:300.0:-1
ipc-2014-agile-childsnack-10-2.pddl,SAT:13.087:69.0:300.0:-1
ipc-2014-agile-childsnack-10.pddl,SAT:9.02863:52.0:300.0:-1
ipc-2014-agile-childsnack-11-2.pddl,SAT:20.0859:78.0:300.0:-1
ipc-2014-agile-childsnack-11.pddl,SAT:1.46078:55.0:300.0:-1
ipc-2014-agile-childsnack-12.pddl,SAT:18.1362:77.0:300.0:-1
ipc-2014-agile-childsnack-13-2.pddl,SAT:9.8665:64.0:300.0:-1
ipc-2014-agile-childsnack-13.pddl,SAT:11.7352:66.0:300.0:-1
ipc-2014-agile-childsnack-14.pddl,SAT:47.9737:84.0:300.0:-1
ipc-2014-agile-childsnack-15-2.pddl,SAT:69.8934:101.0:300.0:-1
ipc-2014-agile-childsnack-16-2.pddl,SAT:158.6:76.0:300.0:-1
ipc-2014-agile-childsnack-19-2.pddl,CRASHED:40.7818:1000000000.0:300.0:-1
ipc-2014-agile-childsnack-19.pddl,CRASHED:40.4878:1000000000.0:300.0:-1
ipc-2014-agile-citycar-p3-2-2-0-1.pddl,SAT:0.379942:409.0:300.0:-1
ipc-2014-agile-citycar-p3-3-2-0-1.pddl,SAT:0.858869:443.0:300.0:-1
ipc-2014-agile-citycar-p3-4-2-0-1.pddl,TIMEOUT:301.12:-1.0:300.0:-1
ipc-2014-agile-citycar-p3-5-2-0-1.pddl,TIMEOUT:301.146:-1.0:300.0:-1
ipc-2014-agile-citycar-p3-5-2-0-2.pddl,TIMEOUT:301.095:-1.0:300.0:-1
ipc-2014-agile-citycar-p4-2-2-0-1.pddl,SAT:8.63269:987.0:300.0:-1
ipc-2014-agile-citycar-p4-2-3-0-1.pddl,SAT:3.41348:972.0:300.0:-1
ipc-2014-agile-citycar-p4-2-3-0-2.pddl,SAT:1.64675:369.0:300.0:-1
ipc-2014-agile-citycar-p4-3-2-0-1.pddl,TIMEOUT:301.174:-1.0:300.0:-1
ipc-2014-agile-citycar-p4-3-2-0-2.pddl,TIMEOUT:301.154:-1.0:300.0:-1
ipc-2014-agile-citycar-p4-3-3-0-1.pddl,SAT:134.478:1233.0:300.0:-1
ipc-2014-agile-citycar-p4-3-3-0-2.pddl,TIMEOUT:301.13:-1.0:300.0:-1
ipc-2014-agile-citycar-p4-4-2-0-1.pddl,TIMEOUT:301.153:-1.0:300.0:-1
ipc-2014-agile-citycar-p4-4-2-0-2.pddl,TIMEOUT:301.189:-1.0:300.0:-1
ipc-2014-agile-citycar-p4-4-3-0-1.pddl,TIMEOUT:301.18:-1.0:300.0:-1
ipc-2014-agile-citycar-p4-4-3-0-2.pddl,TIMEOUT:301.17:-1.0:300.0:-1
ipc-2014-agile-citycar-p4-5-2-0-1.pddl,TIMEOUT:301.191:-1.0:300.0:-1
ipc-2014-agile-citycar-p4-5-2-0-2.pddl,TIMEOUT:301.221:-1.0:300.0:-1
ipc-2014-agile-citycar-p4-5-3-0-1.pddl,TIMEOUT:301.21:-1.0:300.0:-1
ipc-2014-agile-citycar-p4-5-3-0-2.pddl,TIMEOUT:301.193:-1.0:300.0:-1
ipc-2014-agile-floortile-p01-4-3-2.pddl,SAT:0.017996:132.0:300.0:-1
ipc-2014-agile-floortile-p01-5-4-2.pddl,SAT:0.046992:219.0:300.0:-1
ipc-2014-agile-floortile-p01-5-5-2.pddl,SAT:0.106983:278.0:300.0:-1
ipc-2014-agile-floortile-p01-6-4-2.pddl,SAT:0.056991:239.0:300.0:-1
ipc-2014-agile-floortile-p01-6-5-2.pddl,SAT:0.161974:260.0:300.0:-1
ipc-2014-agile-floortile-p01-6-5-3.pddl,SAT:0.086986:293.0:300.0:-1
ipc-2014-agile-floortile-p02-5-4-2.pddl,SAT:0.042992:228.0:300.0:-1
ipc-2014-agile-floortile-p02-6-4-2.pddl,SAT:0.049991:221.0:300.0:-1
ipc-2014-agile-floortile-p02-6-5-2.pddl,SAT:0.146977:338.0:300.0:-1
ipc-2014-agile-floortile-p02-6-5-3.pddl,SAT:0.080986:280.0:300.0:-1
ipc-2014-agile-floortile-p03-6-4-2.pddl,SAT:0.065989:252.0:300.0:-1
ipc-2014-agile-floortile-p03-6-5-2.pddl,SAT:0.12398:288.0:300.0:-1
ipc-2014-agile-floortile-p03-6-5-3.pddl,SAT:0.073988:293.0:300.0:-1
ipc-2014-agile-floortile-p04-5-4-2.pddl,SAT:0.040993:207.0:300.0:-1
ipc-2014-agile-floortile-p04-5-5-2.pddl,SAT:0.097984:263.0:300.0:-1
ipc-2014-agile-floortile-p04-6-5-2.pddl,SAT:0.096985:338.0:300.0:-1
ipc-2014-agile-floortile-p04-6-5-3.pddl,SAT:0.102984:298.0:300.0:-1
ipc-2014-agile-floortile-p05-4-3-2.pddl,SAT:0.015996:108.0:300.0:-1
ipc-2014-agile-floortile-p05-6-5-2.pddl,SAT:0.119981:248.0:300.0:-1
ipc-2014-agile-floortile-p05-6-5-3.pddl,SAT:0.122981:350.0:300.0:-1
ipc-2014-agile-ged-d-10-1.pddl,TIMEOUT:301.271:-1.0:300.0:-1
ipc-2014-agile-ged-d-10-2.pddl,TIMEOUT:301.258:-1.0:300.0:-1
ipc-2014-agile-ged-d-10-3.pddl,TIMEOUT:301.229:-1.0:300.0:-1
ipc-2014-agile-ged-d-10-4.pddl,TIMEOUT:301.187:-1.0:300.0:-1
ipc-2014-agile-ged-d-10-5.pddl,TIMEOUT:301.275:-1.0:300.0:-1
ipc-2014-agile-ged-d-10-6.pddl,TIMEOUT:301.245:-1.0:300.0:-1
ipc-2014-agile-ged-d-11-1.pddl,TIMEOUT:301.175:-1.0:300.0:-1
ipc-2014-agile-ged-d-11-3.pddl,TIMEOUT:301.148:-1.0:300.0:-1
ipc-2014-agile-ged-d-11-5.pddl,TIMEOUT:301.226:-1.0:300.0:-1
ipc-2014-agile-ged-d-11-6.pddl,TIMEOUT:301.242:-1.0:300.0:-1
ipc-2014-agile-ged-d-12-11.pddl,TIMEOUT:301.31:-1.0:300.0:-1
ipc-2014-agile-ged-d-12-2.pddl,TIMEOUT:301.414:-1.0:300.0:-1
ipc-2014-agile-ged-d-12-3.pddl,TIMEOUT:301.429:-1.0:300.0:-1
ipc-2014-agile-ged-d-12-5.pddl,TIMEOUT:301.411:-1.0:300.0:-1
ipc-2014-agile-ged-d-12-6.pddl,TIMEOUT:301.407:-1.0:300.0:-1
ipc-2014-agile-ged-d-12-7.pddl,TIMEOUT:301.299:-1.0:300.0:-1
ipc-2014-agile-ged-d-12-8.pddl,TIMEOUT:301.426:-1.0:300.0:-1
ipc-2014-agile-ged-d-12-9.pddl,TIMEOUT:301.351:-1.0:300.0:-1
ipc-2014-agile-ged-d-3-6.pddl,TIMEOUT:301.169:-1.0:300.0:-1
ipc-2014-agile-ged-d-9-5.pddl,TIMEOUT:301.195:-1.0:300.0:-1
ipc-2014-agile-hiking-3-4-3.pddl,SAT:1.25381:34.0:300.0:-1
ipc-2014-agile-hiking-3-4-4.pddl,TIMEOUT:301.275:-1.0:300.0:-1
ipc-2014-agile-hiking-3-4-5.pddl,TIMEOUT:301.36:-1.0:300.0:-1
ipc-2014-agile-hiking-3-4-6.pddl,CRASHED:65.761:1000000000.0:300.0:-1
ipc-2014-agile-hiking-3-4-7.pddl,CRASHED:58.1202:1000000000.0:300.0:-1
ipc-2014-agile-hiking-3-4-8.pddl,CRASHED:56.6024:1000000000.0:300.0:-1
ipc-2014-agile-hiking-3-4-9.pddl,CRASHED:60.8857:1000000000.0:300.0:-1
ipc-2014-agile-hiking-4-5-3.pddl,SAT:18.1892:34.0:300.0:-1
ipc-2014-agile-hiking-4-5-4.pddl,CRASHED:44.3013:1000000000.0:300.0:-1
ipc-2014-agile-hiking-4-5-5.pddl,CRASHED:46.211:1000000000.0:300.0:-1
ipc-2014-agile-hiking-4-5-6.pddl,CRASHED:63.5513:1000000000.0:300.0:-1
ipc-2014-agile-hiking-4-5-7.pddl,CRASHED:67.9927:1000000000.0:300.0:-1
ipc-2014-agile-hiking-4-5-8.pddl,CRASHED:81.3726:1000000000.0:300.0:-1
ipc-2014-agile-hiking-4-5-9.pddl,CRASHED:89.0035:1000000000.0:300.0:-1
ipc-2014-agile-hiking-5-6-3.pddl,CRASHED:41.5237:1000000000.0:300.0:-1
ipc-2014-agile-hiking-5-6-4.pddl,CRASHED:47.1248:1000000000.0:300.0:-1
ipc-2014-agile-hiking-5-6-5.pddl,CRASHED:49.6454:1000000000.0:300.0:-1
ipc-2014-agile-hiking-5-6-6.pddl,CRASHED:68.9885:1000000000.0:300.0:-1
ipc-2014-agile-hiking-5-6-7.pddl,CRASHED:104.921:1000000000.0:300.0:-1
ipc-2014-agile-hiking-5-6-8.pddl,CRASHED:162.333:1000000000.0:300.0:-1
ipc-2014-agile-maintenance-1.3.060.180.5-000.pddl,SAT:0.162974:60.0:300.0:-1
ipc-2014-agile-maintenance-1.3.060.180.5-001.pddl,SAT:0.200968:60.0:300.0:-1
ipc-2014-agile-maintenance-1.3.060.180.5-002.pddl,SAT:0.103983:60.0:300.0:-1
ipc-2014-agile-maintenance-1.3.100.300.5-000.pddl,SAT:2.08668:100.0:300.0:-1
ipc-2014-agile-maintenance-1.3.100.300.5-001.pddl,SAT:0.687894:100.0:300.0:-1
ipc-2014-agile-maintenance-1.3.100.300.7-000.pddl,SAT:0.287955:99.0:300.0:-1
ipc-2014-agile-maintenance-1.3.100.300.7-001.pddl,SAT:0.285955:98.0:300.0:-1
ipc-2014-agile-maintenance-1.3.100.300.7-002.pddl,SAT:0.285955:98.0:300.0:-1
ipc-2014-agile-maintenance-1.3.150.500.6-001.pddl,SAT:1.27781:150.0:300.0:-1
ipc-2014-agile-maintenance-1.3.200.500.5-001.pddl,SAT:1.68274:200.0:300.0:-1
ipc-2014-agile-maintenance-1.3.200.500.5-002.pddl,SAT:1.39679:199.0:300.0:-1
ipc-2014-agile-maintenance-1.3.200.700.7-000.pddl,SAT:2.5906:196.0:300.0:-1
ipc-2014-agile-maintenance-1.3.200.700.7-001.pddl,SAT:2.94755:199.0:300.0:-1
ipc-2014-agile-maintenance-1.3.200.700.7-002.pddl,SAT:2.6156:198.0:300.0:-1
ipc-2014-agile-maintenance-1.3.200.900.5-000.pddl,TIMEOUT:301.1:-1.0:300.0:-1
ipc-2014-agile-maintenance-1.3.200.900.5-001.pddl,TIMEOUT:301.063:-1.0:300.0:-1
ipc-2014-agile-maintenance-1.3.200.900.5-002.pddl,TIMEOUT:301.117:-1.0:300.0:-1
ipc-2014-agile-maintenance-1.3.200.900.8-000.pddl,SAT:4.73228:196.0:300.0:-1
ipc-2014-agile-maintenance-1.3.200.900.8-001.pddl,SAT:4.88526:198.0:300.0:-1
ipc-2014-agile-maintenance-1.3.200.900.8-002.pddl,SAT:4.77827:198.0:300.0:-1
ipc-2014-agile-openstacks-p130_2.pddl,CRASHED:75.7895:1000000000.0:300.0:-1
ipc-2014-agile-openstacks-p130_3.pddl,CRASHED:73.8968:1000000000.0:300.0:-1
ipc-2014-agile-openstacks-p150_2.pddl,CRASHED:69.2885:1000000000.0:300.0:-1
ipc-2014-agile-openstacks-p150_3.pddl,CRASHED:96.5023:1000000000.0:300.0:-1
ipc-2014-agile-openstacks-p170_1.pddl,CRASHED:87.6047:1000000000.0:300.0:-1
ipc-2014-agile-openstacks-p170_2.pddl,CRASHED:93.2848:1000000000.0:300.0:-1
ipc-2014-agile-openstacks-p170_3.pddl,CRASHED:128.3:1000000000.0:300.0:-1
ipc-2014-agile-openstacks-p190_1.pddl,CRASHED:115.627:1000000000.0:300.0:-1
ipc-2014-agile-openstacks-p190_2.pddl,CRASHED:118.628:1000000000.0:300.0:-1
ipc-2014-agile-openstacks-p190_3.pddl,CRASHED:168.324:1000000000.0:300.0:-1
ipc-2014-agile-openstacks-p210_1.pddl,CRASHED:136.869:1000000000.0:300.0:-1
ipc-2014-agile-openstacks-p210_2.pddl,CRASHED:143.613:1000000000.0:300.0:-1
ipc-2014-agile-openstacks-p230_1.pddl,CRASHED:184.451:1000000000.0:300.0:-1
ipc-2014-agile-openstacks-p230_2.pddl,CRASHED:203.359:1000000000.0:300.0:-1
ipc-2014-agile-openstacks-p250_1.pddl,CRASHED:249.559:1000000000.0:300.0:-1
ipc-2014-agile-openstacks-p250_2.pddl,CRASHED:264.622:1000000000.0:300.0:-1
ipc-2014-agile-openstacks-p270_1.pddl,TIMEOUT:301.349:-1.0:300.0:-1
ipc-2014-agile-openstacks-p270_2.pddl,TIMEOUT:301.276:-1.0:300.0:-1
ipc-2014-agile-openstacks-p290_1.pddl,TIMEOUT:301.301:-1.0:300.0:-1
ipc-2014-agile-openstacks-p290_2.pddl,TIMEOUT:301.126:-1.0:300.0:-1
ipc-2014-agile-parking-28_2.pddl,CRASHED:218.808:1000000000.0:300.0:-1
ipc-2014-agile-parking-28_3.pddl,CRASHED:224.415:1000000000.0:300.0:-1
ipc-2014-agile-parking-30_1.pddl,CRASHED:248.953:1000000000.0:300.0:-1
ipc-2014-agile-parking-30_2.pddl,CRASHED:237.232:1000000000.0:300.0:-1
ipc-2014-agile-parking-30_3.pddl,CRASHED:247.211:1000000000.0:300.0:-1
ipc-2014-agile-parking-32_1.pddl,TIMEOUT:301.27:-1.0:300.0:-1
ipc-2014-agile-parking-32_2.pddl,TIMEOUT:301.323:-1.0:300.0:-1
ipc-2014-agile-parking-32_3.pddl,TIMEOUT:301.329:-1.0:300.0:-1
ipc-2014-agile-parking-34_1.pddl,TIMEOUT:301.105:-1.0:300.0:-1
ipc-2014-agile-parking-34_2.pddl,TIMEOUT:301.133:-1.0:300.0:-1
ipc-2014-agile-parking-34_3.pddl,TIMEOUT:301.097:-1.0:300.0:-1
ipc-2014-agile-parking-36_1.pddl,TIMEOUT:301.149:-1.0:300.0:-1
ipc-2014-agile-parking-36_2.pddl,TIMEOUT:301.136:-1.0:300.0:-1
ipc-2014-agile-parking-36_3.pddl,TIMEOUT:301.114:-1.0:300.0:-1
ipc-2014-agile-parking-38_1.pddl,TIMEOUT:301.191:-1.0:300.0:-1
ipc-2014-agile-parking-38_2.pddl,TIMEOUT:301.214:-1.0:300.0:-1
ipc-2014-agile-parking-38_3.pddl,TIMEOUT:301.188:-1.0:300.0:-1
ipc-2014-agile-parking-40_1.pddl,TIMEOUT:301.228:-1.0:300.0:-1
ipc-2014-agile-parking-40_2.pddl,TIMEOUT:301.217:-1.0:300.0:-1
ipc-2014-agile-parking-40_3.pddl,TIMEOUT:301.198:-1.0:300.0:-1
ipc-2014-agile-tetris-020.pddl,TIMEOUT:301.279:-1.0:300.0:-1
ipc-2014-agile-tetris-021.pddl,CRASHED:200.518:1000000000.0:300.0:-1
ipc-2014-agile-tetris-022.pddl,CRASHED:185.126:1000000000.0:300.0:-1
ipc-2014-agile-tetris-023.pddl,CRASHED:166.024:1000000000.0:300.0:-1
ipc-2014-agile-tetris-024.pddl,CRASHED:192.612:1000000000.0:300.0:-1
ipc-2014-agile-tetris-025.pddl,TIMEOUT:301.326:-1.0:300.0:-1
ipc-2014-agile-tetris-026.pddl,CRASHED:246.769:1000000000.0:300.0:-1
ipc-2014-agile-tetris-027.pddl,CRASHED:256.621:1000000000.0:300.0:-1
ipc-2014-agile-tetris-028.pddl,CRASHED:219.317:1000000000.0:300.0:-1
ipc-2014-agile-tetris-029.pddl,TIMEOUT:301.343:-1.0:300.0:-1
ipc-2014-agile-tetris-031.pddl,CRASHED:276.271:1000000000.0:300.0:-1
ipc-2014-agile-tetris-032.pddl,CRASHED:271.428:1000000000.0:300.0:-1
ipc-2014-agile-tetris-033.pddl,TIMEOUT:301.447:-1.0:300.0:-1
ipc-2014-agile-tetris-034.pddl,TIMEOUT:301.443:-1.0:300.0:-1
ipc-2014-agile-tetris-035.pddl,CRASHED:270.7:1000000000.0:300.0:-1
ipc-2014-agile-tetris-036.pddl,CRASHED:241.582:1000000000.0:300.0:-1
ipc-2014-agile-tetris-037.pddl,CRASHED:264.38:1000000000.0:300.0:-1
ipc-2014-agile-tetris-038.pddl,TIMEOUT:301.357:-1.0:300.0:-1
ipc-2014-agile-tetris-039.pddl,CRASHED:284.24:1000000000.0:300.0:-1
ipc-2014-agile-tetris-040.pddl,TIMEOUT:301.4:-1.0:300.0:-1
ipc-2014-agile-thoughtful-bootstrap-typed-01.pddl,SAT:10.6744:34.0:300.0:-1
ipc-2014-agile-thoughtful-bootstrap-typed-02.pddl,SAT:5.38218:41.0:300.0:-1
ipc-2014-agile-thoughtful-bootstrap-typed-03.pddl,SAT:4.37933:38.0:300.0:-1
ipc-2014-agile-thoughtful-bootstrap-typed-04.pddl,SAT:2.15567:48.0:300.0:-1
ipc-2014-agile-thoughtful-bootstrap-typed-05.pddl,SAT:20.0519:49.0:300.0:-1
ipc-2014-agile-thoughtful-p11_6_53-typed.pddl,CRASHED:114.229:1000000000.0:300.0:-1
ipc-2014-agile-thoughtful-p11_6_59-typed.pddl,CRASHED:111.784:1000000000.0:300.0:-1
ipc-2014-agile-thoughtful-p11_6_62-typed.pddl,CRASHED:117.605:1000000000.0:300.0:-1
ipc-2014-agile-thoughtful-p13_7_78-typed.pddl,CRASHED:224.518:1000000000.0:300.0:-1
ipc-2014-agile-thoughtful-p13_7_79-typed.pddl,CRASHED:206.241:1000000000.0:300.0:-1
ipc-2014-agile-thoughtful-p13_7_86-typed.pddl,CRASHED:209.039:1000000000.0:300.0:-1
ipc-2014-agile-thoughtful-target-typed-20.pddl,CRASHED:201.934:1000000000.0:300.0:-1
ipc-2014-agile-thoughtful-target-typed-21.pddl,CRASHED:195.041:1000000000.0:300.0:-1
ipc-2014-agile-thoughtful-target-typed-22.pddl,CRASHED:214.847:1000000000.0:300.0:-1
ipc-2014-agile-thoughtful-target-typed-23.pddl,CRASHED:195.116:1000000000.0:300.0:-1
ipc-2014-agile-thoughtful-target-typed-24.pddl,CRASHED:219.683:1000000000.0:300.0:-1
ipc-2014-agile-thoughtful-target-typed-25.pddl,CRASHED:212.999:1000000000.0:300.0:-1
ipc-2014-agile-thoughtful-target-typed-26.pddl,CRASHED:228.872:1000000000.0:300.0:-1
ipc-2014-agile-thoughtful-target-typed-27.pddl,CRASHED:217.976:1000000000.0:300.0:-1
ipc-2014-agile-thoughtful-target-typed-28.pddl,CRASHED:213.939:1000000000.0:300.0:-1
ipc-2014-agile-transport-01.pddl,CRASHED:55.7815:1000000000.0:300.0:-1
ipc-2014-agile-transport-02.pddl,CRASHED:60.9327:1000000000.0:300.0:-1
ipc-2014-agile-transport-03.pddl,CRASHED:64.6352:1000000000.0:300.0:-1
ipc-2014-agile-transport-04.pddl,CRASHED:128.752:1000000000.0:300.0:-1
ipc-2014-agile-transport-05.pddl,CRASHED:119.073:1000000000.0:300.0:-1
ipc-2014-agile-transport-06.pddl,CRASHED:127.863:1000000000.0:300.0:-1
ipc-2014-agile-transport-07.pddl,CRASHED:270.02:1000000000.0:300.0:-1
ipc-2014-agile-transport-08.pddl,TIMEOUT:301.45:-1.0:300.0:-1
ipc-2014-agile-transport-09.pddl,CRASHED:288.672:1000000000.0:300.0:-1
ipc-2014-agile-transport-10.pddl,CRASHED:198.616:1000000000.0:300.0:-1
ipc-2014-agile-transport-11.pddl,CRASHED:63.0324:1000000000.0:300.0:-1
ipc-2014-agile-transport-12.pddl,CRASHED:62.7265:1000000000.0:300.0:-1
ipc-2014-agile-transport-13.pddl,CRASHED:173.421:1000000000.0:300.0:-1
ipc-2014-agile-transport-14.pddl,CRASHED:87.6707:1000000000.0:300.0:-1
ipc-2014-agile-transport-15.pddl,CRASHED:108.975:1000000000.0:300.0:-1
ipc-2014-agile-transport-16.pddl,CRASHED:75.7835:1000000000.0:300.0:-1
ipc-2014-agile-transport-17.pddl,CRASHED:199.626:1000000000.0:300.0:-1
ipc-2014-agile-transport-18.pddl,TIMEOUT:301.422:-1.0:300.0:-1
ipc-2014-agile-transport-19.pddl,TIMEOUT:301.271:-1.0:300.0:-1
ipc-2014-agile-transport-20.pddl,CRASHED:238.035:1000000000.0:300.0:-1
ipc-2014-agile-visitall-30.pddl,TIMEOUT:301.199:-1.0:300.0:-1
ipc-2014-agile-visitall-31.pddl,TIMEOUT:301.201:-1.0:300.0:-1
ipc-2014-agile-visitall-32.pddl,TIMEOUT:301.143:-1.0:300.0:-1
ipc-2014-agile-visitall-33.pddl,TIMEOUT:301.188:-1.0:300.0:-1
ipc-2014-agile-visitall-50.pddl,TIMEOUT:301.09:-1.0:300.0:-1
ipc-2014-agile-visitall-51.pddl,TIMEOUT:301.073:-1.0:300.0:-1
ipc-2014-agile-visitall-52.pddl,TIMEOUT:301.042:-1.0:300.0:-1
ipc-2014-agile-visitall-53.pddl,TIMEOUT:301.058:-1.0:300.0:-1
ipc-2014-agile-visitall-54.pddl,TIMEOUT:301.072:-1.0:300.0:-1
ipc-2014-agile-visitall-55.pddl,TIMEOUT:301.085:-1.0:300.0:-1
ipc-2014-agile-visitall-56.pddl,TIMEOUT:301.084:-1.0:300.0:-1
ipc-2014-agile-visitall-57.pddl,TIMEOUT:301.106:-1.0:300.0:-1
ipc-2014-agile-visitall-58.pddl,TIMEOUT:301.067:-1.0:300.0:-1
ipc-2014-agile-visitall-59.pddl,TIMEOUT:301.039:-1.0:300.0:-1
ipc-2014-agile-visitall-60.pddl,TIMEOUT:301.061:-1.0:300.0:-1
ipc-2014-agile-visitall-61.pddl,TIMEOUT:301.102:-1.0:300.0:-1
ipc-2014-agile-visitall-62.pddl,TIMEOUT:301.042:-1.0:300.0:-1
ipc-2014-agile-visitall-63.pddl,TIMEOUT:301.108:-1.0:300.0:-1
ipc-2014-agile-visitall-64.pddl,TIMEOUT:301.064:-1.0:300.0:-1
ipc-2014-agile-visitall-65.pddl,TIMEOUT:301.042:-1.0:300.0:-1
