instance,ipc-2014-optimal-miplan
ipc-2014-optimal-barman-p433.1.pddl,CRASHED:2.83157:1000000000.0:1800.0:-1
ipc-2014-optimal-barman-p433.2.pddl,CRASHED:2.54661:1000000000.0:1800.0:-1
ipc-2014-optimal-barman-p433.3.pddl,CRASHED:2.52361:1000000000.0:1800.0:-1
ipc-2014-optimal-barman-p435.1.pddl,CRASHED:1780.7:1000000000.0:1800.0:-1
ipc-2014-optimal-barman-p435.2.pddl,CRASHED:1247.49:1000000000.0:1800.0:-1
ipc-2014-optimal-barman-p435.3.pddl,CRASHED:1246.36:1000000000.0:1800.0:-1
ipc-2014-optimal-barman-p443.1.pddl,CRASHED:2.58661:1000000000.0:1800.0:-1
ipc-2014-optimal-barman-p443.2.pddl,CRASHED:3.07753:1000000000.0:1800.0:-1
ipc-2014-optimal-barman-p443.3.pddl,CRASHED:3.01554:1000000000.0:1800.0:-1
ipc-2014-optimal-barman-p536.1.pddl,CRASHED:1785.29:1000000000.0:1800.0:-1
ipc-2014-optimal-barman-p536.2.pddl,CRASHED:1790.12:1000000000.0:1800.0:-1
ipc-2014-optimal-barman-p536.3.pddl,CRASHED:1780.49:1000000000.0:1800.0:-1
ipc-2014-optimal-barman-p638.1.pddl,CRASHED:1780.57:1000000000.0:1800.0:-1
ipc-2014-optimal-barman-p638.2.pddl,CRASHED:1780.38:1000000000.0:1800.0:-1
ipc-2014-optimal-barman-p638.3.pddl,CRASHED:1780.66:1000000000.0:1800.0:-1
ipc-2014-optimal-barman-p739.1.pddl,CRASHED:19.99:1000000000.0:1800.0:-1
ipc-2014-optimal-barman-p739.2.pddl,CRASHED:1781.87:1000000000.0:1800.0:-1
ipc-2014-optimal-barman-p739.3.pddl,CRASHED:1781.85:1000000000.0:1800.0:-1
ipc-2014-optimal-barman-p839.1.pddl,CRASHED:1781.83:1000000000.0:1800.0:-1
ipc-2014-optimal-barman-p839.2.pddl,CRASHED:1782.03:1000000000.0:1800.0:-1
ipc-2014-optimal-cavediving-01.pddl,CRASHED:159.937:1000000000.0:1800.0:-1
ipc-2014-optimal-cavediving-01_easy.pddl,CRASHED:149.145:1000000000.0:1800.0:-1
ipc-2014-optimal-cavediving-02_easy.pddl,CRASHED:149.423:1000000000.0:1800.0:-1
ipc-2014-optimal-cavediving-03_easy.pddl,CRASHED:148.808:1000000000.0:1800.0:-1
ipc-2014-optimal-cavediving-04_easy.pddl,CRASHED:163.783:1000000000.0:1800.0:-1
ipc-2014-optimal-cavediving-05A_easy.pddl,SAT:23.6224:94.0:1800.0:-1
ipc-2014-optimal-cavediving-06A_easy.pddl,SAT:23.5364:95.0:1800.0:-1
ipc-2014-optimal-cavediving-07_easy.pddl,SAT:38.9561:131.0:1800.0:-1
ipc-2014-optimal-cavediving-08_easy.pddl,SAT:23.5734:90.0:1800.0:-1
ipc-2014-optimal-cavediving-09_easy.pddl,CRASHED:301.134:1000000000.0:1800.0:-1
ipc-2014-optimal-cavediving-10_easy.pddl,CRASHED:306.712:1000000000.0:1800.0:-1
ipc-2014-optimal-cavediving-11_easy.pddl,CRASHED:306.921:1000000000.0:1800.0:-1
ipc-2014-optimal-cavediving-12_easy.pddl,CRASHED:308.334:1000000000.0:1800.0:-1
ipc-2014-optimal-cavediving-13_easy.pddl,CRASHED:166.695:1000000000.0:1800.0:-1
ipc-2014-optimal-cavediving-14_easy.pddl,CRASHED:167.869:1000000000.0:1800.0:-1
ipc-2014-optimal-cavediving-15_easy.pddl,CRASHED:161.666:1000000000.0:1800.0:-1
ipc-2014-optimal-cavediving-16_easy.pddl,CRASHED:170.421:1000000000.0:1800.0:-1
ipc-2014-optimal-cavediving-18A_easy.pddl,SAT:71.5131:131.0:1800.0:-1
ipc-2014-optimal-cavediving-18_easy.pddl,CRASHED:137.794:131.0:1800.0:-1
ipc-2014-optimal-cavediving-20A_easy.pddl,SAT:45.6191:98.0:1800.0:-1
ipc-2014-optimal-childsnack-01-2.pddl,CRASHED:1769.84:1000000000.0:1800.0:-1
ipc-2014-optimal-childsnack-01.pddl,CRASHED:1774.53:1000000000.0:1800.0:-1
ipc-2014-optimal-childsnack-02-2.pddl,CRASHED:1775.23:1000000000.0:1800.0:-1
ipc-2014-optimal-childsnack-02.pddl,CRASHED:1776.07:1000000000.0:1800.0:-1
ipc-2014-optimal-childsnack-03-2.pddl,CRASHED:1781.39:1000000000.0:1800.0:-1
ipc-2014-optimal-childsnack-03.pddl,CRASHED:1247.7:1000000000.0:1800.0:-1
ipc-2014-optimal-childsnack-04-2.pddl,CRASHED:1784.48:1000000000.0:1800.0:-1
ipc-2014-optimal-childsnack-04.pddl,CRASHED:1784.63:1000000000.0:1800.0:-1
ipc-2014-optimal-childsnack-05-2.pddl,CRASHED:1781.14:1000000000.0:1800.0:-1
ipc-2014-optimal-childsnack-05.pddl,CRASHED:1781.92:1000000000.0:1800.0:-1
ipc-2014-optimal-childsnack-06-2.pddl,CRASHED:1781.74:1000000000.0:1800.0:-1
ipc-2014-optimal-childsnack-06.pddl,CRASHED:1782.76:1000000000.0:1800.0:-1
ipc-2014-optimal-childsnack-07-2.pddl,CRASHED:1786.55:1000000000.0:1800.0:-1
ipc-2014-optimal-childsnack-07.pddl,CRASHED:1785.6:1000000000.0:1800.0:-1
ipc-2014-optimal-childsnack-08-2.pddl,CRASHED:1783.89:1000000000.0:1800.0:-1
ipc-2014-optimal-childsnack-08.pddl,CRASHED:1389.58:1000000000.0:1800.0:-1
ipc-2014-optimal-childsnack-09-2.pddl,CRASHED:1787.11:1000000000.0:1800.0:-1
ipc-2014-optimal-childsnack-09.pddl,TIMEOUT:1801.0:-1.0:1800.0:-1
ipc-2014-optimal-childsnack-10-2.pddl,CRASHED:1793.33:1000000000.0:1800.0:-1
ipc-2014-optimal-childsnack-10.pddl,CRASHED:1793.98:1000000000.0:1800.0:-1
ipc-2014-optimal-citycar-p2-2-2-1-2.pddl,SAT:8.15576:46.0:1800.0:-1
ipc-2014-optimal-citycar-p2-2-2-2-1.pddl,SAT:13.7319:64.0:1800.0:-1
ipc-2014-optimal-citycar-p2-2-3-1-2.pddl,SAT:10.3524:50.0:1800.0:-1
ipc-2014-optimal-citycar-p2-2-3-2-1.pddl,SAT:10.1615:48.0:1800.0:-1
ipc-2014-optimal-citycar-p2-2-3-2-2.pddl,SAT:10.3444:50.0:1800.0:-1
ipc-2014-optimal-citycar-p2-2-4-1-2.pddl,SAT:13.5309:52.0:1800.0:-1
ipc-2014-optimal-citycar-p2-2-4-2-1.pddl,SAT:13.343:52.0:1800.0:-1
ipc-2014-optimal-citycar-p2-2-5-2-2.pddl,SAT:510.89:76.0:1800.0:-1
ipc-2014-optimal-citycar-p2-2-6-1-1.pddl,SAT:33.9598:58.0:1800.0:-1
ipc-2014-optimal-citycar-p2-2-6-2-2.pddl,SAT:33.7809:58.0:1800.0:-1
ipc-2014-optimal-citycar-p2-3-2-3-1.pddl,SAT:516.78:68.0:1800.0:-1
ipc-2014-optimal-citycar-p2-3-3-3-1.pddl,SAT:518.14:78.0:1800.0:-1
ipc-2014-optimal-citycar-p2-3-4-3-1.pddl,CRASHED:1716.71:1000000000.0:1800.0:-1
ipc-2014-optimal-citycar-p2-3-6-3-2.pddl,CRASHED:1705.77:1000000000.0:1800.0:-1
ipc-2014-optimal-citycar-p3-3-2-2-1.pddl,CRASHED:1717.25:1000000000.0:1800.0:-1
ipc-2014-optimal-citycar-p3-3-2-2-2.pddl,CRASHED:1714.69:1000000000.0:1800.0:-1
ipc-2014-optimal-citycar-p3-3-2-3-1.pddl,SAT:46.135:48.0:1800.0:-1
ipc-2014-optimal-citycar-p3-3-2-3-2.pddl,CRASHED:1716.11:1000000000.0:1800.0:-1
ipc-2014-optimal-citycar-p3-3-3-3-1.pddl,CRASHED:1598.77:1000000000.0:1800.0:-1
ipc-2014-optimal-citycar-p3-3-3-3-2.pddl,CRASHED:1611.22:1000000000.0:1800.0:-1
ipc-2014-optimal-floortile-p01-4-3-2.pddl,SAT:133.265:56.0:1800.0:-1
ipc-2014-optimal-floortile-p01-4-4-2.pddl,SAT:463.47:68.0:1800.0:-1
ipc-2014-optimal-floortile-p01-5-3-2.pddl,CRASHED:389.978:63.0:1800.0:-1
ipc-2014-optimal-floortile-p01-5-4-2.pddl,CRASHED:1775.96:1000000000.0:1800.0:-1
ipc-2014-optimal-floortile-p01-5-5-2.pddl,CRASHED:1779.04:1000000000.0:1800.0:-1
ipc-2014-optimal-floortile-p01-6-4-2.pddl,CRASHED:1348.09:1000000000.0:1800.0:-1
ipc-2014-optimal-floortile-p01-6-5-2.pddl,CRASHED:1792.06:1000000000.0:1800.0:-1
ipc-2014-optimal-floortile-p02-4-4-2.pddl,CRASHED:1449.42:1000000000.0:1800.0:-1
ipc-2014-optimal-floortile-p02-5-3-2.pddl,CRASHED:423.269:65.0:1800.0:-1
ipc-2014-optimal-floortile-p02-5-4-2.pddl,CRASHED:1780.31:1000000000.0:1800.0:-1
ipc-2014-optimal-floortile-p02-5-5-2.pddl,CRASHED:1785.73:1000000000.0:1800.0:-1
ipc-2014-optimal-floortile-p02-6-4-2.pddl,CRASHED:1789.43:1000000000.0:1800.0:-1
ipc-2014-optimal-floortile-p02-6-5-2.pddl,CRASHED:1295.0:1000000000.0:1800.0:-1
ipc-2014-optimal-floortile-p03-4-3-2.pddl,SAT:147.822:56.0:1800.0:-1
ipc-2014-optimal-floortile-p03-4-4-2.pddl,CRASHED:1779.59:1000000000.0:1800.0:-1
ipc-2014-optimal-floortile-p03-5-3-2.pddl,CRASHED:418.41:65.0:1800.0:-1
ipc-2014-optimal-floortile-p03-5-4-2.pddl,CRASHED:1314.84:1000000000.0:1800.0:-1
ipc-2014-optimal-floortile-p03-5-5-2.pddl,CRASHED:1281.26:1000000000.0:1800.0:-1
ipc-2014-optimal-floortile-p03-6-4-2.pddl,CRASHED:1334.0:1000000000.0:1800.0:-1
ipc-2014-optimal-floortile-p03-6-5-2.pddl,CRASHED:1784.83:1000000000.0:1800.0:-1
ipc-2014-optimal-ged-d-1-2.pddl,SAT:1.20581:1.0:1800.0:-1
ipc-2014-optimal-ged-d-1-3.pddl,SAT:6.24705:4.0:1800.0:-1
ipc-2014-optimal-ged-d-1-4.pddl,SAT:1.17382:1.0:1800.0:-1
ipc-2014-optimal-ged-d-1-8.pddl,SAT:25.6111:4.0:1800.0:-1
ipc-2014-optimal-ged-d-2-1.pddl,SAT:1.13883:1.0:1800.0:-1
ipc-2014-optimal-ged-d-2-3.pddl,SAT:1.49677:3.0:1800.0:-1
ipc-2014-optimal-ged-d-2-4.pddl,SAT:1.23681:2.0:1800.0:-1
ipc-2014-optimal-ged-d-2-8.pddl,CRASHED:1306.13:1000000000.0:1800.0:-1
ipc-2014-optimal-ged-d-3-1.pddl,SAT:6.03808:4.0:1800.0:-1
ipc-2014-optimal-ged-d-3-2.pddl,SAT:1.45378:3.0:1800.0:-1
ipc-2014-optimal-ged-d-3-4.pddl,CRASHED:338.421:5.0:1800.0:-1
ipc-2014-optimal-ged-d-4-2.pddl,SAT:1.20082:2.0:1800.0:-1
ipc-2014-optimal-ged-d-4-3.pddl,CRASHED:338.279:5.0:1800.0:-1
ipc-2014-optimal-ged-d-4-8.pddl,CRASHED:1785.2:1000000000.0:1800.0:-1
ipc-2014-optimal-ged-d-7-5.pddl,SAT:25.7951:4.0:1800.0:-1
ipc-2014-optimal-ged-d-7-6.pddl,SAT:7.65983:4.0:1800.0:-1
ipc-2014-optimal-ged-d-8-1.pddl,SAT:26.154:4.0:1800.0:-1
ipc-2014-optimal-ged-d-8-2.pddl,CRASHED:1778.84:1000000000.0:1800.0:-1
ipc-2014-optimal-ged-d-8-4.pddl,CRASHED:1325.55:1000000000.0:1800.0:-1
ipc-2014-optimal-ged-d-8-9.pddl,CRASHED:1783.83:1000000000.0:1800.0:-1
ipc-2014-optimal-hiking-1-2-3.pddl,SAT:1.20182:11.0:1800.0:-1
ipc-2014-optimal-hiking-1-2-4.pddl,SAT:21.0708:17.0:1800.0:-1
ipc-2014-optimal-hiking-1-2-5.pddl,SAT:21.4137:25.0:1800.0:-1
ipc-2014-optimal-hiking-1-2-7.pddl,SAT:25.1032:38.0:1800.0:-1
ipc-2014-optimal-hiking-1-2-8.pddl,SAT:31.9721:45.0:1800.0:-1
ipc-2014-optimal-hiking-2-2-3.pddl,SAT:21.4717:10.0:1800.0:-1
ipc-2014-optimal-hiking-2-2-4.pddl,SAT:59.7999:16.0:1800.0:-1
ipc-2014-optimal-hiking-2-2-5.pddl,SAT:291.158:22.0:1800.0:-1
ipc-2014-optimal-hiking-2-2-6.pddl,CRASHED:1784.01:1000000000.0:1800.0:-1
ipc-2014-optimal-hiking-2-2-7.pddl,CRASHED:1786.67:1000000000.0:1800.0:-1
ipc-2014-optimal-hiking-2-2-8.pddl,CRASHED:1437.62:1000000000.0:1800.0:-1
ipc-2014-optimal-hiking-2-3-4.pddl,SAT:212.691:17.0:1800.0:-1
ipc-2014-optimal-hiking-2-3-5.pddl,SAT:455.535:24.0:1800.0:-1
ipc-2014-optimal-hiking-2-3-6.pddl,CRASHED:1247.79:1000000000.0:1800.0:-1
ipc-2014-optimal-hiking-2-3-7.pddl,CRASHED:1791.02:1000000000.0:1800.0:-1
ipc-2014-optimal-hiking-2-4-3.pddl,SAT:25.0272:10.0:1800.0:-1
ipc-2014-optimal-hiking-2-4-4.pddl,SAT:308.714:17.0:1800.0:-1
ipc-2014-optimal-hiking-2-4-5.pddl,CRASHED:1785.84:1000000000.0:1800.0:-1
ipc-2014-optimal-hiking-2-4-6.pddl,CRASHED:1790.57:1000000000.0:1800.0:-1
ipc-2014-optimal-hiking-2-4-7.pddl,CRASHED:1259.01:1000000000.0:1800.0:-1
ipc-2014-optimal-maintenance-1.3.010.010.1-001.pddl,CRASHED:2.30565:1000000000.0:1800.0:-1
ipc-2014-optimal-maintenance-1.3.010.010.1-002.pddl,CRASHED:2.37264:1000000000.0:1800.0:-1
ipc-2014-optimal-maintenance-1.3.010.010.2-000.pddl,SAT:0.639902:4.0:1800.0:-1
ipc-2014-optimal-maintenance-1.3.010.010.2-001.pddl,SAT:0.636902:7.0:1800.0:-1
ipc-2014-optimal-maintenance-1.3.010.010.2-002.pddl,SAT:0.626903:6.0:1800.0:-1
ipc-2014-optimal-maintenance-1.3.015.020.1-000.pddl,CRASHED:5.39818:1000000000.0:1800.0:-1
ipc-2014-optimal-maintenance-1.3.015.020.1-001.pddl,CRASHED:16.5835:1000000000.0:1800.0:-1
ipc-2014-optimal-maintenance-1.3.015.020.1-002.pddl,CRASHED:24.8662:1000000000.0:1800.0:-1
ipc-2014-optimal-maintenance-1.3.015.020.2-000.pddl,CRASHED:139.936:1000000000.0:1800.0:-1
ipc-2014-optimal-maintenance-1.3.015.020.2-001.pddl,SAT:0.828873:11.0:1800.0:-1
ipc-2014-optimal-maintenance-1.3.015.020.2-002.pddl,SAT:0.764882:9.0:1800.0:-1
ipc-2014-optimal-maintenance-1.3.025.050.1-000.pddl,CRASHED:175.976:1000000000.0:1800.0:-1
ipc-2014-optimal-maintenance-1.3.025.050.1-001.pddl,CRASHED:197.596:1000000000.0:1800.0:-1
ipc-2014-optimal-maintenance-1.3.025.050.1-002.pddl,CRASHED:179.579:1000000000.0:1800.0:-1
ipc-2014-optimal-maintenance-1.3.025.100.1-000.pddl,CRASHED:163.594:1000000000.0:1800.0:-1
ipc-2014-optimal-maintenance-1.3.025.100.1-001.pddl,CRASHED:149.235:1000000000.0:1800.0:-1
ipc-2014-optimal-maintenance-1.3.025.100.1-002.pddl,CRASHED:155.12:1000000000.0:1800.0:-1
ipc-2014-optimal-maintenance-1.3.025.100.2-000.pddl,CRASHED:1062.47:1000000000.0:1800.0:-1
ipc-2014-optimal-maintenance-1.3.025.100.2-001.pddl,CRASHED:1368.74:1000000000.0:1800.0:-1
ipc-2014-optimal-maintenance-1.3.025.100.2-002.pddl,CRASHED:1107.63:1000000000.0:1800.0:-1
ipc-2014-optimal-openstacks-p20_1.pddl,CRASHED:1560.4:3.0:1800.0:-1
ipc-2014-optimal-openstacks-p20_2.pddl,CRASHED:1651.14:4.0:1800.0:-1
ipc-2014-optimal-openstacks-p20_3.pddl,SAT:44.9872:6.0:1800.0:-1
ipc-2014-optimal-openstacks-p25_1.pddl,CRASHED:1780.68:1000000000.0:1800.0:-1
ipc-2014-optimal-openstacks-p25_3.pddl,CRASHED:1782.63:1000000000.0:1800.0:-1
ipc-2014-optimal-openstacks-p30_1.pddl,CRASHED:1781.74:1000000000.0:1800.0:-1
ipc-2014-optimal-openstacks-p30_2.pddl,CRASHED:1780.49:1000000000.0:1800.0:-1
ipc-2014-optimal-openstacks-p30_3.pddl,CRASHED:1781.29:1000000000.0:1800.0:-1
ipc-2014-optimal-openstacks-p35_1.pddl,CRASHED:1264.25:1000000000.0:1800.0:-1
ipc-2014-optimal-openstacks-p35_2.pddl,CRASHED:1781.68:1000000000.0:1800.0:-1
ipc-2014-optimal-openstacks-p35_3.pddl,CRASHED:1781.91:1000000000.0:1800.0:-1
ipc-2014-optimal-openstacks-p40_1.pddl,CRASHED:1265.64:1000000000.0:1800.0:-1
ipc-2014-optimal-openstacks-p40_2.pddl,CRASHED:1782.42:1000000000.0:1800.0:-1
ipc-2014-optimal-openstacks-p40_3.pddl,CRASHED:1780.26:1000000000.0:1800.0:-1
ipc-2014-optimal-openstacks-p45_1.pddl,CRASHED:1790.25:1000000000.0:1800.0:-1
ipc-2014-optimal-openstacks-p45_2.pddl,CRASHED:358.25:1000000000.0:1800.0:-1
ipc-2014-optimal-openstacks-p45_3.pddl,CRASHED:1786.26:1000000000.0:1800.0:-1
ipc-2014-optimal-openstacks-p50_1.pddl,CRASHED:1788.8:1000000000.0:1800.0:-1
ipc-2014-optimal-openstacks-p50_2.pddl,CRASHED:1786.85:1000000000.0:1800.0:-1
ipc-2014-optimal-openstacks-p50_3.pddl,CRASHED:1782.03:1000000000.0:1800.0:-1
ipc-2014-optimal-parking-12_7-01.pddl,SAT:179.152:18.0:1800.0:-1
ipc-2014-optimal-parking-12_7-02.pddl,SAT:182.252:18.0:1800.0:-1
ipc-2014-optimal-parking-12_7-03.pddl,SAT:178.136:17.0:1800.0:-1
ipc-2014-optimal-parking-12_7-04.pddl,SAT:199.951:19.0:1800.0:-1
ipc-2014-optimal-parking-14_8-01.pddl,CRASHED:1789.36:1000000000.0:1800.0:-1
ipc-2014-optimal-parking-14_8-02.pddl,SAT:329.022:22.0:1800.0:-1
ipc-2014-optimal-parking-14_8-03.pddl,SAT:214.337:21.0:1800.0:-1
ipc-2014-optimal-parking-14_8-04.pddl,CRASHED:1370.8:1000000000.0:1800.0:-1
ipc-2014-optimal-parking-16_9-01.pddl,CRASHED:1490.2:1000000000.0:1800.0:-1
ipc-2014-optimal-parking-16_9-02.pddl,CRASHED:1797.39:1000000000.0:1800.0:-1
ipc-2014-optimal-parking-16_9-03.pddl,CRASHED:1794.35:1000000000.0:1800.0:-1
ipc-2014-optimal-parking-16_9-04.pddl,CRASHED:1798.06:1000000000.0:1800.0:-1
ipc-2014-optimal-parking-18_10-01.pddl,CRASHED:1631.21:1000000000.0:1800.0:-1
ipc-2014-optimal-parking-18_10-02.pddl,CRASHED:1633.15:1000000000.0:1800.0:-1
ipc-2014-optimal-parking-18_10-03.pddl,CRASHED:321.64:1000000000.0:1800.0:-1
ipc-2014-optimal-parking-18_10-04.pddl,CRASHED:321.55:1000000000.0:1800.0:-1
ipc-2014-optimal-parking-20_11-01.pddl,CRASHED:1563.97:1000000000.0:1800.0:-1
ipc-2014-optimal-parking-20_11-02.pddl,CRASHED:1556.05:1000000000.0:1800.0:-1
ipc-2014-optimal-parking-20_11-03.pddl,CRASHED:1556.46:1000000000.0:1800.0:-1
ipc-2014-optimal-parking-20_11-04.pddl,CRASHED:322.08:1000000000.0:1800.0:-1
ipc-2014-optimal-tetris-01-10.pddl,CRASHED:517.15:1000000000.0:1800.0:-1
ipc-2014-optimal-tetris-01-04.pddl,CRASHED:506.661:1000000000.0:1800.0:-1
ipc-2014-optimal-tetris-01-06.pddl,SAT:260.247:30.0:1800.0:-1
ipc-2014-optimal-tetris-01-08.pddl,CRASHED:51.5832:36.0:1800.0:-1
ipc-2014-optimal-tetris-02-10.pddl,CRASHED:1759.83:1000000000.0:1800.0:-1
ipc-2014-optimal-tetris-02-04.pddl,SAT:0.925858:10.0:1800.0:-1
ipc-2014-optimal-tetris-02-06.pddl,SAT:55.0566:30.0:1800.0:-1
ipc-2014-optimal-tetris-02-08.pddl,CRASHED:644.61:1000000000.0:1800.0:-1
ipc-2014-optimal-tetris-03-10.pddl,CRASHED:1748.72:1000000000.0:1800.0:-1
ipc-2014-optimal-tetris-03-04.pddl,SAT:22.6935:11.0:1800.0:-1
ipc-2014-optimal-tetris-03-06.pddl,SAT:193.13:21.0:1800.0:-1
ipc-2014-optimal-tetris-03-08.pddl,CRASHED:1753.49:1000000000.0:1800.0:-1
ipc-2014-optimal-tetris-04-10.pddl,CRASHED:515.97:1000000000.0:1800.0:-1
ipc-2014-optimal-tetris-04-04.pddl,CRASHED:198.14:1000000000.0:1800.0:-1
ipc-2014-optimal-tetris-04-06.pddl,SAT:235.048:27.0:1800.0:-1
ipc-2014-optimal-tetris-04-08.pddl,CRASHED:752.91:1000000000.0:1800.0:-1
ipc-2014-optimal-tetris-05-10.pddl,CRASHED:337.83:1000000000.0:1800.0:-1
ipc-2014-optimal-tetris-05-04.pddl,CRASHED:197.34:1000000000.0:1800.0:-1
ipc-2014-optimal-tetris-05-06.pddl,SAT:25.2052:19.0:1800.0:-1
ipc-2014-optimal-tetris-05-08.pddl,CRASHED:518.45:1000000000.0:1800.0:-1
ipc-2014-optimal-tidybot-01.pddl,CRASHED:1707.09:1000000000.0:1800.0:-1
ipc-2014-optimal-tidybot-02.pddl,CRASHED:321.45:35.0:1800.0:-1
ipc-2014-optimal-tidybot-03.pddl,CRASHED:321.15:30.0:1800.0:-1
ipc-2014-optimal-tidybot-04.pddl,CRASHED:322.0:24.0:1800.0:-1
ipc-2014-optimal-tidybot-05.pddl,CRASHED:1711.97:1000000000.0:1800.0:-1
ipc-2014-optimal-tidybot-06.pddl,CRASHED:1704.93:1000000000.0:1800.0:-1
ipc-2014-optimal-tidybot-07.pddl,CRASHED:1708.79:1000000000.0:1800.0:-1
ipc-2014-optimal-tidybot-08.pddl,SAT:67.9197:25.0:1800.0:-1
ipc-2014-optimal-tidybot-09.pddl,CRASHED:1683.31:1000000000.0:1800.0:-1
ipc-2014-optimal-tidybot-10.pddl,CRASHED:1681.19:1000000000.0:1800.0:-1
ipc-2014-optimal-tidybot-11.pddl,SAT:49.5305:29.0:1800.0:-1
ipc-2014-optimal-tidybot-12.pddl,CRASHED:320.66:35.0:1800.0:-1
ipc-2014-optimal-tidybot-13.pddl,CRASHED:320.27:30.0:1800.0:-1
ipc-2014-optimal-tidybot-14.pddl,SAT:50.8373:25.0:1800.0:-1
ipc-2014-optimal-tidybot-15.pddl,CRASHED:1711.02:1000000000.0:1800.0:-1
ipc-2014-optimal-tidybot-16.pddl,CRASHED:1706.38:1000000000.0:1800.0:-1
ipc-2014-optimal-tidybot-17.pddl,CRASHED:1705.9:1000000000.0:1800.0:-1
ipc-2014-optimal-tidybot-18.pddl,CRASHED:1704.22:1000000000.0:1800.0:-1
ipc-2014-optimal-tidybot-19.pddl,CRASHED:1706.21:1000000000.0:1800.0:-1
ipc-2014-optimal-tidybot-20.pddl,CRASHED:1708.93:1000000000.0:1800.0:-1
ipc-2014-optimal-transport-01.pddl,SAT:21.4337:148.0:1800.0:-1
ipc-2014-optimal-transport-02.pddl,SAT:52.0821:191.0:1800.0:-1
ipc-2014-optimal-transport-03.pddl,SAT:71.9681:300.0:1800.0:-1
ipc-2014-optimal-transport-04.pddl,CRASHED:1262.27:1000000000.0:1800.0:-1
ipc-2014-optimal-transport-05.pddl,CRASHED:1788.9:1000000000.0:1800.0:-1
ipc-2014-optimal-transport-06.pddl,CRASHED:1791.8:1000000000.0:1800.0:-1
ipc-2014-optimal-transport-07.pddl,SAT:65.0011:967.0:1800.0:-1
ipc-2014-optimal-transport-08.pddl,CRASHED:499.464:1173.0:1800.0:-1
ipc-2014-optimal-transport-09.pddl,CRASHED:1780.4:1000000000.0:1800.0:-1
ipc-2014-optimal-transport-10.pddl,CRASHED:1782.71:1000000000.0:1800.0:-1
ipc-2014-optimal-transport-11.pddl,CRASHED:1785.63:1000000000.0:1800.0:-1
ipc-2014-optimal-transport-12.pddl,CRASHED:1794.07:1000000000.0:1800.0:-1
ipc-2014-optimal-transport-13.pddl,SAT:32.933:594.0:1800.0:-1
ipc-2014-optimal-transport-14.pddl,SAT:297.099:526.0:1800.0:-1
ipc-2014-optimal-transport-15.pddl,CRASHED:1784.12:1000000000.0:1800.0:-1
ipc-2014-optimal-transport-16.pddl,CRASHED:1787.61:1000000000.0:1800.0:-1
ipc-2014-optimal-transport-17.pddl,CRASHED:1791.64:1000000000.0:1800.0:-1
ipc-2014-optimal-transport-18.pddl,CRASHED:1792.77:1000000000.0:1800.0:-1
ipc-2014-optimal-transport-19.pddl,CRASHED:1547.55:1000000000.0:1800.0:-1
ipc-2014-optimal-transport-20.pddl,CRASHED:1794.07:1000000000.0:1800.0:-1
ipc-2014-optimal-visitall-05-10.pddl,CRASHED:1308.96:1000000000.0:1800.0:-1
ipc-2014-optimal-visitall-05-05.pddl,SAT:4.19336:21.0:1800.0:-1
ipc-2014-optimal-visitall-05-06.pddl,SAT:6.595:25.0:1800.0:-1
ipc-2014-optimal-visitall-05-07.pddl,SAT:115.492:34.0:1800.0:-1
ipc-2014-optimal-visitall-05-08.pddl,CRASHED:639.481:43.0:1800.0:-1
ipc-2014-optimal-visitall-05-09.pddl,CRASHED:1778.9:1000000000.0:1800.0:-1
ipc-2014-optimal-visitall-01-10.pddl,SAT:173.464:99.0:1800.0:-1
ipc-2014-optimal-visitall-01-11.pddl,SAT:173.647:120.0:1800.0:-1
ipc-2014-optimal-visitall-01-12.pddl,SAT:215.725:143.0:1800.0:-1
ipc-2014-optimal-visitall-01-13.pddl,SAT:173.959:168.0:1800.0:-1
ipc-2014-optimal-visitall-01-14.pddl,CRASHED:1779.88:1000000000.0:1800.0:-1
ipc-2014-optimal-visitall-01-15.pddl,CRASHED:1267.47:1000000000.0:1800.0:-1
ipc-2014-optimal-visitall-01-16.pddl,CRASHED:1474.92:1000000000.0:1800.0:-1
ipc-2014-optimal-visitall-01-17.pddl,CRASHED:1773.16:1000000000.0:1800.0:-1
ipc-2014-optimal-visitall-01-18.pddl,CRASHED:1775.72:1000000000.0:1800.0:-1
ipc-2014-optimal-visitall-01-05.pddl,SAT:19.2711:24.0:1800.0:-1
ipc-2014-optimal-visitall-01-06.pddl,SAT:173.426:35.0:1800.0:-1
ipc-2014-optimal-visitall-01-07.pddl,SAT:172.267:48.0:1800.0:-1
ipc-2014-optimal-visitall-01-08.pddl,SAT:173.083:63.0:1800.0:-1
ipc-2014-optimal-visitall-01-09.pddl,SAT:173.72:80.0:1800.0:-1
