instance,ipc-2014-agile-yahsp3
ipc-2014-agile-barman-p1-11-4-15.pddl,TIMEOUT:301.117:-1.0:300.0:-1
ipc-2014-agile-barman-p1-11-5-15.pddl,TIMEOUT:301.1:-1.0:300.0:-1
ipc-2014-agile-barman-p1-11-5-16.pddl,TIMEOUT:301.097:-1.0:300.0:-1
ipc-2014-agile-barman-p2-10-4-13.pddl,TIMEOUT:301.117:-1.0:300.0:-1
ipc-2014-agile-barman-p2-11-4-15.pddl,TIMEOUT:301.122:-1.0:300.0:-1
ipc-2014-agile-barman-p2-11-5-15.pddl,TIMEOUT:301.082:-1.0:300.0:-1
ipc-2014-agile-barman-p2-11-5-16.pddl,TIMEOUT:301.121:-1.0:300.0:-1
ipc-2014-agile-barman-p2-11-5-17.pddl,TIMEOUT:301.079:-1.0:300.0:-1
ipc-2014-agile-barman-p3-10-4-13.pddl,TIMEOUT:301.076:-1.0:300.0:-1
ipc-2014-agile-barman-p3-11-4-15.pddl,TIMEOUT:301.029:-1.0:300.0:-1
ipc-2014-agile-barman-p3-11-5-15.pddl,SAT:102.326:377.0:300.0:-1
ipc-2014-agile-barman-p3-11-5-16.pddl,TIMEOUT:301.04:-1.0:300.0:-1
ipc-2014-agile-barman-p3-11-5-17.pddl,TIMEOUT:301.1:-1.0:300.0:-1
ipc-2014-agile-barman-p4-11-4-14.pddl,TIMEOUT:301.073:-1.0:300.0:-1
ipc-2014-agile-barman-p4-11-4-15.pddl,TIMEOUT:301.063:-1.0:300.0:-1
ipc-2014-agile-barman-p4-11-5-15.pddl,TIMEOUT:301.043:-1.0:300.0:-1
ipc-2014-agile-barman-p5-10-4-13.pddl,TIMEOUT:301.127:-1.0:300.0:-1
ipc-2014-agile-barman-p5-11-4-15.pddl,TIMEOUT:301.077:-1.0:300.0:-1
ipc-2014-agile-barman-p5-11-5-15.pddl,TIMEOUT:301.037:-1.0:300.0:-1
ipc-2014-agile-barman-p5-11-5-16.pddl,TIMEOUT:301.088:-1.0:300.0:-1
ipc-2014-agile-cavediving-01_easy.pddl,CRASHED:0.008997:1000000000.0:300.0:-1
ipc-2014-agile-cavediving-01.pddl,CRASHED:0.008997:1000000000.0:300.0:-1
ipc-2014-agile-cavediving-02_easy.pddl,CRASHED:0.007998:1000000000.0:300.0:-1
ipc-2014-agile-cavediving-03_easy.pddl,CRASHED:0.007998:1000000000.0:300.0:-1
ipc-2014-agile-cavediving-04_easy.pddl,CRASHED:0.007998:1000000000.0:300.0:-1
ipc-2014-agile-cavediving-05A_easy.pddl,CRASHED:0.007998:1000000000.0:300.0:-1
ipc-2014-agile-cavediving-06A_easy.pddl,CRASHED:0.007997:1000000000.0:300.0:-1
ipc-2014-agile-cavediving-07_easy.pddl,CRASHED:0.007998:1000000000.0:300.0:-1
ipc-2014-agile-cavediving-08_easy.pddl,CRASHED:0.007998:1000000000.0:300.0:-1
ipc-2014-agile-cavediving-09_easy.pddl,CRASHED:0.007998:1000000000.0:300.0:-1
ipc-2014-agile-cavediving-10_easy.pddl,CRASHED:0.007998:1000000000.0:300.0:-1
ipc-2014-agile-cavediving-11_easy.pddl,CRASHED:0.007997:1000000000.0:300.0:-1
ipc-2014-agile-cavediving-12_easy.pddl,CRASHED:0.007998:1000000000.0:300.0:-1
ipc-2014-agile-cavediving-13_easy.pddl,CRASHED:0.007998:1000000000.0:300.0:-1
ipc-2014-agile-cavediving-14_easy.pddl,CRASHED:0.007997:1000000000.0:300.0:-1
ipc-2014-agile-cavediving-15_easy.pddl,CRASHED:0.007998:1000000000.0:300.0:-1
ipc-2014-agile-cavediving-16_easy.pddl,CRASHED:0.008998:1000000000.0:300.0:-1
ipc-2014-agile-cavediving-18A_easy.pddl,CRASHED:0.006998:1000000000.0:300.0:-1
ipc-2014-agile-cavediving-18_easy.pddl,CRASHED:0.006998:1000000000.0:300.0:-1
ipc-2014-agile-cavediving-20A_easy.pddl,CRASHED:0.006998:1000000000.0:300.0:-1
ipc-2014-agile-childsnack-05-2.pddl,TIMEOUT:301.186:-1.0:300.0:-1
ipc-2014-agile-childsnack-05.pddl,TIMEOUT:301.191:-1.0:300.0:-1
ipc-2014-agile-childsnack-06-2.pddl,TIMEOUT:301.117:-1.0:300.0:-1
ipc-2014-agile-childsnack-07-2.pddl,TIMEOUT:301.215:-1.0:300.0:-1
ipc-2014-agile-childsnack-08-2.pddl,TIMEOUT:301.118:-1.0:300.0:-1
ipc-2014-agile-childsnack-08.pddl,TIMEOUT:301.102:-1.0:300.0:-1
ipc-2014-agile-childsnack-09-2.pddl,TIMEOUT:301.231:-1.0:300.0:-1
ipc-2014-agile-childsnack-09.pddl,TIMEOUT:301.268:-1.0:300.0:-1
ipc-2014-agile-childsnack-10-2.pddl,TIMEOUT:301.192:-1.0:300.0:-1
ipc-2014-agile-childsnack-10.pddl,TIMEOUT:301.297:-1.0:300.0:-1
ipc-2014-agile-childsnack-11-2.pddl,TIMEOUT:301.154:-1.0:300.0:-1
ipc-2014-agile-childsnack-11.pddl,TIMEOUT:301.387:-1.0:300.0:-1
ipc-2014-agile-childsnack-12.pddl,TIMEOUT:301.215:-1.0:300.0:-1
ipc-2014-agile-childsnack-13-2.pddl,TIMEOUT:301.405:-1.0:300.0:-1
ipc-2014-agile-childsnack-13.pddl,TIMEOUT:301.363:-1.0:300.0:-1
ipc-2014-agile-childsnack-14.pddl,TIMEOUT:301.389:-1.0:300.0:-1
ipc-2014-agile-childsnack-15-2.pddl,TIMEOUT:301.126:-1.0:300.0:-1
ipc-2014-agile-childsnack-16-2.pddl,TIMEOUT:301.193:-1.0:300.0:-1
ipc-2014-agile-childsnack-19-2.pddl,TIMEOUT:301.11:-1.0:300.0:-1
ipc-2014-agile-childsnack-19.pddl,TIMEOUT:301.176:-1.0:300.0:-1
ipc-2014-agile-citycar-p3-2-2-0-1.pddl,CRASHED:0.007998:1000000000.0:300.0:-1
ipc-2014-agile-citycar-p3-3-2-0-1.pddl,CRASHED:0.007998:1000000000.0:300.0:-1
ipc-2014-agile-citycar-p3-4-2-0-1.pddl,CRASHED:0.006998:1000000000.0:300.0:-1
ipc-2014-agile-citycar-p3-5-2-0-1.pddl,CRASHED:0.007997:1000000000.0:300.0:-1
ipc-2014-agile-citycar-p3-5-2-0-2.pddl,CRASHED:0.006998:1000000000.0:300.0:-1
ipc-2014-agile-citycar-p4-2-2-0-1.pddl,CRASHED:0.006998:1000000000.0:300.0:-1
ipc-2014-agile-citycar-p4-2-3-0-1.pddl,CRASHED:0.006998:1000000000.0:300.0:-1
ipc-2014-agile-citycar-p4-2-3-0-2.pddl,CRASHED:0.007998:1000000000.0:300.0:-1
ipc-2014-agile-citycar-p4-3-2-0-1.pddl,CRASHED:0.007998:1000000000.0:300.0:-1
ipc-2014-agile-citycar-p4-3-2-0-2.pddl,CRASHED:0.006998:1000000000.0:300.0:-1
ipc-2014-agile-citycar-p4-3-3-0-1.pddl,CRASHED:0.007998:1000000000.0:300.0:-1
ipc-2014-agile-citycar-p4-3-3-0-2.pddl,CRASHED:0.007998:1000000000.0:300.0:-1
ipc-2014-agile-citycar-p4-4-2-0-1.pddl,CRASHED:0.007998:1000000000.0:300.0:-1
ipc-2014-agile-citycar-p4-4-2-0-2.pddl,CRASHED:0.007997:1000000000.0:300.0:-1
ipc-2014-agile-citycar-p4-4-3-0-1.pddl,CRASHED:0.007998:1000000000.0:300.0:-1
ipc-2014-agile-citycar-p4-4-3-0-2.pddl,CRASHED:0.007998:1000000000.0:300.0:-1
ipc-2014-agile-citycar-p4-5-2-0-1.pddl,CRASHED:0.006998:1000000000.0:300.0:-1
ipc-2014-agile-citycar-p4-5-2-0-2.pddl,CRASHED:0.006998:1000000000.0:300.0:-1
ipc-2014-agile-citycar-p4-5-3-0-1.pddl,CRASHED:0.007998:1000000000.0:300.0:-1
ipc-2014-agile-citycar-p4-5-3-0-2.pddl,CRASHED:0.007998:1000000000.0:300.0:-1
ipc-2014-agile-floortile-p01-4-3-2.pddl,SAT:28.1277:107.0:300.0:-1
ipc-2014-agile-floortile-p01-5-4-2.pddl,TIMEOUT:301.176:-1.0:300.0:-1
ipc-2014-agile-floortile-p01-5-5-2.pddl,TIMEOUT:301.147:-1.0:300.0:-1
ipc-2014-agile-floortile-p01-6-4-2.pddl,TIMEOUT:301.137:-1.0:300.0:-1
ipc-2014-agile-floortile-p01-6-5-2.pddl,TIMEOUT:301.137:-1.0:300.0:-1
ipc-2014-agile-floortile-p01-6-5-3.pddl,TIMEOUT:301.093:-1.0:300.0:-1
ipc-2014-agile-floortile-p02-5-4-2.pddl,TIMEOUT:301.179:-1.0:300.0:-1
ipc-2014-agile-floortile-p02-6-4-2.pddl,TIMEOUT:301.209:-1.0:300.0:-1
ipc-2014-agile-floortile-p02-6-5-2.pddl,TIMEOUT:301.123:-1.0:300.0:-1
ipc-2014-agile-floortile-p02-6-5-3.pddl,TIMEOUT:301.102:-1.0:300.0:-1
ipc-2014-agile-floortile-p03-6-4-2.pddl,TIMEOUT:301.207:-1.0:300.0:-1
ipc-2014-agile-floortile-p03-6-5-2.pddl,TIMEOUT:301.175:-1.0:300.0:-1
ipc-2014-agile-floortile-p03-6-5-3.pddl,TIMEOUT:301.096:-1.0:300.0:-1
ipc-2014-agile-floortile-p04-5-4-2.pddl,TIMEOUT:301.186:-1.0:300.0:-1
ipc-2014-agile-floortile-p04-5-5-2.pddl,TIMEOUT:301.152:-1.0:300.0:-1
ipc-2014-agile-floortile-p04-6-5-2.pddl,TIMEOUT:301.143:-1.0:300.0:-1
ipc-2014-agile-floortile-p04-6-5-3.pddl,TIMEOUT:301.123:-1.0:300.0:-1
ipc-2014-agile-floortile-p05-4-3-2.pddl,SAT:14.8287:101.0:300.0:-1
ipc-2014-agile-floortile-p05-6-5-2.pddl,TIMEOUT:301.128:-1.0:300.0:-1
ipc-2014-agile-floortile-p05-6-5-3.pddl,TIMEOUT:301.202:-1.0:300.0:-1
ipc-2014-agile-ged-d-10-1.pddl,SAT:1.50177:35.0:300.0:-1
ipc-2014-agile-ged-d-10-2.pddl,SAT:1.44578:49.0:300.0:-1
ipc-2014-agile-ged-d-10-3.pddl,SAT:0.956854:58.0:300.0:-1
ipc-2014-agile-ged-d-10-4.pddl,SAT:0.808876:49.0:300.0:-1
ipc-2014-agile-ged-d-10-5.pddl,SAT:0.557914:38.0:300.0:-1
ipc-2014-agile-ged-d-10-6.pddl,SAT:3.59945:113.0:300.0:-1
ipc-2014-agile-ged-d-11-1.pddl,SAT:0.315951:112.0:300.0:-1
ipc-2014-agile-ged-d-11-3.pddl,SAT:1.3328:73.0:300.0:-1
ipc-2014-agile-ged-d-11-5.pddl,SAT:3.98039:78.0:300.0:-1
ipc-2014-agile-ged-d-11-6.pddl,SAT:1.59076:97.0:300.0:-1
ipc-2014-agile-ged-d-12-11.pddl,SAT:3.03254:55.0:300.0:-1
ipc-2014-agile-ged-d-12-2.pddl,SAT:0.58691:148.0:300.0:-1
ipc-2014-agile-ged-d-12-3.pddl,SAT:19.942:57.0:300.0:-1
ipc-2014-agile-ged-d-12-5.pddl,SAT:33.057:233.0:300.0:-1
ipc-2014-agile-ged-d-12-6.pddl,SAT:5.58615:139.0:300.0:-1
ipc-2014-agile-ged-d-12-7.pddl,SAT:18.8761:74.0:300.0:-1
ipc-2014-agile-ged-d-12-8.pddl,SAT:43.1754:199.0:300.0:-1
ipc-2014-agile-ged-d-12-9.pddl,SAT:36.1195:95.0:300.0:-1
ipc-2014-agile-ged-d-3-6.pddl,SAT:0.670897:39.0:300.0:-1
ipc-2014-agile-ged-d-9-5.pddl,SAT:1.75073:163.0:300.0:-1
ipc-2014-agile-hiking-3-4-3.pddl,SAT:0.096985:34.0:300.0:-1
ipc-2014-agile-hiking-3-4-4.pddl,SAT:0.222965:1042.0:300.0:-1
ipc-2014-agile-hiking-3-4-5.pddl,SAT:0.708891:1843.0:300.0:-1
ipc-2014-agile-hiking-3-4-6.pddl,SAT:26.443:1124.0:300.0:-1
ipc-2014-agile-hiking-3-4-7.pddl,SAT:294.978:1912.0:300.0:-1
ipc-2014-agile-hiking-3-4-8.pddl,TIMEOUT:301.103:-1.0:300.0:-1
ipc-2014-agile-hiking-3-4-9.pddl,TIMEOUT:301.117:-1.0:300.0:-1
ipc-2014-agile-hiking-4-5-3.pddl,SAT:0.12598:64.0:300.0:-1
ipc-2014-agile-hiking-4-5-4.pddl,SAT:1.02784:245.0:300.0:-1
ipc-2014-agile-hiking-4-5-5.pddl,SAT:0.929857:779.0:300.0:-1
ipc-2014-agile-hiking-4-5-6.pddl,SAT:25.8811:3640.0:300.0:-1
ipc-2014-agile-hiking-4-5-7.pddl,TIMEOUT:301.14:-1.0:300.0:-1
ipc-2014-agile-hiking-4-5-8.pddl,TIMEOUT:301.043:-1.0:300.0:-1
ipc-2014-agile-hiking-4-5-9.pddl,TIMEOUT:301.074:-1.0:300.0:-1
ipc-2014-agile-hiking-5-6-3.pddl,SAT:0.283956:48.0:300.0:-1
ipc-2014-agile-hiking-5-6-4.pddl,SAT:1.14183:671.0:300.0:-1
ipc-2014-agile-hiking-5-6-5.pddl,SAT:33.8828:1133.0:300.0:-1
ipc-2014-agile-hiking-5-6-6.pddl,SAT:49.9394:3510.0:300.0:-1
ipc-2014-agile-hiking-5-6-7.pddl,SAT:21.2358:4058.0:300.0:-1
ipc-2014-agile-hiking-5-6-8.pddl,TIMEOUT:301.115:-1.0:300.0:-1
ipc-2014-agile-maintenance-1.3.060.180.5-000.pddl,CRASHED:0.007998:1000000000.0:300.0:-1
ipc-2014-agile-maintenance-1.3.060.180.5-001.pddl,CRASHED:0.006998:1000000000.0:300.0:-1
ipc-2014-agile-maintenance-1.3.060.180.5-002.pddl,CRASHED:0.006998:1000000000.0:300.0:-1
ipc-2014-agile-maintenance-1.3.100.300.5-000.pddl,CRASHED:0.006998:1000000000.0:300.0:-1
ipc-2014-agile-maintenance-1.3.100.300.5-001.pddl,CRASHED:0.006998:1000000000.0:300.0:-1
ipc-2014-agile-maintenance-1.3.100.300.7-000.pddl,CRASHED:0.006998:1000000000.0:300.0:-1
ipc-2014-agile-maintenance-1.3.100.300.7-001.pddl,CRASHED:0.006998:1000000000.0:300.0:-1
ipc-2014-agile-maintenance-1.3.100.300.7-002.pddl,CRASHED:0.006998:1000000000.0:300.0:-1
ipc-2014-agile-maintenance-1.3.150.500.6-001.pddl,CRASHED:0.006998:1000000000.0:300.0:-1
ipc-2014-agile-maintenance-1.3.200.500.5-001.pddl,CRASHED:0.007997:1000000000.0:300.0:-1
ipc-2014-agile-maintenance-1.3.200.500.5-002.pddl,CRASHED:0.006998:1000000000.0:300.0:-1
ipc-2014-agile-maintenance-1.3.200.700.7-000.pddl,CRASHED:0.006998:1000000000.0:300.0:-1
ipc-2014-agile-maintenance-1.3.200.700.7-001.pddl,CRASHED:0.006998:1000000000.0:300.0:-1
ipc-2014-agile-maintenance-1.3.200.700.7-002.pddl,CRASHED:0.006998:1000000000.0:300.0:-1
ipc-2014-agile-maintenance-1.3.200.900.5-000.pddl,CRASHED:0.006998:1000000000.0:300.0:-1
ipc-2014-agile-maintenance-1.3.200.900.5-001.pddl,CRASHED:0.006998:1000000000.0:300.0:-1
ipc-2014-agile-maintenance-1.3.200.900.5-002.pddl,CRASHED:0.006998:1000000000.0:300.0:-1
ipc-2014-agile-maintenance-1.3.200.900.8-000.pddl,CRASHED:0.006998:1000000000.0:300.0:-1
ipc-2014-agile-maintenance-1.3.200.900.8-001.pddl,CRASHED:0.007997:1000000000.0:300.0:-1
ipc-2014-agile-maintenance-1.3.200.900.8-002.pddl,CRASHED:0.006998:1000000000.0:300.0:-1
ipc-2014-agile-openstacks-p130_2.pddl,CRASHED:1.01584:1000000000.0:300.0:-1
ipc-2014-agile-openstacks-p130_3.pddl,CRASHED:1.26081:1000000000.0:300.0:-1
ipc-2014-agile-openstacks-p150_2.pddl,CRASHED:1.52677:1000000000.0:300.0:-1
ipc-2014-agile-openstacks-p150_3.pddl,CRASHED:1.91971:1000000000.0:300.0:-1
ipc-2014-agile-openstacks-p170_1.pddl,CRASHED:2.21766:1000000000.0:300.0:-1
ipc-2014-agile-openstacks-p170_2.pddl,CRASHED:2.37664:1000000000.0:300.0:-1
ipc-2014-agile-openstacks-p170_3.pddl,CRASHED:2.75158:1000000000.0:300.0:-1
ipc-2014-agile-openstacks-p190_1.pddl,CRASHED:3.35649:1000000000.0:300.0:-1
ipc-2014-agile-openstacks-p190_2.pddl,CRASHED:3.55146:1000000000.0:300.0:-1
ipc-2014-agile-openstacks-p190_3.pddl,CRASHED:4.02539:1000000000.0:300.0:-1
ipc-2014-agile-openstacks-p210_1.pddl,CRASHED:4.64029:1000000000.0:300.0:-1
ipc-2014-agile-openstacks-p210_2.pddl,CRASHED:4.63629:1000000000.0:300.0:-1
ipc-2014-agile-openstacks-p230_1.pddl,CRASHED:6.23305:1000000000.0:300.0:-1
ipc-2014-agile-openstacks-p230_2.pddl,CRASHED:6.15406:1000000000.0:300.0:-1
ipc-2014-agile-openstacks-p250_1.pddl,CRASHED:8.18775:1000000000.0:300.0:-1
ipc-2014-agile-openstacks-p250_2.pddl,CRASHED:7.93779:1000000000.0:300.0:-1
ipc-2014-agile-openstacks-p270_1.pddl,CRASHED:9.55255:1000000000.0:300.0:-1
ipc-2014-agile-openstacks-p270_2.pddl,CRASHED:9.60554:1000000000.0:300.0:-1
ipc-2014-agile-openstacks-p290_1.pddl,CRASHED:12.1372:1000000000.0:300.0:-1
ipc-2014-agile-openstacks-p290_2.pddl,CRASHED:13.252:1000000000.0:300.0:-1
ipc-2014-agile-parking-28_2.pddl,TIMEOUT:301.042:-1.0:300.0:-1
ipc-2014-agile-parking-28_3.pddl,TIMEOUT:301.03:-1.0:300.0:-1
ipc-2014-agile-parking-30_1.pddl,TIMEOUT:301.078:-1.0:300.0:-1
ipc-2014-agile-parking-30_2.pddl,TIMEOUT:301.087:-1.0:300.0:-1
ipc-2014-agile-parking-30_3.pddl,TIMEOUT:301.065:-1.0:300.0:-1
ipc-2014-agile-parking-32_1.pddl,TIMEOUT:301.054:-1.0:300.0:-1
ipc-2014-agile-parking-32_2.pddl,TIMEOUT:301.105:-1.0:300.0:-1
ipc-2014-agile-parking-32_3.pddl,TIMEOUT:301.118:-1.0:300.0:-1
ipc-2014-agile-parking-34_1.pddl,TIMEOUT:301.028:-1.0:300.0:-1
ipc-2014-agile-parking-34_2.pddl,TIMEOUT:301.082:-1.0:300.0:-1
ipc-2014-agile-parking-34_3.pddl,TIMEOUT:301.029:-1.0:300.0:-1
ipc-2014-agile-parking-36_1.pddl,TIMEOUT:301.084:-1.0:300.0:-1
ipc-2014-agile-parking-36_2.pddl,TIMEOUT:301.129:-1.0:300.0:-1
ipc-2014-agile-parking-36_3.pddl,TIMEOUT:301.134:-1.0:300.0:-1
ipc-2014-agile-parking-38_1.pddl,TIMEOUT:301.112:-1.0:300.0:-1
ipc-2014-agile-parking-38_2.pddl,TIMEOUT:301.078:-1.0:300.0:-1
ipc-2014-agile-parking-38_3.pddl,TIMEOUT:301.057:-1.0:300.0:-1
ipc-2014-agile-parking-40_1.pddl,TIMEOUT:301.085:-1.0:300.0:-1
ipc-2014-agile-parking-40_2.pddl,TIMEOUT:301.122:-1.0:300.0:-1
ipc-2014-agile-parking-40_3.pddl,TIMEOUT:301.075:-1.0:300.0:-1
ipc-2014-agile-tetris-020.pddl,SAT:78.884:83.0:300.0:-1
ipc-2014-agile-tetris-021.pddl,CRASHED:19.0021:1000000000.0:300.0:-1
ipc-2014-agile-tetris-022.pddl,CRASHED:17.7373:1000000000.0:300.0:-1
ipc-2014-agile-tetris-023.pddl,CRASHED:17.7533:1000000000.0:300.0:-1
ipc-2014-agile-tetris-024.pddl,CRASHED:20.5649:1000000000.0:300.0:-1
ipc-2014-agile-tetris-025.pddl,TIMEOUT:301.125:-1.0:300.0:-1
ipc-2014-agile-tetris-026.pddl,CRASHED:27.7648:1000000000.0:300.0:-1
ipc-2014-agile-tetris-027.pddl,CRASHED:22.2476:1000000000.0:300.0:-1
ipc-2014-agile-tetris-028.pddl,CRASHED:20.6999:1000000000.0:300.0:-1
ipc-2014-agile-tetris-029.pddl,TIMEOUT:301.132:-1.0:300.0:-1
ipc-2014-agile-tetris-031.pddl,CRASHED:37.4673:1000000000.0:300.0:-1
ipc-2014-agile-tetris-032.pddl,CRASHED:27.6988:1000000000.0:300.0:-1
ipc-2014-agile-tetris-033.pddl,CRASHED:34.8117:1000000000.0:300.0:-1
ipc-2014-agile-tetris-034.pddl,CRASHED:34.3898:1000000000.0:300.0:-1
ipc-2014-agile-tetris-035.pddl,CRASHED:42.3416:1000000000.0:300.0:-1
ipc-2014-agile-tetris-036.pddl,CRASHED:39.233:1000000000.0:300.0:-1
ipc-2014-agile-tetris-037.pddl,CRASHED:25.7311:1000000000.0:300.0:-1
ipc-2014-agile-tetris-038.pddl,CRASHED:32.1441:1000000000.0:300.0:-1
ipc-2014-agile-tetris-039.pddl,CRASHED:37.5983:1000000000.0:300.0:-1
ipc-2014-agile-tetris-040.pddl,CRASHED:33.194:1000000000.0:300.0:-1
ipc-2014-agile-thoughtful-bootstrap-typed-01.pddl,SAT:0.806876:46.0:300.0:-1
ipc-2014-agile-thoughtful-bootstrap-typed-02.pddl,SAT:0.757884:74.0:300.0:-1
ipc-2014-agile-thoughtful-bootstrap-typed-03.pddl,SAT:0.736887:61.0:300.0:-1
ipc-2014-agile-thoughtful-bootstrap-typed-04.pddl,SAT:0.761883:41.0:300.0:-1
ipc-2014-agile-thoughtful-bootstrap-typed-05.pddl,SAT:0.737887:53.0:300.0:-1
ipc-2014-agile-thoughtful-p11_6_53-typed.pddl,SAT:124.761:288.0:300.0:-1
ipc-2014-agile-thoughtful-p11_6_59-typed.pddl,TIMEOUT:301.075:-1.0:300.0:-1
ipc-2014-agile-thoughtful-p11_6_62-typed.pddl,SAT:13.6419:318.0:300.0:-1
ipc-2014-agile-thoughtful-p13_7_78-typed.pddl,TIMEOUT:301.064:-1.0:300.0:-1
ipc-2014-agile-thoughtful-p13_7_79-typed.pddl,TIMEOUT:301.07:-1.0:300.0:-1
ipc-2014-agile-thoughtful-p13_7_86-typed.pddl,TIMEOUT:301.062:-1.0:300.0:-1
ipc-2014-agile-thoughtful-target-typed-20.pddl,TIMEOUT:301.135:-1.0:300.0:-1
ipc-2014-agile-thoughtful-target-typed-21.pddl,TIMEOUT:301.113:-1.0:300.0:-1
ipc-2014-agile-thoughtful-target-typed-22.pddl,TIMEOUT:301.135:-1.0:300.0:-1
ipc-2014-agile-thoughtful-target-typed-23.pddl,TIMEOUT:301.154:-1.0:300.0:-1
ipc-2014-agile-thoughtful-target-typed-24.pddl,SAT:25.6631:199.0:300.0:-1
ipc-2014-agile-thoughtful-target-typed-25.pddl,TIMEOUT:301.142:-1.0:300.0:-1
ipc-2014-agile-thoughtful-target-typed-26.pddl,TIMEOUT:301.074:-1.0:300.0:-1
ipc-2014-agile-thoughtful-target-typed-27.pddl,SAT:25.5051:230.0:300.0:-1
ipc-2014-agile-thoughtful-target-typed-28.pddl,SAT:39.216:246.0:300.0:-1
ipc-2014-agile-transport-01.pddl,SAT:0.97985:4683.0:300.0:-1
ipc-2014-agile-transport-02.pddl,SAT:1.3278:5361.0:300.0:-1
ipc-2014-agile-transport-03.pddl,SAT:1.00985:4263.0:300.0:-1
ipc-2014-agile-transport-04.pddl,SAT:4.16037:9712.0:300.0:-1
ipc-2014-agile-transport-05.pddl,SAT:7.73882:15500.0:300.0:-1
ipc-2014-agile-transport-06.pddl,SAT:4.18836:9712.0:300.0:-1
ipc-2014-agile-transport-07.pddl,SAT:5.73513:11670.0:300.0:-1
ipc-2014-agile-transport-08.pddl,SAT:8.28874:12502.0:300.0:-1
ipc-2014-agile-transport-09.pddl,SAT:5.72713:11670.0:300.0:-1
ipc-2014-agile-transport-10.pddl,SAT:5.07423:10021.0:300.0:-1
ipc-2014-agile-transport-11.pddl,SAT:1.14382:3491.0:300.0:-1
ipc-2014-agile-transport-12.pddl,SAT:1.57776:5020.0:300.0:-1
ipc-2014-agile-transport-13.pddl,SAT:1.04584:5929.0:300.0:-1
ipc-2014-agile-transport-14.pddl,SAT:4.78927:11687.0:300.0:-1
ipc-2014-agile-transport-15.pddl,SAT:6.28304:12437.0:300.0:-1
ipc-2014-agile-transport-16.pddl,SAT:3.52246:13661.0:300.0:-1
ipc-2014-agile-transport-17.pddl,SAT:5.80512:10606.0:300.0:-1
ipc-2014-agile-transport-18.pddl,SAT:8.29374:12877.0:300.0:-1
ipc-2014-agile-transport-19.pddl,SAT:4.46632:11273.0:300.0:-1
ipc-2014-agile-transport-20.pddl,SAT:6.45702:9041.0:300.0:-1
ipc-2014-agile-visitall-30.pddl,SAT:0.773881:1116.0:300.0:-1
ipc-2014-agile-visitall-31.pddl,SAT:0.932857:1217.0:300.0:-1
ipc-2014-agile-visitall-32.pddl,SAT:1.00285:1230.0:300.0:-1
ipc-2014-agile-visitall-33.pddl,SAT:1.3308:1390.0:300.0:-1
ipc-2014-agile-visitall-50.pddl,SAT:11.9732:2967.0:300.0:-1
ipc-2014-agile-visitall-51.pddl,SAT:12.5351:3051.0:300.0:-1
ipc-2014-agile-visitall-52.pddl,SAT:12.0222:3180.0:300.0:-1
ipc-2014-agile-visitall-53.pddl,SAT:14.2278:3206.0:300.0:-1
ipc-2014-agile-visitall-54.pddl,SAT:15.7866:3349.0:300.0:-1
ipc-2014-agile-visitall-55.pddl,SAT:16.2155:3496.0:300.0:-1
ipc-2014-agile-visitall-56.pddl,SAT:19.841:3634.0:300.0:-1
ipc-2014-agile-visitall-57.pddl,SAT:18.3762:3842.0:300.0:-1
ipc-2014-agile-visitall-58.pddl,SAT:23.5794:3768.0:300.0:-1
ipc-2014-agile-visitall-59.pddl,SAT:25.3971:3964.0:300.0:-1
ipc-2014-agile-visitall-60.pddl,SAT:26.6919:4089.0:300.0:-1
ipc-2014-agile-visitall-61.pddl,SAT:31.2173:4275.0:300.0:-1
ipc-2014-agile-visitall-62.pddl,SAT:35.3276:4279.0:300.0:-1
ipc-2014-agile-visitall-63.pddl,SAT:35.7436:4707.0:300.0:-1
ipc-2014-agile-visitall-64.pddl,SAT:47.5288:4809.0:300.0:-1
ipc-2014-agile-visitall-65.pddl,SAT:46.312:4976.0:300.0:-1
