instance,ipc-2014-optimal-rlazya
ipc-2014-optimal-barman-p433.1.pddl,CRASHED:0.231964:1000000000.0:1800.0:-1
ipc-2014-optimal-barman-p433.2.pddl,CRASHED:0.203968:1000000000.0:1800.0:-1
ipc-2014-optimal-barman-p433.3.pddl,CRASHED:0.268959:1000000000.0:1800.0:-1
ipc-2014-optimal-barman-p435.1.pddl,TIMEOUT:1801.01:-1.0:1800.0:-1
ipc-2014-optimal-barman-p435.2.pddl,TIMEOUT:1801.02:-1.0:1800.0:-1
ipc-2014-optimal-barman-p435.3.pddl,TIMEOUT:1801.04:-1.0:1800.0:-1
ipc-2014-optimal-barman-p443.1.pddl,CRASHED:0.235963:1000000000.0:1800.0:-1
ipc-2014-optimal-barman-p443.2.pddl,CRASHED:0.228964:1000000000.0:1800.0:-1
ipc-2014-optimal-barman-p443.3.pddl,CRASHED:0.262959:1000000000.0:1800.0:-1
ipc-2014-optimal-barman-p536.1.pddl,TIMEOUT:1801.09:-1.0:1800.0:-1
ipc-2014-optimal-barman-p536.2.pddl,TIMEOUT:1801.06:-1.0:1800.0:-1
ipc-2014-optimal-barman-p536.3.pddl,TIMEOUT:1801.04:-1.0:1800.0:-1
ipc-2014-optimal-barman-p638.1.pddl,TIMEOUT:1801.05:-1.0:1800.0:-1
ipc-2014-optimal-barman-p638.2.pddl,TIMEOUT:1801.09:-1.0:1800.0:-1
ipc-2014-optimal-barman-p638.3.pddl,TIMEOUT:1801.07:-1.0:1800.0:-1
ipc-2014-optimal-barman-p739.1.pddl,TIMEOUT:1801.08:-1.0:1800.0:-1
ipc-2014-optimal-barman-p739.2.pddl,TIMEOUT:1801.09:-1.0:1800.0:-1
ipc-2014-optimal-barman-p739.3.pddl,TIMEOUT:1801.02:-1.0:1800.0:-1
ipc-2014-optimal-barman-p839.1.pddl,TIMEOUT:1801.05:-1.0:1800.0:-1
ipc-2014-optimal-barman-p839.2.pddl,TIMEOUT:1801.04:-1.0:1800.0:-1
ipc-2014-optimal-cavediving-01.pddl,TIMEOUT:1801.06:-1.0:1800.0:-1
ipc-2014-optimal-cavediving-01_easy.pddl,TIMEOUT:1801.06:-1.0:1800.0:-1
ipc-2014-optimal-cavediving-02_easy.pddl,TIMEOUT:1801.07:-1.0:1800.0:-1
ipc-2014-optimal-cavediving-03_easy.pddl,TIMEOUT:1801.1:-1.0:1800.0:-1
ipc-2014-optimal-cavediving-04_easy.pddl,TIMEOUT:1801.02:-1.0:1800.0:-1
ipc-2014-optimal-cavediving-05A_easy.pddl,SAT:38.9341:94.0:1800.0:-1
ipc-2014-optimal-cavediving-06A_easy.pddl,SAT:39.0141:95.0:1800.0:-1
ipc-2014-optimal-cavediving-07_easy.pddl,SAT:39.1361:131.0:1800.0:-1
ipc-2014-optimal-cavediving-08_easy.pddl,SAT:39.211:90.0:1800.0:-1
ipc-2014-optimal-cavediving-09_easy.pddl,TIMEOUT:1801.01:-1.0:1800.0:-1
ipc-2014-optimal-cavediving-10_easy.pddl,TIMEOUT:1801.07:-1.0:1800.0:-1
ipc-2014-optimal-cavediving-11_easy.pddl,TIMEOUT:1801.08:-1.0:1800.0:-1
ipc-2014-optimal-cavediving-12_easy.pddl,TIMEOUT:1801.1:-1.0:1800.0:-1
ipc-2014-optimal-cavediving-13_easy.pddl,TIMEOUT:1801.04:-1.0:1800.0:-1
ipc-2014-optimal-cavediving-14_easy.pddl,TIMEOUT:1801.02:-1.0:1800.0:-1
ipc-2014-optimal-cavediving-15_easy.pddl,TIMEOUT:1801.05:-1.0:1800.0:-1
ipc-2014-optimal-cavediving-16_easy.pddl,TIMEOUT:1801.06:-1.0:1800.0:-1
ipc-2014-optimal-cavediving-18A_easy.pddl,SAT:60.9577:131.0:1800.0:-1
ipc-2014-optimal-cavediving-18_easy.pddl,SAT:99.6938:131.0:1800.0:-1
ipc-2014-optimal-cavediving-20A_easy.pddl,SAT:75.6395:98.0:1800.0:-1
ipc-2014-optimal-childsnack-01-2.pddl,CRASHED:1447.93:1000000000.0:1800.0:-1
ipc-2014-optimal-childsnack-01.pddl,CRASHED:1313.53:1000000000.0:1800.0:-1
ipc-2014-optimal-childsnack-02-2.pddl,TIMEOUT:1801.04:-1.0:1800.0:-1
ipc-2014-optimal-childsnack-02.pddl,TIMEOUT:1801.02:-1.0:1800.0:-1
ipc-2014-optimal-childsnack-03-2.pddl,TIMEOUT:1801.06:-1.0:1800.0:-1
ipc-2014-optimal-childsnack-03.pddl,TIMEOUT:1801.09:-1.0:1800.0:-1
ipc-2014-optimal-childsnack-04-2.pddl,TIMEOUT:1801.02:-1.0:1800.0:-1
ipc-2014-optimal-childsnack-04.pddl,TIMEOUT:1801.09:-1.0:1800.0:-1
ipc-2014-optimal-childsnack-05-2.pddl,TIMEOUT:1801.04:-1.0:1800.0:-1
ipc-2014-optimal-childsnack-05.pddl,TIMEOUT:1801.0:-1.0:1800.0:-1
ipc-2014-optimal-childsnack-06-2.pddl,TIMEOUT:1801.08:-1.0:1800.0:-1
ipc-2014-optimal-childsnack-06.pddl,TIMEOUT:1801.06:-1.0:1800.0:-1
ipc-2014-optimal-childsnack-07-2.pddl,TIMEOUT:1801.02:-1.0:1800.0:-1
ipc-2014-optimal-childsnack-07.pddl,TIMEOUT:1801.09:-1.0:1800.0:-1
ipc-2014-optimal-childsnack-08-2.pddl,TIMEOUT:1801.07:-1.0:1800.0:-1
ipc-2014-optimal-childsnack-08.pddl,TIMEOUT:1801.09:-1.0:1800.0:-1
ipc-2014-optimal-childsnack-09-2.pddl,TIMEOUT:1801.06:-1.0:1800.0:-1
ipc-2014-optimal-childsnack-09.pddl,TIMEOUT:1801.06:-1.0:1800.0:-1
ipc-2014-optimal-childsnack-10-2.pddl,TIMEOUT:1801.1:-1.0:1800.0:-1
ipc-2014-optimal-childsnack-10.pddl,TIMEOUT:1801.09:-1.0:1800.0:-1
ipc-2014-optimal-citycar-p2-2-2-1-2.pddl,SAT:0.366944:46.0:1800.0:-1
ipc-2014-optimal-citycar-p2-2-2-2-1.pddl,SAT:1.87771:64.0:1800.0:-1
ipc-2014-optimal-citycar-p2-2-3-1-2.pddl,SAT:0.479926:50.0:1800.0:-1
ipc-2014-optimal-citycar-p2-2-3-2-1.pddl,SAT:0.460929:48.0:1800.0:-1
ipc-2014-optimal-citycar-p2-2-3-2-2.pddl,SAT:0.45193:50.0:1800.0:-1
ipc-2014-optimal-citycar-p2-2-4-1-2.pddl,SAT:0.556914:52.0:1800.0:-1
ipc-2014-optimal-citycar-p2-2-4-2-1.pddl,SAT:0.577911:52.0:1800.0:-1
ipc-2014-optimal-citycar-p2-2-5-2-2.pddl,SAT:74.1287:76.0:1800.0:-1
ipc-2014-optimal-citycar-p2-2-6-1-1.pddl,SAT:2.43563:58.0:1800.0:-1
ipc-2014-optimal-citycar-p2-2-6-2-2.pddl,SAT:1.03384:58.0:1800.0:-1
ipc-2014-optimal-citycar-p2-3-2-3-1.pddl,SAT:10.8234:68.0:1800.0:-1
ipc-2014-optimal-citycar-p2-3-3-3-1.pddl,SAT:49.8164:78.0:1800.0:-1
ipc-2014-optimal-citycar-p2-3-4-3-1.pddl,SAT:189.808:82.0:1800.0:-1
ipc-2014-optimal-citycar-p2-3-6-3-2.pddl,TIMEOUT:1801.1:-1.0:1800.0:-1
ipc-2014-optimal-citycar-p3-3-2-2-1.pddl,SAT:162.45:70.0:1800.0:-1
ipc-2014-optimal-citycar-p3-3-2-2-2.pddl,TIMEOUT:1801.11:-1.0:1800.0:-1
ipc-2014-optimal-citycar-p3-3-2-3-1.pddl,SAT:1.91471:48.0:1800.0:-1
ipc-2014-optimal-citycar-p3-3-2-3-2.pddl,SAT:138.547:70.0:1800.0:-1
ipc-2014-optimal-citycar-p3-3-3-3-1.pddl,TIMEOUT:1801.03:-1.0:1800.0:-1
ipc-2014-optimal-citycar-p3-3-3-3-2.pddl,SAT:531.434:76.0:1800.0:-1
ipc-2014-optimal-floortile-p01-4-3-2.pddl,SAT:50.5693:56.0:1800.0:-1
ipc-2014-optimal-floortile-p01-4-4-2.pddl,TIMEOUT:1801.06:-1.0:1800.0:-1
ipc-2014-optimal-floortile-p01-5-3-2.pddl,SAT:257.081:63.0:1800.0:-1
ipc-2014-optimal-floortile-p01-5-4-2.pddl,TIMEOUT:1801.06:-1.0:1800.0:-1
ipc-2014-optimal-floortile-p01-5-5-2.pddl,TIMEOUT:1801.07:-1.0:1800.0:-1
ipc-2014-optimal-floortile-p01-6-4-2.pddl,TIMEOUT:1801.04:-1.0:1800.0:-1
ipc-2014-optimal-floortile-p01-6-5-2.pddl,TIMEOUT:1801.08:-1.0:1800.0:-1
ipc-2014-optimal-floortile-p02-4-4-2.pddl,TIMEOUT:1801.05:-1.0:1800.0:-1
ipc-2014-optimal-floortile-p02-5-3-2.pddl,SAT:350.295:65.0:1800.0:-1
ipc-2014-optimal-floortile-p02-5-4-2.pddl,TIMEOUT:1801.07:-1.0:1800.0:-1
ipc-2014-optimal-floortile-p02-5-5-2.pddl,TIMEOUT:1801.05:-1.0:1800.0:-1
ipc-2014-optimal-floortile-p02-6-4-2.pddl,TIMEOUT:1801.04:-1.0:1800.0:-1
ipc-2014-optimal-floortile-p02-6-5-2.pddl,TIMEOUT:1801.11:-1.0:1800.0:-1
ipc-2014-optimal-floortile-p03-4-3-2.pddl,SAT:69.8094:56.0:1800.0:-1
ipc-2014-optimal-floortile-p03-4-4-2.pddl,TIMEOUT:1801.09:-1.0:1800.0:-1
ipc-2014-optimal-floortile-p03-5-3-2.pddl,SAT:386.264:65.0:1800.0:-1
ipc-2014-optimal-floortile-p03-5-4-2.pddl,TIMEOUT:1801.07:-1.0:1800.0:-1
ipc-2014-optimal-floortile-p03-5-5-2.pddl,TIMEOUT:1801.03:-1.0:1800.0:-1
ipc-2014-optimal-floortile-p03-6-4-2.pddl,TIMEOUT:1801.03:-1.0:1800.0:-1
ipc-2014-optimal-floortile-p03-6-5-2.pddl,TIMEOUT:1801.09:-1.0:1800.0:-1
ipc-2014-optimal-ged-d-1-2.pddl,SAT:0.514921:1.0:1800.0:-1
ipc-2014-optimal-ged-d-1-3.pddl,SAT:3.60545:4.0:1800.0:-1
ipc-2014-optimal-ged-d-1-4.pddl,SAT:0.546916:1.0:1800.0:-1
ipc-2014-optimal-ged-d-1-8.pddl,SAT:11.2763:4.0:1800.0:-1
ipc-2014-optimal-ged-d-2-1.pddl,SAT:0.532918:1.0:1800.0:-1
ipc-2014-optimal-ged-d-2-3.pddl,SAT:0.787879:3.0:1800.0:-1
ipc-2014-optimal-ged-d-2-4.pddl,SAT:0.636903:2.0:1800.0:-1
ipc-2014-optimal-ged-d-2-8.pddl,CRASHED:906.81:1000000000.0:1800.0:-1
ipc-2014-optimal-ged-d-3-1.pddl,SAT:3.48247:4.0:1800.0:-1
ipc-2014-optimal-ged-d-3-2.pddl,SAT:0.802877:3.0:1800.0:-1
ipc-2014-optimal-ged-d-3-4.pddl,SAT:89.2584:5.0:1800.0:-1
ipc-2014-optimal-ged-d-4-2.pddl,SAT:0.58091:2.0:1800.0:-1
ipc-2014-optimal-ged-d-4-3.pddl,SAT:89.3944:5.0:1800.0:-1
ipc-2014-optimal-ged-d-4-8.pddl,CRASHED:909.3:1000000000.0:1800.0:-1
ipc-2014-optimal-ged-d-7-5.pddl,SAT:10.7154:4.0:1800.0:-1
ipc-2014-optimal-ged-d-7-6.pddl,SAT:3.42548:4.0:1800.0:-1
ipc-2014-optimal-ged-d-8-1.pddl,SAT:10.6544:4.0:1800.0:-1
ipc-2014-optimal-ged-d-8-2.pddl,CRASHED:858.92:1000000000.0:1800.0:-1
ipc-2014-optimal-ged-d-8-4.pddl,CRASHED:885.67:1000000000.0:1800.0:-1
ipc-2014-optimal-ged-d-8-9.pddl,CRASHED:877.25:1000000000.0:1800.0:-1
ipc-2014-optimal-hiking-1-2-3.pddl,SAT:0.245962:11.0:1800.0:-1
ipc-2014-optimal-hiking-1-2-4.pddl,SAT:0.405938:17.0:1800.0:-1
ipc-2014-optimal-hiking-1-2-5.pddl,SAT:1.25281:25.0:1800.0:-1
ipc-2014-optimal-hiking-1-2-7.pddl,SAT:17.5183:38.0:1800.0:-1
ipc-2014-optimal-hiking-1-2-8.pddl,SAT:51.3702:45.0:1800.0:-1
ipc-2014-optimal-hiking-2-2-3.pddl,SAT:1.46478:10.0:1800.0:-1
ipc-2014-optimal-hiking-2-2-4.pddl,SAT:143.906:16.0:1800.0:-1
ipc-2014-optimal-hiking-2-2-5.pddl,TIMEOUT:1801.05:-1.0:1800.0:-1
ipc-2014-optimal-hiking-2-2-6.pddl,TIMEOUT:1801.05:-1.0:1800.0:-1
ipc-2014-optimal-hiking-2-2-7.pddl,TIMEOUT:1801.06:-1.0:1800.0:-1
ipc-2014-optimal-hiking-2-2-8.pddl,TIMEOUT:1801.06:-1.0:1800.0:-1
ipc-2014-optimal-hiking-2-3-4.pddl,SAT:665.941:17.0:1800.0:-1
ipc-2014-optimal-hiking-2-3-5.pddl,TIMEOUT:1801.04:-1.0:1800.0:-1
ipc-2014-optimal-hiking-2-3-6.pddl,TIMEOUT:1801.03:-1.0:1800.0:-1
ipc-2014-optimal-hiking-2-3-7.pddl,TIMEOUT:1801.04:-1.0:1800.0:-1
ipc-2014-optimal-hiking-2-4-3.pddl,SAT:7.27389:10.0:1800.0:-1
ipc-2014-optimal-hiking-2-4-4.pddl,TIMEOUT:1801.04:-1.0:1800.0:-1
ipc-2014-optimal-hiking-2-4-5.pddl,TIMEOUT:1801.05:-1.0:1800.0:-1
ipc-2014-optimal-hiking-2-4-6.pddl,TIMEOUT:1801.04:-1.0:1800.0:-1
ipc-2014-optimal-hiking-2-4-7.pddl,TIMEOUT:1801.04:-1.0:1800.0:-1
ipc-2014-optimal-maintenance-1.3.010.010.1-001.pddl,CRASHED:0.193969:1000000000.0:1800.0:-1
ipc-2014-optimal-maintenance-1.3.010.010.1-002.pddl,CRASHED:0.18597:1000000000.0:1800.0:-1
ipc-2014-optimal-maintenance-1.3.010.010.2-000.pddl,SAT:0.187971:4.0:1800.0:-1
ipc-2014-optimal-maintenance-1.3.010.010.2-001.pddl,SAT:0.164974:7.0:1800.0:-1
ipc-2014-optimal-maintenance-1.3.010.010.2-002.pddl,SAT:0.185971:6.0:1800.0:-1
ipc-2014-optimal-maintenance-1.3.015.020.1-000.pddl,CRASHED:0.199968:1000000000.0:1800.0:-1
ipc-2014-optimal-maintenance-1.3.015.020.1-001.pddl,CRASHED:0.219965:1000000000.0:1800.0:-1
ipc-2014-optimal-maintenance-1.3.015.020.1-002.pddl,CRASHED:0.19197:1000000000.0:1800.0:-1
ipc-2014-optimal-maintenance-1.3.015.020.2-000.pddl,CRASHED:26.46:1000000000.0:1800.0:-1
ipc-2014-optimal-maintenance-1.3.015.020.2-001.pddl,SAT:0.294955:11.0:1800.0:-1
ipc-2014-optimal-maintenance-1.3.015.020.2-002.pddl,SAT:0.176972:9.0:1800.0:-1
ipc-2014-optimal-maintenance-1.3.025.050.1-000.pddl,CRASHED:0.294954:1000000000.0:1800.0:-1
ipc-2014-optimal-maintenance-1.3.025.050.1-001.pddl,CRASHED:0.808876:1000000000.0:1800.0:-1
ipc-2014-optimal-maintenance-1.3.025.050.1-002.pddl,CRASHED:1.48577:1000000000.0:1800.0:-1
ipc-2014-optimal-maintenance-1.3.025.100.1-000.pddl,CRASHED:0.330949:1000000000.0:1800.0:-1
ipc-2014-optimal-maintenance-1.3.025.100.1-001.pddl,CRASHED:0.298954:1000000000.0:1800.0:-1
ipc-2014-optimal-maintenance-1.3.025.100.1-002.pddl,CRASHED:0.302953:1000000000.0:1800.0:-1
ipc-2014-optimal-maintenance-1.3.025.100.2-000.pddl,CRASHED:1776.28:1000000000.0:1800.0:-1
ipc-2014-optimal-maintenance-1.3.025.100.2-001.pddl,CRASHED:1762.92:1000000000.0:1800.0:-1
ipc-2014-optimal-maintenance-1.3.025.100.2-002.pddl,TIMEOUT:1801.09:-1.0:1800.0:-1
ipc-2014-optimal-openstacks-p20_1.pddl,SAT:826.011:3.0:1800.0:-1
ipc-2014-optimal-openstacks-p20_2.pddl,SAT:1139.96:4.0:1800.0:-1
ipc-2014-optimal-openstacks-p20_3.pddl,SAT:35.5976:6.0:1800.0:-1
ipc-2014-optimal-openstacks-p25_1.pddl,TIMEOUT:1801.08:-1.0:1800.0:-1
ipc-2014-optimal-openstacks-p25_3.pddl,TIMEOUT:1801.02:-1.0:1800.0:-1
ipc-2014-optimal-openstacks-p30_1.pddl,TIMEOUT:1801.02:-1.0:1800.0:-1
ipc-2014-optimal-openstacks-p30_2.pddl,TIMEOUT:1801.0:-1.0:1800.0:-1
ipc-2014-optimal-openstacks-p30_3.pddl,TIMEOUT:1801.05:-1.0:1800.0:-1
ipc-2014-optimal-openstacks-p35_1.pddl,TIMEOUT:1801.05:-1.0:1800.0:-1
ipc-2014-optimal-openstacks-p35_2.pddl,TIMEOUT:1801.04:-1.0:1800.0:-1
ipc-2014-optimal-openstacks-p35_3.pddl,TIMEOUT:1801.09:-1.0:1800.0:-1
ipc-2014-optimal-openstacks-p40_1.pddl,TIMEOUT:1801.05:-1.0:1800.0:-1
ipc-2014-optimal-openstacks-p40_2.pddl,TIMEOUT:1801.05:-1.0:1800.0:-1
ipc-2014-optimal-openstacks-p40_3.pddl,TIMEOUT:1801.04:-1.0:1800.0:-1
ipc-2014-optimal-openstacks-p45_1.pddl,TIMEOUT:1801.0:-1.0:1800.0:-1
ipc-2014-optimal-openstacks-p45_2.pddl,TIMEOUT:1801.02:-1.0:1800.0:-1
ipc-2014-optimal-openstacks-p45_3.pddl,TIMEOUT:1801.02:-1.0:1800.0:-1
ipc-2014-optimal-openstacks-p50_1.pddl,TIMEOUT:1801.08:-1.0:1800.0:-1
ipc-2014-optimal-openstacks-p50_2.pddl,TIMEOUT:1801.0:-1.0:1800.0:-1
ipc-2014-optimal-openstacks-p50_3.pddl,TIMEOUT:1801.02:-1.0:1800.0:-1
ipc-2014-optimal-parking-12_7-01.pddl,SAT:221.469:18.0:1800.0:-1
ipc-2014-optimal-parking-12_7-02.pddl,SAT:463.969:18.0:1800.0:-1
ipc-2014-optimal-parking-12_7-03.pddl,SAT:102.338:17.0:1800.0:-1
ipc-2014-optimal-parking-12_7-04.pddl,SAT:1423.48:19.0:1800.0:-1
ipc-2014-optimal-parking-14_8-01.pddl,TIMEOUT:1801.01:-1.0:1800.0:-1
ipc-2014-optimal-parking-14_8-02.pddl,TIMEOUT:1801.09:-1.0:1800.0:-1
ipc-2014-optimal-parking-14_8-03.pddl,TIMEOUT:1801.02:-1.0:1800.0:-1
ipc-2014-optimal-parking-14_8-04.pddl,TIMEOUT:1801.04:-1.0:1800.0:-1
ipc-2014-optimal-parking-16_9-01.pddl,TIMEOUT:1801.04:-1.0:1800.0:-1
ipc-2014-optimal-parking-16_9-02.pddl,TIMEOUT:1801.03:-1.0:1800.0:-1
ipc-2014-optimal-parking-16_9-03.pddl,TIMEOUT:1801.09:-1.0:1800.0:-1
ipc-2014-optimal-parking-16_9-04.pddl,TIMEOUT:1801.04:-1.0:1800.0:-1
ipc-2014-optimal-parking-18_10-01.pddl,TIMEOUT:1801.03:-1.0:1800.0:-1
ipc-2014-optimal-parking-18_10-02.pddl,TIMEOUT:1801.07:-1.0:1800.0:-1
ipc-2014-optimal-parking-18_10-03.pddl,TIMEOUT:1801.08:-1.0:1800.0:-1
ipc-2014-optimal-parking-18_10-04.pddl,TIMEOUT:1801.05:-1.0:1800.0:-1
ipc-2014-optimal-parking-20_11-01.pddl,TIMEOUT:1801.06:-1.0:1800.0:-1
ipc-2014-optimal-parking-20_11-02.pddl,TIMEOUT:1801.06:-1.0:1800.0:-1
ipc-2014-optimal-parking-20_11-03.pddl,TIMEOUT:1801.05:-1.0:1800.0:-1
ipc-2014-optimal-parking-20_11-04.pddl,TIMEOUT:1801.07:-1.0:1800.0:-1
ipc-2014-optimal-tetris-01-10.pddl,TIMEOUT:1801.03:-1.0:1800.0:-1
ipc-2014-optimal-tetris-01-04.pddl,CRASHED:61.6526:1000000000.0:1800.0:-1
ipc-2014-optimal-tetris-01-06.pddl,TIMEOUT:1801.01:-1.0:1800.0:-1
ipc-2014-optimal-tetris-01-08.pddl,SAT:692.91:36.0:1800.0:-1
ipc-2014-optimal-tetris-02-10.pddl,TIMEOUT:1801.1:-1.0:1800.0:-1
ipc-2014-optimal-tetris-02-04.pddl,SAT:2.02669:10.0:1800.0:-1
ipc-2014-optimal-tetris-02-06.pddl,SAT:407.579:30.0:1800.0:-1
ipc-2014-optimal-tetris-02-08.pddl,TIMEOUT:1801.02:-1.0:1800.0:-1
ipc-2014-optimal-tetris-03-10.pddl,TIMEOUT:1801.01:-1.0:1800.0:-1
ipc-2014-optimal-tetris-03-04.pddl,SAT:2.75658:11.0:1800.0:-1
ipc-2014-optimal-tetris-03-06.pddl,SAT:695.337:21.0:1800.0:-1
ipc-2014-optimal-tetris-03-08.pddl,TIMEOUT:1801.07:-1.0:1800.0:-1
ipc-2014-optimal-tetris-04-10.pddl,TIMEOUT:1801.05:-1.0:1800.0:-1
ipc-2014-optimal-tetris-04-04.pddl,CRASHED:13.8179:1000000000.0:1800.0:-1
ipc-2014-optimal-tetris-04-06.pddl,TIMEOUT:1801.07:-1.0:1800.0:-1
ipc-2014-optimal-tetris-04-08.pddl,TIMEOUT:1801.04:-1.0:1800.0:-1
ipc-2014-optimal-tetris-05-10.pddl,TIMEOUT:1801.06:-1.0:1800.0:-1
ipc-2014-optimal-tetris-05-04.pddl,CRASHED:53.9548:1000000000.0:1800.0:-1
ipc-2014-optimal-tetris-05-06.pddl,SAT:12.5241:19.0:1800.0:-1
ipc-2014-optimal-tetris-05-08.pddl,TIMEOUT:1801.03:-1.0:1800.0:-1
ipc-2014-optimal-tidybot-01.pddl,TIMEOUT:1801.01:-1.0:1800.0:-1
ipc-2014-optimal-tidybot-02.pddl,SAT:444.362:35.0:1800.0:-1
ipc-2014-optimal-tidybot-03.pddl,SAT:367.628:30.0:1800.0:-1
ipc-2014-optimal-tidybot-04.pddl,SAT:292.586:24.0:1800.0:-1
ipc-2014-optimal-tidybot-05.pddl,TIMEOUT:1801.06:-1.0:1800.0:-1
ipc-2014-optimal-tidybot-06.pddl,TIMEOUT:1801.02:-1.0:1800.0:-1
ipc-2014-optimal-tidybot-07.pddl,TIMEOUT:1801.02:-1.0:1800.0:-1
ipc-2014-optimal-tidybot-08.pddl,SAT:472.442:25.0:1800.0:-1
ipc-2014-optimal-tidybot-09.pddl,TIMEOUT:1801.04:-1.0:1800.0:-1
ipc-2014-optimal-tidybot-10.pddl,TIMEOUT:1801.07:-1.0:1800.0:-1
ipc-2014-optimal-tidybot-11.pddl,SAT:266.907:29.0:1800.0:-1
ipc-2014-optimal-tidybot-12.pddl,TIMEOUT:1801.07:-1.0:1800.0:-1
ipc-2014-optimal-tidybot-13.pddl,SAT:751.986:30.0:1800.0:-1
ipc-2014-optimal-tidybot-14.pddl,SAT:97.0512:25.0:1800.0:-1
ipc-2014-optimal-tidybot-15.pddl,TIMEOUT:1801.01:-1.0:1800.0:-1
ipc-2014-optimal-tidybot-16.pddl,TIMEOUT:1801.04:-1.0:1800.0:-1
ipc-2014-optimal-tidybot-17.pddl,TIMEOUT:1801.05:-1.0:1800.0:-1
ipc-2014-optimal-tidybot-18.pddl,TIMEOUT:1801.03:-1.0:1800.0:-1
ipc-2014-optimal-tidybot-19.pddl,TIMEOUT:1801.11:-1.0:1800.0:-1
ipc-2014-optimal-tidybot-20.pddl,TIMEOUT:1801.04:-1.0:1800.0:-1
ipc-2014-optimal-transport-01.pddl,SAT:0.462928:148.0:1800.0:-1
ipc-2014-optimal-transport-02.pddl,SAT:19.879:191.0:1800.0:-1
ipc-2014-optimal-transport-03.pddl,SAT:81.1117:300.0:1800.0:-1
ipc-2014-optimal-transport-04.pddl,TIMEOUT:1801.02:-1.0:1800.0:-1
ipc-2014-optimal-transport-05.pddl,TIMEOUT:1801.07:-1.0:1800.0:-1
ipc-2014-optimal-transport-06.pddl,TIMEOUT:1801.07:-1.0:1800.0:-1
ipc-2014-optimal-transport-07.pddl,SAT:278.18:967.0:1800.0:-1
ipc-2014-optimal-transport-08.pddl,TIMEOUT:1801.02:-1.0:1800.0:-1
ipc-2014-optimal-transport-09.pddl,TIMEOUT:1801.07:-1.0:1800.0:-1
ipc-2014-optimal-transport-10.pddl,TIMEOUT:1801.02:-1.0:1800.0:-1
ipc-2014-optimal-transport-11.pddl,TIMEOUT:1801.09:-1.0:1800.0:-1
ipc-2014-optimal-transport-12.pddl,TIMEOUT:1801.08:-1.0:1800.0:-1
ipc-2014-optimal-transport-13.pddl,SAT:7.09492:594.0:1800.0:-1
ipc-2014-optimal-transport-14.pddl,SAT:293.112:526.0:1800.0:-1
ipc-2014-optimal-transport-15.pddl,TIMEOUT:1801.1:-1.0:1800.0:-1
ipc-2014-optimal-transport-16.pddl,TIMEOUT:1801.02:-1.0:1800.0:-1
ipc-2014-optimal-transport-17.pddl,TIMEOUT:1801.13:-1.0:1800.0:-1
ipc-2014-optimal-transport-18.pddl,TIMEOUT:1801.1:-1.0:1800.0:-1
ipc-2014-optimal-transport-19.pddl,TIMEOUT:1801.09:-1.0:1800.0:-1
ipc-2014-optimal-transport-20.pddl,TIMEOUT:1801.1:-1.0:1800.0:-1
ipc-2014-optimal-visitall-05-10.pddl,TIMEOUT:1801.06:-1.0:1800.0:-1
ipc-2014-optimal-visitall-05-05.pddl,SAT:0.686895:21.0:1800.0:-1
ipc-2014-optimal-visitall-05-06.pddl,SAT:1.16682:25.0:1800.0:-1
ipc-2014-optimal-visitall-05-07.pddl,SAT:28.3837:34.0:1800.0:-1
ipc-2014-optimal-visitall-05-08.pddl,SAT:211.698:43.0:1800.0:-1
ipc-2014-optimal-visitall-05-09.pddl,TIMEOUT:1801.01:-1.0:1800.0:-1
ipc-2014-optimal-visitall-01-10.pddl,TIMEOUT:1801.06:-1.0:1800.0:-1
ipc-2014-optimal-visitall-01-11.pddl,TIMEOUT:1801.07:-1.0:1800.0:-1
ipc-2014-optimal-visitall-01-12.pddl,TIMEOUT:1801.01:-1.0:1800.0:-1
ipc-2014-optimal-visitall-01-13.pddl,TIMEOUT:1801.07:-1.0:1800.0:-1
ipc-2014-optimal-visitall-01-14.pddl,TIMEOUT:1801.05:-1.0:1800.0:-1
ipc-2014-optimal-visitall-01-15.pddl,TIMEOUT:1801.06:-1.0:1800.0:-1
ipc-2014-optimal-visitall-01-16.pddl,TIMEOUT:1801.06:-1.0:1800.0:-1
ipc-2014-optimal-visitall-01-17.pddl,TIMEOUT:1801.07:-1.0:1800.0:-1
ipc-2014-optimal-visitall-01-18.pddl,TIMEOUT:1801.03:-1.0:1800.0:-1
ipc-2014-optimal-visitall-01-05.pddl,SAT:5.2842:24.0:1800.0:-1
ipc-2014-optimal-visitall-01-06.pddl,TIMEOUT:1801.05:-1.0:1800.0:-1
ipc-2014-optimal-visitall-01-07.pddl,TIMEOUT:1801.04:-1.0:1800.0:-1
ipc-2014-optimal-visitall-01-08.pddl,TIMEOUT:1801.09:-1.0:1800.0:-1
ipc-2014-optimal-visitall-01-09.pddl,TIMEOUT:1801.08:-1.0:1800.0:-1
