instance,ipc-2014-optimal-dpmplan
ipc-2014-optimal-barman-p433.1.pddl,CRASHED:3.11652:1000000000.0:1800.0:-1
ipc-2014-optimal-barman-p433.2.pddl,CRASHED:3.11253:1000000000.0:1800.0:-1
ipc-2014-optimal-barman-p433.3.pddl,CRASHED:5.33519:1000000000.0:1800.0:-1
ipc-2014-optimal-barman-p435.1.pddl,CRASHED:59.32:1000000000.0:1800.0:-1
ipc-2014-optimal-barman-p435.2.pddl,CRASHED:58.61:1000000000.0:1800.0:-1
ipc-2014-optimal-barman-p435.3.pddl,TIMEOUT:1801.0:-1.0:1800.0:-1
ipc-2014-optimal-barman-p443.1.pddl,CRASHED:3.06253:1000000000.0:1800.0:-1
ipc-2014-optimal-barman-p443.2.pddl,CRASHED:3.07553:1000000000.0:1800.0:-1
ipc-2014-optimal-barman-p443.3.pddl,CRASHED:3.11652:1000000000.0:1800.0:-1
ipc-2014-optimal-barman-p536.1.pddl,CRASHED:1298.26:1000000000.0:1800.0:-1
ipc-2014-optimal-barman-p536.2.pddl,CRASHED:59.35:1000000000.0:1800.0:-1
ipc-2014-optimal-barman-p536.3.pddl,CRASHED:59.2:1000000000.0:1800.0:-1
ipc-2014-optimal-barman-p638.1.pddl,CRASHED:59.23:1000000000.0:1800.0:-1
ipc-2014-optimal-barman-p638.2.pddl,CRASHED:58.43:1000000000.0:1800.0:-1
ipc-2014-optimal-barman-p638.3.pddl,CRASHED:59.52:1000000000.0:1800.0:-1
ipc-2014-optimal-barman-p739.1.pddl,CRASHED:1296.07:1000000000.0:1800.0:-1
ipc-2014-optimal-barman-p739.2.pddl,CRASHED:1775.93:1000000000.0:1800.0:-1
ipc-2014-optimal-barman-p739.3.pddl,CRASHED:59.42:1000000000.0:1800.0:-1
ipc-2014-optimal-barman-p839.1.pddl,CRASHED:1296.86:1000000000.0:1800.0:-1
ipc-2014-optimal-barman-p839.2.pddl,CRASHED:1295.85:1000000000.0:1800.0:-1
ipc-2014-optimal-cavediving-01.pddl,CRASHED:158.168:1000000000.0:1800.0:-1
ipc-2014-optimal-cavediving-01_easy.pddl,CRASHED:146.915:1000000000.0:1800.0:-1
ipc-2014-optimal-cavediving-02_easy.pddl,CRASHED:147.127:1000000000.0:1800.0:-1
ipc-2014-optimal-cavediving-03_easy.pddl,CRASHED:144.913:1000000000.0:1800.0:-1
ipc-2014-optimal-cavediving-04_easy.pddl,CRASHED:159.802:1000000000.0:1800.0:-1
ipc-2014-optimal-cavediving-05A_easy.pddl,SAT:25.2102:94.0:1800.0:-1
ipc-2014-optimal-cavediving-06A_easy.pddl,SAT:23.7184:95.0:1800.0:-1
ipc-2014-optimal-cavediving-07_easy.pddl,SAT:38.2112:131.0:1800.0:-1
ipc-2014-optimal-cavediving-08_easy.pddl,SAT:23.5354:90.0:1800.0:-1
ipc-2014-optimal-cavediving-09_easy.pddl,CRASHED:1.52588e-05:1000000000.0:1800.0:-1
ipc-2014-optimal-cavediving-10_easy.pddl,CRASHED:309.788:1000000000.0:1800.0:-1
ipc-2014-optimal-cavediving-11_easy.pddl,CRASHED:309.991:1000000000.0:1800.0:-1
ipc-2014-optimal-cavediving-12_easy.pddl,CRASHED:310.972:1000000000.0:1800.0:-1
ipc-2014-optimal-cavediving-13_easy.pddl,CRASHED:164.849:1000000000.0:1800.0:-1
ipc-2014-optimal-cavediving-14_easy.pddl,CRASHED:165.18:1000000000.0:1800.0:-1
ipc-2014-optimal-cavediving-15_easy.pddl,CRASHED:154.318:1000000000.0:1800.0:-1
ipc-2014-optimal-cavediving-16_easy.pddl,CRASHED:163.056:1000000000.0:1800.0:-1
ipc-2014-optimal-cavediving-18A_easy.pddl,SAT:63.6273:131.0:1800.0:-1
ipc-2014-optimal-cavediving-18_easy.pddl,SAT:118.995:131.0:1800.0:-1
ipc-2014-optimal-cavediving-20A_easy.pddl,SAT:39.715:98.0:1800.0:-1
ipc-2014-optimal-childsnack-01-2.pddl,CRASHED:1769.87:1000000000.0:1800.0:-1
ipc-2014-optimal-childsnack-01.pddl,CRASHED:1767.25:1000000000.0:1800.0:-1
ipc-2014-optimal-childsnack-02-2.pddl,CRASHED:1767.78:1000000000.0:1800.0:-1
ipc-2014-optimal-childsnack-02.pddl,CRASHED:1767.63:1000000000.0:1800.0:-1
ipc-2014-optimal-childsnack-03-2.pddl,CRASHED:1296.27:1000000000.0:1800.0:-1
ipc-2014-optimal-childsnack-03.pddl,CRASHED:1773.92:1000000000.0:1800.0:-1
ipc-2014-optimal-childsnack-04-2.pddl,CRASHED:1774.78:1000000000.0:1800.0:-1
ipc-2014-optimal-childsnack-04.pddl,CRASHED:58.54:1000000000.0:1800.0:-1
ipc-2014-optimal-childsnack-05-2.pddl,CRASHED:58.47:1000000000.0:1800.0:-1
ipc-2014-optimal-childsnack-05.pddl,CRASHED:58.16:1000000000.0:1800.0:-1
ipc-2014-optimal-childsnack-06-2.pddl,CRASHED:59.31:1000000000.0:1800.0:-1
ipc-2014-optimal-childsnack-06.pddl,CRASHED:1297.78:1000000000.0:1800.0:-1
ipc-2014-optimal-childsnack-07-2.pddl,CRASHED:1293.56:1000000000.0:1800.0:-1
ipc-2014-optimal-childsnack-07.pddl,CRASHED:58.18:1000000000.0:1800.0:-1
ipc-2014-optimal-childsnack-08-2.pddl,CRASHED:57.92:1000000000.0:1800.0:-1
ipc-2014-optimal-childsnack-08.pddl,CRASHED:1294.77:1000000000.0:1800.0:-1
ipc-2014-optimal-childsnack-09-2.pddl,CRASHED:59.42:1000000000.0:1800.0:-1
ipc-2014-optimal-childsnack-09.pddl,CRASHED:57.52:1000000000.0:1800.0:-1
ipc-2014-optimal-childsnack-10-2.pddl,CRASHED:1291.37:1000000000.0:1800.0:-1
ipc-2014-optimal-childsnack-10.pddl,CRASHED:57.33:1000000000.0:1800.0:-1
ipc-2014-optimal-citycar-p2-2-2-1-2.pddl,SAT:7.79281:46.0:1800.0:-1
ipc-2014-optimal-citycar-p2-2-2-2-1.pddl,SAT:26.093:64.0:1800.0:-1
ipc-2014-optimal-citycar-p2-2-3-1-2.pddl,SAT:10.4954:50.0:1800.0:-1
ipc-2014-optimal-citycar-p2-2-3-2-1.pddl,SAT:10.3504:48.0:1800.0:-1
ipc-2014-optimal-citycar-p2-2-3-2-2.pddl,SAT:10.4374:50.0:1800.0:-1
ipc-2014-optimal-citycar-p2-2-4-1-2.pddl,SAT:13.5229:52.0:1800.0:-1
ipc-2014-optimal-citycar-p2-2-4-2-1.pddl,SAT:13.5189:52.0:1800.0:-1
ipc-2014-optimal-citycar-p2-2-5-2-2.pddl,SAT:338.98:76.0:1800.0:-1
ipc-2014-optimal-citycar-p2-2-6-1-1.pddl,SAT:351.69:58.0:1800.0:-1
ipc-2014-optimal-citycar-p2-2-6-2-2.pddl,SAT:353.02:58.0:1800.0:-1
ipc-2014-optimal-citycar-p2-3-2-3-1.pddl,SAT:338.99:68.0:1800.0:-1
ipc-2014-optimal-citycar-p2-3-3-3-1.pddl,SAT:341.78:78.0:1800.0:-1
ipc-2014-optimal-citycar-p2-3-4-3-1.pddl,CRASHED:1672.57:1000000000.0:1800.0:-1
ipc-2014-optimal-citycar-p2-3-6-3-2.pddl,CRASHED:1500.66:1000000000.0:1800.0:-1
ipc-2014-optimal-citycar-p3-3-2-2-1.pddl,CRASHED:1494.0:1000000000.0:1800.0:-1
ipc-2014-optimal-citycar-p3-3-2-2-2.pddl,CRASHED:1476.64:1000000000.0:1800.0:-1
ipc-2014-optimal-citycar-p3-3-2-3-1.pddl,SAT:401.8:48.0:1800.0:-1
ipc-2014-optimal-citycar-p3-3-2-3-2.pddl,CRASHED:1478.93:1000000000.0:1800.0:-1
ipc-2014-optimal-citycar-p3-3-3-3-1.pddl,CRASHED:1425.99:1000000000.0:1800.0:-1
ipc-2014-optimal-citycar-p3-3-3-3-2.pddl,CRASHED:1417.52:1000000000.0:1800.0:-1
ipc-2014-optimal-floortile-p01-4-3-2.pddl,SAT:175.009:56.0:1800.0:-1
ipc-2014-optimal-floortile-p01-4-4-2.pddl,SAT:468.39:68.0:1800.0:-1
ipc-2014-optimal-floortile-p01-5-3-2.pddl,SAT:406.846:63.0:1800.0:-1
ipc-2014-optimal-floortile-p01-5-4-2.pddl,CRASHED:58.72:1000000000.0:1800.0:-1
ipc-2014-optimal-floortile-p01-5-5-2.pddl,CRASHED:58.7:1000000000.0:1800.0:-1
ipc-2014-optimal-floortile-p01-6-4-2.pddl,CRASHED:1772.8:1000000000.0:1800.0:-1
ipc-2014-optimal-floortile-p01-6-5-2.pddl,CRASHED:1773.22:1000000000.0:1800.0:-1
ipc-2014-optimal-floortile-p02-4-4-2.pddl,CRASHED:1775.61:1000000000.0:1800.0:-1
ipc-2014-optimal-floortile-p02-5-3-2.pddl,SAT:58.83:65.0:1800.0:-1
ipc-2014-optimal-floortile-p02-5-4-2.pddl,CRASHED:58.64:1000000000.0:1800.0:-1
ipc-2014-optimal-floortile-p02-5-5-2.pddl,CRASHED:58.5:1000000000.0:1800.0:-1
ipc-2014-optimal-floortile-p02-6-4-2.pddl,CRASHED:1777.33:1000000000.0:1800.0:-1
ipc-2014-optimal-floortile-p02-6-5-2.pddl,CRASHED:1330.41:1000000000.0:1800.0:-1
ipc-2014-optimal-floortile-p03-4-3-2.pddl,SAT:190.795:56.0:1800.0:-1
ipc-2014-optimal-floortile-p03-4-4-2.pddl,CRASHED:1776.5:1000000000.0:1800.0:-1
ipc-2014-optimal-floortile-p03-5-3-2.pddl,SAT:432.471:65.0:1800.0:-1
ipc-2014-optimal-floortile-p03-5-4-2.pddl,CRASHED:1775.58:1000000000.0:1800.0:-1
ipc-2014-optimal-floortile-p03-5-5-2.pddl,CRASHED:1772.79:1000000000.0:1800.0:-1
ipc-2014-optimal-floortile-p03-6-4-2.pddl,CRASHED:1775.69:1000000000.0:1800.0:-1
ipc-2014-optimal-floortile-p03-6-5-2.pddl,CRASHED:1777.72:1000000000.0:1800.0:-1
ipc-2014-optimal-ged-d-1-2.pddl,SAT:1.57076:1.0:1800.0:-1
ipc-2014-optimal-ged-d-1-3.pddl,SAT:7.45687:4.0:1800.0:-1
ipc-2014-optimal-ged-d-1-4.pddl,SAT:1.60176:1.0:1800.0:-1
ipc-2014-optimal-ged-d-1-8.pddl,SAT:49.2815:4.0:1800.0:-1
ipc-2014-optimal-ged-d-2-1.pddl,SAT:1.56076:1.0:1800.0:-1
ipc-2014-optimal-ged-d-2-3.pddl,SAT:1.83372:3.0:1800.0:-1
ipc-2014-optimal-ged-d-2-4.pddl,SAT:1.60775:2.0:1800.0:-1
ipc-2014-optimal-ged-d-2-8.pddl,TIMEOUT:1801.0:-1.0:1800.0:-1
ipc-2014-optimal-ged-d-3-1.pddl,SAT:7.45587:4.0:1800.0:-1
ipc-2014-optimal-ged-d-3-2.pddl,SAT:1.45778:3.0:1800.0:-1
ipc-2014-optimal-ged-d-3-4.pddl,SAT:58.42:5.0:1800.0:-1
ipc-2014-optimal-ged-d-4-2.pddl,SAT:1.18682:2.0:1800.0:-1
ipc-2014-optimal-ged-d-4-3.pddl,SAT:57.99:5.0:1800.0:-1
ipc-2014-optimal-ged-d-4-8.pddl,CRASHED:1778.04:1000000000.0:1800.0:-1
ipc-2014-optimal-ged-d-7-5.pddl,SAT:49.7094:4.0:1800.0:-1
ipc-2014-optimal-ged-d-7-6.pddl,SAT:7.66783:4.0:1800.0:-1
ipc-2014-optimal-ged-d-8-1.pddl,SAT:49.0445:4.0:1800.0:-1
ipc-2014-optimal-ged-d-8-2.pddl,CRASHED:1338.92:1000000000.0:1800.0:-1
ipc-2014-optimal-ged-d-8-4.pddl,CRASHED:58.2:1000000000.0:1800.0:-1
ipc-2014-optimal-ged-d-8-9.pddl,CRASHED:58.14:1000000000.0:1800.0:-1
ipc-2014-optimal-hiking-1-2-3.pddl,SAT:1.38979:11.0:1800.0:-1
ipc-2014-optimal-hiking-1-2-4.pddl,SAT:10.8743:17.0:1800.0:-1
ipc-2014-optimal-hiking-1-2-5.pddl,SAT:11.4033:25.0:1800.0:-1
ipc-2014-optimal-hiking-1-2-7.pddl,SAT:24.0503:38.0:1800.0:-1
ipc-2014-optimal-hiking-1-2-8.pddl,SAT:46.9059:45.0:1800.0:-1
ipc-2014-optimal-hiking-2-2-3.pddl,SAT:13.422:10.0:1800.0:-1
ipc-2014-optimal-hiking-2-2-4.pddl,SAT:73.6708:16.0:1800.0:-1
ipc-2014-optimal-hiking-2-2-5.pddl,SAT:58.58:22.0:1800.0:-1
ipc-2014-optimal-hiking-2-2-6.pddl,CRASHED:58.04:1000000000.0:1800.0:-1
ipc-2014-optimal-hiking-2-2-7.pddl,CRASHED:57.61:1000000000.0:1800.0:-1
ipc-2014-optimal-hiking-2-2-8.pddl,CRASHED:57.12:1000000000.0:1800.0:-1
ipc-2014-optimal-hiking-2-3-4.pddl,SAT:58.1:17.0:1800.0:-1
ipc-2014-optimal-hiking-2-3-5.pddl,SAT:57.83:24.0:1800.0:-1
ipc-2014-optimal-hiking-2-3-6.pddl,CRASHED:1293.07:1000000000.0:1800.0:-1
ipc-2014-optimal-hiking-2-3-7.pddl,CRASHED:1467.19:1000000000.0:1800.0:-1
ipc-2014-optimal-hiking-2-4-3.pddl,SAT:33.04:10.0:1800.0:-1
ipc-2014-optimal-hiking-2-4-4.pddl,SAT:59.46:17.0:1800.0:-1
ipc-2014-optimal-hiking-2-4-5.pddl,CRASHED:1298.11:1000000000.0:1800.0:-1
ipc-2014-optimal-hiking-2-4-6.pddl,CRASHED:1782.88:1000000000.0:1800.0:-1
ipc-2014-optimal-hiking-2-4-7.pddl,CRASHED:55.98:1000000000.0:1800.0:-1
ipc-2014-optimal-maintenance-1.3.010.010.1-001.pddl,CRASHED:4.48232:1000000000.0:1800.0:-1
ipc-2014-optimal-maintenance-1.3.010.010.1-002.pddl,CRASHED:4.63729:1000000000.0:1800.0:-1
ipc-2014-optimal-maintenance-1.3.010.010.2-000.pddl,SAT:0.657899:4.0:1800.0:-1
ipc-2014-optimal-maintenance-1.3.010.010.2-001.pddl,SAT:0.635902:7.0:1800.0:-1
ipc-2014-optimal-maintenance-1.3.010.010.2-002.pddl,SAT:0.641901:6.0:1800.0:-1
ipc-2014-optimal-maintenance-1.3.015.020.1-000.pddl,CRASHED:7.8988:1000000000.0:1800.0:-1
ipc-2014-optimal-maintenance-1.3.015.020.1-001.pddl,CRASHED:17.3354:1000000000.0:1800.0:-1
ipc-2014-optimal-maintenance-1.3.015.020.1-002.pddl,CRASHED:25.7441:1000000000.0:1800.0:-1
ipc-2014-optimal-maintenance-1.3.015.020.2-000.pddl,CRASHED:142.701:1000000000.0:1800.0:-1
ipc-2014-optimal-maintenance-1.3.015.020.2-001.pddl,SAT:0.785879:11.0:1800.0:-1
ipc-2014-optimal-maintenance-1.3.015.020.2-002.pddl,SAT:0.757884:9.0:1800.0:-1
ipc-2014-optimal-maintenance-1.3.025.050.1-000.pddl,CRASHED:171.864:1000000000.0:1800.0:-1
ipc-2014-optimal-maintenance-1.3.025.050.1-001.pddl,CRASHED:191.445:1000000000.0:1800.0:-1
ipc-2014-optimal-maintenance-1.3.025.050.1-002.pddl,CRASHED:175.829:1000000000.0:1800.0:-1
ipc-2014-optimal-maintenance-1.3.025.100.1-000.pddl,CRASHED:174.282:1000000000.0:1800.0:-1
ipc-2014-optimal-maintenance-1.3.025.100.1-001.pddl,CRASHED:169.052:1000000000.0:1800.0:-1
ipc-2014-optimal-maintenance-1.3.025.100.1-002.pddl,CRASHED:174.188:1000000000.0:1800.0:-1
ipc-2014-optimal-maintenance-1.3.025.100.2-000.pddl,CRASHED:1087.04:1000000000.0:1800.0:-1
ipc-2014-optimal-maintenance-1.3.025.100.2-001.pddl,CRASHED:1335.31:1000000000.0:1800.0:-1
ipc-2014-optimal-maintenance-1.3.025.100.2-002.pddl,CRASHED:1091.89:1000000000.0:1800.0:-1
ipc-2014-optimal-openstacks-p20_1.pddl,SAT:1455.44:3.0:1800.0:-1
ipc-2014-optimal-openstacks-p20_2.pddl,SAT:58.64:4.0:1800.0:-1
ipc-2014-optimal-openstacks-p20_3.pddl,SAT:22.5736:6.0:1800.0:-1
ipc-2014-optimal-openstacks-p25_1.pddl,CRASHED:58.64:1000000000.0:1800.0:-1
ipc-2014-optimal-openstacks-p25_3.pddl,CRASHED:1774.86:1000000000.0:1800.0:-1
ipc-2014-optimal-openstacks-p30_1.pddl,CRASHED:58.62:1000000000.0:1800.0:-1
ipc-2014-optimal-openstacks-p30_2.pddl,CRASHED:58.26:1000000000.0:1800.0:-1
ipc-2014-optimal-openstacks-p30_3.pddl,CRASHED:1303.38:1000000000.0:1800.0:-1
ipc-2014-optimal-openstacks-p35_1.pddl,CRASHED:1773.6:1000000000.0:1800.0:-1
ipc-2014-optimal-openstacks-p35_2.pddl,CRASHED:1302.64:1000000000.0:1800.0:-1
ipc-2014-optimal-openstacks-p35_3.pddl,CRASHED:58.22:1000000000.0:1800.0:-1
ipc-2014-optimal-openstacks-p40_1.pddl,CRASHED:58.16:1000000000.0:1800.0:-1
ipc-2014-optimal-openstacks-p40_2.pddl,CRASHED:59.24:1000000000.0:1800.0:-1
ipc-2014-optimal-openstacks-p40_3.pddl,CRASHED:59.38:1000000000.0:1800.0:-1
ipc-2014-optimal-openstacks-p45_1.pddl,CRASHED:59.43:1000000000.0:1800.0:-1
ipc-2014-optimal-openstacks-p45_2.pddl,CRASHED:57.85:1000000000.0:1800.0:-1
ipc-2014-optimal-openstacks-p45_3.pddl,CRASHED:1299.45:1000000000.0:1800.0:-1
ipc-2014-optimal-openstacks-p50_1.pddl,CRASHED:57.36:1000000000.0:1800.0:-1
ipc-2014-optimal-openstacks-p50_2.pddl,CRASHED:59.4:1000000000.0:1800.0:-1
ipc-2014-optimal-openstacks-p50_3.pddl,CRASHED:1418.75:1000000000.0:1800.0:-1
ipc-2014-optimal-parking-12_7-01.pddl,SAT:57.89:18.0:1800.0:-1
ipc-2014-optimal-parking-12_7-02.pddl,SAT:57.57:18.0:1800.0:-1
ipc-2014-optimal-parking-12_7-03.pddl,SAT:57.5:17.0:1800.0:-1
ipc-2014-optimal-parking-12_7-04.pddl,SAT:57.45:19.0:1800.0:-1
ipc-2014-optimal-parking-14_8-01.pddl,CRASHED:56.86:1000000000.0:1800.0:-1
ipc-2014-optimal-parking-14_8-02.pddl,SAT:56.84:22.0:1800.0:-1
ipc-2014-optimal-parking-14_8-03.pddl,SAT:57.04:21.0:1800.0:-1
ipc-2014-optimal-parking-14_8-04.pddl,CRASHED:1422.5:1000000000.0:1800.0:-1
ipc-2014-optimal-parking-16_9-01.pddl,CRASHED:59.59:1000000000.0:1800.0:-1
ipc-2014-optimal-parking-16_9-02.pddl,CRASHED:59.23:1000000000.0:1800.0:-1
ipc-2014-optimal-parking-16_9-03.pddl,CRASHED:1473.66:1000000000.0:1800.0:-1
ipc-2014-optimal-parking-16_9-04.pddl,CRASHED:58.13:1000000000.0:1800.0:-1
ipc-2014-optimal-parking-18_10-01.pddl,CRASHED:1663.97:1000000000.0:1800.0:-1
ipc-2014-optimal-parking-18_10-02.pddl,CRASHED:1669.49:1000000000.0:1800.0:-1
ipc-2014-optimal-parking-18_10-03.pddl,CRASHED:289.64:1000000000.0:1800.0:-1
ipc-2014-optimal-parking-18_10-04.pddl,CRASHED:349.27:1000000000.0:1800.0:-1
ipc-2014-optimal-parking-20_11-01.pddl,CRASHED:1648.54:1000000000.0:1800.0:-1
ipc-2014-optimal-parking-20_11-02.pddl,CRASHED:317.97:1000000000.0:1800.0:-1
ipc-2014-optimal-parking-20_11-03.pddl,CRASHED:1643.64:1000000000.0:1800.0:-1
ipc-2014-optimal-parking-20_11-04.pddl,CRASHED:1644.18:1000000000.0:1800.0:-1
ipc-2014-optimal-tetris-01-10.pddl,CRASHED:500.38:1000000000.0:1800.0:-1
ipc-2014-optimal-tetris-01-04.pddl,CRASHED:474.322:1000000000.0:1800.0:-1
ipc-2014-optimal-tetris-01-06.pddl,SAT:56.22:30.0:1800.0:-1
ipc-2014-optimal-tetris-01-08.pddl,SAT:21.59:36.0:1800.0:-1
ipc-2014-optimal-tetris-02-10.pddl,CRASHED:1707.62:1000000000.0:1800.0:-1
ipc-2014-optimal-tetris-02-04.pddl,SAT:0.911861:10.0:1800.0:-1
ipc-2014-optimal-tetris-02-06.pddl,SAT:24.07:30.0:1800.0:-1
ipc-2014-optimal-tetris-02-08.pddl,CRASHED:672.55:1000000000.0:1800.0:-1
ipc-2014-optimal-tetris-03-10.pddl,CRASHED:628.92:1000000000.0:1800.0:-1
ipc-2014-optimal-tetris-03-04.pddl,SAT:13.8169:11.0:1800.0:-1
ipc-2014-optimal-tetris-03-06.pddl,SAT:59.42:21.0:1800.0:-1
ipc-2014-optimal-tetris-03-08.pddl,CRASHED:1643.58:1000000000.0:1800.0:-1
ipc-2014-optimal-tetris-04-10.pddl,CRASHED:436.21:1000000000.0:1800.0:-1
ipc-2014-optimal-tetris-04-04.pddl,CRASHED:279.674:1000000000.0:1800.0:-1
ipc-2014-optimal-tetris-04-06.pddl,SAT:59.36:27.0:1800.0:-1
ipc-2014-optimal-tetris-04-08.pddl,CRASHED:682.2:1000000000.0:1800.0:-1
ipc-2014-optimal-tetris-05-10.pddl,CRASHED:1535.86:1000000000.0:1800.0:-1
ipc-2014-optimal-tetris-05-04.pddl,CRASHED:179.83:1000000000.0:1800.0:-1
ipc-2014-optimal-tetris-05-06.pddl,SAT:24.3933:19.0:1800.0:-1
ipc-2014-optimal-tetris-05-08.pddl,CRASHED:463.58:1000000000.0:1800.0:-1
ipc-2014-optimal-tidybot-01.pddl,CRASHED:1591.42:1000000000.0:1800.0:-1
ipc-2014-optimal-tidybot-02.pddl,SAT:261.58:35.0:1800.0:-1
ipc-2014-optimal-tidybot-03.pddl,SAT:280.71:30.0:1800.0:-1
ipc-2014-optimal-tidybot-04.pddl,SAT:265.42:24.0:1800.0:-1
ipc-2014-optimal-tidybot-05.pddl,CRASHED:1598.53:1000000000.0:1800.0:-1
ipc-2014-optimal-tidybot-06.pddl,CRASHED:1606.85:1000000000.0:1800.0:-1
ipc-2014-optimal-tidybot-07.pddl,CRASHED:1613.94:1000000000.0:1800.0:-1
ipc-2014-optimal-tidybot-08.pddl,SAT:38.77:25.0:1800.0:-1
ipc-2014-optimal-tidybot-09.pddl,CRASHED:1541.78:1000000000.0:1800.0:-1
ipc-2014-optimal-tidybot-10.pddl,CRASHED:1675.65:1000000000.0:1800.0:-1
ipc-2014-optimal-tidybot-11.pddl,SAT:29.52:29.0:1800.0:-1
ipc-2014-optimal-tidybot-12.pddl,SAT:351.81:35.0:1800.0:-1
ipc-2014-optimal-tidybot-13.pddl,SAT:299.04:30.0:1800.0:-1
ipc-2014-optimal-tidybot-14.pddl,SAT:38.26:25.0:1800.0:-1
ipc-2014-optimal-tidybot-15.pddl,CRASHED:1595.26:1000000000.0:1800.0:-1
ipc-2014-optimal-tidybot-16.pddl,CRASHED:1594.42:1000000000.0:1800.0:-1
ipc-2014-optimal-tidybot-17.pddl,CRASHED:1595.5:1000000000.0:1800.0:-1
ipc-2014-optimal-tidybot-18.pddl,CRASHED:1595.57:1000000000.0:1800.0:-1
ipc-2014-optimal-tidybot-19.pddl,CRASHED:1683.46:1000000000.0:1800.0:-1
ipc-2014-optimal-tidybot-20.pddl,CRASHED:1687.28:1000000000.0:1800.0:-1
ipc-2014-optimal-transport-01.pddl,SAT:11.0553:148.0:1800.0:-1
ipc-2014-optimal-transport-02.pddl,SAT:40.6378:191.0:1800.0:-1
ipc-2014-optimal-transport-03.pddl,SAT:123.854:300.0:1800.0:-1
ipc-2014-optimal-transport-04.pddl,CRASHED:58.54:1000000000.0:1800.0:-1
ipc-2014-optimal-transport-05.pddl,CRASHED:58.26:1000000000.0:1800.0:-1
ipc-2014-optimal-transport-06.pddl,CRASHED:1299.13:1000000000.0:1800.0:-1
ipc-2014-optimal-transport-07.pddl,SAT:119.402:967.0:1800.0:-1
ipc-2014-optimal-transport-08.pddl,SAT:58.57:1173.0:1800.0:-1
ipc-2014-optimal-transport-09.pddl,CRASHED:58.36:1000000000.0:1800.0:-1
ipc-2014-optimal-transport-10.pddl,CRASHED:58.03:1000000000.0:1800.0:-1
ipc-2014-optimal-transport-11.pddl,CRASHED:1315.05:1000000000.0:1800.0:-1
ipc-2014-optimal-transport-12.pddl,CRASHED:59.41:1000000000.0:1800.0:-1
ipc-2014-optimal-transport-13.pddl,SAT:17.0924:594.0:1800.0:-1
ipc-2014-optimal-transport-14.pddl,SAT:59.26:526.0:1800.0:-1
ipc-2014-optimal-transport-15.pddl,CRASHED:58.22:1000000000.0:1800.0:-1
ipc-2014-optimal-transport-16.pddl,CRASHED:59.5:1000000000.0:1800.0:-1
ipc-2014-optimal-transport-17.pddl,CRASHED:59.38:1000000000.0:1800.0:-1
ipc-2014-optimal-transport-18.pddl,CRASHED:59.45:1000000000.0:1800.0:-1
ipc-2014-optimal-transport-19.pddl,CRASHED:59.5:1000000000.0:1800.0:-1
ipc-2014-optimal-transport-20.pddl,CRASHED:1431.0:1000000000.0:1800.0:-1
ipc-2014-optimal-visitall-05-10.pddl,CRASHED:1780.89:1000000000.0:1800.0:-1
ipc-2014-optimal-visitall-05-05.pddl,SAT:3.90341:21.0:1800.0:-1
ipc-2014-optimal-visitall-05-06.pddl,SAT:6.25205:25.0:1800.0:-1
ipc-2014-optimal-visitall-05-07.pddl,SAT:34.3628:34.0:1800.0:-1
ipc-2014-optimal-visitall-05-08.pddl,SAT:640.467:43.0:1800.0:-1
ipc-2014-optimal-visitall-05-09.pddl,CRASHED:1776.39:1000000000.0:1800.0:-1
ipc-2014-optimal-visitall-01-10.pddl,SAT:202.398:99.0:1800.0:-1
ipc-2014-optimal-visitall-01-11.pddl,SAT:59.12:120.0:1800.0:-1
ipc-2014-optimal-visitall-01-12.pddl,SAT:244.072:143.0:1800.0:-1
ipc-2014-optimal-visitall-01-13.pddl,SAT:204.208:168.0:1800.0:-1
ipc-2014-optimal-visitall-01-14.pddl,CRASHED:1773.32:1000000000.0:1800.0:-1
ipc-2014-optimal-visitall-01-15.pddl,CRASHED:1774.59:1000000000.0:1800.0:-1
ipc-2014-optimal-visitall-01-16.pddl,CRASHED:1564.3:1000000000.0:1800.0:-1
ipc-2014-optimal-visitall-01-17.pddl,CRASHED:1342.53:1000000000.0:1800.0:-1
ipc-2014-optimal-visitall-01-18.pddl,CRASHED:1773.83:1000000000.0:1800.0:-1
ipc-2014-optimal-visitall-01-05.pddl,SAT:16.2945:24.0:1800.0:-1
ipc-2014-optimal-visitall-01-06.pddl,SAT:201.737:35.0:1800.0:-1
ipc-2014-optimal-visitall-01-07.pddl,SAT:201.716:48.0:1800.0:-1
ipc-2014-optimal-visitall-01-08.pddl,SAT:201.993:63.0:1800.0:-1
ipc-2014-optimal-visitall-01-09.pddl,SAT:202.197:80.0:1800.0:-1
