instance,ipc-2014-agile-bfs-f
ipc-2014-agile-barman-p1-11-4-15.pddl,SAT:27.9024:183.0:300.0:-1
ipc-2014-agile-barman-p1-11-5-15.pddl,SAT:32.1196:185.0:300.0:-1
ipc-2014-agile-barman-p1-11-5-16.pddl,SAT:1.09391:154.0:300.0:-1
ipc-2014-agile-barman-p2-10-4-13.pddl,SAT:1.89541:144.0:300.0:-1
ipc-2014-agile-barman-p2-11-4-15.pddl,SAT:2.19923:165.0:300.0:-1
ipc-2014-agile-barman-p2-11-5-15.pddl,SAT:0.870056:153.0:300.0:-1
ipc-2014-agile-barman-p2-11-5-16.pddl,SAT:3.58012:173.0:300.0:-1
ipc-2014-agile-barman-p2-11-5-17.pddl,SAT:14.2569:203.0:300.0:-1
ipc-2014-agile-barman-p3-10-4-13.pddl,SAT:1.23654:141.0:300.0:-1
ipc-2014-agile-barman-p3-11-4-15.pddl,SAT:1.65268:166.0:300.0:-1
ipc-2014-agile-barman-p3-11-5-15.pddl,SAT:5.7097:178.0:300.0:-1
ipc-2014-agile-barman-p3-11-5-16.pddl,SAT:1.3047:168.0:300.0:-1
ipc-2014-agile-barman-p3-11-5-17.pddl,SAT:4.77581:175.0:300.0:-1
ipc-2014-agile-barman-p4-11-4-14.pddl,SAT:2.44723:161.0:300.0:-1
ipc-2014-agile-barman-p4-11-4-15.pddl,SAT:5.0355:159.0:300.0:-1
ipc-2014-agile-barman-p4-11-5-15.pddl,SAT:3.83173:156.0:300.0:-1
ipc-2014-agile-barman-p5-10-4-13.pddl,SAT:1.39207:142.0:300.0:-1
ipc-2014-agile-barman-p5-11-4-15.pddl,SAT:4.38821:176.0:300.0:-1
ipc-2014-agile-barman-p5-11-5-15.pddl,SAT:6.43765:157.0:300.0:-1
ipc-2014-agile-barman-p5-11-5-16.pddl,SAT:3.06982:160.0:300.0:-1
ipc-2014-agile-cavediving-01_easy.pddl,TIMEOUT:301.185:-1.0:300.0:-1
ipc-2014-agile-cavediving-01.pddl,SAT:163.921:190.0:300.0:-1
ipc-2014-agile-cavediving-02_easy.pddl,TIMEOUT:301.172:-1.0:300.0:-1
ipc-2014-agile-cavediving-03_easy.pddl,TIMEOUT:301.176:-1.0:300.0:-1
ipc-2014-agile-cavediving-04_easy.pddl,TIMEOUT:301.176:-1.0:300.0:-1
ipc-2014-agile-cavediving-05A_easy.pddl,SAT:0.239265:94.0:300.0:-1
ipc-2014-agile-cavediving-06A_easy.pddl,SAT:0.2367:95.0:300.0:-1
ipc-2014-agile-cavediving-07_easy.pddl,SAT:0.429034:131.0:300.0:-1
ipc-2014-agile-cavediving-08_easy.pddl,SAT:0.247867:90.0:300.0:-1
ipc-2014-agile-cavediving-09_easy.pddl,TIMEOUT:301.154:-1.0:300.0:-1
ipc-2014-agile-cavediving-10_easy.pddl,TIMEOUT:301.182:-1.0:300.0:-1
ipc-2014-agile-cavediving-11_easy.pddl,TIMEOUT:301.169:-1.0:300.0:-1
ipc-2014-agile-cavediving-12_easy.pddl,TIMEOUT:301.251:-1.0:300.0:-1
ipc-2014-agile-cavediving-13_easy.pddl,TIMEOUT:301.233:-1.0:300.0:-1
ipc-2014-agile-cavediving-14_easy.pddl,TIMEOUT:301.268:-1.0:300.0:-1
ipc-2014-agile-cavediving-15_easy.pddl,TIMEOUT:301.209:-1.0:300.0:-1
ipc-2014-agile-cavediving-16_easy.pddl,TIMEOUT:301.21:-1.0:300.0:-1
ipc-2014-agile-cavediving-18A_easy.pddl,SAT:0.689467:131.0:300.0:-1
ipc-2014-agile-cavediving-18_easy.pddl,SAT:1.75392:131.0:300.0:-1
ipc-2014-agile-cavediving-20A_easy.pddl,SAT:0.599714:98.0:300.0:-1
ipc-2014-agile-childsnack-05-2.pddl,SAT:50.4849:46.0:300.0:-1
ipc-2014-agile-childsnack-05.pddl,SAT:0.474899:47.0:300.0:-1
ipc-2014-agile-childsnack-06-2.pddl,SAT:46.312:50.0:300.0:-1
ipc-2014-agile-childsnack-07-2.pddl,SAT:1.41899:57.0:300.0:-1
ipc-2014-agile-childsnack-08-2.pddl,SAT:287.767:63.0:300.0:-1
ipc-2014-agile-childsnack-08.pddl,SAT:184.203:61.0:300.0:-1
ipc-2014-agile-childsnack-09-2.pddl,TIMEOUT:301.382:-1.0:300.0:-1
ipc-2014-agile-childsnack-09.pddl,SAT:8.57766:67.0:300.0:-1
ipc-2014-agile-childsnack-10-2.pddl,SAT:7.2294:72.0:300.0:-1
ipc-2014-agile-childsnack-10.pddl,SAT:5.28852:72.0:300.0:-1
ipc-2014-agile-childsnack-11-2.pddl,SAT:7.52941:77.0:300.0:-1
ipc-2014-agile-childsnack-11.pddl,TIMEOUT:301.421:-1.0:300.0:-1
ipc-2014-agile-childsnack-12.pddl,TIMEOUT:301.391:-1.0:300.0:-1
ipc-2014-agile-childsnack-13-2.pddl,TIMEOUT:301.379:-1.0:300.0:-1
ipc-2014-agile-childsnack-13.pddl,TIMEOUT:301.358:-1.0:300.0:-1
ipc-2014-agile-childsnack-14.pddl,TIMEOUT:301.355:-1.0:300.0:-1
ipc-2014-agile-childsnack-15-2.pddl,TIMEOUT:301.323:-1.0:300.0:-1
ipc-2014-agile-childsnack-16-2.pddl,TIMEOUT:301.296:-1.0:300.0:-1
ipc-2014-agile-childsnack-19-2.pddl,TIMEOUT:301.394:-1.0:300.0:-1
ipc-2014-agile-childsnack-19.pddl,TIMEOUT:301.38:-1.0:300.0:-1
ipc-2014-agile-citycar-p3-2-2-0-1.pddl,SAT:0.581227:110.0:300.0:-1
ipc-2014-agile-citycar-p3-3-2-0-1.pddl,SAT:14.9956:285.0:300.0:-1
ipc-2014-agile-citycar-p3-4-2-0-1.pddl,SAT:3.43481:240.0:300.0:-1
ipc-2014-agile-citycar-p3-5-2-0-1.pddl,SAT:3.81011:241.0:300.0:-1
ipc-2014-agile-citycar-p3-5-2-0-2.pddl,SAT:8.87977:307.0:300.0:-1
ipc-2014-agile-citycar-p4-2-2-0-1.pddl,TIMEOUT:301.497:-1.0:300.0:-1
ipc-2014-agile-citycar-p4-2-3-0-1.pddl,TIMEOUT:301.509:-1.0:300.0:-1
ipc-2014-agile-citycar-p4-2-3-0-2.pddl,TIMEOUT:301.519:-1.0:300.0:-1
ipc-2014-agile-citycar-p4-3-2-0-1.pddl,TIMEOUT:301.438:-1.0:300.0:-1
ipc-2014-agile-citycar-p4-3-2-0-2.pddl,TIMEOUT:301.477:-1.0:300.0:-1
ipc-2014-agile-citycar-p4-3-3-0-1.pddl,TIMEOUT:301.488:-1.0:300.0:-1
ipc-2014-agile-citycar-p4-3-3-0-2.pddl,TIMEOUT:301.38:-1.0:300.0:-1
ipc-2014-agile-citycar-p4-4-2-0-1.pddl,TIMEOUT:301.427:-1.0:300.0:-1
ipc-2014-agile-citycar-p4-4-2-0-2.pddl,TIMEOUT:301.419:-1.0:300.0:-1
ipc-2014-agile-citycar-p4-4-3-0-1.pddl,TIMEOUT:301.364:-1.0:300.0:-1
ipc-2014-agile-citycar-p4-4-3-0-2.pddl,SAT:252.215:386.0:300.0:-1
ipc-2014-agile-citycar-p4-5-2-0-1.pddl,TIMEOUT:301.459:-1.0:300.0:-1
ipc-2014-agile-citycar-p4-5-2-0-2.pddl,TIMEOUT:301.439:-1.0:300.0:-1
ipc-2014-agile-citycar-p4-5-3-0-1.pddl,TIMEOUT:301.327:-1.0:300.0:-1
ipc-2014-agile-citycar-p4-5-3-0-2.pddl,TIMEOUT:301.304:-1.0:300.0:-1
ipc-2014-agile-floortile-p01-4-3-2.pddl,SAT:2.16704:101.0:300.0:-1
ipc-2014-agile-floortile-p01-5-4-2.pddl,TIMEOUT:301.199:-1.0:300.0:-1
ipc-2014-agile-floortile-p01-5-5-2.pddl,SAT:150.605:177.0:300.0:-1
ipc-2014-agile-floortile-p01-6-4-2.pddl,TIMEOUT:301.23:-1.0:300.0:-1
ipc-2014-agile-floortile-p01-6-5-2.pddl,TIMEOUT:301.216:-1.0:300.0:-1
ipc-2014-agile-floortile-p01-6-5-3.pddl,TIMEOUT:301.259:-1.0:300.0:-1
ipc-2014-agile-floortile-p02-5-4-2.pddl,TIMEOUT:301.192:-1.0:300.0:-1
ipc-2014-agile-floortile-p02-6-4-2.pddl,TIMEOUT:301.193:-1.0:300.0:-1
ipc-2014-agile-floortile-p02-6-5-2.pddl,TIMEOUT:301.159:-1.0:300.0:-1
ipc-2014-agile-floortile-p02-6-5-3.pddl,TIMEOUT:301.218:-1.0:300.0:-1
ipc-2014-agile-floortile-p03-6-4-2.pddl,TIMEOUT:301.226:-1.0:300.0:-1
ipc-2014-agile-floortile-p03-6-5-2.pddl,TIMEOUT:301.176:-1.0:300.0:-1
ipc-2014-agile-floortile-p03-6-5-3.pddl,TIMEOUT:301.195:-1.0:300.0:-1
ipc-2014-agile-floortile-p04-5-4-2.pddl,TIMEOUT:301.158:-1.0:300.0:-1
ipc-2014-agile-floortile-p04-5-5-2.pddl,TIMEOUT:301.183:-1.0:300.0:-1
ipc-2014-agile-floortile-p04-6-5-2.pddl,TIMEOUT:301.24:-1.0:300.0:-1
ipc-2014-agile-floortile-p04-6-5-3.pddl,TIMEOUT:301.173:-1.0:300.0:-1
ipc-2014-agile-floortile-p05-4-3-2.pddl,SAT:0.231083:72.0:300.0:-1
ipc-2014-agile-floortile-p05-6-5-2.pddl,TIMEOUT:301.173:-1.0:300.0:-1
ipc-2014-agile-floortile-p05-6-5-3.pddl,TIMEOUT:301.232:-1.0:300.0:-1
ipc-2014-agile-ged-d-10-1.pddl,SAT:3.85134:39.0:300.0:-1
ipc-2014-agile-ged-d-10-2.pddl,SAT:3.81381:40.0:300.0:-1
ipc-2014-agile-ged-d-10-3.pddl,SAT:5.33215:41.0:300.0:-1
ipc-2014-agile-ged-d-10-4.pddl,SAT:2.80254:34.0:300.0:-1
ipc-2014-agile-ged-d-10-5.pddl,TIMEOUT:301.128:-1.0:300.0:-1
ipc-2014-agile-ged-d-10-6.pddl,SAT:275.289:56.0:300.0:-1
ipc-2014-agile-ged-d-11-1.pddl,SAT:5.22382:45.0:300.0:-1
ipc-2014-agile-ged-d-11-3.pddl,TIMEOUT:301.123:-1.0:300.0:-1
ipc-2014-agile-ged-d-11-5.pddl,SAT:10.8955:55.0:300.0:-1
ipc-2014-agile-ged-d-11-6.pddl,TIMEOUT:301.084:-1.0:300.0:-1
ipc-2014-agile-ged-d-12-11.pddl,TIMEOUT:301.058:-1.0:300.0:-1
ipc-2014-agile-ged-d-12-2.pddl,TIMEOUT:301.082:-1.0:300.0:-1
ipc-2014-agile-ged-d-12-3.pddl,TIMEOUT:301.157:-1.0:300.0:-1
ipc-2014-agile-ged-d-12-5.pddl,TIMEOUT:301.106:-1.0:300.0:-1
ipc-2014-agile-ged-d-12-6.pddl,TIMEOUT:301.074:-1.0:300.0:-1
ipc-2014-agile-ged-d-12-7.pddl,SAT:22.4382:62.0:300.0:-1
ipc-2014-agile-ged-d-12-8.pddl,TIMEOUT:301.063:-1.0:300.0:-1
ipc-2014-agile-ged-d-12-9.pddl,TIMEOUT:301.079:-1.0:300.0:-1
ipc-2014-agile-ged-d-3-6.pddl,SAT:2.36609:32.0:300.0:-1
ipc-2014-agile-ged-d-9-5.pddl,SAT:164.67:31.0:300.0:-1
ipc-2014-agile-hiking-3-4-3.pddl,SAT:7.77664:17.0:300.0:-1
ipc-2014-agile-hiking-3-4-4.pddl,SAT:23.3159:23.0:300.0:-1
ipc-2014-agile-hiking-3-4-5.pddl,SAT:114.863:45.0:300.0:-1
ipc-2014-agile-hiking-3-4-6.pddl,TIMEOUT:301.127:-1.0:300.0:-1
ipc-2014-agile-hiking-3-4-7.pddl,TIMEOUT:301.062:-1.0:300.0:-1
ipc-2014-agile-hiking-3-4-8.pddl,TIMEOUT:301.087:-1.0:300.0:-1
ipc-2014-agile-hiking-3-4-9.pddl,TIMEOUT:301.052:-1.0:300.0:-1
ipc-2014-agile-hiking-4-5-3.pddl,SAT:87.8426:20.0:300.0:-1
ipc-2014-agile-hiking-4-5-4.pddl,TIMEOUT:301.114:-1.0:300.0:-1
ipc-2014-agile-hiking-4-5-5.pddl,TIMEOUT:301.068:-1.0:300.0:-1
ipc-2014-agile-hiking-4-5-6.pddl,TIMEOUT:301.07:-1.0:300.0:-1
ipc-2014-agile-hiking-4-5-7.pddl,TIMEOUT:301.096:-1.0:300.0:-1
ipc-2014-agile-hiking-4-5-8.pddl,TIMEOUT:301.087:-1.0:300.0:-1
ipc-2014-agile-hiking-4-5-9.pddl,TIMEOUT:301.156:-1.0:300.0:-1
ipc-2014-agile-hiking-5-6-3.pddl,TIMEOUT:301.088:-1.0:300.0:-1
ipc-2014-agile-hiking-5-6-4.pddl,TIMEOUT:301.102:-1.0:300.0:-1
ipc-2014-agile-hiking-5-6-5.pddl,TIMEOUT:301.109:-1.0:300.0:-1
ipc-2014-agile-hiking-5-6-6.pddl,TIMEOUT:301.099:-1.0:300.0:-1
ipc-2014-agile-hiking-5-6-7.pddl,TIMEOUT:301.072:-1.0:300.0:-1
ipc-2014-agile-hiking-5-6-8.pddl,TIMEOUT:301.164:-1.0:300.0:-1
ipc-2014-agile-maintenance-1.3.060.180.5-000.pddl,SAT:2.63926:40.0:300.0:-1
ipc-2014-agile-maintenance-1.3.060.180.5-001.pddl,SAT:6.18643:44.0:300.0:-1
ipc-2014-agile-maintenance-1.3.060.180.5-002.pddl,SAT:3.22387:43.0:300.0:-1
ipc-2014-agile-maintenance-1.3.100.300.5-000.pddl,SAT:25.4978:68.0:300.0:-1
ipc-2014-agile-maintenance-1.3.100.300.5-001.pddl,SAT:26.5704:72.0:300.0:-1
ipc-2014-agile-maintenance-1.3.100.300.7-000.pddl,SAT:26.2104:56.0:300.0:-1
ipc-2014-agile-maintenance-1.3.100.300.7-001.pddl,SAT:25.5694:54.0:300.0:-1
ipc-2014-agile-maintenance-1.3.100.300.7-002.pddl,SAT:27.4137:56.0:300.0:-1
ipc-2014-agile-maintenance-1.3.150.500.6-001.pddl,SAT:3.7233:98.0:300.0:-1
ipc-2014-agile-maintenance-1.3.200.500.5-001.pddl,CRASHED:31.6043:1000000000.0:300.0:-1
ipc-2014-agile-maintenance-1.3.200.500.5-002.pddl,SAT:5.98381:127.0:300.0:-1
ipc-2014-agile-maintenance-1.3.200.700.7-000.pddl,CRASHED:1.52836:1000000000.0:300.0:-1
ipc-2014-agile-maintenance-1.3.200.700.7-001.pddl,CRASHED:1.53365:1000000000.0:300.0:-1
ipc-2014-agile-maintenance-1.3.200.700.7-002.pddl,CRASHED:1.52184:1000000000.0:300.0:-1
ipc-2014-agile-maintenance-1.3.200.900.5-000.pddl,CRASHED:1.33517:1000000000.0:300.0:-1
ipc-2014-agile-maintenance-1.3.200.900.5-001.pddl,CRASHED:1.34438:1000000000.0:300.0:-1
ipc-2014-agile-maintenance-1.3.200.900.5-002.pddl,CRASHED:1.34443:1000000000.0:300.0:-1
ipc-2014-agile-maintenance-1.3.200.900.8-000.pddl,CRASHED:1.36893:1000000000.0:300.0:-1
ipc-2014-agile-maintenance-1.3.200.900.8-001.pddl,CRASHED:1.35415:1000000000.0:300.0:-1
ipc-2014-agile-maintenance-1.3.200.900.8-002.pddl,CRASHED:1.36724:1000000000.0:300.0:-1
ipc-2014-agile-openstacks-p130_2.pddl,SAT:163.651:64.0:300.0:-1
ipc-2014-agile-openstacks-p130_3.pddl,SAT:239.138:108.0:300.0:-1
ipc-2014-agile-openstacks-p150_2.pddl,TIMEOUT:301.087:-1.0:300.0:-1
ipc-2014-agile-openstacks-p150_3.pddl,TIMEOUT:301.098:-1.0:300.0:-1
ipc-2014-agile-openstacks-p170_1.pddl,TIMEOUT:301.126:-1.0:300.0:-1
ipc-2014-agile-openstacks-p170_2.pddl,TIMEOUT:301.079:-1.0:300.0:-1
ipc-2014-agile-openstacks-p170_3.pddl,TIMEOUT:301.15:-1.0:300.0:-1
ipc-2014-agile-openstacks-p190_1.pddl,TIMEOUT:301.137:-1.0:300.0:-1
ipc-2014-agile-openstacks-p190_2.pddl,TIMEOUT:301.088:-1.0:300.0:-1
ipc-2014-agile-openstacks-p190_3.pddl,TIMEOUT:301.121:-1.0:300.0:-1
ipc-2014-agile-openstacks-p210_1.pddl,TIMEOUT:301.074:-1.0:300.0:-1
ipc-2014-agile-openstacks-p210_2.pddl,TIMEOUT:301.098:-1.0:300.0:-1
ipc-2014-agile-openstacks-p230_1.pddl,TIMEOUT:301.11:-1.0:300.0:-1
ipc-2014-agile-openstacks-p230_2.pddl,TIMEOUT:301.125:-1.0:300.0:-1
ipc-2014-agile-openstacks-p250_1.pddl,TIMEOUT:301.197:-1.0:300.0:-1
ipc-2014-agile-openstacks-p250_2.pddl,TIMEOUT:301.143:-1.0:300.0:-1
ipc-2014-agile-openstacks-p270_1.pddl,TIMEOUT:301.1:-1.0:300.0:-1
ipc-2014-agile-openstacks-p270_2.pddl,TIMEOUT:301.165:-1.0:300.0:-1
ipc-2014-agile-openstacks-p290_1.pddl,TIMEOUT:301.194:-1.0:300.0:-1
ipc-2014-agile-openstacks-p290_2.pddl,TIMEOUT:301.209:-1.0:300.0:-1
ipc-2014-agile-parking-28_2.pddl,SAT:151.124:96.0:300.0:-1
ipc-2014-agile-parking-28_3.pddl,SAT:143.544:90.0:300.0:-1
ipc-2014-agile-parking-30_1.pddl,SAT:73.4086:58.0:300.0:-1
ipc-2014-agile-parking-30_2.pddl,SAT:200.512:98.0:300.0:-1
ipc-2014-agile-parking-30_3.pddl,SAT:151.829:96.0:300.0:-1
ipc-2014-agile-parking-32_1.pddl,TIMEOUT:301.14:-1.0:300.0:-1
ipc-2014-agile-parking-32_2.pddl,TIMEOUT:301.116:-1.0:300.0:-1
ipc-2014-agile-parking-32_3.pddl,TIMEOUT:301.085:-1.0:300.0:-1
ipc-2014-agile-parking-34_1.pddl,TIMEOUT:301.158:-1.0:300.0:-1
ipc-2014-agile-parking-34_2.pddl,TIMEOUT:301.157:-1.0:300.0:-1
ipc-2014-agile-parking-34_3.pddl,TIMEOUT:301.091:-1.0:300.0:-1
ipc-2014-agile-parking-36_1.pddl,TIMEOUT:301.181:-1.0:300.0:-1
ipc-2014-agile-parking-36_2.pddl,TIMEOUT:301.168:-1.0:300.0:-1
ipc-2014-agile-parking-36_3.pddl,TIMEOUT:301.157:-1.0:300.0:-1
ipc-2014-agile-parking-38_1.pddl,TIMEOUT:301.159:-1.0:300.0:-1
ipc-2014-agile-parking-38_2.pddl,TIMEOUT:301.089:-1.0:300.0:-1
ipc-2014-agile-parking-38_3.pddl,TIMEOUT:301.118:-1.0:300.0:-1
ipc-2014-agile-parking-40_1.pddl,TIMEOUT:301.206:-1.0:300.0:-1
ipc-2014-agile-parking-40_2.pddl,TIMEOUT:301.189:-1.0:300.0:-1
ipc-2014-agile-parking-40_3.pddl,TIMEOUT:301.17:-1.0:300.0:-1
ipc-2014-agile-tetris-020.pddl,SAT:73.1142:55.0:300.0:-1
ipc-2014-agile-tetris-021.pddl,TIMEOUT:301.181:-1.0:300.0:-1
ipc-2014-agile-tetris-022.pddl,SAT:249.251:105.0:300.0:-1
ipc-2014-agile-tetris-023.pddl,TIMEOUT:301.118:-1.0:300.0:-1
ipc-2014-agile-tetris-024.pddl,TIMEOUT:301.112:-1.0:300.0:-1
ipc-2014-agile-tetris-025.pddl,TIMEOUT:301.021:-1.0:300.0:-1
ipc-2014-agile-tetris-026.pddl,TIMEOUT:301.026:-1.0:300.0:-1
ipc-2014-agile-tetris-027.pddl,TIMEOUT:301.11:-1.0:300.0:-1
ipc-2014-agile-tetris-028.pddl,TIMEOUT:301.153:-1.0:300.0:-1
ipc-2014-agile-tetris-029.pddl,TIMEOUT:301.065:-1.0:300.0:-1
ipc-2014-agile-tetris-031.pddl,TIMEOUT:301.106:-1.0:300.0:-1
ipc-2014-agile-tetris-032.pddl,TIMEOUT:301.073:-1.0:300.0:-1
ipc-2014-agile-tetris-033.pddl,TIMEOUT:301.078:-1.0:300.0:-1
ipc-2014-agile-tetris-034.pddl,TIMEOUT:301.063:-1.0:300.0:-1
ipc-2014-agile-tetris-035.pddl,TIMEOUT:301.091:-1.0:300.0:-1
ipc-2014-agile-tetris-036.pddl,TIMEOUT:301.022:-1.0:300.0:-1
ipc-2014-agile-tetris-037.pddl,TIMEOUT:301.043:-1.0:300.0:-1
ipc-2014-agile-tetris-038.pddl,TIMEOUT:301.1:-1.0:300.0:-1
ipc-2014-agile-tetris-039.pddl,TIMEOUT:301.098:-1.0:300.0:-1
ipc-2014-agile-tetris-040.pddl,TIMEOUT:301.081:-1.0:300.0:-1
ipc-2014-agile-thoughtful-bootstrap-typed-01.pddl,SAT:0.094283:29.0:300.0:-1
ipc-2014-agile-thoughtful-bootstrap-typed-02.pddl,SAT:0.088717:31.0:300.0:-1
ipc-2014-agile-thoughtful-bootstrap-typed-03.pddl,SAT:0.102776:34.0:300.0:-1
ipc-2014-agile-thoughtful-bootstrap-typed-04.pddl,SAT:0.097058:32.0:300.0:-1
ipc-2014-agile-thoughtful-bootstrap-typed-05.pddl,SAT:0.113432:35.0:300.0:-1
ipc-2014-agile-thoughtful-p11_6_53-typed.pddl,SAT:4.02206:114.0:300.0:-1
ipc-2014-agile-thoughtful-p11_6_59-typed.pddl,TIMEOUT:301.102:-1.0:300.0:-1
ipc-2014-agile-thoughtful-p11_6_62-typed.pddl,TIMEOUT:301.151:-1.0:300.0:-1
ipc-2014-agile-thoughtful-p13_7_78-typed.pddl,SAT:7.32313:149.0:300.0:-1
ipc-2014-agile-thoughtful-p13_7_79-typed.pddl,SAT:4.78096:123.0:300.0:-1
ipc-2014-agile-thoughtful-p13_7_86-typed.pddl,SAT:5.24318:143.0:300.0:-1
ipc-2014-agile-thoughtful-target-typed-20.pddl,SAT:7.28036:126.0:300.0:-1
ipc-2014-agile-thoughtful-target-typed-21.pddl,SAT:232.945:173.0:300.0:-1
ipc-2014-agile-thoughtful-target-typed-22.pddl,SAT:8.55302:154.0:300.0:-1
ipc-2014-agile-thoughtful-target-typed-23.pddl,SAT:5.70346:141.0:300.0:-1
ipc-2014-agile-thoughtful-target-typed-24.pddl,SAT:8.1535:153.0:300.0:-1
ipc-2014-agile-thoughtful-target-typed-25.pddl,SAT:18.5261:146.0:300.0:-1
ipc-2014-agile-thoughtful-target-typed-26.pddl,TIMEOUT:301.135:-1.0:300.0:-1
ipc-2014-agile-thoughtful-target-typed-27.pddl,SAT:11.1483:140.0:300.0:-1
ipc-2014-agile-thoughtful-target-typed-28.pddl,SAT:21.2834:137.0:300.0:-1
ipc-2014-agile-transport-01.pddl,SAT:97.2111:3106.0:300.0:-1
ipc-2014-agile-transport-02.pddl,SAT:190.351:3526.0:300.0:-1
ipc-2014-agile-transport-03.pddl,SAT:102.74:2949.0:300.0:-1
ipc-2014-agile-transport-04.pddl,TIMEOUT:301.167:-1.0:300.0:-1
ipc-2014-agile-transport-05.pddl,TIMEOUT:301.181:-1.0:300.0:-1
ipc-2014-agile-transport-06.pddl,TIMEOUT:301.151:-1.0:300.0:-1
ipc-2014-agile-transport-07.pddl,TIMEOUT:301.147:-1.0:300.0:-1
ipc-2014-agile-transport-08.pddl,TIMEOUT:301.231:-1.0:300.0:-1
ipc-2014-agile-transport-09.pddl,TIMEOUT:301.149:-1.0:300.0:-1
ipc-2014-agile-transport-10.pddl,TIMEOUT:301.2:-1.0:300.0:-1
ipc-2014-agile-transport-11.pddl,SAT:230.746:2366.0:300.0:-1
ipc-2014-agile-transport-12.pddl,SAT:222.794:3603.0:300.0:-1
ipc-2014-agile-transport-13.pddl,SAT:73.8706:2762.0:300.0:-1
ipc-2014-agile-transport-14.pddl,TIMEOUT:301.149:-1.0:300.0:-1
ipc-2014-agile-transport-15.pddl,TIMEOUT:301.103:-1.0:300.0:-1
ipc-2014-agile-transport-16.pddl,TIMEOUT:301.082:-1.0:300.0:-1
ipc-2014-agile-transport-17.pddl,TIMEOUT:301.187:-1.0:300.0:-1
ipc-2014-agile-transport-18.pddl,TIMEOUT:301.145:-1.0:300.0:-1
ipc-2014-agile-transport-19.pddl,TIMEOUT:301.153:-1.0:300.0:-1
ipc-2014-agile-transport-20.pddl,TIMEOUT:301.153:-1.0:300.0:-1
ipc-2014-agile-visitall-30.pddl,SAT:6.52911:899.0:300.0:-1
ipc-2014-agile-visitall-31.pddl,SAT:7.59947:960.0:300.0:-1
ipc-2014-agile-visitall-32.pddl,SAT:9.06389:1023.0:300.0:-1
ipc-2014-agile-visitall-33.pddl,SAT:10.9636:1088.0:300.0:-1
ipc-2014-agile-visitall-50.pddl,SAT:105.889:2499.0:300.0:-1
ipc-2014-agile-visitall-51.pddl,SAT:117.725:2600.0:300.0:-1
ipc-2014-agile-visitall-52.pddl,SAT:132.806:2703.0:300.0:-1
ipc-2014-agile-visitall-53.pddl,SAT:143.213:2808.0:300.0:-1
ipc-2014-agile-visitall-54.pddl,SAT:156.724:2915.0:300.0:-1
ipc-2014-agile-visitall-55.pddl,SAT:174.795:3024.0:300.0:-1
ipc-2014-agile-visitall-56.pddl,SAT:196.166:3135.0:300.0:-1
ipc-2014-agile-visitall-57.pddl,SAT:216.847:3248.0:300.0:-1
ipc-2014-agile-visitall-58.pddl,SAT:247.44:3363.0:300.0:-1
ipc-2014-agile-visitall-59.pddl,SAT:274.872:3480.0:300.0:-1
ipc-2014-agile-visitall-60.pddl,SAT:288.265:3599.0:300.0:-1
ipc-2014-agile-visitall-61.pddl,TIMEOUT:301.122:-1.0:300.0:-1
ipc-2014-agile-visitall-62.pddl,TIMEOUT:301.137:-1.0:300.0:-1
ipc-2014-agile-visitall-63.pddl,TIMEOUT:301.142:-1.0:300.0:-1
ipc-2014-agile-visitall-64.pddl,TIMEOUT:301.085:-1.0:300.0:-1
ipc-2014-agile-visitall-65.pddl,TIMEOUT:301.042:-1.0:300.0:-1
