instance,ipc-2014-agile-use
ipc-2014-agile-ged-d-10-1.pddl,SUCCESS:53.977004:38.000000:300.000000:-1
ipc-2014-agile-ged-d-10-2.pddl,SUCCESS:54.255146:43.000000:300.000000:-1
ipc-2014-agile-ged-d-10-3.pddl,SUCCESS:64.702991:59.000000:300.000000:-1
ipc-2014-agile-ged-d-10-4.pddl,SUCCESS:56.359153:36.000000:300.000000:-1
ipc-2014-agile-ged-d-10-5.pddl,SUCCESS:93.865062:53.000000:300.000000:-1
ipc-2014-agile-ged-d-10-6.pddl,SUCCESS:98.239148:52.000000:300.000000:-1
ipc-2014-agile-ged-d-11-1.pddl,SUCCESS:61.862008:27.000000:300.000000:-1
ipc-2014-agile-ged-d-11-3.pddl,SUCCESS:61.507952:29.000000:300.000000:-1
ipc-2014-agile-ged-d-11-5.pddl,SUCCESS:83.861985:30.000000:300.000000:-1
ipc-2014-agile-ged-d-11-6.pddl,SUCCESS:72.750164:55.000000:300.000000:-1
ipc-2014-agile-ged-d-12-11.pddl,SUCCESS:77.175969:37.000000:300.000000:-1
ipc-2014-agile-ged-d-12-2.pddl,SUCCESS:119.285000:38.000000:300.000000:-1
ipc-2014-agile-ged-d-12-3.pddl,SUCCESS:144.722178:67.000000:300.000000:-1
ipc-2014-agile-ged-d-12-5.pddl,SUCCESS:158.717182:72.000000:300.000000:-1
ipc-2014-agile-ged-d-12-6.pddl,SUCCESS:120.095990:47.000000:300.000000:-1
ipc-2014-agile-ged-d-12-7.pddl,SUCCESS:138.270197:48.000000:300.000000:-1
ipc-2014-agile-ged-d-12-8.pddl,SUCCESS:191.374003:59.000000:300.000000:-1
ipc-2014-agile-ged-d-12-9.pddl,SUCCESS:174.000159:56.000000:300.000000:-1
ipc-2014-agile-ged-d-3-6.pddl,SUCCESS:62.182989:29.000000:300.000000:-1
ipc-2014-agile-ged-d-9-5.pddl,SUCCESS:69.992991:32.000000:300.000000:-1
ipc-2014-agile-barman-p1-11-4-15.pddl,SUCCESS:17.125992:245.000000:300.000000:-1
ipc-2014-agile-barman-p1-11-5-15.pddl,SUCCESS:20.559833:303.000000:300.000000:-1
ipc-2014-agile-barman-p1-11-5-16.pddl,SUCCESS:18.605013:234.000000:300.000000:-1
ipc-2014-agile-barman-p2-10-4-13.pddl,SUCCESS:16.956000:262.000000:300.000000:-1
ipc-2014-agile-barman-p2-11-4-15.pddl,SUCCESS:20.181992:290.000000:300.000000:-1
ipc-2014-agile-barman-p2-11-5-15.pddl,SUCCESS:19.233846:223.000000:300.000000:-1
ipc-2014-agile-barman-p2-11-5-16.pddl,SUCCESS:24.739017:239.000000:300.000000:-1
ipc-2014-agile-barman-p2-11-5-17.pddl,SUCCESS:22.422846:262.000000:300.000000:-1
ipc-2014-agile-barman-p3-10-4-13.pddl,SUCCESS:15.161987:232.000000:300.000000:-1
ipc-2014-agile-barman-p3-11-4-15.pddl,SUCCESS:19.704000:298.000000:300.000000:-1
ipc-2014-agile-barman-p3-11-5-15.pddl,SUCCESS:22.988840:253.000000:300.000000:-1
ipc-2014-agile-barman-p3-11-5-16.pddl,SUCCESS:21.624000:248.000000:300.000000:-1
ipc-2014-agile-barman-p3-11-5-17.pddl,SUCCESS:25.125822:325.000000:300.000000:-1
ipc-2014-agile-barman-p4-11-4-14.pddl,SUCCESS:16.676839:250.000000:300.000000:-1
ipc-2014-agile-barman-p4-11-4-15.pddl,SUCCESS:21.103015:253.000000:300.000000:-1
ipc-2014-agile-barman-p4-11-5-15.pddl,SUCCESS:21.706854:231.000000:300.000000:-1
ipc-2014-agile-barman-p5-10-4-13.pddl,SUCCESS:16.340996:214.000000:300.000000:-1
ipc-2014-agile-barman-p5-11-4-15.pddl,SUCCESS:16.785974:271.000000:300.000000:-1
ipc-2014-agile-barman-p5-11-5-15.pddl,SUCCESS:19.925838:283.000000:300.000000:-1
ipc-2014-agile-barman-p5-11-5-16.pddl,SUCCESS:22.603991:243.000000:300.000000:-1
ipc-2014-agile-cavediving-01.pddl,TIMEOUT:300.000000:-1.000000:300.000000:-1
ipc-2014-agile-cavediving-01_easy.pddl,TIMEOUT:300.000000:-1.000000:300.000000:-1
ipc-2014-agile-cavediving-02_easy.pddl,TIMEOUT:300.000000:-1.000000:300.000000:-1
ipc-2014-agile-cavediving-03_easy.pddl,TIMEOUT:300.000000:-1.000000:300.000000:-1
ipc-2014-agile-cavediving-04_easy.pddl,TIMEOUT:300.000000:-1.000000:300.000000:-1
ipc-2014-agile-cavediving-05A_easy.pddl,TIMEOUT:300.000000:-1.000000:300.000000:-1
ipc-2014-agile-cavediving-06A_easy.pddl,TIMEOUT:300.000000:-1.000000:300.000000:-1
ipc-2014-agile-cavediving-07_easy.pddl,TIMEOUT:300.000000:-1.000000:300.000000:-1
ipc-2014-agile-cavediving-08_easy.pddl,TIMEOUT:300.000000:-1.000000:300.000000:-1
ipc-2014-agile-cavediving-09_easy.pddl,TIMEOUT:300.000000:-1.000000:300.000000:-1
ipc-2014-agile-cavediving-10_easy.pddl,TIMEOUT:300.000000:-1.000000:300.000000:-1
ipc-2014-agile-cavediving-11_easy.pddl,TIMEOUT:300.000000:-1.000000:300.000000:-1
ipc-2014-agile-cavediving-12_easy.pddl,TIMEOUT:300.000000:-1.000000:300.000000:-1
ipc-2014-agile-cavediving-13_easy.pddl,TIMEOUT:300.000000:-1.000000:300.000000:-1
ipc-2014-agile-cavediving-14_easy.pddl,TIMEOUT:300.000000:-1.000000:300.000000:-1
ipc-2014-agile-cavediving-15_easy.pddl,TIMEOUT:300.000000:-1.000000:300.000000:-1
ipc-2014-agile-cavediving-16_easy.pddl,TIMEOUT:300.000000:-1.000000:300.000000:-1
ipc-2014-agile-cavediving-18A_easy.pddl,TIMEOUT:300.000000:-1.000000:300.000000:-1
ipc-2014-agile-cavediving-18_easy.pddl,TIMEOUT:300.000000:-1.000000:300.000000:-1
ipc-2014-agile-cavediving-20A_easy.pddl,TIMEOUT:300.000000:-1.000000:300.000000:-1
ipc-2014-agile-childsnack-05.pddl,SUCCESS:15.665002:61.000000:300.000000:-1
ipc-2014-agile-childsnack-05-2.pddl,SUCCESS:11.198128:55.000000:300.000000:-1
ipc-2014-agile-childsnack-06-2.pddl,SUCCESS:13.714177:65.000000:300.000000:-1
ipc-2014-agile-childsnack-07-2.pddl,SUCCESS:16.002159:72.000000:300.000000:-1
ipc-2014-agile-childsnack-08.pddl,SUCCESS:73.222015:74.000000:300.000000:-1
ipc-2014-agile-childsnack-08-2.pddl,SUCCESS:157.896163:73.000000:300.000000:-1
ipc-2014-agile-childsnack-09.pddl,SUCCESS:29.642987:76.000000:300.000000:-1
ipc-2014-agile-childsnack-09-2.pddl,SUCCESS:108.780155:76.000000:300.000000:-1
ipc-2014-agile-childsnack-10.pddl,TIMEOUT:300.000000:-1.000000:300.000000:-1
ipc-2014-agile-childsnack-10-2.pddl,TIMEOUT:300.000000:-1.000000:300.000000:-1
ipc-2014-agile-childsnack-11.pddl,TIMEOUT:300.000000:-1.000000:300.000000:-1
ipc-2014-agile-childsnack-11-2.pddl,SUCCESS:95.243840:93.000000:300.000000:-1
ipc-2014-agile-childsnack-12.pddl,TIMEOUT:300.000000:-1.000000:300.000000:-1
ipc-2014-agile-childsnack-13.pddl,TIMEOUT:300.000000:-1.000000:300.000000:-1
ipc-2014-agile-childsnack-13-2.pddl,TIMEOUT:300.000000:-1.000000:300.000000:-1
ipc-2014-agile-childsnack-14.pddl,TIMEOUT:300.000000:-1.000000:300.000000:-1
ipc-2014-agile-childsnack-15-2.pddl,TIMEOUT:300.000000:-1.000000:300.000000:-1
ipc-2014-agile-childsnack-16-2.pddl,TIMEOUT:300.000000:-1.000000:300.000000:-1
ipc-2014-agile-childsnack-19.pddl,TIMEOUT:300.000000:-1.000000:300.000000:-1
ipc-2014-agile-childsnack-19-2.pddl,TIMEOUT:300.000000:-1.000000:300.000000:-1
ipc-2014-agile-citycar-p3-2-2-0-1.pddl,TIMEOUT:300.000000:-1.000000:300.000000:-1
ipc-2014-agile-citycar-p3-3-2-0-1.pddl,TIMEOUT:300.000000:-1.000000:300.000000:-1
ipc-2014-agile-citycar-p3-4-2-0-1.pddl,TIMEOUT:300.000000:-1.000000:300.000000:-1
ipc-2014-agile-citycar-p3-5-2-0-1.pddl,TIMEOUT:300.000000:-1.000000:300.000000:-1
ipc-2014-agile-citycar-p3-5-2-0-2.pddl,TIMEOUT:300.000000:-1.000000:300.000000:-1
ipc-2014-agile-citycar-p4-2-2-0-1.pddl,TIMEOUT:300.000000:-1.000000:300.000000:-1
ipc-2014-agile-citycar-p4-2-3-0-1.pddl,TIMEOUT:300.000000:-1.000000:300.000000:-1
ipc-2014-agile-citycar-p4-2-3-0-2.pddl,TIMEOUT:300.000000:-1.000000:300.000000:-1
ipc-2014-agile-citycar-p4-3-2-0-1.pddl,TIMEOUT:300.000000:-1.000000:300.000000:-1
ipc-2014-agile-citycar-p4-3-2-0-2.pddl,TIMEOUT:300.000000:-1.000000:300.000000:-1
ipc-2014-agile-citycar-p4-3-3-0-1.pddl,TIMEOUT:300.000000:-1.000000:300.000000:-1
ipc-2014-agile-citycar-p4-3-3-0-2.pddl,TIMEOUT:300.000000:-1.000000:300.000000:-1
ipc-2014-agile-citycar-p4-4-2-0-1.pddl,TIMEOUT:300.000000:-1.000000:300.000000:-1
ipc-2014-agile-citycar-p4-4-2-0-2.pddl,TIMEOUT:300.000000:-1.000000:300.000000:-1
ipc-2014-agile-citycar-p4-4-3-0-1.pddl,TIMEOUT:300.000000:-1.000000:300.000000:-1
ipc-2014-agile-citycar-p4-4-3-0-2.pddl,TIMEOUT:300.000000:-1.000000:300.000000:-1
ipc-2014-agile-citycar-p4-5-2-0-1.pddl,TIMEOUT:300.000000:-1.000000:300.000000:-1
ipc-2014-agile-citycar-p4-5-2-0-2.pddl,TIMEOUT:300.000000:-1.000000:300.000000:-1
ipc-2014-agile-citycar-p4-5-3-0-1.pddl,TIMEOUT:300.000000:-1.000000:300.000000:-1
ipc-2014-agile-citycar-p4-5-3-0-2.pddl,TIMEOUT:300.000000:-1.000000:300.000000:-1
ipc-2014-agile-floortile-p01-4-3-2.pddl,SUCCESS:44.542162:126.000000:300.000000:-1
ipc-2014-agile-floortile-p01-5-4-2.pddl,SUCCESS:299.663005:163.000000:300.000000:-1
ipc-2014-agile-floortile-p01-5-5-2.pddl,TIMEOUT:300.000000:-1.000000:300.000000:-1
ipc-2014-agile-floortile-p01-6-4-2.pddl,TIMEOUT:300.000000:-1.000000:300.000000:-1
ipc-2014-agile-floortile-p01-6-5-2.pddl,TIMEOUT:300.000000:-1.000000:300.000000:-1
ipc-2014-agile-floortile-p01-6-5-3.pddl,SUCCESS:298.518993:259.000000:300.000000:-1
ipc-2014-agile-floortile-p02-5-4-2.pddl,SUCCESS:299.040016:184.000000:300.000000:-1
ipc-2014-agile-floortile-p02-6-4-2.pddl,TIMEOUT:300.000000:-1.000000:300.000000:-1
ipc-2014-agile-floortile-p02-6-5-2.pddl,TIMEOUT:300.000000:-1.000000:300.000000:-1
ipc-2014-agile-floortile-p02-6-5-3.pddl,TIMEOUT:300.000000:-1.000000:300.000000:-1
ipc-2014-agile-floortile-p03-6-4-2.pddl,TIMEOUT:300.000000:-1.000000:300.000000:-1
ipc-2014-agile-floortile-p03-6-5-2.pddl,TIMEOUT:300.000000:-1.000000:300.000000:-1
ipc-2014-agile-floortile-p03-6-5-3.pddl,TIMEOUT:300.000000:-1.000000:300.000000:-1
ipc-2014-agile-floortile-p04-5-4-2.pddl,TIMEOUT:300.000000:-1.000000:300.000000:-1
ipc-2014-agile-floortile-p04-5-5-2.pddl,SUCCESS:299.768791:266.000000:300.000000:-1
ipc-2014-agile-floortile-p04-6-5-2.pddl,TIMEOUT:300.000000:-1.000000:300.000000:-1
ipc-2014-agile-floortile-p04-6-5-3.pddl,SUCCESS:299.916985:295.000000:300.000000:-1
ipc-2014-agile-floortile-p05-4-3-2.pddl,SUCCESS:8.782829:122.000000:300.000000:-1
ipc-2014-agile-floortile-p05-6-5-2.pddl,TIMEOUT:300.000000:-1.000000:300.000000:-1
ipc-2014-agile-floortile-p05-6-5-3.pddl,TIMEOUT:300.000000:-1.000000:300.000000:-1
ipc-2014-agile-hiking-3-4-3.pddl,SUCCESS:11.417001:15.000000:300.000000:-1
ipc-2014-agile-hiking-3-4-4.pddl,SUCCESS:21.580844:26.000000:300.000000:-1
ipc-2014-agile-hiking-3-4-5.pddl,SUCCESS:40.417004:66.000000:300.000000:-1
ipc-2014-agile-hiking-3-4-6.pddl,SUCCESS:291.933828:73.000000:300.000000:-1
ipc-2014-agile-hiking-3-4-7.pddl,TIMEOUT:300.000000:-1.000000:300.000000:-1
ipc-2014-agile-hiking-3-4-8.pddl,TIMEOUT:300.000000:-1.000000:300.000000:-1
ipc-2014-agile-hiking-3-4-9.pddl,TIMEOUT:300.000000:-1.000000:300.000000:-1
ipc-2014-agile-hiking-4-5-3.pddl,SUCCESS:34.293147:18.000000:300.000000:-1
ipc-2014-agile-hiking-4-5-4.pddl,SUCCESS:61.581984:30.000000:300.000000:-1
ipc-2014-agile-hiking-4-5-5.pddl,SUCCESS:170.990163:57.000000:300.000000:-1
ipc-2014-agile-hiking-4-5-6.pddl,TIMEOUT:300.000000:-1.000000:300.000000:-1
ipc-2014-agile-hiking-4-5-7.pddl,TIMEOUT:300.000000:-1.000000:300.000000:-1
ipc-2014-agile-hiking-4-5-8.pddl,TIMEOUT:300.000000:-1.000000:300.000000:-1
ipc-2014-agile-hiking-4-5-9.pddl,TIMEOUT:300.000000:-1.000000:300.000000:-1
ipc-2014-agile-hiking-5-6-3.pddl,SUCCESS:63.937973:19.000000:300.000000:-1
ipc-2014-agile-hiking-5-6-4.pddl,SUCCESS:237.440146:46.000000:300.000000:-1
ipc-2014-agile-hiking-5-6-5.pddl,TIMEOUT:300.000000:-1.000000:300.000000:-1
ipc-2014-agile-hiking-5-6-6.pddl,TIMEOUT:300.000000:-1.000000:300.000000:-1
ipc-2014-agile-hiking-5-6-7.pddl,TIMEOUT:300.000000:-1.000000:300.000000:-1
ipc-2014-agile-hiking-5-6-8.pddl,TIMEOUT:300.000000:-1.000000:300.000000:-1
ipc-2014-agile-maintenance-1.3.060.180.5-000.pddl,SUCCESS:5.091016:54.000000:300.000000:-1
ipc-2014-agile-maintenance-1.3.060.180.5-001.pddl,SUCCESS:6.820838:59.000000:300.000000:-1
ipc-2014-agile-maintenance-1.3.060.180.5-002.pddl,SUCCESS:4.185993:58.000000:300.000000:-1
ipc-2014-agile-maintenance-1.3.100.300.5-000.pddl,SUCCESS:176.742839:94.000000:300.000000:-1
ipc-2014-agile-maintenance-1.3.100.300.5-001.pddl,SUCCESS:30.544016:91.000000:300.000000:-1
ipc-2014-agile-maintenance-1.3.100.300.7-000.pddl,SUCCESS:8.409998:81.000000:300.000000:-1
ipc-2014-agile-maintenance-1.3.100.300.7-001.pddl,SUCCESS:8.367844:81.000000:300.000000:-1
ipc-2014-agile-maintenance-1.3.100.300.7-002.pddl,SUCCESS:8.680000:80.000000:300.000000:-1
ipc-2014-agile-maintenance-1.3.150.500.6-001.pddl,SUCCESS:18.714157:138.000000:300.000000:-1
ipc-2014-agile-maintenance-1.3.200.500.5-001.pddl,SUCCESS:21.039953:182.000000:300.000000:-1
ipc-2014-agile-maintenance-1.3.200.500.5-002.pddl,SUCCESS:38.581168:177.000000:300.000000:-1
ipc-2014-agile-maintenance-1.3.200.700.7-000.pddl,SUCCESS:29.921983:171.000000:300.000000:-1
ipc-2014-agile-maintenance-1.3.200.700.7-001.pddl,SUCCESS:46.233177:167.000000:300.000000:-1
ipc-2014-agile-maintenance-1.3.200.700.7-002.pddl,SUCCESS:71.487000:176.000000:300.000000:-1
ipc-2014-agile-maintenance-1.3.200.900.5-000.pddl,TIMEOUT:300.000000:-1.000000:300.000000:-1
ipc-2014-agile-maintenance-1.3.200.900.5-001.pddl,TIMEOUT:300.000000:-1.000000:300.000000:-1
ipc-2014-agile-maintenance-1.3.200.900.5-002.pddl,TIMEOUT:300.000000:-1.000000:300.000000:-1
ipc-2014-agile-maintenance-1.3.200.900.8-000.pddl,SUCCESS:40.471006:175.000000:300.000000:-1
ipc-2014-agile-maintenance-1.3.200.900.8-001.pddl,SUCCESS:40.931823:171.000000:300.000000:-1
ipc-2014-agile-maintenance-1.3.200.900.8-002.pddl,SUCCESS:45.550000:176.000000:300.000000:-1
ipc-2014-agile-openstacks-p130_2.pddl,SUCCESS:143.110994:81.000000:300.000000:-1
ipc-2014-agile-openstacks-p130_3.pddl,SUCCESS:205.177825:117.000000:300.000000:-1
ipc-2014-agile-openstacks-p150_2.pddl,SUCCESS:194.914838:90.000000:300.000000:-1
ipc-2014-agile-openstacks-p150_3.pddl,TIMEOUT:300.000000:-1.000000:300.000000:-1
ipc-2014-agile-openstacks-p170_1.pddl,SUCCESS:250.580130:98.000000:300.000000:-1
ipc-2014-agile-openstacks-p170_2.pddl,SUCCESS:268.211998:111.000000:300.000000:-1
ipc-2014-agile-openstacks-p170_3.pddl,TIMEOUT:300.000000:-1.000000:300.000000:-1
ipc-2014-agile-openstacks-p190_1.pddl,TIMEOUT:300.000000:-1.000000:300.000000:-1
ipc-2014-agile-openstacks-p190_2.pddl,TIMEOUT:300.000000:-1.000000:300.000000:-1
ipc-2014-agile-openstacks-p190_3.pddl,TIMEOUT:300.000000:-1.000000:300.000000:-1
ipc-2014-agile-openstacks-p210_1.pddl,TIMEOUT:300.000000:-1.000000:300.000000:-1
ipc-2014-agile-openstacks-p210_2.pddl,TIMEOUT:300.000000:-1.000000:300.000000:-1
ipc-2014-agile-openstacks-p230_1.pddl,TIMEOUT:300.000000:-1.000000:300.000000:-1
ipc-2014-agile-openstacks-p230_2.pddl,TIMEOUT:300.000000:-1.000000:300.000000:-1
ipc-2014-agile-openstacks-p250_1.pddl,TIMEOUT:300.000000:-1.000000:300.000000:-1
ipc-2014-agile-openstacks-p250_2.pddl,TIMEOUT:300.000000:-1.000000:300.000000:-1
ipc-2014-agile-openstacks-p270_1.pddl,TIMEOUT:300.000000:-1.000000:300.000000:-1
ipc-2014-agile-openstacks-p270_2.pddl,TIMEOUT:300.000000:-1.000000:300.000000:-1
ipc-2014-agile-openstacks-p290_1.pddl,TIMEOUT:300.000000:-1.000000:300.000000:-1
ipc-2014-agile-openstacks-p290_2.pddl,TIMEOUT:300.000000:-1.000000:300.000000:-1
ipc-2014-agile-parking-28_2.pddl,TIMEOUT:300.000000:-1.000000:300.000000:-1
ipc-2014-agile-parking-28_3.pddl,TIMEOUT:300.000000:-1.000000:300.000000:-1
ipc-2014-agile-parking-30_1.pddl,TIMEOUT:300.000000:-1.000000:300.000000:-1
ipc-2014-agile-parking-30_2.pddl,TIMEOUT:300.000000:-1.000000:300.000000:-1
ipc-2014-agile-parking-30_3.pddl,TIMEOUT:300.000000:-1.000000:300.000000:-1
ipc-2014-agile-parking-32_1.pddl,TIMEOUT:300.000000:-1.000000:300.000000:-1
ipc-2014-agile-parking-32_2.pddl,TIMEOUT:300.000000:-1.000000:300.000000:-1
ipc-2014-agile-parking-32_3.pddl,TIMEOUT:300.000000:-1.000000:300.000000:-1
ipc-2014-agile-parking-34_1.pddl,TIMEOUT:300.000000:-1.000000:300.000000:-1
ipc-2014-agile-parking-34_2.pddl,TIMEOUT:300.000000:-1.000000:300.000000:-1
ipc-2014-agile-parking-34_3.pddl,TIMEOUT:300.000000:-1.000000:300.000000:-1
ipc-2014-agile-parking-36_1.pddl,TIMEOUT:300.000000:-1.000000:300.000000:-1
ipc-2014-agile-parking-36_2.pddl,TIMEOUT:300.000000:-1.000000:300.000000:-1
ipc-2014-agile-parking-36_3.pddl,TIMEOUT:300.000000:-1.000000:300.000000:-1
ipc-2014-agile-parking-38_1.pddl,TIMEOUT:300.000000:-1.000000:300.000000:-1
ipc-2014-agile-parking-38_2.pddl,TIMEOUT:300.000000:-1.000000:300.000000:-1
ipc-2014-agile-parking-38_3.pddl,TIMEOUT:300.000000:-1.000000:300.000000:-1
ipc-2014-agile-parking-40_1.pddl,TIMEOUT:300.000000:-1.000000:300.000000:-1
ipc-2014-agile-parking-40_2.pddl,TIMEOUT:300.000000:-1.000000:300.000000:-1
ipc-2014-agile-parking-40_3.pddl,TIMEOUT:300.000000:-1.000000:300.000000:-1
ipc-2014-agile-tetris-020.pddl,SUCCESS:68.282823:147.000000:300.000000:-1
ipc-2014-agile-tetris-021.pddl,TIMEOUT:300.000000:-1.000000:300.000000:-1
ipc-2014-agile-tetris-022.pddl,TIMEOUT:300.000000:-1.000000:300.000000:-1
ipc-2014-agile-tetris-023.pddl,TIMEOUT:300.000000:-1.000000:300.000000:-1
ipc-2014-agile-tetris-024.pddl,TIMEOUT:300.000000:-1.000000:300.000000:-1
ipc-2014-agile-tetris-025.pddl,SUCCESS:167.858163:286.000000:300.000000:-1
ipc-2014-agile-tetris-026.pddl,TIMEOUT:300.000000:-1.000000:300.000000:-1
ipc-2014-agile-tetris-027.pddl,TIMEOUT:300.000000:-1.000000:300.000000:-1
ipc-2014-agile-tetris-028.pddl,TIMEOUT:300.000000:-1.000000:300.000000:-1
ipc-2014-agile-tetris-029.pddl,TIMEOUT:300.000000:-1.000000:300.000000:-1
ipc-2014-agile-tetris-031.pddl,TIMEOUT:300.000000:-1.000000:300.000000:-1
ipc-2014-agile-tetris-032.pddl,TIMEOUT:300.000000:-1.000000:300.000000:-1
ipc-2014-agile-tetris-033.pddl,TIMEOUT:300.000000:-1.000000:300.000000:-1
ipc-2014-agile-tetris-034.pddl,TIMEOUT:300.000000:-1.000000:300.000000:-1
ipc-2014-agile-tetris-035.pddl,TIMEOUT:300.000000:-1.000000:300.000000:-1
ipc-2014-agile-tetris-036.pddl,TIMEOUT:300.000000:-1.000000:300.000000:-1
ipc-2014-agile-tetris-037.pddl,TIMEOUT:300.000000:-1.000000:300.000000:-1
ipc-2014-agile-tetris-038.pddl,TIMEOUT:300.000000:-1.000000:300.000000:-1
ipc-2014-agile-tetris-039.pddl,TIMEOUT:300.000000:-1.000000:300.000000:-1
ipc-2014-agile-tetris-040.pddl,TIMEOUT:300.000000:-1.000000:300.000000:-1
ipc-2014-agile-thoughtful-bootstrap-typed-01.pddl,TIMEOUT:300.000000:-1.000000:300.000000:-1
ipc-2014-agile-thoughtful-bootstrap-typed-02.pddl,TIMEOUT:300.000000:-1.000000:300.000000:-1
ipc-2014-agile-thoughtful-bootstrap-typed-03.pddl,TIMEOUT:300.000000:-1.000000:300.000000:-1
ipc-2014-agile-thoughtful-bootstrap-typed-04.pddl,TIMEOUT:300.000000:-1.000000:300.000000:-1
ipc-2014-agile-thoughtful-bootstrap-typed-05.pddl,TIMEOUT:300.000000:-1.000000:300.000000:-1
ipc-2014-agile-thoughtful-p11_6_53-typed.pddl,TIMEOUT:300.000000:-1.000000:300.000000:-1
ipc-2014-agile-thoughtful-p11_6_59-typed.pddl,TIMEOUT:300.000000:-1.000000:300.000000:-1
ipc-2014-agile-thoughtful-p11_6_62-typed.pddl,TIMEOUT:300.000000:-1.000000:300.000000:-1
ipc-2014-agile-thoughtful-p13_7_78-typed.pddl,TIMEOUT:300.000000:-1.000000:300.000000:-1
ipc-2014-agile-thoughtful-p13_7_79-typed.pddl,TIMEOUT:300.000000:-1.000000:300.000000:-1
ipc-2014-agile-thoughtful-p13_7_86-typed.pddl,TIMEOUT:300.000000:-1.000000:300.000000:-1
ipc-2014-agile-thoughtful-target-typed-20.pddl,TIMEOUT:300.000000:-1.000000:300.000000:-1
ipc-2014-agile-thoughtful-target-typed-21.pddl,TIMEOUT:300.000000:-1.000000:300.000000:-1
ipc-2014-agile-thoughtful-target-typed-22.pddl,TIMEOUT:300.000000:-1.000000:300.000000:-1
ipc-2014-agile-thoughtful-target-typed-23.pddl,TIMEOUT:300.000000:-1.000000:300.000000:-1
ipc-2014-agile-thoughtful-target-typed-24.pddl,TIMEOUT:300.000000:-1.000000:300.000000:-1
ipc-2014-agile-thoughtful-target-typed-25.pddl,TIMEOUT:300.000000:-1.000000:300.000000:-1
ipc-2014-agile-thoughtful-target-typed-26.pddl,TIMEOUT:300.000000:-1.000000:300.000000:-1
ipc-2014-agile-thoughtful-target-typed-27.pddl,TIMEOUT:300.000000:-1.000000:300.000000:-1
ipc-2014-agile-thoughtful-target-typed-28.pddl,TIMEOUT:300.000000:-1.000000:300.000000:-1
ipc-2014-agile-transport-01.pddl,SUCCESS:167.697035:2645.000000:300.000000:-1
ipc-2014-agile-transport-02.pddl,TIMEOUT:300.000000:-1.000000:300.000000:-1
ipc-2014-agile-transport-03.pddl,SUCCESS:222.636940:3977.000000:300.000000:-1
ipc-2014-agile-transport-04.pddl,TIMEOUT:300.000000:-1.000000:300.000000:-1
ipc-2014-agile-transport-05.pddl,TIMEOUT:300.000000:-1.000000:300.000000:-1
ipc-2014-agile-transport-06.pddl,TIMEOUT:300.000000:-1.000000:300.000000:-1
ipc-2014-agile-transport-07.pddl,TIMEOUT:300.000000:-1.000000:300.000000:-1
ipc-2014-agile-transport-08.pddl,TIMEOUT:300.000000:-1.000000:300.000000:-1
ipc-2014-agile-transport-09.pddl,TIMEOUT:300.000000:-1.000000:300.000000:-1
ipc-2014-agile-transport-10.pddl,TIMEOUT:300.000000:-1.000000:300.000000:-1
ipc-2014-agile-transport-11.pddl,TIMEOUT:300.000000:-1.000000:300.000000:-1
ipc-2014-agile-transport-12.pddl,TIMEOUT:300.000000:-1.000000:300.000000:-1
ipc-2014-agile-transport-13.pddl,SUCCESS:174.645984:3498.000000:300.000000:-1
ipc-2014-agile-transport-14.pddl,TIMEOUT:300.000000:-1.000000:300.000000:-1
ipc-2014-agile-transport-15.pddl,TIMEOUT:300.000000:-1.000000:300.000000:-1
ipc-2014-agile-transport-16.pddl,TIMEOUT:300.000000:-1.000000:300.000000:-1
ipc-2014-agile-transport-17.pddl,TIMEOUT:300.000000:-1.000000:300.000000:-1
ipc-2014-agile-transport-18.pddl,TIMEOUT:300.000000:-1.000000:300.000000:-1
ipc-2014-agile-transport-19.pddl,TIMEOUT:300.000000:-1.000000:300.000000:-1
ipc-2014-agile-transport-20.pddl,TIMEOUT:300.000000:-1.000000:300.000000:-1
ipc-2014-agile-visitall-30.pddl,SUCCESS:35.084134:1240.000000:300.000000:-1
ipc-2014-agile-visitall-31.pddl,SUCCESS:39.511037:1382.000000:300.000000:-1
ipc-2014-agile-visitall-32.pddl,SUCCESS:37.570151:1478.000000:300.000000:-1
ipc-2014-agile-visitall-33.pddl,SUCCESS:52.176001:1568.000000:300.000000:-1
ipc-2014-agile-visitall-50.pddl,SUCCESS:243.252225:3409.000000:300.000000:-1
ipc-2014-agile-visitall-51.pddl,SUCCESS:273.439000:3638.000000:300.000000:-1
ipc-2014-agile-visitall-52.pddl,SUCCESS:261.339176:3699.000000:300.000000:-1
ipc-2014-agile-visitall-53.pddl,TIMEOUT:300.000000:-1.000000:300.000000:-1
ipc-2014-agile-visitall-54.pddl,TIMEOUT:300.000000:-1.000000:300.000000:-1
ipc-2014-agile-visitall-55.pddl,TIMEOUT:300.000000:-1.000000:300.000000:-1
ipc-2014-agile-visitall-56.pddl,TIMEOUT:300.000000:-1.000000:300.000000:-1
ipc-2014-agile-visitall-57.pddl,TIMEOUT:300.000000:-1.000000:300.000000:-1
ipc-2014-agile-visitall-58.pddl,TIMEOUT:300.000000:-1.000000:300.000000:-1
ipc-2014-agile-visitall-59.pddl,TIMEOUT:300.000000:-1.000000:300.000000:-1
ipc-2014-agile-visitall-60.pddl,TIMEOUT:300.000000:-1.000000:300.000000:-1
ipc-2014-agile-visitall-61.pddl,TIMEOUT:300.000000:-1.000000:300.000000:-1
ipc-2014-agile-visitall-62.pddl,TIMEOUT:300.000000:-1.000000:300.000000:-1
ipc-2014-agile-visitall-63.pddl,TIMEOUT:300.000000:-1.000000:300.000000:-1
ipc-2014-agile-visitall-64.pddl,TIMEOUT:300.000000:-1.000000:300.000000:-1
ipc-2014-agile-visitall-65.pddl,TIMEOUT:300.000000:-1.000000:300.000000:-1
