instance,ipc-2014-agile-bfs-f
ipc-2014-agile-barman-p1-11-4-15.pddl,SAT:28.3308:183.0:300.0:-1
ipc-2014-agile-barman-p1-11-5-15.pddl,SAT:32.9759:185.0:300.0:-1
ipc-2014-agile-barman-p1-11-5-16.pddl,SAT:1.14158:154.0:300.0:-1
ipc-2014-agile-barman-p2-10-4-13.pddl,SAT:1.92222:144.0:300.0:-1
ipc-2014-agile-barman-p2-11-4-15.pddl,SAT:2.26147:165.0:300.0:-1
ipc-2014-agile-barman-p2-11-5-15.pddl,SAT:0.886977:153.0:300.0:-1
ipc-2014-agile-barman-p2-11-5-16.pddl,SAT:3.64435:173.0:300.0:-1
ipc-2014-agile-barman-p2-11-5-17.pddl,SAT:14.9627:203.0:300.0:-1
ipc-2014-agile-barman-p3-10-4-13.pddl,SAT:1.24577:141.0:300.0:-1
ipc-2014-agile-barman-p3-11-4-15.pddl,SAT:1.64952:166.0:300.0:-1
ipc-2014-agile-barman-p3-11-5-15.pddl,SAT:5.81971:178.0:300.0:-1
ipc-2014-agile-barman-p3-11-5-16.pddl,SAT:1.31798:168.0:300.0:-1
ipc-2014-agile-barman-p3-11-5-17.pddl,SAT:4.9004:175.0:300.0:-1
ipc-2014-agile-barman-p4-11-4-14.pddl,SAT:2.841:161.0:300.0:-1
ipc-2014-agile-barman-p4-11-4-15.pddl,SAT:5.62953:159.0:300.0:-1
ipc-2014-agile-barman-p4-11-5-15.pddl,SAT:4.70853:156.0:300.0:-1
ipc-2014-agile-barman-p5-10-4-13.pddl,SAT:1.4487:142.0:300.0:-1
ipc-2014-agile-barman-p5-11-4-15.pddl,SAT:5.00966:176.0:300.0:-1
ipc-2014-agile-barman-p5-11-5-15.pddl,SAT:7.07285:157.0:300.0:-1
ipc-2014-agile-barman-p5-11-5-16.pddl,SAT:3.14518:160.0:300.0:-1
ipc-2014-agile-cavediving-01_easy.pddl,TIMEOUT:301.191:-1.0:300.0:-1
ipc-2014-agile-cavediving-01.pddl,TIMEOUT:301.236:-1.0:300.0:-1
ipc-2014-agile-cavediving-02_easy.pddl,TIMEOUT:301.183:-1.0:300.0:-1
ipc-2014-agile-cavediving-03_easy.pddl,TIMEOUT:301.205:-1.0:300.0:-1
ipc-2014-agile-cavediving-04_easy.pddl,TIMEOUT:301.14:-1.0:300.0:-1
ipc-2014-agile-cavediving-05A_easy.pddl,SAT:0.243887:94.0:300.0:-1
ipc-2014-agile-cavediving-06A_easy.pddl,SAT:0.247249:95.0:300.0:-1
ipc-2014-agile-cavediving-07_easy.pddl,SAT:0.44857:131.0:300.0:-1
ipc-2014-agile-cavediving-08_easy.pddl,SAT:0.254353:90.0:300.0:-1
ipc-2014-agile-cavediving-09_easy.pddl,TIMEOUT:301.195:-1.0:300.0:-1
ipc-2014-agile-cavediving-10_easy.pddl,TIMEOUT:301.194:-1.0:300.0:-1
ipc-2014-agile-cavediving-11_easy.pddl,TIMEOUT:301.158:-1.0:300.0:-1
ipc-2014-agile-cavediving-12_easy.pddl,TIMEOUT:301.198:-1.0:300.0:-1
ipc-2014-agile-cavediving-13_easy.pddl,TIMEOUT:301.209:-1.0:300.0:-1
ipc-2014-agile-cavediving-14_easy.pddl,TIMEOUT:301.221:-1.0:300.0:-1
ipc-2014-agile-cavediving-15_easy.pddl,TIMEOUT:301.166:-1.0:300.0:-1
ipc-2014-agile-cavediving-16_easy.pddl,TIMEOUT:301.172:-1.0:300.0:-1
ipc-2014-agile-cavediving-18A_easy.pddl,SAT:0.738006:131.0:300.0:-1
ipc-2014-agile-cavediving-18_easy.pddl,SAT:1.82564:131.0:300.0:-1
ipc-2014-agile-cavediving-20A_easy.pddl,SAT:0.622105:98.0:300.0:-1
ipc-2014-agile-childsnack-05-2.pddl,SAT:50.3992:46.0:300.0:-1
ipc-2014-agile-childsnack-05.pddl,SAT:0.470026:47.0:300.0:-1
ipc-2014-agile-childsnack-06-2.pddl,SAT:45.2417:50.0:300.0:-1
ipc-2014-agile-childsnack-07-2.pddl,SAT:1.38461:57.0:300.0:-1
ipc-2014-agile-childsnack-08-2.pddl,CRASHED:290.852:63.0:300.0:-1
ipc-2014-agile-childsnack-08.pddl,SAT:185.273:61.0:300.0:-1
ipc-2014-agile-childsnack-09-2.pddl,TIMEOUT:301.401:-1.0:300.0:-1
ipc-2014-agile-childsnack-09.pddl,SAT:9.50624:67.0:300.0:-1
ipc-2014-agile-childsnack-10-2.pddl,SAT:8.36126:72.0:300.0:-1
ipc-2014-agile-childsnack-10.pddl,SAT:6.24944:72.0:300.0:-1
ipc-2014-agile-childsnack-11-2.pddl,SAT:10.1555:77.0:300.0:-1
ipc-2014-agile-childsnack-11.pddl,TIMEOUT:301.25:-1.0:300.0:-1
ipc-2014-agile-childsnack-12.pddl,TIMEOUT:301.218:-1.0:300.0:-1
ipc-2014-agile-childsnack-13-2.pddl,TIMEOUT:301.304:-1.0:300.0:-1
ipc-2014-agile-childsnack-13.pddl,TIMEOUT:301.363:-1.0:300.0:-1
ipc-2014-agile-childsnack-14.pddl,TIMEOUT:301.311:-1.0:300.0:-1
ipc-2014-agile-childsnack-15-2.pddl,TIMEOUT:301.26:-1.0:300.0:-1
ipc-2014-agile-childsnack-16-2.pddl,TIMEOUT:301.345:-1.0:300.0:-1
ipc-2014-agile-childsnack-19-2.pddl,TIMEOUT:301.407:-1.0:300.0:-1
ipc-2014-agile-childsnack-19.pddl,TIMEOUT:301.354:-1.0:300.0:-1
ipc-2014-agile-citycar-p3-2-2-0-1.pddl,SAT:0.576136:110.0:300.0:-1
ipc-2014-agile-citycar-p3-3-2-0-1.pddl,SAT:14.709:285.0:300.0:-1
ipc-2014-agile-citycar-p3-4-2-0-1.pddl,SAT:3.56168:240.0:300.0:-1
ipc-2014-agile-citycar-p3-5-2-0-1.pddl,SAT:4.04976:241.0:300.0:-1
ipc-2014-agile-citycar-p3-5-2-0-2.pddl,SAT:9.36067:307.0:300.0:-1
ipc-2014-agile-citycar-p4-2-2-0-1.pddl,TIMEOUT:301.425:-1.0:300.0:-1
ipc-2014-agile-citycar-p4-2-3-0-1.pddl,TIMEOUT:301.41:-1.0:300.0:-1
ipc-2014-agile-citycar-p4-2-3-0-2.pddl,TIMEOUT:301.41:-1.0:300.0:-1
ipc-2014-agile-citycar-p4-3-2-0-1.pddl,TIMEOUT:301.452:-1.0:300.0:-1
ipc-2014-agile-citycar-p4-3-2-0-2.pddl,TIMEOUT:301.411:-1.0:300.0:-1
ipc-2014-agile-citycar-p4-3-3-0-1.pddl,TIMEOUT:301.432:-1.0:300.0:-1
ipc-2014-agile-citycar-p4-3-3-0-2.pddl,TIMEOUT:301.222:-1.0:300.0:-1
ipc-2014-agile-citycar-p4-4-2-0-1.pddl,TIMEOUT:301.266:-1.0:300.0:-1
ipc-2014-agile-citycar-p4-4-2-0-2.pddl,TIMEOUT:301.29:-1.0:300.0:-1
ipc-2014-agile-citycar-p4-4-3-0-1.pddl,TIMEOUT:301.379:-1.0:300.0:-1
ipc-2014-agile-citycar-p4-4-3-0-2.pddl,TIMEOUT:301.328:-1.0:300.0:-1
ipc-2014-agile-citycar-p4-5-2-0-1.pddl,TIMEOUT:301.421:-1.0:300.0:-1
ipc-2014-agile-citycar-p4-5-2-0-2.pddl,TIMEOUT:301.322:-1.0:300.0:-1
ipc-2014-agile-citycar-p4-5-3-0-1.pddl,TIMEOUT:301.246:-1.0:300.0:-1
ipc-2014-agile-citycar-p4-5-3-0-2.pddl,TIMEOUT:301.207:-1.0:300.0:-1
ipc-2014-agile-floortile-p01-4-3-2.pddl,SAT:2.03864:101.0:300.0:-1
ipc-2014-agile-floortile-p01-5-4-2.pddl,TIMEOUT:301.165:-1.0:300.0:-1
ipc-2014-agile-floortile-p01-5-5-2.pddl,SAT:149.379:177.0:300.0:-1
ipc-2014-agile-floortile-p01-6-4-2.pddl,SAT:181.146:193.0:300.0:-1
ipc-2014-agile-floortile-p01-6-5-2.pddl,TIMEOUT:301.248:-1.0:300.0:-1
ipc-2014-agile-floortile-p01-6-5-3.pddl,TIMEOUT:301.268:-1.0:300.0:-1
ipc-2014-agile-floortile-p02-5-4-2.pddl,TIMEOUT:301.155:-1.0:300.0:-1
ipc-2014-agile-floortile-p02-6-4-2.pddl,TIMEOUT:301.227:-1.0:300.0:-1
ipc-2014-agile-floortile-p02-6-5-2.pddl,TIMEOUT:301.199:-1.0:300.0:-1
ipc-2014-agile-floortile-p02-6-5-3.pddl,TIMEOUT:301.219:-1.0:300.0:-1
ipc-2014-agile-floortile-p03-6-4-2.pddl,TIMEOUT:301.224:-1.0:300.0:-1
ipc-2014-agile-floortile-p03-6-5-2.pddl,TIMEOUT:301.253:-1.0:300.0:-1
ipc-2014-agile-floortile-p03-6-5-3.pddl,TIMEOUT:301.218:-1.0:300.0:-1
ipc-2014-agile-floortile-p04-5-4-2.pddl,TIMEOUT:301.181:-1.0:300.0:-1
ipc-2014-agile-floortile-p04-5-5-2.pddl,TIMEOUT:301.148:-1.0:300.0:-1
ipc-2014-agile-floortile-p04-6-5-2.pddl,TIMEOUT:301.231:-1.0:300.0:-1
ipc-2014-agile-floortile-p04-6-5-3.pddl,TIMEOUT:301.162:-1.0:300.0:-1
ipc-2014-agile-floortile-p05-4-3-2.pddl,SAT:0.22332:72.0:300.0:-1
ipc-2014-agile-floortile-p05-6-5-2.pddl,TIMEOUT:301.197:-1.0:300.0:-1
ipc-2014-agile-floortile-p05-6-5-3.pddl,TIMEOUT:301.196:-1.0:300.0:-1
ipc-2014-agile-ged-d-10-1.pddl,SAT:3.88161:39.0:300.0:-1
ipc-2014-agile-ged-d-10-2.pddl,SAT:3.8395:40.0:300.0:-1
ipc-2014-agile-ged-d-10-3.pddl,SAT:5.35311:41.0:300.0:-1
ipc-2014-agile-ged-d-10-4.pddl,SAT:2.80251:34.0:300.0:-1
ipc-2014-agile-ged-d-10-5.pddl,TIMEOUT:301.103:-1.0:300.0:-1
ipc-2014-agile-ged-d-10-6.pddl,SAT:276.795:56.0:300.0:-1
ipc-2014-agile-ged-d-11-1.pddl,SAT:5.18412:45.0:300.0:-1
ipc-2014-agile-ged-d-11-3.pddl,TIMEOUT:301.1:-1.0:300.0:-1
ipc-2014-agile-ged-d-11-5.pddl,SAT:12.4112:55.0:300.0:-1
ipc-2014-agile-ged-d-11-6.pddl,TIMEOUT:301.086:-1.0:300.0:-1
ipc-2014-agile-ged-d-12-11.pddl,TIMEOUT:301.096:-1.0:300.0:-1
ipc-2014-agile-ged-d-12-2.pddl,TIMEOUT:301.085:-1.0:300.0:-1
ipc-2014-agile-ged-d-12-3.pddl,TIMEOUT:301.038:-1.0:300.0:-1
ipc-2014-agile-ged-d-12-5.pddl,TIMEOUT:301.121:-1.0:300.0:-1
ipc-2014-agile-ged-d-12-6.pddl,TIMEOUT:301.079:-1.0:300.0:-1
ipc-2014-agile-ged-d-12-7.pddl,SAT:38.9222:62.0:300.0:-1
ipc-2014-agile-ged-d-12-8.pddl,TIMEOUT:301.097:-1.0:300.0:-1
ipc-2014-agile-ged-d-12-9.pddl,TIMEOUT:301.062:-1.0:300.0:-1
ipc-2014-agile-ged-d-3-6.pddl,SAT:2.73633:32.0:300.0:-1
ipc-2014-agile-ged-d-9-5.pddl,SAT:236.502:31.0:300.0:-1
ipc-2014-agile-hiking-3-4-3.pddl,SAT:8.51608:17.0:300.0:-1
ipc-2014-agile-hiking-3-4-4.pddl,SAT:45.9308:23.0:300.0:-1
ipc-2014-agile-hiking-3-4-5.pddl,SAT:269.901:45.0:300.0:-1
ipc-2014-agile-hiking-3-4-6.pddl,TIMEOUT:301.087:-1.0:300.0:-1
ipc-2014-agile-hiking-3-4-7.pddl,TIMEOUT:301.087:-1.0:300.0:-1
ipc-2014-agile-hiking-3-4-8.pddl,TIMEOUT:301.043:-1.0:300.0:-1
ipc-2014-agile-hiking-3-4-9.pddl,TIMEOUT:301.085:-1.0:300.0:-1
ipc-2014-agile-hiking-4-5-3.pddl,SAT:130.786:20.0:300.0:-1
ipc-2014-agile-hiking-4-5-4.pddl,TIMEOUT:301.052:-1.0:300.0:-1
ipc-2014-agile-hiking-4-5-5.pddl,TIMEOUT:301.122:-1.0:300.0:-1
ipc-2014-agile-hiking-4-5-6.pddl,TIMEOUT:301.098:-1.0:300.0:-1
ipc-2014-agile-hiking-4-5-7.pddl,TIMEOUT:301.153:-1.0:300.0:-1
ipc-2014-agile-hiking-4-5-8.pddl,TIMEOUT:301.118:-1.0:300.0:-1
ipc-2014-agile-hiking-4-5-9.pddl,TIMEOUT:301.135:-1.0:300.0:-1
ipc-2014-agile-hiking-5-6-3.pddl,TIMEOUT:301.032:-1.0:300.0:-1
ipc-2014-agile-hiking-5-6-4.pddl,TIMEOUT:301.096:-1.0:300.0:-1
ipc-2014-agile-hiking-5-6-5.pddl,TIMEOUT:301.135:-1.0:300.0:-1
ipc-2014-agile-hiking-5-6-6.pddl,TIMEOUT:301.16:-1.0:300.0:-1
ipc-2014-agile-hiking-5-6-7.pddl,TIMEOUT:301.203:-1.0:300.0:-1
ipc-2014-agile-hiking-5-6-8.pddl,TIMEOUT:301.19:-1.0:300.0:-1
ipc-2014-agile-maintenance-1.3.060.180.5-000.pddl,SAT:3.08222:40.0:300.0:-1
ipc-2014-agile-maintenance-1.3.060.180.5-001.pddl,SAT:7.57969:44.0:300.0:-1
ipc-2014-agile-maintenance-1.3.060.180.5-002.pddl,SAT:3.5015:43.0:300.0:-1
ipc-2014-agile-maintenance-1.3.100.300.5-000.pddl,SAT:29.9087:68.0:300.0:-1
ipc-2014-agile-maintenance-1.3.100.300.5-001.pddl,SAT:32.7054:72.0:300.0:-1
ipc-2014-agile-maintenance-1.3.100.300.7-000.pddl,SAT:32.537:56.0:300.0:-1
ipc-2014-agile-maintenance-1.3.100.300.7-001.pddl,SAT:31.8929:54.0:300.0:-1
ipc-2014-agile-maintenance-1.3.100.300.7-002.pddl,SAT:31.8864:56.0:300.0:-1
ipc-2014-agile-maintenance-1.3.150.500.6-001.pddl,CRASHED:3.75374:98.0:300.0:-1
ipc-2014-agile-maintenance-1.3.200.500.5-001.pddl,CRASHED:31.1705:1000000000.0:300.0:-1
ipc-2014-agile-maintenance-1.3.200.500.5-002.pddl,CRASHED:5.95229:127.0:300.0:-1
ipc-2014-agile-maintenance-1.3.200.700.7-000.pddl,CRASHED:1.52906:1000000000.0:300.0:-1
ipc-2014-agile-maintenance-1.3.200.700.7-001.pddl,CRASHED:1.52621:1000000000.0:300.0:-1
ipc-2014-agile-maintenance-1.3.200.700.7-002.pddl,CRASHED:1.61977:1000000000.0:300.0:-1
ipc-2014-agile-maintenance-1.3.200.900.5-000.pddl,CRASHED:1.42885:1000000000.0:300.0:-1
ipc-2014-agile-maintenance-1.3.200.900.5-001.pddl,CRASHED:1.41541:1000000000.0:300.0:-1
ipc-2014-agile-maintenance-1.3.200.900.5-002.pddl,CRASHED:1.33425:1000000000.0:300.0:-1
ipc-2014-agile-maintenance-1.3.200.900.8-000.pddl,CRASHED:1.36853:1000000000.0:300.0:-1
ipc-2014-agile-maintenance-1.3.200.900.8-001.pddl,CRASHED:1.36204:1000000000.0:300.0:-1
ipc-2014-agile-maintenance-1.3.200.900.8-002.pddl,CRASHED:1.46034:1000000000.0:300.0:-1
ipc-2014-agile-openstacks-p130_2.pddl,SAT:226.543:64.0:300.0:-1
ipc-2014-agile-openstacks-p130_3.pddl,TIMEOUT:301.051:-1.0:300.0:-1
ipc-2014-agile-openstacks-p150_2.pddl,TIMEOUT:301.082:-1.0:300.0:-1
ipc-2014-agile-openstacks-p150_3.pddl,TIMEOUT:301.104:-1.0:300.0:-1
ipc-2014-agile-openstacks-p170_1.pddl,TIMEOUT:301.127:-1.0:300.0:-1
ipc-2014-agile-openstacks-p170_2.pddl,TIMEOUT:301.061:-1.0:300.0:-1
ipc-2014-agile-openstacks-p170_3.pddl,TIMEOUT:301.077:-1.0:300.0:-1
ipc-2014-agile-openstacks-p190_1.pddl,TIMEOUT:301.11:-1.0:300.0:-1
ipc-2014-agile-openstacks-p190_2.pddl,TIMEOUT:301.164:-1.0:300.0:-1
ipc-2014-agile-openstacks-p190_3.pddl,TIMEOUT:301.132:-1.0:300.0:-1
ipc-2014-agile-openstacks-p210_1.pddl,TIMEOUT:301.147:-1.0:300.0:-1
ipc-2014-agile-openstacks-p210_2.pddl,TIMEOUT:301.098:-1.0:300.0:-1
ipc-2014-agile-openstacks-p230_1.pddl,TIMEOUT:301.174:-1.0:300.0:-1
ipc-2014-agile-openstacks-p230_2.pddl,TIMEOUT:301.15:-1.0:300.0:-1
ipc-2014-agile-openstacks-p250_1.pddl,TIMEOUT:301.167:-1.0:300.0:-1
ipc-2014-agile-openstacks-p250_2.pddl,TIMEOUT:301.132:-1.0:300.0:-1
ipc-2014-agile-openstacks-p270_1.pddl,TIMEOUT:301.252:-1.0:300.0:-1
ipc-2014-agile-openstacks-p270_2.pddl,TIMEOUT:301.207:-1.0:300.0:-1
ipc-2014-agile-openstacks-p290_1.pddl,TIMEOUT:301.174:-1.0:300.0:-1
ipc-2014-agile-openstacks-p290_2.pddl,TIMEOUT:301.241:-1.0:300.0:-1
ipc-2014-agile-parking-28_2.pddl,SAT:159.136:96.0:300.0:-1
ipc-2014-agile-parking-28_3.pddl,SAT:149.72:90.0:300.0:-1
ipc-2014-agile-parking-30_1.pddl,SAT:68.3619:58.0:300.0:-1
ipc-2014-agile-parking-30_2.pddl,SAT:195.463:98.0:300.0:-1
ipc-2014-agile-parking-30_3.pddl,SAT:147.754:96.0:300.0:-1
ipc-2014-agile-parking-32_1.pddl,TIMEOUT:301.143:-1.0:300.0:-1
ipc-2014-agile-parking-32_2.pddl,TIMEOUT:301.138:-1.0:300.0:-1
ipc-2014-agile-parking-32_3.pddl,TIMEOUT:301.106:-1.0:300.0:-1
ipc-2014-agile-parking-34_1.pddl,TIMEOUT:301.109:-1.0:300.0:-1
ipc-2014-agile-parking-34_2.pddl,TIMEOUT:301.062:-1.0:300.0:-1
ipc-2014-agile-parking-34_3.pddl,TIMEOUT:301.081:-1.0:300.0:-1
ipc-2014-agile-parking-36_1.pddl,TIMEOUT:301.193:-1.0:300.0:-1
ipc-2014-agile-parking-36_2.pddl,TIMEOUT:301.131:-1.0:300.0:-1
ipc-2014-agile-parking-36_3.pddl,TIMEOUT:301.171:-1.0:300.0:-1
ipc-2014-agile-parking-38_1.pddl,TIMEOUT:301.19:-1.0:300.0:-1
ipc-2014-agile-parking-38_2.pddl,TIMEOUT:301.193:-1.0:300.0:-1
ipc-2014-agile-parking-38_3.pddl,TIMEOUT:301.116:-1.0:300.0:-1
ipc-2014-agile-parking-40_1.pddl,TIMEOUT:301.191:-1.0:300.0:-1
ipc-2014-agile-parking-40_2.pddl,TIMEOUT:301.179:-1.0:300.0:-1
ipc-2014-agile-parking-40_3.pddl,TIMEOUT:301.171:-1.0:300.0:-1
ipc-2014-agile-tetris-020.pddl,SAT:83.4071:55.0:300.0:-1
ipc-2014-agile-tetris-021.pddl,TIMEOUT:301.209:-1.0:300.0:-1
ipc-2014-agile-tetris-022.pddl,SAT:298.12:105.0:300.0:-1
ipc-2014-agile-tetris-023.pddl,TIMEOUT:301.122:-1.0:300.0:-1
ipc-2014-agile-tetris-024.pddl,TIMEOUT:301.193:-1.0:300.0:-1
ipc-2014-agile-tetris-025.pddl,TIMEOUT:301.133:-1.0:300.0:-1
ipc-2014-agile-tetris-026.pddl,TIMEOUT:301.167:-1.0:300.0:-1
ipc-2014-agile-tetris-027.pddl,TIMEOUT:301.187:-1.0:300.0:-1
ipc-2014-agile-tetris-028.pddl,TIMEOUT:301.196:-1.0:300.0:-1
ipc-2014-agile-tetris-029.pddl,TIMEOUT:301.058:-1.0:300.0:-1
ipc-2014-agile-tetris-031.pddl,TIMEOUT:301.105:-1.0:300.0:-1
ipc-2014-agile-tetris-032.pddl,TIMEOUT:301.024:-1.0:300.0:-1
ipc-2014-agile-tetris-033.pddl,TIMEOUT:301.086:-1.0:300.0:-1
ipc-2014-agile-tetris-034.pddl,TIMEOUT:301.087:-1.0:300.0:-1
ipc-2014-agile-tetris-035.pddl,TIMEOUT:301.013:-1.0:300.0:-1
ipc-2014-agile-tetris-036.pddl,TIMEOUT:301.063:-1.0:300.0:-1
ipc-2014-agile-tetris-037.pddl,TIMEOUT:301.005:-1.0:300.0:-1
ipc-2014-agile-tetris-038.pddl,TIMEOUT:301.059:-1.0:300.0:-1
ipc-2014-agile-tetris-039.pddl,TIMEOUT:301.103:-1.0:300.0:-1
ipc-2014-agile-tetris-040.pddl,TIMEOUT:301.078:-1.0:300.0:-1
ipc-2014-agile-thoughtful-bootstrap-typed-01.pddl,SAT:0.09511:29.0:300.0:-1
ipc-2014-agile-thoughtful-bootstrap-typed-02.pddl,SAT:0.088994:31.0:300.0:-1
ipc-2014-agile-thoughtful-bootstrap-typed-03.pddl,SAT:0.102958:34.0:300.0:-1
ipc-2014-agile-thoughtful-bootstrap-typed-04.pddl,SAT:0.099802:32.0:300.0:-1
ipc-2014-agile-thoughtful-bootstrap-typed-05.pddl,SAT:0.113713:35.0:300.0:-1
ipc-2014-agile-thoughtful-p11_6_53-typed.pddl,SAT:4.28056:114.0:300.0:-1
ipc-2014-agile-thoughtful-p11_6_59-typed.pddl,TIMEOUT:301.133:-1.0:300.0:-1
ipc-2014-agile-thoughtful-p11_6_62-typed.pddl,TIMEOUT:301.143:-1.0:300.0:-1
ipc-2014-agile-thoughtful-p13_7_78-typed.pddl,SAT:8.84519:149.0:300.0:-1
ipc-2014-agile-thoughtful-p13_7_79-typed.pddl,SAT:5.63098:123.0:300.0:-1
ipc-2014-agile-thoughtful-p13_7_86-typed.pddl,SAT:6.44712:143.0:300.0:-1
ipc-2014-agile-thoughtful-target-typed-20.pddl,SAT:8.80251:126.0:300.0:-1
ipc-2014-agile-thoughtful-target-typed-21.pddl,TIMEOUT:301.083:-1.0:300.0:-1
ipc-2014-agile-thoughtful-target-typed-22.pddl,SAT:10.539:154.0:300.0:-1
ipc-2014-agile-thoughtful-target-typed-23.pddl,SAT:5.58267:141.0:300.0:-1
ipc-2014-agile-thoughtful-target-typed-24.pddl,SAT:7.83146:153.0:300.0:-1
ipc-2014-agile-thoughtful-target-typed-25.pddl,SAT:17.4927:146.0:300.0:-1
ipc-2014-agile-thoughtful-target-typed-26.pddl,TIMEOUT:301.132:-1.0:300.0:-1
ipc-2014-agile-thoughtful-target-typed-27.pddl,SAT:14.3925:140.0:300.0:-1
ipc-2014-agile-thoughtful-target-typed-28.pddl,SAT:22.5824:137.0:300.0:-1
ipc-2014-agile-transport-01.pddl,SAT:81.7232:3106.0:300.0:-1
ipc-2014-agile-transport-02.pddl,SAT:164.972:3526.0:300.0:-1
ipc-2014-agile-transport-03.pddl,SAT:94.879:2949.0:300.0:-1
ipc-2014-agile-transport-04.pddl,TIMEOUT:301.12:-1.0:300.0:-1
ipc-2014-agile-transport-05.pddl,TIMEOUT:301.162:-1.0:300.0:-1
ipc-2014-agile-transport-06.pddl,TIMEOUT:301.174:-1.0:300.0:-1
ipc-2014-agile-transport-07.pddl,TIMEOUT:301.117:-1.0:300.0:-1
ipc-2014-agile-transport-08.pddl,TIMEOUT:301.134:-1.0:300.0:-1
ipc-2014-agile-transport-09.pddl,TIMEOUT:301.116:-1.0:300.0:-1
ipc-2014-agile-transport-10.pddl,TIMEOUT:301.165:-1.0:300.0:-1
ipc-2014-agile-transport-11.pddl,SAT:223.052:2366.0:300.0:-1
ipc-2014-agile-transport-12.pddl,SAT:205.029:3603.0:300.0:-1
ipc-2014-agile-transport-13.pddl,SAT:69.3193:2762.0:300.0:-1
ipc-2014-agile-transport-14.pddl,TIMEOUT:301.172:-1.0:300.0:-1
ipc-2014-agile-transport-15.pddl,TIMEOUT:301.152:-1.0:300.0:-1
ipc-2014-agile-transport-16.pddl,TIMEOUT:301.121:-1.0:300.0:-1
ipc-2014-agile-transport-17.pddl,TIMEOUT:301.177:-1.0:300.0:-1
ipc-2014-agile-transport-18.pddl,TIMEOUT:301.202:-1.0:300.0:-1
ipc-2014-agile-transport-19.pddl,TIMEOUT:301.128:-1.0:300.0:-1
ipc-2014-agile-transport-20.pddl,TIMEOUT:301.236:-1.0:300.0:-1
ipc-2014-agile-visitall-30.pddl,SAT:6.55639:899.0:300.0:-1
ipc-2014-agile-visitall-31.pddl,SAT:7.7521:960.0:300.0:-1
ipc-2014-agile-visitall-32.pddl,SAT:8.84986:1023.0:300.0:-1
ipc-2014-agile-visitall-33.pddl,SAT:10.363:1088.0:300.0:-1
ipc-2014-agile-visitall-50.pddl,SAT:114.035:2499.0:300.0:-1
ipc-2014-agile-visitall-51.pddl,SAT:117.707:2600.0:300.0:-1
ipc-2014-agile-visitall-52.pddl,SAT:129.918:2703.0:300.0:-1
ipc-2014-agile-visitall-53.pddl,SAT:144.631:2808.0:300.0:-1
ipc-2014-agile-visitall-54.pddl,SAT:163.02:2915.0:300.0:-1
ipc-2014-agile-visitall-55.pddl,SAT:187.815:3024.0:300.0:-1
ipc-2014-agile-visitall-56.pddl,SAT:189.392:3135.0:300.0:-1
ipc-2014-agile-visitall-57.pddl,SAT:216.31:3248.0:300.0:-1
ipc-2014-agile-visitall-58.pddl,SAT:235.387:3363.0:300.0:-1
ipc-2014-agile-visitall-59.pddl,SAT:263.572:3480.0:300.0:-1
ipc-2014-agile-visitall-60.pddl,SAT:279.604:3599.0:300.0:-1
ipc-2014-agile-visitall-61.pddl,TIMEOUT:301.173:-1.0:300.0:-1
ipc-2014-agile-visitall-62.pddl,TIMEOUT:301.167:-1.0:300.0:-1
ipc-2014-agile-visitall-63.pddl,TIMEOUT:301.16:-1.0:300.0:-1
ipc-2014-agile-visitall-64.pddl,TIMEOUT:301.146:-1.0:300.0:-1
ipc-2014-agile-visitall-65.pddl,TIMEOUT:301.098:-1.0:300.0:-1
