instance,ipc-2014-agile-freelunch
ipc-2014-agile-barman-p1-11-4-15.pddl,CRASHED:0.609299:1000000000.0:300.0:-1
ipc-2014-agile-barman-p1-11-5-15.pddl,CRASHED:0.665923:1000000000.0:300.0:-1
ipc-2014-agile-barman-p1-11-5-16.pddl,CRASHED:0.774981:1000000000.0:300.0:-1
ipc-2014-agile-barman-p2-10-4-13.pddl,CRASHED:0.546699:1000000000.0:300.0:-1
ipc-2014-agile-barman-p2-11-4-15.pddl,CRASHED:0.638751:1000000000.0:300.0:-1
ipc-2014-agile-barman-p2-11-5-15.pddl,CRASHED:0.756203:1000000000.0:300.0:-1
ipc-2014-agile-barman-p2-11-5-16.pddl,CRASHED:0.807657:1000000000.0:300.0:-1
ipc-2014-agile-barman-p2-11-5-17.pddl,CRASHED:0.836407:1000000000.0:300.0:-1
ipc-2014-agile-barman-p3-10-4-13.pddl,CRASHED:0.563934:1000000000.0:300.0:-1
ipc-2014-agile-barman-p3-11-4-15.pddl,CRASHED:0.67246:1000000000.0:300.0:-1
ipc-2014-agile-barman-p3-11-5-15.pddl,CRASHED:0.75683:1000000000.0:300.0:-1
ipc-2014-agile-barman-p3-11-5-16.pddl,CRASHED:0.744971:1000000000.0:300.0:-1
ipc-2014-agile-barman-p3-11-5-17.pddl,CRASHED:0.77348:1000000000.0:300.0:-1
ipc-2014-agile-barman-p4-11-4-14.pddl,CRASHED:0.595711:1000000000.0:300.0:-1
ipc-2014-agile-barman-p4-11-4-15.pddl,CRASHED:0.595125:1000000000.0:300.0:-1
ipc-2014-agile-barman-p4-11-5-15.pddl,CRASHED:0.660569:1000000000.0:300.0:-1
ipc-2014-agile-barman-p5-10-4-13.pddl,CRASHED:0.507253:1000000000.0:300.0:-1
ipc-2014-agile-barman-p5-11-4-15.pddl,CRASHED:0.596586:1000000000.0:300.0:-1
ipc-2014-agile-barman-p5-11-5-15.pddl,CRASHED:0.662126:1000000000.0:300.0:-1
ipc-2014-agile-barman-p5-11-5-16.pddl,CRASHED:0.717148:1000000000.0:300.0:-1
ipc-2014-agile-cavediving-01_easy.pddl,CRASHED:0.581272:1000000000.0:300.0:-1
ipc-2014-agile-cavediving-01.pddl,CRASHED:0.757803:1000000000.0:300.0:-1
ipc-2014-agile-cavediving-02_easy.pddl,CRASHED:0.573076:1000000000.0:300.0:-1
ipc-2014-agile-cavediving-03_easy.pddl,CRASHED:0.564034:1000000000.0:300.0:-1
ipc-2014-agile-cavediving-04_easy.pddl,CRASHED:0.586638:1000000000.0:300.0:-1
ipc-2014-agile-cavediving-05A_easy.pddl,CRASHED:0.162144:1000000000.0:300.0:-1
ipc-2014-agile-cavediving-06A_easy.pddl,CRASHED:0.168043:1000000000.0:300.0:-1
ipc-2014-agile-cavediving-07_easy.pddl,CRASHED:0.17371:1000000000.0:300.0:-1
ipc-2014-agile-cavediving-08_easy.pddl,CRASHED:0.169034:1000000000.0:300.0:-1
ipc-2014-agile-cavediving-09_easy.pddl,CRASHED:3.10863:1000000000.0:300.0:-1
ipc-2014-agile-cavediving-10_easy.pddl,CRASHED:2.84878:1000000000.0:300.0:-1
ipc-2014-agile-cavediving-11_easy.pddl,CRASHED:3.20381:1000000000.0:300.0:-1
ipc-2014-agile-cavediving-12_easy.pddl,CRASHED:2.96816:1000000000.0:300.0:-1
ipc-2014-agile-cavediving-13_easy.pddl,CRASHED:0.790626:1000000000.0:300.0:-1
ipc-2014-agile-cavediving-14_easy.pddl,CRASHED:0.811081:1000000000.0:300.0:-1
ipc-2014-agile-cavediving-15_easy.pddl,CRASHED:0.755839:1000000000.0:300.0:-1
ipc-2014-agile-cavediving-16_easy.pddl,CRASHED:0.796471:1000000000.0:300.0:-1
ipc-2014-agile-cavediving-18A_easy.pddl,CRASHED:0.219609:1000000000.0:300.0:-1
ipc-2014-agile-cavediving-18_easy.pddl,CRASHED:0.241943:1000000000.0:300.0:-1
ipc-2014-agile-cavediving-20A_easy.pddl,CRASHED:0.223691:1000000000.0:300.0:-1
ipc-2014-agile-childsnack-05-2.pddl,CRASHED:0.368942:1000000000.0:300.0:-1
ipc-2014-agile-childsnack-05.pddl,CRASHED:0.369242:1000000000.0:300.0:-1
ipc-2014-agile-childsnack-06-2.pddl,CRASHED:0.459298:1000000000.0:300.0:-1
ipc-2014-agile-childsnack-07-2.pddl,CRASHED:0.523052:1000000000.0:300.0:-1
ipc-2014-agile-childsnack-08-2.pddl,CRASHED:0.654142:1000000000.0:300.0:-1
ipc-2014-agile-childsnack-08.pddl,CRASHED:0.652077:1000000000.0:300.0:-1
ipc-2014-agile-childsnack-09-2.pddl,CRASHED:0.807931:1000000000.0:300.0:-1
ipc-2014-agile-childsnack-09.pddl,CRASHED:0.794208:1000000000.0:300.0:-1
ipc-2014-agile-childsnack-10-2.pddl,CRASHED:0.987198:1000000000.0:300.0:-1
ipc-2014-agile-childsnack-10.pddl,CRASHED:0.990184:1000000000.0:300.0:-1
ipc-2014-agile-childsnack-11-2.pddl,CRASHED:1.13136:1000000000.0:300.0:-1
ipc-2014-agile-childsnack-11.pddl,CRASHED:1.13343:1000000000.0:300.0:-1
ipc-2014-agile-childsnack-12.pddl,CRASHED:1.42631:1000000000.0:300.0:-1
ipc-2014-agile-childsnack-13-2.pddl,CRASHED:1.70627:1000000000.0:300.0:-1
ipc-2014-agile-childsnack-13.pddl,CRASHED:1.71119:1000000000.0:300.0:-1
ipc-2014-agile-childsnack-14.pddl,CRASHED:1.95505:1000000000.0:300.0:-1
ipc-2014-agile-childsnack-15-2.pddl,CRASHED:2.50801:1000000000.0:300.0:-1
ipc-2014-agile-childsnack-16-2.pddl,CRASHED:2.93326:1000000000.0:300.0:-1
ipc-2014-agile-childsnack-19-2.pddl,CRASHED:4.42307:1000000000.0:300.0:-1
ipc-2014-agile-childsnack-19.pddl,CRASHED:4.36075:1000000000.0:300.0:-1
ipc-2014-agile-citycar-p3-2-2-0-1.pddl,CRASHED:0.298344:1000000000.0:300.0:-1
ipc-2014-agile-citycar-p3-3-2-0-1.pddl,CRASHED:0.387603:1000000000.0:300.0:-1
ipc-2014-agile-citycar-p3-4-2-0-1.pddl,CRASHED:0.463931:1000000000.0:300.0:-1
ipc-2014-agile-citycar-p3-5-2-0-1.pddl,CRASHED:0.543406:1000000000.0:300.0:-1
ipc-2014-agile-citycar-p3-5-2-0-2.pddl,CRASHED:0.548011:1000000000.0:300.0:-1
ipc-2014-agile-citycar-p4-2-2-0-1.pddl,CRASHED:0.684012:1000000000.0:300.0:-1
ipc-2014-agile-citycar-p4-2-3-0-1.pddl,CRASHED:0.690635:1000000000.0:300.0:-1
ipc-2014-agile-citycar-p4-2-3-0-2.pddl,CRASHED:0.686291:1000000000.0:300.0:-1
ipc-2014-agile-citycar-p4-3-2-0-1.pddl,CRASHED:0.880572:1000000000.0:300.0:-1
ipc-2014-agile-citycar-p4-3-2-0-2.pddl,CRASHED:0.889282:1000000000.0:300.0:-1
ipc-2014-agile-citycar-p4-3-3-0-1.pddl,CRASHED:0.872423:1000000000.0:300.0:-1
ipc-2014-agile-citycar-p4-3-3-0-2.pddl,CRASHED:0.883218:1000000000.0:300.0:-1
ipc-2014-agile-citycar-p4-4-2-0-1.pddl,CRASHED:1.10173:1000000000.0:300.0:-1
ipc-2014-agile-citycar-p4-4-2-0-2.pddl,CRASHED:1.11183:1000000000.0:300.0:-1
ipc-2014-agile-citycar-p4-4-3-0-1.pddl,CRASHED:1.08499:1000000000.0:300.0:-1
ipc-2014-agile-citycar-p4-4-3-0-2.pddl,CRASHED:1.04836:1000000000.0:300.0:-1
ipc-2014-agile-citycar-p4-5-2-0-1.pddl,CRASHED:1.30733:1000000000.0:300.0:-1
ipc-2014-agile-citycar-p4-5-2-0-2.pddl,CRASHED:1.28373:1000000000.0:300.0:-1
ipc-2014-agile-citycar-p4-5-3-0-1.pddl,CRASHED:1.29103:1000000000.0:300.0:-1
ipc-2014-agile-citycar-p4-5-3-0-2.pddl,CRASHED:1.28729:1000000000.0:300.0:-1
ipc-2014-agile-floortile-p01-4-3-2.pddl,CRASHED:0.104135:1000000000.0:300.0:-1
ipc-2014-agile-floortile-p01-5-4-2.pddl,CRASHED:0.13464:1000000000.0:300.0:-1
ipc-2014-agile-floortile-p01-5-5-2.pddl,CRASHED:0.152234:1000000000.0:300.0:-1
ipc-2014-agile-floortile-p01-6-4-2.pddl,CRASHED:0.153617:1000000000.0:300.0:-1
ipc-2014-agile-floortile-p01-6-5-2.pddl,CRASHED:0.178021:1000000000.0:300.0:-1
ipc-2014-agile-floortile-p01-6-5-3.pddl,CRASHED:0.214032:1000000000.0:300.0:-1
ipc-2014-agile-floortile-p02-5-4-2.pddl,CRASHED:0.135884:1000000000.0:300.0:-1
ipc-2014-agile-floortile-p02-6-4-2.pddl,CRASHED:0.151496:1000000000.0:300.0:-1
ipc-2014-agile-floortile-p02-6-5-2.pddl,CRASHED:0.173743:1000000000.0:300.0:-1
ipc-2014-agile-floortile-p02-6-5-3.pddl,CRASHED:0.213064:1000000000.0:300.0:-1
ipc-2014-agile-floortile-p03-6-4-2.pddl,CRASHED:0.14857:1000000000.0:300.0:-1
ipc-2014-agile-floortile-p03-6-5-2.pddl,CRASHED:0.171028:1000000000.0:300.0:-1
ipc-2014-agile-floortile-p03-6-5-3.pddl,CRASHED:0.211303:1000000000.0:300.0:-1
ipc-2014-agile-floortile-p04-5-4-2.pddl,CRASHED:0.129885:1000000000.0:300.0:-1
ipc-2014-agile-floortile-p04-5-5-2.pddl,CRASHED:0.155087:1000000000.0:300.0:-1
ipc-2014-agile-floortile-p04-6-5-2.pddl,CRASHED:0.170709:1000000000.0:300.0:-1
ipc-2014-agile-floortile-p04-6-5-3.pddl,CRASHED:0.205356:1000000000.0:300.0:-1
ipc-2014-agile-floortile-p05-4-3-2.pddl,CRASHED:0.094411:1000000000.0:300.0:-1
ipc-2014-agile-floortile-p05-6-5-2.pddl,CRASHED:0.151781:1000000000.0:300.0:-1
ipc-2014-agile-floortile-p05-6-5-3.pddl,CRASHED:0.188207:1000000000.0:300.0:-1
ipc-2014-agile-ged-d-10-1.pddl,CRASHED:1.25974:1000000000.0:300.0:-1
ipc-2014-agile-ged-d-10-2.pddl,CRASHED:1.25883:1000000000.0:300.0:-1
ipc-2014-agile-ged-d-10-3.pddl,CRASHED:1.40065:1000000000.0:300.0:-1
ipc-2014-agile-ged-d-10-4.pddl,CRASHED:1.23455:1000000000.0:300.0:-1
ipc-2014-agile-ged-d-10-5.pddl,CRASHED:1.8024:1000000000.0:300.0:-1
ipc-2014-agile-ged-d-10-6.pddl,CRASHED:1.80356:1000000000.0:300.0:-1
ipc-2014-agile-ged-d-11-1.pddl,CRASHED:1.40778:1000000000.0:300.0:-1
ipc-2014-agile-ged-d-11-3.pddl,CRASHED:1.39881:1000000000.0:300.0:-1
ipc-2014-agile-ged-d-11-5.pddl,CRASHED:1.63159:1000000000.0:300.0:-1
ipc-2014-agile-ged-d-11-6.pddl,CRASHED:1.509:1000000000.0:300.0:-1
ipc-2014-agile-ged-d-12-11.pddl,CRASHED:1.57485:1000000000.0:300.0:-1
ipc-2014-agile-ged-d-12-2.pddl,CRASHED:2.36878:1000000000.0:300.0:-1
ipc-2014-agile-ged-d-12-3.pddl,CRASHED:2.42047:1000000000.0:300.0:-1
ipc-2014-agile-ged-d-12-5.pddl,CRASHED:2.61627:1000000000.0:300.0:-1
ipc-2014-agile-ged-d-12-6.pddl,CRASHED:2.22191:1000000000.0:300.0:-1
ipc-2014-agile-ged-d-12-7.pddl,CRASHED:2.37826:1000000000.0:300.0:-1
ipc-2014-agile-ged-d-12-8.pddl,CRASHED:2.77359:1000000000.0:300.0:-1
ipc-2014-agile-ged-d-12-9.pddl,CRASHED:2.95008:1000000000.0:300.0:-1
ipc-2014-agile-ged-d-3-6.pddl,CRASHED:1.47078:1000000000.0:300.0:-1
ipc-2014-agile-ged-d-9-5.pddl,CRASHED:1.64159:1000000000.0:300.0:-1
ipc-2014-agile-hiking-3-4-3.pddl,CRASHED:1.13619:1000000000.0:300.0:-1
ipc-2014-agile-hiking-3-4-4.pddl,CRASHED:2.11406:1000000000.0:300.0:-1
ipc-2014-agile-hiking-3-4-5.pddl,CRASHED:3.29466:1000000000.0:300.0:-1
ipc-2014-agile-hiking-3-4-6.pddl,CRASHED:4.79495:1000000000.0:300.0:-1
ipc-2014-agile-hiking-3-4-7.pddl,CRASHED:6.8964:1000000000.0:300.0:-1
ipc-2014-agile-hiking-3-4-8.pddl,CRASHED:8.82816:1000000000.0:300.0:-1
ipc-2014-agile-hiking-3-4-9.pddl,CRASHED:11.1193:1000000000.0:300.0:-1
ipc-2014-agile-hiking-4-5-3.pddl,CRASHED:3.45083:1000000000.0:300.0:-1
ipc-2014-agile-hiking-4-5-4.pddl,CRASHED:6.34638:1000000000.0:300.0:-1
ipc-2014-agile-hiking-4-5-5.pddl,CRASHED:9.93247:1000000000.0:300.0:-1
ipc-2014-agile-hiking-4-5-6.pddl,CRASHED:14.2768:1000000000.0:300.0:-1
ipc-2014-agile-hiking-4-5-7.pddl,CRASHED:19.2436:1000000000.0:300.0:-1
ipc-2014-agile-hiking-4-5-8.pddl,CRASHED:25.7912:1000000000.0:300.0:-1
ipc-2014-agile-hiking-4-5-9.pddl,CRASHED:32.3127:1000000000.0:300.0:-1
ipc-2014-agile-hiking-5-6-3.pddl,CRASHED:7.53778:1000000000.0:300.0:-1
ipc-2014-agile-hiking-5-6-4.pddl,CRASHED:13.626:1000000000.0:300.0:-1
ipc-2014-agile-hiking-5-6-5.pddl,CRASHED:21.7688:1000000000.0:300.0:-1
ipc-2014-agile-hiking-5-6-6.pddl,CRASHED:30.8051:1000000000.0:300.0:-1
ipc-2014-agile-hiking-5-6-7.pddl,CRASHED:41.8568:1000000000.0:300.0:-1
ipc-2014-agile-hiking-5-6-8.pddl,CRASHED:54.7344:1000000000.0:300.0:-1
ipc-2014-agile-maintenance-1.3.060.180.5-000.pddl,CRASHED:0.569253:1000000000.0:300.0:-1
ipc-2014-agile-maintenance-1.3.060.180.5-001.pddl,CRASHED:0.540852:1000000000.0:300.0:-1
ipc-2014-agile-maintenance-1.3.060.180.5-002.pddl,CRASHED:0.535336:1000000000.0:300.0:-1
ipc-2014-agile-maintenance-1.3.100.300.5-000.pddl,CRASHED:1.36368:1000000000.0:300.0:-1
ipc-2014-agile-maintenance-1.3.100.300.5-001.pddl,CRASHED:1.35374:1000000000.0:300.0:-1
ipc-2014-agile-maintenance-1.3.100.300.7-000.pddl,CRASHED:1.80938:1000000000.0:300.0:-1
ipc-2014-agile-maintenance-1.3.100.300.7-001.pddl,CRASHED:1.81405:1000000000.0:300.0:-1
ipc-2014-agile-maintenance-1.3.100.300.7-002.pddl,CRASHED:1.84159:1000000000.0:300.0:-1
ipc-2014-agile-maintenance-1.3.150.500.6-001.pddl,CRASHED:4.00289:1000000000.0:300.0:-1
ipc-2014-agile-maintenance-1.3.200.500.5-001.pddl,CRASHED:4.71987:1000000000.0:300.0:-1
ipc-2014-agile-maintenance-1.3.200.500.5-002.pddl,CRASHED:4.66823:1000000000.0:300.0:-1
ipc-2014-agile-maintenance-1.3.200.700.7-000.pddl,CRASHED:8.21253:1000000000.0:300.0:-1
ipc-2014-agile-maintenance-1.3.200.700.7-001.pddl,CRASHED:8.09311:1000000000.0:300.0:-1
ipc-2014-agile-maintenance-1.3.200.700.7-002.pddl,CRASHED:8.11477:1000000000.0:300.0:-1
ipc-2014-agile-maintenance-1.3.200.900.5-000.pddl,CRASHED:8.28029:1000000000.0:300.0:-1
ipc-2014-agile-maintenance-1.3.200.900.5-001.pddl,CRASHED:8.28212:1000000000.0:300.0:-1
ipc-2014-agile-maintenance-1.3.200.900.5-002.pddl,CRASHED:8.25225:1000000000.0:300.0:-1
ipc-2014-agile-maintenance-1.3.200.900.8-000.pddl,CRASHED:11.242:1000000000.0:300.0:-1
ipc-2014-agile-maintenance-1.3.200.900.8-001.pddl,CRASHED:10.8922:1000000000.0:300.0:-1
ipc-2014-agile-maintenance-1.3.200.900.8-002.pddl,CRASHED:10.9143:1000000000.0:300.0:-1
ipc-2014-agile-openstacks-p130_2.pddl,CRASHED:7.52519:1000000000.0:300.0:-1
ipc-2014-agile-openstacks-p130_3.pddl,CRASHED:8.32926:1000000000.0:300.0:-1
ipc-2014-agile-openstacks-p150_2.pddl,CRASHED:9.53058:1000000000.0:300.0:-1
ipc-2014-agile-openstacks-p150_3.pddl,CRASHED:11.4788:1000000000.0:300.0:-1
ipc-2014-agile-openstacks-p170_1.pddl,CRASHED:12.347:1000000000.0:300.0:-1
ipc-2014-agile-openstacks-p170_2.pddl,CRASHED:12.6802:1000000000.0:300.0:-1
ipc-2014-agile-openstacks-p170_3.pddl,CRASHED:14.7083:1000000000.0:300.0:-1
ipc-2014-agile-openstacks-p190_1.pddl,CRASHED:15.7426:1000000000.0:300.0:-1
ipc-2014-agile-openstacks-p190_2.pddl,CRASHED:16.2261:1000000000.0:300.0:-1
ipc-2014-agile-openstacks-p190_3.pddl,CRASHED:18.8716:1000000000.0:300.0:-1
ipc-2014-agile-openstacks-p210_1.pddl,CRASHED:18.8815:1000000000.0:300.0:-1
ipc-2014-agile-openstacks-p210_2.pddl,CRASHED:20.9691:1000000000.0:300.0:-1
ipc-2014-agile-openstacks-p230_1.pddl,CRASHED:26.391:1000000000.0:300.0:-1
ipc-2014-agile-openstacks-p230_2.pddl,CRASHED:27.4478:1000000000.0:300.0:-1
ipc-2014-agile-openstacks-p250_1.pddl,CRASHED:29.6922:1000000000.0:300.0:-1
ipc-2014-agile-openstacks-p250_2.pddl,CRASHED:31.5839:1000000000.0:300.0:-1
ipc-2014-agile-openstacks-p270_1.pddl,CRASHED:36.7205:1000000000.0:300.0:-1
ipc-2014-agile-openstacks-p270_2.pddl,CRASHED:33.1818:1000000000.0:300.0:-1
ipc-2014-agile-openstacks-p290_1.pddl,CRASHED:36.9277:1000000000.0:300.0:-1
ipc-2014-agile-openstacks-p290_2.pddl,CRASHED:38.0522:1000000000.0:300.0:-1
ipc-2014-agile-parking-28_2.pddl,CRASHED:9.72661:1000000000.0:300.0:-1
ipc-2014-agile-parking-28_3.pddl,CRASHED:10.1125:1000000000.0:300.0:-1
ipc-2014-agile-parking-30_1.pddl,CRASHED:12.0065:1000000000.0:300.0:-1
ipc-2014-agile-parking-30_2.pddl,CRASHED:12.3495:1000000000.0:300.0:-1
ipc-2014-agile-parking-30_3.pddl,CRASHED:12.4161:1000000000.0:300.0:-1
ipc-2014-agile-parking-32_1.pddl,CRASHED:14.9197:1000000000.0:300.0:-1
ipc-2014-agile-parking-32_2.pddl,CRASHED:15.0387:1000000000.0:300.0:-1
ipc-2014-agile-parking-32_3.pddl,CRASHED:15.6019:1000000000.0:300.0:-1
ipc-2014-agile-parking-34_1.pddl,CRASHED:19.3511:1000000000.0:300.0:-1
ipc-2014-agile-parking-34_2.pddl,CRASHED:18.7527:1000000000.0:300.0:-1
ipc-2014-agile-parking-34_3.pddl,CRASHED:17.2765:1000000000.0:300.0:-1
ipc-2014-agile-parking-36_1.pddl,CRASHED:20.2114:1000000000.0:300.0:-1
ipc-2014-agile-parking-36_2.pddl,CRASHED:21.5977:1000000000.0:300.0:-1
ipc-2014-agile-parking-36_3.pddl,CRASHED:21.6362:1000000000.0:300.0:-1
ipc-2014-agile-parking-38_1.pddl,CRASHED:25.479:1000000000.0:300.0:-1
ipc-2014-agile-parking-38_2.pddl,CRASHED:24.6862:1000000000.0:300.0:-1
ipc-2014-agile-parking-38_3.pddl,CRASHED:26.2236:1000000000.0:300.0:-1
ipc-2014-agile-parking-40_1.pddl,CRASHED:29.7565:1000000000.0:300.0:-1
ipc-2014-agile-parking-40_2.pddl,CRASHED:29.0217:1000000000.0:300.0:-1
ipc-2014-agile-parking-40_3.pddl,CRASHED:28.6444:1000000000.0:300.0:-1
ipc-2014-agile-tetris-020.pddl,CRASHED:3.43998:1000000000.0:300.0:-1
ipc-2014-agile-tetris-021.pddl,CRASHED:11.4615:1000000000.0:300.0:-1
ipc-2014-agile-tetris-022.pddl,CRASHED:7.76974:1000000000.0:300.0:-1
ipc-2014-agile-tetris-023.pddl,CRASHED:7.5539:1000000000.0:300.0:-1
ipc-2014-agile-tetris-024.pddl,CRASHED:10.9201:1000000000.0:300.0:-1
ipc-2014-agile-tetris-025.pddl,CRASHED:4.11868:1000000000.0:300.0:-1
ipc-2014-agile-tetris-026.pddl,CRASHED:20.8579:1000000000.0:300.0:-1
ipc-2014-agile-tetris-027.pddl,CRASHED:18.1163:1000000000.0:300.0:-1
ipc-2014-agile-tetris-028.pddl,CRASHED:14.8181:1000000000.0:300.0:-1
ipc-2014-agile-tetris-029.pddl,CRASHED:4.25122:1000000000.0:300.0:-1
ipc-2014-agile-tetris-031.pddl,CRASHED:25.2323:1000000000.0:300.0:-1
ipc-2014-agile-tetris-032.pddl,CRASHED:9.37095:1000000000.0:300.0:-1
ipc-2014-agile-tetris-033.pddl,CRASHED:22.5194:1000000000.0:300.0:-1
ipc-2014-agile-tetris-034.pddl,CRASHED:22.1188:1000000000.0:300.0:-1
ipc-2014-agile-tetris-035.pddl,CRASHED:25.9457:1000000000.0:300.0:-1
ipc-2014-agile-tetris-036.pddl,CRASHED:22.1877:1000000000.0:300.0:-1
ipc-2014-agile-tetris-037.pddl,CRASHED:5.36329:1000000000.0:300.0:-1
ipc-2014-agile-tetris-038.pddl,CRASHED:17.3616:1000000000.0:300.0:-1
ipc-2014-agile-tetris-039.pddl,CRASHED:25.2574:1000000000.0:300.0:-1
ipc-2014-agile-tetris-040.pddl,CRASHED:17.568:1000000000.0:300.0:-1
ipc-2014-agile-thoughtful-bootstrap-typed-01.pddl,CRASHED:0.096365:1000000000.0:300.0:-1
ipc-2014-agile-thoughtful-bootstrap-typed-02.pddl,CRASHED:0.099039:1000000000.0:300.0:-1
ipc-2014-agile-thoughtful-bootstrap-typed-03.pddl,CRASHED:0.095831:1000000000.0:300.0:-1
ipc-2014-agile-thoughtful-bootstrap-typed-04.pddl,CRASHED:0.095092:1000000000.0:300.0:-1
ipc-2014-agile-thoughtful-bootstrap-typed-05.pddl,CRASHED:0.09665:1000000000.0:300.0:-1
ipc-2014-agile-thoughtful-p11_6_53-typed.pddl,CRASHED:0.112002:1000000000.0:300.0:-1
ipc-2014-agile-thoughtful-p11_6_59-typed.pddl,CRASHED:0.109259:1000000000.0:300.0:-1
ipc-2014-agile-thoughtful-p11_6_62-typed.pddl,CRASHED:0.110245:1000000000.0:300.0:-1
ipc-2014-agile-thoughtful-p13_7_78-typed.pddl,CRASHED:0.111722:1000000000.0:300.0:-1
ipc-2014-agile-thoughtful-p13_7_79-typed.pddl,CRASHED:0.113867:1000000000.0:300.0:-1
ipc-2014-agile-thoughtful-p13_7_86-typed.pddl,CRASHED:0.115209:1000000000.0:300.0:-1
ipc-2014-agile-thoughtful-target-typed-20.pddl,CRASHED:0.113699:1000000000.0:300.0:-1
ipc-2014-agile-thoughtful-target-typed-21.pddl,CRASHED:0.111439:1000000000.0:300.0:-1
ipc-2014-agile-thoughtful-target-typed-22.pddl,CRASHED:0.111528:1000000000.0:300.0:-1
ipc-2014-agile-thoughtful-target-typed-23.pddl,CRASHED:0.112068:1000000000.0:300.0:-1
ipc-2014-agile-thoughtful-target-typed-24.pddl,CRASHED:0.113634:1000000000.0:300.0:-1
ipc-2014-agile-thoughtful-target-typed-25.pddl,CRASHED:0.114223:1000000000.0:300.0:-1
ipc-2014-agile-thoughtful-target-typed-26.pddl,CRASHED:0.113487:1000000000.0:300.0:-1
ipc-2014-agile-thoughtful-target-typed-27.pddl,CRASHED:0.112767:1000000000.0:300.0:-1
ipc-2014-agile-thoughtful-target-typed-28.pddl,CRASHED:0.107876:1000000000.0:300.0:-1
ipc-2014-agile-transport-01.pddl,CRASHED:7.07071:1000000000.0:300.0:-1
ipc-2014-agile-transport-02.pddl,CRASHED:9.10678:1000000000.0:300.0:-1
ipc-2014-agile-transport-03.pddl,CRASHED:7.39614:1000000000.0:300.0:-1
ipc-2014-agile-transport-04.pddl,CRASHED:19.6641:1000000000.0:300.0:-1
ipc-2014-agile-transport-05.pddl,CRASHED:23.1381:1000000000.0:300.0:-1
ipc-2014-agile-transport-06.pddl,CRASHED:19.4742:1000000000.0:300.0:-1
ipc-2014-agile-transport-07.pddl,CRASHED:29.522:1000000000.0:300.0:-1
ipc-2014-agile-transport-08.pddl,CRASHED:34.786:1000000000.0:300.0:-1
ipc-2014-agile-transport-09.pddl,CRASHED:29.4647:1000000000.0:300.0:-1
ipc-2014-agile-transport-10.pddl,CRASHED:29.1997:1000000000.0:300.0:-1
ipc-2014-agile-transport-11.pddl,CRASHED:10.663:1000000000.0:300.0:-1
ipc-2014-agile-transport-12.pddl,CRASHED:10.5944:1000000000.0:300.0:-1
ipc-2014-agile-transport-13.pddl,CRASHED:6.61497:1000000000.0:300.0:-1
ipc-2014-agile-transport-14.pddl,CRASHED:21.9157:1000000000.0:300.0:-1
ipc-2014-agile-transport-15.pddl,CRASHED:21.6308:1000000000.0:300.0:-1
ipc-2014-agile-transport-16.pddl,CRASHED:13.8232:1000000000.0:300.0:-1
ipc-2014-agile-transport-17.pddl,CRASHED:32.742:1000000000.0:300.0:-1
ipc-2014-agile-transport-18.pddl,CRASHED:33.8782:1000000000.0:300.0:-1
ipc-2014-agile-transport-19.pddl,CRASHED:20.8537:1000000000.0:300.0:-1
ipc-2014-agile-transport-20.pddl,CRASHED:36.261:1000000000.0:300.0:-1
ipc-2014-agile-visitall-30.pddl,CRASHED:0.733636:1000000000.0:300.0:-1
ipc-2014-agile-visitall-31.pddl,CRASHED:0.769102:1000000000.0:300.0:-1
ipc-2014-agile-visitall-32.pddl,CRASHED:0.845634:1000000000.0:300.0:-1
ipc-2014-agile-visitall-33.pddl,CRASHED:0.871694:1000000000.0:300.0:-1
ipc-2014-agile-visitall-50.pddl,CRASHED:2.12893:1000000000.0:300.0:-1
ipc-2014-agile-visitall-51.pddl,CRASHED:2.19384:1000000000.0:300.0:-1
ipc-2014-agile-visitall-52.pddl,CRASHED:2.37582:1000000000.0:300.0:-1
ipc-2014-agile-visitall-53.pddl,CRASHED:2.45815:1000000000.0:300.0:-1
ipc-2014-agile-visitall-54.pddl,CRASHED:2.51096:1000000000.0:300.0:-1
ipc-2014-agile-visitall-55.pddl,CRASHED:2.72511:1000000000.0:300.0:-1
ipc-2014-agile-visitall-56.pddl,CRASHED:2.76212:1000000000.0:300.0:-1
ipc-2014-agile-visitall-57.pddl,CRASHED:2.84294:1000000000.0:300.0:-1
ipc-2014-agile-visitall-58.pddl,CRASHED:3.01717:1000000000.0:300.0:-1
ipc-2014-agile-visitall-59.pddl,CRASHED:3.25105:1000000000.0:300.0:-1
ipc-2014-agile-visitall-60.pddl,CRASHED:3.36275:1000000000.0:300.0:-1
ipc-2014-agile-visitall-61.pddl,CRASHED:3.25051:1000000000.0:300.0:-1
ipc-2014-agile-visitall-62.pddl,CRASHED:3.45473:1000000000.0:300.0:-1
ipc-2014-agile-visitall-63.pddl,CRASHED:3.54531:1000000000.0:300.0:-1
ipc-2014-agile-visitall-64.pddl,CRASHED:3.68221:1000000000.0:300.0:-1
ipc-2014-agile-visitall-65.pddl,CRASHED:3.93993:1000000000.0:300.0:-1
