instance,ipc-2014-agile-madagascar-pc
ipc-2014-agile-barman-p1-11-4-15.pddl,TIMEOUT:301.08:-1.0:300.0:-1
ipc-2014-agile-barman-p1-11-5-15.pddl,SAT:185.606:315.0:300.0:-1
ipc-2014-agile-barman-p1-11-5-16.pddl,TIMEOUT:301.107:-1.0:300.0:-1
ipc-2014-agile-barman-p2-10-4-13.pddl,TIMEOUT:301.048:-1.0:300.0:-1
ipc-2014-agile-barman-p2-11-4-15.pddl,TIMEOUT:301.05:-1.0:300.0:-1
ipc-2014-agile-barman-p2-11-5-15.pddl,TIMEOUT:301.051:-1.0:300.0:-1
ipc-2014-agile-barman-p2-11-5-16.pddl,TIMEOUT:301.111:-1.0:300.0:-1
ipc-2014-agile-barman-p2-11-5-17.pddl,TIMEOUT:301.127:-1.0:300.0:-1
ipc-2014-agile-barman-p3-10-4-13.pddl,SAT:168.079:341.0:300.0:-1
ipc-2014-agile-barman-p3-11-4-15.pddl,TIMEOUT:301.06:-1.0:300.0:-1
ipc-2014-agile-barman-p3-11-5-15.pddl,TIMEOUT:301.073:-1.0:300.0:-1
ipc-2014-agile-barman-p3-11-5-16.pddl,TIMEOUT:301.077:-1.0:300.0:-1
ipc-2014-agile-barman-p3-11-5-17.pddl,TIMEOUT:301.098:-1.0:300.0:-1
ipc-2014-agile-barman-p4-11-4-14.pddl,TIMEOUT:301.129:-1.0:300.0:-1
ipc-2014-agile-barman-p4-11-4-15.pddl,TIMEOUT:301.094:-1.0:300.0:-1
ipc-2014-agile-barman-p4-11-5-15.pddl,SAT:65.3503:441.0:300.0:-1
ipc-2014-agile-barman-p5-10-4-13.pddl,TIMEOUT:301.072:-1.0:300.0:-1
ipc-2014-agile-barman-p5-11-4-15.pddl,TIMEOUT:301.104:-1.0:300.0:-1
ipc-2014-agile-barman-p5-11-5-15.pddl,TIMEOUT:301.07:-1.0:300.0:-1
ipc-2014-agile-barman-p5-11-5-16.pddl,TIMEOUT:301.1:-1.0:300.0:-1
ipc-2014-agile-cavediving-01_easy.pddl,TIMEOUT:301.06:-1.0:300.0:-1
ipc-2014-agile-cavediving-01.pddl,TIMEOUT:301.116:-1.0:300.0:-1
ipc-2014-agile-cavediving-02_easy.pddl,TIMEOUT:301.061:-1.0:300.0:-1
ipc-2014-agile-cavediving-03_easy.pddl,TIMEOUT:301.054:-1.0:300.0:-1
ipc-2014-agile-cavediving-04_easy.pddl,TIMEOUT:301.136:-1.0:300.0:-1
ipc-2014-agile-cavediving-05A_easy.pddl,SAT:113.688:94.0:300.0:-1
ipc-2014-agile-cavediving-06A_easy.pddl,SAT:105.689:95.0:300.0:-1
ipc-2014-agile-cavediving-07_easy.pddl,TIMEOUT:301.048:-1.0:300.0:-1
ipc-2014-agile-cavediving-08_easy.pddl,SAT:121.045:90.0:300.0:-1
ipc-2014-agile-cavediving-09_easy.pddl,TIMEOUT:301.129:-1.0:300.0:-1
ipc-2014-agile-cavediving-10_easy.pddl,TIMEOUT:301.054:-1.0:300.0:-1
ipc-2014-agile-cavediving-11_easy.pddl,TIMEOUT:301.071:-1.0:300.0:-1
ipc-2014-agile-cavediving-12_easy.pddl,TIMEOUT:301.102:-1.0:300.0:-1
ipc-2014-agile-cavediving-13_easy.pddl,TIMEOUT:301.118:-1.0:300.0:-1
ipc-2014-agile-cavediving-14_easy.pddl,TIMEOUT:301.07:-1.0:300.0:-1
ipc-2014-agile-cavediving-15_easy.pddl,TIMEOUT:301.075:-1.0:300.0:-1
ipc-2014-agile-cavediving-16_easy.pddl,TIMEOUT:301.138:-1.0:300.0:-1
ipc-2014-agile-cavediving-18A_easy.pddl,TIMEOUT:301.096:-1.0:300.0:-1
ipc-2014-agile-cavediving-18_easy.pddl,SAT:0.088946:132.0:300.0:-1
ipc-2014-agile-cavediving-20A_easy.pddl,TIMEOUT:301.052:-1.0:300.0:-1
ipc-2014-agile-childsnack-05-2.pddl,SAT:0.085902:36.0:300.0:-1
ipc-2014-agile-childsnack-05.pddl,SAT:0.086513:38.0:300.0:-1
ipc-2014-agile-childsnack-06-2.pddl,SAT:0.105724:38.0:300.0:-1
ipc-2014-agile-childsnack-07-2.pddl,SAT:0.131609:43.0:300.0:-1
ipc-2014-agile-childsnack-08-2.pddl,CRASHED:63.4147:1000000000.0:300.0:-1
ipc-2014-agile-childsnack-08.pddl,SAT:0.173849:47.0:300.0:-1
ipc-2014-agile-childsnack-09-2.pddl,SAT:0.305139:47.0:300.0:-1
ipc-2014-agile-childsnack-09.pddl,CRASHED:19.2883:1000000000.0:300.0:-1
ipc-2014-agile-childsnack-10-2.pddl,CRASHED:20.8131:1000000000.0:300.0:-1
ipc-2014-agile-childsnack-10.pddl,CRASHED:17.7477:1000000000.0:300.0:-1
ipc-2014-agile-childsnack-11-2.pddl,CRASHED:144.943:1000000000.0:300.0:-1
ipc-2014-agile-childsnack-11.pddl,CRASHED:130.764:1000000000.0:300.0:-1
ipc-2014-agile-childsnack-12.pddl,CRASHED:33.3424:1000000000.0:300.0:-1
ipc-2014-agile-childsnack-13-2.pddl,CRASHED:106.388:1000000000.0:300.0:-1
ipc-2014-agile-childsnack-13.pddl,CRASHED:120.313:1000000000.0:300.0:-1
ipc-2014-agile-childsnack-14.pddl,CRASHED:43.7747:1000000000.0:300.0:-1
ipc-2014-agile-childsnack-15-2.pddl,CRASHED:23.4663:1000000000.0:300.0:-1
ipc-2014-agile-childsnack-16-2.pddl,CRASHED:63.8836:1000000000.0:300.0:-1
ipc-2014-agile-childsnack-19-2.pddl,CRASHED:40.6756:1000000000.0:300.0:-1
ipc-2014-agile-childsnack-19.pddl,CRASHED:47.2671:1000000000.0:300.0:-1
ipc-2014-agile-citycar-p3-2-2-0-1.pddl,SAT:0.130018:291.0:300.0:-1
ipc-2014-agile-citycar-p3-3-2-0-1.pddl,SAT:0.663419:651.0:300.0:-1
ipc-2014-agile-citycar-p3-4-2-0-1.pddl,SAT:0.311875:722.0:300.0:-1
ipc-2014-agile-citycar-p3-5-2-0-1.pddl,SAT:46.0468:694.0:300.0:-1
ipc-2014-agile-citycar-p3-5-2-0-2.pddl,SAT:5.97845:1041.0:300.0:-1
ipc-2014-agile-citycar-p4-2-2-0-1.pddl,SAT:26.6272:336.0:300.0:-1
ipc-2014-agile-citycar-p4-2-3-0-1.pddl,SAT:37.693:417.0:300.0:-1
ipc-2014-agile-citycar-p4-2-3-0-2.pddl,SAT:186.999:494.0:300.0:-1
ipc-2014-agile-citycar-p4-3-2-0-1.pddl,SAT:26.6285:1185.0:300.0:-1
ipc-2014-agile-citycar-p4-3-2-0-2.pddl,TIMEOUT:301.142:-1.0:300.0:-1
ipc-2014-agile-citycar-p4-3-3-0-1.pddl,TIMEOUT:301.146:-1.0:300.0:-1
ipc-2014-agile-citycar-p4-3-3-0-2.pddl,TIMEOUT:301.133:-1.0:300.0:-1
ipc-2014-agile-citycar-p4-4-2-0-1.pddl,TIMEOUT:301.058:-1.0:300.0:-1
ipc-2014-agile-citycar-p4-4-2-0-2.pddl,TIMEOUT:301.143:-1.0:300.0:-1
ipc-2014-agile-citycar-p4-4-3-0-1.pddl,TIMEOUT:301.123:-1.0:300.0:-1
ipc-2014-agile-citycar-p4-4-3-0-2.pddl,TIMEOUT:301.055:-1.0:300.0:-1
ipc-2014-agile-citycar-p4-5-2-0-1.pddl,TIMEOUT:301.146:-1.0:300.0:-1
ipc-2014-agile-citycar-p4-5-2-0-2.pddl,TIMEOUT:301.065:-1.0:300.0:-1
ipc-2014-agile-citycar-p4-5-3-0-1.pddl,TIMEOUT:301.093:-1.0:300.0:-1
ipc-2014-agile-citycar-p4-5-3-0-2.pddl,TIMEOUT:301.087:-1.0:300.0:-1
ipc-2014-agile-floortile-p01-4-3-2.pddl,SAT:0.014893:94.0:300.0:-1
ipc-2014-agile-floortile-p01-5-4-2.pddl,SAT:0.024233:173.0:300.0:-1
ipc-2014-agile-floortile-p01-5-5-2.pddl,SAT:0.035903:197.0:300.0:-1
ipc-2014-agile-floortile-p01-6-4-2.pddl,SAT:0.029256:190.0:300.0:-1
ipc-2014-agile-floortile-p01-6-5-2.pddl,SAT:0.048861:230.0:300.0:-1
ipc-2014-agile-floortile-p01-6-5-3.pddl,SAT:0.061935:223.0:300.0:-1
ipc-2014-agile-floortile-p02-5-4-2.pddl,SAT:0.029245:178.0:300.0:-1
ipc-2014-agile-floortile-p02-6-4-2.pddl,SAT:0.034367:207.0:300.0:-1
ipc-2014-agile-floortile-p02-6-5-2.pddl,SAT:0.060307:251.0:300.0:-1
ipc-2014-agile-floortile-p02-6-5-3.pddl,SAT:0.06256:235.0:300.0:-1
ipc-2014-agile-floortile-p03-6-4-2.pddl,SAT:0.034159:214.0:300.0:-1
ipc-2014-agile-floortile-p03-6-5-2.pddl,SAT:0.045766:248.0:300.0:-1
ipc-2014-agile-floortile-p03-6-5-3.pddl,SAT:0.055736:253.0:300.0:-1
ipc-2014-agile-floortile-p04-5-4-2.pddl,SAT:0.027685:175.0:300.0:-1
ipc-2014-agile-floortile-p04-5-5-2.pddl,SAT:0.037449:214.0:300.0:-1
ipc-2014-agile-floortile-p04-6-5-2.pddl,SAT:0.059633:261.0:300.0:-1
ipc-2014-agile-floortile-p04-6-5-3.pddl,SAT:0.063014:231.0:300.0:-1
ipc-2014-agile-floortile-p05-4-3-2.pddl,SAT:0.012255:96.0:300.0:-1
ipc-2014-agile-floortile-p05-6-5-2.pddl,SAT:0.048959:223.0:300.0:-1
ipc-2014-agile-floortile-p05-6-5-3.pddl,SAT:0.058947:243.0:300.0:-1
ipc-2014-agile-ged-d-10-1.pddl,SAT:8.90215:99.0:300.0:-1
ipc-2014-agile-ged-d-10-2.pddl,SAT:17.4288:212.0:300.0:-1
ipc-2014-agile-ged-d-10-3.pddl,SAT:17.3887:130.0:300.0:-1
ipc-2014-agile-ged-d-10-4.pddl,SAT:35.3574:193.0:300.0:-1
ipc-2014-agile-ged-d-10-5.pddl,TIMEOUT:301.14:-1.0:300.0:-1
ipc-2014-agile-ged-d-10-6.pddl,SAT:149.317:139.0:300.0:-1
ipc-2014-agile-ged-d-11-1.pddl,SAT:28.9945:110.0:300.0:-1
ipc-2014-agile-ged-d-11-3.pddl,SAT:20.7376:75.0:300.0:-1
ipc-2014-agile-ged-d-11-5.pddl,SAT:30.3311:116.0:300.0:-1
ipc-2014-agile-ged-d-11-6.pddl,TIMEOUT:301.079:-1.0:300.0:-1
ipc-2014-agile-ged-d-12-11.pddl,SAT:40.7264:190.0:300.0:-1
ipc-2014-agile-ged-d-12-2.pddl,TIMEOUT:301.1:-1.0:300.0:-1
ipc-2014-agile-ged-d-12-3.pddl,TIMEOUT:301.077:-1.0:300.0:-1
ipc-2014-agile-ged-d-12-5.pddl,TIMEOUT:301.109:-1.0:300.0:-1
ipc-2014-agile-ged-d-12-6.pddl,TIMEOUT:301.113:-1.0:300.0:-1
ipc-2014-agile-ged-d-12-7.pddl,TIMEOUT:301.15:-1.0:300.0:-1
ipc-2014-agile-ged-d-12-8.pddl,TIMEOUT:301.102:-1.0:300.0:-1
ipc-2014-agile-ged-d-12-9.pddl,TIMEOUT:301.094:-1.0:300.0:-1
ipc-2014-agile-ged-d-3-6.pddl,SAT:22.3151:102.0:300.0:-1
ipc-2014-agile-ged-d-9-5.pddl,SAT:88.4587:167.0:300.0:-1
ipc-2014-agile-hiking-3-4-3.pddl,SAT:0.206356:18.0:300.0:-1
ipc-2014-agile-hiking-3-4-4.pddl,CRASHED:13.4802:1000000000.0:300.0:-1
ipc-2014-agile-hiking-3-4-5.pddl,CRASHED:13.282:1000000000.0:300.0:-1
ipc-2014-agile-hiking-3-4-6.pddl,TIMEOUT:301.052:-1.0:300.0:-1
ipc-2014-agile-hiking-3-4-7.pddl,TIMEOUT:301.084:-1.0:300.0:-1
ipc-2014-agile-hiking-3-4-8.pddl,CRASHED:16.2339:1000000000.0:300.0:-1
ipc-2014-agile-hiking-3-4-9.pddl,CRASHED:20.9945:1000000000.0:300.0:-1
ipc-2014-agile-hiking-4-5-3.pddl,SAT:0.907911:29.0:300.0:-1
ipc-2014-agile-hiking-4-5-4.pddl,SAT:2.57786:47.0:300.0:-1
ipc-2014-agile-hiking-4-5-5.pddl,CRASHED:27.3871:1000000000.0:300.0:-1
ipc-2014-agile-hiking-4-5-6.pddl,TIMEOUT:301.094:-1.0:300.0:-1
ipc-2014-agile-hiking-4-5-7.pddl,TIMEOUT:301.099:-1.0:300.0:-1
ipc-2014-agile-hiking-4-5-8.pddl,TIMEOUT:301.185:-1.0:300.0:-1
ipc-2014-agile-hiking-4-5-9.pddl,CRASHED:59.9266:1000000000.0:300.0:-1
ipc-2014-agile-hiking-5-6-3.pddl,SAT:3.5336:36.0:300.0:-1
ipc-2014-agile-hiking-5-6-4.pddl,CRASHED:28.7586:1000000000.0:300.0:-1
ipc-2014-agile-hiking-5-6-5.pddl,CRASHED:37.4193:1000000000.0:300.0:-1
ipc-2014-agile-hiking-5-6-6.pddl,CRASHED:52.791:1000000000.0:300.0:-1
ipc-2014-agile-hiking-5-6-7.pddl,CRASHED:78.4505:1000000000.0:300.0:-1
ipc-2014-agile-hiking-5-6-8.pddl,CRASHED:89.5624:1000000000.0:300.0:-1
ipc-2014-agile-maintenance-1.3.060.180.5-000.pddl,SAT:0.074536:54.0:300.0:-1
ipc-2014-agile-maintenance-1.3.060.180.5-001.pddl,TIMEOUT:301.055:-1.0:300.0:-1
ipc-2014-agile-maintenance-1.3.060.180.5-002.pddl,SAT:65.5025:55.0:300.0:-1
ipc-2014-agile-maintenance-1.3.100.300.5-000.pddl,TIMEOUT:301.034:-1.0:300.0:-1
ipc-2014-agile-maintenance-1.3.100.300.5-001.pddl,TIMEOUT:301.125:-1.0:300.0:-1
ipc-2014-agile-maintenance-1.3.100.300.7-000.pddl,SAT:0.322718:83.0:300.0:-1
ipc-2014-agile-maintenance-1.3.100.300.7-001.pddl,SAT:0.320937:80.0:300.0:-1
ipc-2014-agile-maintenance-1.3.100.300.7-002.pddl,SAT:0.319823:77.0:300.0:-1
ipc-2014-agile-maintenance-1.3.150.500.6-001.pddl,SAT:1.19142:133.0:300.0:-1
ipc-2014-agile-maintenance-1.3.200.500.5-001.pddl,SAT:1.66961:180.0:300.0:-1
ipc-2014-agile-maintenance-1.3.200.500.5-002.pddl,TIMEOUT:301.062:-1.0:300.0:-1
ipc-2014-agile-maintenance-1.3.200.700.7-000.pddl,SAT:3.04564:176.0:300.0:-1
ipc-2014-agile-maintenance-1.3.200.700.7-001.pddl,SAT:2.96747:171.0:300.0:-1
ipc-2014-agile-maintenance-1.3.200.700.7-002.pddl,SAT:2.91478:170.0:300.0:-1
ipc-2014-agile-maintenance-1.3.200.900.5-000.pddl,TIMEOUT:301.157:-1.0:300.0:-1
ipc-2014-agile-maintenance-1.3.200.900.5-001.pddl,TIMEOUT:301.042:-1.0:300.0:-1
ipc-2014-agile-maintenance-1.3.200.900.5-002.pddl,TIMEOUT:301.068:-1.0:300.0:-1
ipc-2014-agile-maintenance-1.3.200.900.8-000.pddl,SAT:4.51256:186.0:300.0:-1
ipc-2014-agile-maintenance-1.3.200.900.8-001.pddl,SAT:4.46913:172.0:300.0:-1
ipc-2014-agile-maintenance-1.3.200.900.8-002.pddl,SAT:4.47942:179.0:300.0:-1
ipc-2014-agile-openstacks-p130_2.pddl,TIMEOUT:301.088:-1.0:300.0:-1
ipc-2014-agile-openstacks-p130_3.pddl,TIMEOUT:301.08:-1.0:300.0:-1
ipc-2014-agile-openstacks-p150_2.pddl,TIMEOUT:301.119:-1.0:300.0:-1
ipc-2014-agile-openstacks-p150_3.pddl,TIMEOUT:301.188:-1.0:300.0:-1
ipc-2014-agile-openstacks-p170_1.pddl,CRASHED:48.2465:1000000000.0:300.0:-1
ipc-2014-agile-openstacks-p170_2.pddl,CRASHED:50.9186:1000000000.0:300.0:-1
ipc-2014-agile-openstacks-p170_3.pddl,TIMEOUT:301.159:-1.0:300.0:-1
ipc-2014-agile-openstacks-p190_1.pddl,CRASHED:108.238:1000000000.0:300.0:-1
ipc-2014-agile-openstacks-p190_2.pddl,CRASHED:97.7071:1000000000.0:300.0:-1
ipc-2014-agile-openstacks-p190_3.pddl,CRASHED:113.595:1000000000.0:300.0:-1
ipc-2014-agile-openstacks-p210_1.pddl,TIMEOUT:301.136:-1.0:300.0:-1
ipc-2014-agile-openstacks-p210_2.pddl,CRASHED:254.903:1000000000.0:300.0:-1
ipc-2014-agile-openstacks-p230_1.pddl,CRASHED:133.773:1000000000.0:300.0:-1
ipc-2014-agile-openstacks-p230_2.pddl,CRASHED:151.827:1000000000.0:300.0:-1
ipc-2014-agile-openstacks-p250_1.pddl,CRASHED:174.771:1000000000.0:300.0:-1
ipc-2014-agile-openstacks-p250_2.pddl,CRASHED:195.785:1000000000.0:300.0:-1
ipc-2014-agile-openstacks-p270_1.pddl,CRASHED:259.407:1000000000.0:300.0:-1
ipc-2014-agile-openstacks-p270_2.pddl,CRASHED:277.177:1000000000.0:300.0:-1
ipc-2014-agile-openstacks-p290_1.pddl,TIMEOUT:301.364:-1.0:300.0:-1
ipc-2014-agile-openstacks-p290_2.pddl,TIMEOUT:301.345:-1.0:300.0:-1
ipc-2014-agile-parking-28_2.pddl,SAT:102.667:127.0:300.0:-1
ipc-2014-agile-parking-28_3.pddl,SAT:91.3036:86.0:300.0:-1
ipc-2014-agile-parking-30_1.pddl,SAT:141.292:135.0:300.0:-1
ipc-2014-agile-parking-30_2.pddl,TIMEOUT:301.156:-1.0:300.0:-1
ipc-2014-agile-parking-30_3.pddl,SAT:167.994:163.0:300.0:-1
ipc-2014-agile-parking-32_1.pddl,SAT:212.231:161.0:300.0:-1
ipc-2014-agile-parking-32_2.pddl,SAT:218.942:138.0:300.0:-1
ipc-2014-agile-parking-32_3.pddl,SAT:217.37:178.0:300.0:-1
ipc-2014-agile-parking-34_1.pddl,TIMEOUT:301.268:-1.0:300.0:-1
ipc-2014-agile-parking-34_2.pddl,SAT:219.702:131.0:300.0:-1
ipc-2014-agile-parking-34_3.pddl,TIMEOUT:301.18:-1.0:300.0:-1
ipc-2014-agile-parking-36_1.pddl,TIMEOUT:301.206:-1.0:300.0:-1
ipc-2014-agile-parking-36_2.pddl,TIMEOUT:301.168:-1.0:300.0:-1
ipc-2014-agile-parking-36_3.pddl,SAT:300.083:167.0:300.0:-1
ipc-2014-agile-parking-38_1.pddl,TIMEOUT:301.105:-1.0:300.0:-1
ipc-2014-agile-parking-38_2.pddl,TIMEOUT:301.183:-1.0:300.0:-1
ipc-2014-agile-parking-38_3.pddl,TIMEOUT:301.166:-1.0:300.0:-1
ipc-2014-agile-parking-40_1.pddl,TIMEOUT:301.143:-1.0:300.0:-1
ipc-2014-agile-parking-40_2.pddl,TIMEOUT:301.194:-1.0:300.0:-1
ipc-2014-agile-parking-40_3.pddl,TIMEOUT:301.124:-1.0:300.0:-1
ipc-2014-agile-tetris-020.pddl,SAT:26.9874:56.0:300.0:-1
ipc-2014-agile-tetris-021.pddl,SAT:111.179:145.0:300.0:-1
ipc-2014-agile-tetris-022.pddl,SAT:104.545:102.0:300.0:-1
ipc-2014-agile-tetris-023.pddl,SAT:78.3407:105.0:300.0:-1
ipc-2014-agile-tetris-024.pddl,SAT:104.957:161.0:300.0:-1
ipc-2014-agile-tetris-025.pddl,CRASHED:120.612:1000000000.0:300.0:-1
ipc-2014-agile-tetris-026.pddl,CRASHED:176.312:1000000000.0:300.0:-1
ipc-2014-agile-tetris-027.pddl,CRASHED:179.39:1000000000.0:300.0:-1
ipc-2014-agile-tetris-028.pddl,CRASHED:152.119:1000000000.0:300.0:-1
ipc-2014-agile-tetris-029.pddl,CRASHED:138.463:1000000000.0:300.0:-1
ipc-2014-agile-tetris-031.pddl,CRASHED:209.946:1000000000.0:300.0:-1
ipc-2014-agile-tetris-032.pddl,CRASHED:249.591:1000000000.0:300.0:-1
ipc-2014-agile-tetris-033.pddl,TIMEOUT:301.574:-1.0:300.0:-1
ipc-2014-agile-tetris-034.pddl,TIMEOUT:301.592:-1.0:300.0:-1
ipc-2014-agile-tetris-035.pddl,CRASHED:204.733:1000000000.0:300.0:-1
ipc-2014-agile-tetris-036.pddl,CRASHED:147.28:1000000000.0:300.0:-1
ipc-2014-agile-tetris-037.pddl,SAT:113.42:147.0:300.0:-1
ipc-2014-agile-tetris-038.pddl,CRASHED:209.506:1000000000.0:300.0:-1
ipc-2014-agile-tetris-039.pddl,CRASHED:175.655:1000000000.0:300.0:-1
ipc-2014-agile-tetris-040.pddl,CRASHED:221.687:1000000000.0:300.0:-1
ipc-2014-agile-thoughtful-bootstrap-typed-01.pddl,SAT:1.45988:42.0:300.0:-1
ipc-2014-agile-thoughtful-bootstrap-typed-02.pddl,SAT:1.21352:31.0:300.0:-1
ipc-2014-agile-thoughtful-bootstrap-typed-03.pddl,SAT:1.78886:49.0:300.0:-1
ipc-2014-agile-thoughtful-bootstrap-typed-04.pddl,SAT:1.82414:46.0:300.0:-1
ipc-2014-agile-thoughtful-bootstrap-typed-05.pddl,SAT:1.64956:68.0:300.0:-1
ipc-2014-agile-thoughtful-p11_6_53-typed.pddl,TIMEOUT:301.121:-1.0:300.0:-1
ipc-2014-agile-thoughtful-p11_6_59-typed.pddl,CRASHED:73.324:1000000000.0:300.0:-1
ipc-2014-agile-thoughtful-p11_6_62-typed.pddl,TIMEOUT:301.115:-1.0:300.0:-1
ipc-2014-agile-thoughtful-p13_7_78-typed.pddl,CRASHED:144.366:1000000000.0:300.0:-1
ipc-2014-agile-thoughtful-p13_7_79-typed.pddl,CRASHED:138.538:1000000000.0:300.0:-1
ipc-2014-agile-thoughtful-p13_7_86-typed.pddl,CRASHED:140.973:1000000000.0:300.0:-1
ipc-2014-agile-thoughtful-target-typed-20.pddl,CRASHED:140.346:1000000000.0:300.0:-1
ipc-2014-agile-thoughtful-target-typed-21.pddl,CRASHED:142.007:1000000000.0:300.0:-1
ipc-2014-agile-thoughtful-target-typed-22.pddl,CRASHED:280.918:1000000000.0:300.0:-1
ipc-2014-agile-thoughtful-target-typed-23.pddl,CRASHED:117.175:1000000000.0:300.0:-1
ipc-2014-agile-thoughtful-target-typed-24.pddl,TIMEOUT:301.148:-1.0:300.0:-1
ipc-2014-agile-thoughtful-target-typed-25.pddl,CRASHED:117.742:1000000000.0:300.0:-1
ipc-2014-agile-thoughtful-target-typed-26.pddl,CRASHED:297.438:1000000000.0:300.0:-1
ipc-2014-agile-thoughtful-target-typed-27.pddl,CRASHED:207.317:1000000000.0:300.0:-1
ipc-2014-agile-thoughtful-target-typed-28.pddl,CRASHED:122.864:1000000000.0:300.0:-1
ipc-2014-agile-transport-01.pddl,CRASHED:51.2238:1000000000.0:300.0:-1
ipc-2014-agile-transport-02.pddl,TIMEOUT:301.145:-1.0:300.0:-1
ipc-2014-agile-transport-03.pddl,TIMEOUT:301.156:-1.0:300.0:-1
ipc-2014-agile-transport-04.pddl,CRASHED:244.898:1000000000.0:300.0:-1
ipc-2014-agile-transport-05.pddl,CRASHED:82.2705:1000000000.0:300.0:-1
ipc-2014-agile-transport-06.pddl,CRASHED:259.654:1000000000.0:300.0:-1
ipc-2014-agile-transport-07.pddl,CRASHED:192.0:1000000000.0:300.0:-1
ipc-2014-agile-transport-08.pddl,CRASHED:258.374:1000000000.0:300.0:-1
ipc-2014-agile-transport-09.pddl,CRASHED:196.508:1000000000.0:300.0:-1
ipc-2014-agile-transport-10.pddl,CRASHED:151.576:1000000000.0:300.0:-1
ipc-2014-agile-transport-11.pddl,TIMEOUT:301.099:-1.0:300.0:-1
ipc-2014-agile-transport-12.pddl,TIMEOUT:301.179:-1.0:300.0:-1
ipc-2014-agile-transport-13.pddl,CRASHED:181.473:1000000000.0:300.0:-1
ipc-2014-agile-transport-14.pddl,CRASHED:66.9237:1000000000.0:300.0:-1
ipc-2014-agile-transport-15.pddl,CRASHED:80.1417:1000000000.0:300.0:-1
ipc-2014-agile-transport-16.pddl,CRASHED:53.3972:1000000000.0:300.0:-1
ipc-2014-agile-transport-17.pddl,CRASHED:168.996:1000000000.0:300.0:-1
ipc-2014-agile-transport-18.pddl,CRASHED:291.626:1000000000.0:300.0:-1
ipc-2014-agile-transport-19.pddl,TIMEOUT:301.284:-1.0:300.0:-1
ipc-2014-agile-transport-20.pddl,CRASHED:268.991:1000000000.0:300.0:-1
ipc-2014-agile-visitall-30.pddl,TIMEOUT:301.123:-1.0:300.0:-1
ipc-2014-agile-visitall-31.pddl,TIMEOUT:301.113:-1.0:300.0:-1
ipc-2014-agile-visitall-32.pddl,TIMEOUT:301.161:-1.0:300.0:-1
ipc-2014-agile-visitall-33.pddl,TIMEOUT:301.214:-1.0:300.0:-1
ipc-2014-agile-visitall-50.pddl,TIMEOUT:301.11:-1.0:300.0:-1
ipc-2014-agile-visitall-51.pddl,TIMEOUT:301.067:-1.0:300.0:-1
ipc-2014-agile-visitall-52.pddl,TIMEOUT:301.097:-1.0:300.0:-1
ipc-2014-agile-visitall-53.pddl,TIMEOUT:301.101:-1.0:300.0:-1
ipc-2014-agile-visitall-54.pddl,TIMEOUT:301.048:-1.0:300.0:-1
ipc-2014-agile-visitall-55.pddl,TIMEOUT:301.024:-1.0:300.0:-1
ipc-2014-agile-visitall-56.pddl,TIMEOUT:301.046:-1.0:300.0:-1
ipc-2014-agile-visitall-57.pddl,TIMEOUT:301.098:-1.0:300.0:-1
ipc-2014-agile-visitall-58.pddl,TIMEOUT:301.074:-1.0:300.0:-1
ipc-2014-agile-visitall-59.pddl,TIMEOUT:301.015:-1.0:300.0:-1
ipc-2014-agile-visitall-60.pddl,TIMEOUT:301.089:-1.0:300.0:-1
ipc-2014-agile-visitall-61.pddl,TIMEOUT:301.093:-1.0:300.0:-1
ipc-2014-agile-visitall-62.pddl,TIMEOUT:301.073:-1.0:300.0:-1
ipc-2014-agile-visitall-63.pddl,TIMEOUT:301.091:-1.0:300.0:-1
ipc-2014-agile-visitall-64.pddl,TIMEOUT:301.07:-1.0:300.0:-1
ipc-2014-agile-visitall-65.pddl,TIMEOUT:301.104:-1.0:300.0:-1
