instance,ipc-2014-agile-probe
ipc-2014-agile-barman-p1-11-4-15.pddl,SAT:10.5911:251.0:300.0:-1
ipc-2014-agile-barman-p1-11-5-15.pddl,SAT:29.7554:262.0:300.0:-1
ipc-2014-agile-barman-p1-11-5-16.pddl,SAT:1.0059:194.0:300.0:-1
ipc-2014-agile-barman-p2-10-4-13.pddl,SAT:0.569014:221.0:300.0:-1
ipc-2014-agile-barman-p2-11-4-15.pddl,SAT:71.784:285.0:300.0:-1
ipc-2014-agile-barman-p2-11-5-15.pddl,SAT:4.24638:199.0:300.0:-1
ipc-2014-agile-barman-p2-11-5-16.pddl,TIMEOUT:301.152:-1.0:300.0:-1
ipc-2014-agile-barman-p2-11-5-17.pddl,SAT:2.9413:196.0:300.0:-1
ipc-2014-agile-barman-p3-10-4-13.pddl,SAT:6.79277:228.0:300.0:-1
ipc-2014-agile-barman-p3-11-4-15.pddl,SAT:1.16944:180.0:300.0:-1
ipc-2014-agile-barman-p3-11-5-15.pddl,SAT:61.658:282.0:300.0:-1
ipc-2014-agile-barman-p3-11-5-16.pddl,TIMEOUT:301.142:-1.0:300.0:-1
ipc-2014-agile-barman-p3-11-5-17.pddl,SAT:2.01079:199.0:300.0:-1
ipc-2014-agile-barman-p4-11-4-14.pddl,SAT:0.716774:170.0:300.0:-1
ipc-2014-agile-barman-p4-11-4-15.pddl,SAT:0.526028:161.0:300.0:-1
ipc-2014-agile-barman-p4-11-5-15.pddl,SAT:0.904278:192.0:300.0:-1
ipc-2014-agile-barman-p5-10-4-13.pddl,SAT:23.3469:251.0:300.0:-1
ipc-2014-agile-barman-p5-11-4-15.pddl,SAT:1.81756:211.0:300.0:-1
ipc-2014-agile-barman-p5-11-5-15.pddl,SAT:34.9971:229.0:300.0:-1
ipc-2014-agile-barman-p5-11-5-16.pddl,SAT:166.001:328.0:300.0:-1
ipc-2014-agile-cavediving-01_easy.pddl,TIMEOUT:301.109:-1.0:300.0:-1
ipc-2014-agile-cavediving-01.pddl,TIMEOUT:301.12:-1.0:300.0:-1
ipc-2014-agile-cavediving-02_easy.pddl,TIMEOUT:301.109:-1.0:300.0:-1
ipc-2014-agile-cavediving-03_easy.pddl,TIMEOUT:301.118:-1.0:300.0:-1
ipc-2014-agile-cavediving-04_easy.pddl,TIMEOUT:301.096:-1.0:300.0:-1
ipc-2014-agile-cavediving-05A_easy.pddl,TIMEOUT:301.148:-1.0:300.0:-1
ipc-2014-agile-cavediving-06A_easy.pddl,TIMEOUT:301.115:-1.0:300.0:-1
ipc-2014-agile-cavediving-07_easy.pddl,TIMEOUT:301.103:-1.0:300.0:-1
ipc-2014-agile-cavediving-08_easy.pddl,TIMEOUT:301.165:-1.0:300.0:-1
ipc-2014-agile-cavediving-09_easy.pddl,TIMEOUT:301.066:-1.0:300.0:-1
ipc-2014-agile-cavediving-10_easy.pddl,TIMEOUT:301.082:-1.0:300.0:-1
ipc-2014-agile-cavediving-11_easy.pddl,TIMEOUT:301.067:-1.0:300.0:-1
ipc-2014-agile-cavediving-12_easy.pddl,TIMEOUT:301.089:-1.0:300.0:-1
ipc-2014-agile-cavediving-13_easy.pddl,TIMEOUT:301.116:-1.0:300.0:-1
ipc-2014-agile-cavediving-14_easy.pddl,TIMEOUT:301.135:-1.0:300.0:-1
ipc-2014-agile-cavediving-15_easy.pddl,TIMEOUT:301.101:-1.0:300.0:-1
ipc-2014-agile-cavediving-16_easy.pddl,TIMEOUT:301.136:-1.0:300.0:-1
ipc-2014-agile-cavediving-18A_easy.pddl,TIMEOUT:301.108:-1.0:300.0:-1
ipc-2014-agile-cavediving-18_easy.pddl,SAT:4.2866:132.0:300.0:-1
ipc-2014-agile-cavediving-20A_easy.pddl,TIMEOUT:301.108:-1.0:300.0:-1
ipc-2014-agile-childsnack-05-2.pddl,TIMEOUT:301.099:-1.0:300.0:-1
ipc-2014-agile-childsnack-05.pddl,TIMEOUT:301.137:-1.0:300.0:-1
ipc-2014-agile-childsnack-06-2.pddl,TIMEOUT:301.102:-1.0:300.0:-1
ipc-2014-agile-childsnack-07-2.pddl,TIMEOUT:301.125:-1.0:300.0:-1
ipc-2014-agile-childsnack-08-2.pddl,TIMEOUT:301.119:-1.0:300.0:-1
ipc-2014-agile-childsnack-08.pddl,TIMEOUT:301.143:-1.0:300.0:-1
ipc-2014-agile-childsnack-09-2.pddl,TIMEOUT:301.088:-1.0:300.0:-1
ipc-2014-agile-childsnack-09.pddl,TIMEOUT:301.095:-1.0:300.0:-1
ipc-2014-agile-childsnack-10-2.pddl,TIMEOUT:301.132:-1.0:300.0:-1
ipc-2014-agile-childsnack-10.pddl,TIMEOUT:301.074:-1.0:300.0:-1
ipc-2014-agile-childsnack-11-2.pddl,TIMEOUT:301.155:-1.0:300.0:-1
ipc-2014-agile-childsnack-11.pddl,TIMEOUT:301.175:-1.0:300.0:-1
ipc-2014-agile-childsnack-12.pddl,TIMEOUT:301.102:-1.0:300.0:-1
ipc-2014-agile-childsnack-13-2.pddl,TIMEOUT:301.146:-1.0:300.0:-1
ipc-2014-agile-childsnack-13.pddl,TIMEOUT:301.108:-1.0:300.0:-1
ipc-2014-agile-childsnack-14.pddl,TIMEOUT:301.18:-1.0:300.0:-1
ipc-2014-agile-childsnack-15-2.pddl,TIMEOUT:301.216:-1.0:300.0:-1
ipc-2014-agile-childsnack-16-2.pddl,TIMEOUT:301.177:-1.0:300.0:-1
ipc-2014-agile-childsnack-19-2.pddl,TIMEOUT:301.187:-1.0:300.0:-1
ipc-2014-agile-childsnack-19.pddl,TIMEOUT:301.133:-1.0:300.0:-1
ipc-2014-agile-citycar-p3-2-2-0-1.pddl,SAT:0.239227:439.0:300.0:-1
ipc-2014-agile-citycar-p3-3-2-0-1.pddl,SAT:0.318186:610.0:300.0:-1
ipc-2014-agile-citycar-p3-4-2-0-1.pddl,SAT:2.33242:552.0:300.0:-1
ipc-2014-agile-citycar-p3-5-2-0-1.pddl,SAT:1.08798:932.0:300.0:-1
ipc-2014-agile-citycar-p3-5-2-0-2.pddl,SAT:0.66926:1078.0:300.0:-1
ipc-2014-agile-citycar-p4-2-2-0-1.pddl,TIMEOUT:301.139:-1.0:300.0:-1
ipc-2014-agile-citycar-p4-2-3-0-1.pddl,TIMEOUT:301.248:-1.0:300.0:-1
ipc-2014-agile-citycar-p4-2-3-0-2.pddl,SAT:4.74644:574.0:300.0:-1
ipc-2014-agile-citycar-p4-3-2-0-1.pddl,SAT:33.1313:861.0:300.0:-1
ipc-2014-agile-citycar-p4-3-2-0-2.pddl,TIMEOUT:301.152:-1.0:300.0:-1
ipc-2014-agile-citycar-p4-3-3-0-1.pddl,TIMEOUT:301.114:-1.0:300.0:-1
ipc-2014-agile-citycar-p4-3-3-0-2.pddl,SAT:6.71171:722.0:300.0:-1
ipc-2014-agile-citycar-p4-4-2-0-1.pddl,TIMEOUT:301.176:-1.0:300.0:-1
ipc-2014-agile-citycar-p4-4-2-0-2.pddl,SAT:10.8326:721.0:300.0:-1
ipc-2014-agile-citycar-p4-4-3-0-1.pddl,SAT:233.73:965.0:300.0:-1
ipc-2014-agile-citycar-p4-4-3-0-2.pddl,SAT:101.296:886.0:300.0:-1
ipc-2014-agile-citycar-p4-5-2-0-1.pddl,TIMEOUT:301.148:-1.0:300.0:-1
ipc-2014-agile-citycar-p4-5-2-0-2.pddl,TIMEOUT:301.158:-1.0:300.0:-1
ipc-2014-agile-citycar-p4-5-3-0-1.pddl,TIMEOUT:301.144:-1.0:300.0:-1
ipc-2014-agile-citycar-p4-5-3-0-2.pddl,TIMEOUT:301.125:-1.0:300.0:-1
ipc-2014-agile-floortile-p01-4-3-2.pddl,SAT:151.01:104.0:300.0:-1
ipc-2014-agile-floortile-p01-5-4-2.pddl,TIMEOUT:301.114:-1.0:300.0:-1
ipc-2014-agile-floortile-p01-5-5-2.pddl,TIMEOUT:301.134:-1.0:300.0:-1
ipc-2014-agile-floortile-p01-6-4-2.pddl,TIMEOUT:301.14:-1.0:300.0:-1
ipc-2014-agile-floortile-p01-6-5-2.pddl,TIMEOUT:301.129:-1.0:300.0:-1
ipc-2014-agile-floortile-p01-6-5-3.pddl,TIMEOUT:301.077:-1.0:300.0:-1
ipc-2014-agile-floortile-p02-5-4-2.pddl,TIMEOUT:301.155:-1.0:300.0:-1
ipc-2014-agile-floortile-p02-6-4-2.pddl,TIMEOUT:301.138:-1.0:300.0:-1
ipc-2014-agile-floortile-p02-6-5-2.pddl,TIMEOUT:301.114:-1.0:300.0:-1
ipc-2014-agile-floortile-p02-6-5-3.pddl,TIMEOUT:301.136:-1.0:300.0:-1
ipc-2014-agile-floortile-p03-6-4-2.pddl,TIMEOUT:301.184:-1.0:300.0:-1
ipc-2014-agile-floortile-p03-6-5-2.pddl,TIMEOUT:301.161:-1.0:300.0:-1
ipc-2014-agile-floortile-p03-6-5-3.pddl,TIMEOUT:301.098:-1.0:300.0:-1
ipc-2014-agile-floortile-p04-5-4-2.pddl,TIMEOUT:301.15:-1.0:300.0:-1
ipc-2014-agile-floortile-p04-5-5-2.pddl,TIMEOUT:301.123:-1.0:300.0:-1
ipc-2014-agile-floortile-p04-6-5-2.pddl,TIMEOUT:301.156:-1.0:300.0:-1
ipc-2014-agile-floortile-p04-6-5-3.pddl,TIMEOUT:301.117:-1.0:300.0:-1
ipc-2014-agile-floortile-p05-4-3-2.pddl,SAT:0.020358:77.0:300.0:-1
ipc-2014-agile-floortile-p05-6-5-2.pddl,TIMEOUT:301.12:-1.0:300.0:-1
ipc-2014-agile-floortile-p05-6-5-3.pddl,TIMEOUT:301.186:-1.0:300.0:-1
ipc-2014-agile-ged-d-10-1.pddl,SAT:8.83346:59.0:300.0:-1
ipc-2014-agile-ged-d-10-2.pddl,SAT:2.54308:64.0:300.0:-1
ipc-2014-agile-ged-d-10-3.pddl,SAT:9.24615:67.0:300.0:-1
ipc-2014-agile-ged-d-10-4.pddl,SAT:4.63644:42.0:300.0:-1
ipc-2014-agile-ged-d-10-5.pddl,SAT:35.1221:107.0:300.0:-1
ipc-2014-agile-ged-d-10-6.pddl,SAT:38.8671:99.0:300.0:-1
ipc-2014-agile-ged-d-11-1.pddl,SAT:2.85526:41.0:300.0:-1
ipc-2014-agile-ged-d-11-3.pddl,SAT:25.4558:133.0:300.0:-1
ipc-2014-agile-ged-d-11-5.pddl,SAT:26.8871:100.0:300.0:-1
ipc-2014-agile-ged-d-11-6.pddl,SAT:37.6847:64.0:300.0:-1
ipc-2014-agile-ged-d-12-11.pddl,SAT:21.6617:83.0:300.0:-1
ipc-2014-agile-ged-d-12-2.pddl,SAT:35.7031:108.0:300.0:-1
ipc-2014-agile-ged-d-12-3.pddl,SAT:179.868:67.0:300.0:-1
ipc-2014-agile-ged-d-12-5.pddl,SAT:70.2372:121.0:300.0:-1
ipc-2014-agile-ged-d-12-6.pddl,SAT:63.6201:65.0:300.0:-1
ipc-2014-agile-ged-d-12-7.pddl,SAT:218.451:119.0:300.0:-1
ipc-2014-agile-ged-d-12-8.pddl,SAT:139.387:72.0:300.0:-1
ipc-2014-agile-ged-d-12-9.pddl,SAT:155.522:104.0:300.0:-1
ipc-2014-agile-ged-d-3-6.pddl,SAT:37.9169:63.0:300.0:-1
ipc-2014-agile-ged-d-9-5.pddl,SAT:38.5299:58.0:300.0:-1
ipc-2014-agile-hiking-3-4-3.pddl,SAT:0.514337:17.0:300.0:-1
ipc-2014-agile-hiking-3-4-4.pddl,SAT:3.04571:28.0:300.0:-1
ipc-2014-agile-hiking-3-4-5.pddl,SAT:8.54287:40.0:300.0:-1
ipc-2014-agile-hiking-3-4-6.pddl,SAT:24.2178:55.0:300.0:-1
ipc-2014-agile-hiking-3-4-7.pddl,SAT:49.4111:74.0:300.0:-1
ipc-2014-agile-hiking-3-4-8.pddl,SAT:78.0944:91.0:300.0:-1
ipc-2014-agile-hiking-3-4-9.pddl,SAT:89.671:79.0:300.0:-1
ipc-2014-agile-hiking-4-5-3.pddl,SAT:2.47304:19.0:300.0:-1
ipc-2014-agile-hiking-4-5-4.pddl,SAT:12.1105:31.0:300.0:-1
ipc-2014-agile-hiking-4-5-5.pddl,SAT:45.1762:50.0:300.0:-1
ipc-2014-agile-hiking-4-5-6.pddl,SAT:90.4825:62.0:300.0:-1
ipc-2014-agile-hiking-4-5-7.pddl,SAT:166.186:69.0:300.0:-1
ipc-2014-agile-hiking-4-5-8.pddl,TIMEOUT:301.111:-1.0:300.0:-1
ipc-2014-agile-hiking-4-5-9.pddl,TIMEOUT:301.056:-1.0:300.0:-1
ipc-2014-agile-hiking-5-6-3.pddl,SAT:10.7673:22.0:300.0:-1
ipc-2014-agile-hiking-5-6-4.pddl,SAT:45.3539:30.0:300.0:-1
ipc-2014-agile-hiking-5-6-5.pddl,SAT:171.959:59.0:300.0:-1
ipc-2014-agile-hiking-5-6-6.pddl,TIMEOUT:301.153:-1.0:300.0:-1
ipc-2014-agile-hiking-5-6-7.pddl,TIMEOUT:301.091:-1.0:300.0:-1
ipc-2014-agile-hiking-5-6-8.pddl,TIMEOUT:301.143:-1.0:300.0:-1
ipc-2014-agile-maintenance-1.3.060.180.5-000.pddl,SAT:0.240633:43.0:300.0:-1
ipc-2014-agile-maintenance-1.3.060.180.5-001.pddl,TIMEOUT:301.097:-1.0:300.0:-1
ipc-2014-agile-maintenance-1.3.060.180.5-002.pddl,TIMEOUT:301.161:-1.0:300.0:-1
ipc-2014-agile-maintenance-1.3.100.300.5-000.pddl,SAT:0.981039:73.0:300.0:-1
ipc-2014-agile-maintenance-1.3.100.300.5-001.pddl,TIMEOUT:301.074:-1.0:300.0:-1
ipc-2014-agile-maintenance-1.3.100.300.7-000.pddl,SAT:1.09023:56.0:300.0:-1
ipc-2014-agile-maintenance-1.3.100.300.7-001.pddl,SAT:1.08605:58.0:300.0:-1
ipc-2014-agile-maintenance-1.3.100.300.7-002.pddl,SAT:1.10535:58.0:300.0:-1
ipc-2014-agile-maintenance-1.3.150.500.6-001.pddl,SAT:4.19854:100.0:300.0:-1
ipc-2014-agile-maintenance-1.3.200.500.5-001.pddl,TIMEOUT:301.184:-1.0:300.0:-1
ipc-2014-agile-maintenance-1.3.200.500.5-002.pddl,SAT:5.2978:133.0:300.0:-1
ipc-2014-agile-maintenance-1.3.200.700.7-000.pddl,CRASHED:2.49911:1000000000.0:300.0:-1
ipc-2014-agile-maintenance-1.3.200.700.7-001.pddl,CRASHED:2.48677:1000000000.0:300.0:-1
ipc-2014-agile-maintenance-1.3.200.700.7-002.pddl,CRASHED:2.50667:1000000000.0:300.0:-1
ipc-2014-agile-maintenance-1.3.200.900.5-000.pddl,CRASHED:4.50388:1000000000.0:300.0:-1
ipc-2014-agile-maintenance-1.3.200.900.5-001.pddl,CRASHED:3.94096:1000000000.0:300.0:-1
ipc-2014-agile-maintenance-1.3.200.900.5-002.pddl,CRASHED:3.96895:1000000000.0:300.0:-1
ipc-2014-agile-maintenance-1.3.200.900.8-000.pddl,CRASHED:4.00962:1000000000.0:300.0:-1
ipc-2014-agile-maintenance-1.3.200.900.8-001.pddl,CRASHED:4.00768:1000000000.0:300.0:-1
ipc-2014-agile-maintenance-1.3.200.900.8-002.pddl,CRASHED:4.01255:1000000000.0:300.0:-1
ipc-2014-agile-openstacks-p130_2.pddl,TIMEOUT:301.032:-1.0:300.0:-1
ipc-2014-agile-openstacks-p130_3.pddl,TIMEOUT:301.115:-1.0:300.0:-1
ipc-2014-agile-openstacks-p150_2.pddl,TIMEOUT:301.094:-1.0:300.0:-1
ipc-2014-agile-openstacks-p150_3.pddl,TIMEOUT:301.096:-1.0:300.0:-1
ipc-2014-agile-openstacks-p170_1.pddl,TIMEOUT:301.06:-1.0:300.0:-1
ipc-2014-agile-openstacks-p170_2.pddl,TIMEOUT:301.06:-1.0:300.0:-1
ipc-2014-agile-openstacks-p170_3.pddl,TIMEOUT:301.107:-1.0:300.0:-1
ipc-2014-agile-openstacks-p190_1.pddl,TIMEOUT:301.073:-1.0:300.0:-1
ipc-2014-agile-openstacks-p190_2.pddl,TIMEOUT:301.105:-1.0:300.0:-1
ipc-2014-agile-openstacks-p190_3.pddl,TIMEOUT:301.131:-1.0:300.0:-1
ipc-2014-agile-openstacks-p210_1.pddl,TIMEOUT:301.101:-1.0:300.0:-1
ipc-2014-agile-openstacks-p210_2.pddl,TIMEOUT:301.079:-1.0:300.0:-1
ipc-2014-agile-openstacks-p230_1.pddl,TIMEOUT:301.089:-1.0:300.0:-1
ipc-2014-agile-openstacks-p230_2.pddl,TIMEOUT:301.179:-1.0:300.0:-1
ipc-2014-agile-openstacks-p250_1.pddl,TIMEOUT:301.171:-1.0:300.0:-1
ipc-2014-agile-openstacks-p250_2.pddl,TIMEOUT:301.118:-1.0:300.0:-1
ipc-2014-agile-openstacks-p270_1.pddl,TIMEOUT:301.141:-1.0:300.0:-1
ipc-2014-agile-openstacks-p270_2.pddl,TIMEOUT:301.208:-1.0:300.0:-1
ipc-2014-agile-openstacks-p290_1.pddl,TIMEOUT:301.146:-1.0:300.0:-1
ipc-2014-agile-openstacks-p290_2.pddl,TIMEOUT:301.214:-1.0:300.0:-1
ipc-2014-agile-parking-28_2.pddl,SAT:89.2365:87.0:300.0:-1
ipc-2014-agile-parking-28_3.pddl,TIMEOUT:301.148:-1.0:300.0:-1
ipc-2014-agile-parking-30_1.pddl,TIMEOUT:301.135:-1.0:300.0:-1
ipc-2014-agile-parking-30_2.pddl,TIMEOUT:301.1:-1.0:300.0:-1
ipc-2014-agile-parking-30_3.pddl,TIMEOUT:301.105:-1.0:300.0:-1
ipc-2014-agile-parking-32_1.pddl,TIMEOUT:301.171:-1.0:300.0:-1
ipc-2014-agile-parking-32_2.pddl,SAT:139.753:127.0:300.0:-1
ipc-2014-agile-parking-32_3.pddl,TIMEOUT:301.071:-1.0:300.0:-1
ipc-2014-agile-parking-34_1.pddl,TIMEOUT:301.147:-1.0:300.0:-1
ipc-2014-agile-parking-34_2.pddl,TIMEOUT:301.152:-1.0:300.0:-1
ipc-2014-agile-parking-34_3.pddl,TIMEOUT:301.122:-1.0:300.0:-1
ipc-2014-agile-parking-36_1.pddl,TIMEOUT:301.122:-1.0:300.0:-1
ipc-2014-agile-parking-36_2.pddl,TIMEOUT:301.148:-1.0:300.0:-1
ipc-2014-agile-parking-36_3.pddl,TIMEOUT:301.203:-1.0:300.0:-1
ipc-2014-agile-parking-38_1.pddl,TIMEOUT:301.199:-1.0:300.0:-1
ipc-2014-agile-parking-38_2.pddl,TIMEOUT:301.138:-1.0:300.0:-1
ipc-2014-agile-parking-38_3.pddl,TIMEOUT:301.221:-1.0:300.0:-1
ipc-2014-agile-parking-40_1.pddl,TIMEOUT:301.205:-1.0:300.0:-1
ipc-2014-agile-parking-40_2.pddl,TIMEOUT:301.168:-1.0:300.0:-1
ipc-2014-agile-parking-40_3.pddl,TIMEOUT:301.199:-1.0:300.0:-1
ipc-2014-agile-tetris-020.pddl,SAT:181.107:80.0:300.0:-1
ipc-2014-agile-tetris-021.pddl,TIMEOUT:301.025:-1.0:300.0:-1
ipc-2014-agile-tetris-022.pddl,TIMEOUT:301.101:-1.0:300.0:-1
ipc-2014-agile-tetris-023.pddl,TIMEOUT:301.041:-1.0:300.0:-1
ipc-2014-agile-tetris-024.pddl,TIMEOUT:301.01:-1.0:300.0:-1
ipc-2014-agile-tetris-025.pddl,TIMEOUT:301.01:-1.0:300.0:-1
ipc-2014-agile-tetris-026.pddl,TIMEOUT:301.036:-1.0:300.0:-1
ipc-2014-agile-tetris-027.pddl,TIMEOUT:301.084:-1.0:300.0:-1
ipc-2014-agile-tetris-028.pddl,TIMEOUT:301.032:-1.0:300.0:-1
ipc-2014-agile-tetris-029.pddl,TIMEOUT:301.027:-1.0:300.0:-1
ipc-2014-agile-tetris-031.pddl,TIMEOUT:301.031:-1.0:300.0:-1
ipc-2014-agile-tetris-032.pddl,TIMEOUT:301.097:-1.0:300.0:-1
ipc-2014-agile-tetris-033.pddl,TIMEOUT:301.05:-1.0:300.0:-1
ipc-2014-agile-tetris-034.pddl,TIMEOUT:301.018:-1.0:300.0:-1
ipc-2014-agile-tetris-035.pddl,TIMEOUT:301.072:-1.0:300.0:-1
ipc-2014-agile-tetris-036.pddl,TIMEOUT:301.084:-1.0:300.0:-1
ipc-2014-agile-tetris-037.pddl,TIMEOUT:301.103:-1.0:300.0:-1
ipc-2014-agile-tetris-038.pddl,TIMEOUT:301.025:-1.0:300.0:-1
ipc-2014-agile-tetris-039.pddl,TIMEOUT:301.032:-1.0:300.0:-1
ipc-2014-agile-tetris-040.pddl,TIMEOUT:301.054:-1.0:300.0:-1
ipc-2014-agile-thoughtful-bootstrap-typed-01.pddl,SAT:0.178506:39.0:300.0:-1
ipc-2014-agile-thoughtful-bootstrap-typed-02.pddl,SAT:0.142176:28.0:300.0:-1
ipc-2014-agile-thoughtful-bootstrap-typed-03.pddl,SAT:0.18472:44.0:300.0:-1
ipc-2014-agile-thoughtful-bootstrap-typed-04.pddl,SAT:0.188894:37.0:300.0:-1
ipc-2014-agile-thoughtful-bootstrap-typed-05.pddl,SAT:0.165526:34.0:300.0:-1
ipc-2014-agile-thoughtful-p11_6_53-typed.pddl,TIMEOUT:301.138:-1.0:300.0:-1
ipc-2014-agile-thoughtful-p11_6_59-typed.pddl,TIMEOUT:301.111:-1.0:300.0:-1
ipc-2014-agile-thoughtful-p11_6_62-typed.pddl,TIMEOUT:301.089:-1.0:300.0:-1
ipc-2014-agile-thoughtful-p13_7_78-typed.pddl,TIMEOUT:301.064:-1.0:300.0:-1
ipc-2014-agile-thoughtful-p13_7_79-typed.pddl,TIMEOUT:301.151:-1.0:300.0:-1
ipc-2014-agile-thoughtful-p13_7_86-typed.pddl,SAT:9.43411:169.0:300.0:-1
ipc-2014-agile-thoughtful-target-typed-20.pddl,SAT:11.2065:164.0:300.0:-1
ipc-2014-agile-thoughtful-target-typed-21.pddl,SAT:14.3416:183.0:300.0:-1
ipc-2014-agile-thoughtful-target-typed-22.pddl,TIMEOUT:301.064:-1.0:300.0:-1
ipc-2014-agile-thoughtful-target-typed-23.pddl,SAT:9.4466:138.0:300.0:-1
ipc-2014-agile-thoughtful-target-typed-24.pddl,TIMEOUT:301.147:-1.0:300.0:-1
ipc-2014-agile-thoughtful-target-typed-25.pddl,SAT:14.0295:140.0:300.0:-1
ipc-2014-agile-thoughtful-target-typed-26.pddl,SAT:9.91713:158.0:300.0:-1
ipc-2014-agile-thoughtful-target-typed-27.pddl,SAT:13.4814:215.0:300.0:-1
ipc-2014-agile-thoughtful-target-typed-28.pddl,SAT:14.023:155.0:300.0:-1
ipc-2014-agile-transport-01.pddl,SAT:58.6548:3308.0:300.0:-1
ipc-2014-agile-transport-02.pddl,SAT:98.7649:4305.0:300.0:-1
ipc-2014-agile-transport-03.pddl,SAT:104.82:4624.0:300.0:-1
ipc-2014-agile-transport-04.pddl,TIMEOUT:301.191:-1.0:300.0:-1
ipc-2014-agile-transport-05.pddl,TIMEOUT:301.228:-1.0:300.0:-1
ipc-2014-agile-transport-06.pddl,TIMEOUT:301.131:-1.0:300.0:-1
ipc-2014-agile-transport-07.pddl,TIMEOUT:301.261:-1.0:300.0:-1
ipc-2014-agile-transport-08.pddl,TIMEOUT:301.251:-1.0:300.0:-1
ipc-2014-agile-transport-09.pddl,TIMEOUT:301.251:-1.0:300.0:-1
ipc-2014-agile-transport-10.pddl,TIMEOUT:301.263:-1.0:300.0:-1
ipc-2014-agile-transport-11.pddl,SAT:96.0927:2850.0:300.0:-1
ipc-2014-agile-transport-12.pddl,SAT:157.814:3937.0:300.0:-1
ipc-2014-agile-transport-13.pddl,SAT:42.2206:3203.0:300.0:-1
ipc-2014-agile-transport-14.pddl,TIMEOUT:301.093:-1.0:300.0:-1
ipc-2014-agile-transport-15.pddl,TIMEOUT:301.207:-1.0:300.0:-1
ipc-2014-agile-transport-16.pddl,TIMEOUT:301.109:-1.0:300.0:-1
ipc-2014-agile-transport-17.pddl,TIMEOUT:301.285:-1.0:300.0:-1
ipc-2014-agile-transport-18.pddl,TIMEOUT:301.297:-1.0:300.0:-1
ipc-2014-agile-transport-19.pddl,TIMEOUT:301.158:-1.0:300.0:-1
ipc-2014-agile-transport-20.pddl,TIMEOUT:301.249:-1.0:300.0:-1
ipc-2014-agile-visitall-30.pddl,SAT:44.9279:1124.0:300.0:-1
ipc-2014-agile-visitall-31.pddl,SAT:53.4414:1179.0:300.0:-1
ipc-2014-agile-visitall-32.pddl,SAT:65.1622:1268.0:300.0:-1
ipc-2014-agile-visitall-33.pddl,SAT:76.0409:1346.0:300.0:-1
ipc-2014-agile-visitall-50.pddl,TIMEOUT:301.064:-1.0:300.0:-1
ipc-2014-agile-visitall-51.pddl,TIMEOUT:301.125:-1.0:300.0:-1
ipc-2014-agile-visitall-52.pddl,TIMEOUT:301.144:-1.0:300.0:-1
ipc-2014-agile-visitall-53.pddl,TIMEOUT:301.138:-1.0:300.0:-1
ipc-2014-agile-visitall-54.pddl,TIMEOUT:301.129:-1.0:300.0:-1
ipc-2014-agile-visitall-55.pddl,TIMEOUT:301.105:-1.0:300.0:-1
ipc-2014-agile-visitall-56.pddl,TIMEOUT:301.146:-1.0:300.0:-1
ipc-2014-agile-visitall-57.pddl,TIMEOUT:301.142:-1.0:300.0:-1
ipc-2014-agile-visitall-58.pddl,TIMEOUT:301.145:-1.0:300.0:-1
ipc-2014-agile-visitall-59.pddl,TIMEOUT:301.117:-1.0:300.0:-1
ipc-2014-agile-visitall-60.pddl,TIMEOUT:301.15:-1.0:300.0:-1
ipc-2014-agile-visitall-61.pddl,TIMEOUT:301.096:-1.0:300.0:-1
ipc-2014-agile-visitall-62.pddl,TIMEOUT:301.092:-1.0:300.0:-1
ipc-2014-agile-visitall-63.pddl,TIMEOUT:301.143:-1.0:300.0:-1
ipc-2014-agile-visitall-64.pddl,TIMEOUT:301.16:-1.0:300.0:-1
ipc-2014-agile-visitall-65.pddl,TIMEOUT:301.162:-1.0:300.0:-1
