instance,ipc-2014-agile-yahsp3
ipc-2014-agile-barman-p1-11-4-15.pddl,TIMEOUT:301.041:-1.0:300.0:-1
ipc-2014-agile-barman-p1-11-5-15.pddl,TIMEOUT:301.023:-1.0:300.0:-1
ipc-2014-agile-barman-p1-11-5-16.pddl,TIMEOUT:301.088:-1.0:300.0:-1
ipc-2014-agile-barman-p2-10-4-13.pddl,TIMEOUT:301.117:-1.0:300.0:-1
ipc-2014-agile-barman-p2-11-4-15.pddl,TIMEOUT:301.081:-1.0:300.0:-1
ipc-2014-agile-barman-p2-11-5-15.pddl,TIMEOUT:301.066:-1.0:300.0:-1
ipc-2014-agile-barman-p2-11-5-16.pddl,TIMEOUT:301.07:-1.0:300.0:-1
ipc-2014-agile-barman-p2-11-5-17.pddl,TIMEOUT:301.074:-1.0:300.0:-1
ipc-2014-agile-barman-p3-10-4-13.pddl,TIMEOUT:301.13:-1.0:300.0:-1
ipc-2014-agile-barman-p3-11-4-15.pddl,TIMEOUT:301.048:-1.0:300.0:-1
ipc-2014-agile-barman-p3-11-5-15.pddl,SAT:62.7157:377.0:300.0:-1
ipc-2014-agile-barman-p3-11-5-16.pddl,TIMEOUT:301.115:-1.0:300.0:-1
ipc-2014-agile-barman-p3-11-5-17.pddl,TIMEOUT:301.085:-1.0:300.0:-1
ipc-2014-agile-barman-p4-11-4-14.pddl,TIMEOUT:301.087:-1.0:300.0:-1
ipc-2014-agile-barman-p4-11-4-15.pddl,TIMEOUT:301.082:-1.0:300.0:-1
ipc-2014-agile-barman-p4-11-5-15.pddl,TIMEOUT:301.105:-1.0:300.0:-1
ipc-2014-agile-barman-p5-10-4-13.pddl,TIMEOUT:301.075:-1.0:300.0:-1
ipc-2014-agile-barman-p5-11-4-15.pddl,TIMEOUT:301.146:-1.0:300.0:-1
ipc-2014-agile-barman-p5-11-5-15.pddl,TIMEOUT:301.108:-1.0:300.0:-1
ipc-2014-agile-barman-p5-11-5-16.pddl,TIMEOUT:301.07:-1.0:300.0:-1
ipc-2014-agile-cavediving-01_easy.pddl,CRASHED:0.002929:1000000000.0:300.0:-1
ipc-2014-agile-cavediving-01.pddl,CRASHED:0.002832:1000000000.0:300.0:-1
ipc-2014-agile-cavediving-02_easy.pddl,CRASHED:0.002851:1000000000.0:300.0:-1
ipc-2014-agile-cavediving-03_easy.pddl,CRASHED:0.002822:1000000000.0:300.0:-1
ipc-2014-agile-cavediving-04_easy.pddl,CRASHED:0.002803:1000000000.0:300.0:-1
ipc-2014-agile-cavediving-05A_easy.pddl,CRASHED:0.002846:1000000000.0:300.0:-1
ipc-2014-agile-cavediving-06A_easy.pddl,CRASHED:0.002944:1000000000.0:300.0:-1
ipc-2014-agile-cavediving-07_easy.pddl,CRASHED:0.002931:1000000000.0:300.0:-1
ipc-2014-agile-cavediving-08_easy.pddl,CRASHED:0.00294:1000000000.0:300.0:-1
ipc-2014-agile-cavediving-09_easy.pddl,CRASHED:0.002937:1000000000.0:300.0:-1
ipc-2014-agile-cavediving-10_easy.pddl,CRASHED:0.002937:1000000000.0:300.0:-1
ipc-2014-agile-cavediving-11_easy.pddl,CRASHED:0.003073:1000000000.0:300.0:-1
ipc-2014-agile-cavediving-12_easy.pddl,CRASHED:0.002836:1000000000.0:300.0:-1
ipc-2014-agile-cavediving-13_easy.pddl,CRASHED:0.002836:1000000000.0:300.0:-1
ipc-2014-agile-cavediving-14_easy.pddl,CRASHED:0.002834:1000000000.0:300.0:-1
ipc-2014-agile-cavediving-15_easy.pddl,CRASHED:0.002934:1000000000.0:300.0:-1
ipc-2014-agile-cavediving-16_easy.pddl,CRASHED:0.002551:1000000000.0:300.0:-1
ipc-2014-agile-cavediving-18A_easy.pddl,CRASHED:0.002688:1000000000.0:300.0:-1
ipc-2014-agile-cavediving-18_easy.pddl,CRASHED:0.002503:1000000000.0:300.0:-1
ipc-2014-agile-cavediving-20A_easy.pddl,CRASHED:0.002412:1000000000.0:300.0:-1
ipc-2014-agile-childsnack-05-2.pddl,TIMEOUT:301.18:-1.0:300.0:-1
ipc-2014-agile-childsnack-05.pddl,TIMEOUT:301.181:-1.0:300.0:-1
ipc-2014-agile-childsnack-06-2.pddl,TIMEOUT:301.151:-1.0:300.0:-1
ipc-2014-agile-childsnack-07-2.pddl,TIMEOUT:301.221:-1.0:300.0:-1
ipc-2014-agile-childsnack-08-2.pddl,TIMEOUT:301.249:-1.0:300.0:-1
ipc-2014-agile-childsnack-08.pddl,TIMEOUT:301.234:-1.0:300.0:-1
ipc-2014-agile-childsnack-09-2.pddl,TIMEOUT:301.481:-1.0:300.0:-1
ipc-2014-agile-childsnack-09.pddl,TIMEOUT:301.456:-1.0:300.0:-1
ipc-2014-agile-childsnack-10-2.pddl,TIMEOUT:301.203:-1.0:300.0:-1
ipc-2014-agile-childsnack-10.pddl,TIMEOUT:301.436:-1.0:300.0:-1
ipc-2014-agile-childsnack-11-2.pddl,TIMEOUT:301.207:-1.0:300.0:-1
ipc-2014-agile-childsnack-11.pddl,TIMEOUT:301.5:-1.0:300.0:-1
ipc-2014-agile-childsnack-12.pddl,TIMEOUT:301.219:-1.0:300.0:-1
ipc-2014-agile-childsnack-13-2.pddl,TIMEOUT:301.449:-1.0:300.0:-1
ipc-2014-agile-childsnack-13.pddl,TIMEOUT:301.45:-1.0:300.0:-1
ipc-2014-agile-childsnack-14.pddl,TIMEOUT:301.485:-1.0:300.0:-1
ipc-2014-agile-childsnack-15-2.pddl,TIMEOUT:301.212:-1.0:300.0:-1
ipc-2014-agile-childsnack-16-2.pddl,TIMEOUT:301.211:-1.0:300.0:-1
ipc-2014-agile-childsnack-19-2.pddl,TIMEOUT:301.201:-1.0:300.0:-1
ipc-2014-agile-childsnack-19.pddl,TIMEOUT:301.203:-1.0:300.0:-1
ipc-2014-agile-citycar-p3-2-2-0-1.pddl,CRASHED:0.002995:1000000000.0:300.0:-1
ipc-2014-agile-citycar-p3-3-2-0-1.pddl,CRASHED:0.003087:1000000000.0:300.0:-1
ipc-2014-agile-citycar-p3-4-2-0-1.pddl,CRASHED:0.003006:1000000000.0:300.0:-1
ipc-2014-agile-citycar-p3-5-2-0-1.pddl,CRASHED:0.003:1000000000.0:300.0:-1
ipc-2014-agile-citycar-p3-5-2-0-2.pddl,CRASHED:0.003068:1000000000.0:300.0:-1
ipc-2014-agile-citycar-p4-2-2-0-1.pddl,CRASHED:0.003357:1000000000.0:300.0:-1
ipc-2014-agile-citycar-p4-2-3-0-1.pddl,CRASHED:0.00337:1000000000.0:300.0:-1
ipc-2014-agile-citycar-p4-2-3-0-2.pddl,CRASHED:0.003294:1000000000.0:300.0:-1
ipc-2014-agile-citycar-p4-3-2-0-1.pddl,CRASHED:0.003284:1000000000.0:300.0:-1
ipc-2014-agile-citycar-p4-3-2-0-2.pddl,CRASHED:0.003278:1000000000.0:300.0:-1
ipc-2014-agile-citycar-p4-3-3-0-1.pddl,CRASHED:0.003322:1000000000.0:300.0:-1
ipc-2014-agile-citycar-p4-3-3-0-2.pddl,CRASHED:0.003253:1000000000.0:300.0:-1
ipc-2014-agile-citycar-p4-4-2-0-1.pddl,CRASHED:0.003288:1000000000.0:300.0:-1
ipc-2014-agile-citycar-p4-4-2-0-2.pddl,CRASHED:0.00332:1000000000.0:300.0:-1
ipc-2014-agile-citycar-p4-4-3-0-1.pddl,CRASHED:0.0033:1000000000.0:300.0:-1
ipc-2014-agile-citycar-p4-4-3-0-2.pddl,CRASHED:0.003296:1000000000.0:300.0:-1
ipc-2014-agile-citycar-p4-5-2-0-1.pddl,CRASHED:0.003253:1000000000.0:300.0:-1
ipc-2014-agile-citycar-p4-5-2-0-2.pddl,CRASHED:0.00333:1000000000.0:300.0:-1
ipc-2014-agile-citycar-p4-5-3-0-1.pddl,CRASHED:0.003327:1000000000.0:300.0:-1
ipc-2014-agile-citycar-p4-5-3-0-2.pddl,CRASHED:0.00334:1000000000.0:300.0:-1
ipc-2014-agile-floortile-p01-4-3-2.pddl,SAT:26.3058:107.0:300.0:-1
ipc-2014-agile-floortile-p01-5-4-2.pddl,TIMEOUT:301.22:-1.0:300.0:-1
ipc-2014-agile-floortile-p01-5-5-2.pddl,TIMEOUT:301.25:-1.0:300.0:-1
ipc-2014-agile-floortile-p01-6-4-2.pddl,TIMEOUT:301.219:-1.0:300.0:-1
ipc-2014-agile-floortile-p01-6-5-2.pddl,TIMEOUT:301.195:-1.0:300.0:-1
ipc-2014-agile-floortile-p01-6-5-3.pddl,TIMEOUT:301.147:-1.0:300.0:-1
ipc-2014-agile-floortile-p02-5-4-2.pddl,TIMEOUT:301.17:-1.0:300.0:-1
ipc-2014-agile-floortile-p02-6-4-2.pddl,TIMEOUT:301.182:-1.0:300.0:-1
ipc-2014-agile-floortile-p02-6-5-2.pddl,TIMEOUT:301.153:-1.0:300.0:-1
ipc-2014-agile-floortile-p02-6-5-3.pddl,TIMEOUT:301.176:-1.0:300.0:-1
ipc-2014-agile-floortile-p03-6-4-2.pddl,TIMEOUT:301.216:-1.0:300.0:-1
ipc-2014-agile-floortile-p03-6-5-2.pddl,TIMEOUT:301.171:-1.0:300.0:-1
ipc-2014-agile-floortile-p03-6-5-3.pddl,TIMEOUT:301.107:-1.0:300.0:-1
ipc-2014-agile-floortile-p04-5-4-2.pddl,TIMEOUT:301.18:-1.0:300.0:-1
ipc-2014-agile-floortile-p04-5-5-2.pddl,TIMEOUT:301.203:-1.0:300.0:-1
ipc-2014-agile-floortile-p04-6-5-2.pddl,TIMEOUT:301.195:-1.0:300.0:-1
ipc-2014-agile-floortile-p04-6-5-3.pddl,TIMEOUT:301.154:-1.0:300.0:-1
ipc-2014-agile-floortile-p05-4-3-2.pddl,SAT:12.9853:101.0:300.0:-1
ipc-2014-agile-floortile-p05-6-5-2.pddl,TIMEOUT:301.176:-1.0:300.0:-1
ipc-2014-agile-floortile-p05-6-5-3.pddl,TIMEOUT:301.147:-1.0:300.0:-1
ipc-2014-agile-ged-d-10-1.pddl,SAT:0.91969:35.0:300.0:-1
ipc-2014-agile-ged-d-10-2.pddl,SAT:0.8457:49.0:300.0:-1
ipc-2014-agile-ged-d-10-3.pddl,SAT:0.695056:58.0:300.0:-1
ipc-2014-agile-ged-d-10-4.pddl,SAT:0.461437:49.0:300.0:-1
ipc-2014-agile-ged-d-10-5.pddl,SAT:0.4684:38.0:300.0:-1
ipc-2014-agile-ged-d-10-6.pddl,SAT:2.71699:113.0:300.0:-1
ipc-2014-agile-ged-d-11-1.pddl,SAT:0.238879:112.0:300.0:-1
ipc-2014-agile-ged-d-11-3.pddl,SAT:0.893223:73.0:300.0:-1
ipc-2014-agile-ged-d-11-5.pddl,SAT:2.90728:78.0:300.0:-1
ipc-2014-agile-ged-d-11-6.pddl,SAT:1.2719:97.0:300.0:-1
ipc-2014-agile-ged-d-12-11.pddl,SAT:2.38883:55.0:300.0:-1
ipc-2014-agile-ged-d-12-2.pddl,SAT:0.487916:148.0:300.0:-1
ipc-2014-agile-ged-d-12-3.pddl,SAT:17.0379:57.0:300.0:-1
ipc-2014-agile-ged-d-12-5.pddl,SAT:29.7159:233.0:300.0:-1
ipc-2014-agile-ged-d-12-6.pddl,SAT:4.71056:139.0:300.0:-1
ipc-2014-agile-ged-d-12-7.pddl,SAT:17.0614:74.0:300.0:-1
ipc-2014-agile-ged-d-12-8.pddl,SAT:41.3793:199.0:300.0:-1
ipc-2014-agile-ged-d-12-9.pddl,SAT:33.7575:95.0:300.0:-1
ipc-2014-agile-ged-d-3-6.pddl,SAT:0.46466:39.0:300.0:-1
ipc-2014-agile-ged-d-9-5.pddl,SAT:1.26656:163.0:300.0:-1
ipc-2014-agile-hiking-3-4-3.pddl,SAT:0.059327:34.0:300.0:-1
ipc-2014-agile-hiking-3-4-4.pddl,SAT:0.152322:1042.0:300.0:-1
ipc-2014-agile-hiking-3-4-5.pddl,SAT:0.568589:1843.0:300.0:-1
ipc-2014-agile-hiking-3-4-6.pddl,SAT:22.5753:1124.0:300.0:-1
ipc-2014-agile-hiking-3-4-7.pddl,SAT:279.231:1912.0:300.0:-1
ipc-2014-agile-hiking-3-4-8.pddl,TIMEOUT:301.058:-1.0:300.0:-1
ipc-2014-agile-hiking-3-4-9.pddl,TIMEOUT:301.037:-1.0:300.0:-1
ipc-2014-agile-hiking-4-5-3.pddl,SAT:0.127536:64.0:300.0:-1
ipc-2014-agile-hiking-4-5-4.pddl,SAT:0.918718:245.0:300.0:-1
ipc-2014-agile-hiking-4-5-5.pddl,SAT:0.935687:779.0:300.0:-1
ipc-2014-agile-hiking-4-5-6.pddl,SAT:37.056:3640.0:300.0:-1
ipc-2014-agile-hiking-4-5-7.pddl,TIMEOUT:301.112:-1.0:300.0:-1
ipc-2014-agile-hiking-4-5-8.pddl,TIMEOUT:301.102:-1.0:300.0:-1
ipc-2014-agile-hiking-4-5-9.pddl,TIMEOUT:301.1:-1.0:300.0:-1
ipc-2014-agile-hiking-5-6-3.pddl,SAT:0.232937:48.0:300.0:-1
ipc-2014-agile-hiking-5-6-4.pddl,SAT:1.03936:671.0:300.0:-1
ipc-2014-agile-hiking-5-6-5.pddl,SAT:21.6734:1133.0:300.0:-1
ipc-2014-agile-hiking-5-6-6.pddl,SAT:63.7414:3510.0:300.0:-1
ipc-2014-agile-hiking-5-6-7.pddl,SAT:21.2044:4058.0:300.0:-1
ipc-2014-agile-hiking-5-6-8.pddl,TIMEOUT:301.048:-1.0:300.0:-1
ipc-2014-agile-maintenance-1.3.060.180.5-000.pddl,CRASHED:0.002399:1000000000.0:300.0:-1
ipc-2014-agile-maintenance-1.3.060.180.5-001.pddl,CRASHED:0.002961:1000000000.0:300.0:-1
ipc-2014-agile-maintenance-1.3.060.180.5-002.pddl,CRASHED:0.003248:1000000000.0:300.0:-1
ipc-2014-agile-maintenance-1.3.100.300.5-000.pddl,CRASHED:0.003148:1000000000.0:300.0:-1
ipc-2014-agile-maintenance-1.3.100.300.5-001.pddl,CRASHED:0.003243:1000000000.0:300.0:-1
ipc-2014-agile-maintenance-1.3.100.300.7-000.pddl,CRASHED:0.003042:1000000000.0:300.0:-1
ipc-2014-agile-maintenance-1.3.100.300.7-001.pddl,CRASHED:0.003114:1000000000.0:300.0:-1
ipc-2014-agile-maintenance-1.3.100.300.7-002.pddl,CRASHED:0.002962:1000000000.0:300.0:-1
ipc-2014-agile-maintenance-1.3.150.500.6-001.pddl,CRASHED:0.003013:1000000000.0:300.0:-1
ipc-2014-agile-maintenance-1.3.200.500.5-001.pddl,CRASHED:0.003129:1000000000.0:300.0:-1
ipc-2014-agile-maintenance-1.3.200.500.5-002.pddl,CRASHED:0.003265:1000000000.0:300.0:-1
ipc-2014-agile-maintenance-1.3.200.700.7-000.pddl,CRASHED:0.00322:1000000000.0:300.0:-1
ipc-2014-agile-maintenance-1.3.200.700.7-001.pddl,CRASHED:0.003208:1000000000.0:300.0:-1
ipc-2014-agile-maintenance-1.3.200.700.7-002.pddl,CRASHED:0.003096:1000000000.0:300.0:-1
ipc-2014-agile-maintenance-1.3.200.900.5-000.pddl,CRASHED:0.003233:1000000000.0:300.0:-1
ipc-2014-agile-maintenance-1.3.200.900.5-001.pddl,CRASHED:0.003141:1000000000.0:300.0:-1
ipc-2014-agile-maintenance-1.3.200.900.5-002.pddl,CRASHED:0.003154:1000000000.0:300.0:-1
ipc-2014-agile-maintenance-1.3.200.900.8-000.pddl,CRASHED:0.003285:1000000000.0:300.0:-1
ipc-2014-agile-maintenance-1.3.200.900.8-001.pddl,CRASHED:0.003154:1000000000.0:300.0:-1
ipc-2014-agile-maintenance-1.3.200.900.8-002.pddl,CRASHED:0.003106:1000000000.0:300.0:-1
ipc-2014-agile-openstacks-p130_2.pddl,CRASHED:1.03887:1000000000.0:300.0:-1
ipc-2014-agile-openstacks-p130_3.pddl,CRASHED:1.29816:1000000000.0:300.0:-1
ipc-2014-agile-openstacks-p150_2.pddl,CRASHED:1.56257:1000000000.0:300.0:-1
ipc-2014-agile-openstacks-p150_3.pddl,CRASHED:2.03272:1000000000.0:300.0:-1
ipc-2014-agile-openstacks-p170_1.pddl,CRASHED:2.28172:1000000000.0:300.0:-1
ipc-2014-agile-openstacks-p170_2.pddl,CRASHED:2.46593:1000000000.0:300.0:-1
ipc-2014-agile-openstacks-p170_3.pddl,CRASHED:2.84562:1000000000.0:300.0:-1
ipc-2014-agile-openstacks-p190_1.pddl,CRASHED:3.49758:1000000000.0:300.0:-1
ipc-2014-agile-openstacks-p190_2.pddl,CRASHED:3.69919:1000000000.0:300.0:-1
ipc-2014-agile-openstacks-p190_3.pddl,CRASHED:4.29624:1000000000.0:300.0:-1
ipc-2014-agile-openstacks-p210_1.pddl,CRASHED:4.73761:1000000000.0:300.0:-1
ipc-2014-agile-openstacks-p210_2.pddl,CRASHED:4.96467:1000000000.0:300.0:-1
ipc-2014-agile-openstacks-p230_1.pddl,CRASHED:6.64227:1000000000.0:300.0:-1
ipc-2014-agile-openstacks-p230_2.pddl,CRASHED:6.57899:1000000000.0:300.0:-1
ipc-2014-agile-openstacks-p250_1.pddl,CRASHED:9.18591:1000000000.0:300.0:-1
ipc-2014-agile-openstacks-p250_2.pddl,CRASHED:8.72654:1000000000.0:300.0:-1
ipc-2014-agile-openstacks-p270_1.pddl,CRASHED:10.3741:1000000000.0:300.0:-1
ipc-2014-agile-openstacks-p270_2.pddl,CRASHED:10.2266:1000000000.0:300.0:-1
ipc-2014-agile-openstacks-p290_1.pddl,CRASHED:12.9625:1000000000.0:300.0:-1
ipc-2014-agile-openstacks-p290_2.pddl,CRASHED:14.0735:1000000000.0:300.0:-1
ipc-2014-agile-parking-28_2.pddl,TIMEOUT:301.096:-1.0:300.0:-1
ipc-2014-agile-parking-28_3.pddl,TIMEOUT:301.094:-1.0:300.0:-1
ipc-2014-agile-parking-30_1.pddl,TIMEOUT:301.07:-1.0:300.0:-1
ipc-2014-agile-parking-30_2.pddl,TIMEOUT:301.098:-1.0:300.0:-1
ipc-2014-agile-parking-30_3.pddl,TIMEOUT:301.027:-1.0:300.0:-1
ipc-2014-agile-parking-32_1.pddl,TIMEOUT:301.068:-1.0:300.0:-1
ipc-2014-agile-parking-32_2.pddl,TIMEOUT:301.079:-1.0:300.0:-1
ipc-2014-agile-parking-32_3.pddl,TIMEOUT:301.047:-1.0:300.0:-1
ipc-2014-agile-parking-34_1.pddl,TIMEOUT:301.03:-1.0:300.0:-1
ipc-2014-agile-parking-34_2.pddl,TIMEOUT:301.123:-1.0:300.0:-1
ipc-2014-agile-parking-34_3.pddl,TIMEOUT:301.103:-1.0:300.0:-1
ipc-2014-agile-parking-36_1.pddl,TIMEOUT:301.125:-1.0:300.0:-1
ipc-2014-agile-parking-36_2.pddl,TIMEOUT:301.121:-1.0:300.0:-1
ipc-2014-agile-parking-36_3.pddl,TIMEOUT:301.126:-1.0:300.0:-1
ipc-2014-agile-parking-38_1.pddl,TIMEOUT:301.056:-1.0:300.0:-1
ipc-2014-agile-parking-38_2.pddl,TIMEOUT:301.113:-1.0:300.0:-1
ipc-2014-agile-parking-38_3.pddl,TIMEOUT:301.038:-1.0:300.0:-1
ipc-2014-agile-parking-40_1.pddl,TIMEOUT:301.079:-1.0:300.0:-1
ipc-2014-agile-parking-40_2.pddl,TIMEOUT:301.114:-1.0:300.0:-1
ipc-2014-agile-parking-40_3.pddl,TIMEOUT:301.109:-1.0:300.0:-1
ipc-2014-agile-tetris-020.pddl,SAT:110.383:83.0:300.0:-1
ipc-2014-agile-tetris-021.pddl,CRASHED:17.3727:1000000000.0:300.0:-1
ipc-2014-agile-tetris-022.pddl,CRASHED:16.4238:1000000000.0:300.0:-1
ipc-2014-agile-tetris-023.pddl,CRASHED:16.325:1000000000.0:300.0:-1
ipc-2014-agile-tetris-024.pddl,CRASHED:17.9044:1000000000.0:300.0:-1
ipc-2014-agile-tetris-025.pddl,TIMEOUT:301.106:-1.0:300.0:-1
ipc-2014-agile-tetris-026.pddl,CRASHED:26.0493:1000000000.0:300.0:-1
ipc-2014-agile-tetris-027.pddl,CRASHED:20.9487:1000000000.0:300.0:-1
ipc-2014-agile-tetris-028.pddl,CRASHED:19.2647:1000000000.0:300.0:-1
ipc-2014-agile-tetris-029.pddl,TIMEOUT:301.12:-1.0:300.0:-1
ipc-2014-agile-tetris-031.pddl,CRASHED:32.4676:1000000000.0:300.0:-1
ipc-2014-agile-tetris-032.pddl,CRASHED:23.2197:1000000000.0:300.0:-1
ipc-2014-agile-tetris-033.pddl,CRASHED:30.156:1000000000.0:300.0:-1
ipc-2014-agile-tetris-034.pddl,CRASHED:29.3647:1000000000.0:300.0:-1
ipc-2014-agile-tetris-035.pddl,CRASHED:38.5514:1000000000.0:300.0:-1
ipc-2014-agile-tetris-036.pddl,CRASHED:36.5594:1000000000.0:300.0:-1
ipc-2014-agile-tetris-037.pddl,CRASHED:23.3581:1000000000.0:300.0:-1
ipc-2014-agile-tetris-038.pddl,CRASHED:29.2663:1000000000.0:300.0:-1
ipc-2014-agile-tetris-039.pddl,CRASHED:34.2307:1000000000.0:300.0:-1
ipc-2014-agile-tetris-040.pddl,CRASHED:30.009:1000000000.0:300.0:-1
ipc-2014-agile-thoughtful-bootstrap-typed-01.pddl,SAT:0.72333:46.0:300.0:-1
ipc-2014-agile-thoughtful-bootstrap-typed-02.pddl,SAT:0.703676:74.0:300.0:-1
ipc-2014-agile-thoughtful-bootstrap-typed-03.pddl,SAT:0.701171:61.0:300.0:-1
ipc-2014-agile-thoughtful-bootstrap-typed-04.pddl,SAT:0.696455:41.0:300.0:-1
ipc-2014-agile-thoughtful-bootstrap-typed-05.pddl,SAT:0.698497:53.0:300.0:-1
ipc-2014-agile-thoughtful-p11_6_53-typed.pddl,SAT:191.412:288.0:300.0:-1
ipc-2014-agile-thoughtful-p11_6_59-typed.pddl,TIMEOUT:301.125:-1.0:300.0:-1
ipc-2014-agile-thoughtful-p11_6_62-typed.pddl,SAT:12.517:318.0:300.0:-1
ipc-2014-agile-thoughtful-p13_7_78-typed.pddl,TIMEOUT:301.09:-1.0:300.0:-1
ipc-2014-agile-thoughtful-p13_7_79-typed.pddl,TIMEOUT:301.122:-1.0:300.0:-1
ipc-2014-agile-thoughtful-p13_7_86-typed.pddl,TIMEOUT:301.052:-1.0:300.0:-1
ipc-2014-agile-thoughtful-target-typed-20.pddl,TIMEOUT:301.065:-1.0:300.0:-1
ipc-2014-agile-thoughtful-target-typed-21.pddl,TIMEOUT:301.036:-1.0:300.0:-1
ipc-2014-agile-thoughtful-target-typed-22.pddl,TIMEOUT:301.139:-1.0:300.0:-1
ipc-2014-agile-thoughtful-target-typed-23.pddl,TIMEOUT:301.116:-1.0:300.0:-1
ipc-2014-agile-thoughtful-target-typed-24.pddl,SAT:24.1415:199.0:300.0:-1
ipc-2014-agile-thoughtful-target-typed-25.pddl,TIMEOUT:301.149:-1.0:300.0:-1
ipc-2014-agile-thoughtful-target-typed-26.pddl,TIMEOUT:301.13:-1.0:300.0:-1
ipc-2014-agile-thoughtful-target-typed-27.pddl,SAT:23.9775:230.0:300.0:-1
ipc-2014-agile-thoughtful-target-typed-28.pddl,SAT:43.2018:246.0:300.0:-1
ipc-2014-agile-transport-01.pddl,SAT:1.08339:4683.0:300.0:-1
ipc-2014-agile-transport-02.pddl,SAT:1.59933:5361.0:300.0:-1
ipc-2014-agile-transport-03.pddl,SAT:1.12041:4263.0:300.0:-1
ipc-2014-agile-transport-04.pddl,SAT:5.35816:9712.0:300.0:-1
ipc-2014-agile-transport-05.pddl,SAT:10.102:15500.0:300.0:-1
ipc-2014-agile-transport-06.pddl,SAT:5.35864:9712.0:300.0:-1
ipc-2014-agile-transport-07.pddl,SAT:6.50125:11670.0:300.0:-1
ipc-2014-agile-transport-08.pddl,SAT:8.71783:12502.0:300.0:-1
ipc-2014-agile-transport-09.pddl,SAT:6.35892:11670.0:300.0:-1
ipc-2014-agile-transport-10.pddl,SAT:5.307:10021.0:300.0:-1
ipc-2014-agile-transport-11.pddl,SAT:1.02968:3491.0:300.0:-1
ipc-2014-agile-transport-12.pddl,SAT:1.41609:5020.0:300.0:-1
ipc-2014-agile-transport-13.pddl,SAT:1.00131:5929.0:300.0:-1
ipc-2014-agile-transport-14.pddl,SAT:5.30446:11687.0:300.0:-1
ipc-2014-agile-transport-15.pddl,SAT:6.56606:12437.0:300.0:-1
ipc-2014-agile-transport-16.pddl,SAT:3.41183:13661.0:300.0:-1
ipc-2014-agile-transport-17.pddl,SAT:6.38292:10606.0:300.0:-1
ipc-2014-agile-transport-18.pddl,SAT:8.74645:12877.0:300.0:-1
ipc-2014-agile-transport-19.pddl,SAT:4.91083:11273.0:300.0:-1
ipc-2014-agile-transport-20.pddl,SAT:6.94246:9041.0:300.0:-1
ipc-2014-agile-visitall-30.pddl,SAT:0.622816:1116.0:300.0:-1
ipc-2014-agile-visitall-31.pddl,SAT:0.765708:1217.0:300.0:-1
ipc-2014-agile-visitall-32.pddl,SAT:0.83811:1230.0:300.0:-1
ipc-2014-agile-visitall-33.pddl,SAT:1.1169:1390.0:300.0:-1
ipc-2014-agile-visitall-50.pddl,SAT:10.7863:2967.0:300.0:-1
ipc-2014-agile-visitall-51.pddl,SAT:11.3358:3051.0:300.0:-1
ipc-2014-agile-visitall-52.pddl,SAT:10.9654:3180.0:300.0:-1
ipc-2014-agile-visitall-53.pddl,SAT:12.3744:3206.0:300.0:-1
ipc-2014-agile-visitall-54.pddl,SAT:13.6956:3349.0:300.0:-1
ipc-2014-agile-visitall-55.pddl,SAT:14.0106:3496.0:300.0:-1
ipc-2014-agile-visitall-56.pddl,SAT:15.2173:3634.0:300.0:-1
ipc-2014-agile-visitall-57.pddl,SAT:16.2553:3842.0:300.0:-1
ipc-2014-agile-visitall-58.pddl,SAT:20.6184:3768.0:300.0:-1
ipc-2014-agile-visitall-59.pddl,SAT:22.0146:3964.0:300.0:-1
ipc-2014-agile-visitall-60.pddl,SAT:23.7654:4089.0:300.0:-1
ipc-2014-agile-visitall-61.pddl,SAT:28.5826:4275.0:300.0:-1
ipc-2014-agile-visitall-62.pddl,SAT:26.2351:4279.0:300.0:-1
ipc-2014-agile-visitall-63.pddl,SAT:26.3201:4707.0:300.0:-1
ipc-2014-agile-visitall-64.pddl,SAT:44.0315:4809.0:300.0:-1
ipc-2014-agile-visitall-65.pddl,SAT:43.3204:4976.0:300.0:-1
