instance,ipc-2014-optimal-cgamer-bd
ipc-2014-optimal-barman-p433.1.pddl,CRASHED:1.01484:1000000000.0:1800.0:-1
ipc-2014-optimal-barman-p433.2.pddl,CRASHED:0.962853:1000000000.0:1800.0:-1
ipc-2014-optimal-barman-p433.3.pddl,CRASHED:0.965852:1000000000.0:1800.0:-1
ipc-2014-optimal-barman-p435.1.pddl,CRASHED:24.2133:49.0:1800.0:-1
ipc-2014-optimal-barman-p435.2.pddl,CRASHED:38.7591:49.0:1800.0:-1
ipc-2014-optimal-barman-p435.3.pddl,CRASHED:29.1116:49.0:1800.0:-1
ipc-2014-optimal-barman-p443.1.pddl,CRASHED:1.19882:1000000000.0:1800.0:-1
ipc-2014-optimal-barman-p443.2.pddl,CRASHED:1.10983:1000000000.0:1800.0:-1
ipc-2014-optimal-barman-p443.3.pddl,CRASHED:1.05884:1000000000.0:1800.0:-1
ipc-2014-optimal-barman-p536.1.pddl,CRASHED:212.544:62.0:1800.0:-1
ipc-2014-optimal-barman-p536.2.pddl,CRASHED:190.509:62.0:1800.0:-1
ipc-2014-optimal-barman-p536.3.pddl,CRASHED:154.47:62.0:1800.0:-1
ipc-2014-optimal-barman-p638.1.pddl,TIMEOUT:1801.04:-1.0:1800.0:-1
ipc-2014-optimal-barman-p638.2.pddl,TIMEOUT:1801.0:-1.0:1800.0:-1
ipc-2014-optimal-barman-p638.3.pddl,CRASHED:1534.32:1000000000.0:1800.0:-1
ipc-2014-optimal-barman-p739.1.pddl,CRASHED:1690.08:1000000000.0:1800.0:-1
ipc-2014-optimal-barman-p739.2.pddl,TIMEOUT:1801.09:-1.0:1800.0:-1
ipc-2014-optimal-barman-p739.3.pddl,CRASHED:1688.92:1000000000.0:1800.0:-1
ipc-2014-optimal-barman-p839.1.pddl,TIMEOUT:1801.06:-1.0:1800.0:-1
ipc-2014-optimal-barman-p839.2.pddl,CRASHED:1617.65:1000000000.0:1800.0:-1
ipc-2014-optimal-cavediving-01.pddl,CRASHED:42.0546:1000000000.0:1800.0:-1
ipc-2014-optimal-cavediving-01_easy.pddl,CRASHED:28.7746:1000000000.0:1800.0:-1
ipc-2014-optimal-cavediving-02_easy.pddl,CRASHED:28.9606:1000000000.0:1800.0:-1
ipc-2014-optimal-cavediving-03_easy.pddl,CRASHED:29.1006:1000000000.0:1800.0:-1
ipc-2014-optimal-cavediving-04_easy.pddl,CRASHED:29.3605:1000000000.0:1800.0:-1
ipc-2014-optimal-cavediving-05A_easy.pddl,CRASHED:5.87811:1000000000.0:1800.0:-1
ipc-2014-optimal-cavediving-06A_easy.pddl,CRASHED:5.9071:1000000000.0:1800.0:-1
ipc-2014-optimal-cavediving-07_easy.pddl,CRASHED:5.8951:1000000000.0:1800.0:-1
ipc-2014-optimal-cavediving-08_easy.pddl,CRASHED:5.9451:1000000000.0:1800.0:-1
ipc-2014-optimal-cavediving-09_easy.pddl,CRASHED:148.154:1000000000.0:1800.0:-1
ipc-2014-optimal-cavediving-10_easy.pddl,CRASHED:145.741:1000000000.0:1800.0:-1
ipc-2014-optimal-cavediving-11_easy.pddl,CRASHED:145.935:1000000000.0:1800.0:-1
ipc-2014-optimal-cavediving-12_easy.pddl,CRASHED:146.228:1000000000.0:1800.0:-1
ipc-2014-optimal-cavediving-13_easy.pddl,CRASHED:41.8786:1000000000.0:1800.0:-1
ipc-2014-optimal-cavediving-14_easy.pddl,CRASHED:42.3066:1000000000.0:1800.0:-1
ipc-2014-optimal-cavediving-15_easy.pddl,CRASHED:35.7796:1000000000.0:1800.0:-1
ipc-2014-optimal-cavediving-16_easy.pddl,CRASHED:42.3856:1000000000.0:1800.0:-1
ipc-2014-optimal-cavediving-18A_easy.pddl,CRASHED:8.80666:1000000000.0:1800.0:-1
ipc-2014-optimal-cavediving-18_easy.pddl,CRASHED:10.3014:1000000000.0:1800.0:-1
ipc-2014-optimal-cavediving-20A_easy.pddl,CRASHED:8.82066:1000000000.0:1800.0:-1
ipc-2014-optimal-childsnack-01-2.pddl,CRASHED:194.585:21.0:1800.0:-1
ipc-2014-optimal-childsnack-01.pddl,CRASHED:118.212:20.0:1800.0:-1
ipc-2014-optimal-childsnack-02-2.pddl,TIMEOUT:1801.02:-1.0:1800.0:-1
ipc-2014-optimal-childsnack-02.pddl,TIMEOUT:1801.01:-1.0:1800.0:-1
ipc-2014-optimal-childsnack-03-2.pddl,TIMEOUT:1801.1:-1.0:1800.0:-1
ipc-2014-optimal-childsnack-03.pddl,CRASHED:1726.42:1000000000.0:1800.0:-1
ipc-2014-optimal-childsnack-04-2.pddl,CRASHED:1371.1:1000000000.0:1800.0:-1
ipc-2014-optimal-childsnack-04.pddl,CRASHED:1243.38:1000000000.0:1800.0:-1
ipc-2014-optimal-childsnack-05-2.pddl,CRASHED:203.39:1000000000.0:1800.0:-1
ipc-2014-optimal-childsnack-05.pddl,CRASHED:648.64:1000000000.0:1800.0:-1
ipc-2014-optimal-childsnack-06-2.pddl,CRASHED:1459.45:1000000000.0:1800.0:-1
ipc-2014-optimal-childsnack-06.pddl,CRASHED:221.85:1000000000.0:1800.0:-1
ipc-2014-optimal-childsnack-07-2.pddl,CRASHED:243.31:1000000000.0:1800.0:-1
ipc-2014-optimal-childsnack-07.pddl,CRASHED:125.69:1000000000.0:1800.0:-1
ipc-2014-optimal-childsnack-08-2.pddl,CRASHED:407.72:1000000000.0:1800.0:-1
ipc-2014-optimal-childsnack-08.pddl,CRASHED:391.15:1000000000.0:1800.0:-1
ipc-2014-optimal-childsnack-09-2.pddl,CRASHED:1150.35:1000000000.0:1800.0:-1
ipc-2014-optimal-childsnack-09.pddl,CRASHED:864.67:1000000000.0:1800.0:-1
ipc-2014-optimal-childsnack-10-2.pddl,TIMEOUT:1801.09:-1.0:1800.0:-1
ipc-2014-optimal-childsnack-10.pddl,TIMEOUT:1801.0:-1.0:1800.0:-1
ipc-2014-optimal-citycar-p2-2-2-1-2.pddl,CRASHED:26.256:46.0:1800.0:-1
ipc-2014-optimal-citycar-p2-2-2-2-1.pddl,CRASHED:52.583:64.0:1800.0:-1
ipc-2014-optimal-citycar-p2-2-3-1-2.pddl,CRASHED:34.9657:50.0:1800.0:-1
ipc-2014-optimal-citycar-p2-2-3-2-1.pddl,CRASHED:25.8451:48.0:1800.0:-1
ipc-2014-optimal-citycar-p2-2-3-2-2.pddl,CRASHED:32.717:50.0:1800.0:-1
ipc-2014-optimal-citycar-p2-2-4-1-2.pddl,CRASHED:50.5323:52.0:1800.0:-1
ipc-2014-optimal-citycar-p2-2-4-2-1.pddl,CRASHED:52.1011:52.0:1800.0:-1
ipc-2014-optimal-citycar-p2-2-5-2-2.pddl,CRASHED:286.855:76.0:1800.0:-1
ipc-2014-optimal-citycar-p2-2-6-1-1.pddl,CRASHED:492.93:58.0:1800.0:-1
ipc-2014-optimal-citycar-p2-2-6-2-2.pddl,CRASHED:1352.42:58.0:1800.0:-1
ipc-2014-optimal-citycar-p2-3-2-3-1.pddl,CRASHED:74.1977:68.0:1800.0:-1
ipc-2014-optimal-citycar-p2-3-3-3-1.pddl,CRASHED:88.1156:78.0:1800.0:-1
ipc-2014-optimal-citycar-p2-3-4-3-1.pddl,CRASHED:202.522:82.0:1800.0:-1
ipc-2014-optimal-citycar-p2-3-6-3-2.pddl,TIMEOUT:1801.09:-1.0:1800.0:-1
ipc-2014-optimal-citycar-p3-3-2-2-1.pddl,CRASHED:120.653:70.0:1800.0:-1
ipc-2014-optimal-citycar-p3-3-2-2-2.pddl,CRASHED:171.691:92.0:1800.0:-1
ipc-2014-optimal-citycar-p3-3-2-3-1.pddl,CRASHED:113.577:48.0:1800.0:-1
ipc-2014-optimal-citycar-p3-3-2-3-2.pddl,CRASHED:116.24:70.0:1800.0:-1
ipc-2014-optimal-citycar-p3-3-3-3-1.pddl,CRASHED:958.45:1000000000.0:1800.0:-1
ipc-2014-optimal-citycar-p3-3-3-3-2.pddl,CRASHED:336.961:76.0:1800.0:-1
ipc-2014-optimal-floortile-p01-4-3-2.pddl,CRASHED:3.3105:56.0:1800.0:-1
ipc-2014-optimal-floortile-p01-4-4-2.pddl,CRASHED:4.5733:68.0:1800.0:-1
ipc-2014-optimal-floortile-p01-5-3-2.pddl,CRASHED:3.68644:63.0:1800.0:-1
ipc-2014-optimal-floortile-p01-5-4-2.pddl,CRASHED:7.57985:91.0:1800.0:-1
ipc-2014-optimal-floortile-p01-5-5-2.pddl,CRASHED:34.0638:111.0:1800.0:-1
ipc-2014-optimal-floortile-p01-6-4-2.pddl,CRASHED:9.8505:104.0:1800.0:-1
ipc-2014-optimal-floortile-p01-6-5-2.pddl,CRASHED:110.625:122.0:1800.0:-1
ipc-2014-optimal-floortile-p02-4-4-2.pddl,CRASHED:4.73128:75.0:1800.0:-1
ipc-2014-optimal-floortile-p02-5-3-2.pddl,CRASHED:2.90856:65.0:1800.0:-1
ipc-2014-optimal-floortile-p02-5-4-2.pddl,CRASHED:9.63853:98.0:1800.0:-1
ipc-2014-optimal-floortile-p02-5-5-2.pddl,CRASHED:33.6769:106.0:1800.0:-1
ipc-2014-optimal-floortile-p02-6-4-2.pddl,CRASHED:2.87:1000000000.0:1800.0:-1
ipc-2014-optimal-floortile-p02-6-5-2.pddl,CRASHED:107.762:141.0:1800.0:-1
ipc-2014-optimal-floortile-p03-4-3-2.pddl,CRASHED:2.54361:56.0:1800.0:-1
ipc-2014-optimal-floortile-p03-4-4-2.pddl,CRASHED:3.70944:72.0:1800.0:-1
ipc-2014-optimal-floortile-p03-5-3-2.pddl,CRASHED:3.19951:65.0:1800.0:-1
ipc-2014-optimal-floortile-p03-5-4-2.pddl,CRASHED:7.06193:83.0:1800.0:-1
ipc-2014-optimal-floortile-p03-5-5-2.pddl,CRASHED:24.9692:100.0:1800.0:-1
ipc-2014-optimal-floortile-p03-6-4-2.pddl,CRASHED:8.92664:116.0:1800.0:-1
ipc-2014-optimal-floortile-p03-6-5-2.pddl,CRASHED:84.0322:130.0:1800.0:-1
ipc-2014-optimal-ged-d-1-2.pddl,CRASHED:1.21781:1000000000.0:1800.0:-1
ipc-2014-optimal-ged-d-1-3.pddl,CRASHED:1.49677:1000000000.0:1800.0:-1
ipc-2014-optimal-ged-d-1-4.pddl,CRASHED:1.3328:1000000000.0:1800.0:-1
ipc-2014-optimal-ged-d-1-8.pddl,CRASHED:1.69774:1000000000.0:1800.0:-1
ipc-2014-optimal-ged-d-2-1.pddl,CRASHED:1.24581:1000000000.0:1800.0:-1
ipc-2014-optimal-ged-d-2-3.pddl,CRASHED:1.40179:1000000000.0:1800.0:-1
ipc-2014-optimal-ged-d-2-4.pddl,CRASHED:1.36879:1000000000.0:1800.0:-1
ipc-2014-optimal-ged-d-2-8.pddl,CRASHED:2.02469:1000000000.0:1800.0:-1
ipc-2014-optimal-ged-d-3-1.pddl,CRASHED:1.52877:1000000000.0:1800.0:-1
ipc-2014-optimal-ged-d-3-2.pddl,CRASHED:1.47977:1000000000.0:1800.0:-1
ipc-2014-optimal-ged-d-3-4.pddl,CRASHED:1.77573:1000000000.0:1800.0:-1
ipc-2014-optimal-ged-d-4-2.pddl,CRASHED:1.41279:1000000000.0:1800.0:-1
ipc-2014-optimal-ged-d-4-3.pddl,CRASHED:1.62275:1000000000.0:1800.0:-1
ipc-2014-optimal-ged-d-4-8.pddl,CRASHED:2.06069:1000000000.0:1800.0:-1
ipc-2014-optimal-ged-d-7-5.pddl,CRASHED:1.63875:1000000000.0:1800.0:-1
ipc-2014-optimal-ged-d-7-6.pddl,CRASHED:1.48077:1000000000.0:1800.0:-1
ipc-2014-optimal-ged-d-8-1.pddl,CRASHED:1.58676:1000000000.0:1800.0:-1
ipc-2014-optimal-ged-d-8-2.pddl,CRASHED:1.9727:1000000000.0:1800.0:-1
ipc-2014-optimal-ged-d-8-4.pddl,CRASHED:1.9777:1000000000.0:1800.0:-1
ipc-2014-optimal-ged-d-8-9.pddl,CRASHED:2.03169:1000000000.0:1800.0:-1
ipc-2014-optimal-hiking-1-2-3.pddl,CRASHED:2.31665:11.0:1800.0:-1
ipc-2014-optimal-hiking-1-2-4.pddl,CRASHED:2.81157:17.0:1800.0:-1
ipc-2014-optimal-hiking-1-2-5.pddl,CRASHED:2.98754:25.0:1800.0:-1
ipc-2014-optimal-hiking-1-2-7.pddl,CRASHED:4.27035:38.0:1800.0:-1
ipc-2014-optimal-hiking-1-2-8.pddl,CRASHED:5.30219:45.0:1800.0:-1
ipc-2014-optimal-hiking-2-2-3.pddl,CRASHED:3.79642:10.0:1800.0:-1
ipc-2014-optimal-hiking-2-2-4.pddl,CRASHED:9.48156:16.0:1800.0:-1
ipc-2014-optimal-hiking-2-2-5.pddl,CRASHED:27.7308:22.0:1800.0:-1
ipc-2014-optimal-hiking-2-2-6.pddl,CRASHED:173.125:30.0:1800.0:-1
ipc-2014-optimal-hiking-2-2-7.pddl,CRASHED:498.969:34.0:1800.0:-1
ipc-2014-optimal-hiking-2-2-8.pddl,CRASHED:1663.91:42.0:1800.0:-1
ipc-2014-optimal-hiking-2-3-4.pddl,CRASHED:15.0217:17.0:1800.0:-1
ipc-2014-optimal-hiking-2-3-5.pddl,CRASHED:129.577:24.0:1800.0:-1
ipc-2014-optimal-hiking-2-3-6.pddl,CRASHED:986.192:28.0:1800.0:-1
ipc-2014-optimal-hiking-2-3-7.pddl,TIMEOUT:1801.05:-1.0:1800.0:-1
ipc-2014-optimal-hiking-2-4-3.pddl,CRASHED:5.68113:10.0:1800.0:-1
ipc-2014-optimal-hiking-2-4-4.pddl,CRASHED:16.0766:17.0:1800.0:-1
ipc-2014-optimal-hiking-2-4-5.pddl,CRASHED:144.834:23.0:1800.0:-1
ipc-2014-optimal-hiking-2-4-6.pddl,CRASHED:1662.43:30.0:1800.0:-1
ipc-2014-optimal-hiking-2-4-7.pddl,TIMEOUT:1801.06:-1.0:1800.0:-1
ipc-2014-optimal-maintenance-1.3.010.010.1-001.pddl,CRASHED:0.976851:1000000000.0:1800.0:-1
ipc-2014-optimal-maintenance-1.3.010.010.1-002.pddl,CRASHED:1.04784:1000000000.0:1800.0:-1
ipc-2014-optimal-maintenance-1.3.010.010.2-000.pddl,CRASHED:2.18267:4.0:1800.0:-1
ipc-2014-optimal-maintenance-1.3.010.010.2-001.pddl,CRASHED:2.39863:7.0:1800.0:-1
ipc-2014-optimal-maintenance-1.3.010.010.2-002.pddl,CRASHED:2.10368:6.0:1800.0:-1
ipc-2014-optimal-maintenance-1.3.015.020.1-000.pddl,CRASHED:1.11083:1000000000.0:1800.0:-1
ipc-2014-optimal-maintenance-1.3.015.020.1-001.pddl,CRASHED:1.09383:1000000000.0:1800.0:-1
ipc-2014-optimal-maintenance-1.3.015.020.1-002.pddl,CRASHED:1.09583:1000000000.0:1800.0:-1
ipc-2014-optimal-maintenance-1.3.015.020.2-000.pddl,CRASHED:1.21181:1000000000.0:1800.0:-1
ipc-2014-optimal-maintenance-1.3.015.020.2-001.pddl,CRASHED:2.54061:11.0:1800.0:-1
ipc-2014-optimal-maintenance-1.3.015.020.2-002.pddl,CRASHED:2.44563:9.0:1800.0:-1
ipc-2014-optimal-maintenance-1.3.025.050.1-000.pddl,CRASHED:1.39979:1000000000.0:1800.0:-1
ipc-2014-optimal-maintenance-1.3.025.050.1-001.pddl,CRASHED:1.37279:1000000000.0:1800.0:-1
ipc-2014-optimal-maintenance-1.3.025.050.1-002.pddl,CRASHED:1.37979:1000000000.0:1800.0:-1
ipc-2014-optimal-maintenance-1.3.025.100.1-000.pddl,CRASHED:1.68874:1000000000.0:1800.0:-1
ipc-2014-optimal-maintenance-1.3.025.100.1-001.pddl,CRASHED:1.70574:1000000000.0:1800.0:-1
ipc-2014-optimal-maintenance-1.3.025.100.1-002.pddl,CRASHED:1.76673:1000000000.0:1800.0:-1
ipc-2014-optimal-maintenance-1.3.025.100.2-000.pddl,CRASHED:2.11668:1000000000.0:1800.0:-1
ipc-2014-optimal-maintenance-1.3.025.100.2-001.pddl,CRASHED:1.9647:1000000000.0:1800.0:-1
ipc-2014-optimal-maintenance-1.3.025.100.2-002.pddl,CRASHED:2.00469:1000000000.0:1800.0:-1
ipc-2014-optimal-openstacks-p20_1.pddl,CRASHED:4.76027:3.0:1800.0:-1
ipc-2014-optimal-openstacks-p20_2.pddl,CRASHED:5.03423:4.0:1800.0:-1
ipc-2014-optimal-openstacks-p20_3.pddl,CRASHED:6.15706:6.0:1800.0:-1
ipc-2014-optimal-openstacks-p25_1.pddl,CRASHED:7.48886:4.0:1800.0:-1
ipc-2014-optimal-openstacks-p25_3.pddl,CRASHED:16.1425:9.0:1800.0:-1
ipc-2014-optimal-openstacks-p30_1.pddl,CRASHED:10.1585:4.0:1800.0:-1
ipc-2014-optimal-openstacks-p30_2.pddl,CRASHED:10.8973:4.0:1800.0:-1
ipc-2014-optimal-openstacks-p30_3.pddl,CRASHED:20.7928:12.0:1800.0:-1
ipc-2014-optimal-openstacks-p35_1.pddl,CRASHED:19.2041:4.0:1800.0:-1
ipc-2014-optimal-openstacks-p35_2.pddl,CRASHED:21.5977:5.0:1800.0:-1
ipc-2014-optimal-openstacks-p35_3.pddl,CRASHED:244.606:14.0:1800.0:-1
ipc-2014-optimal-openstacks-p40_1.pddl,CRASHED:20.8608:3.0:1800.0:-1
ipc-2014-optimal-openstacks-p40_2.pddl,CRASHED:21.1648:4.0:1800.0:-1
ipc-2014-optimal-openstacks-p40_3.pddl,CRASHED:264.269:15.0:1800.0:-1
ipc-2014-optimal-openstacks-p45_1.pddl,CRASHED:23.1615:4.0:1800.0:-1
ipc-2014-optimal-openstacks-p45_2.pddl,CRASHED:29.0316:5.0:1800.0:-1
ipc-2014-optimal-openstacks-p45_3.pddl,CRASHED:449.639:19.0:1800.0:-1
ipc-2014-optimal-openstacks-p50_1.pddl,CRASHED:29.1596:4.0:1800.0:-1
ipc-2014-optimal-openstacks-p50_2.pddl,CRASHED:28.9716:5.0:1800.0:-1
ipc-2014-optimal-openstacks-p50_3.pddl,TIMEOUT:1801.07:-1.0:1800.0:-1
ipc-2014-optimal-parking-12_7-01.pddl,CRASHED:942.018:18.0:1800.0:-1
ipc-2014-optimal-parking-12_7-02.pddl,CRASHED:844.844:18.0:1800.0:-1
ipc-2014-optimal-parking-12_7-03.pddl,CRASHED:556.628:17.0:1800.0:-1
ipc-2014-optimal-parking-12_7-04.pddl,CRASHED:1505.42:1000000000.0:1800.0:-1
ipc-2014-optimal-parking-14_8-01.pddl,CRASHED:1297.18:1000000000.0:1800.0:-1
ipc-2014-optimal-parking-14_8-02.pddl,CRASHED:1279.24:1000000000.0:1800.0:-1
ipc-2014-optimal-parking-14_8-03.pddl,CRASHED:27.54:1000000000.0:1800.0:-1
ipc-2014-optimal-parking-14_8-04.pddl,CRASHED:1415.38:1000000000.0:1800.0:-1
ipc-2014-optimal-parking-16_9-01.pddl,TIMEOUT:1801.05:-1.0:1800.0:-1
ipc-2014-optimal-parking-16_9-02.pddl,CRASHED:1226.03:1000000000.0:1800.0:-1
ipc-2014-optimal-parking-16_9-03.pddl,TIMEOUT:1801.09:-1.0:1800.0:-1
ipc-2014-optimal-parking-16_9-04.pddl,TIMEOUT:1801.07:-1.0:1800.0:-1
ipc-2014-optimal-parking-18_10-01.pddl,CRASHED:1598.23:1000000000.0:1800.0:-1
ipc-2014-optimal-parking-18_10-02.pddl,CRASHED:1377.95:1000000000.0:1800.0:-1
ipc-2014-optimal-parking-18_10-03.pddl,CRASHED:1271.3:1000000000.0:1800.0:-1
ipc-2014-optimal-parking-18_10-04.pddl,CRASHED:1250.62:1000000000.0:1800.0:-1
ipc-2014-optimal-parking-20_11-01.pddl,TIMEOUT:1801.04:-1.0:1800.0:-1
ipc-2014-optimal-parking-20_11-02.pddl,TIMEOUT:1801.09:-1.0:1800.0:-1
ipc-2014-optimal-parking-20_11-03.pddl,TIMEOUT:1801.11:-1.0:1800.0:-1
ipc-2014-optimal-parking-20_11-04.pddl,TIMEOUT:1801.03:-1.0:1800.0:-1
ipc-2014-optimal-tetris-01-10.pddl,CRASHED:1088.85:1000000000.0:1800.0:-1
ipc-2014-optimal-tetris-01-04.pddl,CRASHED:14.2408:1000000000.0:1800.0:-1
ipc-2014-optimal-tetris-01-06.pddl,CRASHED:107.59:30.0:1800.0:-1
ipc-2014-optimal-tetris-01-08.pddl,CRASHED:33.5899:36.0:1800.0:-1
ipc-2014-optimal-tetris-02-10.pddl,CRASHED:984.89:1000000000.0:1800.0:-1
ipc-2014-optimal-tetris-02-04.pddl,CRASHED:8.35873:10.0:1800.0:-1
ipc-2014-optimal-tetris-02-06.pddl,CRASHED:32.61:30.0:1800.0:-1
ipc-2014-optimal-tetris-02-08.pddl,CRASHED:410.461:39.0:1800.0:-1
ipc-2014-optimal-tetris-03-10.pddl,TIMEOUT:1801.03:-1.0:1800.0:-1
ipc-2014-optimal-tetris-03-04.pddl,CRASHED:6.98094:11.0:1800.0:-1
ipc-2014-optimal-tetris-03-06.pddl,CRASHED:57.3813:21.0:1800.0:-1
ipc-2014-optimal-tetris-03-08.pddl,CRASHED:72.7409:48.0:1800.0:-1
ipc-2014-optimal-tetris-04-10.pddl,CRASHED:1404.19:1000000000.0:1800.0:-1
ipc-2014-optimal-tetris-04-04.pddl,CRASHED:12.6751:1000000000.0:1800.0:-1
ipc-2014-optimal-tetris-04-06.pddl,CRASHED:171.721:27.0:1800.0:-1
ipc-2014-optimal-tetris-04-08.pddl,TIMEOUT:1801.02:-1.0:1800.0:-1
ipc-2014-optimal-tetris-05-10.pddl,CRASHED:706.79:66.0:1800.0:-1
ipc-2014-optimal-tetris-05-04.pddl,CRASHED:10.9103:1000000000.0:1800.0:-1
ipc-2014-optimal-tetris-05-06.pddl,CRASHED:11.31:1000000000.0:1800.0:-1
ipc-2014-optimal-tetris-05-08.pddl,TIMEOUT:1801.01:-1.0:1800.0:-1
ipc-2014-optimal-tidybot-01.pddl,CRASHED:543.66:1000000000.0:1800.0:-1
ipc-2014-optimal-tidybot-02.pddl,CRASHED:434.55:35.0:1800.0:-1
ipc-2014-optimal-tidybot-03.pddl,CRASHED:142.343:30.0:1800.0:-1
ipc-2014-optimal-tidybot-04.pddl,CRASHED:257.22:24.0:1800.0:-1
ipc-2014-optimal-tidybot-05.pddl,CRASHED:1238.51:1000000000.0:1800.0:-1
ipc-2014-optimal-tidybot-06.pddl,CRASHED:868.238:63.0:1800.0:-1
ipc-2014-optimal-tidybot-07.pddl,CRASHED:181.341:38.0:1800.0:-1
ipc-2014-optimal-tidybot-08.pddl,CRASHED:266.382:25.0:1800.0:-1
ipc-2014-optimal-tidybot-09.pddl,CRASHED:1535.03:1000000000.0:1800.0:-1
ipc-2014-optimal-tidybot-10.pddl,CRASHED:1389.14:47.0:1800.0:-1
ipc-2014-optimal-tidybot-11.pddl,CRASHED:177.554:29.0:1800.0:-1
ipc-2014-optimal-tidybot-12.pddl,CRASHED:511.843:35.0:1800.0:-1
ipc-2014-optimal-tidybot-13.pddl,CRASHED:277.868:30.0:1800.0:-1
ipc-2014-optimal-tidybot-14.pddl,CRASHED:489.808:25.0:1800.0:-1
ipc-2014-optimal-tidybot-15.pddl,CRASHED:771.2:1000000000.0:1800.0:-1
ipc-2014-optimal-tidybot-16.pddl,TIMEOUT:1801.01:-1.0:1800.0:-1
ipc-2014-optimal-tidybot-17.pddl,CRASHED:104.842:40.0:1800.0:-1
ipc-2014-optimal-tidybot-18.pddl,CRASHED:215.285:44.0:1800.0:-1
ipc-2014-optimal-tidybot-19.pddl,CRASHED:1063.94:1000000000.0:1800.0:-1
ipc-2014-optimal-tidybot-20.pddl,CRASHED:113.693:46.0:1800.0:-1
ipc-2014-optimal-transport-01.pddl,CRASHED:2.82057:148.0:1800.0:-1
ipc-2014-optimal-transport-02.pddl,CRASHED:5.75413:191.0:1800.0:-1
ipc-2014-optimal-transport-03.pddl,CRASHED:11.8422:300.0:1800.0:-1
ipc-2014-optimal-transport-04.pddl,CRASHED:538.409:250.0:1800.0:-1
ipc-2014-optimal-transport-05.pddl,CRASHED:1125.53:1000000000.0:1800.0:-1
ipc-2014-optimal-transport-06.pddl,CRASHED:1399.99:1000000000.0:1800.0:-1
ipc-2014-optimal-transport-07.pddl,CRASHED:9.75751:967.0:1800.0:-1
ipc-2014-optimal-transport-08.pddl,CRASHED:848.293:1173.0:1800.0:-1
ipc-2014-optimal-transport-09.pddl,TIMEOUT:1801.07:-1.0:1800.0:-1
ipc-2014-optimal-transport-10.pddl,TIMEOUT:1801.01:-1.0:1800.0:-1
ipc-2014-optimal-transport-11.pddl,CRASHED:1429.35:1000000000.0:1800.0:-1
ipc-2014-optimal-transport-12.pddl,TIMEOUT:1801.03:-1.0:1800.0:-1
ipc-2014-optimal-transport-13.pddl,CRASHED:7.2139:594.0:1800.0:-1
ipc-2014-optimal-transport-14.pddl,CRASHED:58.3661:526.0:1800.0:-1
ipc-2014-optimal-transport-15.pddl,CRASHED:1762.43:753.0:1800.0:-1
ipc-2014-optimal-transport-16.pddl,TIMEOUT:1801.08:-1.0:1800.0:-1
ipc-2014-optimal-transport-17.pddl,CRASHED:1533.68:1000000000.0:1800.0:-1
ipc-2014-optimal-transport-18.pddl,TIMEOUT:1801.0:-1.0:1800.0:-1
ipc-2014-optimal-transport-19.pddl,TIMEOUT:1801.08:-1.0:1800.0:-1
ipc-2014-optimal-transport-20.pddl,CRASHED:1657.41:1000000000.0:1800.0:-1
ipc-2014-optimal-visitall-05-10.pddl,CRASHED:604.98:1000000000.0:1800.0:-1
ipc-2014-optimal-visitall-05-05.pddl,CRASHED:2.75258:21.0:1800.0:-1
ipc-2014-optimal-visitall-05-06.pddl,CRASHED:2.86456:25.0:1800.0:-1
ipc-2014-optimal-visitall-05-07.pddl,CRASHED:7.49286:34.0:1800.0:-1
ipc-2014-optimal-visitall-05-08.pddl,CRASHED:121.49:43.0:1800.0:-1
ipc-2014-optimal-visitall-05-09.pddl,CRASHED:620.32:1000000000.0:1800.0:-1
ipc-2014-optimal-visitall-01-10.pddl,CRASHED:596.24:1000000000.0:1800.0:-1
ipc-2014-optimal-visitall-01-11.pddl,CRASHED:827.06:1000000000.0:1800.0:-1
ipc-2014-optimal-visitall-01-12.pddl,CRASHED:725.15:1000000000.0:1800.0:-1
ipc-2014-optimal-visitall-01-13.pddl,CRASHED:1001.39:1000000000.0:1800.0:-1
ipc-2014-optimal-visitall-01-14.pddl,CRASHED:1007.35:1000000000.0:1800.0:-1
ipc-2014-optimal-visitall-01-15.pddl,CRASHED:989.71:1000000000.0:1800.0:-1
ipc-2014-optimal-visitall-01-16.pddl,CRASHED:1197.53:1000000000.0:1800.0:-1
ipc-2014-optimal-visitall-01-17.pddl,CRASHED:1263.91:1000000000.0:1800.0:-1
ipc-2014-optimal-visitall-01-18.pddl,CRASHED:1600.79:1000000000.0:1800.0:-1
ipc-2014-optimal-visitall-01-05.pddl,CRASHED:7.69483:24.0:1800.0:-1
ipc-2014-optimal-visitall-01-06.pddl,CRASHED:410.211:35.0:1800.0:-1
ipc-2014-optimal-visitall-01-07.pddl,CRASHED:493.71:1000000000.0:1800.0:-1
ipc-2014-optimal-visitall-01-08.pddl,CRASHED:625.74:1000000000.0:1800.0:-1
ipc-2014-optimal-visitall-01-09.pddl,CRASHED:3.96:1000000000.0:1800.0:-1
