instance,ipc-2014-optimal-miplan
ipc-2014-optimal-barman-p433.1.pddl,CRASHED:2.76458:1000000000.0:1800.0:-1
ipc-2014-optimal-barman-p433.2.pddl,CRASHED:2.72358:1000000000.0:1800.0:-1
ipc-2014-optimal-barman-p433.3.pddl,CRASHED:2.6096:1000000000.0:1800.0:-1
ipc-2014-optimal-barman-p435.1.pddl,CRASHED:1780.7:1000000000.0:1800.0:-1
ipc-2014-optimal-barman-p435.2.pddl,CRASHED:1245.78:1000000000.0:1800.0:-1
ipc-2014-optimal-barman-p435.3.pddl,CRASHED:1778.47:1000000000.0:1800.0:-1
ipc-2014-optimal-barman-p443.1.pddl,CRASHED:2.79757:1000000000.0:1800.0:-1
ipc-2014-optimal-barman-p443.2.pddl,CRASHED:4.14937:1000000000.0:1800.0:-1
ipc-2014-optimal-barman-p443.3.pddl,CRASHED:4.05238:1000000000.0:1800.0:-1
ipc-2014-optimal-barman-p536.1.pddl,CRASHED:1778.79:1000000000.0:1800.0:-1
ipc-2014-optimal-barman-p536.2.pddl,CRASHED:1779.21:1000000000.0:1800.0:-1
ipc-2014-optimal-barman-p536.3.pddl,CRASHED:1246.81:1000000000.0:1800.0:-1
ipc-2014-optimal-barman-p638.1.pddl,CRASHED:1778.67:1000000000.0:1800.0:-1
ipc-2014-optimal-barman-p638.2.pddl,CRASHED:1244.85:1000000000.0:1800.0:-1
ipc-2014-optimal-barman-p638.3.pddl,CRASHED:1248.57:1000000000.0:1800.0:-1
ipc-2014-optimal-barman-p739.1.pddl,CRASHED:1247.74:1000000000.0:1800.0:-1
ipc-2014-optimal-barman-p739.2.pddl,CRASHED:1782.46:1000000000.0:1800.0:-1
ipc-2014-optimal-barman-p739.3.pddl,CRASHED:1247.78:1000000000.0:1800.0:-1
ipc-2014-optimal-barman-p839.1.pddl,CRASHED:1244.78:1000000000.0:1800.0:-1
ipc-2014-optimal-barman-p839.2.pddl,CRASHED:1779.72:1000000000.0:1800.0:-1
ipc-2014-optimal-cavediving-01.pddl,CRASHED:159.301:1000000000.0:1800.0:-1
ipc-2014-optimal-cavediving-01_easy.pddl,CRASHED:176.353:1000000000.0:1800.0:-1
ipc-2014-optimal-cavediving-02_easy.pddl,CRASHED:172.526:1000000000.0:1800.0:-1
ipc-2014-optimal-cavediving-03_easy.pddl,CRASHED:169.313:1000000000.0:1800.0:-1
ipc-2014-optimal-cavediving-04_easy.pddl,CRASHED:186.219:1000000000.0:1800.0:-1
ipc-2014-optimal-cavediving-05A_easy.pddl,SAT:25.9581:94.0:1800.0:-1
ipc-2014-optimal-cavediving-06A_easy.pddl,SAT:24.5743:95.0:1800.0:-1
ipc-2014-optimal-cavediving-07_easy.pddl,SAT:40.8048:131.0:1800.0:-1
ipc-2014-optimal-cavediving-08_easy.pddl,SAT:25.6321:90.0:1800.0:-1
ipc-2014-optimal-cavediving-09_easy.pddl,CRASHED:307.279:1000000000.0:1800.0:-1
ipc-2014-optimal-cavediving-10_easy.pddl,CRASHED:312.964:1000000000.0:1800.0:-1
ipc-2014-optimal-cavediving-11_easy.pddl,CRASHED:314.495:1000000000.0:1800.0:-1
ipc-2014-optimal-cavediving-12_easy.pddl,CRASHED:313.47:1000000000.0:1800.0:-1
ipc-2014-optimal-cavediving-13_easy.pddl,CRASHED:175.318:1000000000.0:1800.0:-1
ipc-2014-optimal-cavediving-14_easy.pddl,CRASHED:177.884:1000000000.0:1800.0:-1
ipc-2014-optimal-cavediving-15_easy.pddl,CRASHED:167.545:1000000000.0:1800.0:-1
ipc-2014-optimal-cavediving-16_easy.pddl,CRASHED:172.143:1000000000.0:1800.0:-1
ipc-2014-optimal-cavediving-18A_easy.pddl,SAT:71.1062:131.0:1800.0:-1
ipc-2014-optimal-cavediving-18_easy.pddl,CRASHED:135.702:131.0:1800.0:-1
ipc-2014-optimal-cavediving-20A_easy.pddl,SAT:44.5142:98.0:1800.0:-1
ipc-2014-optimal-childsnack-01-2.pddl,CRASHED:1778.38:1000000000.0:1800.0:-1
ipc-2014-optimal-childsnack-01.pddl,CRASHED:1770.17:1000000000.0:1800.0:-1
ipc-2014-optimal-childsnack-02-2.pddl,CRASHED:1780.18:1000000000.0:1800.0:-1
ipc-2014-optimal-childsnack-02.pddl,CRASHED:1767.6:1000000000.0:1800.0:-1
ipc-2014-optimal-childsnack-03-2.pddl,CRASHED:1782.31:1000000000.0:1800.0:-1
ipc-2014-optimal-childsnack-03.pddl,CRASHED:1780.82:1000000000.0:1800.0:-1
ipc-2014-optimal-childsnack-04-2.pddl,CRASHED:1781.85:1000000000.0:1800.0:-1
ipc-2014-optimal-childsnack-04.pddl,CRASHED:1779.93:1000000000.0:1800.0:-1
ipc-2014-optimal-childsnack-05-2.pddl,CRASHED:1783.14:1000000000.0:1800.0:-1
ipc-2014-optimal-childsnack-05.pddl,CRASHED:1248.16:1000000000.0:1800.0:-1
ipc-2014-optimal-childsnack-06-2.pddl,CRASHED:1243.63:1000000000.0:1800.0:-1
ipc-2014-optimal-childsnack-06.pddl,CRASHED:1239.66:1000000000.0:1800.0:-1
ipc-2014-optimal-childsnack-07-2.pddl,CRASHED:1243.49:1000000000.0:1800.0:-1
ipc-2014-optimal-childsnack-07.pddl,CRASHED:1786.09:1000000000.0:1800.0:-1
ipc-2014-optimal-childsnack-08-2.pddl,CRASHED:1790.42:1000000000.0:1800.0:-1
ipc-2014-optimal-childsnack-08.pddl,CRASHED:1788.55:1000000000.0:1800.0:-1
ipc-2014-optimal-childsnack-09-2.pddl,CRASHED:1273.55:1000000000.0:1800.0:-1
ipc-2014-optimal-childsnack-09.pddl,CRASHED:1784.43:1000000000.0:1800.0:-1
ipc-2014-optimal-childsnack-10-2.pddl,CRASHED:1787.7:1000000000.0:1800.0:-1
ipc-2014-optimal-childsnack-10.pddl,CRASHED:1788.68:1000000000.0:1800.0:-1
ipc-2014-optimal-citycar-p2-2-2-1-2.pddl,SAT:7.51786:46.0:1800.0:-1
ipc-2014-optimal-citycar-p2-2-2-2-1.pddl,SAT:12.4901:64.0:1800.0:-1
ipc-2014-optimal-citycar-p2-2-3-1-2.pddl,SAT:10.5924:50.0:1800.0:-1
ipc-2014-optimal-citycar-p2-2-3-2-1.pddl,SAT:10.3624:48.0:1800.0:-1
ipc-2014-optimal-citycar-p2-2-3-2-2.pddl,SAT:10.3304:50.0:1800.0:-1
ipc-2014-optimal-citycar-p2-2-4-1-2.pddl,SAT:13.312:52.0:1800.0:-1
ipc-2014-optimal-citycar-p2-2-4-2-1.pddl,SAT:13.6899:52.0:1800.0:-1
ipc-2014-optimal-citycar-p2-2-5-2-2.pddl,SAT:518.8:76.0:1800.0:-1
ipc-2014-optimal-citycar-p2-2-6-1-1.pddl,SAT:33.5669:58.0:1800.0:-1
ipc-2014-optimal-citycar-p2-2-6-2-2.pddl,SAT:33.7129:58.0:1800.0:-1
ipc-2014-optimal-citycar-p2-3-2-3-1.pddl,SAT:520.84:68.0:1800.0:-1
ipc-2014-optimal-citycar-p2-3-3-3-1.pddl,SAT:520.77:78.0:1800.0:-1
ipc-2014-optimal-citycar-p2-3-4-3-1.pddl,CRASHED:1726.81:1000000000.0:1800.0:-1
ipc-2014-optimal-citycar-p2-3-6-3-2.pddl,CRASHED:1718.56:1000000000.0:1800.0:-1
ipc-2014-optimal-citycar-p3-3-2-2-1.pddl,CRASHED:1718.39:1000000000.0:1800.0:-1
ipc-2014-optimal-citycar-p3-3-2-2-2.pddl,CRASHED:1720.31:1000000000.0:1800.0:-1
ipc-2014-optimal-citycar-p3-3-2-3-1.pddl,SAT:44.0853:48.0:1800.0:-1
ipc-2014-optimal-citycar-p3-3-2-3-2.pddl,CRASHED:1718.72:1000000000.0:1800.0:-1
ipc-2014-optimal-citycar-p3-3-3-3-1.pddl,CRASHED:1595.44:1000000000.0:1800.0:-1
ipc-2014-optimal-citycar-p3-3-3-3-2.pddl,CRASHED:1600.18:1000000000.0:1800.0:-1
ipc-2014-optimal-floortile-p01-4-3-2.pddl,SAT:134.08:56.0:1800.0:-1
ipc-2014-optimal-floortile-p01-4-4-2.pddl,SAT:488.582:68.0:1800.0:-1
ipc-2014-optimal-floortile-p01-5-3-2.pddl,CRASHED:380.253:63.0:1800.0:-1
ipc-2014-optimal-floortile-p01-5-4-2.pddl,CRASHED:1783.52:1000000000.0:1800.0:-1
ipc-2014-optimal-floortile-p01-5-5-2.pddl,CRASHED:1261.03:1000000000.0:1800.0:-1
ipc-2014-optimal-floortile-p01-6-4-2.pddl,CRASHED:1787.15:1000000000.0:1800.0:-1
ipc-2014-optimal-floortile-p01-6-5-2.pddl,CRASHED:1781.24:1000000000.0:1800.0:-1
ipc-2014-optimal-floortile-p02-4-4-2.pddl,CRASHED:1785.22:1000000000.0:1800.0:-1
ipc-2014-optimal-floortile-p02-5-3-2.pddl,CRASHED:481.234:65.0:1800.0:-1
ipc-2014-optimal-floortile-p02-5-4-2.pddl,CRASHED:1780.88:1000000000.0:1800.0:-1
ipc-2014-optimal-floortile-p02-5-5-2.pddl,CRASHED:1780.89:1000000000.0:1800.0:-1
ipc-2014-optimal-floortile-p02-6-4-2.pddl,CRASHED:1783.86:1000000000.0:1800.0:-1
ipc-2014-optimal-floortile-p02-6-5-2.pddl,CRASHED:1788.01:1000000000.0:1800.0:-1
ipc-2014-optimal-floortile-p03-4-3-2.pddl,SAT:148.807:56.0:1800.0:-1
ipc-2014-optimal-floortile-p03-4-4-2.pddl,CRASHED:1308.96:1000000000.0:1800.0:-1
ipc-2014-optimal-floortile-p03-5-3-2.pddl,CRASHED:412.62:65.0:1800.0:-1
ipc-2014-optimal-floortile-p03-5-4-2.pddl,CRASHED:1782.12:1000000000.0:1800.0:-1
ipc-2014-optimal-floortile-p03-5-5-2.pddl,CRASHED:1777.31:1000000000.0:1800.0:-1
ipc-2014-optimal-floortile-p03-6-4-2.pddl,CRASHED:1783.5:1000000000.0:1800.0:-1
ipc-2014-optimal-floortile-p03-6-5-2.pddl,CRASHED:1780.67:1000000000.0:1800.0:-1
ipc-2014-optimal-ged-d-1-2.pddl,SAT:1.10083:1.0:1800.0:-1
ipc-2014-optimal-ged-d-1-3.pddl,SAT:6.09607:4.0:1800.0:-1
ipc-2014-optimal-ged-d-1-4.pddl,SAT:1.13583:1.0:1800.0:-1
ipc-2014-optimal-ged-d-1-8.pddl,SAT:25.9421:4.0:1800.0:-1
ipc-2014-optimal-ged-d-2-1.pddl,SAT:1.11983:1.0:1800.0:-1
ipc-2014-optimal-ged-d-2-3.pddl,SAT:1.43178:3.0:1800.0:-1
ipc-2014-optimal-ged-d-2-4.pddl,SAT:1.19182:2.0:1800.0:-1
ipc-2014-optimal-ged-d-2-8.pddl,CRASHED:1266.29:1000000000.0:1800.0:-1
ipc-2014-optimal-ged-d-3-1.pddl,SAT:6.28704:4.0:1800.0:-1
ipc-2014-optimal-ged-d-3-2.pddl,SAT:1.47378:3.0:1800.0:-1
ipc-2014-optimal-ged-d-3-4.pddl,CRASHED:343.542:5.0:1800.0:-1
ipc-2014-optimal-ged-d-4-2.pddl,SAT:1.3138:2.0:1800.0:-1
ipc-2014-optimal-ged-d-4-3.pddl,CRASHED:338.68:5.0:1800.0:-1
ipc-2014-optimal-ged-d-4-8.pddl,CRASHED:1784.61:1000000000.0:1800.0:-1
ipc-2014-optimal-ged-d-7-5.pddl,SAT:26.406:4.0:1800.0:-1
ipc-2014-optimal-ged-d-7-6.pddl,SAT:7.27089:4.0:1800.0:-1
ipc-2014-optimal-ged-d-8-1.pddl,SAT:27.2779:4.0:1800.0:-1
ipc-2014-optimal-ged-d-8-2.pddl,CRASHED:1267.85:1000000000.0:1800.0:-1
ipc-2014-optimal-ged-d-8-4.pddl,CRASHED:1780.83:1000000000.0:1800.0:-1
ipc-2014-optimal-ged-d-8-9.pddl,CRASHED:1786.73:1000000000.0:1800.0:-1
ipc-2014-optimal-hiking-1-2-3.pddl,SAT:1.22881:11.0:1800.0:-1
ipc-2014-optimal-hiking-1-2-4.pddl,SAT:20.9248:17.0:1800.0:-1
ipc-2014-optimal-hiking-1-2-5.pddl,SAT:21.3188:25.0:1800.0:-1
ipc-2014-optimal-hiking-1-2-7.pddl,SAT:24.9182:38.0:1800.0:-1
ipc-2014-optimal-hiking-1-2-8.pddl,SAT:31.9131:45.0:1800.0:-1
ipc-2014-optimal-hiking-2-2-3.pddl,SAT:21.5157:10.0:1800.0:-1
ipc-2014-optimal-hiking-2-2-4.pddl,SAT:59.9839:16.0:1800.0:-1
ipc-2014-optimal-hiking-2-2-5.pddl,SAT:298.851:22.0:1800.0:-1
ipc-2014-optimal-hiking-2-2-6.pddl,CRASHED:1784.57:1000000000.0:1800.0:-1
ipc-2014-optimal-hiking-2-2-7.pddl,CRASHED:1244.8:1000000000.0:1800.0:-1
ipc-2014-optimal-hiking-2-2-8.pddl,CRASHED:1786.53:1000000000.0:1800.0:-1
ipc-2014-optimal-hiking-2-3-4.pddl,SAT:212.396:17.0:1800.0:-1
ipc-2014-optimal-hiking-2-3-5.pddl,SAT:456.231:24.0:1800.0:-1
ipc-2014-optimal-hiking-2-3-6.pddl,CRASHED:1248.11:1000000000.0:1800.0:-1
ipc-2014-optimal-hiking-2-3-7.pddl,CRASHED:1594.3:1000000000.0:1800.0:-1
ipc-2014-optimal-hiking-2-4-3.pddl,SAT:24.9952:10.0:1800.0:-1
ipc-2014-optimal-hiking-2-4-4.pddl,SAT:311.631:17.0:1800.0:-1
ipc-2014-optimal-hiking-2-4-5.pddl,CRASHED:1785.84:1000000000.0:1800.0:-1
ipc-2014-optimal-hiking-2-4-6.pddl,CRASHED:1789.63:1000000000.0:1800.0:-1
ipc-2014-optimal-hiking-2-4-7.pddl,CRASHED:1411.25:1000000000.0:1800.0:-1
ipc-2014-optimal-maintenance-1.3.010.010.1-001.pddl,CRASHED:2.43463:1000000000.0:1800.0:-1
ipc-2014-optimal-maintenance-1.3.010.010.1-002.pddl,CRASHED:2.51562:1000000000.0:1800.0:-1
ipc-2014-optimal-maintenance-1.3.010.010.2-000.pddl,SAT:0.636902:4.0:1800.0:-1
ipc-2014-optimal-maintenance-1.3.010.010.2-001.pddl,SAT:0.6519:7.0:1800.0:-1
ipc-2014-optimal-maintenance-1.3.010.010.2-002.pddl,SAT:0.6479:6.0:1800.0:-1
ipc-2014-optimal-maintenance-1.3.015.020.1-000.pddl,CRASHED:5.78212:1000000000.0:1800.0:-1
ipc-2014-optimal-maintenance-1.3.015.020.1-001.pddl,CRASHED:16.1495:1000000000.0:1800.0:-1
ipc-2014-optimal-maintenance-1.3.015.020.1-002.pddl,CRASHED:25.8531:1000000000.0:1800.0:-1
ipc-2014-optimal-maintenance-1.3.015.020.2-000.pddl,CRASHED:135.097:1000000000.0:1800.0:-1
ipc-2014-optimal-maintenance-1.3.015.020.2-001.pddl,SAT:0.769882:11.0:1800.0:-1
ipc-2014-optimal-maintenance-1.3.015.020.2-002.pddl,SAT:0.764882:9.0:1800.0:-1
ipc-2014-optimal-maintenance-1.3.025.050.1-000.pddl,CRASHED:176.664:1000000000.0:1800.0:-1
ipc-2014-optimal-maintenance-1.3.025.050.1-001.pddl,CRASHED:213.523:1000000000.0:1800.0:-1
ipc-2014-optimal-maintenance-1.3.025.050.1-002.pddl,CRASHED:194.864:1000000000.0:1800.0:-1
ipc-2014-optimal-maintenance-1.3.025.100.1-000.pddl,CRASHED:174.834:1000000000.0:1800.0:-1
ipc-2014-optimal-maintenance-1.3.025.100.1-001.pddl,CRASHED:165.876:1000000000.0:1800.0:-1
ipc-2014-optimal-maintenance-1.3.025.100.1-002.pddl,CRASHED:175.025:1000000000.0:1800.0:-1
ipc-2014-optimal-maintenance-1.3.025.100.2-000.pddl,CRASHED:1109.09:1000000000.0:1800.0:-1
ipc-2014-optimal-maintenance-1.3.025.100.2-001.pddl,CRASHED:1388.93:1000000000.0:1800.0:-1
ipc-2014-optimal-maintenance-1.3.025.100.2-002.pddl,CRASHED:1103.02:1000000000.0:1800.0:-1
ipc-2014-optimal-openstacks-p20_1.pddl,CRASHED:1463.33:3.0:1800.0:-1
ipc-2014-optimal-openstacks-p20_2.pddl,CRASHED:1506.73:4.0:1800.0:-1
ipc-2014-optimal-openstacks-p20_3.pddl,SAT:42.1766:6.0:1800.0:-1
ipc-2014-optimal-openstacks-p25_1.pddl,CRASHED:1268.32:1000000000.0:1800.0:-1
ipc-2014-optimal-openstacks-p25_3.pddl,CRASHED:1782.99:1000000000.0:1800.0:-1
ipc-2014-optimal-openstacks-p30_1.pddl,CRASHED:1779.09:1000000000.0:1800.0:-1
ipc-2014-optimal-openstacks-p30_2.pddl,CRASHED:1784.18:1000000000.0:1800.0:-1
ipc-2014-optimal-openstacks-p30_3.pddl,CRASHED:1781.71:1000000000.0:1800.0:-1
ipc-2014-optimal-openstacks-p35_1.pddl,CRASHED:1781.4:1000000000.0:1800.0:-1
ipc-2014-optimal-openstacks-p35_2.pddl,CRASHED:1263.87:1000000000.0:1800.0:-1
ipc-2014-optimal-openstacks-p35_3.pddl,CRASHED:1265.66:1000000000.0:1800.0:-1
ipc-2014-optimal-openstacks-p40_1.pddl,CRASHED:1455.07:1000000000.0:1800.0:-1
ipc-2014-optimal-openstacks-p40_2.pddl,CRASHED:1458.34:1000000000.0:1800.0:-1
ipc-2014-optimal-openstacks-p40_3.pddl,CRASHED:1306.38:1000000000.0:1800.0:-1
ipc-2014-optimal-openstacks-p45_1.pddl,CRASHED:1326.57:1000000000.0:1800.0:-1
ipc-2014-optimal-openstacks-p45_2.pddl,CRASHED:1266.4:1000000000.0:1800.0:-1
ipc-2014-optimal-openstacks-p45_3.pddl,CRASHED:1783.52:1000000000.0:1800.0:-1
ipc-2014-optimal-openstacks-p50_1.pddl,CRASHED:1789.13:1000000000.0:1800.0:-1
ipc-2014-optimal-openstacks-p50_2.pddl,CRASHED:1784.83:1000000000.0:1800.0:-1
ipc-2014-optimal-openstacks-p50_3.pddl,CRASHED:1781.78:1000000000.0:1800.0:-1
ipc-2014-optimal-parking-12_7-01.pddl,SAT:178.864:18.0:1800.0:-1
ipc-2014-optimal-parking-12_7-02.pddl,SAT:183.086:18.0:1800.0:-1
ipc-2014-optimal-parking-12_7-03.pddl,SAT:178.508:17.0:1800.0:-1
ipc-2014-optimal-parking-12_7-04.pddl,SAT:200.359:19.0:1800.0:-1
ipc-2014-optimal-parking-14_8-01.pddl,CRASHED:1530.52:1000000000.0:1800.0:-1
ipc-2014-optimal-parking-14_8-02.pddl,CRASHED:1794.82:1000000000.0:1800.0:-1
ipc-2014-optimal-parking-14_8-03.pddl,SAT:215.825:21.0:1800.0:-1
ipc-2014-optimal-parking-14_8-04.pddl,CRASHED:1795.01:1000000000.0:1800.0:-1
ipc-2014-optimal-parking-16_9-01.pddl,CRASHED:1795.23:1000000000.0:1800.0:-1
ipc-2014-optimal-parking-16_9-02.pddl,CRASHED:1794.07:1000000000.0:1800.0:-1
ipc-2014-optimal-parking-16_9-03.pddl,CRASHED:1794.55:1000000000.0:1800.0:-1
ipc-2014-optimal-parking-16_9-04.pddl,CRASHED:1797.55:1000000000.0:1800.0:-1
ipc-2014-optimal-parking-18_10-01.pddl,CRASHED:1627.77:1000000000.0:1800.0:-1
ipc-2014-optimal-parking-18_10-02.pddl,CRASHED:1620.02:1000000000.0:1800.0:-1
ipc-2014-optimal-parking-18_10-03.pddl,CRASHED:319.85:1000000000.0:1800.0:-1
ipc-2014-optimal-parking-18_10-04.pddl,CRASHED:1629.61:1000000000.0:1800.0:-1
ipc-2014-optimal-parking-20_11-01.pddl,CRASHED:1500.14:1000000000.0:1800.0:-1
ipc-2014-optimal-parking-20_11-02.pddl,CRASHED:301.53:1000000000.0:1800.0:-1
ipc-2014-optimal-parking-20_11-03.pddl,CRASHED:1447.18:1000000000.0:1800.0:-1
ipc-2014-optimal-parking-20_11-04.pddl,CRASHED:300.36:1000000000.0:1800.0:-1
ipc-2014-optimal-tetris-01-10.pddl,CRASHED:496.04:1000000000.0:1800.0:-1
ipc-2014-optimal-tetris-01-04.pddl,CRASHED:492.273:1000000000.0:1800.0:-1
ipc-2014-optimal-tetris-01-06.pddl,SAT:256.774:30.0:1800.0:-1
ipc-2014-optimal-tetris-01-08.pddl,CRASHED:50.0554:36.0:1800.0:-1
ipc-2014-optimal-tetris-02-10.pddl,CRASHED:1729.23:1000000000.0:1800.0:-1
ipc-2014-optimal-tetris-02-04.pddl,SAT:0.868867:10.0:1800.0:-1
ipc-2014-optimal-tetris-02-06.pddl,SAT:54.2847:30.0:1800.0:-1
ipc-2014-optimal-tetris-02-08.pddl,CRASHED:670.99:1000000000.0:1800.0:-1
ipc-2014-optimal-tetris-03-10.pddl,CRASHED:548.49:1000000000.0:1800.0:-1
ipc-2014-optimal-tetris-03-04.pddl,SAT:22.5936:11.0:1800.0:-1
ipc-2014-optimal-tetris-03-06.pddl,SAT:193.726:21.0:1800.0:-1
ipc-2014-optimal-tetris-03-08.pddl,CRASHED:1756.46:1000000000.0:1800.0:-1
ipc-2014-optimal-tetris-04-10.pddl,CRASHED:518.86:1000000000.0:1800.0:-1
ipc-2014-optimal-tetris-04-04.pddl,CRASHED:289.342:1000000000.0:1800.0:-1
ipc-2014-optimal-tetris-04-06.pddl,SAT:239.855:27.0:1800.0:-1
ipc-2014-optimal-tetris-04-08.pddl,CRASHED:547.95:1000000000.0:1800.0:-1
ipc-2014-optimal-tetris-05-10.pddl,CRASHED:1639.77:1000000000.0:1800.0:-1
ipc-2014-optimal-tetris-05-04.pddl,CRASHED:197.89:1000000000.0:1800.0:-1
ipc-2014-optimal-tetris-05-06.pddl,SAT:24.7862:19.0:1800.0:-1
ipc-2014-optimal-tetris-05-08.pddl,CRASHED:375.52:1000000000.0:1800.0:-1
ipc-2014-optimal-tidybot-01.pddl,CRASHED:1707.47:1000000000.0:1800.0:-1
ipc-2014-optimal-tidybot-02.pddl,CRASHED:320.91:35.0:1800.0:-1
ipc-2014-optimal-tidybot-03.pddl,CRASHED:320.96:30.0:1800.0:-1
ipc-2014-optimal-tidybot-04.pddl,CRASHED:320.79:24.0:1800.0:-1
ipc-2014-optimal-tidybot-05.pddl,CRASHED:1705.44:1000000000.0:1800.0:-1
ipc-2014-optimal-tidybot-06.pddl,CRASHED:1702.47:1000000000.0:1800.0:-1
ipc-2014-optimal-tidybot-07.pddl,CRASHED:1712.31:1000000000.0:1800.0:-1
ipc-2014-optimal-tidybot-08.pddl,CRASHED:321.15:25.0:1800.0:-1
ipc-2014-optimal-tidybot-09.pddl,CRASHED:1686.52:1000000000.0:1800.0:-1
ipc-2014-optimal-tidybot-10.pddl,CRASHED:1685.42:1000000000.0:1800.0:-1
ipc-2014-optimal-tidybot-11.pddl,SAT:43.6514:29.0:1800.0:-1
ipc-2014-optimal-tidybot-12.pddl,CRASHED:320.93:35.0:1800.0:-1
ipc-2014-optimal-tidybot-13.pddl,CRASHED:321.56:30.0:1800.0:-1
ipc-2014-optimal-tidybot-14.pddl,SAT:69.5494:25.0:1800.0:-1
ipc-2014-optimal-tidybot-15.pddl,CRASHED:1699.54:1000000000.0:1800.0:-1
ipc-2014-optimal-tidybot-16.pddl,CRASHED:1699.72:1000000000.0:1800.0:-1
ipc-2014-optimal-tidybot-17.pddl,CRASHED:1699.52:1000000000.0:1800.0:-1
ipc-2014-optimal-tidybot-18.pddl,CRASHED:1708.91:1000000000.0:1800.0:-1
ipc-2014-optimal-tidybot-19.pddl,CRASHED:1709.07:1000000000.0:1800.0:-1
ipc-2014-optimal-tidybot-20.pddl,CRASHED:1659.15:1000000000.0:1800.0:-1
ipc-2014-optimal-transport-01.pddl,SAT:21.5697:148.0:1800.0:-1
ipc-2014-optimal-transport-02.pddl,SAT:26.306:191.0:1800.0:-1
ipc-2014-optimal-transport-03.pddl,SAT:75.7605:300.0:1800.0:-1
ipc-2014-optimal-transport-04.pddl,CRASHED:1781.64:1000000000.0:1800.0:-1
ipc-2014-optimal-transport-05.pddl,CRASHED:1789.0:1000000000.0:1800.0:-1
ipc-2014-optimal-transport-06.pddl,CRASHED:1247.96:1000000000.0:1800.0:-1
ipc-2014-optimal-transport-07.pddl,SAT:63.3424:967.0:1800.0:-1
ipc-2014-optimal-transport-08.pddl,CRASHED:499.305:1173.0:1800.0:-1
ipc-2014-optimal-transport-09.pddl,CRASHED:1783.43:1000000000.0:1800.0:-1
ipc-2014-optimal-transport-10.pddl,CRASHED:1782.6:1000000000.0:1800.0:-1
ipc-2014-optimal-transport-11.pddl,CRASHED:1273.74:1000000000.0:1800.0:-1
ipc-2014-optimal-transport-12.pddl,CRASHED:1786.68:1000000000.0:1800.0:-1
ipc-2014-optimal-transport-13.pddl,SAT:31.9991:594.0:1800.0:-1
ipc-2014-optimal-transport-14.pddl,SAT:291.664:526.0:1800.0:-1
ipc-2014-optimal-transport-15.pddl,CRASHED:1779.74:1000000000.0:1800.0:-1
ipc-2014-optimal-transport-16.pddl,CRASHED:1786.26:1000000000.0:1800.0:-1
ipc-2014-optimal-transport-17.pddl,CRASHED:1788.1:1000000000.0:1800.0:-1
ipc-2014-optimal-transport-18.pddl,CRASHED:1791.93:1000000000.0:1800.0:-1
ipc-2014-optimal-transport-19.pddl,CRASHED:1795.12:1000000000.0:1800.0:-1
ipc-2014-optimal-transport-20.pddl,CRASHED:1789.47:1000000000.0:1800.0:-1
ipc-2014-optimal-visitall-05-10.pddl,CRASHED:1779.63:1000000000.0:1800.0:-1
ipc-2014-optimal-visitall-05-05.pddl,SAT:4.14837:21.0:1800.0:-1
ipc-2014-optimal-visitall-05-06.pddl,SAT:6.568:25.0:1800.0:-1
ipc-2014-optimal-visitall-05-07.pddl,SAT:115.894:34.0:1800.0:-1
ipc-2014-optimal-visitall-05-08.pddl,CRASHED:642.005:43.0:1800.0:-1
ipc-2014-optimal-visitall-05-09.pddl,CRASHED:1330.68:1000000000.0:1800.0:-1
ipc-2014-optimal-visitall-01-10.pddl,SAT:173.029:99.0:1800.0:-1
ipc-2014-optimal-visitall-01-11.pddl,SAT:174.25:120.0:1800.0:-1
ipc-2014-optimal-visitall-01-12.pddl,SAT:216.544:143.0:1800.0:-1
ipc-2014-optimal-visitall-01-13.pddl,SAT:175.241:168.0:1800.0:-1
ipc-2014-optimal-visitall-01-14.pddl,CRASHED:1779.96:1000000000.0:1800.0:-1
ipc-2014-optimal-visitall-01-15.pddl,CRASHED:1782.06:1000000000.0:1800.0:-1
ipc-2014-optimal-visitall-01-16.pddl,CRASHED:1554.63:1000000000.0:1800.0:-1
ipc-2014-optimal-visitall-01-17.pddl,CRASHED:1779.99:1000000000.0:1800.0:-1
ipc-2014-optimal-visitall-01-18.pddl,CRASHED:1290.35:1000000000.0:1800.0:-1
ipc-2014-optimal-visitall-01-05.pddl,SAT:25.1572:24.0:1800.0:-1
ipc-2014-optimal-visitall-01-06.pddl,SAT:172.306:35.0:1800.0:-1
ipc-2014-optimal-visitall-01-07.pddl,SAT:172.268:48.0:1800.0:-1
ipc-2014-optimal-visitall-01-08.pddl,SAT:172.132:63.0:1800.0:-1
ipc-2014-optimal-visitall-01-09.pddl,SAT:172.275:80.0:1800.0:-1
