instance,ipc-2014-optimal-cedalion
ipc-2014-optimal-barman-p433.1.pddl,CRASHED:0.84887:1000000000.0:1800.0:-1
ipc-2014-optimal-barman-p433.2.pddl,CRASHED:0.818875:1000000000.0:1800.0:-1
ipc-2014-optimal-barman-p433.3.pddl,CRASHED:0.829872:1000000000.0:1800.0:-1
ipc-2014-optimal-barman-p435.1.pddl,CRASHED:1800.49:1000000000.0:1800.0:-1
ipc-2014-optimal-barman-p435.2.pddl,CRASHED:1800.28:1000000000.0:1800.0:-1
ipc-2014-optimal-barman-p435.3.pddl,CRASHED:1800.46:1000000000.0:1800.0:-1
ipc-2014-optimal-barman-p443.1.pddl,CRASHED:0.852869:1000000000.0:1800.0:-1
ipc-2014-optimal-barman-p443.2.pddl,CRASHED:0.887864:1000000000.0:1800.0:-1
ipc-2014-optimal-barman-p443.3.pddl,CRASHED:0.851869:1000000000.0:1800.0:-1
ipc-2014-optimal-barman-p536.1.pddl,CRASHED:1800.45:1000000000.0:1800.0:-1
ipc-2014-optimal-barman-p536.2.pddl,CRASHED:1800.58:1000000000.0:1800.0:-1
ipc-2014-optimal-barman-p536.3.pddl,CRASHED:1800.91:1000000000.0:1800.0:-1
ipc-2014-optimal-barman-p638.1.pddl,CRASHED:1800.41:1000000000.0:1800.0:-1
ipc-2014-optimal-barman-p638.2.pddl,CRASHED:1800.11:1000000000.0:1800.0:-1
ipc-2014-optimal-barman-p638.3.pddl,CRASHED:1800.18:1000000000.0:1800.0:-1
ipc-2014-optimal-barman-p739.1.pddl,CRASHED:1800.97:1000000000.0:1800.0:-1
ipc-2014-optimal-barman-p739.2.pddl,CRASHED:1800.93:1000000000.0:1800.0:-1
ipc-2014-optimal-barman-p739.3.pddl,CRASHED:1800.78:1000000000.0:1800.0:-1
ipc-2014-optimal-barman-p839.1.pddl,CRASHED:1800.93:1000000000.0:1800.0:-1
ipc-2014-optimal-barman-p839.2.pddl,CRASHED:1800.55:1000000000.0:1800.0:-1
ipc-2014-optimal-cavediving-01.pddl,CRASHED:299.499:1000000000.0:1800.0:-1
ipc-2014-optimal-cavediving-01_easy.pddl,CRASHED:300.989:1000000000.0:1800.0:-1
ipc-2014-optimal-cavediving-02_easy.pddl,CRASHED:298.796:1000000000.0:1800.0:-1
ipc-2014-optimal-cavediving-03_easy.pddl,CRASHED:298.808:1000000000.0:1800.0:-1
ipc-2014-optimal-cavediving-04_easy.pddl,CRASHED:298.612:1000000000.0:1800.0:-1
ipc-2014-optimal-cavediving-05A_easy.pddl,SAT:11.2133:94.0:1800.0:-1
ipc-2014-optimal-cavediving-06A_easy.pddl,SAT:11.0163:95.0:1800.0:-1
ipc-2014-optimal-cavediving-07_easy.pddl,SAT:61.4257:131.0:1800.0:-1
ipc-2014-optimal-cavediving-08_easy.pddl,SAT:11.3903:90.0:1800.0:-1
ipc-2014-optimal-cavediving-09_easy.pddl,CRASHED:1797.84:1000000000.0:1800.0:-1
ipc-2014-optimal-cavediving-10_easy.pddl,CRASHED:1796.3:1000000000.0:1800.0:-1
ipc-2014-optimal-cavediving-11_easy.pddl,TIMEOUT:1801.0:-1.0:1800.0:-1
ipc-2014-optimal-cavediving-12_easy.pddl,CRASHED:1796.83:1000000000.0:1800.0:-1
ipc-2014-optimal-cavediving-13_easy.pddl,CRASHED:1797.33:1000000000.0:1800.0:-1
ipc-2014-optimal-cavediving-14_easy.pddl,TIMEOUT:1801.02:-1.0:1800.0:-1
ipc-2014-optimal-cavediving-15_easy.pddl,CRASHED:300.311:1000000000.0:1800.0:-1
ipc-2014-optimal-cavediving-16_easy.pddl,CRASHED:299.06:1000000000.0:1800.0:-1
ipc-2014-optimal-cavediving-18A_easy.pddl,SAT:108.653:131.0:1800.0:-1
ipc-2014-optimal-cavediving-18_easy.pddl,SAT:195.266:131.0:1800.0:-1
ipc-2014-optimal-cavediving-20A_easy.pddl,SAT:16.6395:98.0:1800.0:-1
ipc-2014-optimal-childsnack-01-2.pddl,CRASHED:1800.5:1000000000.0:1800.0:-1
ipc-2014-optimal-childsnack-01.pddl,CRASHED:1800.09:1000000000.0:1800.0:-1
ipc-2014-optimal-childsnack-02-2.pddl,CRASHED:1800.39:1000000000.0:1800.0:-1
ipc-2014-optimal-childsnack-02.pddl,CRASHED:1800.96:1000000000.0:1800.0:-1
ipc-2014-optimal-childsnack-03-2.pddl,CRASHED:1771.94:1000000000.0:1800.0:-1
ipc-2014-optimal-childsnack-03.pddl,CRASHED:1770.56:1000000000.0:1800.0:-1
ipc-2014-optimal-childsnack-04-2.pddl,CRASHED:1746.56:1000000000.0:1800.0:-1
ipc-2014-optimal-childsnack-04.pddl,CRASHED:1736.75:1000000000.0:1800.0:-1
ipc-2014-optimal-childsnack-05-2.pddl,CRASHED:1779.71:1000000000.0:1800.0:-1
ipc-2014-optimal-childsnack-05.pddl,CRASHED:1782.5:1000000000.0:1800.0:-1
ipc-2014-optimal-childsnack-06-2.pddl,CRASHED:1800.42:1000000000.0:1800.0:-1
ipc-2014-optimal-childsnack-06.pddl,CRASHED:1800.65:1000000000.0:1800.0:-1
ipc-2014-optimal-childsnack-07-2.pddl,CRASHED:1800.18:1000000000.0:1800.0:-1
ipc-2014-optimal-childsnack-07.pddl,CRASHED:1800.33:1000000000.0:1800.0:-1
ipc-2014-optimal-childsnack-08-2.pddl,CRASHED:1472.47:1000000000.0:1800.0:-1
ipc-2014-optimal-childsnack-08.pddl,CRASHED:1487.19:1000000000.0:1800.0:-1
ipc-2014-optimal-childsnack-09-2.pddl,CRASHED:1467.97:1000000000.0:1800.0:-1
ipc-2014-optimal-childsnack-09.pddl,CRASHED:1462.89:1000000000.0:1800.0:-1
ipc-2014-optimal-childsnack-10-2.pddl,CRASHED:1436.28:1000000000.0:1800.0:-1
ipc-2014-optimal-childsnack-10.pddl,CRASHED:1438.89:1000000000.0:1800.0:-1
ipc-2014-optimal-citycar-p2-2-2-1-2.pddl,SAT:3.01354:46.0:1800.0:-1
ipc-2014-optimal-citycar-p2-2-2-2-1.pddl,SAT:3.98739:64.0:1800.0:-1
ipc-2014-optimal-citycar-p2-2-3-1-2.pddl,SAT:7.10492:50.0:1800.0:-1
ipc-2014-optimal-citycar-p2-2-3-2-1.pddl,SAT:5.61715:48.0:1800.0:-1
ipc-2014-optimal-citycar-p2-2-3-2-2.pddl,SAT:5.70013:50.0:1800.0:-1
ipc-2014-optimal-citycar-p2-2-4-1-2.pddl,SAT:13.149:52.0:1800.0:-1
ipc-2014-optimal-citycar-p2-2-4-2-1.pddl,SAT:13.9879:52.0:1800.0:-1
ipc-2014-optimal-citycar-p2-2-5-2-2.pddl,SAT:267.066:76.0:1800.0:-1
ipc-2014-optimal-citycar-p2-2-6-1-1.pddl,SAT:208.687:58.0:1800.0:-1
ipc-2014-optimal-citycar-p2-2-6-2-2.pddl,SAT:207.975:58.0:1800.0:-1
ipc-2014-optimal-citycar-p2-3-2-3-1.pddl,SAT:16.2555:68.0:1800.0:-1
ipc-2014-optimal-citycar-p2-3-3-3-1.pddl,SAT:70.5373:78.0:1800.0:-1
ipc-2014-optimal-citycar-p2-3-4-3-1.pddl,CRASHED:311.656:1000000000.0:1800.0:-1
ipc-2014-optimal-citycar-p2-3-6-3-2.pddl,CRASHED:588.697:1000000000.0:1800.0:-1
ipc-2014-optimal-citycar-p3-3-2-2-1.pddl,CRASHED:1499.29:1000000000.0:1800.0:-1
ipc-2014-optimal-citycar-p3-3-2-2-2.pddl,CRASHED:1284.69:1000000000.0:1800.0:-1
ipc-2014-optimal-citycar-p3-3-2-3-1.pddl,SAT:45.1661:48.0:1800.0:-1
ipc-2014-optimal-citycar-p3-3-2-3-2.pddl,SAT:254.703:70.0:1800.0:-1
ipc-2014-optimal-citycar-p3-3-3-3-1.pddl,CRASHED:1796.88:1000000000.0:1800.0:-1
ipc-2014-optimal-citycar-p3-3-3-3-2.pddl,CRASHED:1797.08:1000000000.0:1800.0:-1
ipc-2014-optimal-floortile-p01-4-3-2.pddl,SAT:175.092:56.0:1800.0:-1
ipc-2014-optimal-floortile-p01-4-4-2.pddl,CRASHED:1800.94:1000000000.0:1800.0:-1
ipc-2014-optimal-floortile-p01-5-3-2.pddl,SAT:368.987:63.0:1800.0:-1
ipc-2014-optimal-floortile-p01-5-4-2.pddl,CRASHED:0.00012207:1000000000.0:1800.0:-1
ipc-2014-optimal-floortile-p01-5-5-2.pddl,CRASHED:1800.87:1000000000.0:1800.0:-1
ipc-2014-optimal-floortile-p01-6-4-2.pddl,CRASHED:1800.56:1000000000.0:1800.0:-1
ipc-2014-optimal-floortile-p01-6-5-2.pddl,CRASHED:1800.87:1000000000.0:1800.0:-1
ipc-2014-optimal-floortile-p02-4-4-2.pddl,CRASHED:1800.43:1000000000.0:1800.0:-1
ipc-2014-optimal-floortile-p02-5-3-2.pddl,SAT:528.727:65.0:1800.0:-1
ipc-2014-optimal-floortile-p02-5-4-2.pddl,CRASHED:1800.13:1000000000.0:1800.0:-1
ipc-2014-optimal-floortile-p02-5-5-2.pddl,CRASHED:1800.15:1000000000.0:1800.0:-1
ipc-2014-optimal-floortile-p02-6-4-2.pddl,CRASHED:1800.42:1000000000.0:1800.0:-1
ipc-2014-optimal-floortile-p02-6-5-2.pddl,CRASHED:1800.44:1000000000.0:1800.0:-1
ipc-2014-optimal-floortile-p03-4-3-2.pddl,SAT:170.984:56.0:1800.0:-1
ipc-2014-optimal-floortile-p03-4-4-2.pddl,CRASHED:1801.07:1000000000.0:1800.0:-1
ipc-2014-optimal-floortile-p03-5-3-2.pddl,SAT:533.47:65.0:1800.0:-1
ipc-2014-optimal-floortile-p03-5-4-2.pddl,CRASHED:1800.57:1000000000.0:1800.0:-1
ipc-2014-optimal-floortile-p03-5-5-2.pddl,CRASHED:1800.25:1000000000.0:1800.0:-1
ipc-2014-optimal-floortile-p03-6-4-2.pddl,CRASHED:1800.51:1000000000.0:1800.0:-1
ipc-2014-optimal-floortile-p03-6-5-2.pddl,CRASHED:1800.8:1000000000.0:1800.0:-1
ipc-2014-optimal-ged-d-1-2.pddl,SAT:1.9497:1.0:1800.0:-1
ipc-2014-optimal-ged-d-1-3.pddl,SAT:15.3217:4.0:1800.0:-1
ipc-2014-optimal-ged-d-1-4.pddl,SAT:1.90971:1.0:1800.0:-1
ipc-2014-optimal-ged-d-1-8.pddl,SAT:45.0172:4.0:1800.0:-1
ipc-2014-optimal-ged-d-2-1.pddl,SAT:1.91271:1.0:1800.0:-1
ipc-2014-optimal-ged-d-2-3.pddl,SAT:2.54661:3.0:1800.0:-1
ipc-2014-optimal-ged-d-2-4.pddl,SAT:2.00969:2.0:1800.0:-1
ipc-2014-optimal-ged-d-2-8.pddl,CRASHED:1294.88:1000000000.0:1800.0:-1
ipc-2014-optimal-ged-d-3-1.pddl,SAT:11.2173:4.0:1800.0:-1
ipc-2014-optimal-ged-d-3-2.pddl,SAT:2.5856:3.0:1800.0:-1
ipc-2014-optimal-ged-d-3-4.pddl,SAT:385.265:5.0:1800.0:-1
ipc-2014-optimal-ged-d-4-2.pddl,SAT:2.08768:2.0:1800.0:-1
ipc-2014-optimal-ged-d-4-3.pddl,SAT:136.806:5.0:1800.0:-1
ipc-2014-optimal-ged-d-4-8.pddl,CRASHED:1296.18:1000000000.0:1800.0:-1
ipc-2014-optimal-ged-d-7-5.pddl,SAT:30.8533:4.0:1800.0:-1
ipc-2014-optimal-ged-d-7-6.pddl,SAT:73.6068:4.0:1800.0:-1
ipc-2014-optimal-ged-d-8-1.pddl,SAT:31.8272:4.0:1800.0:-1
ipc-2014-optimal-ged-d-8-2.pddl,CRASHED:1303.24:1000000000.0:1800.0:-1
ipc-2014-optimal-ged-d-8-4.pddl,CRASHED:1298.2:1000000000.0:1800.0:-1
ipc-2014-optimal-ged-d-8-9.pddl,CRASHED:1296.49:1000000000.0:1800.0:-1
ipc-2014-optimal-hiking-1-2-3.pddl,SAT:0.781881:11.0:1800.0:-1
ipc-2014-optimal-hiking-1-2-4.pddl,SAT:1.13483:17.0:1800.0:-1
ipc-2014-optimal-hiking-1-2-5.pddl,SAT:2.27665:25.0:1800.0:-1
ipc-2014-optimal-hiking-1-2-7.pddl,SAT:16.0516:38.0:1800.0:-1
ipc-2014-optimal-hiking-1-2-8.pddl,SAT:43.1764:45.0:1800.0:-1
ipc-2014-optimal-hiking-2-2-3.pddl,SAT:3.3075:10.0:1800.0:-1
ipc-2014-optimal-hiking-2-2-4.pddl,SAT:207.832:16.0:1800.0:-1
ipc-2014-optimal-hiking-2-2-5.pddl,SAT:1087.75:22.0:1800.0:-1
ipc-2014-optimal-hiking-2-2-6.pddl,SAT:1162.33:30.0:1800.0:-1
ipc-2014-optimal-hiking-2-2-7.pddl,CRASHED:1800.45:1000000000.0:1800.0:-1
ipc-2014-optimal-hiking-2-2-8.pddl,CRASHED:1800.88:1000000000.0:1800.0:-1
ipc-2014-optimal-hiking-2-3-4.pddl,SAT:949.411:17.0:1800.0:-1
ipc-2014-optimal-hiking-2-3-5.pddl,SAT:1141.06:24.0:1800.0:-1
ipc-2014-optimal-hiking-2-3-6.pddl,CRASHED:1800.46:1000000000.0:1800.0:-1
ipc-2014-optimal-hiking-2-3-7.pddl,CRASHED:1800.55:1000000000.0:1800.0:-1
ipc-2014-optimal-hiking-2-4-3.pddl,SAT:20.9568:10.0:1800.0:-1
ipc-2014-optimal-hiking-2-4-4.pddl,SAT:1004.81:17.0:1800.0:-1
ipc-2014-optimal-hiking-2-4-5.pddl,CRASHED:1801.04:1000000000.0:1800.0:-1
ipc-2014-optimal-hiking-2-4-6.pddl,CRASHED:1800.93:1000000000.0:1800.0:-1
ipc-2014-optimal-hiking-2-4-7.pddl,CRASHED:1787.79:1000000000.0:1800.0:-1
ipc-2014-optimal-maintenance-1.3.010.010.1-001.pddl,CRASHED:0.983849:1000000000.0:1800.0:-1
ipc-2014-optimal-maintenance-1.3.010.010.1-002.pddl,CRASHED:1.36679:1000000000.0:1800.0:-1
ipc-2014-optimal-maintenance-1.3.010.010.2-000.pddl,SAT:0.546916:4.0:1800.0:-1
ipc-2014-optimal-maintenance-1.3.010.010.2-001.pddl,SAT:0.52092:7.0:1800.0:-1
ipc-2014-optimal-maintenance-1.3.010.010.2-002.pddl,SAT:0.542917:6.0:1800.0:-1
ipc-2014-optimal-maintenance-1.3.015.020.1-000.pddl,CRASHED:70.8842:1000000000.0:1800.0:-1
ipc-2014-optimal-maintenance-1.3.015.020.1-001.pddl,CRASHED:38.7011:1000000000.0:1800.0:-1
ipc-2014-optimal-maintenance-1.3.015.020.1-002.pddl,CRASHED:41.1347:1000000000.0:1800.0:-1
ipc-2014-optimal-maintenance-1.3.015.020.2-000.pddl,CRASHED:202.772:1000000000.0:1800.0:-1
ipc-2014-optimal-maintenance-1.3.015.020.2-001.pddl,SAT:0.596909:11.0:1800.0:-1
ipc-2014-optimal-maintenance-1.3.015.020.2-002.pddl,SAT:0.554914:9.0:1800.0:-1
ipc-2014-optimal-maintenance-1.3.025.050.1-000.pddl,CRASHED:1483.05:1000000000.0:1800.0:-1
ipc-2014-optimal-maintenance-1.3.025.050.1-001.pddl,CRASHED:1800.11:1000000000.0:1800.0:-1
ipc-2014-optimal-maintenance-1.3.025.050.1-002.pddl,CRASHED:1735.29:1000000000.0:1800.0:-1
ipc-2014-optimal-maintenance-1.3.025.100.1-000.pddl,CRASHED:27.14:1000000000.0:1800.0:-1
ipc-2014-optimal-maintenance-1.3.025.100.1-001.pddl,CRASHED:26.45:1000000000.0:1800.0:-1
ipc-2014-optimal-maintenance-1.3.025.100.1-002.pddl,CRASHED:28.43:1000000000.0:1800.0:-1
ipc-2014-optimal-maintenance-1.3.025.100.2-000.pddl,CRASHED:72.64:1000000000.0:1800.0:-1
ipc-2014-optimal-maintenance-1.3.025.100.2-001.pddl,CRASHED:65.07:1000000000.0:1800.0:-1
ipc-2014-optimal-maintenance-1.3.025.100.2-002.pddl,CRASHED:58.73:1000000000.0:1800.0:-1
ipc-2014-optimal-openstacks-p20_1.pddl,SAT:1181.88:3.0:1800.0:-1
ipc-2014-optimal-openstacks-p20_2.pddl,SAT:1203.42:4.0:1800.0:-1
ipc-2014-optimal-openstacks-p20_3.pddl,SAT:63.0454:6.0:1800.0:-1
ipc-2014-optimal-openstacks-p25_1.pddl,CRASHED:1458.44:1000000000.0:1800.0:-1
ipc-2014-optimal-openstacks-p25_3.pddl,CRASHED:1457.93:1000000000.0:1800.0:-1
ipc-2014-optimal-openstacks-p30_1.pddl,CRASHED:1490.4:1000000000.0:1800.0:-1
ipc-2014-optimal-openstacks-p30_2.pddl,CRASHED:1579.37:1000000000.0:1800.0:-1
ipc-2014-optimal-openstacks-p30_3.pddl,CRASHED:1450.06:1000000000.0:1800.0:-1
ipc-2014-optimal-openstacks-p35_1.pddl,CRASHED:1499.81:1000000000.0:1800.0:-1
ipc-2014-optimal-openstacks-p35_2.pddl,CRASHED:1577.37:1000000000.0:1800.0:-1
ipc-2014-optimal-openstacks-p35_3.pddl,CRASHED:1458.58:1000000000.0:1800.0:-1
ipc-2014-optimal-openstacks-p40_1.pddl,CRASHED:1487.74:1000000000.0:1800.0:-1
ipc-2014-optimal-openstacks-p40_2.pddl,CRASHED:1484.95:1000000000.0:1800.0:-1
ipc-2014-optimal-openstacks-p40_3.pddl,CRASHED:1459.81:1000000000.0:1800.0:-1
ipc-2014-optimal-openstacks-p45_1.pddl,CRASHED:1590.53:1000000000.0:1800.0:-1
ipc-2014-optimal-openstacks-p45_2.pddl,CRASHED:1493.21:1000000000.0:1800.0:-1
ipc-2014-optimal-openstacks-p45_3.pddl,CRASHED:1466.13:1000000000.0:1800.0:-1
ipc-2014-optimal-openstacks-p50_1.pddl,CRASHED:1523.79:1000000000.0:1800.0:-1
ipc-2014-optimal-openstacks-p50_2.pddl,CRASHED:1555.08:1000000000.0:1800.0:-1
ipc-2014-optimal-openstacks-p50_3.pddl,CRASHED:1508.99:1000000000.0:1800.0:-1
ipc-2014-optimal-parking-12_7-01.pddl,SAT:255.631:18.0:1800.0:-1
ipc-2014-optimal-parking-12_7-02.pddl,CRASHED:1800.59:1000000000.0:1800.0:-1
ipc-2014-optimal-parking-12_7-03.pddl,SAT:172.071:17.0:1800.0:-1
ipc-2014-optimal-parking-12_7-04.pddl,CRASHED:1800.25:1000000000.0:1800.0:-1
ipc-2014-optimal-parking-14_8-01.pddl,CRASHED:1476.64:1000000000.0:1800.0:-1
ipc-2014-optimal-parking-14_8-02.pddl,CRASHED:1510.89:1000000000.0:1800.0:-1
ipc-2014-optimal-parking-14_8-03.pddl,CRASHED:1490.06:1000000000.0:1800.0:-1
ipc-2014-optimal-parking-14_8-04.pddl,CRASHED:1503.7:1000000000.0:1800.0:-1
ipc-2014-optimal-parking-16_9-01.pddl,CRASHED:1639.46:1000000000.0:1800.0:-1
ipc-2014-optimal-parking-16_9-02.pddl,CRASHED:1613.64:1000000000.0:1800.0:-1
ipc-2014-optimal-parking-16_9-03.pddl,CRASHED:1622.41:1000000000.0:1800.0:-1
ipc-2014-optimal-parking-16_9-04.pddl,CRASHED:1634.38:1000000000.0:1800.0:-1
ipc-2014-optimal-parking-18_10-01.pddl,CRASHED:1801.01:1000000000.0:1800.0:-1
ipc-2014-optimal-parking-18_10-02.pddl,CRASHED:1801.11:1000000000.0:1800.0:-1
ipc-2014-optimal-parking-18_10-03.pddl,CRASHED:1801.06:1000000000.0:1800.0:-1
ipc-2014-optimal-parking-18_10-04.pddl,CRASHED:1667.73:1000000000.0:1800.0:-1
ipc-2014-optimal-parking-20_11-01.pddl,TIMEOUT:1801.06:-1.0:1800.0:-1
ipc-2014-optimal-parking-20_11-02.pddl,CRASHED:1800.81:1000000000.0:1800.0:-1
ipc-2014-optimal-parking-20_11-03.pddl,CRASHED:1800.84:1000000000.0:1800.0:-1
ipc-2014-optimal-parking-20_11-04.pddl,CRASHED:1801.11:1000000000.0:1800.0:-1
ipc-2014-optimal-tetris-01-10.pddl,CRASHED:1800.56:1000000000.0:1800.0:-1
ipc-2014-optimal-tetris-01-04.pddl,CRASHED:1563.04:1000000000.0:1800.0:-1
ipc-2014-optimal-tetris-01-06.pddl,CRASHED:1800.83:1000000000.0:1800.0:-1
ipc-2014-optimal-tetris-01-08.pddl,CRASHED:1800.82:1000000000.0:1800.0:-1
ipc-2014-optimal-tetris-02-10.pddl,CRASHED:1800.64:1000000000.0:1800.0:-1
ipc-2014-optimal-tetris-02-04.pddl,SAT:3.67044:10.0:1800.0:-1
ipc-2014-optimal-tetris-02-06.pddl,SAT:823.572:30.0:1800.0:-1
ipc-2014-optimal-tetris-02-08.pddl,CRASHED:1800.17:1000000000.0:1800.0:-1
ipc-2014-optimal-tetris-03-10.pddl,CRASHED:1800.55:1000000000.0:1800.0:-1
ipc-2014-optimal-tetris-03-04.pddl,SAT:85.0601:11.0:1800.0:-1
ipc-2014-optimal-tetris-03-06.pddl,SAT:484.304:21.0:1800.0:-1
ipc-2014-optimal-tetris-03-08.pddl,CRASHED:1800.57:1000000000.0:1800.0:-1
ipc-2014-optimal-tetris-04-10.pddl,CRASHED:1801.01:1000000000.0:1800.0:-1
ipc-2014-optimal-tetris-04-04.pddl,CRASHED:1604.39:1000000000.0:1800.0:-1
ipc-2014-optimal-tetris-04-06.pddl,CRASHED:1800.27:1000000000.0:1800.0:-1
ipc-2014-optimal-tetris-04-08.pddl,CRASHED:1800.27:1000000000.0:1800.0:-1
ipc-2014-optimal-tetris-05-10.pddl,CRASHED:1800.82:1000000000.0:1800.0:-1
ipc-2014-optimal-tetris-05-04.pddl,CRASHED:1337.15:1000000000.0:1800.0:-1
ipc-2014-optimal-tetris-05-06.pddl,SAT:88.3266:19.0:1800.0:-1
ipc-2014-optimal-tetris-05-08.pddl,TIMEOUT:1801.06:-1.0:1800.0:-1
ipc-2014-optimal-tidybot-01.pddl,CRASHED:1800.58:1000000000.0:1800.0:-1
ipc-2014-optimal-tidybot-02.pddl,SAT:329.979:35.0:1800.0:-1
ipc-2014-optimal-tidybot-03.pddl,SAT:333.097:30.0:1800.0:-1
ipc-2014-optimal-tidybot-04.pddl,SAT:309.464:24.0:1800.0:-1
ipc-2014-optimal-tidybot-05.pddl,CRASHED:1800.93:1000000000.0:1800.0:-1
ipc-2014-optimal-tidybot-06.pddl,CRASHED:1800.32:1000000000.0:1800.0:-1
ipc-2014-optimal-tidybot-07.pddl,CRASHED:1800.99:1000000000.0:1800.0:-1
ipc-2014-optimal-tidybot-08.pddl,SAT:198.459:25.0:1800.0:-1
ipc-2014-optimal-tidybot-09.pddl,CRASHED:1800.65:1000000000.0:1800.0:-1
ipc-2014-optimal-tidybot-10.pddl,CRASHED:1801.02:1000000000.0:1800.0:-1
ipc-2014-optimal-tidybot-11.pddl,SAT:196.446:29.0:1800.0:-1
ipc-2014-optimal-tidybot-12.pddl,CRASHED:1800.85:1000000000.0:1800.0:-1
ipc-2014-optimal-tidybot-13.pddl,SAT:378.466:30.0:1800.0:-1
ipc-2014-optimal-tidybot-14.pddl,SAT:89.7554:25.0:1800.0:-1
ipc-2014-optimal-tidybot-15.pddl,CRASHED:1800.29:1000000000.0:1800.0:-1
ipc-2014-optimal-tidybot-16.pddl,CRASHED:1800.28:1000000000.0:1800.0:-1
ipc-2014-optimal-tidybot-17.pddl,CRASHED:1800.78:1000000000.0:1800.0:-1
ipc-2014-optimal-tidybot-18.pddl,CRASHED:1800.23:1000000000.0:1800.0:-1
ipc-2014-optimal-tidybot-19.pddl,CRASHED:1800.95:1000000000.0:1800.0:-1
ipc-2014-optimal-tidybot-20.pddl,CRASHED:1800.64:1000000000.0:1800.0:-1
ipc-2014-optimal-transport-01.pddl,SAT:1.12083:148.0:1800.0:-1
ipc-2014-optimal-transport-02.pddl,SAT:24.8632:191.0:1800.0:-1
ipc-2014-optimal-transport-03.pddl,SAT:93.1898:300.0:1800.0:-1
ipc-2014-optimal-transport-04.pddl,CRASHED:1800.58:1000000000.0:1800.0:-1
ipc-2014-optimal-transport-05.pddl,CRASHED:1745.08:1000000000.0:1800.0:-1
ipc-2014-optimal-transport-06.pddl,CRASHED:1754.29:1000000000.0:1800.0:-1
ipc-2014-optimal-transport-07.pddl,SAT:319.55:967.0:1800.0:-1
ipc-2014-optimal-transport-08.pddl,CRASHED:1800.46:1000000000.0:1800.0:-1
ipc-2014-optimal-transport-09.pddl,TIMEOUT:1801.14:-1.0:1800.0:-1
ipc-2014-optimal-transport-10.pddl,CRASHED:1800.35:1000000000.0:1800.0:-1
ipc-2014-optimal-transport-11.pddl,CRASHED:1800.12:1000000000.0:1800.0:-1
ipc-2014-optimal-transport-12.pddl,CRASHED:1800.25:1000000000.0:1800.0:-1
ipc-2014-optimal-transport-13.pddl,SAT:9.99348:594.0:1800.0:-1
ipc-2014-optimal-transport-14.pddl,SAT:309.946:526.0:1800.0:-1
ipc-2014-optimal-transport-15.pddl,CRASHED:1800.87:1000000000.0:1800.0:-1
ipc-2014-optimal-transport-16.pddl,CRASHED:1800.98:1000000000.0:1800.0:-1
ipc-2014-optimal-transport-17.pddl,CRASHED:1740.43:1000000000.0:1800.0:-1
ipc-2014-optimal-transport-18.pddl,CRASHED:1762.1:1000000000.0:1800.0:-1
ipc-2014-optimal-transport-19.pddl,CRASHED:1776.26:1000000000.0:1800.0:-1
ipc-2014-optimal-transport-20.pddl,CRASHED:1777.4:1000000000.0:1800.0:-1
ipc-2014-optimal-visitall-05-10.pddl,CRASHED:1800.67:1000000000.0:1800.0:-1
ipc-2014-optimal-visitall-05-05.pddl,SAT:0.645901:21.0:1800.0:-1
ipc-2014-optimal-visitall-05-06.pddl,SAT:0.817874:25.0:1800.0:-1
ipc-2014-optimal-visitall-05-07.pddl,SAT:19.2421:34.0:1800.0:-1
ipc-2014-optimal-visitall-05-08.pddl,SAT:58.3841:43.0:1800.0:-1
ipc-2014-optimal-visitall-05-09.pddl,CRASHED:1800.28:1000000000.0:1800.0:-1
ipc-2014-optimal-visitall-01-10.pddl,SAT:0.988849:99.0:1800.0:-1
ipc-2014-optimal-visitall-01-11.pddl,SAT:1.12883:120.0:1800.0:-1
ipc-2014-optimal-visitall-01-12.pddl,SAT:22.5356:143.0:1800.0:-1
ipc-2014-optimal-visitall-01-13.pddl,SAT:1.37179:168.0:1800.0:-1
ipc-2014-optimal-visitall-01-14.pddl,CRASHED:1801.13:1000000000.0:1800.0:-1
ipc-2014-optimal-visitall-01-15.pddl,CRASHED:1800.62:1000000000.0:1800.0:-1
ipc-2014-optimal-visitall-01-16.pddl,CRASHED:1800.64:1000000000.0:1800.0:-1
ipc-2014-optimal-visitall-01-17.pddl,CRASHED:1800.2:1000000000.0:1800.0:-1
ipc-2014-optimal-visitall-01-18.pddl,CRASHED:1800.87:1000000000.0:1800.0:-1
ipc-2014-optimal-visitall-01-05.pddl,SAT:0.533918:24.0:1800.0:-1
ipc-2014-optimal-visitall-01-06.pddl,SAT:0.574911:35.0:1800.0:-1
ipc-2014-optimal-visitall-01-07.pddl,SAT:0.656899:48.0:1800.0:-1
ipc-2014-optimal-visitall-01-08.pddl,SAT:0.736887:63.0:1800.0:-1
ipc-2014-optimal-visitall-01-09.pddl,SAT:0.820874:80.0:1800.0:-1
