instance,ipc-2014-optimal-spmas
ipc-2014-optimal-barman-p433.1.pddl,TIMEOUT:1801.09:-1.0:1800.0:-1
ipc-2014-optimal-barman-p433.2.pddl,TIMEOUT:1801.08:-1.0:1800.0:-1
ipc-2014-optimal-barman-p433.3.pddl,TIMEOUT:1801.09:-1.0:1800.0:-1
ipc-2014-optimal-barman-p435.1.pddl,SAT:78.789:49.0:1800.0:-1
ipc-2014-optimal-barman-p435.2.pddl,CRASHED:31.2902:1000000000.0:1800.0:-1
ipc-2014-optimal-barman-p435.3.pddl,CRASHED:38.2352:1000000000.0:1800.0:-1
ipc-2014-optimal-barman-p443.1.pddl,TIMEOUT:1801.12:-1.0:1800.0:-1
ipc-2014-optimal-barman-p443.2.pddl,TIMEOUT:1801.14:-1.0:1800.0:-1
ipc-2014-optimal-barman-p443.3.pddl,TIMEOUT:1801.14:-1.0:1800.0:-1
ipc-2014-optimal-barman-p536.1.pddl,TIMEOUT:1801.04:-1.0:1800.0:-1
ipc-2014-optimal-barman-p536.2.pddl,CRASHED:40.0479:1000000000.0:1800.0:-1
ipc-2014-optimal-barman-p536.3.pddl,CRASHED:88.9195:1000000000.0:1800.0:-1
ipc-2014-optimal-barman-p638.1.pddl,TIMEOUT:1801.02:-1.0:1800.0:-1
ipc-2014-optimal-barman-p638.2.pddl,CRASHED:20.9338:1000000000.0:1800.0:-1
ipc-2014-optimal-barman-p638.3.pddl,CRASHED:22.7005:1000000000.0:1800.0:-1
ipc-2014-optimal-barman-p739.1.pddl,TIMEOUT:1801.02:-1.0:1800.0:-1
ipc-2014-optimal-barman-p739.2.pddl,TIMEOUT:1801.06:-1.0:1800.0:-1
ipc-2014-optimal-barman-p739.3.pddl,TIMEOUT:1801.03:-1.0:1800.0:-1
ipc-2014-optimal-barman-p839.1.pddl,TIMEOUT:1801.02:-1.0:1800.0:-1
ipc-2014-optimal-barman-p839.2.pddl,TIMEOUT:1801.05:-1.0:1800.0:-1
ipc-2014-optimal-cavediving-01.pddl,TIMEOUT:1801.1:-1.0:1800.0:-1
ipc-2014-optimal-cavediving-01_easy.pddl,TIMEOUT:1801.1:-1.0:1800.0:-1
ipc-2014-optimal-cavediving-02_easy.pddl,TIMEOUT:1801.12:-1.0:1800.0:-1
ipc-2014-optimal-cavediving-03_easy.pddl,TIMEOUT:1801.12:-1.0:1800.0:-1
ipc-2014-optimal-cavediving-04_easy.pddl,TIMEOUT:1801.08:-1.0:1800.0:-1
ipc-2014-optimal-cavediving-05A_easy.pddl,TIMEOUT:1801.12:-1.0:1800.0:-1
ipc-2014-optimal-cavediving-06A_easy.pddl,TIMEOUT:1801.11:-1.0:1800.0:-1
ipc-2014-optimal-cavediving-07_easy.pddl,SAT:15.4926:131.0:1800.0:-1
ipc-2014-optimal-cavediving-08_easy.pddl,TIMEOUT:1801.07:-1.0:1800.0:-1
ipc-2014-optimal-cavediving-09_easy.pddl,TIMEOUT:1801.07:-1.0:1800.0:-1
ipc-2014-optimal-cavediving-10_easy.pddl,TIMEOUT:1801.09:-1.0:1800.0:-1
ipc-2014-optimal-cavediving-11_easy.pddl,TIMEOUT:1801.12:-1.0:1800.0:-1
ipc-2014-optimal-cavediving-12_easy.pddl,TIMEOUT:1801.15:-1.0:1800.0:-1
ipc-2014-optimal-cavediving-13_easy.pddl,TIMEOUT:1801.08:-1.0:1800.0:-1
ipc-2014-optimal-cavediving-14_easy.pddl,TIMEOUT:1801.08:-1.0:1800.0:-1
ipc-2014-optimal-cavediving-15_easy.pddl,TIMEOUT:1801.06:-1.0:1800.0:-1
ipc-2014-optimal-cavediving-16_easy.pddl,TIMEOUT:1801.14:-1.0:1800.0:-1
ipc-2014-optimal-cavediving-18A_easy.pddl,SAT:22.2196:131.0:1800.0:-1
ipc-2014-optimal-cavediving-18_easy.pddl,SAT:40.0029:131.0:1800.0:-1
ipc-2014-optimal-cavediving-20A_easy.pddl,TIMEOUT:1801.09:-1.0:1800.0:-1
ipc-2014-optimal-childsnack-01-2.pddl,TIMEOUT:1801.05:-1.0:1800.0:-1
ipc-2014-optimal-childsnack-01.pddl,CRASHED:28.8026:1000000000.0:1800.0:-1
ipc-2014-optimal-childsnack-02-2.pddl,TIMEOUT:1801.02:-1.0:1800.0:-1
ipc-2014-optimal-childsnack-02.pddl,TIMEOUT:1801.09:-1.0:1800.0:-1
ipc-2014-optimal-childsnack-03-2.pddl,CRASHED:1486.89:1000000000.0:1800.0:-1
ipc-2014-optimal-childsnack-03.pddl,TIMEOUT:1801.09:-1.0:1800.0:-1
ipc-2014-optimal-childsnack-04-2.pddl,CRASHED:1140.53:1000000000.0:1800.0:-1
ipc-2014-optimal-childsnack-04.pddl,CRASHED:1218.61:1000000000.0:1800.0:-1
ipc-2014-optimal-childsnack-05-2.pddl,TIMEOUT:1801.01:-1.0:1800.0:-1
ipc-2014-optimal-childsnack-05.pddl,TIMEOUT:1801.05:-1.0:1800.0:-1
ipc-2014-optimal-childsnack-06-2.pddl,CRASHED:923.88:1000000000.0:1800.0:-1
ipc-2014-optimal-childsnack-06.pddl,CRASHED:1052.09:1000000000.0:1800.0:-1
ipc-2014-optimal-childsnack-07-2.pddl,CRASHED:1760.96:1000000000.0:1800.0:-1
ipc-2014-optimal-childsnack-07.pddl,CRASHED:1734.25:1000000000.0:1800.0:-1
ipc-2014-optimal-childsnack-08-2.pddl,CRASHED:1571.86:1000000000.0:1800.0:-1
ipc-2014-optimal-childsnack-08.pddl,CRASHED:1614.56:1000000000.0:1800.0:-1
ipc-2014-optimal-childsnack-09-2.pddl,TIMEOUT:1801.01:-1.0:1800.0:-1
ipc-2014-optimal-childsnack-09.pddl,TIMEOUT:1801.06:-1.0:1800.0:-1
ipc-2014-optimal-childsnack-10-2.pddl,CRASHED:674.288:1000000000.0:1800.0:-1
ipc-2014-optimal-childsnack-10.pddl,CRASHED:621.201:1000000000.0:1800.0:-1
ipc-2014-optimal-citycar-p2-2-2-1-2.pddl,TIMEOUT:1801.02:-1.0:1800.0:-1
ipc-2014-optimal-citycar-p2-2-2-2-1.pddl,SAT:1034.69:64.0:1800.0:-1
ipc-2014-optimal-citycar-p2-2-3-1-2.pddl,TIMEOUT:1801.08:-1.0:1800.0:-1
ipc-2014-optimal-citycar-p2-2-3-2-1.pddl,CRASHED:335.675:1000000000.0:1800.0:-1
ipc-2014-optimal-citycar-p2-2-3-2-2.pddl,CRASHED:364.748:1000000000.0:1800.0:-1
ipc-2014-optimal-citycar-p2-2-4-1-2.pddl,SAT:1446.96:52.0:1800.0:-1
ipc-2014-optimal-citycar-p2-2-4-2-1.pddl,SAT:200.161:52.0:1800.0:-1
ipc-2014-optimal-citycar-p2-2-5-2-2.pddl,CRASHED:496.02:1000000000.0:1800.0:-1
ipc-2014-optimal-citycar-p2-2-6-1-1.pddl,TIMEOUT:1801.07:-1.0:1800.0:-1
ipc-2014-optimal-citycar-p2-2-6-2-2.pddl,CRASHED:466.12:1000000000.0:1800.0:-1
ipc-2014-optimal-citycar-p2-3-2-3-1.pddl,CRASHED:21.1288:1000000000.0:1800.0:-1
ipc-2014-optimal-citycar-p2-3-3-3-1.pddl,CRASHED:748.58:1000000000.0:1800.0:-1
ipc-2014-optimal-citycar-p2-3-4-3-1.pddl,CRASHED:590.28:1000000000.0:1800.0:-1
ipc-2014-optimal-citycar-p2-3-6-3-2.pddl,CRASHED:368.34:1000000000.0:1800.0:-1
ipc-2014-optimal-citycar-p3-3-2-2-1.pddl,TIMEOUT:1801.1:-1.0:1800.0:-1
ipc-2014-optimal-citycar-p3-3-2-2-2.pddl,CRASHED:869.48:1000000000.0:1800.0:-1
ipc-2014-optimal-citycar-p3-3-2-3-1.pddl,SAT:1269.97:48.0:1800.0:-1
ipc-2014-optimal-citycar-p3-3-2-3-2.pddl,CRASHED:462.35:1000000000.0:1800.0:-1
ipc-2014-optimal-citycar-p3-3-3-3-1.pddl,CRASHED:335.85:1000000000.0:1800.0:-1
ipc-2014-optimal-citycar-p3-3-3-3-2.pddl,CRASHED:531.64:1000000000.0:1800.0:-1
ipc-2014-optimal-floortile-p01-4-3-2.pddl,SAT:2.66559:56.0:1800.0:-1
ipc-2014-optimal-floortile-p01-4-4-2.pddl,SAT:13.207:68.0:1800.0:-1
ipc-2014-optimal-floortile-p01-5-3-2.pddl,SAT:4.50031:63.0:1800.0:-1
ipc-2014-optimal-floortile-p01-5-4-2.pddl,SAT:34.7117:91.0:1800.0:-1
ipc-2014-optimal-floortile-p01-5-5-2.pddl,CRASHED:112.342:1000000000.0:1800.0:-1
ipc-2014-optimal-floortile-p01-6-4-2.pddl,SAT:76.0124:104.0:1800.0:-1
ipc-2014-optimal-floortile-p01-6-5-2.pddl,TIMEOUT:1801.03:-1.0:1800.0:-1
ipc-2014-optimal-floortile-p02-4-4-2.pddl,SAT:15.3237:75.0:1800.0:-1
ipc-2014-optimal-floortile-p02-5-3-2.pddl,SAT:4.56431:65.0:1800.0:-1
ipc-2014-optimal-floortile-p02-5-4-2.pddl,SAT:36.0215:98.0:1800.0:-1
ipc-2014-optimal-floortile-p02-5-5-2.pddl,TIMEOUT:1801.01:-1.0:1800.0:-1
ipc-2014-optimal-floortile-p02-6-4-2.pddl,SAT:78.1901:109.0:1800.0:-1
ipc-2014-optimal-floortile-p02-6-5-2.pddl,TIMEOUT:1801.08:-1.0:1800.0:-1
ipc-2014-optimal-floortile-p03-4-3-2.pddl,SAT:2.72958:56.0:1800.0:-1
ipc-2014-optimal-floortile-p03-4-4-2.pddl,SAT:18.6282:72.0:1800.0:-1
ipc-2014-optimal-floortile-p03-5-3-2.pddl,SAT:5.63614:65.0:1800.0:-1
ipc-2014-optimal-floortile-p03-5-4-2.pddl,SAT:41.4997:83.0:1800.0:-1
ipc-2014-optimal-floortile-p03-5-5-2.pddl,TIMEOUT:1801.03:-1.0:1800.0:-1
ipc-2014-optimal-floortile-p03-6-4-2.pddl,SAT:74.9736:116.0:1800.0:-1
ipc-2014-optimal-floortile-p03-6-5-2.pddl,TIMEOUT:1801.07:-1.0:1800.0:-1
ipc-2014-optimal-ged-d-1-2.pddl,SAT:0.947855:1.0:1800.0:-1
ipc-2014-optimal-ged-d-1-3.pddl,TIMEOUT:1801.01:-1.0:1800.0:-1
ipc-2014-optimal-ged-d-1-4.pddl,SAT:0.961852:1.0:1800.0:-1
ipc-2014-optimal-ged-d-1-8.pddl,TIMEOUT:1801.09:-1.0:1800.0:-1
ipc-2014-optimal-ged-d-2-1.pddl,SAT:1.08083:1.0:1800.0:-1
ipc-2014-optimal-ged-d-2-3.pddl,SAT:6.32804:3.0:1800.0:-1
ipc-2014-optimal-ged-d-2-4.pddl,SAT:1.2828:2.0:1800.0:-1
ipc-2014-optimal-ged-d-2-8.pddl,TIMEOUT:1801.06:-1.0:1800.0:-1
ipc-2014-optimal-ged-d-3-1.pddl,TIMEOUT:1801.08:-1.0:1800.0:-1
ipc-2014-optimal-ged-d-3-2.pddl,SAT:5.8821:3.0:1800.0:-1
ipc-2014-optimal-ged-d-3-4.pddl,CRASHED:29.3765:1000000000.0:1800.0:-1
ipc-2014-optimal-ged-d-4-2.pddl,SAT:1.3178:2.0:1800.0:-1
ipc-2014-optimal-ged-d-4-3.pddl,CRASHED:34.1768:1000000000.0:1800.0:-1
ipc-2014-optimal-ged-d-4-8.pddl,TIMEOUT:1801.01:-1.0:1800.0:-1
ipc-2014-optimal-ged-d-7-5.pddl,CRASHED:32.4451:1000000000.0:1800.0:-1
ipc-2014-optimal-ged-d-7-6.pddl,CRASHED:32.5491:1000000000.0:1800.0:-1
ipc-2014-optimal-ged-d-8-1.pddl,TIMEOUT:1801.04:-1.0:1800.0:-1
ipc-2014-optimal-ged-d-8-2.pddl,TIMEOUT:1801.02:-1.0:1800.0:-1
ipc-2014-optimal-ged-d-8-4.pddl,TIMEOUT:1801.08:-1.0:1800.0:-1
ipc-2014-optimal-ged-d-8-9.pddl,TIMEOUT:1801.01:-1.0:1800.0:-1
ipc-2014-optimal-hiking-1-2-3.pddl,SAT:0.606907:11.0:1800.0:-1
ipc-2014-optimal-hiking-1-2-4.pddl,SAT:0.71689:17.0:1800.0:-1
ipc-2014-optimal-hiking-1-2-5.pddl,SAT:0.77988:25.0:1800.0:-1
ipc-2014-optimal-hiking-1-2-7.pddl,SAT:1.19882:38.0:1800.0:-1
ipc-2014-optimal-hiking-1-2-8.pddl,SAT:1.54876:45.0:1800.0:-1
ipc-2014-optimal-hiking-2-2-3.pddl,SAT:1.38879:10.0:1800.0:-1
ipc-2014-optimal-hiking-2-2-4.pddl,SAT:4.99024:16.0:1800.0:-1
ipc-2014-optimal-hiking-2-2-5.pddl,SAT:68.3456:22.0:1800.0:-1
ipc-2014-optimal-hiking-2-2-6.pddl,TIMEOUT:1801.01:-1.0:1800.0:-1
ipc-2014-optimal-hiking-2-2-7.pddl,TIMEOUT:1801.03:-1.0:1800.0:-1
ipc-2014-optimal-hiking-2-2-8.pddl,TIMEOUT:1801.04:-1.0:1800.0:-1
ipc-2014-optimal-hiking-2-3-4.pddl,SAT:20.2439:17.0:1800.0:-1
ipc-2014-optimal-hiking-2-3-5.pddl,CRASHED:103.315:1000000000.0:1800.0:-1
ipc-2014-optimal-hiking-2-3-6.pddl,SAT:343.144:28.0:1800.0:-1
ipc-2014-optimal-hiking-2-3-7.pddl,TIMEOUT:1801.02:-1.0:1800.0:-1
ipc-2014-optimal-hiking-2-4-3.pddl,SAT:2.44663:10.0:1800.0:-1
ipc-2014-optimal-hiking-2-4-4.pddl,SAT:18.4902:17.0:1800.0:-1
ipc-2014-optimal-hiking-2-4-5.pddl,TIMEOUT:1801.02:-1.0:1800.0:-1
ipc-2014-optimal-hiking-2-4-6.pddl,SAT:261.76:30.0:1800.0:-1
ipc-2014-optimal-hiking-2-4-7.pddl,SAT:504.86:34.0:1800.0:-1
ipc-2014-optimal-maintenance-1.3.010.010.1-001.pddl,TIMEOUT:1801.11:-1.0:1800.0:-1
ipc-2014-optimal-maintenance-1.3.010.010.1-002.pddl,TIMEOUT:1801.06:-1.0:1800.0:-1
ipc-2014-optimal-maintenance-1.3.010.010.2-000.pddl,SAT:0.769882:4.0:1800.0:-1
ipc-2014-optimal-maintenance-1.3.010.010.2-001.pddl,TIMEOUT:1801.14:-1.0:1800.0:-1
ipc-2014-optimal-maintenance-1.3.010.010.2-002.pddl,SAT:0.831872:6.0:1800.0:-1
ipc-2014-optimal-maintenance-1.3.015.020.1-000.pddl,TIMEOUT:1801.11:-1.0:1800.0:-1
ipc-2014-optimal-maintenance-1.3.015.020.1-001.pddl,TIMEOUT:1801.05:-1.0:1800.0:-1
ipc-2014-optimal-maintenance-1.3.015.020.1-002.pddl,TIMEOUT:1801.14:-1.0:1800.0:-1
ipc-2014-optimal-maintenance-1.3.015.020.2-000.pddl,CRASHED:1.41778:1000000000.0:1800.0:-1
ipc-2014-optimal-maintenance-1.3.015.020.2-001.pddl,SAT:1.36879:11.0:1800.0:-1
ipc-2014-optimal-maintenance-1.3.015.020.2-002.pddl,SAT:1.22681:9.0:1800.0:-1
ipc-2014-optimal-maintenance-1.3.025.050.1-000.pddl,TIMEOUT:1801.14:-1.0:1800.0:-1
ipc-2014-optimal-maintenance-1.3.025.050.1-001.pddl,TIMEOUT:1801.1:-1.0:1800.0:-1
ipc-2014-optimal-maintenance-1.3.025.050.1-002.pddl,TIMEOUT:1801.16:-1.0:1800.0:-1
ipc-2014-optimal-maintenance-1.3.025.100.1-000.pddl,TIMEOUT:1801.15:-1.0:1800.0:-1
ipc-2014-optimal-maintenance-1.3.025.100.1-001.pddl,TIMEOUT:1801.15:-1.0:1800.0:-1
ipc-2014-optimal-maintenance-1.3.025.100.1-002.pddl,TIMEOUT:1801.09:-1.0:1800.0:-1
ipc-2014-optimal-maintenance-1.3.025.100.2-000.pddl,TIMEOUT:1801.1:-1.0:1800.0:-1
ipc-2014-optimal-maintenance-1.3.025.100.2-001.pddl,TIMEOUT:1801.13:-1.0:1800.0:-1
ipc-2014-optimal-maintenance-1.3.025.100.2-002.pddl,TIMEOUT:1801.1:-1.0:1800.0:-1
ipc-2014-optimal-openstacks-p20_1.pddl,SAT:6.21705:3.0:1800.0:-1
ipc-2014-optimal-openstacks-p20_2.pddl,SAT:10.3814:4.0:1800.0:-1
ipc-2014-optimal-openstacks-p20_3.pddl,SAT:17.1174:6.0:1800.0:-1
ipc-2014-optimal-openstacks-p25_1.pddl,SAT:22.9605:4.0:1800.0:-1
ipc-2014-optimal-openstacks-p25_3.pddl,TIMEOUT:1801.04:-1.0:1800.0:-1
ipc-2014-optimal-openstacks-p30_1.pddl,SAT:38.4871:4.0:1800.0:-1
ipc-2014-optimal-openstacks-p30_2.pddl,SAT:46.7269:4.0:1800.0:-1
ipc-2014-optimal-openstacks-p30_3.pddl,TIMEOUT:1801.07:-1.0:1800.0:-1
ipc-2014-optimal-openstacks-p35_1.pddl,SAT:63.6173:4.0:1800.0:-1
ipc-2014-optimal-openstacks-p35_2.pddl,SAT:79.211:5.0:1800.0:-1
ipc-2014-optimal-openstacks-p35_3.pddl,TIMEOUT:1801.03:-1.0:1800.0:-1
ipc-2014-optimal-openstacks-p40_1.pddl,SAT:149.691:3.0:1800.0:-1
ipc-2014-optimal-openstacks-p40_2.pddl,SAT:180.978:4.0:1800.0:-1
ipc-2014-optimal-openstacks-p40_3.pddl,TIMEOUT:1801.08:-1.0:1800.0:-1
ipc-2014-optimal-openstacks-p45_1.pddl,SAT:260.228:4.0:1800.0:-1
ipc-2014-optimal-openstacks-p45_2.pddl,TIMEOUT:1801.03:-1.0:1800.0:-1
ipc-2014-optimal-openstacks-p45_3.pddl,TIMEOUT:1801.07:-1.0:1800.0:-1
ipc-2014-optimal-openstacks-p50_1.pddl,TIMEOUT:1801.06:-1.0:1800.0:-1
ipc-2014-optimal-openstacks-p50_2.pddl,TIMEOUT:1801.01:-1.0:1800.0:-1
ipc-2014-optimal-openstacks-p50_3.pddl,TIMEOUT:1801.07:-1.0:1800.0:-1
ipc-2014-optimal-parking-12_7-01.pddl,TIMEOUT:1801.06:-1.0:1800.0:-1
ipc-2014-optimal-parking-12_7-02.pddl,SAT:825.62:18.0:1800.0:-1
ipc-2014-optimal-parking-12_7-03.pddl,SAT:821.712:17.0:1800.0:-1
ipc-2014-optimal-parking-12_7-04.pddl,SAT:839.098:19.0:1800.0:-1
ipc-2014-optimal-parking-14_8-01.pddl,CRASHED:1252.37:1000000000.0:1800.0:-1
ipc-2014-optimal-parking-14_8-02.pddl,CRASHED:1217.48:1000000000.0:1800.0:-1
ipc-2014-optimal-parking-14_8-03.pddl,CRASHED:1260.81:1000000000.0:1800.0:-1
ipc-2014-optimal-parking-14_8-04.pddl,CRASHED:1240.96:1000000000.0:1800.0:-1
ipc-2014-optimal-parking-16_9-01.pddl,CRASHED:1297.14:1000000000.0:1800.0:-1
ipc-2014-optimal-parking-16_9-02.pddl,CRASHED:1280.23:1000000000.0:1800.0:-1
ipc-2014-optimal-parking-16_9-03.pddl,CRASHED:1457.37:1000000000.0:1800.0:-1
ipc-2014-optimal-parking-16_9-04.pddl,CRASHED:1237.06:1000000000.0:1800.0:-1
ipc-2014-optimal-parking-18_10-01.pddl,CRASHED:1179.31:1000000000.0:1800.0:-1
ipc-2014-optimal-parking-18_10-02.pddl,CRASHED:1203.94:1000000000.0:1800.0:-1
ipc-2014-optimal-parking-18_10-03.pddl,CRASHED:1199.99:1000000000.0:1800.0:-1
ipc-2014-optimal-parking-18_10-04.pddl,CRASHED:1252.06:1000000000.0:1800.0:-1
ipc-2014-optimal-parking-20_11-01.pddl,TIMEOUT:1801.1:-1.0:1800.0:-1
ipc-2014-optimal-parking-20_11-02.pddl,CRASHED:1650.38:1000000000.0:1800.0:-1
ipc-2014-optimal-parking-20_11-03.pddl,CRASHED:1556.47:1000000000.0:1800.0:-1
ipc-2014-optimal-parking-20_11-04.pddl,CRASHED:1647.49:1000000000.0:1800.0:-1
ipc-2014-optimal-tetris-01-10.pddl,TIMEOUT:1801.0:-1.0:1800.0:-1
ipc-2014-optimal-tetris-01-04.pddl,CRASHED:25.9221:1000000000.0:1800.0:-1
ipc-2014-optimal-tetris-01-06.pddl,TIMEOUT:1801.07:-1.0:1800.0:-1
ipc-2014-optimal-tetris-01-08.pddl,TIMEOUT:1801.07:-1.0:1800.0:-1
ipc-2014-optimal-tetris-02-10.pddl,TIMEOUT:1801.06:-1.0:1800.0:-1
ipc-2014-optimal-tetris-02-04.pddl,SAT:3.86441:10.0:1800.0:-1
ipc-2014-optimal-tetris-02-06.pddl,TIMEOUT:1801.01:-1.0:1800.0:-1
ipc-2014-optimal-tetris-02-08.pddl,TIMEOUT:1801.08:-1.0:1800.0:-1
ipc-2014-optimal-tetris-03-10.pddl,TIMEOUT:1801.07:-1.0:1800.0:-1
ipc-2014-optimal-tetris-03-04.pddl,SAT:10.1135:11.0:1800.0:-1
ipc-2014-optimal-tetris-03-06.pddl,SAT:1091.86:21.0:1800.0:-1
ipc-2014-optimal-tetris-03-08.pddl,TIMEOUT:1801.05:-1.0:1800.0:-1
ipc-2014-optimal-tetris-04-10.pddl,TIMEOUT:1801.01:-1.0:1800.0:-1
ipc-2014-optimal-tetris-04-04.pddl,CRASHED:7.85781:1000000000.0:1800.0:-1
ipc-2014-optimal-tetris-04-06.pddl,TIMEOUT:1801.08:-1.0:1800.0:-1
ipc-2014-optimal-tetris-04-08.pddl,TIMEOUT:1801.11:-1.0:1800.0:-1
ipc-2014-optimal-tetris-05-10.pddl,CRASHED:1600.08:1000000000.0:1800.0:-1
ipc-2014-optimal-tetris-05-04.pddl,CRASHED:11.0513:1000000000.0:1800.0:-1
ipc-2014-optimal-tetris-05-06.pddl,CRASHED:119.982:1000000000.0:1800.0:-1
ipc-2014-optimal-tetris-05-08.pddl,CRASHED:86.7458:1000000000.0:1800.0:-1
ipc-2014-optimal-tidybot-01.pddl,CRASHED:968.591:1000000000.0:1800.0:-1
ipc-2014-optimal-tidybot-02.pddl,CRASHED:854.392:1000000000.0:1800.0:-1
ipc-2014-optimal-tidybot-03.pddl,CRASHED:126.739:1000000000.0:1800.0:-1
ipc-2014-optimal-tidybot-04.pddl,SAT:906.374:24.0:1800.0:-1
ipc-2014-optimal-tidybot-05.pddl,CRASHED:782.25:1000000000.0:1800.0:-1
ipc-2014-optimal-tidybot-06.pddl,TIMEOUT:1801.07:-1.0:1800.0:-1
ipc-2014-optimal-tidybot-07.pddl,CRASHED:1605.3:1000000000.0:1800.0:-1
ipc-2014-optimal-tidybot-08.pddl,CRASHED:753.756:1000000000.0:1800.0:-1
ipc-2014-optimal-tidybot-09.pddl,CRASHED:719.986:1000000000.0:1800.0:-1
ipc-2014-optimal-tidybot-10.pddl,CRASHED:223.058:1000000000.0:1800.0:-1
ipc-2014-optimal-tidybot-11.pddl,SAT:826.701:29.0:1800.0:-1
ipc-2014-optimal-tidybot-12.pddl,CRASHED:903.234:1000000000.0:1800.0:-1
ipc-2014-optimal-tidybot-13.pddl,SAT:861.917:30.0:1800.0:-1
ipc-2014-optimal-tidybot-14.pddl,CRASHED:650.801:1000000000.0:1800.0:-1
ipc-2014-optimal-tidybot-15.pddl,TIMEOUT:1801.06:-1.0:1800.0:-1
ipc-2014-optimal-tidybot-16.pddl,CRASHED:944.068:1000000000.0:1800.0:-1
ipc-2014-optimal-tidybot-17.pddl,CRASHED:155.054:1000000000.0:1800.0:-1
ipc-2014-optimal-tidybot-18.pddl,CRASHED:1519.82:1000000000.0:1800.0:-1
ipc-2014-optimal-tidybot-19.pddl,CRASHED:654.278:1000000000.0:1800.0:-1
ipc-2014-optimal-tidybot-20.pddl,TIMEOUT:1801.01:-1.0:1800.0:-1
ipc-2014-optimal-transport-01.pddl,SAT:5.71213:148.0:1800.0:-1
ipc-2014-optimal-transport-02.pddl,SAT:403.976:191.0:1800.0:-1
ipc-2014-optimal-transport-03.pddl,TIMEOUT:1801.09:-1.0:1800.0:-1
ipc-2014-optimal-transport-04.pddl,TIMEOUT:1801.0:-1.0:1800.0:-1
ipc-2014-optimal-transport-05.pddl,TIMEOUT:1801.03:-1.0:1800.0:-1
ipc-2014-optimal-transport-06.pddl,TIMEOUT:1801.03:-1.0:1800.0:-1
ipc-2014-optimal-transport-07.pddl,SAT:793.213:967.0:1800.0:-1
ipc-2014-optimal-transport-08.pddl,SAT:1438.11:1173.0:1800.0:-1
ipc-2014-optimal-transport-09.pddl,CRASHED:1531.42:1000000000.0:1800.0:-1
ipc-2014-optimal-transport-10.pddl,CRASHED:1513.45:1000000000.0:1800.0:-1
ipc-2014-optimal-transport-11.pddl,CRASHED:1241.12:1000000000.0:1800.0:-1
ipc-2014-optimal-transport-12.pddl,TIMEOUT:1801.1:-1.0:1800.0:-1
ipc-2014-optimal-transport-13.pddl,SAT:1332.23:594.0:1800.0:-1
ipc-2014-optimal-transport-14.pddl,SAT:1267.72:526.0:1800.0:-1
ipc-2014-optimal-transport-15.pddl,CRASHED:1567.15:1000000000.0:1800.0:-1
ipc-2014-optimal-transport-16.pddl,CRASHED:1517.46:1000000000.0:1800.0:-1
ipc-2014-optimal-transport-17.pddl,CRASHED:1553.79:1000000000.0:1800.0:-1
ipc-2014-optimal-transport-18.pddl,CRASHED:1668.99:1000000000.0:1800.0:-1
ipc-2014-optimal-transport-19.pddl,TIMEOUT:1801.04:-1.0:1800.0:-1
ipc-2014-optimal-transport-20.pddl,TIMEOUT:1801.01:-1.0:1800.0:-1
ipc-2014-optimal-visitall-05-10.pddl,TIMEOUT:1801.07:-1.0:1800.0:-1
ipc-2014-optimal-visitall-05-05.pddl,SAT:1.71774:21.0:1800.0:-1
ipc-2014-optimal-visitall-05-06.pddl,SAT:2.54661:25.0:1800.0:-1
ipc-2014-optimal-visitall-05-07.pddl,SAT:19.3021:34.0:1800.0:-1
ipc-2014-optimal-visitall-05-08.pddl,TIMEOUT:1801.05:-1.0:1800.0:-1
ipc-2014-optimal-visitall-05-09.pddl,CRASHED:16.6685:1000000000.0:1800.0:-1
ipc-2014-optimal-visitall-01-10.pddl,TIMEOUT:1801.09:-1.0:1800.0:-1
ipc-2014-optimal-visitall-01-11.pddl,TIMEOUT:1801.06:-1.0:1800.0:-1
ipc-2014-optimal-visitall-01-12.pddl,TIMEOUT:1801.0:-1.0:1800.0:-1
ipc-2014-optimal-visitall-01-13.pddl,TIMEOUT:1801.04:-1.0:1800.0:-1
ipc-2014-optimal-visitall-01-14.pddl,CRASHED:195.667:1000000000.0:1800.0:-1
ipc-2014-optimal-visitall-01-15.pddl,TIMEOUT:1801.0:-1.0:1800.0:-1
ipc-2014-optimal-visitall-01-16.pddl,CRASHED:316.662:1000000000.0:1800.0:-1
ipc-2014-optimal-visitall-01-17.pddl,TIMEOUT:1801.1:-1.0:1800.0:-1
ipc-2014-optimal-visitall-01-18.pddl,CRASHED:390.794:1000000000.0:1800.0:-1
ipc-2014-optimal-visitall-01-05.pddl,SAT:8.95364:24.0:1800.0:-1
ipc-2014-optimal-visitall-01-06.pddl,TIMEOUT:1801.03:-1.0:1800.0:-1
ipc-2014-optimal-visitall-01-07.pddl,TIMEOUT:1801.06:-1.0:1800.0:-1
ipc-2014-optimal-visitall-01-08.pddl,CRASHED:29.3885:1000000000.0:1800.0:-1
ipc-2014-optimal-visitall-01-09.pddl,CRASHED:123.478:1000000000.0:1800.0:-1
