instance,ipc-2014-agile-yahsp3-mt
ipc-2014-agile-barman-p1-11-4-15.pddl,CRASHED:0.160433:1000000000.0:300.0:-1
ipc-2014-agile-barman-p1-11-5-15.pddl,CRASHED:0.180963:1000000000.0:300.0:-1
ipc-2014-agile-barman-p1-11-5-16.pddl,CRASHED:0.225825:1000000000.0:300.0:-1
ipc-2014-agile-barman-p2-10-4-13.pddl,CRASHED:0.129764:1000000000.0:300.0:-1
ipc-2014-agile-barman-p2-11-4-15.pddl,CRASHED:0.157899:1000000000.0:300.0:-1
ipc-2014-agile-barman-p2-11-5-15.pddl,CRASHED:0.18887:1000000000.0:300.0:-1
ipc-2014-agile-barman-p2-11-5-16.pddl,CRASHED:0.182649:1000000000.0:300.0:-1
ipc-2014-agile-barman-p2-11-5-17.pddl,CRASHED:0.197199:1000000000.0:300.0:-1
ipc-2014-agile-barman-p3-10-4-13.pddl,CRASHED:0.134904:1000000000.0:300.0:-1
ipc-2014-agile-barman-p3-11-4-15.pddl,CRASHED:0.160568:1000000000.0:300.0:-1
ipc-2014-agile-barman-p3-11-5-15.pddl,CRASHED:0.171662:1000000000.0:300.0:-1
ipc-2014-agile-barman-p3-11-5-16.pddl,CRASHED:0.222355:1000000000.0:300.0:-1
ipc-2014-agile-barman-p3-11-5-17.pddl,CRASHED:0.217346:1000000000.0:300.0:-1
ipc-2014-agile-barman-p4-11-4-14.pddl,CRASHED:0.165212:1000000000.0:300.0:-1
ipc-2014-agile-barman-p4-11-4-15.pddl,CRASHED:0.152569:1000000000.0:300.0:-1
ipc-2014-agile-barman-p4-11-5-15.pddl,CRASHED:0.188614:1000000000.0:300.0:-1
ipc-2014-agile-barman-p5-10-4-13.pddl,CRASHED:0.133935:1000000000.0:300.0:-1
ipc-2014-agile-barman-p5-11-4-15.pddl,CRASHED:0.166977:1000000000.0:300.0:-1
ipc-2014-agile-barman-p5-11-5-15.pddl,CRASHED:0.191346:1000000000.0:300.0:-1
ipc-2014-agile-barman-p5-11-5-16.pddl,CRASHED:0.191685:1000000000.0:300.0:-1
ipc-2014-agile-cavediving-01_easy.pddl,CRASHED:0.003217:1000000000.0:300.0:-1
ipc-2014-agile-cavediving-01.pddl,CRASHED:0.003153:1000000000.0:300.0:-1
ipc-2014-agile-cavediving-02_easy.pddl,CRASHED:0.003242:1000000000.0:300.0:-1
ipc-2014-agile-cavediving-03_easy.pddl,CRASHED:0.003196:1000000000.0:300.0:-1
ipc-2014-agile-cavediving-04_easy.pddl,CRASHED:0.003177:1000000000.0:300.0:-1
ipc-2014-agile-cavediving-05A_easy.pddl,CRASHED:0.003303:1000000000.0:300.0:-1
ipc-2014-agile-cavediving-06A_easy.pddl,CRASHED:0.003351:1000000000.0:300.0:-1
ipc-2014-agile-cavediving-07_easy.pddl,CRASHED:0.003174:1000000000.0:300.0:-1
ipc-2014-agile-cavediving-08_easy.pddl,CRASHED:0.003236:1000000000.0:300.0:-1
ipc-2014-agile-cavediving-09_easy.pddl,CRASHED:0.003264:1000000000.0:300.0:-1
ipc-2014-agile-cavediving-10_easy.pddl,CRASHED:0.002877:1000000000.0:300.0:-1
ipc-2014-agile-cavediving-11_easy.pddl,CRASHED:0.002805:1000000000.0:300.0:-1
ipc-2014-agile-cavediving-12_easy.pddl,CRASHED:0.002752:1000000000.0:300.0:-1
ipc-2014-agile-cavediving-13_easy.pddl,CRASHED:0.00316:1000000000.0:300.0:-1
ipc-2014-agile-cavediving-14_easy.pddl,CRASHED:0.003226:1000000000.0:300.0:-1
ipc-2014-agile-cavediving-15_easy.pddl,CRASHED:0.003195:1000000000.0:300.0:-1
ipc-2014-agile-cavediving-16_easy.pddl,CRASHED:0.003264:1000000000.0:300.0:-1
ipc-2014-agile-cavediving-18A_easy.pddl,CRASHED:0.003121:1000000000.0:300.0:-1
ipc-2014-agile-cavediving-18_easy.pddl,CRASHED:0.003307:1000000000.0:300.0:-1
ipc-2014-agile-cavediving-20A_easy.pddl,CRASHED:0.003386:1000000000.0:300.0:-1
ipc-2014-agile-childsnack-05-2.pddl,CRASHED:0.043527:1000000000.0:300.0:-1
ipc-2014-agile-childsnack-05.pddl,CRASHED:0.043972:1000000000.0:300.0:-1
ipc-2014-agile-childsnack-06-2.pddl,CRASHED:0.054257:1000000000.0:300.0:-1
ipc-2014-agile-childsnack-07-2.pddl,CRASHED:0.061803:1000000000.0:300.0:-1
ipc-2014-agile-childsnack-08-2.pddl,CRASHED:0.076808:1000000000.0:300.0:-1
ipc-2014-agile-childsnack-08.pddl,CRASHED:0.073935:1000000000.0:300.0:-1
ipc-2014-agile-childsnack-09-2.pddl,CRASHED:0.097841:1000000000.0:300.0:-1
ipc-2014-agile-childsnack-09.pddl,CRASHED:0.103896:1000000000.0:300.0:-1
ipc-2014-agile-childsnack-10-2.pddl,CRASHED:0.207344:1000000000.0:300.0:-1
ipc-2014-agile-childsnack-10.pddl,CRASHED:0.206847:1000000000.0:300.0:-1
ipc-2014-agile-childsnack-11-2.pddl,CRASHED:0.257077:1000000000.0:300.0:-1
ipc-2014-agile-childsnack-11.pddl,CRASHED:0.232183:1000000000.0:300.0:-1
ipc-2014-agile-childsnack-12.pddl,CRASHED:0.358439:1000000000.0:300.0:-1
ipc-2014-agile-childsnack-13-2.pddl,CRASHED:0.424579:1000000000.0:300.0:-1
ipc-2014-agile-childsnack-13.pddl,CRASHED:0.370481:1000000000.0:300.0:-1
ipc-2014-agile-childsnack-14.pddl,CRASHED:0.45239:1000000000.0:300.0:-1
ipc-2014-agile-childsnack-15-2.pddl,CRASHED:0.541391:1000000000.0:300.0:-1
ipc-2014-agile-childsnack-16-2.pddl,CRASHED:0.854505:1000000000.0:300.0:-1
ipc-2014-agile-childsnack-19-2.pddl,CRASHED:1.60133:1000000000.0:300.0:-1
ipc-2014-agile-childsnack-19.pddl,CRASHED:1.9626:1000000000.0:300.0:-1
ipc-2014-agile-citycar-p3-2-2-0-1.pddl,CRASHED:0.003416:1000000000.0:300.0:-1
ipc-2014-agile-citycar-p3-3-2-0-1.pddl,CRASHED:0.003154:1000000000.0:300.0:-1
ipc-2014-agile-citycar-p3-4-2-0-1.pddl,CRASHED:0.003432:1000000000.0:300.0:-1
ipc-2014-agile-citycar-p3-5-2-0-1.pddl,CRASHED:0.003249:1000000000.0:300.0:-1
ipc-2014-agile-citycar-p3-5-2-0-2.pddl,CRASHED:0.003211:1000000000.0:300.0:-1
ipc-2014-agile-citycar-p4-2-2-0-1.pddl,CRASHED:0.00328:1000000000.0:300.0:-1
ipc-2014-agile-citycar-p4-2-3-0-1.pddl,CRASHED:0.003466:1000000000.0:300.0:-1
ipc-2014-agile-citycar-p4-2-3-0-2.pddl,CRASHED:0.003204:1000000000.0:300.0:-1
ipc-2014-agile-citycar-p4-3-2-0-1.pddl,CRASHED:0.003169:1000000000.0:300.0:-1
ipc-2014-agile-citycar-p4-3-2-0-2.pddl,CRASHED:0.003196:1000000000.0:300.0:-1
ipc-2014-agile-citycar-p4-3-3-0-1.pddl,CRASHED:0.0033:1000000000.0:300.0:-1
ipc-2014-agile-citycar-p4-3-3-0-2.pddl,CRASHED:0.003623:1000000000.0:300.0:-1
ipc-2014-agile-citycar-p4-4-2-0-1.pddl,CRASHED:0.003128:1000000000.0:300.0:-1
ipc-2014-agile-citycar-p4-4-2-0-2.pddl,CRASHED:0.003141:1000000000.0:300.0:-1
ipc-2014-agile-citycar-p4-4-3-0-1.pddl,CRASHED:0.003108:1000000000.0:300.0:-1
ipc-2014-agile-citycar-p4-4-3-0-2.pddl,CRASHED:0.002986:1000000000.0:300.0:-1
ipc-2014-agile-citycar-p4-5-2-0-1.pddl,CRASHED:0.003154:1000000000.0:300.0:-1
ipc-2014-agile-citycar-p4-5-2-0-2.pddl,CRASHED:0.003088:1000000000.0:300.0:-1
ipc-2014-agile-citycar-p4-5-3-0-1.pddl,CRASHED:0.003237:1000000000.0:300.0:-1
ipc-2014-agile-citycar-p4-5-3-0-2.pddl,CRASHED:0.003213:1000000000.0:300.0:-1
ipc-2014-agile-floortile-p01-4-3-2.pddl,CRASHED:0.019896:1000000000.0:300.0:-1
ipc-2014-agile-floortile-p01-5-4-2.pddl,CRASHED:0.031107:1000000000.0:300.0:-1
ipc-2014-agile-floortile-p01-5-5-2.pddl,CRASHED:0.043086:1000000000.0:300.0:-1
ipc-2014-agile-floortile-p01-6-4-2.pddl,CRASHED:0.041605:1000000000.0:300.0:-1
ipc-2014-agile-floortile-p01-6-5-2.pddl,CRASHED:0.052826:1000000000.0:300.0:-1
ipc-2014-agile-floortile-p01-6-5-3.pddl,CRASHED:0.06745:1000000000.0:300.0:-1
ipc-2014-agile-floortile-p02-5-4-2.pddl,CRASHED:0.03577:1000000000.0:300.0:-1
ipc-2014-agile-floortile-p02-6-4-2.pddl,CRASHED:0.042424:1000000000.0:300.0:-1
ipc-2014-agile-floortile-p02-6-5-2.pddl,CRASHED:0.057572:1000000000.0:300.0:-1
ipc-2014-agile-floortile-p02-6-5-3.pddl,CRASHED:0.07203:1000000000.0:300.0:-1
ipc-2014-agile-floortile-p03-6-4-2.pddl,CRASHED:0.042018:1000000000.0:300.0:-1
ipc-2014-agile-floortile-p03-6-5-2.pddl,CRASHED:0.053681:1000000000.0:300.0:-1
ipc-2014-agile-floortile-p03-6-5-3.pddl,CRASHED:0.066797:1000000000.0:300.0:-1
ipc-2014-agile-floortile-p04-5-4-2.pddl,CRASHED:0.034665:1000000000.0:300.0:-1
ipc-2014-agile-floortile-p04-5-5-2.pddl,CRASHED:0.046405:1000000000.0:300.0:-1
ipc-2014-agile-floortile-p04-6-5-2.pddl,CRASHED:0.054791:1000000000.0:300.0:-1
ipc-2014-agile-floortile-p04-6-5-3.pddl,CRASHED:0.06833:1000000000.0:300.0:-1
ipc-2014-agile-floortile-p05-4-3-2.pddl,CRASHED:0.022098:1000000000.0:300.0:-1
ipc-2014-agile-floortile-p05-6-5-2.pddl,CRASHED:0.056207:1000000000.0:300.0:-1
ipc-2014-agile-floortile-p05-6-5-3.pddl,CRASHED:0.065874:1000000000.0:300.0:-1
ipc-2014-agile-ged-d-10-1.pddl,CRASHED:0.433806:1000000000.0:300.0:-1
ipc-2014-agile-ged-d-10-2.pddl,CRASHED:0.450068:1000000000.0:300.0:-1
ipc-2014-agile-ged-d-10-3.pddl,CRASHED:0.665986:1000000000.0:300.0:-1
ipc-2014-agile-ged-d-10-4.pddl,CRASHED:0.465877:1000000000.0:300.0:-1
ipc-2014-agile-ged-d-10-5.pddl,CRASHED:1.26787:1000000000.0:300.0:-1
ipc-2014-agile-ged-d-10-6.pddl,CRASHED:1.08713:1000000000.0:300.0:-1
ipc-2014-agile-ged-d-11-1.pddl,CRASHED:0.582374:1000000000.0:300.0:-1
ipc-2014-agile-ged-d-11-3.pddl,CRASHED:0.584881:1000000000.0:300.0:-1
ipc-2014-agile-ged-d-11-5.pddl,CRASHED:0.968177:1000000000.0:300.0:-1
ipc-2014-agile-ged-d-11-6.pddl,CRASHED:0.760576:1000000000.0:300.0:-1
ipc-2014-agile-ged-d-12-11.pddl,CRASHED:0.83332:1000000000.0:300.0:-1
ipc-2014-agile-ged-d-12-2.pddl,CRASHED:1.52399:1000000000.0:300.0:-1
ipc-2014-agile-ged-d-12-3.pddl,CRASHED:1.75945:1000000000.0:300.0:-1
ipc-2014-agile-ged-d-12-5.pddl,CRASHED:2.28181:1000000000.0:300.0:-1
ipc-2014-agile-ged-d-12-6.pddl,CRASHED:1.52655:1000000000.0:300.0:-1
ipc-2014-agile-ged-d-12-7.pddl,CRASHED:1.6636:1000000000.0:300.0:-1
ipc-2014-agile-ged-d-12-8.pddl,CRASHED:2.80496:1000000000.0:300.0:-1
ipc-2014-agile-ged-d-12-9.pddl,CRASHED:2.66987:1000000000.0:300.0:-1
ipc-2014-agile-ged-d-3-6.pddl,CRASHED:0.624926:1000000000.0:300.0:-1
ipc-2014-agile-ged-d-9-5.pddl,CRASHED:0.700905:1000000000.0:300.0:-1
ipc-2014-agile-hiking-3-4-3.pddl,SAT:0.038604:35.0:300.0:-1
ipc-2014-agile-hiking-3-4-4.pddl,SAT:0.115796:173.0:300.0:-1
ipc-2014-agile-hiking-3-4-5.pddl,CRASHED:1.24128:676.0:300.0:-1
ipc-2014-agile-hiking-3-4-6.pddl,CRASHED:2.40119:1000000000.0:300.0:-1
ipc-2014-agile-hiking-3-4-7.pddl,CRASHED:4.47694:1000000000.0:300.0:-1
ipc-2014-agile-hiking-3-4-8.pddl,CRASHED:7.71202:1000000000.0:300.0:-1
ipc-2014-agile-hiking-3-4-9.pddl,CRASHED:11.7098:1000000000.0:300.0:-1
ipc-2014-agile-hiking-4-5-3.pddl,SAT:0.110042:24.0:300.0:-1
ipc-2014-agile-hiking-4-5-4.pddl,SAT:0.255931:116.0:300.0:-1
ipc-2014-agile-hiking-4-5-5.pddl,CRASHED:1.47348:583.0:300.0:-1
ipc-2014-agile-hiking-4-5-6.pddl,CRASHED:11.7037:1000000000.0:300.0:-1
ipc-2014-agile-hiking-4-5-7.pddl,CRASHED:21.2484:1000000000.0:300.0:-1
ipc-2014-agile-hiking-4-5-8.pddl,CRASHED:34.0834:1000000000.0:300.0:-1
ipc-2014-agile-hiking-4-5-9.pddl,CRASHED:49.5049:1000000000.0:300.0:-1
ipc-2014-agile-hiking-5-6-3.pddl,SAT:0.326244:59.0:300.0:-1
ipc-2014-agile-hiking-5-6-4.pddl,SAT:0.700566:144.0:300.0:-1
ipc-2014-agile-hiking-5-6-5.pddl,CRASHED:5.78822:449.0:300.0:-1
ipc-2014-agile-hiking-5-6-6.pddl,CRASHED:25.1255:707.0:300.0:-1
ipc-2014-agile-hiking-5-6-7.pddl,CRASHED:59.3855:1000000000.0:300.0:-1
ipc-2014-agile-hiking-5-6-8.pddl,CRASHED:86.0154:1000000000.0:300.0:-1
ipc-2014-agile-maintenance-1.3.060.180.5-000.pddl,CRASHED:0.003075:1000000000.0:300.0:-1
ipc-2014-agile-maintenance-1.3.060.180.5-001.pddl,CRASHED:0.003057:1000000000.0:300.0:-1
ipc-2014-agile-maintenance-1.3.060.180.5-002.pddl,CRASHED:0.003826:1000000000.0:300.0:-1
ipc-2014-agile-maintenance-1.3.100.300.5-000.pddl,CRASHED:0.003051:1000000000.0:300.0:-1
ipc-2014-agile-maintenance-1.3.100.300.5-001.pddl,CRASHED:0.00307:1000000000.0:300.0:-1
ipc-2014-agile-maintenance-1.3.100.300.7-000.pddl,CRASHED:0.002809:1000000000.0:300.0:-1
ipc-2014-agile-maintenance-1.3.100.300.7-001.pddl,CRASHED:0.002834:1000000000.0:300.0:-1
ipc-2014-agile-maintenance-1.3.100.300.7-002.pddl,CRASHED:0.002792:1000000000.0:300.0:-1
ipc-2014-agile-maintenance-1.3.150.500.6-001.pddl,CRASHED:0.002947:1000000000.0:300.0:-1
ipc-2014-agile-maintenance-1.3.200.500.5-001.pddl,CRASHED:0.002944:1000000000.0:300.0:-1
ipc-2014-agile-maintenance-1.3.200.500.5-002.pddl,CRASHED:0.00295:1000000000.0:300.0:-1
ipc-2014-agile-maintenance-1.3.200.700.7-000.pddl,CRASHED:0.002962:1000000000.0:300.0:-1
ipc-2014-agile-maintenance-1.3.200.700.7-001.pddl,CRASHED:0.003202:1000000000.0:300.0:-1
ipc-2014-agile-maintenance-1.3.200.700.7-002.pddl,CRASHED:0.00298:1000000000.0:300.0:-1
ipc-2014-agile-maintenance-1.3.200.900.5-000.pddl,CRASHED:0.002776:1000000000.0:300.0:-1
ipc-2014-agile-maintenance-1.3.200.900.5-001.pddl,CRASHED:0.003001:1000000000.0:300.0:-1
ipc-2014-agile-maintenance-1.3.200.900.5-002.pddl,CRASHED:0.003046:1000000000.0:300.0:-1
ipc-2014-agile-maintenance-1.3.200.900.8-000.pddl,CRASHED:0.002866:1000000000.0:300.0:-1
ipc-2014-agile-maintenance-1.3.200.900.8-001.pddl,CRASHED:0.002943:1000000000.0:300.0:-1
ipc-2014-agile-maintenance-1.3.200.900.8-002.pddl,CRASHED:0.002944:1000000000.0:300.0:-1
ipc-2014-agile-openstacks-p130_2.pddl,CRASHED:0.95713:1000000000.0:300.0:-1
ipc-2014-agile-openstacks-p130_3.pddl,CRASHED:1.2276:1000000000.0:300.0:-1
ipc-2014-agile-openstacks-p150_2.pddl,CRASHED:1.45295:1000000000.0:300.0:-1
ipc-2014-agile-openstacks-p150_3.pddl,CRASHED:1.91717:1000000000.0:300.0:-1
ipc-2014-agile-openstacks-p170_1.pddl,CRASHED:2.13871:1000000000.0:300.0:-1
ipc-2014-agile-openstacks-p170_2.pddl,CRASHED:2.37829:1000000000.0:300.0:-1
ipc-2014-agile-openstacks-p170_3.pddl,CRASHED:2.71256:1000000000.0:300.0:-1
ipc-2014-agile-openstacks-p190_1.pddl,CRASHED:3.31662:1000000000.0:300.0:-1
ipc-2014-agile-openstacks-p190_2.pddl,CRASHED:3.62479:1000000000.0:300.0:-1
ipc-2014-agile-openstacks-p190_3.pddl,CRASHED:4.04662:1000000000.0:300.0:-1
ipc-2014-agile-openstacks-p210_1.pddl,CRASHED:4.51911:1000000000.0:300.0:-1
ipc-2014-agile-openstacks-p210_2.pddl,CRASHED:4.67446:1000000000.0:300.0:-1
ipc-2014-agile-openstacks-p230_1.pddl,CRASHED:6.28942:1000000000.0:300.0:-1
ipc-2014-agile-openstacks-p230_2.pddl,CRASHED:6.18683:1000000000.0:300.0:-1
ipc-2014-agile-openstacks-p250_1.pddl,CRASHED:8.41792:1000000000.0:300.0:-1
ipc-2014-agile-openstacks-p250_2.pddl,CRASHED:8.01413:1000000000.0:300.0:-1
ipc-2014-agile-openstacks-p270_1.pddl,CRASHED:9.33043:1000000000.0:300.0:-1
ipc-2014-agile-openstacks-p270_2.pddl,CRASHED:9.91264:1000000000.0:300.0:-1
ipc-2014-agile-openstacks-p290_1.pddl,CRASHED:12.2725:1000000000.0:300.0:-1
ipc-2014-agile-openstacks-p290_2.pddl,CRASHED:13.2883:1000000000.0:300.0:-1
ipc-2014-agile-parking-28_2.pddl,CRASHED:9.33354:1000000000.0:300.0:-1
ipc-2014-agile-parking-28_3.pddl,CRASHED:9.54198:1000000000.0:300.0:-1
ipc-2014-agile-parking-30_1.pddl,CRASHED:12.4095:1000000000.0:300.0:-1
ipc-2014-agile-parking-30_2.pddl,CRASHED:11.7274:1000000000.0:300.0:-1
ipc-2014-agile-parking-30_3.pddl,CRASHED:10.7586:1000000000.0:300.0:-1
ipc-2014-agile-parking-32_1.pddl,CRASHED:13.7496:1000000000.0:300.0:-1
ipc-2014-agile-parking-32_2.pddl,CRASHED:19.34:1000000000.0:300.0:-1
ipc-2014-agile-parking-32_3.pddl,CRASHED:20.1702:1000000000.0:300.0:-1
ipc-2014-agile-parking-34_1.pddl,CRASHED:24.9192:1000000000.0:300.0:-1
ipc-2014-agile-parking-34_2.pddl,CRASHED:24.5773:1000000000.0:300.0:-1
ipc-2014-agile-parking-34_3.pddl,CRASHED:19.164:1000000000.0:300.0:-1
ipc-2014-agile-parking-36_1.pddl,CRASHED:26.3539:1000000000.0:300.0:-1
ipc-2014-agile-parking-36_2.pddl,CRASHED:29.02:1000000000.0:300.0:-1
ipc-2014-agile-parking-36_3.pddl,CRASHED:28.3097:1000000000.0:300.0:-1
ipc-2014-agile-parking-38_1.pddl,CRASHED:35.1572:1000000000.0:300.0:-1
ipc-2014-agile-parking-38_2.pddl,CRASHED:32.5121:1000000000.0:300.0:-1
ipc-2014-agile-parking-38_3.pddl,CRASHED:31.3314:1000000000.0:300.0:-1
ipc-2014-agile-parking-40_1.pddl,CRASHED:35.959:1000000000.0:300.0:-1
ipc-2014-agile-parking-40_2.pddl,CRASHED:39.7357:1000000000.0:300.0:-1
ipc-2014-agile-parking-40_3.pddl,CRASHED:43.2324:1000000000.0:300.0:-1
ipc-2014-agile-tetris-020.pddl,CRASHED:7.47668:66.0:300.0:-1
ipc-2014-agile-tetris-021.pddl,CRASHED:17.4718:1000000000.0:300.0:-1
ipc-2014-agile-tetris-022.pddl,CRASHED:16.0059:1000000000.0:300.0:-1
ipc-2014-agile-tetris-023.pddl,CRASHED:16.1069:1000000000.0:300.0:-1
ipc-2014-agile-tetris-024.pddl,CRASHED:17.6129:1000000000.0:300.0:-1
ipc-2014-agile-tetris-025.pddl,CRASHED:16.2056:1000000000.0:300.0:-1
ipc-2014-agile-tetris-026.pddl,CRASHED:26.2043:1000000000.0:300.0:-1
ipc-2014-agile-tetris-027.pddl,CRASHED:20.9444:1000000000.0:300.0:-1
ipc-2014-agile-tetris-028.pddl,CRASHED:19.1538:1000000000.0:300.0:-1
ipc-2014-agile-tetris-029.pddl,CRASHED:16.705:1000000000.0:300.0:-1
ipc-2014-agile-tetris-031.pddl,CRASHED:34.4113:1000000000.0:300.0:-1
ipc-2014-agile-tetris-032.pddl,CRASHED:24.8325:1000000000.0:300.0:-1
ipc-2014-agile-tetris-033.pddl,CRASHED:31.7497:1000000000.0:300.0:-1
ipc-2014-agile-tetris-034.pddl,CRASHED:31.3665:1000000000.0:300.0:-1
ipc-2014-agile-tetris-035.pddl,CRASHED:38.1161:1000000000.0:300.0:-1
ipc-2014-agile-tetris-036.pddl,CRASHED:36.0251:1000000000.0:300.0:-1
ipc-2014-agile-tetris-037.pddl,CRASHED:22.8461:1000000000.0:300.0:-1
ipc-2014-agile-tetris-038.pddl,CRASHED:29.5296:1000000000.0:300.0:-1
ipc-2014-agile-tetris-039.pddl,CRASHED:34.1047:1000000000.0:300.0:-1
ipc-2014-agile-tetris-040.pddl,CRASHED:29.6815:1000000000.0:300.0:-1
ipc-2014-agile-thoughtful-bootstrap-typed-01.pddl,SAT:0.653564:43.0:300.0:-1
ipc-2014-agile-thoughtful-bootstrap-typed-02.pddl,SAT:0.664737:49.0:300.0:-1
ipc-2014-agile-thoughtful-bootstrap-typed-03.pddl,SAT:0.663261:58.0:300.0:-1
ipc-2014-agile-thoughtful-bootstrap-typed-04.pddl,SAT:0.651206:41.0:300.0:-1
ipc-2014-agile-thoughtful-bootstrap-typed-05.pddl,SAT:0.649608:44.0:300.0:-1
ipc-2014-agile-thoughtful-p11_6_53-typed.pddl,SAT:12.0747:251.0:300.0:-1
ipc-2014-agile-thoughtful-p11_6_59-typed.pddl,SAT:12.1641:252.0:300.0:-1
ipc-2014-agile-thoughtful-p11_6_62-typed.pddl,CRASHED:13.4747:1000000000.0:300.0:-1
ipc-2014-agile-thoughtful-p13_7_78-typed.pddl,CRASHED:25.175:1000000000.0:300.0:-1
ipc-2014-agile-thoughtful-p13_7_79-typed.pddl,SAT:23.769:218.0:300.0:-1
ipc-2014-agile-thoughtful-p13_7_86-typed.pddl,CRASHED:24.0672:238.0:300.0:-1
ipc-2014-agile-thoughtful-target-typed-20.pddl,CRASHED:23.7535:231.0:300.0:-1
ipc-2014-agile-thoughtful-target-typed-21.pddl,CRASHED:24.668:257.0:300.0:-1
ipc-2014-agile-thoughtful-target-typed-22.pddl,CRASHED:25.143:1000000000.0:300.0:-1
ipc-2014-agile-thoughtful-target-typed-23.pddl,CRASHED:24.0035:320.0:300.0:-1
ipc-2014-agile-thoughtful-target-typed-24.pddl,CRASHED:24.1876:213.0:300.0:-1
ipc-2014-agile-thoughtful-target-typed-25.pddl,SAT:23.9623:262.0:300.0:-1
ipc-2014-agile-thoughtful-target-typed-26.pddl,SAT:23.4819:217.0:300.0:-1
ipc-2014-agile-thoughtful-target-typed-27.pddl,SAT:23.548:249.0:300.0:-1
ipc-2014-agile-thoughtful-target-typed-28.pddl,SAT:23.2094:251.0:300.0:-1
ipc-2014-agile-transport-01.pddl,SAT:1.38447:3810.0:300.0:-1
ipc-2014-agile-transport-02.pddl,SAT:2.70174:6184.0:300.0:-1
ipc-2014-agile-transport-03.pddl,SAT:1.11265:3743.0:300.0:-1
ipc-2014-agile-transport-04.pddl,SAT:8.15785:10850.0:300.0:-1
ipc-2014-agile-transport-05.pddl,CRASHED:24.1293:15192.0:300.0:-1
ipc-2014-agile-transport-06.pddl,SAT:7.66352:10850.0:300.0:-1
ipc-2014-agile-transport-07.pddl,SAT:9.80347:9553.0:300.0:-1
ipc-2014-agile-transport-08.pddl,SAT:13.176:10621.0:300.0:-1
ipc-2014-agile-transport-09.pddl,SAT:10.0446:9553.0:300.0:-1
ipc-2014-agile-transport-10.pddl,SAT:10.1247:10048.0:300.0:-1
ipc-2014-agile-transport-11.pddl,SAT:1.75705:3135.0:300.0:-1
ipc-2014-agile-transport-12.pddl,SAT:2.30095:4243.0:300.0:-1
ipc-2014-agile-transport-13.pddl,CRASHED:3.75654:6553.0:300.0:-1
ipc-2014-agile-transport-14.pddl,SAT:8.78544:13141.0:300.0:-1
ipc-2014-agile-transport-15.pddl,CRASHED:18.561:14125.0:300.0:-1
ipc-2014-agile-transport-16.pddl,CRASHED:10.2111:9618.0:300.0:-1
ipc-2014-agile-transport-17.pddl,SAT:12.3913:11167.0:300.0:-1
ipc-2014-agile-transport-18.pddl,SAT:12.9795:11132.0:300.0:-1
ipc-2014-agile-transport-19.pddl,SAT:8.87973:10489.0:300.0:-1
ipc-2014-agile-transport-20.pddl,SAT:9.24228:7929.0:300.0:-1
ipc-2014-agile-visitall-30.pddl,CRASHED:3.672:1626.0:300.0:-1
ipc-2014-agile-visitall-31.pddl,CRASHED:4.75376:1764.0:300.0:-1
ipc-2014-agile-visitall-32.pddl,CRASHED:5.96918:1830.0:300.0:-1
ipc-2014-agile-visitall-33.pddl,CRASHED:6.94054:2018.0:300.0:-1
ipc-2014-agile-visitall-50.pddl,CRASHED:66.8685:4725.0:300.0:-1
ipc-2014-agile-visitall-51.pddl,CRASHED:75.65:4941.0:300.0:-1
ipc-2014-agile-visitall-52.pddl,CRASHED:119.616:5288.0:300.0:-1
ipc-2014-agile-visitall-53.pddl,CRASHED:142.284:5338.0:300.0:-1
ipc-2014-agile-visitall-54.pddl,CRASHED:162.388:5769.0:300.0:-1
ipc-2014-agile-visitall-55.pddl,CRASHED:163.919:5918.0:300.0:-1
ipc-2014-agile-visitall-56.pddl,CRASHED:179.943:6328.0:300.0:-1
ipc-2014-agile-visitall-57.pddl,CRASHED:214.057:6646.0:300.0:-1
ipc-2014-agile-visitall-58.pddl,CRASHED:232.262:6523.0:300.0:-1
ipc-2014-agile-visitall-59.pddl,CRASHED:274.781:6918.0:300.0:-1
ipc-2014-agile-visitall-60.pddl,CRASHED:290.236:7733.0:300.0:-1
ipc-2014-agile-visitall-61.pddl,TIMEOUT:301.132:-1.0:300.0:-1
ipc-2014-agile-visitall-62.pddl,TIMEOUT:301.08:-1.0:300.0:-1
ipc-2014-agile-visitall-63.pddl,TIMEOUT:301.057:-1.0:300.0:-1
ipc-2014-agile-visitall-64.pddl,TIMEOUT:301.074:-1.0:300.0:-1
ipc-2014-agile-visitall-65.pddl,TIMEOUT:301.132:-1.0:300.0:-1
