instance,ipc-2014-optimal-cgamer-bd
ipc-2014-optimal-barman-p433.1.pddl,CRASHED:0.899863:1000000000.0:1800.0:-1
ipc-2014-optimal-barman-p433.2.pddl,CRASHED:0.860868:1000000000.0:1800.0:-1
ipc-2014-optimal-barman-p433.3.pddl,CRASHED:0.872866:1000000000.0:1800.0:-1
ipc-2014-optimal-barman-p435.1.pddl,SAT:23.3644:49.0:1800.0:-1
ipc-2014-optimal-barman-p435.2.pddl,SAT:38.4462:49.0:1800.0:-1
ipc-2014-optimal-barman-p435.3.pddl,SAT:23.7804:49.0:1800.0:-1
ipc-2014-optimal-barman-p443.1.pddl,CRASHED:0.866868:1000000000.0:1800.0:-1
ipc-2014-optimal-barman-p443.2.pddl,CRASHED:0.862868:1000000000.0:1800.0:-1
ipc-2014-optimal-barman-p443.3.pddl,CRASHED:0.866867:1000000000.0:1800.0:-1
ipc-2014-optimal-barman-p536.1.pddl,CRASHED:180.433:62.0:1800.0:-1
ipc-2014-optimal-barman-p536.2.pddl,CRASHED:186.517:62.0:1800.0:-1
ipc-2014-optimal-barman-p536.3.pddl,CRASHED:168.466:62.0:1800.0:-1
ipc-2014-optimal-barman-p638.1.pddl,TIMEOUT:1801.1:-1.0:1800.0:-1
ipc-2014-optimal-barman-p638.2.pddl,TIMEOUT:1801.05:-1.0:1800.0:-1
ipc-2014-optimal-barman-p638.3.pddl,TIMEOUT:1801.08:-1.0:1800.0:-1
ipc-2014-optimal-barman-p739.1.pddl,TIMEOUT:1801.01:-1.0:1800.0:-1
ipc-2014-optimal-barman-p739.2.pddl,TIMEOUT:1801.03:-1.0:1800.0:-1
ipc-2014-optimal-barman-p739.3.pddl,TIMEOUT:1801.0:-1.0:1800.0:-1
ipc-2014-optimal-barman-p839.1.pddl,TIMEOUT:1801.09:-1.0:1800.0:-1
ipc-2014-optimal-barman-p839.2.pddl,TIMEOUT:1801.08:-1.0:1800.0:-1
ipc-2014-optimal-cavediving-01.pddl,CRASHED:41.6877:1000000000.0:1800.0:-1
ipc-2014-optimal-cavediving-01_easy.pddl,CRASHED:28.1687:1000000000.0:1800.0:-1
ipc-2014-optimal-cavediving-02_easy.pddl,CRASHED:28.0827:1000000000.0:1800.0:-1
ipc-2014-optimal-cavediving-03_easy.pddl,CRASHED:28.0087:1000000000.0:1800.0:-1
ipc-2014-optimal-cavediving-04_easy.pddl,CRASHED:28.3047:1000000000.0:1800.0:-1
ipc-2014-optimal-cavediving-05A_easy.pddl,CRASHED:5.64114:1000000000.0:1800.0:-1
ipc-2014-optimal-cavediving-06A_easy.pddl,CRASHED:5.78212:1000000000.0:1800.0:-1
ipc-2014-optimal-cavediving-07_easy.pddl,CRASHED:6.24205:1000000000.0:1800.0:-1
ipc-2014-optimal-cavediving-08_easy.pddl,CRASHED:6.26505:1000000000.0:1800.0:-1
ipc-2014-optimal-cavediving-09_easy.pddl,CRASHED:144.653:1000000000.0:1800.0:-1
ipc-2014-optimal-cavediving-10_easy.pddl,CRASHED:144.206:1000000000.0:1800.0:-1
ipc-2014-optimal-cavediving-11_easy.pddl,CRASHED:154.896:1000000000.0:1800.0:-1
ipc-2014-optimal-cavediving-12_easy.pddl,CRASHED:154.12:1000000000.0:1800.0:-1
ipc-2014-optimal-cavediving-13_easy.pddl,CRASHED:41.9286:1000000000.0:1800.0:-1
ipc-2014-optimal-cavediving-14_easy.pddl,CRASHED:41.6567:1000000000.0:1800.0:-1
ipc-2014-optimal-cavediving-15_easy.pddl,CRASHED:34.6377:1000000000.0:1800.0:-1
ipc-2014-optimal-cavediving-16_easy.pddl,CRASHED:40.5408:1000000000.0:1800.0:-1
ipc-2014-optimal-cavediving-18A_easy.pddl,CRASHED:8.68068:1000000000.0:1800.0:-1
ipc-2014-optimal-cavediving-18_easy.pddl,CRASHED:10.1445:1000000000.0:1800.0:-1
ipc-2014-optimal-cavediving-20A_easy.pddl,CRASHED:7.58:1000000000.0:1800.0:-1
ipc-2014-optimal-childsnack-01-2.pddl,CRASHED:186.025:21.0:1800.0:-1
ipc-2014-optimal-childsnack-01.pddl,CRASHED:157.02:20.0:1800.0:-1
ipc-2014-optimal-childsnack-02-2.pddl,TIMEOUT:1801.05:-1.0:1800.0:-1
ipc-2014-optimal-childsnack-02.pddl,TIMEOUT:1801.05:-1.0:1800.0:-1
ipc-2014-optimal-childsnack-03-2.pddl,TIMEOUT:1801.01:-1.0:1800.0:-1
ipc-2014-optimal-childsnack-03.pddl,TIMEOUT:1801.09:-1.0:1800.0:-1
ipc-2014-optimal-childsnack-04-2.pddl,TIMEOUT:1801.04:-1.0:1800.0:-1
ipc-2014-optimal-childsnack-04.pddl,TIMEOUT:1801.02:-1.0:1800.0:-1
ipc-2014-optimal-childsnack-05-2.pddl,CRASHED:508.5:1000000000.0:1800.0:-1
ipc-2014-optimal-childsnack-05.pddl,CRASHED:1511.52:1000000000.0:1800.0:-1
ipc-2014-optimal-childsnack-06-2.pddl,TIMEOUT:1801.06:-1.0:1800.0:-1
ipc-2014-optimal-childsnack-06.pddl,CRASHED:1702.88:1000000000.0:1800.0:-1
ipc-2014-optimal-childsnack-07-2.pddl,CRASHED:1452.78:1000000000.0:1800.0:-1
ipc-2014-optimal-childsnack-07.pddl,CRASHED:203.74:1000000000.0:1800.0:-1
ipc-2014-optimal-childsnack-08-2.pddl,CRASHED:492.49:1000000000.0:1800.0:-1
ipc-2014-optimal-childsnack-08.pddl,CRASHED:586.06:1000000000.0:1800.0:-1
ipc-2014-optimal-childsnack-09-2.pddl,CRASHED:1202.23:1000000000.0:1800.0:-1
ipc-2014-optimal-childsnack-09.pddl,CRASHED:1253.22:1000000000.0:1800.0:-1
ipc-2014-optimal-childsnack-10-2.pddl,TIMEOUT:1801.03:-1.0:1800.0:-1
ipc-2014-optimal-childsnack-10.pddl,TIMEOUT:1801.01:-1.0:1800.0:-1
ipc-2014-optimal-citycar-p2-2-2-1-2.pddl,SAT:27.6138:46.0:1800.0:-1
ipc-2014-optimal-citycar-p2-2-2-2-1.pddl,SAT:31.0853:64.0:1800.0:-1
ipc-2014-optimal-citycar-p2-2-3-1-2.pddl,SAT:46.135:50.0:1800.0:-1
ipc-2014-optimal-citycar-p2-2-3-2-1.pddl,SAT:40.3429:48.0:1800.0:-1
ipc-2014-optimal-citycar-p2-2-3-2-2.pddl,CRASHED:46.9379:50.0:1800.0:-1
ipc-2014-optimal-citycar-p2-2-4-1-2.pddl,SAT:49.4075:52.0:1800.0:-1
ipc-2014-optimal-citycar-p2-2-4-2-1.pddl,SAT:60.0259:52.0:1800.0:-1
ipc-2014-optimal-citycar-p2-2-5-2-2.pddl,CRASHED:278.92:76.0:1800.0:-1
ipc-2014-optimal-citycar-p2-2-6-1-1.pddl,CRASHED:538.436:58.0:1800.0:-1
ipc-2014-optimal-citycar-p2-2-6-2-2.pddl,CRASHED:1496.13:58.0:1800.0:-1
ipc-2014-optimal-citycar-p2-3-2-3-1.pddl,SAT:75.7015:68.0:1800.0:-1
ipc-2014-optimal-citycar-p2-3-3-3-1.pddl,SAT:87.0068:78.0:1800.0:-1
ipc-2014-optimal-citycar-p2-3-4-3-1.pddl,CRASHED:205.538:82.0:1800.0:-1
ipc-2014-optimal-citycar-p2-3-6-3-2.pddl,TIMEOUT:1801.08:-1.0:1800.0:-1
ipc-2014-optimal-citycar-p3-3-2-2-1.pddl,CRASHED:128.919:70.0:1800.0:-1
ipc-2014-optimal-citycar-p3-3-2-2-2.pddl,CRASHED:183.468:92.0:1800.0:-1
ipc-2014-optimal-citycar-p3-3-2-3-1.pddl,CRASHED:112.249:48.0:1800.0:-1
ipc-2014-optimal-citycar-p3-3-2-3-2.pddl,CRASHED:117.446:70.0:1800.0:-1
ipc-2014-optimal-citycar-p3-3-3-3-1.pddl,CRASHED:1472.17:1000000000.0:1800.0:-1
ipc-2014-optimal-citycar-p3-3-3-3-2.pddl,CRASHED:353.542:76.0:1800.0:-1
ipc-2014-optimal-floortile-p01-4-3-2.pddl,SAT:2.23866:56.0:1800.0:-1
ipc-2014-optimal-floortile-p01-4-4-2.pddl,SAT:3.69644:68.0:1800.0:-1
ipc-2014-optimal-floortile-p01-5-3-2.pddl,SAT:2.67859:63.0:1800.0:-1
ipc-2014-optimal-floortile-p01-5-4-2.pddl,SAT:6.85396:91.0:1800.0:-1
ipc-2014-optimal-floortile-p01-5-5-2.pddl,SAT:28.6636:111.0:1800.0:-1
ipc-2014-optimal-floortile-p01-6-4-2.pddl,SAT:9.43057:104.0:1800.0:-1
ipc-2014-optimal-floortile-p01-6-5-2.pddl,CRASHED:91.828:122.0:1800.0:-1
ipc-2014-optimal-floortile-p02-4-4-2.pddl,SAT:3.82742:75.0:1800.0:-1
ipc-2014-optimal-floortile-p02-5-3-2.pddl,SAT:2.68659:65.0:1800.0:-1
ipc-2014-optimal-floortile-p02-5-4-2.pddl,SAT:7.30889:98.0:1800.0:-1
ipc-2014-optimal-floortile-p02-5-5-2.pddl,SAT:30.0214:106.0:1800.0:-1
ipc-2014-optimal-floortile-p02-6-4-2.pddl,SAT:9.39557:109.0:1800.0:-1
ipc-2014-optimal-floortile-p02-6-5-2.pddl,CRASHED:102.781:141.0:1800.0:-1
ipc-2014-optimal-floortile-p03-4-3-2.pddl,SAT:2.39763:56.0:1800.0:-1
ipc-2014-optimal-floortile-p03-4-4-2.pddl,SAT:3.9344:72.0:1800.0:-1
ipc-2014-optimal-floortile-p03-5-3-2.pddl,SAT:2.55461:65.0:1800.0:-1
ipc-2014-optimal-floortile-p03-5-4-2.pddl,SAT:6.83496:83.0:1800.0:-1
ipc-2014-optimal-floortile-p03-5-5-2.pddl,SAT:28.2637:100.0:1800.0:-1
ipc-2014-optimal-floortile-p03-6-4-2.pddl,SAT:9.67753:116.0:1800.0:-1
ipc-2014-optimal-floortile-p03-6-5-2.pddl,CRASHED:98.659:130.0:1800.0:-1
ipc-2014-optimal-ged-d-1-2.pddl,CRASHED:1.19882:1000000000.0:1800.0:-1
ipc-2014-optimal-ged-d-1-3.pddl,CRASHED:1.54176:1000000000.0:1800.0:-1
ipc-2014-optimal-ged-d-1-4.pddl,CRASHED:1.27281:1000000000.0:1800.0:-1
ipc-2014-optimal-ged-d-1-8.pddl,CRASHED:1.65375:1000000000.0:1800.0:-1
ipc-2014-optimal-ged-d-2-1.pddl,CRASHED:1.2868:1000000000.0:1800.0:-1
ipc-2014-optimal-ged-d-2-3.pddl,CRASHED:1.3188:1000000000.0:1800.0:-1
ipc-2014-optimal-ged-d-2-4.pddl,CRASHED:1.2898:1000000000.0:1800.0:-1
ipc-2014-optimal-ged-d-2-8.pddl,CRASHED:2.04969:1000000000.0:1800.0:-1
ipc-2014-optimal-ged-d-3-1.pddl,CRASHED:1.46778:1000000000.0:1800.0:-1
ipc-2014-optimal-ged-d-3-2.pddl,CRASHED:1.39079:1000000000.0:1800.0:-1
ipc-2014-optimal-ged-d-3-4.pddl,CRASHED:1.55776:1000000000.0:1800.0:-1
ipc-2014-optimal-ged-d-4-2.pddl,CRASHED:1.37079:1000000000.0:1800.0:-1
ipc-2014-optimal-ged-d-4-3.pddl,CRASHED:1.66175:1000000000.0:1800.0:-1
ipc-2014-optimal-ged-d-4-8.pddl,CRASHED:2.04069:1000000000.0:1800.0:-1
ipc-2014-optimal-ged-d-7-5.pddl,CRASHED:1.64575:1000000000.0:1800.0:-1
ipc-2014-optimal-ged-d-7-6.pddl,CRASHED:1.47178:1000000000.0:1800.0:-1
ipc-2014-optimal-ged-d-8-1.pddl,CRASHED:1.65075:1000000000.0:1800.0:-1
ipc-2014-optimal-ged-d-8-2.pddl,CRASHED:1.9827:1000000000.0:1800.0:-1
ipc-2014-optimal-ged-d-8-4.pddl,CRASHED:2.04369:1000000000.0:1800.0:-1
ipc-2014-optimal-ged-d-8-9.pddl,CRASHED:1.90271:1000000000.0:1800.0:-1
ipc-2014-optimal-hiking-1-2-3.pddl,SAT:1.69774:11.0:1800.0:-1
ipc-2014-optimal-hiking-1-2-4.pddl,SAT:1.9877:17.0:1800.0:-1
ipc-2014-optimal-hiking-1-2-5.pddl,SAT:2.20466:25.0:1800.0:-1
ipc-2014-optimal-hiking-1-2-7.pddl,SAT:5.98409:38.0:1800.0:-1
ipc-2014-optimal-hiking-1-2-8.pddl,SAT:7.39088:45.0:1800.0:-1
ipc-2014-optimal-hiking-2-2-3.pddl,SAT:6.73098:10.0:1800.0:-1
ipc-2014-optimal-hiking-2-2-4.pddl,SAT:8.87165:16.0:1800.0:-1
ipc-2014-optimal-hiking-2-2-5.pddl,SAT:23.5994:22.0:1800.0:-1
ipc-2014-optimal-hiking-2-2-6.pddl,SAT:188.549:30.0:1800.0:-1
ipc-2014-optimal-hiking-2-2-7.pddl,SAT:465.429:34.0:1800.0:-1
ipc-2014-optimal-hiking-2-2-8.pddl,CRASHED:1550.49:42.0:1800.0:-1
ipc-2014-optimal-hiking-2-3-4.pddl,SAT:13.428:17.0:1800.0:-1
ipc-2014-optimal-hiking-2-3-5.pddl,SAT:115.211:24.0:1800.0:-1
ipc-2014-optimal-hiking-2-3-6.pddl,CRASHED:1253.32:28.0:1800.0:-1
ipc-2014-optimal-hiking-2-3-7.pddl,TIMEOUT:1801.05:-1.0:1800.0:-1
ipc-2014-optimal-hiking-2-4-3.pddl,SAT:7.2609:10.0:1800.0:-1
ipc-2014-optimal-hiking-2-4-4.pddl,SAT:11.9132:17.0:1800.0:-1
ipc-2014-optimal-hiking-2-4-5.pddl,SAT:130.197:23.0:1800.0:-1
ipc-2014-optimal-hiking-2-4-6.pddl,CRASHED:1496.62:30.0:1800.0:-1
ipc-2014-optimal-hiking-2-4-7.pddl,TIMEOUT:1801.09:-1.0:1800.0:-1
ipc-2014-optimal-maintenance-1.3.010.010.1-001.pddl,CRASHED:0.904861:1000000000.0:1800.0:-1
ipc-2014-optimal-maintenance-1.3.010.010.1-002.pddl,CRASHED:0.899862:1000000000.0:1800.0:-1
ipc-2014-optimal-maintenance-1.3.010.010.2-000.pddl,SAT:1.65775:4.0:1800.0:-1
ipc-2014-optimal-maintenance-1.3.010.010.2-001.pddl,SAT:1.75573:7.0:1800.0:-1
ipc-2014-optimal-maintenance-1.3.010.010.2-002.pddl,SAT:1.83972:6.0:1800.0:-1
ipc-2014-optimal-maintenance-1.3.015.020.1-000.pddl,CRASHED:1.03784:1000000000.0:1800.0:-1
ipc-2014-optimal-maintenance-1.3.015.020.1-001.pddl,CRASHED:1.03384:1000000000.0:1800.0:-1
ipc-2014-optimal-maintenance-1.3.015.020.1-002.pddl,CRASHED:1.03284:1000000000.0:1800.0:-1
ipc-2014-optimal-maintenance-1.3.015.020.2-000.pddl,CRASHED:1.09383:1000000000.0:1800.0:-1
ipc-2014-optimal-maintenance-1.3.015.020.2-001.pddl,SAT:2.19567:11.0:1800.0:-1
ipc-2014-optimal-maintenance-1.3.015.020.2-002.pddl,SAT:2.14667:9.0:1800.0:-1
ipc-2014-optimal-maintenance-1.3.025.050.1-000.pddl,CRASHED:1.3358:1000000000.0:1800.0:-1
ipc-2014-optimal-maintenance-1.3.025.050.1-001.pddl,CRASHED:1.3088:1000000000.0:1800.0:-1
ipc-2014-optimal-maintenance-1.3.025.050.1-002.pddl,CRASHED:1.3098:1000000000.0:1800.0:-1
ipc-2014-optimal-maintenance-1.3.025.100.1-000.pddl,CRASHED:1.62675:1000000000.0:1800.0:-1
ipc-2014-optimal-maintenance-1.3.025.100.1-001.pddl,CRASHED:1.69374:1000000000.0:1800.0:-1
ipc-2014-optimal-maintenance-1.3.025.100.1-002.pddl,CRASHED:1.62875:1000000000.0:1800.0:-1
ipc-2014-optimal-maintenance-1.3.025.100.2-000.pddl,CRASHED:1.86072:1000000000.0:1800.0:-1
ipc-2014-optimal-maintenance-1.3.025.100.2-001.pddl,CRASHED:1.91271:1000000000.0:1800.0:-1
ipc-2014-optimal-maintenance-1.3.025.100.2-002.pddl,CRASHED:1.92471:1000000000.0:1800.0:-1
ipc-2014-optimal-openstacks-p20_1.pddl,SAT:4.11737:3.0:1800.0:-1
ipc-2014-optimal-openstacks-p20_2.pddl,SAT:7.40587:4.0:1800.0:-1
ipc-2014-optimal-openstacks-p20_3.pddl,SAT:8.64968:6.0:1800.0:-1
ipc-2014-optimal-openstacks-p25_1.pddl,SAT:10.0365:4.0:1800.0:-1
ipc-2014-optimal-openstacks-p25_3.pddl,SAT:16.2615:9.0:1800.0:-1
ipc-2014-optimal-openstacks-p30_1.pddl,SAT:12.917:4.0:1800.0:-1
ipc-2014-optimal-openstacks-p30_2.pddl,SAT:13.406:4.0:1800.0:-1
ipc-2014-optimal-openstacks-p30_3.pddl,SAT:19.984:12.0:1800.0:-1
ipc-2014-optimal-openstacks-p35_1.pddl,SAT:16.9364:4.0:1800.0:-1
ipc-2014-optimal-openstacks-p35_2.pddl,SAT:21.4177:5.0:1800.0:-1
ipc-2014-optimal-openstacks-p35_3.pddl,CRASHED:239.111:14.0:1800.0:-1
ipc-2014-optimal-openstacks-p40_1.pddl,SAT:20.1649:3.0:1800.0:-1
ipc-2014-optimal-openstacks-p40_2.pddl,SAT:21.0658:4.0:1800.0:-1
ipc-2014-optimal-openstacks-p40_3.pddl,SAT:275.423:15.0:1800.0:-1
ipc-2014-optimal-openstacks-p45_1.pddl,SAT:23.6684:4.0:1800.0:-1
ipc-2014-optimal-openstacks-p45_2.pddl,SAT:29.0616:5.0:1800.0:-1
ipc-2014-optimal-openstacks-p45_3.pddl,TIMEOUT:1801.01:-1.0:1800.0:-1
ipc-2014-optimal-openstacks-p50_1.pddl,SAT:30.5024:4.0:1800.0:-1
ipc-2014-optimal-openstacks-p50_2.pddl,SAT:29.7915:5.0:1800.0:-1
ipc-2014-optimal-openstacks-p50_3.pddl,TIMEOUT:1801.04:-1.0:1800.0:-1
ipc-2014-optimal-parking-12_7-01.pddl,CRASHED:1020.1:18.0:1800.0:-1
ipc-2014-optimal-parking-12_7-02.pddl,CRASHED:925.794:18.0:1800.0:-1
ipc-2014-optimal-parking-12_7-03.pddl,CRASHED:610.967:17.0:1800.0:-1
ipc-2014-optimal-parking-12_7-04.pddl,CRASHED:1792.65:19.0:1800.0:-1
ipc-2014-optimal-parking-14_8-01.pddl,CRASHED:1371.95:1000000000.0:1800.0:-1
ipc-2014-optimal-parking-14_8-02.pddl,CRASHED:1315.82:1000000000.0:1800.0:-1
ipc-2014-optimal-parking-14_8-03.pddl,CRASHED:1589.75:1000000000.0:1800.0:-1
ipc-2014-optimal-parking-14_8-04.pddl,TIMEOUT:1801.06:-1.0:1800.0:-1
ipc-2014-optimal-parking-16_9-01.pddl,TIMEOUT:1801.04:-1.0:1800.0:-1
ipc-2014-optimal-parking-16_9-02.pddl,CRASHED:1320.28:1000000000.0:1800.0:-1
ipc-2014-optimal-parking-16_9-03.pddl,TIMEOUT:1801.06:-1.0:1800.0:-1
ipc-2014-optimal-parking-16_9-04.pddl,TIMEOUT:1801.04:-1.0:1800.0:-1
ipc-2014-optimal-parking-18_10-01.pddl,CRASHED:1618.66:1000000000.0:1800.0:-1
ipc-2014-optimal-parking-18_10-02.pddl,CRASHED:1749.06:1000000000.0:1800.0:-1
ipc-2014-optimal-parking-18_10-03.pddl,TIMEOUT:1801.07:-1.0:1800.0:-1
ipc-2014-optimal-parking-18_10-04.pddl,TIMEOUT:1801.09:-1.0:1800.0:-1
ipc-2014-optimal-parking-20_11-01.pddl,TIMEOUT:1801.09:-1.0:1800.0:-1
ipc-2014-optimal-parking-20_11-02.pddl,TIMEOUT:1801.03:-1.0:1800.0:-1
ipc-2014-optimal-parking-20_11-03.pddl,TIMEOUT:1801.08:-1.0:1800.0:-1
ipc-2014-optimal-parking-20_11-04.pddl,TIMEOUT:1801.04:-1.0:1800.0:-1
ipc-2014-optimal-tetris-01-10.pddl,CRASHED:1450.75:1000000000.0:1800.0:-1
ipc-2014-optimal-tetris-01-04.pddl,CRASHED:13.5489:1000000000.0:1800.0:-1
ipc-2014-optimal-tetris-01-06.pddl,CRASHED:110.571:30.0:1800.0:-1
ipc-2014-optimal-tetris-01-08.pddl,SAT:33.2329:36.0:1800.0:-1
ipc-2014-optimal-tetris-02-10.pddl,CRASHED:1556.59:1000000000.0:1800.0:-1
ipc-2014-optimal-tetris-02-04.pddl,SAT:6.64799:10.0:1800.0:-1
ipc-2014-optimal-tetris-02-06.pddl,SAT:29.5895:30.0:1800.0:-1
ipc-2014-optimal-tetris-02-08.pddl,CRASHED:378.844:39.0:1800.0:-1
ipc-2014-optimal-tetris-03-10.pddl,TIMEOUT:1801.04:-1.0:1800.0:-1
ipc-2014-optimal-tetris-03-04.pddl,SAT:6.23405:11.0:1800.0:-1
ipc-2014-optimal-tetris-03-06.pddl,SAT:56.0955:21.0:1800.0:-1
ipc-2014-optimal-tetris-03-08.pddl,SAT:74.3737:48.0:1800.0:-1
ipc-2014-optimal-tetris-04-10.pddl,CRASHED:1566.6:1000000000.0:1800.0:-1
ipc-2014-optimal-tetris-04-04.pddl,CRASHED:11.9392:1000000000.0:1800.0:-1
ipc-2014-optimal-tetris-04-06.pddl,CRASHED:92.389:27.0:1800.0:-1
ipc-2014-optimal-tetris-04-08.pddl,TIMEOUT:1801.03:-1.0:1800.0:-1
ipc-2014-optimal-tetris-05-10.pddl,CRASHED:971.449:66.0:1800.0:-1
ipc-2014-optimal-tetris-05-04.pddl,CRASHED:10.8174:1000000000.0:1800.0:-1
ipc-2014-optimal-tetris-05-06.pddl,SAT:13.195:19.0:1800.0:-1
ipc-2014-optimal-tetris-05-08.pddl,TIMEOUT:1801.02:-1.0:1800.0:-1
ipc-2014-optimal-tidybot-01.pddl,CRASHED:537.34:1000000000.0:1800.0:-1
ipc-2014-optimal-tidybot-02.pddl,CRASHED:420.797:35.0:1800.0:-1
ipc-2014-optimal-tidybot-03.pddl,CRASHED:140.376:30.0:1800.0:-1
ipc-2014-optimal-tidybot-04.pddl,CRASHED:231.72:24.0:1800.0:-1
ipc-2014-optimal-tidybot-05.pddl,TIMEOUT:1801.0:-1.0:1800.0:-1
ipc-2014-optimal-tidybot-06.pddl,CRASHED:691.906:63.0:1800.0:-1
ipc-2014-optimal-tidybot-07.pddl,SAT:138.051:38.0:1800.0:-1
ipc-2014-optimal-tidybot-08.pddl,CRASHED:267.395:25.0:1800.0:-1
ipc-2014-optimal-tidybot-09.pddl,CRASHED:1167.49:1000000000.0:1800.0:-1
ipc-2014-optimal-tidybot-10.pddl,CRASHED:1175.56:47.0:1800.0:-1
ipc-2014-optimal-tidybot-11.pddl,CRASHED:171.758:29.0:1800.0:-1
ipc-2014-optimal-tidybot-12.pddl,CRASHED:576.271:35.0:1800.0:-1
ipc-2014-optimal-tidybot-13.pddl,CRASHED:249.333:30.0:1800.0:-1
ipc-2014-optimal-tidybot-14.pddl,CRASHED:514.854:25.0:1800.0:-1
ipc-2014-optimal-tidybot-15.pddl,CRASHED:1215.89:1000000000.0:1800.0:-1
ipc-2014-optimal-tidybot-16.pddl,TIMEOUT:1801.04:-1.0:1800.0:-1
ipc-2014-optimal-tidybot-17.pddl,SAT:97.7791:40.0:1800.0:-1
ipc-2014-optimal-tidybot-18.pddl,CRASHED:212.282:44.0:1800.0:-1
ipc-2014-optimal-tidybot-19.pddl,CRASHED:1205.67:1000000000.0:1800.0:-1
ipc-2014-optimal-tidybot-20.pddl,SAT:103.559:46.0:1800.0:-1
ipc-2014-optimal-transport-01.pddl,SAT:2.48562:148.0:1800.0:-1
ipc-2014-optimal-transport-02.pddl,SAT:5.67914:191.0:1800.0:-1
ipc-2014-optimal-transport-03.pddl,SAT:15.7756:300.0:1800.0:-1
ipc-2014-optimal-transport-04.pddl,CRASHED:580.08:250.0:1800.0:-1
ipc-2014-optimal-transport-05.pddl,TIMEOUT:1801.02:-1.0:1800.0:-1
ipc-2014-optimal-transport-06.pddl,TIMEOUT:1801.02:-1.0:1800.0:-1
ipc-2014-optimal-transport-07.pddl,SAT:8.99463:967.0:1800.0:-1
ipc-2014-optimal-transport-08.pddl,CRASHED:819.528:1173.0:1800.0:-1
ipc-2014-optimal-transport-09.pddl,TIMEOUT:1801.03:-1.0:1800.0:-1
ipc-2014-optimal-transport-10.pddl,TIMEOUT:1801.02:-1.0:1800.0:-1
ipc-2014-optimal-transport-11.pddl,TIMEOUT:1801.09:-1.0:1800.0:-1
ipc-2014-optimal-transport-12.pddl,TIMEOUT:1801.05:-1.0:1800.0:-1
ipc-2014-optimal-transport-13.pddl,SAT:9.63653:594.0:1800.0:-1
ipc-2014-optimal-transport-14.pddl,SAT:52.0801:526.0:1800.0:-1
ipc-2014-optimal-transport-15.pddl,CRASHED:1539.25:753.0:1800.0:-1
ipc-2014-optimal-transport-16.pddl,TIMEOUT:1801.01:-1.0:1800.0:-1
ipc-2014-optimal-transport-17.pddl,TIMEOUT:1801.08:-1.0:1800.0:-1
ipc-2014-optimal-transport-18.pddl,TIMEOUT:1801.04:-1.0:1800.0:-1
ipc-2014-optimal-transport-19.pddl,TIMEOUT:1801.01:-1.0:1800.0:-1
ipc-2014-optimal-transport-20.pddl,TIMEOUT:1801.08:-1.0:1800.0:-1
ipc-2014-optimal-visitall-05-10.pddl,CRASHED:1048.15:1000000000.0:1800.0:-1
ipc-2014-optimal-visitall-05-05.pddl,SAT:2.00469:21.0:1800.0:-1
ipc-2014-optimal-visitall-05-06.pddl,SAT:2.25866:25.0:1800.0:-1
ipc-2014-optimal-visitall-05-07.pddl,SAT:6.14606:34.0:1800.0:-1
ipc-2014-optimal-visitall-05-08.pddl,CRASHED:103.774:43.0:1800.0:-1
ipc-2014-optimal-visitall-05-09.pddl,CRASHED:793.35:1000000000.0:1800.0:-1
ipc-2014-optimal-visitall-01-10.pddl,CRASHED:858.27:1000000000.0:1800.0:-1
ipc-2014-optimal-visitall-01-11.pddl,CRASHED:1055.32:1000000000.0:1800.0:-1
ipc-2014-optimal-visitall-01-12.pddl,CRASHED:1784.85:1000000000.0:1800.0:-1
ipc-2014-optimal-visitall-01-13.pddl,CRASHED:1264.19:1000000000.0:1800.0:-1
ipc-2014-optimal-visitall-01-14.pddl,CRASHED:1109.84:1000000000.0:1800.0:-1
ipc-2014-optimal-visitall-01-15.pddl,CRASHED:1113.6:1000000000.0:1800.0:-1
ipc-2014-optimal-visitall-01-16.pddl,CRASHED:1480.39:1000000000.0:1800.0:-1
ipc-2014-optimal-visitall-01-17.pddl,CRASHED:1481.4:1000000000.0:1800.0:-1
ipc-2014-optimal-visitall-01-18.pddl,CRASHED:1582.62:1000000000.0:1800.0:-1
ipc-2014-optimal-visitall-01-05.pddl,SAT:3.60545:24.0:1800.0:-1
ipc-2014-optimal-visitall-01-06.pddl,CRASHED:407.017:35.0:1800.0:-1
ipc-2014-optimal-visitall-01-07.pddl,CRASHED:794.36:1000000000.0:1800.0:-1
ipc-2014-optimal-visitall-01-08.pddl,CRASHED:815.68:1000000000.0:1800.0:-1
ipc-2014-optimal-visitall-01-09.pddl,CRASHED:1067.36:1000000000.0:1800.0:-1
