instance,ipc-2014-optimal-cedalion
ipc-2014-optimal-barman-p433.1.pddl,CRASHED:2.10868:1000000000.0:1800.0:-1
ipc-2014-optimal-barman-p433.2.pddl,CRASHED:0.881865:1000000000.0:1800.0:-1
ipc-2014-optimal-barman-p433.3.pddl,CRASHED:0.91286:1000000000.0:1800.0:-1
ipc-2014-optimal-barman-p435.1.pddl,CRASHED:1800.96:1000000000.0:1800.0:-1
ipc-2014-optimal-barman-p435.2.pddl,CRASHED:1800.49:1000000000.0:1800.0:-1
ipc-2014-optimal-barman-p435.3.pddl,CRASHED:1800.45:1000000000.0:1800.0:-1
ipc-2014-optimal-barman-p443.1.pddl,CRASHED:2.27065:1000000000.0:1800.0:-1
ipc-2014-optimal-barman-p443.2.pddl,CRASHED:1.15982:1000000000.0:1800.0:-1
ipc-2014-optimal-barman-p443.3.pddl,CRASHED:1.11583:1000000000.0:1800.0:-1
ipc-2014-optimal-barman-p536.1.pddl,CRASHED:1801.16:1000000000.0:1800.0:-1
ipc-2014-optimal-barman-p536.2.pddl,CRASHED:1800.4:1000000000.0:1800.0:-1
ipc-2014-optimal-barman-p536.3.pddl,CRASHED:1800.43:1000000000.0:1800.0:-1
ipc-2014-optimal-barman-p638.1.pddl,CRASHED:1800.31:1000000000.0:1800.0:-1
ipc-2014-optimal-barman-p638.2.pddl,CRASHED:1801.0:1000000000.0:1800.0:-1
ipc-2014-optimal-barman-p638.3.pddl,CRASHED:1800.71:1000000000.0:1800.0:-1
ipc-2014-optimal-barman-p739.1.pddl,CRASHED:1801.06:1000000000.0:1800.0:-1
ipc-2014-optimal-barman-p739.2.pddl,CRASHED:1800.74:1000000000.0:1800.0:-1
ipc-2014-optimal-barman-p739.3.pddl,CRASHED:1800.17:1000000000.0:1800.0:-1
ipc-2014-optimal-barman-p839.1.pddl,CRASHED:1800.55:1000000000.0:1800.0:-1
ipc-2014-optimal-barman-p839.2.pddl,CRASHED:1800.98:1000000000.0:1800.0:-1
ipc-2014-optimal-cavediving-01.pddl,CRASHED:299.54:1000000000.0:1800.0:-1
ipc-2014-optimal-cavediving-01_easy.pddl,CRASHED:298.491:1000000000.0:1800.0:-1
ipc-2014-optimal-cavediving-02_easy.pddl,CRASHED:299.159:1000000000.0:1800.0:-1
ipc-2014-optimal-cavediving-03_easy.pddl,CRASHED:298.679:1000000000.0:1800.0:-1
ipc-2014-optimal-cavediving-04_easy.pddl,CRASHED:299.558:1000000000.0:1800.0:-1
ipc-2014-optimal-cavediving-05A_easy.pddl,SAT:10.4854:94.0:1800.0:-1
ipc-2014-optimal-cavediving-06A_easy.pddl,SAT:10.5634:95.0:1800.0:-1
ipc-2014-optimal-cavediving-07_easy.pddl,SAT:59.9139:131.0:1800.0:-1
ipc-2014-optimal-cavediving-08_easy.pddl,SAT:10.7364:90.0:1800.0:-1
ipc-2014-optimal-cavediving-09_easy.pddl,CRASHED:1796.69:1000000000.0:1800.0:-1
ipc-2014-optimal-cavediving-10_easy.pddl,TIMEOUT:1801.02:-1.0:1800.0:-1
ipc-2014-optimal-cavediving-11_easy.pddl,CRASHED:1797.73:1000000000.0:1800.0:-1
ipc-2014-optimal-cavediving-12_easy.pddl,CRASHED:1798.06:1000000000.0:1800.0:-1
ipc-2014-optimal-cavediving-13_easy.pddl,CRASHED:1796.27:1000000000.0:1800.0:-1
ipc-2014-optimal-cavediving-14_easy.pddl,TIMEOUT:1801.03:-1.0:1800.0:-1
ipc-2014-optimal-cavediving-15_easy.pddl,CRASHED:299.315:1000000000.0:1800.0:-1
ipc-2014-optimal-cavediving-16_easy.pddl,CRASHED:299.79:1000000000.0:1800.0:-1
ipc-2014-optimal-cavediving-18A_easy.pddl,SAT:102.545:131.0:1800.0:-1
ipc-2014-optimal-cavediving-18_easy.pddl,SAT:185.64:131.0:1800.0:-1
ipc-2014-optimal-cavediving-20A_easy.pddl,SAT:16.3955:98.0:1800.0:-1
ipc-2014-optimal-childsnack-01-2.pddl,CRASHED:1800.17:1000000000.0:1800.0:-1
ipc-2014-optimal-childsnack-01.pddl,CRASHED:1800.23:1000000000.0:1800.0:-1
ipc-2014-optimal-childsnack-02-2.pddl,CRASHED:1800.89:1000000000.0:1800.0:-1
ipc-2014-optimal-childsnack-02.pddl,CRASHED:1800.61:1000000000.0:1800.0:-1
ipc-2014-optimal-childsnack-03-2.pddl,CRASHED:1780.11:1000000000.0:1800.0:-1
ipc-2014-optimal-childsnack-03.pddl,CRASHED:1775.27:1000000000.0:1800.0:-1
ipc-2014-optimal-childsnack-04-2.pddl,CRASHED:1739.32:1000000000.0:1800.0:-1
ipc-2014-optimal-childsnack-04.pddl,CRASHED:1737.81:1000000000.0:1800.0:-1
ipc-2014-optimal-childsnack-05-2.pddl,CRASHED:1774.1:1000000000.0:1800.0:-1
ipc-2014-optimal-childsnack-05.pddl,CRASHED:1772.97:1000000000.0:1800.0:-1
ipc-2014-optimal-childsnack-06-2.pddl,CRASHED:1800.6:1000000000.0:1800.0:-1
ipc-2014-optimal-childsnack-06.pddl,CRASHED:1800.39:1000000000.0:1800.0:-1
ipc-2014-optimal-childsnack-07-2.pddl,CRASHED:1800.4:1000000000.0:1800.0:-1
ipc-2014-optimal-childsnack-07.pddl,CRASHED:1800.43:1000000000.0:1800.0:-1
ipc-2014-optimal-childsnack-08-2.pddl,CRASHED:1448.79:1000000000.0:1800.0:-1
ipc-2014-optimal-childsnack-08.pddl,CRASHED:1450.29:1000000000.0:1800.0:-1
ipc-2014-optimal-childsnack-09-2.pddl,CRASHED:1450.01:1000000000.0:1800.0:-1
ipc-2014-optimal-childsnack-09.pddl,CRASHED:1457.78:1000000000.0:1800.0:-1
ipc-2014-optimal-childsnack-10-2.pddl,CRASHED:1430.33:1000000000.0:1800.0:-1
ipc-2014-optimal-childsnack-10.pddl,CRASHED:1430.44:1000000000.0:1800.0:-1
ipc-2014-optimal-citycar-p2-2-2-1-2.pddl,SAT:3.63745:46.0:1800.0:-1
ipc-2014-optimal-citycar-p2-2-2-2-1.pddl,SAT:4.00039:64.0:1800.0:-1
ipc-2014-optimal-citycar-p2-2-3-1-2.pddl,SAT:7.04593:50.0:1800.0:-1
ipc-2014-optimal-citycar-p2-2-3-2-1.pddl,SAT:6.08907:48.0:1800.0:-1
ipc-2014-optimal-citycar-p2-2-3-2-2.pddl,SAT:5.54016:50.0:1800.0:-1
ipc-2014-optimal-citycar-p2-2-4-1-2.pddl,SAT:12.854:52.0:1800.0:-1
ipc-2014-optimal-citycar-p2-2-4-2-1.pddl,SAT:13.9249:52.0:1800.0:-1
ipc-2014-optimal-citycar-p2-2-5-2-2.pddl,SAT:266.642:76.0:1800.0:-1
ipc-2014-optimal-citycar-p2-2-6-1-1.pddl,SAT:204.64:58.0:1800.0:-1
ipc-2014-optimal-citycar-p2-2-6-2-2.pddl,SAT:206.981:58.0:1800.0:-1
ipc-2014-optimal-citycar-p2-3-2-3-1.pddl,SAT:15.9806:68.0:1800.0:-1
ipc-2014-optimal-citycar-p2-3-3-3-1.pddl,SAT:67.3778:78.0:1800.0:-1
ipc-2014-optimal-citycar-p2-3-4-3-1.pddl,CRASHED:312.418:1000000000.0:1800.0:-1
ipc-2014-optimal-citycar-p2-3-6-3-2.pddl,CRASHED:588.136:1000000000.0:1800.0:-1
ipc-2014-optimal-citycar-p3-3-2-2-1.pddl,SAT:286.934:70.0:1800.0:-1
ipc-2014-optimal-citycar-p3-3-2-2-2.pddl,CRASHED:1290.97:1000000000.0:1800.0:-1
ipc-2014-optimal-citycar-p3-3-2-3-1.pddl,SAT:42.0596:48.0:1800.0:-1
ipc-2014-optimal-citycar-p3-3-2-3-2.pddl,SAT:228.564:70.0:1800.0:-1
ipc-2014-optimal-citycar-p3-3-3-3-1.pddl,CRASHED:1795.12:1000000000.0:1800.0:-1
ipc-2014-optimal-citycar-p3-3-3-3-2.pddl,CRASHED:1796.22:1000000000.0:1800.0:-1
ipc-2014-optimal-floortile-p01-4-3-2.pddl,SAT:169.015:56.0:1800.0:-1
ipc-2014-optimal-floortile-p01-4-4-2.pddl,CRASHED:1801.05:1000000000.0:1800.0:-1
ipc-2014-optimal-floortile-p01-5-3-2.pddl,SAT:340.843:63.0:1800.0:-1
ipc-2014-optimal-floortile-p01-5-4-2.pddl,CRASHED:1800.22:1000000000.0:1800.0:-1
ipc-2014-optimal-floortile-p01-5-5-2.pddl,CRASHED:1800.96:1000000000.0:1800.0:-1
ipc-2014-optimal-floortile-p01-6-4-2.pddl,CRASHED:1800.2:1000000000.0:1800.0:-1
ipc-2014-optimal-floortile-p01-6-5-2.pddl,CRASHED:1800.44:1000000000.0:1800.0:-1
ipc-2014-optimal-floortile-p02-4-4-2.pddl,CRASHED:1800.52:1000000000.0:1800.0:-1
ipc-2014-optimal-floortile-p02-5-3-2.pddl,SAT:528.371:65.0:1800.0:-1
ipc-2014-optimal-floortile-p02-5-4-2.pddl,CRASHED:1800.65:1000000000.0:1800.0:-1
ipc-2014-optimal-floortile-p02-5-5-2.pddl,CRASHED:1800.62:1000000000.0:1800.0:-1
ipc-2014-optimal-floortile-p02-6-4-2.pddl,CRASHED:1800.23:1000000000.0:1800.0:-1
ipc-2014-optimal-floortile-p02-6-5-2.pddl,CRASHED:1800.6:1000000000.0:1800.0:-1
ipc-2014-optimal-floortile-p03-4-3-2.pddl,SAT:170.785:56.0:1800.0:-1
ipc-2014-optimal-floortile-p03-4-4-2.pddl,CRASHED:1800.42:1000000000.0:1800.0:-1
ipc-2014-optimal-floortile-p03-5-3-2.pddl,SAT:543.783:65.0:1800.0:-1
ipc-2014-optimal-floortile-p03-5-4-2.pddl,CRASHED:1801.05:1000000000.0:1800.0:-1
ipc-2014-optimal-floortile-p03-5-5-2.pddl,CRASHED:1800.94:1000000000.0:1800.0:-1
ipc-2014-optimal-floortile-p03-6-4-2.pddl,CRASHED:1800.19:1000000000.0:1800.0:-1
ipc-2014-optimal-floortile-p03-6-5-2.pddl,CRASHED:1800.19:1000000000.0:1800.0:-1
ipc-2014-optimal-ged-d-1-2.pddl,SAT:1.79273:1.0:1800.0:-1
ipc-2014-optimal-ged-d-1-3.pddl,SAT:14.6058:4.0:1800.0:-1
ipc-2014-optimal-ged-d-1-4.pddl,SAT:2.36964:1.0:1800.0:-1
ipc-2014-optimal-ged-d-1-8.pddl,SAT:41.8276:4.0:1800.0:-1
ipc-2014-optimal-ged-d-2-1.pddl,SAT:1.80972:1.0:1800.0:-1
ipc-2014-optimal-ged-d-2-3.pddl,SAT:3.22551:3.0:1800.0:-1
ipc-2014-optimal-ged-d-2-4.pddl,SAT:2.09268:2.0:1800.0:-1
ipc-2014-optimal-ged-d-2-8.pddl,CRASHED:1296.71:1000000000.0:1800.0:-1
ipc-2014-optimal-ged-d-3-1.pddl,SAT:10.8184:4.0:1800.0:-1
ipc-2014-optimal-ged-d-3-2.pddl,SAT:2.44363:3.0:1800.0:-1
ipc-2014-optimal-ged-d-3-4.pddl,SAT:364.889:5.0:1800.0:-1
ipc-2014-optimal-ged-d-4-2.pddl,SAT:1.9907:2.0:1800.0:-1
ipc-2014-optimal-ged-d-4-3.pddl,SAT:129.794:5.0:1800.0:-1
ipc-2014-optimal-ged-d-4-8.pddl,CRASHED:1302.31:1000000000.0:1800.0:-1
ipc-2014-optimal-ged-d-7-5.pddl,SAT:29.5045:4.0:1800.0:-1
ipc-2014-optimal-ged-d-7-6.pddl,SAT:63.4194:4.0:1800.0:-1
ipc-2014-optimal-ged-d-8-1.pddl,SAT:29.2026:4.0:1800.0:-1
ipc-2014-optimal-ged-d-8-2.pddl,CRASHED:1294.77:1000000000.0:1800.0:-1
ipc-2014-optimal-ged-d-8-4.pddl,CRASHED:1295.27:1000000000.0:1800.0:-1
ipc-2014-optimal-ged-d-8-9.pddl,CRASHED:1295.02:1000000000.0:1800.0:-1
ipc-2014-optimal-hiking-1-2-3.pddl,SAT:0.761883:11.0:1800.0:-1
ipc-2014-optimal-hiking-1-2-4.pddl,SAT:1.07584:17.0:1800.0:-1
ipc-2014-optimal-hiking-1-2-5.pddl,SAT:2.14267:25.0:1800.0:-1
ipc-2014-optimal-hiking-1-2-7.pddl,SAT:15.5336:38.0:1800.0:-1
ipc-2014-optimal-hiking-1-2-8.pddl,SAT:42.1696:45.0:1800.0:-1
ipc-2014-optimal-hiking-2-2-3.pddl,SAT:3.16852:10.0:1800.0:-1
ipc-2014-optimal-hiking-2-2-4.pddl,SAT:199.956:16.0:1800.0:-1
ipc-2014-optimal-hiking-2-2-5.pddl,SAT:1083.52:22.0:1800.0:-1
ipc-2014-optimal-hiking-2-2-6.pddl,SAT:1156.31:30.0:1800.0:-1
ipc-2014-optimal-hiking-2-2-7.pddl,CRASHED:1800.44:1000000000.0:1800.0:-1
ipc-2014-optimal-hiking-2-2-8.pddl,CRASHED:1800.6:1000000000.0:1800.0:-1
ipc-2014-optimal-hiking-2-3-4.pddl,SAT:952.76:17.0:1800.0:-1
ipc-2014-optimal-hiking-2-3-5.pddl,SAT:1145.33:24.0:1800.0:-1
ipc-2014-optimal-hiking-2-3-6.pddl,CRASHED:1800.9:1000000000.0:1800.0:-1
ipc-2014-optimal-hiking-2-3-7.pddl,CRASHED:1800.97:1000000000.0:1800.0:-1
ipc-2014-optimal-hiking-2-4-3.pddl,SAT:20.6319:10.0:1800.0:-1
ipc-2014-optimal-hiking-2-4-4.pddl,SAT:993.122:17.0:1800.0:-1
ipc-2014-optimal-hiking-2-4-5.pddl,CRASHED:1800.24:1000000000.0:1800.0:-1
ipc-2014-optimal-hiking-2-4-6.pddl,CRASHED:1800.61:1000000000.0:1800.0:-1
ipc-2014-optimal-hiking-2-4-7.pddl,CRASHED:1781.14:1000000000.0:1800.0:-1
ipc-2014-optimal-maintenance-1.3.010.010.1-001.pddl,CRASHED:0.939856:1000000000.0:1800.0:-1
ipc-2014-optimal-maintenance-1.3.010.010.1-002.pddl,CRASHED:1.2958:1000000000.0:1800.0:-1
ipc-2014-optimal-maintenance-1.3.010.010.2-000.pddl,SAT:0.736887:4.0:1800.0:-1
ipc-2014-optimal-maintenance-1.3.010.010.2-001.pddl,SAT:0.817875:7.0:1800.0:-1
ipc-2014-optimal-maintenance-1.3.010.010.2-002.pddl,SAT:0.728888:6.0:1800.0:-1
ipc-2014-optimal-maintenance-1.3.015.020.1-000.pddl,CRASHED:65.506:1000000000.0:1800.0:-1
ipc-2014-optimal-maintenance-1.3.015.020.1-001.pddl,CRASHED:36.1085:1000000000.0:1800.0:-1
ipc-2014-optimal-maintenance-1.3.015.020.1-002.pddl,CRASHED:54.7337:1000000000.0:1800.0:-1
ipc-2014-optimal-maintenance-1.3.015.020.2-000.pddl,CRASHED:182.015:1000000000.0:1800.0:-1
ipc-2014-optimal-maintenance-1.3.015.020.2-001.pddl,SAT:0.776881:11.0:1800.0:-1
ipc-2014-optimal-maintenance-1.3.015.020.2-002.pddl,SAT:0.635903:9.0:1800.0:-1
ipc-2014-optimal-maintenance-1.3.025.050.1-000.pddl,CRASHED:1359.66:1000000000.0:1800.0:-1
ipc-2014-optimal-maintenance-1.3.025.050.1-001.pddl,CRASHED:1800.74:1000000000.0:1800.0:-1
ipc-2014-optimal-maintenance-1.3.025.050.1-002.pddl,CRASHED:1739.15:1000000000.0:1800.0:-1
ipc-2014-optimal-maintenance-1.3.025.100.1-000.pddl,CRASHED:27.79:1000000000.0:1800.0:-1
ipc-2014-optimal-maintenance-1.3.025.100.1-001.pddl,CRASHED:26.24:1000000000.0:1800.0:-1
ipc-2014-optimal-maintenance-1.3.025.100.1-002.pddl,CRASHED:28.47:1000000000.0:1800.0:-1
ipc-2014-optimal-maintenance-1.3.025.100.2-000.pddl,CRASHED:70.96:1000000000.0:1800.0:-1
ipc-2014-optimal-maintenance-1.3.025.100.2-001.pddl,CRASHED:64.25:1000000000.0:1800.0:-1
ipc-2014-optimal-maintenance-1.3.025.100.2-002.pddl,CRASHED:59.01:1000000000.0:1800.0:-1
ipc-2014-optimal-openstacks-p20_1.pddl,SAT:1172.3:3.0:1800.0:-1
ipc-2014-optimal-openstacks-p20_2.pddl,SAT:1214.79:4.0:1800.0:-1
ipc-2014-optimal-openstacks-p20_3.pddl,SAT:64.3112:6.0:1800.0:-1
ipc-2014-optimal-openstacks-p25_1.pddl,CRASHED:1462.96:1000000000.0:1800.0:-1
ipc-2014-optimal-openstacks-p25_3.pddl,CRASHED:1456.69:1000000000.0:1800.0:-1
ipc-2014-optimal-openstacks-p30_1.pddl,CRASHED:1484.59:1000000000.0:1800.0:-1
ipc-2014-optimal-openstacks-p30_2.pddl,CRASHED:1571.15:1000000000.0:1800.0:-1
ipc-2014-optimal-openstacks-p30_3.pddl,CRASHED:1448.25:1000000000.0:1800.0:-1
ipc-2014-optimal-openstacks-p35_1.pddl,CRASHED:1504.88:1000000000.0:1800.0:-1
ipc-2014-optimal-openstacks-p35_2.pddl,CRASHED:1584.43:1000000000.0:1800.0:-1
ipc-2014-optimal-openstacks-p35_3.pddl,CRASHED:1441.83:1000000000.0:1800.0:-1
ipc-2014-optimal-openstacks-p40_1.pddl,CRASHED:1468.7:1000000000.0:1800.0:-1
ipc-2014-optimal-openstacks-p40_2.pddl,CRASHED:1467.01:1000000000.0:1800.0:-1
ipc-2014-optimal-openstacks-p40_3.pddl,CRASHED:1474.71:1000000000.0:1800.0:-1
ipc-2014-optimal-openstacks-p45_1.pddl,CRASHED:1583.2:1000000000.0:1800.0:-1
ipc-2014-optimal-openstacks-p45_2.pddl,CRASHED:1506.05:1000000000.0:1800.0:-1
ipc-2014-optimal-openstacks-p45_3.pddl,CRASHED:1460.99:1000000000.0:1800.0:-1
ipc-2014-optimal-openstacks-p50_1.pddl,CRASHED:1525.96:1000000000.0:1800.0:-1
ipc-2014-optimal-openstacks-p50_2.pddl,CRASHED:1527.47:1000000000.0:1800.0:-1
ipc-2014-optimal-openstacks-p50_3.pddl,CRASHED:1468.53:1000000000.0:1800.0:-1
ipc-2014-optimal-parking-12_7-01.pddl,SAT:212.882:18.0:1800.0:-1
ipc-2014-optimal-parking-12_7-02.pddl,CRASHED:1800.18:1000000000.0:1800.0:-1
ipc-2014-optimal-parking-12_7-03.pddl,SAT:164.745:17.0:1800.0:-1
ipc-2014-optimal-parking-12_7-04.pddl,CRASHED:1800.57:1000000000.0:1800.0:-1
ipc-2014-optimal-parking-14_8-01.pddl,CRASHED:1461.79:1000000000.0:1800.0:-1
ipc-2014-optimal-parking-14_8-02.pddl,CRASHED:1478.86:1000000000.0:1800.0:-1
ipc-2014-optimal-parking-14_8-03.pddl,CRASHED:1473.7:1000000000.0:1800.0:-1
ipc-2014-optimal-parking-14_8-04.pddl,CRASHED:1484.31:1000000000.0:1800.0:-1
ipc-2014-optimal-parking-16_9-01.pddl,CRASHED:1594.54:1000000000.0:1800.0:-1
ipc-2014-optimal-parking-16_9-02.pddl,CRASHED:1578.62:1000000000.0:1800.0:-1
ipc-2014-optimal-parking-16_9-03.pddl,CRASHED:1602.42:1000000000.0:1800.0:-1
ipc-2014-optimal-parking-16_9-04.pddl,CRASHED:1614.24:1000000000.0:1800.0:-1
ipc-2014-optimal-parking-18_10-01.pddl,CRASHED:1800.48:1000000000.0:1800.0:-1
ipc-2014-optimal-parking-18_10-02.pddl,CRASHED:1800.38:1000000000.0:1800.0:-1
ipc-2014-optimal-parking-18_10-03.pddl,CRASHED:1800.4:1000000000.0:1800.0:-1
ipc-2014-optimal-parking-18_10-04.pddl,CRASHED:1642.48:1000000000.0:1800.0:-1
ipc-2014-optimal-parking-20_11-01.pddl,CRASHED:1800.23:1000000000.0:1800.0:-1
ipc-2014-optimal-parking-20_11-02.pddl,CRASHED:1800.86:1000000000.0:1800.0:-1
ipc-2014-optimal-parking-20_11-03.pddl,CRASHED:1800.69:1000000000.0:1800.0:-1
ipc-2014-optimal-parking-20_11-04.pddl,CRASHED:1800.63:1000000000.0:1800.0:-1
ipc-2014-optimal-tetris-01-10.pddl,CRASHED:1800.61:1000000000.0:1800.0:-1
ipc-2014-optimal-tetris-01-04.pddl,CRASHED:1423.4:1000000000.0:1800.0:-1
ipc-2014-optimal-tetris-01-06.pddl,CRASHED:1801.02:1000000000.0:1800.0:-1
ipc-2014-optimal-tetris-01-08.pddl,CRASHED:1800.41:1000000000.0:1800.0:-1
ipc-2014-optimal-tetris-02-10.pddl,CRASHED:1800.16:1000000000.0:1800.0:-1
ipc-2014-optimal-tetris-02-04.pddl,SAT:3.53246:10.0:1800.0:-1
ipc-2014-optimal-tetris-02-06.pddl,SAT:801.195:30.0:1800.0:-1
ipc-2014-optimal-tetris-02-08.pddl,CRASHED:1800.23:1000000000.0:1800.0:-1
ipc-2014-optimal-tetris-03-10.pddl,CRASHED:1800.56:1000000000.0:1800.0:-1
ipc-2014-optimal-tetris-03-04.pddl,SAT:79.146:11.0:1800.0:-1
ipc-2014-optimal-tetris-03-06.pddl,SAT:508.288:21.0:1800.0:-1
ipc-2014-optimal-tetris-03-08.pddl,CRASHED:1800.47:1000000000.0:1800.0:-1
ipc-2014-optimal-tetris-04-10.pddl,CRASHED:1800.55:1000000000.0:1800.0:-1
ipc-2014-optimal-tetris-04-04.pddl,CRASHED:1601.2:1000000000.0:1800.0:-1
ipc-2014-optimal-tetris-04-06.pddl,CRASHED:1800.97:1000000000.0:1800.0:-1
ipc-2014-optimal-tetris-04-08.pddl,CRASHED:1800.37:1000000000.0:1800.0:-1
ipc-2014-optimal-tetris-05-10.pddl,CRASHED:1800.71:1000000000.0:1800.0:-1
ipc-2014-optimal-tetris-05-04.pddl,CRASHED:1331.74:1000000000.0:1800.0:-1
ipc-2014-optimal-tetris-05-06.pddl,SAT:82.3985:19.0:1800.0:-1
ipc-2014-optimal-tetris-05-08.pddl,TIMEOUT:1801.19:-1.0:1800.0:-1
ipc-2014-optimal-tidybot-01.pddl,CRASHED:1800.36:1000000000.0:1800.0:-1
ipc-2014-optimal-tidybot-02.pddl,SAT:312.909:35.0:1800.0:-1
ipc-2014-optimal-tidybot-03.pddl,SAT:301.073:30.0:1800.0:-1
ipc-2014-optimal-tidybot-04.pddl,SAT:279.817:24.0:1800.0:-1
ipc-2014-optimal-tidybot-05.pddl,CRASHED:1800.5:1000000000.0:1800.0:-1
ipc-2014-optimal-tidybot-06.pddl,CRASHED:1800.18:1000000000.0:1800.0:-1
ipc-2014-optimal-tidybot-07.pddl,CRASHED:1800.47:1000000000.0:1800.0:-1
ipc-2014-optimal-tidybot-08.pddl,SAT:173.653:25.0:1800.0:-1
ipc-2014-optimal-tidybot-09.pddl,CRASHED:1800.73:1000000000.0:1800.0:-1
ipc-2014-optimal-tidybot-10.pddl,CRASHED:1800.91:1000000000.0:1800.0:-1
ipc-2014-optimal-tidybot-11.pddl,SAT:152.287:29.0:1800.0:-1
ipc-2014-optimal-tidybot-12.pddl,CRASHED:1800.6:1000000000.0:1800.0:-1
ipc-2014-optimal-tidybot-13.pddl,SAT:335.108:30.0:1800.0:-1
ipc-2014-optimal-tidybot-14.pddl,SAT:62.8104:25.0:1800.0:-1
ipc-2014-optimal-tidybot-15.pddl,CRASHED:1800.33:1000000000.0:1800.0:-1
ipc-2014-optimal-tidybot-16.pddl,CRASHED:1800.51:1000000000.0:1800.0:-1
ipc-2014-optimal-tidybot-17.pddl,CRASHED:1800.19:1000000000.0:1800.0:-1
ipc-2014-optimal-tidybot-18.pddl,CRASHED:1800.91:1000000000.0:1800.0:-1
ipc-2014-optimal-tidybot-19.pddl,CRASHED:1800.5:1000000000.0:1800.0:-1
ipc-2014-optimal-tidybot-20.pddl,CRASHED:1800.31:1000000000.0:1800.0:-1
ipc-2014-optimal-transport-01.pddl,SAT:1.00585:148.0:1800.0:-1
ipc-2014-optimal-transport-02.pddl,SAT:24.4743:191.0:1800.0:-1
ipc-2014-optimal-transport-03.pddl,SAT:89.5844:300.0:1800.0:-1
ipc-2014-optimal-transport-04.pddl,CRASHED:1800.16:1000000000.0:1800.0:-1
ipc-2014-optimal-transport-05.pddl,CRASHED:1741.06:1000000000.0:1800.0:-1
ipc-2014-optimal-transport-06.pddl,CRASHED:1741.61:1000000000.0:1800.0:-1
ipc-2014-optimal-transport-07.pddl,SAT:325.083:967.0:1800.0:-1
ipc-2014-optimal-transport-08.pddl,CRASHED:1800.84:1000000000.0:1800.0:-1
ipc-2014-optimal-transport-09.pddl,CRASHED:1800.62:1000000000.0:1800.0:-1
ipc-2014-optimal-transport-10.pddl,CRASHED:1800.15:1000000000.0:1800.0:-1
ipc-2014-optimal-transport-11.pddl,CRASHED:1800.62:1000000000.0:1800.0:-1
ipc-2014-optimal-transport-12.pddl,CRASHED:1801.08:1000000000.0:1800.0:-1
ipc-2014-optimal-transport-13.pddl,SAT:9.97448:594.0:1800.0:-1
ipc-2014-optimal-transport-14.pddl,SAT:305.341:526.0:1800.0:-1
ipc-2014-optimal-transport-15.pddl,CRASHED:1800.27:1000000000.0:1800.0:-1
ipc-2014-optimal-transport-16.pddl,CRASHED:1800.86:1000000000.0:1800.0:-1
ipc-2014-optimal-transport-17.pddl,CRASHED:1746.78:1000000000.0:1800.0:-1
ipc-2014-optimal-transport-18.pddl,CRASHED:1764.58:1000000000.0:1800.0:-1
ipc-2014-optimal-transport-19.pddl,CRASHED:1787.38:1000000000.0:1800.0:-1
ipc-2014-optimal-transport-20.pddl,CRASHED:1800.51:1000000000.0:1800.0:-1
ipc-2014-optimal-visitall-05-10.pddl,TIMEOUT:1801.1:-1.0:1800.0:-1
ipc-2014-optimal-visitall-05-05.pddl,SAT:0.648901:21.0:1800.0:-1
ipc-2014-optimal-visitall-05-06.pddl,SAT:1.52377:25.0:1800.0:-1
ipc-2014-optimal-visitall-05-07.pddl,SAT:19.551:34.0:1800.0:-1
ipc-2014-optimal-visitall-05-08.pddl,SAT:59.33:43.0:1800.0:-1
ipc-2014-optimal-visitall-05-09.pddl,CRASHED:1800.57:1000000000.0:1800.0:-1
ipc-2014-optimal-visitall-01-10.pddl,SAT:1.09383:99.0:1800.0:-1
ipc-2014-optimal-visitall-01-11.pddl,SAT:1.2788:120.0:1800.0:-1
ipc-2014-optimal-visitall-01-12.pddl,SAT:23.9664:143.0:1800.0:-1
ipc-2014-optimal-visitall-01-13.pddl,SAT:1.43278:168.0:1800.0:-1
ipc-2014-optimal-visitall-01-14.pddl,CRASHED:1800.25:1000000000.0:1800.0:-1
ipc-2014-optimal-visitall-01-15.pddl,CRASHED:1800.12:1000000000.0:1800.0:-1
ipc-2014-optimal-visitall-01-16.pddl,CRASHED:1800.3:1000000000.0:1800.0:-1
ipc-2014-optimal-visitall-01-17.pddl,CRASHED:1800.24:1000000000.0:1800.0:-1
ipc-2014-optimal-visitall-01-18.pddl,CRASHED:1800.51:1000000000.0:1800.0:-1
ipc-2014-optimal-visitall-01-05.pddl,SAT:0.524919:24.0:1800.0:-1
ipc-2014-optimal-visitall-01-06.pddl,SAT:0.551915:35.0:1800.0:-1
ipc-2014-optimal-visitall-01-07.pddl,SAT:0.671897:48.0:1800.0:-1
ipc-2014-optimal-visitall-01-08.pddl,SAT:0.729888:63.0:1800.0:-1
ipc-2014-optimal-visitall-01-09.pddl,SAT:0.818875:80.0:1800.0:-1
