instance,ipc-2014-optimal-gamer
ipc-2014-optimal-barman-p433.1.pddl,CRASHED:0.052991:1000000000.0:1800.0:-1
ipc-2014-optimal-barman-p433.2.pddl,CRASHED:0.042993:1000000000.0:1800.0:-1
ipc-2014-optimal-barman-p433.3.pddl,CRASHED:0.087986:1000000000.0:1800.0:-1
ipc-2014-optimal-barman-p435.1.pddl,SAT:785.961:49.0:1800.0:-1
ipc-2014-optimal-barman-p435.2.pddl,SAT:972.761:49.0:1800.0:-1
ipc-2014-optimal-barman-p435.3.pddl,SAT:773.237:49.0:1800.0:-1
ipc-2014-optimal-barman-p443.1.pddl,CRASHED:0.078987:1000000000.0:1800.0:-1
ipc-2014-optimal-barman-p443.2.pddl,CRASHED:0.074988:1000000000.0:1800.0:-1
ipc-2014-optimal-barman-p443.3.pddl,CRASHED:0.076987:1000000000.0:1800.0:-1
ipc-2014-optimal-barman-p536.1.pddl,CRASHED:1238.7:1000000000.0:1800.0:-1
ipc-2014-optimal-barman-p536.2.pddl,CRASHED:1488.32:1000000000.0:1800.0:-1
ipc-2014-optimal-barman-p536.3.pddl,CRASHED:1583.86:1000000000.0:1800.0:-1
ipc-2014-optimal-barman-p638.1.pddl,CRASHED:923.69:1000000000.0:1800.0:-1
ipc-2014-optimal-barman-p638.2.pddl,TIMEOUT:1801.04:-1.0:1800.0:-1
ipc-2014-optimal-barman-p638.3.pddl,CRASHED:818.66:1000000000.0:1800.0:-1
ipc-2014-optimal-barman-p739.1.pddl,TIMEOUT:1801.01:-1.0:1800.0:-1
ipc-2014-optimal-barman-p739.2.pddl,CRASHED:643.62:1000000000.0:1800.0:-1
ipc-2014-optimal-barman-p739.3.pddl,CRASHED:435.37:1000000000.0:1800.0:-1
ipc-2014-optimal-barman-p839.1.pddl,CRASHED:682.03:1000000000.0:1800.0:-1
ipc-2014-optimal-barman-p839.2.pddl,CRASHED:799.9:1000000000.0:1800.0:-1
ipc-2014-optimal-cavediving-01.pddl,CRASHED:1028.98:1000000000.0:1800.0:-1
ipc-2014-optimal-cavediving-01_easy.pddl,CRASHED:1438.47:1000000000.0:1800.0:-1
ipc-2014-optimal-cavediving-02_easy.pddl,CRASHED:1485.57:1000000000.0:1800.0:-1
ipc-2014-optimal-cavediving-03_easy.pddl,CRASHED:1723.0:1000000000.0:1800.0:-1
ipc-2014-optimal-cavediving-04_easy.pddl,CRASHED:1234.17:1000000000.0:1800.0:-1
ipc-2014-optimal-cavediving-05A_easy.pddl,SAT:281.633:0.0:1800.0:-1
ipc-2014-optimal-cavediving-06A_easy.pddl,SAT:280.527:0.0:1800.0:-1
ipc-2014-optimal-cavediving-07_easy.pddl,SAT:23.4074:131.0:1800.0:-1
ipc-2014-optimal-cavediving-08_easy.pddl,SAT:222.296:0.0:1800.0:-1
ipc-2014-optimal-cavediving-09_easy.pddl,CRASHED:1521.09:1000000000.0:1800.0:-1
ipc-2014-optimal-cavediving-10_easy.pddl,CRASHED:1197.67:1000000000.0:1800.0:-1
ipc-2014-optimal-cavediving-11_easy.pddl,CRASHED:1274.4:1000000000.0:1800.0:-1
ipc-2014-optimal-cavediving-12_easy.pddl,CRASHED:1267.32:1000000000.0:1800.0:-1
ipc-2014-optimal-cavediving-13_easy.pddl,CRASHED:576.9:1000000000.0:1800.0:-1
ipc-2014-optimal-cavediving-14_easy.pddl,CRASHED:704.15:1000000000.0:1800.0:-1
ipc-2014-optimal-cavediving-15_easy.pddl,CRASHED:569.52:1000000000.0:1800.0:-1
ipc-2014-optimal-cavediving-16_easy.pddl,CRASHED:947.52:1000000000.0:1800.0:-1
ipc-2014-optimal-cavediving-18A_easy.pddl,SAT:155.548:131.0:1800.0:-1
ipc-2014-optimal-cavediving-18_easy.pddl,SAT:106.044:131.0:1800.0:-1
ipc-2014-optimal-cavediving-20A_easy.pddl,SAT:517.131:0.0:1800.0:-1
ipc-2014-optimal-childsnack-01-2.pddl,SAT:449.229:21.0:1800.0:-1
ipc-2014-optimal-childsnack-01.pddl,SAT:265.7:20.0:1800.0:-1
ipc-2014-optimal-childsnack-02-2.pddl,CRASHED:736.46:1000000000.0:1800.0:-1
ipc-2014-optimal-childsnack-02.pddl,SAT:1283.71:23.0:1800.0:-1
ipc-2014-optimal-childsnack-03-2.pddl,CRASHED:251.05:1000000000.0:1800.0:-1
ipc-2014-optimal-childsnack-03.pddl,CRASHED:348.69:1000000000.0:1800.0:-1
ipc-2014-optimal-childsnack-04-2.pddl,CRASHED:321.85:1000000000.0:1800.0:-1
ipc-2014-optimal-childsnack-04.pddl,CRASHED:428.13:1000000000.0:1800.0:-1
ipc-2014-optimal-childsnack-05-2.pddl,CRASHED:486.05:1000000000.0:1800.0:-1
ipc-2014-optimal-childsnack-05.pddl,CRASHED:484.33:1000000000.0:1800.0:-1
ipc-2014-optimal-childsnack-06-2.pddl,CRASHED:332.86:1000000000.0:1800.0:-1
ipc-2014-optimal-childsnack-06.pddl,CRASHED:353.98:1000000000.0:1800.0:-1
ipc-2014-optimal-childsnack-07-2.pddl,CRASHED:438.32:1000000000.0:1800.0:-1
ipc-2014-optimal-childsnack-07.pddl,CRASHED:342.25:1000000000.0:1800.0:-1
ipc-2014-optimal-childsnack-08-2.pddl,CRASHED:4.04:1000000000.0:1800.0:-1
ipc-2014-optimal-childsnack-08.pddl,CRASHED:413.5:1000000000.0:1800.0:-1
ipc-2014-optimal-childsnack-09-2.pddl,CRASHED:216.1:1000000000.0:1800.0:-1
ipc-2014-optimal-childsnack-09.pddl,CRASHED:401.04:1000000000.0:1800.0:-1
ipc-2014-optimal-childsnack-10-2.pddl,CRASHED:268.52:1000000000.0:1800.0:-1
ipc-2014-optimal-childsnack-10.pddl,CRASHED:480.64:1000000000.0:1800.0:-1
ipc-2014-optimal-citycar-p2-2-2-1-2.pddl,SAT:5.16121:46.0:1800.0:-1
ipc-2014-optimal-citycar-p2-2-2-2-1.pddl,SAT:5.52916:64.0:1800.0:-1
ipc-2014-optimal-citycar-p2-2-3-1-2.pddl,SAT:6.78097:50.0:1800.0:-1
ipc-2014-optimal-citycar-p2-2-3-2-1.pddl,SAT:6.22505:48.0:1800.0:-1
ipc-2014-optimal-citycar-p2-2-3-2-2.pddl,SAT:7.76582:50.0:1800.0:-1
ipc-2014-optimal-citycar-p2-2-4-1-2.pddl,SAT:13.6339:52.0:1800.0:-1
ipc-2014-optimal-citycar-p2-2-4-2-1.pddl,SAT:13.8229:52.0:1800.0:-1
ipc-2014-optimal-citycar-p2-2-5-2-2.pddl,SAT:239.124:76.0:1800.0:-1
ipc-2014-optimal-citycar-p2-2-6-1-1.pddl,SAT:69.1865:58.0:1800.0:-1
ipc-2014-optimal-citycar-p2-2-6-2-2.pddl,SAT:68.2376:58.0:1800.0:-1
ipc-2014-optimal-citycar-p2-3-2-3-1.pddl,SAT:19.474:68.0:1800.0:-1
ipc-2014-optimal-citycar-p2-3-3-3-1.pddl,SAT:153.079:78.0:1800.0:-1
ipc-2014-optimal-citycar-p2-3-4-3-1.pddl,SAT:668.747:82.0:1800.0:-1
ipc-2014-optimal-citycar-p2-3-6-3-2.pddl,TIMEOUT:1801.07:-1.0:1800.0:-1
ipc-2014-optimal-citycar-p3-3-2-2-1.pddl,SAT:153.933:70.0:1800.0:-1
ipc-2014-optimal-citycar-p3-3-2-2-2.pddl,SAT:760.362:92.0:1800.0:-1
ipc-2014-optimal-citycar-p3-3-2-3-1.pddl,SAT:67.9627:48.0:1800.0:-1
ipc-2014-optimal-citycar-p3-3-2-3-2.pddl,SAT:105.735:70.0:1800.0:-1
ipc-2014-optimal-citycar-p3-3-3-3-1.pddl,TIMEOUT:1801.02:-1.0:1800.0:-1
ipc-2014-optimal-citycar-p3-3-3-3-2.pddl,SAT:1130.66:76.0:1800.0:-1
ipc-2014-optimal-floortile-p01-4-3-2.pddl,SAT:9.93049:56.0:1800.0:-1
ipc-2014-optimal-floortile-p01-4-4-2.pddl,SAT:70.2413:68.0:1800.0:-1
ipc-2014-optimal-floortile-p01-5-3-2.pddl,SAT:22.7955:63.0:1800.0:-1
ipc-2014-optimal-floortile-p01-5-4-2.pddl,SAT:471.558:91.0:1800.0:-1
ipc-2014-optimal-floortile-p01-5-5-2.pddl,TIMEOUT:1801.06:-1.0:1800.0:-1
ipc-2014-optimal-floortile-p01-6-4-2.pddl,SAT:1289.5:104.0:1800.0:-1
ipc-2014-optimal-floortile-p01-6-5-2.pddl,TIMEOUT:1801.01:-1.0:1800.0:-1
ipc-2014-optimal-floortile-p02-4-4-2.pddl,SAT:88.1236:75.0:1800.0:-1
ipc-2014-optimal-floortile-p02-5-3-2.pddl,SAT:24.4683:65.0:1800.0:-1
ipc-2014-optimal-floortile-p02-5-4-2.pddl,SAT:497.943:98.0:1800.0:-1
ipc-2014-optimal-floortile-p02-5-5-2.pddl,TIMEOUT:1801.08:-1.0:1800.0:-1
ipc-2014-optimal-floortile-p02-6-4-2.pddl,SAT:1494.78:109.0:1800.0:-1
ipc-2014-optimal-floortile-p02-6-5-2.pddl,CRASHED:1.98:1000000000.0:1800.0:-1
ipc-2014-optimal-floortile-p03-4-3-2.pddl,SAT:10.9143:56.0:1800.0:-1
ipc-2014-optimal-floortile-p03-4-4-2.pddl,SAT:85.0471:72.0:1800.0:-1
ipc-2014-optimal-floortile-p03-5-3-2.pddl,SAT:24.3743:65.0:1800.0:-1
ipc-2014-optimal-floortile-p03-5-4-2.pddl,SAT:370.313:83.0:1800.0:-1
ipc-2014-optimal-floortile-p03-5-5-2.pddl,TIMEOUT:1801.08:-1.0:1800.0:-1
ipc-2014-optimal-floortile-p03-6-4-2.pddl,SAT:1401.91:116.0:1800.0:-1
ipc-2014-optimal-floortile-p03-6-5-2.pddl,TIMEOUT:1801.03:-1.0:1800.0:-1
ipc-2014-optimal-ged-d-1-2.pddl,CRASHED:0.042992:1000000000.0:1800.0:-1
ipc-2014-optimal-ged-d-1-3.pddl,CRASHED:0.037993:1000000000.0:1800.0:-1
ipc-2014-optimal-ged-d-1-4.pddl,CRASHED:0.038993:1000000000.0:1800.0:-1
ipc-2014-optimal-ged-d-1-8.pddl,CRASHED:0.042992:1000000000.0:1800.0:-1
ipc-2014-optimal-ged-d-2-1.pddl,CRASHED:0.037993:1000000000.0:1800.0:-1
ipc-2014-optimal-ged-d-2-3.pddl,CRASHED:0.038994:1000000000.0:1800.0:-1
ipc-2014-optimal-ged-d-2-4.pddl,CRASHED:0.036993:1000000000.0:1800.0:-1
ipc-2014-optimal-ged-d-2-8.pddl,CRASHED:0.037993:1000000000.0:1800.0:-1
ipc-2014-optimal-ged-d-3-1.pddl,CRASHED:0.037993:1000000000.0:1800.0:-1
ipc-2014-optimal-ged-d-3-2.pddl,CRASHED:0.037993:1000000000.0:1800.0:-1
ipc-2014-optimal-ged-d-3-4.pddl,CRASHED:0.048992:1000000000.0:1800.0:-1
ipc-2014-optimal-ged-d-4-2.pddl,CRASHED:0.036993:1000000000.0:1800.0:-1
ipc-2014-optimal-ged-d-4-3.pddl,CRASHED:0.038993:1000000000.0:1800.0:-1
ipc-2014-optimal-ged-d-4-8.pddl,CRASHED:0.039993:1000000000.0:1800.0:-1
ipc-2014-optimal-ged-d-7-5.pddl,CRASHED:0.037993:1000000000.0:1800.0:-1
ipc-2014-optimal-ged-d-7-6.pddl,CRASHED:0.037994:1000000000.0:1800.0:-1
ipc-2014-optimal-ged-d-8-1.pddl,CRASHED:0.037994:1000000000.0:1800.0:-1
ipc-2014-optimal-ged-d-8-2.pddl,CRASHED:0.037993:1000000000.0:1800.0:-1
ipc-2014-optimal-ged-d-8-4.pddl,CRASHED:0.037993:1000000000.0:1800.0:-1
ipc-2014-optimal-ged-d-8-9.pddl,CRASHED:0.037994:1000000000.0:1800.0:-1
ipc-2014-optimal-hiking-1-2-3.pddl,SAT:1.37079:11.0:1800.0:-1
ipc-2014-optimal-hiking-1-2-4.pddl,SAT:1.80872:17.0:1800.0:-1
ipc-2014-optimal-hiking-1-2-5.pddl,SAT:1.80972:25.0:1800.0:-1
ipc-2014-optimal-hiking-1-2-7.pddl,SAT:3.9284:38.0:1800.0:-1
ipc-2014-optimal-hiking-1-2-8.pddl,SAT:4.25135:45.0:1800.0:-1
ipc-2014-optimal-hiking-2-2-3.pddl,SAT:3.05053:10.0:1800.0:-1
ipc-2014-optimal-hiking-2-2-4.pddl,SAT:9.79851:16.0:1800.0:-1
ipc-2014-optimal-hiking-2-2-5.pddl,SAT:88.4885:22.0:1800.0:-1
ipc-2014-optimal-hiking-2-2-6.pddl,SAT:409.197:30.0:1800.0:-1
ipc-2014-optimal-hiking-2-2-7.pddl,SAT:1746.62:34.0:1800.0:-1
ipc-2014-optimal-hiking-2-2-8.pddl,TIMEOUT:1801.04:-1.0:1800.0:-1
ipc-2014-optimal-hiking-2-3-4.pddl,SAT:29.5255:17.0:1800.0:-1
ipc-2014-optimal-hiking-2-3-5.pddl,SAT:435.802:24.0:1800.0:-1
ipc-2014-optimal-hiking-2-3-6.pddl,TIMEOUT:1801.09:-1.0:1800.0:-1
ipc-2014-optimal-hiking-2-3-7.pddl,TIMEOUT:1801.0:-1.0:1800.0:-1
ipc-2014-optimal-hiking-2-4-3.pddl,SAT:6.601:10.0:1800.0:-1
ipc-2014-optimal-hiking-2-4-4.pddl,SAT:51.0332:17.0:1800.0:-1
ipc-2014-optimal-hiking-2-4-5.pddl,SAT:866.984:23.0:1800.0:-1
ipc-2014-optimal-hiking-2-4-6.pddl,TIMEOUT:1801.01:-1.0:1800.0:-1
ipc-2014-optimal-hiking-2-4-7.pddl,TIMEOUT:1801.03:-1.0:1800.0:-1
ipc-2014-optimal-maintenance-1.3.010.010.1-001.pddl,CRASHED:1.14882:1000000000.0:1800.0:-1
ipc-2014-optimal-maintenance-1.3.010.010.1-002.pddl,CRASHED:1.13583:1000000000.0:1800.0:-1
ipc-2014-optimal-maintenance-1.3.010.010.2-000.pddl,SAT:1.14782:4.0:1800.0:-1
ipc-2014-optimal-maintenance-1.3.010.010.2-001.pddl,SAT:1.13983:7.0:1800.0:-1
ipc-2014-optimal-maintenance-1.3.010.010.2-002.pddl,CRASHED:1.19682:1000000000.0:1800.0:-1
ipc-2014-optimal-maintenance-1.3.015.020.1-000.pddl,CRASHED:0.050992:1000000000.0:1800.0:-1
ipc-2014-optimal-maintenance-1.3.015.020.1-001.pddl,CRASHED:0.049992:1000000000.0:1800.0:-1
ipc-2014-optimal-maintenance-1.3.015.020.1-002.pddl,CRASHED:0.05399:1000000000.0:1800.0:-1
ipc-2014-optimal-maintenance-1.3.015.020.2-000.pddl,CRASHED:0.050992:1000000000.0:1800.0:-1
ipc-2014-optimal-maintenance-1.3.015.020.2-001.pddl,CRASHED:0.049992:1000000000.0:1800.0:-1
ipc-2014-optimal-maintenance-1.3.015.020.2-002.pddl,CRASHED:0.051991:1000000000.0:1800.0:-1
ipc-2014-optimal-maintenance-1.3.025.050.1-000.pddl,CRASHED:2.43663:1000000000.0:1800.0:-1
ipc-2014-optimal-maintenance-1.3.025.050.1-001.pddl,CRASHED:2.40963:1000000000.0:1800.0:-1
ipc-2014-optimal-maintenance-1.3.025.050.1-002.pddl,CRASHED:2.31765:1000000000.0:1800.0:-1
ipc-2014-optimal-maintenance-1.3.025.100.1-000.pddl,CRASHED:4.08438:1000000000.0:1800.0:-1
ipc-2014-optimal-maintenance-1.3.025.100.1-001.pddl,CRASHED:4.05138:1000000000.0:1800.0:-1
ipc-2014-optimal-maintenance-1.3.025.100.1-002.pddl,CRASHED:4.02139:1000000000.0:1800.0:-1
ipc-2014-optimal-maintenance-1.3.025.100.2-000.pddl,CRASHED:223.56:1000000000.0:1800.0:-1
ipc-2014-optimal-maintenance-1.3.025.100.2-001.pddl,CRASHED:0.421935:1000000000.0:1800.0:-1
ipc-2014-optimal-maintenance-1.3.025.100.2-002.pddl,CRASHED:0.424934:1000000000.0:1800.0:-1
ipc-2014-optimal-openstacks-p20_1.pddl,CRASHED:1.9:1000000000.0:1800.0:-1
ipc-2014-optimal-openstacks-p20_2.pddl,SAT:35.7896:4.0:1800.0:-1
ipc-2014-optimal-openstacks-p20_3.pddl,SAT:37.2983:6.0:1800.0:-1
ipc-2014-optimal-openstacks-p25_1.pddl,SAT:39.9929:4.0:1800.0:-1
ipc-2014-optimal-openstacks-p25_3.pddl,SAT:52.0721:9.0:1800.0:-1
ipc-2014-optimal-openstacks-p30_1.pddl,SAT:47.9597:4.0:1800.0:-1
ipc-2014-optimal-openstacks-p30_2.pddl,SAT:50.2804:4.0:1800.0:-1
ipc-2014-optimal-openstacks-p30_3.pddl,SAT:133.44:12.0:1800.0:-1
ipc-2014-optimal-openstacks-p35_1.pddl,SAT:65.856:4.0:1800.0:-1
ipc-2014-optimal-openstacks-p35_2.pddl,SAT:75.3495:5.0:1800.0:-1
ipc-2014-optimal-openstacks-p35_3.pddl,SAT:1121.76:14.0:1800.0:-1
ipc-2014-optimal-openstacks-p40_1.pddl,SAT:91.4011:3.0:1800.0:-1
ipc-2014-optimal-openstacks-p40_2.pddl,SAT:103.309:4.0:1800.0:-1
ipc-2014-optimal-openstacks-p40_3.pddl,TIMEOUT:1801.1:-1.0:1800.0:-1
ipc-2014-optimal-openstacks-p45_1.pddl,SAT:174.493:4.0:1800.0:-1
ipc-2014-optimal-openstacks-p45_2.pddl,SAT:199.642:5.0:1800.0:-1
ipc-2014-optimal-openstacks-p45_3.pddl,TIMEOUT:1801.01:-1.0:1800.0:-1
ipc-2014-optimal-openstacks-p50_1.pddl,SAT:333.511:4.0:1800.0:-1
ipc-2014-optimal-openstacks-p50_2.pddl,SAT:956.966:5.0:1800.0:-1
ipc-2014-optimal-openstacks-p50_3.pddl,TIMEOUT:1801.01:-1.0:1800.0:-1
ipc-2014-optimal-parking-12_7-01.pddl,CRASHED:1494.37:1000000000.0:1800.0:-1
ipc-2014-optimal-parking-12_7-02.pddl,CRASHED:1612.88:1000000000.0:1800.0:-1
ipc-2014-optimal-parking-12_7-03.pddl,CRASHED:978.32:1000000000.0:1800.0:-1
ipc-2014-optimal-parking-12_7-04.pddl,CRASHED:1211.18:1000000000.0:1800.0:-1
ipc-2014-optimal-parking-14_8-01.pddl,CRASHED:1463.64:1000000000.0:1800.0:-1
ipc-2014-optimal-parking-14_8-02.pddl,CRASHED:1407.39:1000000000.0:1800.0:-1
ipc-2014-optimal-parking-14_8-03.pddl,CRASHED:1391.98:1000000000.0:1800.0:-1
ipc-2014-optimal-parking-14_8-04.pddl,CRASHED:1306.79:1000000000.0:1800.0:-1
ipc-2014-optimal-parking-16_9-01.pddl,TIMEOUT:1801.02:-1.0:1800.0:-1
ipc-2014-optimal-parking-16_9-02.pddl,TIMEOUT:1801.02:-1.0:1800.0:-1
ipc-2014-optimal-parking-16_9-03.pddl,TIMEOUT:1801.05:-1.0:1800.0:-1
ipc-2014-optimal-parking-16_9-04.pddl,TIMEOUT:1801.06:-1.0:1800.0:-1
ipc-2014-optimal-parking-18_10-01.pddl,TIMEOUT:1801.06:-1.0:1800.0:-1
ipc-2014-optimal-parking-18_10-02.pddl,TIMEOUT:1801.05:-1.0:1800.0:-1
ipc-2014-optimal-parking-18_10-03.pddl,TIMEOUT:1801.08:-1.0:1800.0:-1
ipc-2014-optimal-parking-18_10-04.pddl,TIMEOUT:1801.06:-1.0:1800.0:-1
ipc-2014-optimal-parking-20_11-01.pddl,TIMEOUT:1801.03:-1.0:1800.0:-1
ipc-2014-optimal-parking-20_11-02.pddl,TIMEOUT:1801.1:-1.0:1800.0:-1
ipc-2014-optimal-parking-20_11-03.pddl,TIMEOUT:1801.1:-1.0:1800.0:-1
ipc-2014-optimal-parking-20_11-04.pddl,TIMEOUT:1801.08:-1.0:1800.0:-1
ipc-2014-optimal-tetris-01-10.pddl,CRASHED:39.33:1000000000.0:1800.0:-1
ipc-2014-optimal-tetris-01-04.pddl,CRASHED:692.198:1000000000.0:1800.0:-1
ipc-2014-optimal-tetris-01-06.pddl,TIMEOUT:1801.06:-1.0:1800.0:-1
ipc-2014-optimal-tetris-01-08.pddl,CRASHED:54.81:1000000000.0:1800.0:-1
ipc-2014-optimal-tetris-02-10.pddl,CRASHED:39.95:1000000000.0:1800.0:-1
ipc-2014-optimal-tetris-02-04.pddl,SAT:34.8117:10.0:1800.0:-1
ipc-2014-optimal-tetris-02-06.pddl,CRASHED:40.13:1000000000.0:1800.0:-1
ipc-2014-optimal-tetris-02-08.pddl,CRASHED:47.61:1000000000.0:1800.0:-1
ipc-2014-optimal-tetris-03-10.pddl,CRASHED:73.86:1000000000.0:1800.0:-1
ipc-2014-optimal-tetris-03-04.pddl,SAT:47.9357:11.0:1800.0:-1
ipc-2014-optimal-tetris-03-06.pddl,TIMEOUT:1801.01:-1.0:1800.0:-1
ipc-2014-optimal-tetris-03-08.pddl,CRASHED:60.54:1000000000.0:1800.0:-1
ipc-2014-optimal-tetris-04-10.pddl,CRASHED:64.56:1000000000.0:1800.0:-1
ipc-2014-optimal-tetris-04-04.pddl,CRASHED:345.107:1000000000.0:1800.0:-1
ipc-2014-optimal-tetris-04-06.pddl,TIMEOUT:1801.08:-1.0:1800.0:-1
ipc-2014-optimal-tetris-04-08.pddl,CRASHED:61.06:1000000000.0:1800.0:-1
ipc-2014-optimal-tetris-05-10.pddl,CRASHED:81.88:1000000000.0:1800.0:-1
ipc-2014-optimal-tetris-05-04.pddl,CRASHED:394.179:1000000000.0:1800.0:-1
ipc-2014-optimal-tetris-05-06.pddl,SAT:322.098:19.0:1800.0:-1
ipc-2014-optimal-tetris-05-08.pddl,CRASHED:67.86:1000000000.0:1800.0:-1
ipc-2014-optimal-tidybot-01.pddl,TIMEOUT:1801.02:-1.0:1800.0:-1
ipc-2014-optimal-tidybot-02.pddl,SAT:1481.69:35.0:1800.0:-1
ipc-2014-optimal-tidybot-03.pddl,TIMEOUT:1801.08:-1.0:1800.0:-1
ipc-2014-optimal-tidybot-04.pddl,SAT:1076.44:24.0:1800.0:-1
ipc-2014-optimal-tidybot-05.pddl,TIMEOUT:1801.04:-1.0:1800.0:-1
ipc-2014-optimal-tidybot-06.pddl,CRASHED:1120.56:1000000000.0:1800.0:-1
ipc-2014-optimal-tidybot-07.pddl,TIMEOUT:1801.1:-1.0:1800.0:-1
ipc-2014-optimal-tidybot-08.pddl,SAT:1772.2:25.0:1800.0:-1
ipc-2014-optimal-tidybot-09.pddl,TIMEOUT:1801.06:-1.0:1800.0:-1
ipc-2014-optimal-tidybot-10.pddl,TIMEOUT:1801.07:-1.0:1800.0:-1
ipc-2014-optimal-tidybot-11.pddl,SAT:888.722:29.0:1800.0:-1
ipc-2014-optimal-tidybot-12.pddl,TIMEOUT:1801.03:-1.0:1800.0:-1
ipc-2014-optimal-tidybot-13.pddl,SAT:1426.9:30.0:1800.0:-1
ipc-2014-optimal-tidybot-14.pddl,TIMEOUT:1801.03:-1.0:1800.0:-1
ipc-2014-optimal-tidybot-15.pddl,TIMEOUT:1801.08:-1.0:1800.0:-1
ipc-2014-optimal-tidybot-16.pddl,CRASHED:1392.06:1000000000.0:1800.0:-1
ipc-2014-optimal-tidybot-17.pddl,TIMEOUT:1801.09:-1.0:1800.0:-1
ipc-2014-optimal-tidybot-18.pddl,TIMEOUT:1801.07:-1.0:1800.0:-1
ipc-2014-optimal-tidybot-19.pddl,TIMEOUT:1801.05:-1.0:1800.0:-1
ipc-2014-optimal-tidybot-20.pddl,TIMEOUT:1801.07:-1.0:1800.0:-1
ipc-2014-optimal-transport-01.pddl,SAT:2.6026:148.0:1800.0:-1
ipc-2014-optimal-transport-02.pddl,SAT:14.2058:191.0:1800.0:-1
ipc-2014-optimal-transport-03.pddl,SAT:38.3622:300.0:1800.0:-1
ipc-2014-optimal-transport-04.pddl,TIMEOUT:1801.07:-1.0:1800.0:-1
ipc-2014-optimal-transport-05.pddl,TIMEOUT:1801.01:-1.0:1800.0:-1
ipc-2014-optimal-transport-06.pddl,TIMEOUT:1801.07:-1.0:1800.0:-1
ipc-2014-optimal-transport-07.pddl,SAT:31.9001:967.0:1800.0:-1
ipc-2014-optimal-transport-08.pddl,TIMEOUT:1801.01:-1.0:1800.0:-1
ipc-2014-optimal-transport-09.pddl,TIMEOUT:1801.05:-1.0:1800.0:-1
ipc-2014-optimal-transport-10.pddl,TIMEOUT:1801.03:-1.0:1800.0:-1
ipc-2014-optimal-transport-11.pddl,TIMEOUT:1801.09:-1.0:1800.0:-1
ipc-2014-optimal-transport-12.pddl,TIMEOUT:1801.02:-1.0:1800.0:-1
ipc-2014-optimal-transport-13.pddl,SAT:12.0032:594.0:1800.0:-1
ipc-2014-optimal-transport-14.pddl,SAT:327.608:526.0:1800.0:-1
ipc-2014-optimal-transport-15.pddl,TIMEOUT:1801.02:-1.0:1800.0:-1
ipc-2014-optimal-transport-16.pddl,TIMEOUT:1801.05:-1.0:1800.0:-1
ipc-2014-optimal-transport-17.pddl,TIMEOUT:1801.1:-1.0:1800.0:-1
ipc-2014-optimal-transport-18.pddl,TIMEOUT:1801.0:-1.0:1800.0:-1
ipc-2014-optimal-transport-19.pddl,TIMEOUT:1801.07:-1.0:1800.0:-1
ipc-2014-optimal-transport-20.pddl,TIMEOUT:1801.08:-1.0:1800.0:-1
ipc-2014-optimal-visitall-05-10.pddl,CRASHED:609.58:1000000000.0:1800.0:-1
ipc-2014-optimal-visitall-05-05.pddl,SAT:1.99669:21.0:1800.0:-1
ipc-2014-optimal-visitall-05-06.pddl,SAT:2.82857:25.0:1800.0:-1
ipc-2014-optimal-visitall-05-07.pddl,SAT:32.701:34.0:1800.0:-1
ipc-2014-optimal-visitall-05-08.pddl,CRASHED:510.42:1000000000.0:1800.0:-1
ipc-2014-optimal-visitall-05-09.pddl,CRASHED:474.69:1000000000.0:1800.0:-1
ipc-2014-optimal-visitall-01-10.pddl,CRASHED:354.18:1000000000.0:1800.0:-1
ipc-2014-optimal-visitall-01-11.pddl,CRASHED:333.05:1000000000.0:1800.0:-1
ipc-2014-optimal-visitall-01-12.pddl,CRASHED:493.07:1000000000.0:1800.0:-1
ipc-2014-optimal-visitall-01-13.pddl,CRASHED:393.86:1000000000.0:1800.0:-1
ipc-2014-optimal-visitall-01-14.pddl,CRASHED:408.11:1000000000.0:1800.0:-1
ipc-2014-optimal-visitall-01-15.pddl,CRASHED:772.32:1000000000.0:1800.0:-1
ipc-2014-optimal-visitall-01-16.pddl,CRASHED:1040.63:1000000000.0:1800.0:-1
ipc-2014-optimal-visitall-01-17.pddl,CRASHED:975.49:1000000000.0:1800.0:-1
ipc-2014-optimal-visitall-01-18.pddl,CRASHED:766.7:1000000000.0:1800.0:-1
ipc-2014-optimal-visitall-01-05.pddl,SAT:4.54431:24.0:1800.0:-1
ipc-2014-optimal-visitall-01-06.pddl,CRASHED:343.02:1000000000.0:1800.0:-1
ipc-2014-optimal-visitall-01-07.pddl,CRASHED:424.65:1000000000.0:1800.0:-1
ipc-2014-optimal-visitall-01-08.pddl,CRASHED:305.02:1000000000.0:1800.0:-1
ipc-2014-optimal-visitall-01-09.pddl,CRASHED:401.55:1000000000.0:1800.0:-1
