instance,ipc-2014-optimal-rida
ipc-2014-optimal-barman-p433.1.pddl,CRASHED:0.360944:1000000000.0:1800.0:-1
ipc-2014-optimal-barman-p433.2.pddl,CRASHED:0.294954:1000000000.0:1800.0:-1
ipc-2014-optimal-barman-p433.3.pddl,CRASHED:0.284956:1000000000.0:1800.0:-1
ipc-2014-optimal-barman-p435.1.pddl,TIMEOUT:1801.05:-1.0:1800.0:-1
ipc-2014-optimal-barman-p435.2.pddl,TIMEOUT:1801.05:-1.0:1800.0:-1
ipc-2014-optimal-barman-p435.3.pddl,TIMEOUT:1801.07:-1.0:1800.0:-1
ipc-2014-optimal-barman-p443.1.pddl,CRASHED:0.302953:1000000000.0:1800.0:-1
ipc-2014-optimal-barman-p443.2.pddl,CRASHED:0.285956:1000000000.0:1800.0:-1
ipc-2014-optimal-barman-p443.3.pddl,CRASHED:0.294955:1000000000.0:1800.0:-1
ipc-2014-optimal-barman-p536.1.pddl,TIMEOUT:1801.0:-1.0:1800.0:-1
ipc-2014-optimal-barman-p536.2.pddl,TIMEOUT:1801.06:-1.0:1800.0:-1
ipc-2014-optimal-barman-p536.3.pddl,TIMEOUT:1801.06:-1.0:1800.0:-1
ipc-2014-optimal-barman-p638.1.pddl,TIMEOUT:1801.0:-1.0:1800.0:-1
ipc-2014-optimal-barman-p638.2.pddl,TIMEOUT:1801.07:-1.0:1800.0:-1
ipc-2014-optimal-barman-p638.3.pddl,TIMEOUT:1801.09:-1.0:1800.0:-1
ipc-2014-optimal-barman-p739.1.pddl,TIMEOUT:1801.07:-1.0:1800.0:-1
ipc-2014-optimal-barman-p739.2.pddl,TIMEOUT:1801.09:-1.0:1800.0:-1
ipc-2014-optimal-barman-p739.3.pddl,TIMEOUT:1801.06:-1.0:1800.0:-1
ipc-2014-optimal-barman-p839.1.pddl,TIMEOUT:1801.04:-1.0:1800.0:-1
ipc-2014-optimal-barman-p839.2.pddl,TIMEOUT:1801.0:-1.0:1800.0:-1
ipc-2014-optimal-cavediving-01.pddl,CRASHED:1.66175:1000000000.0:1800.0:-1
ipc-2014-optimal-cavediving-01_easy.pddl,CRASHED:1.18582:1000000000.0:1800.0:-1
ipc-2014-optimal-cavediving-02_easy.pddl,CRASHED:1.15282:1000000000.0:1800.0:-1
ipc-2014-optimal-cavediving-03_easy.pddl,CRASHED:1.17882:1000000000.0:1800.0:-1
ipc-2014-optimal-cavediving-04_easy.pddl,CRASHED:1.17882:1000000000.0:1800.0:-1
ipc-2014-optimal-cavediving-05A_easy.pddl,CRASHED:0.355945:1000000000.0:1800.0:-1
ipc-2014-optimal-cavediving-06A_easy.pddl,CRASHED:0.340947:1000000000.0:1800.0:-1
ipc-2014-optimal-cavediving-07_easy.pddl,TIMEOUT:1801.04:-1.0:1800.0:-1
ipc-2014-optimal-cavediving-08_easy.pddl,CRASHED:0.356945:1000000000.0:1800.0:-1
ipc-2014-optimal-cavediving-09_easy.pddl,CRASHED:5.38718:1000000000.0:1800.0:-1
ipc-2014-optimal-cavediving-10_easy.pddl,CRASHED:5.43317:1000000000.0:1800.0:-1
ipc-2014-optimal-cavediving-11_easy.pddl,CRASHED:5.77112:1000000000.0:1800.0:-1
ipc-2014-optimal-cavediving-12_easy.pddl,CRASHED:5.67014:1000000000.0:1800.0:-1
ipc-2014-optimal-cavediving-13_easy.pddl,CRASHED:1.67174:1000000000.0:1800.0:-1
ipc-2014-optimal-cavediving-14_easy.pddl,CRASHED:1.66075:1000000000.0:1800.0:-1
ipc-2014-optimal-cavediving-15_easy.pddl,CRASHED:1.42678:1000000000.0:1800.0:-1
ipc-2014-optimal-cavediving-16_easy.pddl,CRASHED:1.65175:1000000000.0:1800.0:-1
ipc-2014-optimal-cavediving-18A_easy.pddl,TIMEOUT:1801.07:-1.0:1800.0:-1
ipc-2014-optimal-cavediving-18_easy.pddl,TIMEOUT:1801.1:-1.0:1800.0:-1
ipc-2014-optimal-cavediving-20A_easy.pddl,CRASHED:0.463928:1000000000.0:1800.0:-1
ipc-2014-optimal-childsnack-01-2.pddl,TIMEOUT:1801.05:-1.0:1800.0:-1
ipc-2014-optimal-childsnack-01.pddl,TIMEOUT:1801.1:-1.0:1800.0:-1
ipc-2014-optimal-childsnack-02-2.pddl,TIMEOUT:1801.04:-1.0:1800.0:-1
ipc-2014-optimal-childsnack-02.pddl,TIMEOUT:1801.01:-1.0:1800.0:-1
ipc-2014-optimal-childsnack-03-2.pddl,TIMEOUT:1801.06:-1.0:1800.0:-1
ipc-2014-optimal-childsnack-03.pddl,TIMEOUT:1801.03:-1.0:1800.0:-1
ipc-2014-optimal-childsnack-04-2.pddl,TIMEOUT:1801.07:-1.0:1800.0:-1
ipc-2014-optimal-childsnack-04.pddl,TIMEOUT:1801.06:-1.0:1800.0:-1
ipc-2014-optimal-childsnack-05-2.pddl,TIMEOUT:1801.08:-1.0:1800.0:-1
ipc-2014-optimal-childsnack-05.pddl,TIMEOUT:1801.05:-1.0:1800.0:-1
ipc-2014-optimal-childsnack-06-2.pddl,TIMEOUT:1801.02:-1.0:1800.0:-1
ipc-2014-optimal-childsnack-06.pddl,TIMEOUT:1801.09:-1.0:1800.0:-1
ipc-2014-optimal-childsnack-07-2.pddl,TIMEOUT:1801.07:-1.0:1800.0:-1
ipc-2014-optimal-childsnack-07.pddl,TIMEOUT:1801.11:-1.0:1800.0:-1
ipc-2014-optimal-childsnack-08-2.pddl,TIMEOUT:1801.05:-1.0:1800.0:-1
ipc-2014-optimal-childsnack-08.pddl,TIMEOUT:1801.08:-1.0:1800.0:-1
ipc-2014-optimal-childsnack-09-2.pddl,TIMEOUT:1801.08:-1.0:1800.0:-1
ipc-2014-optimal-childsnack-09.pddl,TIMEOUT:1801.08:-1.0:1800.0:-1
ipc-2014-optimal-childsnack-10-2.pddl,TIMEOUT:1801.04:-1.0:1800.0:-1
ipc-2014-optimal-childsnack-10.pddl,TIMEOUT:1801.03:-1.0:1800.0:-1
ipc-2014-optimal-citycar-p2-2-2-1-2.pddl,SAT:1.60376:46.0:1800.0:-1
ipc-2014-optimal-citycar-p2-2-2-2-1.pddl,SAT:1.99969:64.0:1800.0:-1
ipc-2014-optimal-citycar-p2-2-3-1-2.pddl,SAT:2.24366:50.0:1800.0:-1
ipc-2014-optimal-citycar-p2-2-3-2-1.pddl,SAT:2.06369:48.0:1800.0:-1
ipc-2014-optimal-citycar-p2-2-3-2-2.pddl,SAT:2.29165:50.0:1800.0:-1
ipc-2014-optimal-citycar-p2-2-4-1-2.pddl,SAT:6.32204:52.0:1800.0:-1
ipc-2014-optimal-citycar-p2-2-4-2-1.pddl,SAT:6.39503:52.0:1800.0:-1
ipc-2014-optimal-citycar-p2-2-5-2-2.pddl,SAT:231.391:76.0:1800.0:-1
ipc-2014-optimal-citycar-p2-2-6-1-1.pddl,SAT:176.502:58.0:1800.0:-1
ipc-2014-optimal-citycar-p2-2-6-2-2.pddl,SAT:176.606:58.0:1800.0:-1
ipc-2014-optimal-citycar-p2-3-2-3-1.pddl,SAT:8.36473:68.0:1800.0:-1
ipc-2014-optimal-citycar-p2-3-3-3-1.pddl,SAT:52.688:78.0:1800.0:-1
ipc-2014-optimal-citycar-p2-3-4-3-1.pddl,SAT:266.38:82.0:1800.0:-1
ipc-2014-optimal-citycar-p2-3-6-3-2.pddl,TIMEOUT:1801.11:-1.0:1800.0:-1
ipc-2014-optimal-citycar-p3-3-2-2-1.pddl,SAT:189.927:70.0:1800.0:-1
ipc-2014-optimal-citycar-p3-3-2-2-2.pddl,CRASHED:1514.49:1000000000.0:1800.0:-1
ipc-2014-optimal-citycar-p3-3-2-3-1.pddl,SAT:8.07777:48.0:1800.0:-1
ipc-2014-optimal-citycar-p3-3-2-3-2.pddl,SAT:173.856:70.0:1800.0:-1
ipc-2014-optimal-citycar-p3-3-3-3-1.pddl,TIMEOUT:1801.07:-1.0:1800.0:-1
ipc-2014-optimal-citycar-p3-3-3-3-2.pddl,CRASHED:1552.93:76.0:1800.0:-1
ipc-2014-optimal-floortile-p01-4-3-2.pddl,TIMEOUT:1801.06:-1.0:1800.0:-1
ipc-2014-optimal-floortile-p01-4-4-2.pddl,TIMEOUT:1801.1:-1.0:1800.0:-1
ipc-2014-optimal-floortile-p01-5-3-2.pddl,TIMEOUT:1801.04:-1.0:1800.0:-1
ipc-2014-optimal-floortile-p01-5-4-2.pddl,TIMEOUT:1801.05:-1.0:1800.0:-1
ipc-2014-optimal-floortile-p01-5-5-2.pddl,TIMEOUT:1801.01:-1.0:1800.0:-1
ipc-2014-optimal-floortile-p01-6-4-2.pddl,TIMEOUT:1801.06:-1.0:1800.0:-1
ipc-2014-optimal-floortile-p01-6-5-2.pddl,TIMEOUT:1801.01:-1.0:1800.0:-1
ipc-2014-optimal-floortile-p02-4-4-2.pddl,TIMEOUT:1801.02:-1.0:1800.0:-1
ipc-2014-optimal-floortile-p02-5-3-2.pddl,TIMEOUT:1801.07:-1.0:1800.0:-1
ipc-2014-optimal-floortile-p02-5-4-2.pddl,TIMEOUT:1801.02:-1.0:1800.0:-1
ipc-2014-optimal-floortile-p02-5-5-2.pddl,TIMEOUT:1801.02:-1.0:1800.0:-1
ipc-2014-optimal-floortile-p02-6-4-2.pddl,TIMEOUT:1801.09:-1.0:1800.0:-1
ipc-2014-optimal-floortile-p02-6-5-2.pddl,TIMEOUT:1801.01:-1.0:1800.0:-1
ipc-2014-optimal-floortile-p03-4-3-2.pddl,TIMEOUT:1801.02:-1.0:1800.0:-1
ipc-2014-optimal-floortile-p03-4-4-2.pddl,TIMEOUT:1801.06:-1.0:1800.0:-1
ipc-2014-optimal-floortile-p03-5-3-2.pddl,TIMEOUT:1801.01:-1.0:1800.0:-1
ipc-2014-optimal-floortile-p03-5-4-2.pddl,TIMEOUT:1801.06:-1.0:1800.0:-1
ipc-2014-optimal-floortile-p03-5-5-2.pddl,TIMEOUT:1801.01:-1.0:1800.0:-1
ipc-2014-optimal-floortile-p03-6-4-2.pddl,TIMEOUT:1801.07:-1.0:1800.0:-1
ipc-2014-optimal-floortile-p03-6-5-2.pddl,TIMEOUT:1801.11:-1.0:1800.0:-1
ipc-2014-optimal-ged-d-1-2.pddl,SAT:50.8433:1.0:1800.0:-1
ipc-2014-optimal-ged-d-1-3.pddl,SAT:274.882:4.0:1800.0:-1
ipc-2014-optimal-ged-d-1-4.pddl,SAT:50.1354:1.0:1800.0:-1
ipc-2014-optimal-ged-d-1-8.pddl,SAT:523.202:4.0:1800.0:-1
ipc-2014-optimal-ged-d-2-1.pddl,SAT:51.1462:1.0:1800.0:-1
ipc-2014-optimal-ged-d-2-3.pddl,SAT:155.494:3.0:1800.0:-1
ipc-2014-optimal-ged-d-2-4.pddl,SAT:132.293:2.0:1800.0:-1
ipc-2014-optimal-ged-d-2-8.pddl,TIMEOUT:1801.05:-1.0:1800.0:-1
ipc-2014-optimal-ged-d-3-1.pddl,SAT:273.176:4.0:1800.0:-1
ipc-2014-optimal-ged-d-3-2.pddl,SAT:152.914:3.0:1800.0:-1
ipc-2014-optimal-ged-d-3-4.pddl,TIMEOUT:1801.08:-1.0:1800.0:-1
ipc-2014-optimal-ged-d-4-2.pddl,SAT:130.438:2.0:1800.0:-1
ipc-2014-optimal-ged-d-4-3.pddl,TIMEOUT:1801.03:-1.0:1800.0:-1
ipc-2014-optimal-ged-d-4-8.pddl,TIMEOUT:1801.09:-1.0:1800.0:-1
ipc-2014-optimal-ged-d-7-5.pddl,SAT:488.569:4.0:1800.0:-1
ipc-2014-optimal-ged-d-7-6.pddl,SAT:472.466:4.0:1800.0:-1
ipc-2014-optimal-ged-d-8-1.pddl,SAT:435.308:4.0:1800.0:-1
ipc-2014-optimal-ged-d-8-2.pddl,TIMEOUT:1801.0:-1.0:1800.0:-1
ipc-2014-optimal-ged-d-8-4.pddl,TIMEOUT:1801.08:-1.0:1800.0:-1
ipc-2014-optimal-ged-d-8-9.pddl,TIMEOUT:1801.11:-1.0:1800.0:-1
ipc-2014-optimal-hiking-1-2-3.pddl,SAT:2.88856:11.0:1800.0:-1
ipc-2014-optimal-hiking-1-2-4.pddl,SAT:6.26105:17.0:1800.0:-1
ipc-2014-optimal-hiking-1-2-5.pddl,SAT:14.1189:25.0:1800.0:-1
ipc-2014-optimal-hiking-1-2-7.pddl,SAT:41.8606:38.0:1800.0:-1
ipc-2014-optimal-hiking-1-2-8.pddl,SAT:74.9876:45.0:1800.0:-1
ipc-2014-optimal-hiking-2-2-3.pddl,SAT:142.505:10.0:1800.0:-1
ipc-2014-optimal-hiking-2-2-4.pddl,SAT:266.098:16.0:1800.0:-1
ipc-2014-optimal-hiking-2-2-5.pddl,SAT:613.943:22.0:1800.0:-1
ipc-2014-optimal-hiking-2-2-6.pddl,TIMEOUT:1801.06:-1.0:1800.0:-1
ipc-2014-optimal-hiking-2-2-7.pddl,TIMEOUT:1801.06:-1.0:1800.0:-1
ipc-2014-optimal-hiking-2-2-8.pddl,TIMEOUT:1801.1:-1.0:1800.0:-1
ipc-2014-optimal-hiking-2-3-4.pddl,SAT:608.069:17.0:1800.0:-1
ipc-2014-optimal-hiking-2-3-5.pddl,TIMEOUT:1801.05:-1.0:1800.0:-1
ipc-2014-optimal-hiking-2-3-6.pddl,TIMEOUT:1801.03:-1.0:1800.0:-1
ipc-2014-optimal-hiking-2-3-7.pddl,TIMEOUT:1801.07:-1.0:1800.0:-1
ipc-2014-optimal-hiking-2-4-3.pddl,SAT:256.557:10.0:1800.0:-1
ipc-2014-optimal-hiking-2-4-4.pddl,SAT:1179.71:17.0:1800.0:-1
ipc-2014-optimal-hiking-2-4-5.pddl,TIMEOUT:1801.1:-1.0:1800.0:-1
ipc-2014-optimal-hiking-2-4-6.pddl,TIMEOUT:1801.04:-1.0:1800.0:-1
ipc-2014-optimal-hiking-2-4-7.pddl,TIMEOUT:1801.03:-1.0:1800.0:-1
ipc-2014-optimal-maintenance-1.3.010.010.1-001.pddl,CRASHED:2.70159:1000000000.0:1800.0:-1
ipc-2014-optimal-maintenance-1.3.010.010.1-002.pddl,CRASHED:6.62999:1000000000.0:1800.0:-1
ipc-2014-optimal-maintenance-1.3.010.010.2-000.pddl,SAT:16.7744:4.0:1800.0:-1
ipc-2014-optimal-maintenance-1.3.010.010.2-001.pddl,SAT:21.0068:7.0:1800.0:-1
ipc-2014-optimal-maintenance-1.3.010.010.2-002.pddl,SAT:32.2281:6.0:1800.0:-1
ipc-2014-optimal-maintenance-1.3.015.020.1-000.pddl,CRASHED:22.1596:1000000000.0:1800.0:-1
ipc-2014-optimal-maintenance-1.3.015.020.1-001.pddl,CRASHED:15.1227:1000000000.0:1800.0:-1
ipc-2014-optimal-maintenance-1.3.015.020.1-002.pddl,CRASHED:19.929:1000000000.0:1800.0:-1
ipc-2014-optimal-maintenance-1.3.015.020.2-000.pddl,CRASHED:208.352:1000000000.0:1800.0:-1
ipc-2014-optimal-maintenance-1.3.015.020.2-001.pddl,SAT:120.904:11.0:1800.0:-1
ipc-2014-optimal-maintenance-1.3.015.020.2-002.pddl,SAT:121.628:9.0:1800.0:-1
ipc-2014-optimal-maintenance-1.3.025.050.1-000.pddl,CRASHED:86.5278:1000000000.0:1800.0:-1
ipc-2014-optimal-maintenance-1.3.025.050.1-001.pddl,CRASHED:167.79:1000000000.0:1800.0:-1
ipc-2014-optimal-maintenance-1.3.025.050.1-002.pddl,CRASHED:166.184:1000000000.0:1800.0:-1
ipc-2014-optimal-maintenance-1.3.025.100.1-000.pddl,CRASHED:84.2452:1000000000.0:1800.0:-1
ipc-2014-optimal-maintenance-1.3.025.100.1-001.pddl,CRASHED:80.5577:1000000000.0:1800.0:-1
ipc-2014-optimal-maintenance-1.3.025.100.1-002.pddl,CRASHED:84.9451:1000000000.0:1800.0:-1
ipc-2014-optimal-maintenance-1.3.025.100.2-000.pddl,TIMEOUT:1801.0:-1.0:1800.0:-1
ipc-2014-optimal-maintenance-1.3.025.100.2-001.pddl,TIMEOUT:1801.02:-1.0:1800.0:-1
ipc-2014-optimal-maintenance-1.3.025.100.2-002.pddl,TIMEOUT:1801.06:-1.0:1800.0:-1
ipc-2014-optimal-openstacks-p20_1.pddl,TIMEOUT:1801.01:-1.0:1800.0:-1
ipc-2014-optimal-openstacks-p20_2.pddl,TIMEOUT:1801.08:-1.0:1800.0:-1
ipc-2014-optimal-openstacks-p20_3.pddl,SAT:874.95:6.0:1800.0:-1
ipc-2014-optimal-openstacks-p25_1.pddl,TIMEOUT:1801.04:-1.0:1800.0:-1
ipc-2014-optimal-openstacks-p25_3.pddl,TIMEOUT:1801.06:-1.0:1800.0:-1
ipc-2014-optimal-openstacks-p30_1.pddl,TIMEOUT:1801.01:-1.0:1800.0:-1
ipc-2014-optimal-openstacks-p30_2.pddl,TIMEOUT:1801.08:-1.0:1800.0:-1
ipc-2014-optimal-openstacks-p30_3.pddl,TIMEOUT:1801.07:-1.0:1800.0:-1
ipc-2014-optimal-openstacks-p35_1.pddl,TIMEOUT:1801.02:-1.0:1800.0:-1
ipc-2014-optimal-openstacks-p35_2.pddl,TIMEOUT:1801.08:-1.0:1800.0:-1
ipc-2014-optimal-openstacks-p35_3.pddl,TIMEOUT:1801.1:-1.0:1800.0:-1
ipc-2014-optimal-openstacks-p40_1.pddl,TIMEOUT:1801.07:-1.0:1800.0:-1
ipc-2014-optimal-openstacks-p40_2.pddl,TIMEOUT:1801.09:-1.0:1800.0:-1
ipc-2014-optimal-openstacks-p40_3.pddl,TIMEOUT:1801.07:-1.0:1800.0:-1
ipc-2014-optimal-openstacks-p45_1.pddl,TIMEOUT:1801.05:-1.0:1800.0:-1
ipc-2014-optimal-openstacks-p45_2.pddl,TIMEOUT:1801.04:-1.0:1800.0:-1
ipc-2014-optimal-openstacks-p45_3.pddl,TIMEOUT:1801.04:-1.0:1800.0:-1
ipc-2014-optimal-openstacks-p50_1.pddl,TIMEOUT:1801.03:-1.0:1800.0:-1
ipc-2014-optimal-openstacks-p50_2.pddl,TIMEOUT:1801.09:-1.0:1800.0:-1
ipc-2014-optimal-openstacks-p50_3.pddl,TIMEOUT:1801.01:-1.0:1800.0:-1
ipc-2014-optimal-parking-12_7-01.pddl,TIMEOUT:1801.03:-1.0:1800.0:-1
ipc-2014-optimal-parking-12_7-02.pddl,TIMEOUT:1801.0:-1.0:1800.0:-1
ipc-2014-optimal-parking-12_7-03.pddl,TIMEOUT:1801.07:-1.0:1800.0:-1
ipc-2014-optimal-parking-12_7-04.pddl,TIMEOUT:1801.05:-1.0:1800.0:-1
ipc-2014-optimal-parking-14_8-01.pddl,TIMEOUT:1801.03:-1.0:1800.0:-1
ipc-2014-optimal-parking-14_8-02.pddl,TIMEOUT:1801.08:-1.0:1800.0:-1
ipc-2014-optimal-parking-14_8-03.pddl,TIMEOUT:1801.07:-1.0:1800.0:-1
ipc-2014-optimal-parking-14_8-04.pddl,TIMEOUT:1801.06:-1.0:1800.0:-1
ipc-2014-optimal-parking-16_9-01.pddl,TIMEOUT:1801.04:-1.0:1800.0:-1
ipc-2014-optimal-parking-16_9-02.pddl,TIMEOUT:1801.09:-1.0:1800.0:-1
ipc-2014-optimal-parking-16_9-03.pddl,TIMEOUT:1801.06:-1.0:1800.0:-1
ipc-2014-optimal-parking-16_9-04.pddl,TIMEOUT:1801.06:-1.0:1800.0:-1
ipc-2014-optimal-parking-18_10-01.pddl,TIMEOUT:1801.01:-1.0:1800.0:-1
ipc-2014-optimal-parking-18_10-02.pddl,TIMEOUT:1801.08:-1.0:1800.0:-1
ipc-2014-optimal-parking-18_10-03.pddl,TIMEOUT:1801.03:-1.0:1800.0:-1
ipc-2014-optimal-parking-18_10-04.pddl,TIMEOUT:1801.02:-1.0:1800.0:-1
ipc-2014-optimal-parking-20_11-01.pddl,TIMEOUT:1801.05:-1.0:1800.0:-1
ipc-2014-optimal-parking-20_11-02.pddl,TIMEOUT:1801.08:-1.0:1800.0:-1
ipc-2014-optimal-parking-20_11-03.pddl,TIMEOUT:1801.06:-1.0:1800.0:-1
ipc-2014-optimal-parking-20_11-04.pddl,TIMEOUT:1801.05:-1.0:1800.0:-1
ipc-2014-optimal-tetris-01-10.pddl,TIMEOUT:1801.05:-1.0:1800.0:-1
ipc-2014-optimal-tetris-01-04.pddl,CRASHED:976.086:1000000000.0:1800.0:-1
ipc-2014-optimal-tetris-01-06.pddl,TIMEOUT:1801.03:-1.0:1800.0:-1
ipc-2014-optimal-tetris-01-08.pddl,TIMEOUT:1801.02:-1.0:1800.0:-1
ipc-2014-optimal-tetris-02-10.pddl,TIMEOUT:1801.07:-1.0:1800.0:-1
ipc-2014-optimal-tetris-02-04.pddl,SAT:517.796:10.0:1800.0:-1
ipc-2014-optimal-tetris-02-06.pddl,TIMEOUT:1801.09:-1.0:1800.0:-1
ipc-2014-optimal-tetris-02-08.pddl,TIMEOUT:1801.05:-1.0:1800.0:-1
ipc-2014-optimal-tetris-03-10.pddl,TIMEOUT:1801.0:-1.0:1800.0:-1
ipc-2014-optimal-tetris-03-04.pddl,SAT:727.553:11.0:1800.0:-1
ipc-2014-optimal-tetris-03-06.pddl,TIMEOUT:1801.01:-1.0:1800.0:-1
ipc-2014-optimal-tetris-03-08.pddl,TIMEOUT:1801.02:-1.0:1800.0:-1
ipc-2014-optimal-tetris-04-10.pddl,TIMEOUT:1801.08:-1.0:1800.0:-1
ipc-2014-optimal-tetris-04-04.pddl,CRASHED:438.06:1000000000.0:1800.0:-1
ipc-2014-optimal-tetris-04-06.pddl,TIMEOUT:1801.07:-1.0:1800.0:-1
ipc-2014-optimal-tetris-04-08.pddl,TIMEOUT:1801.05:-1.0:1800.0:-1
ipc-2014-optimal-tetris-05-10.pddl,TIMEOUT:1801.01:-1.0:1800.0:-1
ipc-2014-optimal-tetris-05-04.pddl,CRASHED:873.054:1000000000.0:1800.0:-1
ipc-2014-optimal-tetris-05-06.pddl,SAT:307.784:19.0:1800.0:-1
ipc-2014-optimal-tetris-05-08.pddl,TIMEOUT:1801.04:-1.0:1800.0:-1
ipc-2014-optimal-tidybot-01.pddl,TIMEOUT:1801.0:-1.0:1800.0:-1
ipc-2014-optimal-tidybot-02.pddl,SAT:211.135:35.0:1800.0:-1
ipc-2014-optimal-tidybot-03.pddl,SAT:228.691:30.0:1800.0:-1
ipc-2014-optimal-tidybot-04.pddl,SAT:237.392:24.0:1800.0:-1
ipc-2014-optimal-tidybot-05.pddl,TIMEOUT:1801.05:-1.0:1800.0:-1
ipc-2014-optimal-tidybot-06.pddl,TIMEOUT:1801.02:-1.0:1800.0:-1
ipc-2014-optimal-tidybot-07.pddl,SAT:503.13:38.0:1800.0:-1
ipc-2014-optimal-tidybot-08.pddl,SAT:185.614:25.0:1800.0:-1
ipc-2014-optimal-tidybot-09.pddl,SAT:468.463:35.0:1800.0:-1
ipc-2014-optimal-tidybot-10.pddl,TIMEOUT:1801.07:-1.0:1800.0:-1
ipc-2014-optimal-tidybot-11.pddl,SAT:122.211:29.0:1800.0:-1
ipc-2014-optimal-tidybot-12.pddl,SAT:310.061:35.0:1800.0:-1
ipc-2014-optimal-tidybot-13.pddl,SAT:170.164:30.0:1800.0:-1
ipc-2014-optimal-tidybot-14.pddl,SAT:163.606:25.0:1800.0:-1
ipc-2014-optimal-tidybot-15.pddl,TIMEOUT:1801.02:-1.0:1800.0:-1
ipc-2014-optimal-tidybot-16.pddl,TIMEOUT:1801.09:-1.0:1800.0:-1
ipc-2014-optimal-tidybot-17.pddl,SAT:1158.15:40.0:1800.0:-1
ipc-2014-optimal-tidybot-18.pddl,TIMEOUT:1801.07:-1.0:1800.0:-1
ipc-2014-optimal-tidybot-19.pddl,TIMEOUT:1801.0:-1.0:1800.0:-1
ipc-2014-optimal-tidybot-20.pddl,TIMEOUT:1801.09:-1.0:1800.0:-1
ipc-2014-optimal-transport-01.pddl,SAT:58.3231:148.0:1800.0:-1
ipc-2014-optimal-transport-02.pddl,SAT:110.928:191.0:1800.0:-1
ipc-2014-optimal-transport-03.pddl,SAT:227.887:300.0:1800.0:-1
ipc-2014-optimal-transport-04.pddl,TIMEOUT:1801.04:-1.0:1800.0:-1
ipc-2014-optimal-transport-05.pddl,TIMEOUT:1801.1:-1.0:1800.0:-1
ipc-2014-optimal-transport-06.pddl,TIMEOUT:1801.04:-1.0:1800.0:-1
ipc-2014-optimal-transport-07.pddl,SAT:147.761:967.0:1800.0:-1
ipc-2014-optimal-transport-08.pddl,CRASHED:1787.56:1000000000.0:1800.0:-1
ipc-2014-optimal-transport-09.pddl,TIMEOUT:1801.02:-1.0:1800.0:-1
ipc-2014-optimal-transport-10.pddl,TIMEOUT:1801.09:-1.0:1800.0:-1
ipc-2014-optimal-transport-11.pddl,TIMEOUT:1801.02:-1.0:1800.0:-1
ipc-2014-optimal-transport-12.pddl,TIMEOUT:1801.02:-1.0:1800.0:-1
ipc-2014-optimal-transport-13.pddl,SAT:120.686:594.0:1800.0:-1
ipc-2014-optimal-transport-14.pddl,SAT:390.895:526.0:1800.0:-1
ipc-2014-optimal-transport-15.pddl,SAT:760.549:753.0:1800.0:-1
ipc-2014-optimal-transport-16.pddl,TIMEOUT:1801.05:-1.0:1800.0:-1
ipc-2014-optimal-transport-17.pddl,TIMEOUT:1801.01:-1.0:1800.0:-1
ipc-2014-optimal-transport-18.pddl,TIMEOUT:1801.01:-1.0:1800.0:-1
ipc-2014-optimal-transport-19.pddl,TIMEOUT:1801.09:-1.0:1800.0:-1
ipc-2014-optimal-transport-20.pddl,TIMEOUT:1801.01:-1.0:1800.0:-1
ipc-2014-optimal-visitall-05-10.pddl,TIMEOUT:1801.04:-1.0:1800.0:-1
ipc-2014-optimal-visitall-05-05.pddl,SAT:32.677:21.0:1800.0:-1
ipc-2014-optimal-visitall-05-06.pddl,SAT:43.0205:25.0:1800.0:-1
ipc-2014-optimal-visitall-05-07.pddl,SAT:125.695:34.0:1800.0:-1
ipc-2014-optimal-visitall-05-08.pddl,SAT:1464.96:43.0:1800.0:-1
ipc-2014-optimal-visitall-05-09.pddl,TIMEOUT:1801.04:-1.0:1800.0:-1
ipc-2014-optimal-visitall-01-10.pddl,SAT:262.975:99.0:1800.0:-1
ipc-2014-optimal-visitall-01-11.pddl,SAT:352.502:120.0:1800.0:-1
ipc-2014-optimal-visitall-01-12.pddl,TIMEOUT:1801.09:-1.0:1800.0:-1
ipc-2014-optimal-visitall-01-13.pddl,SAT:872.39:168.0:1800.0:-1
ipc-2014-optimal-visitall-01-14.pddl,TIMEOUT:1801.06:-1.0:1800.0:-1
ipc-2014-optimal-visitall-01-15.pddl,TIMEOUT:1801.06:-1.0:1800.0:-1
ipc-2014-optimal-visitall-01-16.pddl,TIMEOUT:1801.04:-1.0:1800.0:-1
ipc-2014-optimal-visitall-01-17.pddl,TIMEOUT:1801.06:-1.0:1800.0:-1
ipc-2014-optimal-visitall-01-18.pddl,TIMEOUT:1801.04:-1.0:1800.0:-1
ipc-2014-optimal-visitall-01-05.pddl,SAT:132.342:24.0:1800.0:-1
ipc-2014-optimal-visitall-01-06.pddl,SAT:281.506:35.0:1800.0:-1
ipc-2014-optimal-visitall-01-07.pddl,SAT:246.656:48.0:1800.0:-1
ipc-2014-optimal-visitall-01-08.pddl,SAT:273.592:63.0:1800.0:-1
ipc-2014-optimal-visitall-01-09.pddl,SAT:311.083:80.0:1800.0:-1
