instance,ipc-2014-optimal-symba-2
ipc-2014-optimal-barman-p433.1.pddl,TIMEOUT:1801.1:-1.0:1800.0:-1
ipc-2014-optimal-barman-p433.2.pddl,TIMEOUT:1801.11:-1.0:1800.0:-1
ipc-2014-optimal-barman-p433.3.pddl,TIMEOUT:1801.09:-1.0:1800.0:-1
ipc-2014-optimal-barman-p435.1.pddl,SAT:27.1949:49.0:1800.0:-1
ipc-2014-optimal-barman-p435.2.pddl,TIMEOUT:1801.08:-1.0:1800.0:-1
ipc-2014-optimal-barman-p435.3.pddl,SAT:35.5826:49.0:1800.0:-1
ipc-2014-optimal-barman-p443.1.pddl,TIMEOUT:1801.05:-1.0:1800.0:-1
ipc-2014-optimal-barman-p443.2.pddl,TIMEOUT:1801.14:-1.0:1800.0:-1
ipc-2014-optimal-barman-p443.3.pddl,TIMEOUT:1801.06:-1.0:1800.0:-1
ipc-2014-optimal-barman-p536.1.pddl,TIMEOUT:1801.06:-1.0:1800.0:-1
ipc-2014-optimal-barman-p536.2.pddl,TIMEOUT:1801.01:-1.0:1800.0:-1
ipc-2014-optimal-barman-p536.3.pddl,TIMEOUT:1801.07:-1.0:1800.0:-1
ipc-2014-optimal-barman-p638.1.pddl,CRASHED:24.2253:1000000000.0:1800.0:-1
ipc-2014-optimal-barman-p638.2.pddl,TIMEOUT:1801.07:-1.0:1800.0:-1
ipc-2014-optimal-barman-p638.3.pddl,TIMEOUT:1801.09:-1.0:1800.0:-1
ipc-2014-optimal-barman-p739.1.pddl,TIMEOUT:1801.06:-1.0:1800.0:-1
ipc-2014-optimal-barman-p739.2.pddl,TIMEOUT:1801.06:-1.0:1800.0:-1
ipc-2014-optimal-barman-p739.3.pddl,TIMEOUT:1801.08:-1.0:1800.0:-1
ipc-2014-optimal-barman-p839.1.pddl,TIMEOUT:1801.0:-1.0:1800.0:-1
ipc-2014-optimal-barman-p839.2.pddl,TIMEOUT:1801.08:-1.0:1800.0:-1
ipc-2014-optimal-cavediving-01.pddl,TIMEOUT:1801.05:-1.0:1800.0:-1
ipc-2014-optimal-cavediving-01_easy.pddl,TIMEOUT:1801.08:-1.0:1800.0:-1
ipc-2014-optimal-cavediving-02_easy.pddl,TIMEOUT:1801.12:-1.0:1800.0:-1
ipc-2014-optimal-cavediving-03_easy.pddl,TIMEOUT:1801.08:-1.0:1800.0:-1
ipc-2014-optimal-cavediving-04_easy.pddl,TIMEOUT:1801.08:-1.0:1800.0:-1
ipc-2014-optimal-cavediving-05A_easy.pddl,TIMEOUT:1801.07:-1.0:1800.0:-1
ipc-2014-optimal-cavediving-06A_easy.pddl,TIMEOUT:1801.11:-1.0:1800.0:-1
ipc-2014-optimal-cavediving-07_easy.pddl,SAT:3.60663:131.0:1800.0:-1
ipc-2014-optimal-cavediving-08_easy.pddl,TIMEOUT:1801.12:-1.0:1800.0:-1
ipc-2014-optimal-cavediving-09_easy.pddl,TIMEOUT:1801.12:-1.0:1800.0:-1
ipc-2014-optimal-cavediving-10_easy.pddl,TIMEOUT:1801.03:-1.0:1800.0:-1
ipc-2014-optimal-cavediving-11_easy.pddl,TIMEOUT:1801.05:-1.0:1800.0:-1
ipc-2014-optimal-cavediving-12_easy.pddl,TIMEOUT:1801.08:-1.0:1800.0:-1
ipc-2014-optimal-cavediving-13_easy.pddl,TIMEOUT:1801.1:-1.0:1800.0:-1
ipc-2014-optimal-cavediving-14_easy.pddl,TIMEOUT:1801.04:-1.0:1800.0:-1
ipc-2014-optimal-cavediving-15_easy.pddl,TIMEOUT:1801.11:-1.0:1800.0:-1
ipc-2014-optimal-cavediving-16_easy.pddl,TIMEOUT:1801.1:-1.0:1800.0:-1
ipc-2014-optimal-cavediving-18A_easy.pddl,SAT:3.84517:131.0:1800.0:-1
ipc-2014-optimal-cavediving-18_easy.pddl,SAT:8.91149:131.0:1800.0:-1
ipc-2014-optimal-cavediving-20A_easy.pddl,TIMEOUT:1801.06:-1.0:1800.0:-1
ipc-2014-optimal-childsnack-01-2.pddl,TIMEOUT:1801.06:-1.0:1800.0:-1
ipc-2014-optimal-childsnack-01.pddl,CRASHED:28.4473:1000000000.0:1800.0:-1
ipc-2014-optimal-childsnack-02-2.pddl,TIMEOUT:1801.04:-1.0:1800.0:-1
ipc-2014-optimal-childsnack-02.pddl,CRASHED:39.0217:1000000000.0:1800.0:-1
ipc-2014-optimal-childsnack-03-2.pddl,TIMEOUT:1801.02:-1.0:1800.0:-1
ipc-2014-optimal-childsnack-03.pddl,CRASHED:27.8411:1000000000.0:1800.0:-1
ipc-2014-optimal-childsnack-04-2.pddl,TIMEOUT:1801.09:-1.0:1800.0:-1
ipc-2014-optimal-childsnack-04.pddl,TIMEOUT:1801.0:-1.0:1800.0:-1
ipc-2014-optimal-childsnack-05-2.pddl,CRASHED:15.3025:1000000000.0:1800.0:-1
ipc-2014-optimal-childsnack-05.pddl,TIMEOUT:1801.03:-1.0:1800.0:-1
ipc-2014-optimal-childsnack-06-2.pddl,CRASHED:71.3309:1000000000.0:1800.0:-1
ipc-2014-optimal-childsnack-06.pddl,TIMEOUT:1801.0:-1.0:1800.0:-1
ipc-2014-optimal-childsnack-07-2.pddl,TIMEOUT:1801.09:-1.0:1800.0:-1
ipc-2014-optimal-childsnack-07.pddl,TIMEOUT:1801.0:-1.0:1800.0:-1
ipc-2014-optimal-childsnack-08-2.pddl,TIMEOUT:1801.04:-1.0:1800.0:-1
ipc-2014-optimal-childsnack-08.pddl,TIMEOUT:1801.07:-1.0:1800.0:-1
ipc-2014-optimal-childsnack-09-2.pddl,CRASHED:8.47879:1000000000.0:1800.0:-1
ipc-2014-optimal-childsnack-09.pddl,TIMEOUT:1801.03:-1.0:1800.0:-1
ipc-2014-optimal-childsnack-10-2.pddl,TIMEOUT:1801.1:-1.0:1800.0:-1
ipc-2014-optimal-childsnack-10.pddl,TIMEOUT:1801.02:-1.0:1800.0:-1
ipc-2014-optimal-citycar-p2-2-2-1-2.pddl,SAT:2.28827:46.0:1800.0:-1
ipc-2014-optimal-citycar-p2-2-2-2-1.pddl,SAT:2.4699:64.0:1800.0:-1
ipc-2014-optimal-citycar-p2-2-3-1-2.pddl,SAT:4.13506:50.0:1800.0:-1
ipc-2014-optimal-citycar-p2-2-3-2-1.pddl,SAT:3.62889:48.0:1800.0:-1
ipc-2014-optimal-citycar-p2-2-3-2-2.pddl,SAT:3.53475:50.0:1800.0:-1
ipc-2014-optimal-citycar-p2-2-4-1-2.pddl,SAT:10.2393:52.0:1800.0:-1
ipc-2014-optimal-citycar-p2-2-4-2-1.pddl,SAT:8.53925:52.0:1800.0:-1
ipc-2014-optimal-citycar-p2-2-5-2-2.pddl,SAT:139.433:76.0:1800.0:-1
ipc-2014-optimal-citycar-p2-2-6-1-1.pddl,CRASHED:109.134:1000000000.0:1800.0:-1
ipc-2014-optimal-citycar-p2-2-6-2-2.pddl,SAT:109.638:58.0:1800.0:-1
ipc-2014-optimal-citycar-p2-3-2-3-1.pddl,SAT:8.45841:68.0:1800.0:-1
ipc-2014-optimal-citycar-p2-3-3-3-1.pddl,SAT:37.5634:78.0:1800.0:-1
ipc-2014-optimal-citycar-p2-3-4-3-1.pddl,TIMEOUT:1801.09:-1.0:1800.0:-1
ipc-2014-optimal-citycar-p2-3-6-3-2.pddl,TIMEOUT:1801.03:-1.0:1800.0:-1
ipc-2014-optimal-citycar-p3-3-2-2-1.pddl,SAT:97.1642:70.0:1800.0:-1
ipc-2014-optimal-citycar-p3-3-2-2-2.pddl,CRASHED:200.89:1000000000.0:1800.0:-1
ipc-2014-optimal-citycar-p3-3-2-3-1.pddl,SAT:47.6374:48.0:1800.0:-1
ipc-2014-optimal-citycar-p3-3-2-3-2.pddl,SAT:76.5614:70.0:1800.0:-1
ipc-2014-optimal-citycar-p3-3-3-3-1.pddl,TIMEOUT:1801.05:-1.0:1800.0:-1
ipc-2014-optimal-citycar-p3-3-3-3-2.pddl,TIMEOUT:1801.07:-1.0:1800.0:-1
ipc-2014-optimal-floortile-p01-4-3-2.pddl,SAT:1.28513:56.0:1800.0:-1
ipc-2014-optimal-floortile-p01-4-4-2.pddl,SAT:5.01322:68.0:1800.0:-1
ipc-2014-optimal-floortile-p01-5-3-2.pddl,SAT:1.85543:63.0:1800.0:-1
ipc-2014-optimal-floortile-p01-5-4-2.pddl,SAT:9.89868:91.0:1800.0:-1
ipc-2014-optimal-floortile-p01-5-5-2.pddl,SAT:54.1182:111.0:1800.0:-1
ipc-2014-optimal-floortile-p01-6-4-2.pddl,SAT:22.5919:104.0:1800.0:-1
ipc-2014-optimal-floortile-p01-6-5-2.pddl,TIMEOUT:1801.0:-1.0:1800.0:-1
ipc-2014-optimal-floortile-p02-4-4-2.pddl,SAT:5.26079:75.0:1800.0:-1
ipc-2014-optimal-floortile-p02-5-3-2.pddl,SAT:1.96014:65.0:1800.0:-1
ipc-2014-optimal-floortile-p02-5-4-2.pddl,SAT:10.4086:98.0:1800.0:-1
ipc-2014-optimal-floortile-p02-5-5-2.pddl,SAT:57.3571:106.0:1800.0:-1
ipc-2014-optimal-floortile-p02-6-4-2.pddl,SAT:22.5783:109.0:1800.0:-1
ipc-2014-optimal-floortile-p02-6-5-2.pddl,CRASHED:117.485:1000000000.0:1800.0:-1
ipc-2014-optimal-floortile-p03-4-3-2.pddl,SAT:1.43237:56.0:1800.0:-1
ipc-2014-optimal-floortile-p03-4-4-2.pddl,SAT:5.45926:72.0:1800.0:-1
ipc-2014-optimal-floortile-p03-5-3-2.pddl,SAT:2.0635:65.0:1800.0:-1
ipc-2014-optimal-floortile-p03-5-4-2.pddl,SAT:10.2184:83.0:1800.0:-1
ipc-2014-optimal-floortile-p03-5-5-2.pddl,SAT:56.8733:100.0:1800.0:-1
ipc-2014-optimal-floortile-p03-6-4-2.pddl,SAT:25.0012:116.0:1800.0:-1
ipc-2014-optimal-floortile-p03-6-5-2.pddl,TIMEOUT:1801.09:-1.0:1800.0:-1
ipc-2014-optimal-ged-d-1-2.pddl,SAT:0.690552:1.0:1800.0:-1
ipc-2014-optimal-ged-d-1-3.pddl,SAT:2.12518:4.0:1800.0:-1
ipc-2014-optimal-ged-d-1-4.pddl,SAT:0.692328:1.0:1800.0:-1
ipc-2014-optimal-ged-d-1-8.pddl,SAT:3.93502:4.0:1800.0:-1
ipc-2014-optimal-ged-d-2-1.pddl,SAT:0.680653:1.0:1800.0:-1
ipc-2014-optimal-ged-d-2-3.pddl,SAT:1.11501:3.0:1800.0:-1
ipc-2014-optimal-ged-d-2-4.pddl,SAT:0.881264:2.0:1800.0:-1
ipc-2014-optimal-ged-d-2-8.pddl,TIMEOUT:1801.0:-1.0:1800.0:-1
ipc-2014-optimal-ged-d-3-1.pddl,SAT:2.13529:4.0:1800.0:-1
ipc-2014-optimal-ged-d-3-2.pddl,SAT:1.12301:3.0:1800.0:-1
ipc-2014-optimal-ged-d-3-4.pddl,SAT:10.2477:5.0:1800.0:-1
ipc-2014-optimal-ged-d-4-2.pddl,SAT:0.827366:2.0:1800.0:-1
ipc-2014-optimal-ged-d-4-3.pddl,SAT:10.4595:5.0:1800.0:-1
ipc-2014-optimal-ged-d-4-8.pddl,TIMEOUT:1801.04:-1.0:1800.0:-1
ipc-2014-optimal-ged-d-7-5.pddl,SAT:4.0171:4.0:1800.0:-1
ipc-2014-optimal-ged-d-7-6.pddl,SAT:2.64171:4.0:1800.0:-1
ipc-2014-optimal-ged-d-8-1.pddl,SAT:4.22805:4.0:1800.0:-1
ipc-2014-optimal-ged-d-8-2.pddl,TIMEOUT:1801.05:-1.0:1800.0:-1
ipc-2014-optimal-ged-d-8-4.pddl,TIMEOUT:1801.02:-1.0:1800.0:-1
ipc-2014-optimal-ged-d-8-9.pddl,CRASHED:45.5287:1000000000.0:1800.0:-1
ipc-2014-optimal-hiking-1-2-3.pddl,SAT:0.39876:11.0:1800.0:-1
ipc-2014-optimal-hiking-1-2-4.pddl,SAT:0.441529:17.0:1800.0:-1
ipc-2014-optimal-hiking-1-2-5.pddl,SAT:0.52226:25.0:1800.0:-1
ipc-2014-optimal-hiking-1-2-7.pddl,SAT:0.862164:38.0:1800.0:-1
ipc-2014-optimal-hiking-1-2-8.pddl,SAT:1.34958:45.0:1800.0:-1
ipc-2014-optimal-hiking-2-2-3.pddl,SAT:0.777553:10.0:1800.0:-1
ipc-2014-optimal-hiking-2-2-4.pddl,SAT:1.89679:16.0:1800.0:-1
ipc-2014-optimal-hiking-2-2-5.pddl,SAT:14.5017:22.0:1800.0:-1
ipc-2014-optimal-hiking-2-2-6.pddl,SAT:96.1636:30.0:1800.0:-1
ipc-2014-optimal-hiking-2-2-7.pddl,CRASHED:224.697:1000000000.0:1800.0:-1
ipc-2014-optimal-hiking-2-2-8.pddl,TIMEOUT:1801.02:-1.0:1800.0:-1
ipc-2014-optimal-hiking-2-3-4.pddl,SAT:5.42427:17.0:1800.0:-1
ipc-2014-optimal-hiking-2-3-5.pddl,SAT:90.9475:24.0:1800.0:-1
ipc-2014-optimal-hiking-2-3-6.pddl,TIMEOUT:1801.04:-1.0:1800.0:-1
ipc-2014-optimal-hiking-2-3-7.pddl,TIMEOUT:1801.0:-1.0:1800.0:-1
ipc-2014-optimal-hiking-2-4-3.pddl,SAT:1.30254:10.0:1800.0:-1
ipc-2014-optimal-hiking-2-4-4.pddl,SAT:6.24105:17.0:1800.0:-1
ipc-2014-optimal-hiking-2-4-5.pddl,SAT:127.744:23.0:1800.0:-1
ipc-2014-optimal-hiking-2-4-6.pddl,CRASHED:111.217:1000000000.0:1800.0:-1
ipc-2014-optimal-hiking-2-4-7.pddl,TIMEOUT:1801.07:-1.0:1800.0:-1
ipc-2014-optimal-maintenance-1.3.010.010.1-001.pddl,TIMEOUT:1801.08:-1.0:1800.0:-1
ipc-2014-optimal-maintenance-1.3.010.010.1-002.pddl,TIMEOUT:1801.13:-1.0:1800.0:-1
ipc-2014-optimal-maintenance-1.3.010.010.2-000.pddl,SAT:0.552659:4.0:1800.0:-1
ipc-2014-optimal-maintenance-1.3.010.010.2-001.pddl,TIMEOUT:1801.11:-1.0:1800.0:-1
ipc-2014-optimal-maintenance-1.3.010.010.2-002.pddl,SAT:0.60716:6.0:1800.0:-1
ipc-2014-optimal-maintenance-1.3.015.020.1-000.pddl,TIMEOUT:1801.09:-1.0:1800.0:-1
ipc-2014-optimal-maintenance-1.3.015.020.1-001.pddl,TIMEOUT:1801.05:-1.0:1800.0:-1
ipc-2014-optimal-maintenance-1.3.015.020.1-002.pddl,TIMEOUT:1801.03:-1.0:1800.0:-1
ipc-2014-optimal-maintenance-1.3.015.020.2-000.pddl,CRASHED:1.13533:1000000000.0:1800.0:-1
ipc-2014-optimal-maintenance-1.3.015.020.2-001.pddl,SAT:1.04869:11.0:1800.0:-1
ipc-2014-optimal-maintenance-1.3.015.020.2-002.pddl,SAT:0.977918:9.0:1800.0:-1
ipc-2014-optimal-maintenance-1.3.025.050.1-000.pddl,TIMEOUT:1801.11:-1.0:1800.0:-1
ipc-2014-optimal-maintenance-1.3.025.050.1-001.pddl,TIMEOUT:1801.04:-1.0:1800.0:-1
ipc-2014-optimal-maintenance-1.3.025.050.1-002.pddl,TIMEOUT:1801.05:-1.0:1800.0:-1
ipc-2014-optimal-maintenance-1.3.025.100.1-000.pddl,TIMEOUT:1801.09:-1.0:1800.0:-1
ipc-2014-optimal-maintenance-1.3.025.100.1-001.pddl,TIMEOUT:1801.09:-1.0:1800.0:-1
ipc-2014-optimal-maintenance-1.3.025.100.1-002.pddl,TIMEOUT:1801.09:-1.0:1800.0:-1
ipc-2014-optimal-maintenance-1.3.025.100.2-000.pddl,TIMEOUT:1801.08:-1.0:1800.0:-1
ipc-2014-optimal-maintenance-1.3.025.100.2-001.pddl,TIMEOUT:1801.06:-1.0:1800.0:-1
ipc-2014-optimal-maintenance-1.3.025.100.2-002.pddl,TIMEOUT:1801.09:-1.0:1800.0:-1
ipc-2014-optimal-openstacks-p20_1.pddl,SAT:1.96028:3.0:1800.0:-1
ipc-2014-optimal-openstacks-p20_2.pddl,SAT:2.09822:4.0:1800.0:-1
ipc-2014-optimal-openstacks-p20_3.pddl,SAT:2.0788:6.0:1800.0:-1
ipc-2014-optimal-openstacks-p25_1.pddl,SAT:3.43855:4.0:1800.0:-1
ipc-2014-optimal-openstacks-p25_3.pddl,SAT:4.12518:9.0:1800.0:-1
ipc-2014-optimal-openstacks-p30_1.pddl,SAT:4.69527:4.0:1800.0:-1
ipc-2014-optimal-openstacks-p30_2.pddl,SAT:5.27371:4.0:1800.0:-1
ipc-2014-optimal-openstacks-p30_3.pddl,SAT:12.1099:12.0:1800.0:-1
ipc-2014-optimal-openstacks-p35_1.pddl,SAT:7.57631:4.0:1800.0:-1
ipc-2014-optimal-openstacks-p35_2.pddl,SAT:9.77294:5.0:1800.0:-1
ipc-2014-optimal-openstacks-p35_3.pddl,SAT:48.7564:14.0:1800.0:-1
ipc-2014-optimal-openstacks-p40_1.pddl,SAT:13.1659:3.0:1800.0:-1
ipc-2014-optimal-openstacks-p40_2.pddl,SAT:14.5666:4.0:1800.0:-1
ipc-2014-optimal-openstacks-p40_3.pddl,SAT:82.8355:15.0:1800.0:-1
ipc-2014-optimal-openstacks-p45_1.pddl,SAT:17.0441:4.0:1800.0:-1
ipc-2014-optimal-openstacks-p45_2.pddl,SAT:25.9865:5.0:1800.0:-1
ipc-2014-optimal-openstacks-p45_3.pddl,TIMEOUT:1801.04:-1.0:1800.0:-1
ipc-2014-optimal-openstacks-p50_1.pddl,SAT:33.7838:4.0:1800.0:-1
ipc-2014-optimal-openstacks-p50_2.pddl,SAT:47.9333:5.0:1800.0:-1
ipc-2014-optimal-openstacks-p50_3.pddl,TIMEOUT:1801.06:-1.0:1800.0:-1
ipc-2014-optimal-parking-12_7-01.pddl,TIMEOUT:1801.01:-1.0:1800.0:-1
ipc-2014-optimal-parking-12_7-02.pddl,CRASHED:160.943:1000000000.0:1800.0:-1
ipc-2014-optimal-parking-12_7-03.pddl,TIMEOUT:1801.08:-1.0:1800.0:-1
ipc-2014-optimal-parking-12_7-04.pddl,CRASHED:171.318:1000000000.0:1800.0:-1
ipc-2014-optimal-parking-14_8-01.pddl,TIMEOUT:1801.05:-1.0:1800.0:-1
ipc-2014-optimal-parking-14_8-02.pddl,TIMEOUT:1801.05:-1.0:1800.0:-1
ipc-2014-optimal-parking-14_8-03.pddl,CRASHED:322.299:1000000000.0:1800.0:-1
ipc-2014-optimal-parking-14_8-04.pddl,CRASHED:563.05:1000000000.0:1800.0:-1
ipc-2014-optimal-parking-16_9-01.pddl,TIMEOUT:1801.04:-1.0:1800.0:-1
ipc-2014-optimal-parking-16_9-02.pddl,TIMEOUT:1801.03:-1.0:1800.0:-1
ipc-2014-optimal-parking-16_9-03.pddl,TIMEOUT:1801.09:-1.0:1800.0:-1
ipc-2014-optimal-parking-16_9-04.pddl,TIMEOUT:1801.07:-1.0:1800.0:-1
ipc-2014-optimal-parking-18_10-01.pddl,TIMEOUT:1801.03:-1.0:1800.0:-1
ipc-2014-optimal-parking-18_10-02.pddl,CRASHED:287.924:1000000000.0:1800.0:-1
ipc-2014-optimal-parking-18_10-03.pddl,TIMEOUT:1801.03:-1.0:1800.0:-1
ipc-2014-optimal-parking-18_10-04.pddl,CRASHED:265.029:1000000000.0:1800.0:-1
ipc-2014-optimal-parking-20_11-01.pddl,CRASHED:315.192:1000000000.0:1800.0:-1
ipc-2014-optimal-parking-20_11-02.pddl,CRASHED:268.008:1000000000.0:1800.0:-1
ipc-2014-optimal-parking-20_11-03.pddl,TIMEOUT:1801.06:-1.0:1800.0:-1
ipc-2014-optimal-parking-20_11-04.pddl,CRASHED:231.712:1000000000.0:1800.0:-1
ipc-2014-optimal-tetris-01-10.pddl,CRASHED:75.8479:1000000000.0:1800.0:-1
ipc-2014-optimal-tetris-01-04.pddl,CRASHED:7.20298:1000000000.0:1800.0:-1
ipc-2014-optimal-tetris-01-06.pddl,TIMEOUT:1801.05:-1.0:1800.0:-1
ipc-2014-optimal-tetris-01-08.pddl,SAT:15.8945:36.0:1800.0:-1
ipc-2014-optimal-tetris-02-10.pddl,TIMEOUT:1801.0:-1.0:1800.0:-1
ipc-2014-optimal-tetris-02-04.pddl,SAT:3.07188:10.0:1800.0:-1
ipc-2014-optimal-tetris-02-06.pddl,SAT:27.2207:30.0:1800.0:-1
ipc-2014-optimal-tetris-02-08.pddl,TIMEOUT:1801.05:-1.0:1800.0:-1
ipc-2014-optimal-tetris-03-10.pddl,CRASHED:58.3085:1000000000.0:1800.0:-1
ipc-2014-optimal-tetris-03-04.pddl,SAT:2.3131:11.0:1800.0:-1
ipc-2014-optimal-tetris-03-06.pddl,CRASHED:60.8018:1000000000.0:1800.0:-1
ipc-2014-optimal-tetris-03-08.pddl,SAT:140.943:48.0:1800.0:-1
ipc-2014-optimal-tetris-04-10.pddl,TIMEOUT:1801.01:-1.0:1800.0:-1
ipc-2014-optimal-tetris-04-04.pddl,CRASHED:4.93579:1000000000.0:1800.0:-1
ipc-2014-optimal-tetris-04-06.pddl,TIMEOUT:1801.05:-1.0:1800.0:-1
ipc-2014-optimal-tetris-04-08.pddl,CRASHED:75.059:1000000000.0:1800.0:-1
ipc-2014-optimal-tetris-05-10.pddl,TIMEOUT:1801.06:-1.0:1800.0:-1
ipc-2014-optimal-tetris-05-04.pddl,CRASHED:4.6065:1000000000.0:1800.0:-1
ipc-2014-optimal-tetris-05-06.pddl,SAT:10.2609:19.0:1800.0:-1
ipc-2014-optimal-tetris-05-08.pddl,TIMEOUT:1801.02:-1.0:1800.0:-1
ipc-2014-optimal-tidybot-01.pddl,TIMEOUT:1801.03:-1.0:1800.0:-1
ipc-2014-optimal-tidybot-02.pddl,TIMEOUT:1801.01:-1.0:1800.0:-1
ipc-2014-optimal-tidybot-03.pddl,SAT:126.582:30.0:1800.0:-1
ipc-2014-optimal-tidybot-04.pddl,CRASHED:122.326:1000000000.0:1800.0:-1
ipc-2014-optimal-tidybot-05.pddl,CRASHED:142.543:1000000000.0:1800.0:-1
ipc-2014-optimal-tidybot-06.pddl,TIMEOUT:1801.07:-1.0:1800.0:-1
ipc-2014-optimal-tidybot-07.pddl,TIMEOUT:1801.09:-1.0:1800.0:-1
ipc-2014-optimal-tidybot-08.pddl,TIMEOUT:1801.02:-1.0:1800.0:-1
ipc-2014-optimal-tidybot-09.pddl,TIMEOUT:1801.05:-1.0:1800.0:-1
ipc-2014-optimal-tidybot-10.pddl,TIMEOUT:1801.09:-1.0:1800.0:-1
ipc-2014-optimal-tidybot-11.pddl,CRASHED:105.012:1000000000.0:1800.0:-1
ipc-2014-optimal-tidybot-12.pddl,CRASHED:202.013:1000000000.0:1800.0:-1
ipc-2014-optimal-tidybot-13.pddl,TIMEOUT:1801.07:-1.0:1800.0:-1
ipc-2014-optimal-tidybot-14.pddl,TIMEOUT:1801.06:-1.0:1800.0:-1
ipc-2014-optimal-tidybot-15.pddl,TIMEOUT:1801.04:-1.0:1800.0:-1
ipc-2014-optimal-tidybot-16.pddl,TIMEOUT:1801.08:-1.0:1800.0:-1
ipc-2014-optimal-tidybot-17.pddl,SAT:173.141:40.0:1800.0:-1
ipc-2014-optimal-tidybot-18.pddl,TIMEOUT:1801.09:-1.0:1800.0:-1
ipc-2014-optimal-tidybot-19.pddl,TIMEOUT:1801.0:-1.0:1800.0:-1
ipc-2014-optimal-tidybot-20.pddl,SAT:142.648:46.0:1800.0:-1
ipc-2014-optimal-transport-01.pddl,SAT:0.98108:148.0:1800.0:-1
ipc-2014-optimal-transport-02.pddl,SAT:7.70641:191.0:1800.0:-1
ipc-2014-optimal-transport-03.pddl,SAT:20.6075:300.0:1800.0:-1
ipc-2014-optimal-transport-04.pddl,SAT:438.565:250.0:1800.0:-1
ipc-2014-optimal-transport-05.pddl,TIMEOUT:1801.03:-1.0:1800.0:-1
ipc-2014-optimal-transport-06.pddl,CRASHED:455.52:1000000000.0:1800.0:-1
ipc-2014-optimal-transport-07.pddl,SAT:21.8683:967.0:1800.0:-1
ipc-2014-optimal-transport-08.pddl,SAT:1529.9:1173.0:1800.0:-1
ipc-2014-optimal-transport-09.pddl,TIMEOUT:1801.03:-1.0:1800.0:-1
ipc-2014-optimal-transport-10.pddl,CRASHED:631.837:1000000000.0:1800.0:-1
ipc-2014-optimal-transport-11.pddl,TIMEOUT:1801.02:-1.0:1800.0:-1
ipc-2014-optimal-transport-12.pddl,CRASHED:698.334:1000000000.0:1800.0:-1
ipc-2014-optimal-transport-13.pddl,SAT:5.32426:594.0:1800.0:-1
ipc-2014-optimal-transport-14.pddl,SAT:134.719:526.0:1800.0:-1
ipc-2014-optimal-transport-15.pddl,CRASHED:959.059:1000000000.0:1800.0:-1
ipc-2014-optimal-transport-16.pddl,TIMEOUT:1801.07:-1.0:1800.0:-1
ipc-2014-optimal-transport-17.pddl,TIMEOUT:1801.04:-1.0:1800.0:-1
ipc-2014-optimal-transport-18.pddl,CRASHED:1032.72:1000000000.0:1800.0:-1
ipc-2014-optimal-transport-19.pddl,TIMEOUT:1801.08:-1.0:1800.0:-1
ipc-2014-optimal-transport-20.pddl,CRASHED:1059.38:1000000000.0:1800.0:-1
ipc-2014-optimal-visitall-05-10.pddl,CRASHED:25.5124:1000000000.0:1800.0:-1
ipc-2014-optimal-visitall-05-05.pddl,SAT:0.808867:21.0:1800.0:-1
ipc-2014-optimal-visitall-05-06.pddl,SAT:1.07132:25.0:1800.0:-1
ipc-2014-optimal-visitall-05-07.pddl,SAT:3.37139:34.0:1800.0:-1
ipc-2014-optimal-visitall-05-08.pddl,SAT:36.3986:43.0:1800.0:-1
ipc-2014-optimal-visitall-05-09.pddl,TIMEOUT:1801.02:-1.0:1800.0:-1
ipc-2014-optimal-visitall-01-10.pddl,CRASHED:66.6825:1000000000.0:1800.0:-1
ipc-2014-optimal-visitall-01-11.pddl,TIMEOUT:1801.06:-1.0:1800.0:-1
ipc-2014-optimal-visitall-01-12.pddl,TIMEOUT:1801.06:-1.0:1800.0:-1
ipc-2014-optimal-visitall-01-13.pddl,CRASHED:99.9784:1000000000.0:1800.0:-1
ipc-2014-optimal-visitall-01-14.pddl,TIMEOUT:1801.09:-1.0:1800.0:-1
ipc-2014-optimal-visitall-01-15.pddl,CRASHED:46.2302:1000000000.0:1800.0:-1
ipc-2014-optimal-visitall-01-16.pddl,CRASHED:187.92:1000000000.0:1800.0:-1
ipc-2014-optimal-visitall-01-17.pddl,TIMEOUT:1801.09:-1.0:1800.0:-1
ipc-2014-optimal-visitall-01-18.pddl,TIMEOUT:1801.07:-1.0:1800.0:-1
ipc-2014-optimal-visitall-01-05.pddl,SAT:1.9381:24.0:1800.0:-1
ipc-2014-optimal-visitall-01-06.pddl,TIMEOUT:1801.03:-1.0:1800.0:-1
ipc-2014-optimal-visitall-01-07.pddl,TIMEOUT:1801.03:-1.0:1800.0:-1
ipc-2014-optimal-visitall-01-08.pddl,TIMEOUT:1801.05:-1.0:1800.0:-1
ipc-2014-optimal-visitall-01-09.pddl,TIMEOUT:1801.05:-1.0:1800.0:-1
