instance,ipc-2014-optimal-miplan
ipc-2014-optimal-barman-p433.1.pddl,CRASHED:2.5916:1000000000.0:1800.0:-1
ipc-2014-optimal-barman-p433.2.pddl,CRASHED:2.5906:1000000000.0:1800.0:-1
ipc-2014-optimal-barman-p433.3.pddl,CRASHED:2.6046:1000000000.0:1800.0:-1
ipc-2014-optimal-barman-p435.1.pddl,CRASHED:1783.06:1000000000.0:1800.0:-1
ipc-2014-optimal-barman-p435.2.pddl,CRASHED:1778.25:1000000000.0:1800.0:-1
ipc-2014-optimal-barman-p435.3.pddl,CRASHED:1779.98:1000000000.0:1800.0:-1
ipc-2014-optimal-barman-p443.1.pddl,CRASHED:2.88056:1000000000.0:1800.0:-1
ipc-2014-optimal-barman-p443.2.pddl,CRASHED:2.85956:1000000000.0:1800.0:-1
ipc-2014-optimal-barman-p443.3.pddl,CRASHED:2.84757:1000000000.0:1800.0:-1
ipc-2014-optimal-barman-p536.1.pddl,CRASHED:1789.28:1000000000.0:1800.0:-1
ipc-2014-optimal-barman-p536.2.pddl,CRASHED:1780.9:1000000000.0:1800.0:-1
ipc-2014-optimal-barman-p536.3.pddl,CRASHED:1779.86:1000000000.0:1800.0:-1
ipc-2014-optimal-barman-p638.1.pddl,CRASHED:1787.8:1000000000.0:1800.0:-1
ipc-2014-optimal-barman-p638.2.pddl,CRASHED:1245.74:1000000000.0:1800.0:-1
ipc-2014-optimal-barman-p638.3.pddl,CRASHED:1783.16:1000000000.0:1800.0:-1
ipc-2014-optimal-barman-p739.1.pddl,CRASHED:1780.21:1000000000.0:1800.0:-1
ipc-2014-optimal-barman-p739.2.pddl,CRASHED:1778.79:1000000000.0:1800.0:-1
ipc-2014-optimal-barman-p739.3.pddl,CRASHED:1783.44:1000000000.0:1800.0:-1
ipc-2014-optimal-barman-p839.1.pddl,CRASHED:1590.61:1000000000.0:1800.0:-1
ipc-2014-optimal-barman-p839.2.pddl,CRASHED:1781.87:1000000000.0:1800.0:-1
ipc-2014-optimal-cavediving-01.pddl,CRASHED:159.561:1000000000.0:1800.0:-1
ipc-2014-optimal-cavediving-01_easy.pddl,CRASHED:148.764:1000000000.0:1800.0:-1
ipc-2014-optimal-cavediving-02_easy.pddl,CRASHED:158.191:1000000000.0:1800.0:-1
ipc-2014-optimal-cavediving-03_easy.pddl,CRASHED:156.798:1000000000.0:1800.0:-1
ipc-2014-optimal-cavediving-04_easy.pddl,CRASHED:161.856:1000000000.0:1800.0:-1
ipc-2014-optimal-cavediving-05A_easy.pddl,SAT:24.3953:94.0:1800.0:-1
ipc-2014-optimal-cavediving-06A_easy.pddl,SAT:24.3843:95.0:1800.0:-1
ipc-2014-optimal-cavediving-07_easy.pddl,SAT:40.5938:131.0:1800.0:-1
ipc-2014-optimal-cavediving-08_easy.pddl,SAT:24.3523:90.0:1800.0:-1
ipc-2014-optimal-cavediving-09_easy.pddl,CRASHED:302.307:1000000000.0:1800.0:-1
ipc-2014-optimal-cavediving-10_easy.pddl,CRASHED:301.36:1000000000.0:1800.0:-1
ipc-2014-optimal-cavediving-11_easy.pddl,CRASHED:302.942:1000000000.0:1800.0:-1
ipc-2014-optimal-cavediving-12_easy.pddl,CRASHED:299.65:1000000000.0:1800.0:-1
ipc-2014-optimal-cavediving-13_easy.pddl,CRASHED:166.369:1000000000.0:1800.0:-1
ipc-2014-optimal-cavediving-14_easy.pddl,CRASHED:167.33:1000000000.0:1800.0:-1
ipc-2014-optimal-cavediving-15_easy.pddl,CRASHED:158.945:1000000000.0:1800.0:-1
ipc-2014-optimal-cavediving-16_easy.pddl,CRASHED:166.713:1000000000.0:1800.0:-1
ipc-2014-optimal-cavediving-18A_easy.pddl,SAT:64.6862:131.0:1800.0:-1
ipc-2014-optimal-cavediving-18_easy.pddl,SAT:126.049:131.0:1800.0:-1
ipc-2014-optimal-cavediving-20A_easy.pddl,SAT:40.3599:98.0:1800.0:-1
ipc-2014-optimal-childsnack-01-2.pddl,CRASHED:1774.21:1000000000.0:1800.0:-1
ipc-2014-optimal-childsnack-01.pddl,CRASHED:1776.89:1000000000.0:1800.0:-1
ipc-2014-optimal-childsnack-02-2.pddl,CRASHED:1777.07:1000000000.0:1800.0:-1
ipc-2014-optimal-childsnack-02.pddl,CRASHED:34.34:1000000000.0:1800.0:-1
ipc-2014-optimal-childsnack-03-2.pddl,CRASHED:1781.35:1000000000.0:1800.0:-1
ipc-2014-optimal-childsnack-03.pddl,CRASHED:1780.76:1000000000.0:1800.0:-1
ipc-2014-optimal-childsnack-04-2.pddl,CRASHED:1782.62:1000000000.0:1800.0:-1
ipc-2014-optimal-childsnack-04.pddl,CRASHED:1783.92:1000000000.0:1800.0:-1
ipc-2014-optimal-childsnack-05-2.pddl,CRASHED:1218.76:1000000000.0:1800.0:-1
ipc-2014-optimal-childsnack-05.pddl,CRASHED:1782.14:1000000000.0:1800.0:-1
ipc-2014-optimal-childsnack-06-2.pddl,CRASHED:1774.08:1000000000.0:1800.0:-1
ipc-2014-optimal-childsnack-06.pddl,CRASHED:1775.32:1000000000.0:1800.0:-1
ipc-2014-optimal-childsnack-07-2.pddl,CRASHED:1788.83:1000000000.0:1800.0:-1
ipc-2014-optimal-childsnack-07.pddl,CRASHED:1237.25:1000000000.0:1800.0:-1
ipc-2014-optimal-childsnack-08-2.pddl,CRASHED:1783.15:1000000000.0:1800.0:-1
ipc-2014-optimal-childsnack-08.pddl,CRASHED:1785.9:1000000000.0:1800.0:-1
ipc-2014-optimal-childsnack-09-2.pddl,CRASHED:1785.92:1000000000.0:1800.0:-1
ipc-2014-optimal-childsnack-09.pddl,CRASHED:1787.72:1000000000.0:1800.0:-1
ipc-2014-optimal-childsnack-10-2.pddl,CRASHED:1785.07:1000000000.0:1800.0:-1
ipc-2014-optimal-childsnack-10.pddl,CRASHED:1786.76:1000000000.0:1800.0:-1
ipc-2014-optimal-citycar-p2-2-2-1-2.pddl,SAT:7.57685:46.0:1800.0:-1
ipc-2014-optimal-citycar-p2-2-2-2-1.pddl,SAT:12.5591:64.0:1800.0:-1
ipc-2014-optimal-citycar-p2-2-3-1-2.pddl,SAT:10.2674:50.0:1800.0:-1
ipc-2014-optimal-citycar-p2-2-3-2-1.pddl,SAT:10.0615:48.0:1800.0:-1
ipc-2014-optimal-citycar-p2-2-3-2-2.pddl,SAT:10.2854:50.0:1800.0:-1
ipc-2014-optimal-citycar-p2-2-4-1-2.pddl,SAT:13.367:52.0:1800.0:-1
ipc-2014-optimal-citycar-p2-2-4-2-1.pddl,SAT:13.291:52.0:1800.0:-1
ipc-2014-optimal-citycar-p2-2-5-2-2.pddl,SAT:516.48:76.0:1800.0:-1
ipc-2014-optimal-citycar-p2-2-6-1-1.pddl,SAT:34.4368:58.0:1800.0:-1
ipc-2014-optimal-citycar-p2-2-6-2-2.pddl,SAT:34.4878:58.0:1800.0:-1
ipc-2014-optimal-citycar-p2-3-2-3-1.pddl,SAT:516.33:68.0:1800.0:-1
ipc-2014-optimal-citycar-p2-3-3-3-1.pddl,SAT:520.86:78.0:1800.0:-1
ipc-2014-optimal-citycar-p2-3-4-3-1.pddl,CRASHED:1721.1:1000000000.0:1800.0:-1
ipc-2014-optimal-citycar-p2-3-6-3-2.pddl,TIMEOUT:1801.0:-1.0:1800.0:-1
ipc-2014-optimal-citycar-p3-3-2-2-1.pddl,CRASHED:1708.51:1000000000.0:1800.0:-1
ipc-2014-optimal-citycar-p3-3-2-2-2.pddl,CRASHED:1708.78:1000000000.0:1800.0:-1
ipc-2014-optimal-citycar-p3-3-2-3-1.pddl,SAT:44.1593:48.0:1800.0:-1
ipc-2014-optimal-citycar-p3-3-2-3-2.pddl,CRASHED:1593.72:1000000000.0:1800.0:-1
ipc-2014-optimal-citycar-p3-3-3-3-1.pddl,CRASHED:1477.06:1000000000.0:1800.0:-1
ipc-2014-optimal-citycar-p3-3-3-3-2.pddl,CRASHED:1535.48:1000000000.0:1800.0:-1
ipc-2014-optimal-floortile-p01-4-3-2.pddl,SAT:131.311:56.0:1800.0:-1
ipc-2014-optimal-floortile-p01-4-4-2.pddl,SAT:456.545:68.0:1800.0:-1
ipc-2014-optimal-floortile-p01-5-3-2.pddl,SAT:381.351:63.0:1800.0:-1
ipc-2014-optimal-floortile-p01-5-4-2.pddl,CRASHED:1786.54:1000000000.0:1800.0:-1
ipc-2014-optimal-floortile-p01-5-5-2.pddl,CRASHED:1783.76:1000000000.0:1800.0:-1
ipc-2014-optimal-floortile-p01-6-4-2.pddl,CRASHED:1780.71:1000000000.0:1800.0:-1
ipc-2014-optimal-floortile-p01-6-5-2.pddl,CRASHED:1789.25:1000000000.0:1800.0:-1
ipc-2014-optimal-floortile-p02-4-4-2.pddl,CRASHED:1778.64:1000000000.0:1800.0:-1
ipc-2014-optimal-floortile-p02-5-3-2.pddl,SAT:432.937:65.0:1800.0:-1
ipc-2014-optimal-floortile-p02-5-4-2.pddl,CRASHED:1264.71:1000000000.0:1800.0:-1
ipc-2014-optimal-floortile-p02-5-5-2.pddl,CRASHED:1784.88:1000000000.0:1800.0:-1
ipc-2014-optimal-floortile-p02-6-4-2.pddl,CRASHED:1184.22:1000000000.0:1800.0:-1
ipc-2014-optimal-floortile-p02-6-5-2.pddl,CRASHED:1181.07:1000000000.0:1800.0:-1
ipc-2014-optimal-floortile-p03-4-3-2.pddl,SAT:150.98:56.0:1800.0:-1
ipc-2014-optimal-floortile-p03-4-4-2.pddl,CRASHED:1775.51:1000000000.0:1800.0:-1
ipc-2014-optimal-floortile-p03-5-3-2.pddl,SAT:429.771:65.0:1800.0:-1
ipc-2014-optimal-floortile-p03-5-4-2.pddl,CRASHED:1778.92:1000000000.0:1800.0:-1
ipc-2014-optimal-floortile-p03-5-5-2.pddl,CRASHED:1146.87:1000000000.0:1800.0:-1
ipc-2014-optimal-floortile-p03-6-4-2.pddl,CRASHED:1304.41:1000000000.0:1800.0:-1
ipc-2014-optimal-floortile-p03-6-5-2.pddl,CRASHED:1781.4:1000000000.0:1800.0:-1
ipc-2014-optimal-ged-d-1-2.pddl,SAT:1.14582:1.0:1800.0:-1
ipc-2014-optimal-ged-d-1-3.pddl,SAT:5.98809:4.0:1800.0:-1
ipc-2014-optimal-ged-d-1-4.pddl,SAT:1.13183:1.0:1800.0:-1
ipc-2014-optimal-ged-d-1-8.pddl,SAT:24.9202:4.0:1800.0:-1
ipc-2014-optimal-ged-d-2-1.pddl,SAT:1.14183:1.0:1800.0:-1
ipc-2014-optimal-ged-d-2-3.pddl,SAT:1.45078:3.0:1800.0:-1
ipc-2014-optimal-ged-d-2-4.pddl,SAT:1.17682:2.0:1800.0:-1
ipc-2014-optimal-ged-d-2-8.pddl,CRASHED:1781.57:1000000000.0:1800.0:-1
ipc-2014-optimal-ged-d-3-1.pddl,SAT:5.87611:4.0:1800.0:-1
ipc-2014-optimal-ged-d-3-2.pddl,SAT:1.42878:3.0:1800.0:-1
ipc-2014-optimal-ged-d-3-4.pddl,SAT:339.215:5.0:1800.0:-1
ipc-2014-optimal-ged-d-4-2.pddl,SAT:1.12783:2.0:1800.0:-1
ipc-2014-optimal-ged-d-4-3.pddl,SAT:339.643:5.0:1800.0:-1
ipc-2014-optimal-ged-d-4-8.pddl,CRASHED:1780.89:1000000000.0:1800.0:-1
ipc-2014-optimal-ged-d-7-5.pddl,SAT:25.4501:4.0:1800.0:-1
ipc-2014-optimal-ged-d-7-6.pddl,SAT:7.53285:4.0:1800.0:-1
ipc-2014-optimal-ged-d-8-1.pddl,SAT:25.2852:4.0:1800.0:-1
ipc-2014-optimal-ged-d-8-2.pddl,CRASHED:1780.33:1000000000.0:1800.0:-1
ipc-2014-optimal-ged-d-8-4.pddl,CRASHED:1780.31:1000000000.0:1800.0:-1
ipc-2014-optimal-ged-d-8-9.pddl,CRASHED:1786.02:1000000000.0:1800.0:-1
ipc-2014-optimal-hiking-1-2-3.pddl,SAT:1.21081:11.0:1800.0:-1
ipc-2014-optimal-hiking-1-2-4.pddl,SAT:20.8138:17.0:1800.0:-1
ipc-2014-optimal-hiking-1-2-5.pddl,SAT:21.1238:25.0:1800.0:-1
ipc-2014-optimal-hiking-1-2-7.pddl,SAT:24.9402:38.0:1800.0:-1
ipc-2014-optimal-hiking-1-2-8.pddl,SAT:32.1171:45.0:1800.0:-1
ipc-2014-optimal-hiking-2-2-3.pddl,SAT:21.3907:10.0:1800.0:-1
ipc-2014-optimal-hiking-2-2-4.pddl,SAT:59.5619:16.0:1800.0:-1
ipc-2014-optimal-hiking-2-2-5.pddl,SAT:296.299:22.0:1800.0:-1
ipc-2014-optimal-hiking-2-2-6.pddl,CRASHED:1788.25:1000000000.0:1800.0:-1
ipc-2014-optimal-hiking-2-2-7.pddl,CRASHED:1783.38:1000000000.0:1800.0:-1
ipc-2014-optimal-hiking-2-2-8.pddl,CRASHED:1789.49:1000000000.0:1800.0:-1
ipc-2014-optimal-hiking-2-3-4.pddl,SAT:211.189:17.0:1800.0:-1
ipc-2014-optimal-hiking-2-3-5.pddl,SAT:448.441:24.0:1800.0:-1
ipc-2014-optimal-hiking-2-3-6.pddl,CRASHED:1211.98:1000000000.0:1800.0:-1
ipc-2014-optimal-hiking-2-3-7.pddl,CRASHED:1790.58:1000000000.0:1800.0:-1
ipc-2014-optimal-hiking-2-4-3.pddl,SAT:24.8762:10.0:1800.0:-1
ipc-2014-optimal-hiking-2-4-4.pddl,SAT:295.94:17.0:1800.0:-1
ipc-2014-optimal-hiking-2-4-5.pddl,CRASHED:1106.2:1000000000.0:1800.0:-1
ipc-2014-optimal-hiking-2-4-6.pddl,CRASHED:1201.52:1000000000.0:1800.0:-1
ipc-2014-optimal-hiking-2-4-7.pddl,CRASHED:160.28:1000000000.0:1800.0:-1
ipc-2014-optimal-maintenance-1.3.010.010.1-001.pddl,CRASHED:1287.71:1000000000.0:1800.0:-1
ipc-2014-optimal-maintenance-1.3.010.010.1-002.pddl,CRASHED:1278.53:1000000000.0:1800.0:-1
ipc-2014-optimal-maintenance-1.3.010.010.2-000.pddl,SAT:0.578911:4.0:1800.0:-1
ipc-2014-optimal-maintenance-1.3.010.010.2-001.pddl,SAT:0.58291:7.0:1800.0:-1
ipc-2014-optimal-maintenance-1.3.010.010.2-002.pddl,SAT:0.577911:6.0:1800.0:-1
ipc-2014-optimal-maintenance-1.3.015.020.1-000.pddl,CRASHED:1277.13:1000000000.0:1800.0:-1
ipc-2014-optimal-maintenance-1.3.015.020.1-001.pddl,CRASHED:1302.48:1000000000.0:1800.0:-1
ipc-2014-optimal-maintenance-1.3.015.020.1-002.pddl,CRASHED:1315.1:1000000000.0:1800.0:-1
ipc-2014-optimal-maintenance-1.3.015.020.2-000.pddl,CRASHED:1277.08:1000000000.0:1800.0:-1
ipc-2014-optimal-maintenance-1.3.015.020.2-001.pddl,SAT:0.720889:11.0:1800.0:-1
ipc-2014-optimal-maintenance-1.3.015.020.2-002.pddl,SAT:0.707891:9.0:1800.0:-1
ipc-2014-optimal-maintenance-1.3.025.050.1-000.pddl,CRASHED:1460.39:1000000000.0:1800.0:-1
ipc-2014-optimal-maintenance-1.3.025.050.1-001.pddl,CRASHED:1276.13:1000000000.0:1800.0:-1
ipc-2014-optimal-maintenance-1.3.025.050.1-002.pddl,CRASHED:1474.61:1000000000.0:1800.0:-1
ipc-2014-optimal-maintenance-1.3.025.100.1-000.pddl,CRASHED:178.436:1000000000.0:1800.0:-1
ipc-2014-optimal-maintenance-1.3.025.100.1-001.pddl,CRASHED:173.213:1000000000.0:1800.0:-1
ipc-2014-optimal-maintenance-1.3.025.100.1-002.pddl,CRASHED:164.153:1000000000.0:1800.0:-1
ipc-2014-optimal-maintenance-1.3.025.100.2-000.pddl,CRASHED:1123.57:1000000000.0:1800.0:-1
ipc-2014-optimal-maintenance-1.3.025.100.2-001.pddl,CRASHED:1386.62:1000000000.0:1800.0:-1
ipc-2014-optimal-maintenance-1.3.025.100.2-002.pddl,CRASHED:1126.56:1000000000.0:1800.0:-1
ipc-2014-optimal-openstacks-p20_1.pddl,SAT:544.79:3.0:1800.0:-1
ipc-2014-optimal-openstacks-p20_2.pddl,SAT:546.11:4.0:1800.0:-1
ipc-2014-optimal-openstacks-p20_3.pddl,SAT:43.8953:6.0:1800.0:-1
ipc-2014-optimal-openstacks-p25_1.pddl,SAT:543.117:4.0:1800.0:-1
ipc-2014-optimal-openstacks-p25_3.pddl,SAT:532.781:9.0:1800.0:-1
ipc-2014-optimal-openstacks-p30_1.pddl,SAT:488.603:4.0:1800.0:-1
ipc-2014-optimal-openstacks-p30_2.pddl,SAT:515.631:4.0:1800.0:-1
ipc-2014-optimal-openstacks-p30_3.pddl,SAT:604.339:12.0:1800.0:-1
ipc-2014-optimal-openstacks-p35_1.pddl,SAT:611.53:4.0:1800.0:-1
ipc-2014-optimal-openstacks-p35_2.pddl,SAT:705.402:5.0:1800.0:-1
ipc-2014-optimal-openstacks-p35_3.pddl,CRASHED:929.92:1000000000.0:1800.0:-1
ipc-2014-optimal-openstacks-p40_1.pddl,SAT:1213.31:3.0:1800.0:-1
ipc-2014-optimal-openstacks-p40_2.pddl,SAT:704.93:4.0:1800.0:-1
ipc-2014-optimal-openstacks-p40_3.pddl,CRASHED:1783.08:1000000000.0:1800.0:-1
ipc-2014-optimal-openstacks-p45_1.pddl,SAT:780.4:4.0:1800.0:-1
ipc-2014-optimal-openstacks-p45_2.pddl,CRASHED:1780.73:1000000000.0:1800.0:-1
ipc-2014-optimal-openstacks-p45_3.pddl,CRASHED:1138.72:1000000000.0:1800.0:-1
ipc-2014-optimal-openstacks-p50_1.pddl,CRASHED:1245.62:1000000000.0:1800.0:-1
ipc-2014-optimal-openstacks-p50_2.pddl,CRASHED:1785.78:1000000000.0:1800.0:-1
ipc-2014-optimal-openstacks-p50_3.pddl,CRASHED:1784.17:1000000000.0:1800.0:-1
ipc-2014-optimal-parking-12_7-01.pddl,SAT:180.512:18.0:1800.0:-1
ipc-2014-optimal-parking-12_7-02.pddl,SAT:183.903:18.0:1800.0:-1
ipc-2014-optimal-parking-12_7-03.pddl,SAT:178.39:17.0:1800.0:-1
ipc-2014-optimal-parking-12_7-04.pddl,SAT:201.246:19.0:1800.0:-1
ipc-2014-optimal-parking-14_8-01.pddl,CRASHED:1793.51:1000000000.0:1800.0:-1
ipc-2014-optimal-parking-14_8-02.pddl,SAT:338.36:22.0:1800.0:-1
ipc-2014-optimal-parking-14_8-03.pddl,SAT:217.507:21.0:1800.0:-1
ipc-2014-optimal-parking-14_8-04.pddl,CRASHED:1789.97:1000000000.0:1800.0:-1
ipc-2014-optimal-parking-16_9-01.pddl,CRASHED:162.47:1000000000.0:1800.0:-1
ipc-2014-optimal-parking-16_9-02.pddl,CRASHED:162.43:1000000000.0:1800.0:-1
ipc-2014-optimal-parking-16_9-03.pddl,CRASHED:162.42:1000000000.0:1800.0:-1
ipc-2014-optimal-parking-16_9-04.pddl,CRASHED:162.6:1000000000.0:1800.0:-1
ipc-2014-optimal-parking-18_10-01.pddl,CRASHED:1616.21:1000000000.0:1800.0:-1
ipc-2014-optimal-parking-18_10-02.pddl,CRASHED:306.38:1000000000.0:1800.0:-1
ipc-2014-optimal-parking-18_10-03.pddl,CRASHED:321.8:1000000000.0:1800.0:-1
ipc-2014-optimal-parking-18_10-04.pddl,CRASHED:320.07:1000000000.0:1800.0:-1
ipc-2014-optimal-parking-20_11-01.pddl,CRASHED:320.56:1000000000.0:1800.0:-1
ipc-2014-optimal-parking-20_11-02.pddl,CRASHED:299.66:1000000000.0:1800.0:-1
ipc-2014-optimal-parking-20_11-03.pddl,CRASHED:1504.62:1000000000.0:1800.0:-1
ipc-2014-optimal-parking-20_11-04.pddl,CRASHED:298.65:1000000000.0:1800.0:-1
ipc-2014-optimal-tetris-01-10.pddl,CRASHED:494.69:1000000000.0:1800.0:-1
ipc-2014-optimal-tetris-01-04.pddl,CRASHED:509.582:1000000000.0:1800.0:-1
ipc-2014-optimal-tetris-01-06.pddl,SAT:254.89:30.0:1800.0:-1
ipc-2014-optimal-tetris-01-08.pddl,SAT:48.3906:36.0:1800.0:-1
ipc-2014-optimal-tetris-02-10.pddl,CRASHED:1735.96:1000000000.0:1800.0:-1
ipc-2014-optimal-tetris-02-04.pddl,SAT:0.823874:10.0:1800.0:-1
ipc-2014-optimal-tetris-02-06.pddl,SAT:53.2849:30.0:1800.0:-1
ipc-2014-optimal-tetris-02-08.pddl,CRASHED:659.81:1000000000.0:1800.0:-1
ipc-2014-optimal-tetris-03-10.pddl,CRASHED:1676.57:1000000000.0:1800.0:-1
ipc-2014-optimal-tetris-03-04.pddl,SAT:22.6386:11.0:1800.0:-1
ipc-2014-optimal-tetris-03-06.pddl,SAT:193.118:21.0:1800.0:-1
ipc-2014-optimal-tetris-03-08.pddl,CRASHED:1713.46:1000000000.0:1800.0:-1
ipc-2014-optimal-tetris-04-10.pddl,CRASHED:517.67:1000000000.0:1800.0:-1
ipc-2014-optimal-tetris-04-04.pddl,CRASHED:303.609:1000000000.0:1800.0:-1
ipc-2014-optimal-tetris-04-06.pddl,SAT:236.147:27.0:1800.0:-1
ipc-2014-optimal-tetris-04-08.pddl,CRASHED:652.9:1000000000.0:1800.0:-1
ipc-2014-optimal-tetris-05-10.pddl,CRASHED:1568.98:1000000000.0:1800.0:-1
ipc-2014-optimal-tetris-05-04.pddl,CRASHED:197.97:1000000000.0:1800.0:-1
ipc-2014-optimal-tetris-05-06.pddl,SAT:24.9972:19.0:1800.0:-1
ipc-2014-optimal-tetris-05-08.pddl,CRASHED:1523.45:1000000000.0:1800.0:-1
ipc-2014-optimal-tidybot-01.pddl,CRASHED:1690.98:1000000000.0:1800.0:-1
ipc-2014-optimal-tidybot-02.pddl,SAT:319.07:35.0:1800.0:-1
ipc-2014-optimal-tidybot-03.pddl,SAT:318.43:30.0:1800.0:-1
ipc-2014-optimal-tidybot-04.pddl,SAT:318.05:24.0:1800.0:-1
ipc-2014-optimal-tidybot-05.pddl,CRASHED:1688.49:1000000000.0:1800.0:-1
ipc-2014-optimal-tidybot-06.pddl,CRASHED:1684.48:1000000000.0:1800.0:-1
ipc-2014-optimal-tidybot-07.pddl,CRASHED:1687.86:1000000000.0:1800.0:-1
ipc-2014-optimal-tidybot-08.pddl,SAT:317.3:25.0:1800.0:-1
ipc-2014-optimal-tidybot-09.pddl,CRASHED:1658.16:1000000000.0:1800.0:-1
ipc-2014-optimal-tidybot-10.pddl,CRASHED:1660.32:1000000000.0:1800.0:-1
ipc-2014-optimal-tidybot-11.pddl,SAT:50.6743:29.0:1800.0:-1
ipc-2014-optimal-tidybot-12.pddl,SAT:320.59:35.0:1800.0:-1
ipc-2014-optimal-tidybot-13.pddl,SAT:320.56:30.0:1800.0:-1
ipc-2014-optimal-tidybot-14.pddl,SAT:58.4731:25.0:1800.0:-1
ipc-2014-optimal-tidybot-15.pddl,CRASHED:1688.06:1000000000.0:1800.0:-1
ipc-2014-optimal-tidybot-16.pddl,CRASHED:1687.74:1000000000.0:1800.0:-1
ipc-2014-optimal-tidybot-17.pddl,CRASHED:1691.68:1000000000.0:1800.0:-1
ipc-2014-optimal-tidybot-18.pddl,CRASHED:1687.59:1000000000.0:1800.0:-1
ipc-2014-optimal-tidybot-19.pddl,CRASHED:1697.1:1000000000.0:1800.0:-1
ipc-2014-optimal-tidybot-20.pddl,CRASHED:1694.3:1000000000.0:1800.0:-1
ipc-2014-optimal-transport-01.pddl,SAT:21.2918:148.0:1800.0:-1
ipc-2014-optimal-transport-02.pddl,SAT:25.3182:191.0:1800.0:-1
ipc-2014-optimal-transport-03.pddl,SAT:68.0746:300.0:1800.0:-1
ipc-2014-optimal-transport-04.pddl,CRASHED:1776.01:1000000000.0:1800.0:-1
ipc-2014-optimal-transport-05.pddl,CRASHED:1777.95:1000000000.0:1800.0:-1
ipc-2014-optimal-transport-06.pddl,CRASHED:1780.97:1000000000.0:1800.0:-1
ipc-2014-optimal-transport-07.pddl,SAT:60.9667:967.0:1800.0:-1
ipc-2014-optimal-transport-08.pddl,SAT:504.113:1173.0:1800.0:-1
ipc-2014-optimal-transport-09.pddl,CRASHED:1779.76:1000000000.0:1800.0:-1
ipc-2014-optimal-transport-10.pddl,CRASHED:1777.59:1000000000.0:1800.0:-1
ipc-2014-optimal-transport-11.pddl,CRASHED:109.01:1000000000.0:1800.0:-1
ipc-2014-optimal-transport-12.pddl,CRASHED:1774.74:1000000000.0:1800.0:-1
ipc-2014-optimal-transport-13.pddl,SAT:32.0341:594.0:1800.0:-1
ipc-2014-optimal-transport-14.pddl,SAT:286.767:526.0:1800.0:-1
ipc-2014-optimal-transport-15.pddl,CRASHED:1782.04:1000000000.0:1800.0:-1
ipc-2014-optimal-transport-16.pddl,CRASHED:44.37:1000000000.0:1800.0:-1
ipc-2014-optimal-transport-17.pddl,TIMEOUT:1801.0:-1.0:1800.0:-1
ipc-2014-optimal-transport-18.pddl,TIMEOUT:1801.0:-1.0:1800.0:-1
ipc-2014-optimal-transport-19.pddl,CRASHED:1434.26:1000000000.0:1800.0:-1
ipc-2014-optimal-transport-20.pddl,CRASHED:1352.81:1000000000.0:1800.0:-1
ipc-2014-optimal-visitall-05-10.pddl,CRASHED:1785.02:1000000000.0:1800.0:-1
ipc-2014-optimal-visitall-05-05.pddl,SAT:4.16337:21.0:1800.0:-1
ipc-2014-optimal-visitall-05-06.pddl,SAT:6.63199:25.0:1800.0:-1
ipc-2014-optimal-visitall-05-07.pddl,SAT:115.463:34.0:1800.0:-1
ipc-2014-optimal-visitall-05-08.pddl,SAT:700.757:43.0:1800.0:-1
ipc-2014-optimal-visitall-05-09.pddl,CRASHED:1784.99:1000000000.0:1800.0:-1
ipc-2014-optimal-visitall-01-10.pddl,SAT:172.789:99.0:1800.0:-1
ipc-2014-optimal-visitall-01-11.pddl,SAT:174.216:120.0:1800.0:-1
ipc-2014-optimal-visitall-01-12.pddl,SAT:217.078:143.0:1800.0:-1
ipc-2014-optimal-visitall-01-13.pddl,SAT:174.36:168.0:1800.0:-1
ipc-2014-optimal-visitall-01-14.pddl,CRASHED:1271.0:1000000000.0:1800.0:-1
ipc-2014-optimal-visitall-01-15.pddl,CRASHED:1262.03:1000000000.0:1800.0:-1
ipc-2014-optimal-visitall-01-16.pddl,CRASHED:1505.74:1000000000.0:1800.0:-1
ipc-2014-optimal-visitall-01-17.pddl,CRASHED:1777.59:1000000000.0:1800.0:-1
ipc-2014-optimal-visitall-01-18.pddl,CRASHED:1780.81:1000000000.0:1800.0:-1
ipc-2014-optimal-visitall-01-05.pddl,SAT:25.1892:24.0:1800.0:-1
ipc-2014-optimal-visitall-01-06.pddl,SAT:172.557:35.0:1800.0:-1
ipc-2014-optimal-visitall-01-07.pddl,SAT:172.335:48.0:1800.0:-1
ipc-2014-optimal-visitall-01-08.pddl,SAT:173.588:63.0:1800.0:-1
ipc-2014-optimal-visitall-01-09.pddl,SAT:172.406:80.0:1800.0:-1
