instance,ipc-2014-agile-cedalion
ipc-2014-agile-barman-p1-11-4-15.pddl,SAT:2.75158:344.0:300.0:-1
ipc-2014-agile-barman-p1-11-5-15.pddl,SAT:2.83757:329.0:300.0:-1
ipc-2014-agile-barman-p1-11-5-16.pddl,SAT:2.90956:441.0:300.0:-1
ipc-2014-agile-barman-p2-10-4-13.pddl,SAT:2.73558:317.0:300.0:-1
ipc-2014-agile-barman-p2-11-4-15.pddl,SAT:2.83057:400.0:300.0:-1
ipc-2014-agile-barman-p2-11-5-15.pddl,SAT:2.92055:417.0:300.0:-1
ipc-2014-agile-barman-p2-11-5-16.pddl,SAT:3.08753:446.0:300.0:-1
ipc-2014-agile-barman-p2-11-5-17.pddl,SAT:3.3035:392.0:300.0:-1
ipc-2014-agile-barman-p3-10-4-13.pddl,SAT:2.6456:289.0:300.0:-1
ipc-2014-agile-barman-p3-11-4-15.pddl,SAT:2.93455:369.0:300.0:-1
ipc-2014-agile-barman-p3-11-5-15.pddl,SAT:3.11153:336.0:300.0:-1
ipc-2014-agile-barman-p3-11-5-16.pddl,SAT:3.18151:435.0:300.0:-1
ipc-2014-agile-barman-p3-11-5-17.pddl,SAT:3.2825:429.0:300.0:-1
ipc-2014-agile-barman-p4-11-4-14.pddl,SAT:2.75358:337.0:300.0:-1
ipc-2014-agile-barman-p4-11-4-15.pddl,SAT:2.88056:349.0:300.0:-1
ipc-2014-agile-barman-p4-11-5-15.pddl,SAT:3.00554:379.0:300.0:-1
ipc-2014-agile-barman-p5-10-4-13.pddl,SAT:2.6286:293.0:300.0:-1
ipc-2014-agile-barman-p5-11-4-15.pddl,SAT:2.90956:378.0:300.0:-1
ipc-2014-agile-barman-p5-11-5-15.pddl,SAT:2.92455:359.0:300.0:-1
ipc-2014-agile-barman-p5-11-5-16.pddl,SAT:3.12052:410.0:300.0:-1
ipc-2014-agile-cavediving-01_easy.pddl,TIMEOUT:300.475:-1.0:300.0:-1
ipc-2014-agile-cavediving-01.pddl,TIMEOUT:301.08:-1.0:300.0:-1
ipc-2014-agile-cavediving-02_easy.pddl,TIMEOUT:300.787:-1.0:300.0:-1
ipc-2014-agile-cavediving-03_easy.pddl,TIMEOUT:300.893:-1.0:300.0:-1
ipc-2014-agile-cavediving-04_easy.pddl,TIMEOUT:301.0:-1.0:300.0:-1
ipc-2014-agile-cavediving-05A_easy.pddl,SAT:33.3739:94.0:300.0:-1
ipc-2014-agile-cavediving-06A_easy.pddl,SAT:33.6179:95.0:300.0:-1
ipc-2014-agile-cavediving-07_easy.pddl,SAT:52.624:131.0:300.0:-1
ipc-2014-agile-cavediving-08_easy.pddl,SAT:33.8299:90.0:300.0:-1
ipc-2014-agile-cavediving-09_easy.pddl,TIMEOUT:300.552:-1.0:300.0:-1
ipc-2014-agile-cavediving-10_easy.pddl,TIMEOUT:300.699:-1.0:300.0:-1
ipc-2014-agile-cavediving-11_easy.pddl,TIMEOUT:301.02:-1.0:300.0:-1
ipc-2014-agile-cavediving-12_easy.pddl,TIMEOUT:300.286:-1.0:300.0:-1
ipc-2014-agile-cavediving-13_easy.pddl,TIMEOUT:300.315:-1.0:300.0:-1
ipc-2014-agile-cavediving-14_easy.pddl,TIMEOUT:300.774:-1.0:300.0:-1
ipc-2014-agile-cavediving-15_easy.pddl,TIMEOUT:300.873:-1.0:300.0:-1
ipc-2014-agile-cavediving-16_easy.pddl,TIMEOUT:300.876:-1.0:300.0:-1
ipc-2014-agile-cavediving-18A_easy.pddl,SAT:85.45:131.0:300.0:-1
ipc-2014-agile-cavediving-18_easy.pddl,SAT:100.242:131.0:300.0:-1
ipc-2014-agile-cavediving-20A_easy.pddl,SAT:73.1959:98.0:300.0:-1
ipc-2014-agile-childsnack-05-2.pddl,CRASHED:217.77:1000000000.0:300.0:-1
ipc-2014-agile-childsnack-05.pddl,CRASHED:219.84:1000000000.0:300.0:-1
ipc-2014-agile-childsnack-06-2.pddl,CRASHED:212.87:1000000000.0:300.0:-1
ipc-2014-agile-childsnack-07-2.pddl,CRASHED:210.67:1000000000.0:300.0:-1
ipc-2014-agile-childsnack-08-2.pddl,CRASHED:209.27:1000000000.0:300.0:-1
ipc-2014-agile-childsnack-08.pddl,CRASHED:209.07:1000000000.0:300.0:-1
ipc-2014-agile-childsnack-09-2.pddl,CRASHED:209.07:1000000000.0:300.0:-1
ipc-2014-agile-childsnack-09.pddl,CRASHED:208.77:1000000000.0:300.0:-1
ipc-2014-agile-childsnack-10-2.pddl,CRASHED:208.21:1000000000.0:300.0:-1
ipc-2014-agile-childsnack-10.pddl,CRASHED:208.07:1000000000.0:300.0:-1
ipc-2014-agile-childsnack-11-2.pddl,CRASHED:206.68:1000000000.0:300.0:-1
ipc-2014-agile-childsnack-11.pddl,CRASHED:206.35:1000000000.0:300.0:-1
ipc-2014-agile-childsnack-12.pddl,CRASHED:206.49:1000000000.0:300.0:-1
ipc-2014-agile-childsnack-13-2.pddl,CRASHED:205.9:1000000000.0:300.0:-1
ipc-2014-agile-childsnack-13.pddl,CRASHED:217.56:1000000000.0:300.0:-1
ipc-2014-agile-childsnack-14.pddl,CRASHED:223.89:1000000000.0:300.0:-1
ipc-2014-agile-childsnack-15-2.pddl,CRASHED:227.99:1000000000.0:300.0:-1
ipc-2014-agile-childsnack-16-2.pddl,TIMEOUT:300.209:-1.0:300.0:-1
ipc-2014-agile-childsnack-19-2.pddl,TIMEOUT:300.937:-1.0:300.0:-1
ipc-2014-agile-childsnack-19.pddl,TIMEOUT:300.45:-1.0:300.0:-1
ipc-2014-agile-citycar-p3-2-2-0-1.pddl,SAT:2.22766:330.0:300.0:-1
ipc-2014-agile-citycar-p3-3-2-0-1.pddl,SAT:2.6496:858.0:300.0:-1
ipc-2014-agile-citycar-p3-4-2-0-1.pddl,SAT:85.407:703.0:300.0:-1
ipc-2014-agile-citycar-p3-5-2-0-1.pddl,SAT:237.156:285.0:300.0:-1
ipc-2014-agile-citycar-p3-5-2-0-2.pddl,SAT:88.4755:730.0:300.0:-1
ipc-2014-agile-citycar-p4-2-2-0-1.pddl,CRASHED:219.76:1000000000.0:300.0:-1
ipc-2014-agile-citycar-p4-2-3-0-1.pddl,CRASHED:222.53:1000000000.0:300.0:-1
ipc-2014-agile-citycar-p4-2-3-0-2.pddl,CRASHED:222.56:1000000000.0:300.0:-1
ipc-2014-agile-citycar-p4-3-2-0-1.pddl,CRASHED:225.52:1000000000.0:300.0:-1
ipc-2014-agile-citycar-p4-3-2-0-2.pddl,CRASHED:224.7:1000000000.0:300.0:-1
ipc-2014-agile-citycar-p4-3-3-0-1.pddl,CRASHED:220.84:1000000000.0:300.0:-1
ipc-2014-agile-citycar-p4-3-3-0-2.pddl,CRASHED:222.39:1000000000.0:300.0:-1
ipc-2014-agile-citycar-p4-4-2-0-1.pddl,CRASHED:227.36:1000000000.0:300.0:-1
ipc-2014-agile-citycar-p4-4-2-0-2.pddl,CRASHED:223.79:1000000000.0:300.0:-1
ipc-2014-agile-citycar-p4-4-3-0-1.pddl,CRASHED:223.92:1000000000.0:300.0:-1
ipc-2014-agile-citycar-p4-4-3-0-2.pddl,CRASHED:226.91:1000000000.0:300.0:-1
ipc-2014-agile-citycar-p4-5-2-0-1.pddl,CRASHED:226.05:1000000000.0:300.0:-1
ipc-2014-agile-citycar-p4-5-2-0-2.pddl,CRASHED:229.65:1000000000.0:300.0:-1
ipc-2014-agile-citycar-p4-5-3-0-1.pddl,CRASHED:227.68:1000000000.0:300.0:-1
ipc-2014-agile-citycar-p4-5-3-0-2.pddl,CRASHED:227.51:1000000000.0:300.0:-1
ipc-2014-agile-floortile-p01-4-3-2.pddl,SAT:42.8205:88.0:300.0:-1
ipc-2014-agile-floortile-p01-5-4-2.pddl,TIMEOUT:300.237:-1.0:300.0:-1
ipc-2014-agile-floortile-p01-5-5-2.pddl,TIMEOUT:301.101:-1.0:300.0:-1
ipc-2014-agile-floortile-p01-6-4-2.pddl,TIMEOUT:300.678:-1.0:300.0:-1
ipc-2014-agile-floortile-p01-6-5-2.pddl,TIMEOUT:301.079:-1.0:300.0:-1
ipc-2014-agile-floortile-p01-6-5-3.pddl,TIMEOUT:300.612:-1.0:300.0:-1
ipc-2014-agile-floortile-p02-5-4-2.pddl,TIMEOUT:300.606:-1.0:300.0:-1
ipc-2014-agile-floortile-p02-6-4-2.pddl,TIMEOUT:300.713:-1.0:300.0:-1
ipc-2014-agile-floortile-p02-6-5-2.pddl,TIMEOUT:300.698:-1.0:300.0:-1
ipc-2014-agile-floortile-p02-6-5-3.pddl,TIMEOUT:300.758:-1.0:300.0:-1
ipc-2014-agile-floortile-p03-6-4-2.pddl,TIMEOUT:300.129:-1.0:300.0:-1
ipc-2014-agile-floortile-p03-6-5-2.pddl,TIMEOUT:300.668:-1.0:300.0:-1
ipc-2014-agile-floortile-p03-6-5-3.pddl,TIMEOUT:300.802:-1.0:300.0:-1
ipc-2014-agile-floortile-p04-5-4-2.pddl,TIMEOUT:300.426:-1.0:300.0:-1
ipc-2014-agile-floortile-p04-5-5-2.pddl,TIMEOUT:300.32:-1.0:300.0:-1
ipc-2014-agile-floortile-p04-6-5-2.pddl,TIMEOUT:300.707:-1.0:300.0:-1
ipc-2014-agile-floortile-p04-6-5-3.pddl,TIMEOUT:300.189:-1.0:300.0:-1
ipc-2014-agile-floortile-p05-4-3-2.pddl,SAT:23.0635:95.0:300.0:-1
ipc-2014-agile-floortile-p05-6-5-2.pddl,TIMEOUT:300.86:-1.0:300.0:-1
ipc-2014-agile-floortile-p05-6-5-3.pddl,TIMEOUT:301.004:-1.0:300.0:-1
ipc-2014-agile-ged-d-10-1.pddl,SAT:8.33473:32.0:300.0:-1
ipc-2014-agile-ged-d-10-2.pddl,SAT:8.5617:33.0:300.0:-1
ipc-2014-agile-ged-d-10-3.pddl,SAT:7.28789:25.0:300.0:-1
ipc-2014-agile-ged-d-10-4.pddl,SAT:7.71683:28.0:300.0:-1
ipc-2014-agile-ged-d-10-5.pddl,SAT:17.1664:45.0:300.0:-1
ipc-2014-agile-ged-d-10-6.pddl,SAT:11.4763:40.0:300.0:-1
ipc-2014-agile-ged-d-11-1.pddl,SAT:8.5537:31.0:300.0:-1
ipc-2014-agile-ged-d-11-3.pddl,SAT:7.76282:27.0:300.0:-1
ipc-2014-agile-ged-d-11-5.pddl,SAT:17.4034:34.0:300.0:-1
ipc-2014-agile-ged-d-11-6.pddl,SAT:10.1485:33.0:300.0:-1
ipc-2014-agile-ged-d-12-11.pddl,SAT:8.11677:27.0:300.0:-1
ipc-2014-agile-ged-d-12-2.pddl,SAT:12.1991:34.0:300.0:-1
ipc-2014-agile-ged-d-12-3.pddl,SAT:64.5132:83.0:300.0:-1
ipc-2014-agile-ged-d-12-5.pddl,SAT:24.5803:42.0:300.0:-1
ipc-2014-agile-ged-d-12-6.pddl,SAT:13.268:45.0:300.0:-1
ipc-2014-agile-ged-d-12-7.pddl,SAT:49.0335:48.0:300.0:-1
ipc-2014-agile-ged-d-12-8.pddl,SAT:20.6419:51.0:300.0:-1
ipc-2014-agile-ged-d-12-9.pddl,SAT:76.1654:181.0:300.0:-1
ipc-2014-agile-ged-d-3-6.pddl,SAT:7.14491:19.0:300.0:-1
ipc-2014-agile-ged-d-9-5.pddl,SAT:7.50786:22.0:300.0:-1
ipc-2014-agile-hiking-3-4-3.pddl,SAT:2.21966:41.0:300.0:-1
ipc-2014-agile-hiking-3-4-4.pddl,SAT:3.09953:30.0:300.0:-1
ipc-2014-agile-hiking-3-4-5.pddl,SAT:4.91625:67.0:300.0:-1
ipc-2014-agile-hiking-3-4-6.pddl,SAT:216.093:71.0:300.0:-1
ipc-2014-agile-hiking-3-4-7.pddl,TIMEOUT:301.14:-1.0:300.0:-1
ipc-2014-agile-hiking-3-4-8.pddl,TIMEOUT:300.364:-1.0:300.0:-1
ipc-2014-agile-hiking-3-4-9.pddl,TIMEOUT:300.423:-1.0:300.0:-1
ipc-2014-agile-hiking-4-5-3.pddl,SAT:3.52146:17.0:300.0:-1
ipc-2014-agile-hiking-4-5-4.pddl,SAT:6.27604:34.0:300.0:-1
ipc-2014-agile-hiking-4-5-5.pddl,SAT:234.468:30.0:300.0:-1
ipc-2014-agile-hiking-4-5-6.pddl,SAT:241.603:45.0:300.0:-1
ipc-2014-agile-hiking-4-5-7.pddl,TIMEOUT:301.104:-1.0:300.0:-1
ipc-2014-agile-hiking-4-5-8.pddl,TIMEOUT:301.013:-1.0:300.0:-1
ipc-2014-agile-hiking-4-5-9.pddl,TIMEOUT:300.214:-1.0:300.0:-1
ipc-2014-agile-hiking-5-6-3.pddl,SAT:6.44002:35.0:300.0:-1
ipc-2014-agile-hiking-5-6-4.pddl,SAT:235.53:25.0:300.0:-1
ipc-2014-agile-hiking-5-6-5.pddl,SAT:237.001:33.0:300.0:-1
ipc-2014-agile-hiking-5-6-6.pddl,SAT:243.755:51.0:300.0:-1
ipc-2014-agile-hiking-5-6-7.pddl,SAT:268.839:64.0:300.0:-1
ipc-2014-agile-hiking-5-6-8.pddl,SAT:294.062:69.0:300.0:-1
ipc-2014-agile-maintenance-1.3.060.180.5-000.pddl,SAT:134.023:58.0:300.0:-1
ipc-2014-agile-maintenance-1.3.060.180.5-001.pddl,SAT:1.3008:55.0:300.0:-1
ipc-2014-agile-maintenance-1.3.060.180.5-002.pddl,TIMEOUT:300.472:-1.0:300.0:-1
ipc-2014-agile-maintenance-1.3.100.300.5-000.pddl,TIMEOUT:300.071:-1.0:300.0:-1
ipc-2014-agile-maintenance-1.3.100.300.5-001.pddl,TIMEOUT:300.005:-1.0:300.0:-1
ipc-2014-agile-maintenance-1.3.100.300.7-000.pddl,SAT:1.80472:89.0:300.0:-1
ipc-2014-agile-maintenance-1.3.100.300.7-001.pddl,SAT:1.81472:94.0:300.0:-1
ipc-2014-agile-maintenance-1.3.100.300.7-002.pddl,SAT:2.01969:85.0:300.0:-1
ipc-2014-agile-maintenance-1.3.150.500.6-001.pddl,SAT:4.02639:144.0:300.0:-1
ipc-2014-agile-maintenance-1.3.200.500.5-001.pddl,TIMEOUT:300.56:-1.0:300.0:-1
ipc-2014-agile-maintenance-1.3.200.500.5-002.pddl,TIMEOUT:300.262:-1.0:300.0:-1
ipc-2014-agile-maintenance-1.3.200.700.7-000.pddl,SAT:78.783:168.0:300.0:-1
ipc-2014-agile-maintenance-1.3.200.700.7-001.pddl,SAT:234.637:172.0:300.0:-1
ipc-2014-agile-maintenance-1.3.200.700.7-002.pddl,SAT:67.4048:179.0:300.0:-1
ipc-2014-agile-maintenance-1.3.200.900.5-000.pddl,TIMEOUT:300.052:-1.0:300.0:-1
ipc-2014-agile-maintenance-1.3.200.900.5-001.pddl,TIMEOUT:301.08:-1.0:300.0:-1
ipc-2014-agile-maintenance-1.3.200.900.5-002.pddl,TIMEOUT:300.941:-1.0:300.0:-1
ipc-2014-agile-maintenance-1.3.200.900.8-000.pddl,SAT:4.36134:181.0:300.0:-1
ipc-2014-agile-maintenance-1.3.200.900.8-001.pddl,SAT:4.5743:181.0:300.0:-1
ipc-2014-agile-maintenance-1.3.200.900.8-002.pddl,SAT:75.6605:181.0:300.0:-1
ipc-2014-agile-openstacks-p130_2.pddl,SAT:9.46156:50.0:300.0:-1
ipc-2014-agile-openstacks-p130_3.pddl,SAT:10.0455:103.0:300.0:-1
ipc-2014-agile-openstacks-p150_2.pddl,SAT:10.2984:54.0:300.0:-1
ipc-2014-agile-openstacks-p150_3.pddl,SAT:26.7819:140.0:300.0:-1
ipc-2014-agile-openstacks-p170_1.pddl,SAT:12.1112:55.0:300.0:-1
ipc-2014-agile-openstacks-p170_2.pddl,SAT:12.8001:80.0:300.0:-1
ipc-2014-agile-openstacks-p170_3.pddl,SAT:37.0374:156.0:300.0:-1
ipc-2014-agile-openstacks-p190_1.pddl,SAT:37.6883:118.0:300.0:-1
ipc-2014-agile-openstacks-p190_2.pddl,SAT:41.0828:121.0:300.0:-1
ipc-2014-agile-openstacks-p190_3.pddl,SAT:54.6147:180.0:300.0:-1
ipc-2014-agile-openstacks-p210_1.pddl,SAT:56.8594:134.0:300.0:-1
ipc-2014-agile-openstacks-p210_2.pddl,SAT:76.7893:101.0:300.0:-1
ipc-2014-agile-openstacks-p230_1.pddl,SAT:62.4565:137.0:300.0:-1
ipc-2014-agile-openstacks-p230_2.pddl,SAT:65.97:159.0:300.0:-1
ipc-2014-agile-openstacks-p250_1.pddl,SAT:80.9877:117.0:300.0:-1
ipc-2014-agile-openstacks-p250_2.pddl,SAT:81.3796:136.0:300.0:-1
ipc-2014-agile-openstacks-p270_1.pddl,SAT:85.458:130.0:300.0:-1
ipc-2014-agile-openstacks-p270_2.pddl,SAT:86.9318:157.0:300.0:-1
ipc-2014-agile-openstacks-p290_1.pddl,SAT:88.7725:138.0:300.0:-1
ipc-2014-agile-openstacks-p290_2.pddl,SAT:92.7619:178.0:300.0:-1
ipc-2014-agile-parking-28_2.pddl,SAT:79.206:91.0:300.0:-1
ipc-2014-agile-parking-28_3.pddl,SAT:28.6576:68.0:300.0:-1
ipc-2014-agile-parking-30_1.pddl,SAT:39.607:75.0:300.0:-1
ipc-2014-agile-parking-30_2.pddl,SAT:32.3601:73.0:300.0:-1
ipc-2014-agile-parking-30_3.pddl,SAT:60.8078:94.0:300.0:-1
ipc-2014-agile-parking-32_1.pddl,TIMEOUT:300.065:-1.0:300.0:-1
ipc-2014-agile-parking-32_2.pddl,TIMEOUT:301.02:-1.0:300.0:-1
ipc-2014-agile-parking-32_3.pddl,TIMEOUT:300.519:-1.0:300.0:-1
ipc-2014-agile-parking-34_1.pddl,TIMEOUT:300.553:-1.0:300.0:-1
ipc-2014-agile-parking-34_2.pddl,TIMEOUT:300.481:-1.0:300.0:-1
ipc-2014-agile-parking-34_3.pddl,TIMEOUT:300.435:-1.0:300.0:-1
ipc-2014-agile-parking-36_1.pddl,TIMEOUT:300.356:-1.0:300.0:-1
ipc-2014-agile-parking-36_2.pddl,TIMEOUT:300.198:-1.0:300.0:-1
ipc-2014-agile-parking-36_3.pddl,TIMEOUT:301.069:-1.0:300.0:-1
ipc-2014-agile-parking-38_1.pddl,TIMEOUT:300.462:-1.0:300.0:-1
ipc-2014-agile-parking-38_2.pddl,TIMEOUT:301.042:-1.0:300.0:-1
ipc-2014-agile-parking-38_3.pddl,TIMEOUT:300.747:-1.0:300.0:-1
ipc-2014-agile-parking-40_1.pddl,TIMEOUT:300.064:-1.0:300.0:-1
ipc-2014-agile-parking-40_2.pddl,TIMEOUT:301.02:-1.0:300.0:-1
ipc-2014-agile-parking-40_3.pddl,TIMEOUT:300.702:-1.0:300.0:-1
ipc-2014-agile-tetris-020.pddl,SAT:31.8802:106.0:300.0:-1
ipc-2014-agile-tetris-021.pddl,SAT:72.469:596.0:300.0:-1
ipc-2014-agile-tetris-022.pddl,SAT:197.167:89.0:300.0:-1
ipc-2014-agile-tetris-023.pddl,SAT:185.785:95.0:300.0:-1
ipc-2014-agile-tetris-024.pddl,SAT:9.53674e-07:104.0:300.0:-1
ipc-2014-agile-tetris-025.pddl,SAT:187.339:61.0:300.0:-1
ipc-2014-agile-tetris-026.pddl,SAT:191.548:131.0:300.0:-1
ipc-2014-agile-tetris-027.pddl,SAT:190.851:120.0:300.0:-1
ipc-2014-agile-tetris-028.pddl,SAT:199.077:126.0:300.0:-1
ipc-2014-agile-tetris-029.pddl,TIMEOUT:301.107:-1.0:300.0:-1
ipc-2014-agile-tetris-031.pddl,TIMEOUT:300.847:-1.0:300.0:-1
ipc-2014-agile-tetris-032.pddl,TIMEOUT:9.53674e-07:-1.0:300.0:-1
ipc-2014-agile-tetris-033.pddl,SAT:211.656:155.0:300.0:-1
ipc-2014-agile-tetris-034.pddl,SAT:83.8133:243.0:300.0:-1
ipc-2014-agile-tetris-035.pddl,SAT:198.754:134.0:300.0:-1
ipc-2014-agile-tetris-036.pddl,SAT:205.48:111.0:300.0:-1
ipc-2014-agile-tetris-037.pddl,TIMEOUT:300.289:-1.0:300.0:-1
ipc-2014-agile-tetris-038.pddl,TIMEOUT:300.741:-1.0:300.0:-1
ipc-2014-agile-tetris-039.pddl,SAT:234.764:174.0:300.0:-1
ipc-2014-agile-tetris-040.pddl,TIMEOUT:300.392:-1.0:300.0:-1
ipc-2014-agile-thoughtful-bootstrap-typed-01.pddl,CRASHED:0.567913:1000000000.0:300.0:-1
ipc-2014-agile-thoughtful-bootstrap-typed-02.pddl,CRASHED:0.557914:1000000000.0:300.0:-1
ipc-2014-agile-thoughtful-bootstrap-typed-03.pddl,CRASHED:0.592908:1000000000.0:300.0:-1
ipc-2014-agile-thoughtful-bootstrap-typed-04.pddl,CRASHED:0.576911:1000000000.0:300.0:-1
ipc-2014-agile-thoughtful-bootstrap-typed-05.pddl,CRASHED:0.571912:1000000000.0:300.0:-1
ipc-2014-agile-thoughtful-p11_6_53-typed.pddl,CRASHED:0.630903:1000000000.0:300.0:-1
ipc-2014-agile-thoughtful-p11_6_59-typed.pddl,CRASHED:0.617905:1000000000.0:300.0:-1
ipc-2014-agile-thoughtful-p11_6_62-typed.pddl,CRASHED:0.612906:1000000000.0:300.0:-1
ipc-2014-agile-thoughtful-p13_7_78-typed.pddl,CRASHED:0.620905:1000000000.0:300.0:-1
ipc-2014-agile-thoughtful-p13_7_79-typed.pddl,CRASHED:0.619904:1000000000.0:300.0:-1
ipc-2014-agile-thoughtful-p13_7_86-typed.pddl,CRASHED:0.619905:1000000000.0:300.0:-1
ipc-2014-agile-thoughtful-target-typed-20.pddl,CRASHED:0.623905:1000000000.0:300.0:-1
ipc-2014-agile-thoughtful-target-typed-21.pddl,CRASHED:0.763883:1000000000.0:300.0:-1
ipc-2014-agile-thoughtful-target-typed-22.pddl,CRASHED:0.625904:1000000000.0:300.0:-1
ipc-2014-agile-thoughtful-target-typed-23.pddl,CRASHED:0.71689:1000000000.0:300.0:-1
ipc-2014-agile-thoughtful-target-typed-24.pddl,CRASHED:0.594908:1000000000.0:300.0:-1
ipc-2014-agile-thoughtful-target-typed-25.pddl,CRASHED:0.596909:1000000000.0:300.0:-1
ipc-2014-agile-thoughtful-target-typed-26.pddl,CRASHED:0.598908:1000000000.0:300.0:-1
ipc-2014-agile-thoughtful-target-typed-27.pddl,CRASHED:0.642901:1000000000.0:300.0:-1
ipc-2014-agile-thoughtful-target-typed-28.pddl,CRASHED:0.625904:1000000000.0:300.0:-1
ipc-2014-agile-transport-01.pddl,SAT:8.25175:4890.0:300.0:-1
ipc-2014-agile-transport-02.pddl,SAT:9.97448:8048.0:300.0:-1
ipc-2014-agile-transport-03.pddl,SAT:8.68668:6191.0:300.0:-1
ipc-2014-agile-transport-04.pddl,SAT:78.2011:15020.0:300.0:-1
ipc-2014-agile-transport-05.pddl,SAT:81.5056:19671.0:300.0:-1
ipc-2014-agile-transport-06.pddl,SAT:78.4531:15020.0:300.0:-1
ipc-2014-agile-transport-07.pddl,SAT:96.4993:18693.0:300.0:-1
ipc-2014-agile-transport-08.pddl,SAT:98.746:16523.0:300.0:-1
ipc-2014-agile-transport-09.pddl,SAT:96.7433:18693.0:300.0:-1
ipc-2014-agile-transport-10.pddl,SAT:90.7532:21018.0:300.0:-1
ipc-2014-agile-transport-11.pddl,SAT:11.6492:5047.0:300.0:-1
ipc-2014-agile-transport-12.pddl,SAT:68.5966:7429.0:300.0:-1
ipc-2014-agile-transport-13.pddl,SAT:8.10977:5516.0:300.0:-1
ipc-2014-agile-transport-14.pddl,SAT:80.4838:16616.0:300.0:-1
ipc-2014-agile-transport-15.pddl,SAT:81.4126:19430.0:300.0:-1
ipc-2014-agile-transport-16.pddl,SAT:71.5671:15016.0:300.0:-1
ipc-2014-agile-transport-17.pddl,SAT:93.2098:14692.0:300.0:-1
ipc-2014-agile-transport-18.pddl,SAT:93.4178:18819.0:300.0:-1
ipc-2014-agile-transport-19.pddl,SAT:81.6356:18949.0:300.0:-1
ipc-2014-agile-transport-20.pddl,SAT:96.0334:14402.0:300.0:-1
ipc-2014-agile-visitall-30.pddl,SAT:2.51562:1879.0:300.0:-1
ipc-2014-agile-visitall-31.pddl,SAT:2.45962:2184.0:300.0:-1
ipc-2014-agile-visitall-32.pddl,SAT:2.35664:1972.0:300.0:-1
ipc-2014-agile-visitall-33.pddl,SAT:2.52162:2550.0:300.0:-1
ipc-2014-agile-visitall-50.pddl,SAT:3.55846:4799.0:300.0:-1
ipc-2014-agile-visitall-51.pddl,SAT:3.67444:5092.0:300.0:-1
ipc-2014-agile-visitall-52.pddl,SAT:3.61345:4533.0:300.0:-1
ipc-2014-agile-visitall-53.pddl,SAT:3.9144:6046.0:300.0:-1
ipc-2014-agile-visitall-54.pddl,SAT:3.9414:5920.0:300.0:-1
ipc-2014-agile-visitall-55.pddl,SAT:3.86041:6093.0:300.0:-1
ipc-2014-agile-visitall-56.pddl,SAT:4.14637:6084.0:300.0:-1
ipc-2014-agile-visitall-57.pddl,SAT:4.67229:6223.0:300.0:-1
ipc-2014-agile-visitall-58.pddl,SAT:4.76927:6579.0:300.0:-1
ipc-2014-agile-visitall-59.pddl,SAT:4.90425:6718.0:300.0:-1
ipc-2014-agile-visitall-60.pddl,SAT:4.93125:6537.0:300.0:-1
ipc-2014-agile-visitall-61.pddl,SAT:5.13522:6927.0:300.0:-1
ipc-2014-agile-visitall-62.pddl,SAT:4.68129:7404.0:300.0:-1
ipc-2014-agile-visitall-63.pddl,SAT:4.77627:7749.0:300.0:-1
ipc-2014-agile-visitall-64.pddl,SAT:4.70628:7074.0:300.0:-1
ipc-2014-agile-visitall-65.pddl,SAT:4.90925:7875.0:300.0:-1
