instance,ipc-2014-agile-freelunch
ipc-2014-agile-barman-p1-11-4-15.pddl,CRASHED:27.91:1000000000.0:300.0:-1
ipc-2014-agile-barman-p1-11-5-15.pddl,CRASHED:30.5:1000000000.0:300.0:-1
ipc-2014-agile-barman-p1-11-5-16.pddl,CRASHED:37.68:1000000000.0:300.0:-1
ipc-2014-agile-barman-p2-10-4-13.pddl,CRASHED:28.55:1000000000.0:300.0:-1
ipc-2014-agile-barman-p2-11-4-15.pddl,CRASHED:28.06:1000000000.0:300.0:-1
ipc-2014-agile-barman-p2-11-5-15.pddl,CRASHED:30.44:1000000000.0:300.0:-1
ipc-2014-agile-barman-p2-11-5-16.pddl,CRASHED:40.94:1000000000.0:300.0:-1
ipc-2014-agile-barman-p2-11-5-17.pddl,CRASHED:44.54:1000000000.0:300.0:-1
ipc-2014-agile-barman-p3-10-4-13.pddl,CRASHED:30.02:1000000000.0:300.0:-1
ipc-2014-agile-barman-p3-11-4-15.pddl,CRASHED:28.34:1000000000.0:300.0:-1
ipc-2014-agile-barman-p3-11-5-15.pddl,CRASHED:32.86:1000000000.0:300.0:-1
ipc-2014-agile-barman-p3-11-5-16.pddl,CRASHED:36.11:1000000000.0:300.0:-1
ipc-2014-agile-barman-p3-11-5-17.pddl,CRASHED:37.59:1000000000.0:300.0:-1
ipc-2014-agile-barman-p4-11-4-14.pddl,CRASHED:30.88:1000000000.0:300.0:-1
ipc-2014-agile-barman-p4-11-4-15.pddl,CRASHED:28.5:1000000000.0:300.0:-1
ipc-2014-agile-barman-p4-11-5-15.pddl,CRASHED:38.0:1000000000.0:300.0:-1
ipc-2014-agile-barman-p5-10-4-13.pddl,CRASHED:21.29:1000000000.0:300.0:-1
ipc-2014-agile-barman-p5-11-4-15.pddl,CRASHED:30.75:1000000000.0:300.0:-1
ipc-2014-agile-barman-p5-11-5-15.pddl,CRASHED:33.29:1000000000.0:300.0:-1
ipc-2014-agile-barman-p5-11-5-16.pddl,CRASHED:36.67:1000000000.0:300.0:-1
ipc-2014-agile-cavediving-01_easy.pddl,CRASHED:1.25481:1000000000.0:300.0:-1
ipc-2014-agile-cavediving-01.pddl,CRASHED:1.50577:1000000000.0:300.0:-1
ipc-2014-agile-cavediving-02_easy.pddl,CRASHED:1.20682:1000000000.0:300.0:-1
ipc-2014-agile-cavediving-03_easy.pddl,CRASHED:1.19882:1000000000.0:300.0:-1
ipc-2014-agile-cavediving-04_easy.pddl,CRASHED:1.3028:1000000000.0:300.0:-1
ipc-2014-agile-cavediving-05A_easy.pddl,CRASHED:0.561914:1000000000.0:300.0:-1
ipc-2014-agile-cavediving-06A_easy.pddl,CRASHED:0.540917:1000000000.0:300.0:-1
ipc-2014-agile-cavediving-07_easy.pddl,TIMEOUT:301.1:-1.0:300.0:-1
ipc-2014-agile-cavediving-08_easy.pddl,CRASHED:0.534918:1000000000.0:300.0:-1
ipc-2014-agile-cavediving-09_easy.pddl,CRASHED:4.69729:1000000000.0:300.0:-1
ipc-2014-agile-cavediving-10_easy.pddl,CRASHED:4.93525:1000000000.0:300.0:-1
ipc-2014-agile-cavediving-11_easy.pddl,CRASHED:4.6003:1000000000.0:300.0:-1
ipc-2014-agile-cavediving-12_easy.pddl,CRASHED:4.79727:1000000000.0:300.0:-1
ipc-2014-agile-cavediving-13_easy.pddl,CRASHED:1.59176:1000000000.0:300.0:-1
ipc-2014-agile-cavediving-14_easy.pddl,CRASHED:1.58276:1000000000.0:300.0:-1
ipc-2014-agile-cavediving-15_easy.pddl,CRASHED:1.46978:1000000000.0:300.0:-1
ipc-2014-agile-cavediving-16_easy.pddl,CRASHED:1.58576:1000000000.0:300.0:-1
ipc-2014-agile-cavediving-18A_easy.pddl,CRASHED:201.87:1000000000.0:300.0:-1
ipc-2014-agile-cavediving-18_easy.pddl,SAT:268.912:133.0:300.0:-1
ipc-2014-agile-cavediving-20A_easy.pddl,CRASHED:0.668898:1000000000.0:300.0:-1
ipc-2014-agile-childsnack-05-2.pddl,SAT:71.0942:37.0:300.0:-1
ipc-2014-agile-childsnack-05.pddl,SAT:71.5081:38.0:300.0:-1
ipc-2014-agile-childsnack-06-2.pddl,CRASHED:62.67:1000000000.0:300.0:-1
ipc-2014-agile-childsnack-07-2.pddl,CRASHED:83.9:1000000000.0:300.0:-1
ipc-2014-agile-childsnack-08-2.pddl,CRASHED:62.36:1000000000.0:300.0:-1
ipc-2014-agile-childsnack-08.pddl,CRASHED:63.2:1000000000.0:300.0:-1
ipc-2014-agile-childsnack-09-2.pddl,CRASHED:26.65:1000000000.0:300.0:-1
ipc-2014-agile-childsnack-09.pddl,CRASHED:27.13:1000000000.0:300.0:-1
ipc-2014-agile-childsnack-10-2.pddl,CRASHED:20.52:1000000000.0:300.0:-1
ipc-2014-agile-childsnack-10.pddl,CRASHED:21.21:1000000000.0:300.0:-1
ipc-2014-agile-childsnack-11-2.pddl,CRASHED:21.12:1000000000.0:300.0:-1
ipc-2014-agile-childsnack-11.pddl,CRASHED:20.39:1000000000.0:300.0:-1
ipc-2014-agile-childsnack-12.pddl,CRASHED:24.21:1000000000.0:300.0:-1
ipc-2014-agile-childsnack-13-2.pddl,CRASHED:26.34:1000000000.0:300.0:-1
ipc-2014-agile-childsnack-13.pddl,CRASHED:27.5:1000000000.0:300.0:-1
ipc-2014-agile-childsnack-14.pddl,CRASHED:29.03:1000000000.0:300.0:-1
ipc-2014-agile-childsnack-15-2.pddl,CRASHED:32.92:1000000000.0:300.0:-1
ipc-2014-agile-childsnack-16-2.pddl,CRASHED:26.03:1000000000.0:300.0:-1
ipc-2014-agile-childsnack-19-2.pddl,CRASHED:34.14:1000000000.0:300.0:-1
ipc-2014-agile-childsnack-19.pddl,CRASHED:35.28:1000000000.0:300.0:-1
ipc-2014-agile-citycar-p3-2-2-0-1.pddl,CRASHED:0.741886:1000000000.0:300.0:-1
ipc-2014-agile-citycar-p3-3-2-0-1.pddl,CRASHED:0.867867:1000000000.0:300.0:-1
ipc-2014-agile-citycar-p3-4-2-0-1.pddl,CRASHED:0.98285:1000000000.0:300.0:-1
ipc-2014-agile-citycar-p3-5-2-0-1.pddl,CRASHED:1.09883:1000000000.0:300.0:-1
ipc-2014-agile-citycar-p3-5-2-0-2.pddl,CRASHED:1.08883:1000000000.0:300.0:-1
ipc-2014-agile-citycar-p4-2-2-0-1.pddl,CRASHED:1.2978:1000000000.0:300.0:-1
ipc-2014-agile-citycar-p4-2-3-0-1.pddl,CRASHED:1.2938:1000000000.0:300.0:-1
ipc-2014-agile-citycar-p4-2-3-0-2.pddl,CRASHED:1.3158:1000000000.0:300.0:-1
ipc-2014-agile-citycar-p4-3-2-0-1.pddl,CRASHED:1.59376:1000000000.0:300.0:-1
ipc-2014-agile-citycar-p4-3-2-0-2.pddl,CRASHED:1.59676:1000000000.0:300.0:-1
ipc-2014-agile-citycar-p4-3-3-0-1.pddl,CRASHED:1.58776:1000000000.0:300.0:-1
ipc-2014-agile-citycar-p4-3-3-0-2.pddl,CRASHED:1.59976:1000000000.0:300.0:-1
ipc-2014-agile-citycar-p4-4-2-0-1.pddl,CRASHED:1.90371:1000000000.0:300.0:-1
ipc-2014-agile-citycar-p4-4-2-0-2.pddl,CRASHED:1.91271:1000000000.0:300.0:-1
ipc-2014-agile-citycar-p4-4-3-0-1.pddl,CRASHED:1.90971:1000000000.0:300.0:-1
ipc-2014-agile-citycar-p4-4-3-0-2.pddl,CRASHED:1.90171:1000000000.0:300.0:-1
ipc-2014-agile-citycar-p4-5-2-0-1.pddl,CRASHED:2.23366:1000000000.0:300.0:-1
ipc-2014-agile-citycar-p4-5-2-0-2.pddl,CRASHED:2.23366:1000000000.0:300.0:-1
ipc-2014-agile-citycar-p4-5-3-0-1.pddl,CRASHED:2.22766:1000000000.0:300.0:-1
ipc-2014-agile-citycar-p4-5-3-0-2.pddl,CRASHED:2.24866:1000000000.0:300.0:-1
ipc-2014-agile-floortile-p01-4-3-2.pddl,SAT:16.3195:128.0:300.0:-1
ipc-2014-agile-floortile-p01-5-4-2.pddl,SAT:47.3088:167.0:300.0:-1
ipc-2014-agile-floortile-p01-5-5-2.pddl,SAT:179.399:231.0:300.0:-1
ipc-2014-agile-floortile-p01-6-4-2.pddl,SAT:85.695:198.0:300.0:-1
ipc-2014-agile-floortile-p01-6-5-2.pddl,TIMEOUT:301.01:-1.0:300.0:-1
ipc-2014-agile-floortile-p01-6-5-3.pddl,SAT:147.772:259.0:300.0:-1
ipc-2014-agile-floortile-p02-5-4-2.pddl,SAT:44.1843:200.0:300.0:-1
ipc-2014-agile-floortile-p02-6-4-2.pddl,SAT:74.2157:227.0:300.0:-1
ipc-2014-agile-floortile-p02-6-5-2.pddl,TIMEOUT:301.1:-1.0:300.0:-1
ipc-2014-agile-floortile-p02-6-5-3.pddl,SAT:150.54:285.0:300.0:-1
ipc-2014-agile-floortile-p03-6-4-2.pddl,SAT:110.898:214.0:300.0:-1
ipc-2014-agile-floortile-p03-6-5-2.pddl,TIMEOUT:301.12:-1.0:300.0:-1
ipc-2014-agile-floortile-p03-6-5-3.pddl,SAT:272.974:289.0:300.0:-1
ipc-2014-agile-floortile-p04-5-4-2.pddl,SAT:46.5959:203.0:300.0:-1
ipc-2014-agile-floortile-p04-5-5-2.pddl,SAT:229.165:252.0:300.0:-1
ipc-2014-agile-floortile-p04-6-5-2.pddl,TIMEOUT:301.01:-1.0:300.0:-1
ipc-2014-agile-floortile-p04-6-5-3.pddl,TIMEOUT:301.06:-1.0:300.0:-1
ipc-2014-agile-floortile-p05-4-3-2.pddl,SAT:14.2038:104.0:300.0:-1
ipc-2014-agile-floortile-p05-6-5-2.pddl,TIMEOUT:301.13:-1.0:300.0:-1
ipc-2014-agile-floortile-p05-6-5-3.pddl,TIMEOUT:301.06:-1.0:300.0:-1
ipc-2014-agile-ged-d-10-1.pddl,CRASHED:44.79:1000000000.0:300.0:-1
ipc-2014-agile-ged-d-10-2.pddl,CRASHED:45.01:1000000000.0:300.0:-1
ipc-2014-agile-ged-d-10-3.pddl,CRASHED:48.53:1000000000.0:300.0:-1
ipc-2014-agile-ged-d-10-4.pddl,CRASHED:42.51:1000000000.0:300.0:-1
ipc-2014-agile-ged-d-10-5.pddl,CRASHED:74.8:1000000000.0:300.0:-1
ipc-2014-agile-ged-d-10-6.pddl,CRASHED:99.22:1000000000.0:300.0:-1
ipc-2014-agile-ged-d-11-1.pddl,CRASHED:52.65:1000000000.0:300.0:-1
ipc-2014-agile-ged-d-11-3.pddl,CRASHED:54.15:1000000000.0:300.0:-1
ipc-2014-agile-ged-d-11-5.pddl,CRASHED:67.18:1000000000.0:300.0:-1
ipc-2014-agile-ged-d-11-6.pddl,CRASHED:58.35:1000000000.0:300.0:-1
ipc-2014-agile-ged-d-12-11.pddl,CRASHED:65.45:1000000000.0:300.0:-1
ipc-2014-agile-ged-d-12-2.pddl,CRASHED:103.68:1000000000.0:300.0:-1
ipc-2014-agile-ged-d-12-3.pddl,CRASHED:134.82:1000000000.0:300.0:-1
ipc-2014-agile-ged-d-12-5.pddl,CRASHED:193.48:1000000000.0:300.0:-1
ipc-2014-agile-ged-d-12-6.pddl,CRASHED:112.29:1000000000.0:300.0:-1
ipc-2014-agile-ged-d-12-7.pddl,CRASHED:165.5:1000000000.0:300.0:-1
ipc-2014-agile-ged-d-12-8.pddl,CRASHED:215.97:1000000000.0:300.0:-1
ipc-2014-agile-ged-d-12-9.pddl,CRASHED:221.89:1000000000.0:300.0:-1
ipc-2014-agile-ged-d-3-6.pddl,CRASHED:51.17:1000000000.0:300.0:-1
ipc-2014-agile-ged-d-9-5.pddl,CRASHED:61.48:1000000000.0:300.0:-1
ipc-2014-agile-hiking-3-4-3.pddl,SAT:2.78658:377.0:300.0:-1
ipc-2014-agile-hiking-3-4-4.pddl,SAT:6.51201:9595.0:300.0:-1
ipc-2014-agile-hiking-3-4-5.pddl,SAT:7.85281:3483.0:300.0:-1
ipc-2014-agile-hiking-3-4-6.pddl,TIMEOUT:301.09:-1.0:300.0:-1
ipc-2014-agile-hiking-3-4-7.pddl,TIMEOUT:301.1:-1.0:300.0:-1
ipc-2014-agile-hiking-3-4-8.pddl,TIMEOUT:301.04:-1.0:300.0:-1
ipc-2014-agile-hiking-3-4-9.pddl,TIMEOUT:301.11:-1.0:300.0:-1
ipc-2014-agile-hiking-4-5-3.pddl,TIMEOUT:301.03:-1.0:300.0:-1
ipc-2014-agile-hiking-4-5-4.pddl,TIMEOUT:301.01:-1.0:300.0:-1
ipc-2014-agile-hiking-4-5-5.pddl,SAT:17.3264:8261.0:300.0:-1
ipc-2014-agile-hiking-4-5-6.pddl,TIMEOUT:301.12:-1.0:300.0:-1
ipc-2014-agile-hiking-4-5-7.pddl,TIMEOUT:301.08:-1.0:300.0:-1
ipc-2014-agile-hiking-4-5-8.pddl,TIMEOUT:301.07:-1.0:300.0:-1
ipc-2014-agile-hiking-4-5-9.pddl,TIMEOUT:301.07:-1.0:300.0:-1
ipc-2014-agile-hiking-5-6-3.pddl,TIMEOUT:301.09:-1.0:300.0:-1
ipc-2014-agile-hiking-5-6-4.pddl,TIMEOUT:301.13:-1.0:300.0:-1
ipc-2014-agile-hiking-5-6-5.pddl,TIMEOUT:301.11:-1.0:300.0:-1
ipc-2014-agile-hiking-5-6-6.pddl,TIMEOUT:301.09:-1.0:300.0:-1
ipc-2014-agile-hiking-5-6-7.pddl,TIMEOUT:301.11:-1.0:300.0:-1
ipc-2014-agile-hiking-5-6-8.pddl,TIMEOUT:301.1:-1.0:300.0:-1
ipc-2014-agile-maintenance-1.3.060.180.5-000.pddl,SAT:1.43978:40.0:300.0:-1
ipc-2014-agile-maintenance-1.3.060.180.5-001.pddl,SAT:12.1672:54.0:300.0:-1
ipc-2014-agile-maintenance-1.3.060.180.5-002.pddl,SAT:12.1042:55.0:300.0:-1
ipc-2014-agile-maintenance-1.3.100.300.5-000.pddl,SAT:13.5869:94.0:300.0:-1
ipc-2014-agile-maintenance-1.3.100.300.5-001.pddl,SAT:13.6119:88.0:300.0:-1
ipc-2014-agile-maintenance-1.3.100.300.7-000.pddl,SAT:3.49347:57.0:300.0:-1
ipc-2014-agile-maintenance-1.3.100.300.7-001.pddl,SAT:3.55046:54.0:300.0:-1
ipc-2014-agile-maintenance-1.3.100.300.7-002.pddl,SAT:3.53346:55.0:300.0:-1
ipc-2014-agile-maintenance-1.3.150.500.6-001.pddl,SAT:17.8513:133.0:300.0:-1
ipc-2014-agile-maintenance-1.3.200.500.5-001.pddl,SAT:18.5992:177.0:300.0:-1
ipc-2014-agile-maintenance-1.3.200.500.5-002.pddl,SAT:18.6132:181.0:300.0:-1
ipc-2014-agile-maintenance-1.3.200.700.7-000.pddl,SAT:13.276:119.0:300.0:-1
ipc-2014-agile-maintenance-1.3.200.700.7-001.pddl,SAT:13.4969:115.0:300.0:-1
ipc-2014-agile-maintenance-1.3.200.700.7-002.pddl,SAT:24.4713:169.0:300.0:-1
ipc-2014-agile-maintenance-1.3.200.900.5-000.pddl,SAT:24.6992:200.0:300.0:-1
ipc-2014-agile-maintenance-1.3.200.900.5-001.pddl,SAT:24.6623:200.0:300.0:-1
ipc-2014-agile-maintenance-1.3.200.900.5-002.pddl,SAT:24.4473:200.0:300.0:-1
ipc-2014-agile-maintenance-1.3.200.900.8-000.pddl,SAT:29.4995:162.0:300.0:-1
ipc-2014-agile-maintenance-1.3.200.900.8-001.pddl,SAT:18.5432:116.0:300.0:-1
ipc-2014-agile-maintenance-1.3.200.900.8-002.pddl,SAT:18.8851:121.0:300.0:-1
ipc-2014-agile-openstacks-p130_2.pddl,SAT:12.841:90.0:300.0:-1
ipc-2014-agile-openstacks-p130_3.pddl,SAT:14.1259:130.0:300.0:-1
ipc-2014-agile-openstacks-p150_2.pddl,SAT:15.8386:102.0:300.0:-1
ipc-2014-agile-openstacks-p150_3.pddl,SAT:18.9451:148.0:300.0:-1
ipc-2014-agile-openstacks-p170_1.pddl,SAT:18.2272:110.0:300.0:-1
ipc-2014-agile-openstacks-p170_2.pddl,SAT:18.7531:124.0:300.0:-1
ipc-2014-agile-openstacks-p170_3.pddl,SAT:21.7517:166.0:300.0:-1
ipc-2014-agile-openstacks-p190_1.pddl,SAT:23.4414:136.0:300.0:-1
ipc-2014-agile-openstacks-p190_2.pddl,SAT:23.8084:140.0:300.0:-1
ipc-2014-agile-openstacks-p190_3.pddl,SAT:27.7088:186.0:300.0:-1
ipc-2014-agile-openstacks-p210_1.pddl,SAT:31.2552:145.0:300.0:-1
ipc-2014-agile-openstacks-p210_2.pddl,SAT:31.5712:164.0:300.0:-1
ipc-2014-agile-openstacks-p230_1.pddl,SAT:38.9981:157.0:300.0:-1
ipc-2014-agile-openstacks-p230_2.pddl,SAT:38.0842:180.0:300.0:-1
ipc-2014-agile-openstacks-p250_1.pddl,SAT:43.5784:190.0:300.0:-1
ipc-2014-agile-openstacks-p250_2.pddl,SAT:44.8852:203.0:300.0:-1
ipc-2014-agile-openstacks-p270_1.pddl,SAT:48.1487:215.0:300.0:-1
ipc-2014-agile-openstacks-p270_2.pddl,SAT:49.2595:231.0:300.0:-1
ipc-2014-agile-openstacks-p290_1.pddl,SAT:54.9067:216.0:300.0:-1
ipc-2014-agile-openstacks-p290_2.pddl,SAT:54.5387:262.0:300.0:-1
ipc-2014-agile-parking-28_2.pddl,TIMEOUT:301.06:-1.0:300.0:-1
ipc-2014-agile-parking-28_3.pddl,TIMEOUT:301.14:-1.0:300.0:-1
ipc-2014-agile-parking-30_1.pddl,TIMEOUT:301.1:-1.0:300.0:-1
ipc-2014-agile-parking-30_2.pddl,TIMEOUT:301.21:-1.0:300.0:-1
ipc-2014-agile-parking-30_3.pddl,TIMEOUT:301.14:-1.0:300.0:-1
ipc-2014-agile-parking-32_1.pddl,TIMEOUT:301.11:-1.0:300.0:-1
ipc-2014-agile-parking-32_2.pddl,TIMEOUT:301.09:-1.0:300.0:-1
ipc-2014-agile-parking-32_3.pddl,TIMEOUT:301.12:-1.0:300.0:-1
ipc-2014-agile-parking-34_1.pddl,TIMEOUT:301.06:-1.0:300.0:-1
ipc-2014-agile-parking-34_2.pddl,TIMEOUT:301.01:-1.0:300.0:-1
ipc-2014-agile-parking-34_3.pddl,TIMEOUT:301.0:-1.0:300.0:-1
ipc-2014-agile-parking-36_1.pddl,TIMEOUT:301.1:-1.0:300.0:-1
ipc-2014-agile-parking-36_2.pddl,TIMEOUT:301.15:-1.0:300.0:-1
ipc-2014-agile-parking-36_3.pddl,TIMEOUT:301.33:-1.0:300.0:-1
ipc-2014-agile-parking-38_1.pddl,TIMEOUT:301.05:-1.0:300.0:-1
ipc-2014-agile-parking-38_2.pddl,TIMEOUT:301.2:-1.0:300.0:-1
ipc-2014-agile-parking-38_3.pddl,TIMEOUT:301.08:-1.0:300.0:-1
ipc-2014-agile-parking-40_1.pddl,TIMEOUT:301.11:-1.0:300.0:-1
ipc-2014-agile-parking-40_2.pddl,TIMEOUT:301.27:-1.0:300.0:-1
ipc-2014-agile-parking-40_3.pddl,TIMEOUT:301.18:-1.0:300.0:-1
ipc-2014-agile-tetris-020.pddl,SAT:5.77112:318.0:300.0:-1
ipc-2014-agile-tetris-021.pddl,SAT:17.5043:472.0:300.0:-1
ipc-2014-agile-tetris-022.pddl,SAT:12.3791:541.0:300.0:-1
ipc-2014-agile-tetris-023.pddl,SAT:12.1102:260.0:300.0:-1
ipc-2014-agile-tetris-024.pddl,SAT:17.5333:816.0:300.0:-1
ipc-2014-agile-tetris-025.pddl,SAT:7.2639:510.0:300.0:-1
ipc-2014-agile-tetris-026.pddl,SAT:34.5028:5751.0:300.0:-1
ipc-2014-agile-tetris-027.pddl,SAT:28.3347:1403.0:300.0:-1
ipc-2014-agile-tetris-028.pddl,SAT:22.4946:648.0:300.0:-1
ipc-2014-agile-tetris-029.pddl,SAT:7.41587:481.0:300.0:-1
ipc-2014-agile-tetris-031.pddl,SAT:42.0566:7835.0:300.0:-1
ipc-2014-agile-tetris-032.pddl,SAT:14.6508:1177.0:300.0:-1
ipc-2014-agile-tetris-033.pddl,SAT:32.712:1035.0:300.0:-1
ipc-2014-agile-tetris-034.pddl,SAT:32.651:627.0:300.0:-1
ipc-2014-agile-tetris-035.pddl,SAT:38.3312:921.0:300.0:-1
ipc-2014-agile-tetris-036.pddl,SAT:32.971:2699.0:300.0:-1
ipc-2014-agile-tetris-037.pddl,SAT:9.37057:1460.0:300.0:-1
ipc-2014-agile-tetris-038.pddl,SAT:26.7669:589.0:300.0:-1
ipc-2014-agile-tetris-039.pddl,SAT:39.296:2358.0:300.0:-1
ipc-2014-agile-tetris-040.pddl,SAT:27.9418:903.0:300.0:-1
ipc-2014-agile-thoughtful-bootstrap-typed-01.pddl,CRASHED:0.38494:1000000000.0:300.0:-1
ipc-2014-agile-thoughtful-bootstrap-typed-02.pddl,CRASHED:0.367943:1000000000.0:300.0:-1
ipc-2014-agile-thoughtful-bootstrap-typed-03.pddl,CRASHED:0.376942:1000000000.0:300.0:-1
ipc-2014-agile-thoughtful-bootstrap-typed-04.pddl,CRASHED:0.366943:1000000000.0:300.0:-1
ipc-2014-agile-thoughtful-bootstrap-typed-05.pddl,CRASHED:0.376941:1000000000.0:300.0:-1
ipc-2014-agile-thoughtful-p11_6_53-typed.pddl,CRASHED:0.38594:1000000000.0:300.0:-1
ipc-2014-agile-thoughtful-p11_6_59-typed.pddl,CRASHED:0.38594:1000000000.0:300.0:-1
ipc-2014-agile-thoughtful-p11_6_62-typed.pddl,CRASHED:0.394939:1000000000.0:300.0:-1
ipc-2014-agile-thoughtful-p13_7_78-typed.pddl,CRASHED:0.403938:1000000000.0:300.0:-1
ipc-2014-agile-thoughtful-p13_7_79-typed.pddl,CRASHED:0.401938:1000000000.0:300.0:-1
ipc-2014-agile-thoughtful-p13_7_86-typed.pddl,CRASHED:0.39294:1000000000.0:300.0:-1
ipc-2014-agile-thoughtful-target-typed-20.pddl,CRASHED:0.391939:1000000000.0:300.0:-1
ipc-2014-agile-thoughtful-target-typed-21.pddl,CRASHED:0.402938:1000000000.0:300.0:-1
ipc-2014-agile-thoughtful-target-typed-22.pddl,CRASHED:0.418935:1000000000.0:300.0:-1
ipc-2014-agile-thoughtful-target-typed-23.pddl,CRASHED:0.401938:1000000000.0:300.0:-1
ipc-2014-agile-thoughtful-target-typed-24.pddl,CRASHED:0.391939:1000000000.0:300.0:-1
ipc-2014-agile-thoughtful-target-typed-25.pddl,CRASHED:0.404938:1000000000.0:300.0:-1
ipc-2014-agile-thoughtful-target-typed-26.pddl,CRASHED:0.39094:1000000000.0:300.0:-1
ipc-2014-agile-thoughtful-target-typed-27.pddl,CRASHED:0.39094:1000000000.0:300.0:-1
ipc-2014-agile-thoughtful-target-typed-28.pddl,CRASHED:0.404937:1000000000.0:300.0:-1
ipc-2014-agile-transport-01.pddl,CRASHED:15.8726:1000000000.0:300.0:-1
ipc-2014-agile-transport-02.pddl,CRASHED:18.3592:1000000000.0:300.0:-1
ipc-2014-agile-transport-03.pddl,CRASHED:15.0927:1000000000.0:300.0:-1
ipc-2014-agile-transport-04.pddl,TIMEOUT:301.06:-1.0:300.0:-1
ipc-2014-agile-transport-05.pddl,TIMEOUT:301.25:-1.0:300.0:-1
ipc-2014-agile-transport-06.pddl,TIMEOUT:301.04:-1.0:300.0:-1
ipc-2014-agile-transport-07.pddl,TIMEOUT:301.19:-1.0:300.0:-1
ipc-2014-agile-transport-08.pddl,TIMEOUT:301.13:-1.0:300.0:-1
ipc-2014-agile-transport-09.pddl,TIMEOUT:301.05:-1.0:300.0:-1
ipc-2014-agile-transport-10.pddl,TIMEOUT:301.23:-1.0:300.0:-1
ipc-2014-agile-transport-11.pddl,CRASHED:19.783:1000000000.0:300.0:-1
ipc-2014-agile-transport-12.pddl,CRASHED:19.612:1000000000.0:300.0:-1
ipc-2014-agile-transport-13.pddl,CRASHED:13.225:1000000000.0:300.0:-1
ipc-2014-agile-transport-14.pddl,TIMEOUT:301.09:-1.0:300.0:-1
ipc-2014-agile-transport-15.pddl,TIMEOUT:301.12:-1.0:300.0:-1
ipc-2014-agile-transport-16.pddl,TIMEOUT:301.14:-1.0:300.0:-1
ipc-2014-agile-transport-17.pddl,TIMEOUT:301.05:-1.0:300.0:-1
ipc-2014-agile-transport-18.pddl,TIMEOUT:301.1:-1.0:300.0:-1
ipc-2014-agile-transport-19.pddl,TIMEOUT:301.02:-1.0:300.0:-1
ipc-2014-agile-transport-20.pddl,TIMEOUT:301.07:-1.0:300.0:-1
ipc-2014-agile-visitall-30.pddl,SAT:2.34364:2328.0:300.0:-1
ipc-2014-agile-visitall-31.pddl,SAT:3.03254:2405.0:300.0:-1
ipc-2014-agile-visitall-32.pddl,SAT:4.01839:2503.0:300.0:-1
ipc-2014-agile-visitall-33.pddl,SAT:3.2745:2786.0:300.0:-1
ipc-2014-agile-visitall-50.pddl,SAT:8.45371:6544.0:300.0:-1
ipc-2014-agile-visitall-51.pddl,TIMEOUT:301.06:-1.0:300.0:-1
ipc-2014-agile-visitall-52.pddl,TIMEOUT:301.24:-1.0:300.0:-1
ipc-2014-agile-visitall-53.pddl,TIMEOUT:301.16:-1.0:300.0:-1
ipc-2014-agile-visitall-54.pddl,TIMEOUT:301.09:-1.0:300.0:-1
ipc-2014-agile-visitall-55.pddl,TIMEOUT:301.16:-1.0:300.0:-1
ipc-2014-agile-visitall-56.pddl,SAT:8.48371:8470.0:300.0:-1
ipc-2014-agile-visitall-57.pddl,TIMEOUT:301.25:-1.0:300.0:-1
ipc-2014-agile-visitall-58.pddl,TIMEOUT:301.03:-1.0:300.0:-1
ipc-2014-agile-visitall-59.pddl,TIMEOUT:301.06:-1.0:300.0:-1
ipc-2014-agile-visitall-60.pddl,TIMEOUT:301.04:-1.0:300.0:-1
ipc-2014-agile-visitall-61.pddl,TIMEOUT:301.01:-1.0:300.0:-1
ipc-2014-agile-visitall-62.pddl,TIMEOUT:301.06:-1.0:300.0:-1
ipc-2014-agile-visitall-63.pddl,TIMEOUT:301.05:-1.0:300.0:-1
ipc-2014-agile-visitall-64.pddl,TIMEOUT:301.06:-1.0:300.0:-1
ipc-2014-agile-visitall-65.pddl,TIMEOUT:301.08:-1.0:300.0:-1
