instance,ipc-2014-agile-siw
ipc-2014-agile-barman-p1-11-4-15.pddl,TIMEOUT:301.054:-1.0:300.0:-1
ipc-2014-agile-barman-p1-11-5-15.pddl,TIMEOUT:301.157:-1.0:300.0:-1
ipc-2014-agile-barman-p1-11-5-16.pddl,CRASHED:0.484925:1000000000.0:300.0:-1
ipc-2014-agile-barman-p2-10-4-13.pddl,TIMEOUT:301.095:-1.0:300.0:-1
ipc-2014-agile-barman-p2-11-4-15.pddl,TIMEOUT:301.145:-1.0:300.0:-1
ipc-2014-agile-barman-p2-11-5-15.pddl,TIMEOUT:301.128:-1.0:300.0:-1
ipc-2014-agile-barman-p2-11-5-16.pddl,CRASHED:0.504922:1000000000.0:300.0:-1
ipc-2014-agile-barman-p2-11-5-17.pddl,CRASHED:0.58491:1000000000.0:300.0:-1
ipc-2014-agile-barman-p3-10-4-13.pddl,TIMEOUT:301.04:-1.0:300.0:-1
ipc-2014-agile-barman-p3-11-4-15.pddl,TIMEOUT:301.101:-1.0:300.0:-1
ipc-2014-agile-barman-p3-11-5-15.pddl,TIMEOUT:301.119:-1.0:300.0:-1
ipc-2014-agile-barman-p3-11-5-16.pddl,CRASHED:0.497924:1000000000.0:300.0:-1
ipc-2014-agile-barman-p3-11-5-17.pddl,CRASHED:0.604907:1000000000.0:300.0:-1
ipc-2014-agile-barman-p4-11-4-14.pddl,TIMEOUT:301.122:-1.0:300.0:-1
ipc-2014-agile-barman-p4-11-4-15.pddl,TIMEOUT:301.122:-1.0:300.0:-1
ipc-2014-agile-barman-p4-11-5-15.pddl,TIMEOUT:301.156:-1.0:300.0:-1
ipc-2014-agile-barman-p5-10-4-13.pddl,TIMEOUT:301.131:-1.0:300.0:-1
ipc-2014-agile-barman-p5-11-4-15.pddl,TIMEOUT:301.117:-1.0:300.0:-1
ipc-2014-agile-barman-p5-11-5-15.pddl,TIMEOUT:301.085:-1.0:300.0:-1
ipc-2014-agile-barman-p5-11-5-16.pddl,CRASHED:0.51992:1000000000.0:300.0:-1
ipc-2014-agile-cavediving-01_easy.pddl,CRASHED:0.313951:1000000000.0:300.0:-1
ipc-2014-agile-cavediving-01.pddl,CRASHED:0.357945:1000000000.0:300.0:-1
ipc-2014-agile-cavediving-02_easy.pddl,CRASHED:0.315951:1000000000.0:300.0:-1
ipc-2014-agile-cavediving-03_easy.pddl,CRASHED:0.306952:1000000000.0:300.0:-1
ipc-2014-agile-cavediving-04_easy.pddl,CRASHED:0.313951:1000000000.0:300.0:-1
ipc-2014-agile-cavediving-05A_easy.pddl,CRASHED:0.212967:1000000000.0:300.0:-1
ipc-2014-agile-cavediving-06A_easy.pddl,CRASHED:0.213966:1000000000.0:300.0:-1
ipc-2014-agile-cavediving-07_easy.pddl,CRASHED:0.215966:1000000000.0:300.0:-1
ipc-2014-agile-cavediving-08_easy.pddl,CRASHED:0.214967:1000000000.0:300.0:-1
ipc-2014-agile-cavediving-09_easy.pddl,CRASHED:3.73543:1000000000.0:300.0:-1
ipc-2014-agile-cavediving-10_easy.pddl,CRASHED:3.74043:1000000000.0:300.0:-1
ipc-2014-agile-cavediving-11_easy.pddl,CRASHED:3.78042:1000000000.0:300.0:-1
ipc-2014-agile-cavediving-12_easy.pddl,CRASHED:3.73843:1000000000.0:300.0:-1
ipc-2014-agile-cavediving-13_easy.pddl,CRASHED:0.563913:1000000000.0:300.0:-1
ipc-2014-agile-cavediving-14_easy.pddl,CRASHED:0.534917:1000000000.0:300.0:-1
ipc-2014-agile-cavediving-15_easy.pddl,CRASHED:0.428933:1000000000.0:300.0:-1
ipc-2014-agile-cavediving-16_easy.pddl,CRASHED:0.555914:1000000000.0:300.0:-1
ipc-2014-agile-cavediving-18A_easy.pddl,CRASHED:0.043993:1000000000.0:300.0:-1
ipc-2014-agile-cavediving-18_easy.pddl,CRASHED:0.050992:1000000000.0:300.0:-1
ipc-2014-agile-cavediving-20A_easy.pddl,CRASHED:0.043992:1000000000.0:300.0:-1
ipc-2014-agile-childsnack-05-2.pddl,CRASHED:67.5397:1000000000.0:300.0:-1
ipc-2014-agile-childsnack-05.pddl,CRASHED:67.6307:1000000000.0:300.0:-1
ipc-2014-agile-childsnack-06-2.pddl,CRASHED:224.358:1000000000.0:300.0:-1
ipc-2014-agile-childsnack-07-2.pddl,TIMEOUT:301.068:-1.0:300.0:-1
ipc-2014-agile-childsnack-08-2.pddl,TIMEOUT:301.04:-1.0:300.0:-1
ipc-2014-agile-childsnack-08.pddl,TIMEOUT:301.023:-1.0:300.0:-1
ipc-2014-agile-childsnack-09-2.pddl,TIMEOUT:301.07:-1.0:300.0:-1
ipc-2014-agile-childsnack-09.pddl,TIMEOUT:301.025:-1.0:300.0:-1
ipc-2014-agile-childsnack-10-2.pddl,TIMEOUT:301.053:-1.0:300.0:-1
ipc-2014-agile-childsnack-10.pddl,TIMEOUT:301.058:-1.0:300.0:-1
ipc-2014-agile-childsnack-11-2.pddl,TIMEOUT:301.093:-1.0:300.0:-1
ipc-2014-agile-childsnack-11.pddl,TIMEOUT:301.062:-1.0:300.0:-1
ipc-2014-agile-childsnack-12.pddl,TIMEOUT:301.026:-1.0:300.0:-1
ipc-2014-agile-childsnack-13-2.pddl,TIMEOUT:301.068:-1.0:300.0:-1
ipc-2014-agile-childsnack-13.pddl,TIMEOUT:301.05:-1.0:300.0:-1
ipc-2014-agile-childsnack-14.pddl,TIMEOUT:301.018:-1.0:300.0:-1
ipc-2014-agile-childsnack-15-2.pddl,TIMEOUT:301.055:-1.0:300.0:-1
ipc-2014-agile-childsnack-16-2.pddl,TIMEOUT:301.079:-1.0:300.0:-1
ipc-2014-agile-childsnack-19-2.pddl,TIMEOUT:301.057:-1.0:300.0:-1
ipc-2014-agile-childsnack-19.pddl,TIMEOUT:301.053:-1.0:300.0:-1
ipc-2014-agile-citycar-p3-2-2-0-1.pddl,SAT:10.9703:88.0:300.0:-1
ipc-2014-agile-citycar-p3-3-2-0-1.pddl,SAT:16.8294:142.0:300.0:-1
ipc-2014-agile-citycar-p3-4-2-0-1.pddl,SAT:13.8559:106.0:300.0:-1
ipc-2014-agile-citycar-p3-5-2-0-1.pddl,SAT:19.483:150.0:300.0:-1
ipc-2014-agile-citycar-p3-5-2-0-2.pddl,SAT:17.3844:90.0:300.0:-1
ipc-2014-agile-citycar-p4-2-2-0-1.pddl,SAT:263.5:152.0:300.0:-1
ipc-2014-agile-citycar-p4-2-3-0-1.pddl,SAT:270.514:142.0:300.0:-1
ipc-2014-agile-citycar-p4-2-3-0-2.pddl,SAT:283.29:122.0:300.0:-1
ipc-2014-agile-citycar-p4-3-2-0-1.pddl,TIMEOUT:301.104:-1.0:300.0:-1
ipc-2014-agile-citycar-p4-3-2-0-2.pddl,TIMEOUT:301.034:-1.0:300.0:-1
ipc-2014-agile-citycar-p4-3-3-0-1.pddl,TIMEOUT:301.103:-1.0:300.0:-1
ipc-2014-agile-citycar-p4-3-3-0-2.pddl,TIMEOUT:301.02:-1.0:300.0:-1
ipc-2014-agile-citycar-p4-4-2-0-1.pddl,TIMEOUT:301.041:-1.0:300.0:-1
ipc-2014-agile-citycar-p4-4-2-0-2.pddl,TIMEOUT:301.113:-1.0:300.0:-1
ipc-2014-agile-citycar-p4-4-3-0-1.pddl,TIMEOUT:301.021:-1.0:300.0:-1
ipc-2014-agile-citycar-p4-4-3-0-2.pddl,TIMEOUT:301.092:-1.0:300.0:-1
ipc-2014-agile-citycar-p4-5-2-0-1.pddl,TIMEOUT:301.072:-1.0:300.0:-1
ipc-2014-agile-citycar-p4-5-2-0-2.pddl,TIMEOUT:301.023:-1.0:300.0:-1
ipc-2014-agile-citycar-p4-5-3-0-1.pddl,TIMEOUT:301.119:-1.0:300.0:-1
ipc-2014-agile-citycar-p4-5-3-0-2.pddl,TIMEOUT:301.103:-1.0:300.0:-1
ipc-2014-agile-floortile-p01-4-3-2.pddl,CRASHED:1.22681:1000000000.0:300.0:-1
ipc-2014-agile-floortile-p01-5-4-2.pddl,CRASHED:0.315951:1000000000.0:300.0:-1
ipc-2014-agile-floortile-p01-5-5-2.pddl,CRASHED:1.13983:1000000000.0:300.0:-1
ipc-2014-agile-floortile-p01-6-4-2.pddl,CRASHED:1.17082:1000000000.0:300.0:-1
ipc-2014-agile-floortile-p01-6-5-2.pddl,CRASHED:5.40918:1000000000.0:300.0:-1
ipc-2014-agile-floortile-p01-6-5-3.pddl,CRASHED:36.9604:1000000000.0:300.0:-1
ipc-2014-agile-floortile-p02-5-4-2.pddl,CRASHED:0.314952:1000000000.0:300.0:-1
ipc-2014-agile-floortile-p02-6-4-2.pddl,CRASHED:2.38864:1000000000.0:300.0:-1
ipc-2014-agile-floortile-p02-6-5-2.pddl,CRASHED:1.24781:1000000000.0:300.0:-1
ipc-2014-agile-floortile-p02-6-5-3.pddl,CRASHED:9.23659:1000000000.0:300.0:-1
ipc-2014-agile-floortile-p03-6-4-2.pddl,CRASHED:0.799877:1000000000.0:300.0:-1
ipc-2014-agile-floortile-p03-6-5-2.pddl,CRASHED:6.16906:1000000000.0:300.0:-1
ipc-2014-agile-floortile-p03-6-5-3.pddl,CRASHED:5.10722:1000000000.0:300.0:-1
ipc-2014-agile-floortile-p04-5-4-2.pddl,CRASHED:0.231964:1000000000.0:300.0:-1
ipc-2014-agile-floortile-p04-5-5-2.pddl,CRASHED:0.807876:1000000000.0:300.0:-1
ipc-2014-agile-floortile-p04-6-5-2.pddl,CRASHED:1.79972:1000000000.0:300.0:-1
ipc-2014-agile-floortile-p04-6-5-3.pddl,CRASHED:10.2544:1000000000.0:300.0:-1
ipc-2014-agile-floortile-p05-4-3-2.pddl,CRASHED:0.659898:1000000000.0:300.0:-1
ipc-2014-agile-floortile-p05-6-5-2.pddl,CRASHED:3.36249:1000000000.0:300.0:-1
ipc-2014-agile-floortile-p05-6-5-3.pddl,CRASHED:6.84596:1000000000.0:300.0:-1
ipc-2014-agile-ged-d-10-1.pddl,CRASHED:2.32865:1000000000.0:300.0:-1
ipc-2014-agile-ged-d-10-2.pddl,CRASHED:2.34664:1000000000.0:300.0:-1
ipc-2014-agile-ged-d-10-3.pddl,CRASHED:3.10853:1000000000.0:300.0:-1
ipc-2014-agile-ged-d-10-4.pddl,CRASHED:2.54661:1000000000.0:300.0:-1
ipc-2014-agile-ged-d-10-5.pddl,CRASHED:6.61699:1000000000.0:300.0:-1
ipc-2014-agile-ged-d-10-6.pddl,CRASHED:6.84896:1000000000.0:300.0:-1
ipc-2014-agile-ged-d-11-1.pddl,CRASHED:3.12952:1000000000.0:300.0:-1
ipc-2014-agile-ged-d-11-3.pddl,CRASHED:3.2565:1000000000.0:300.0:-1
ipc-2014-agile-ged-d-11-5.pddl,CRASHED:4.91225:1000000000.0:300.0:-1
ipc-2014-agile-ged-d-11-6.pddl,CRASHED:4.02139:1000000000.0:300.0:-1
ipc-2014-agile-ged-d-12-11.pddl,CRASHED:4.03839:1000000000.0:300.0:-1
ipc-2014-agile-ged-d-12-2.pddl,CRASHED:10.0935:1000000000.0:300.0:-1
ipc-2014-agile-ged-d-12-3.pddl,CRASHED:11.0023:1000000000.0:300.0:-1
ipc-2014-agile-ged-d-12-5.pddl,CRASHED:20.8348:1000000000.0:300.0:-1
ipc-2014-agile-ged-d-12-6.pddl,CRASHED:9.61054:1000000000.0:300.0:-1
ipc-2014-agile-ged-d-12-7.pddl,CRASHED:12.7121:1000000000.0:300.0:-1
ipc-2014-agile-ged-d-12-8.pddl,CRASHED:19.0241:1000000000.0:300.0:-1
ipc-2014-agile-ged-d-12-9.pddl,CRASHED:19.1111:1000000000.0:300.0:-1
ipc-2014-agile-ged-d-3-6.pddl,CRASHED:3.19451:1000000000.0:300.0:-1
ipc-2014-agile-ged-d-9-5.pddl,SAT:1.84472:20.0:300.0:-1
ipc-2014-agile-hiking-3-4-3.pddl,SAT:0.357945:13.0:300.0:-1
ipc-2014-agile-hiking-3-4-4.pddl,SAT:144.196:27.0:300.0:-1
ipc-2014-agile-hiking-3-4-5.pddl,TIMEOUT:301.037:-1.0:300.0:-1
ipc-2014-agile-hiking-3-4-6.pddl,TIMEOUT:301.024:-1.0:300.0:-1
ipc-2014-agile-hiking-3-4-7.pddl,TIMEOUT:301.047:-1.0:300.0:-1
ipc-2014-agile-hiking-3-4-8.pddl,TIMEOUT:301.057:-1.0:300.0:-1
ipc-2014-agile-hiking-3-4-9.pddl,TIMEOUT:301.102:-1.0:300.0:-1
ipc-2014-agile-hiking-4-5-3.pddl,SAT:2.00669:15.0:300.0:-1
ipc-2014-agile-hiking-4-5-4.pddl,TIMEOUT:301.054:-1.0:300.0:-1
ipc-2014-agile-hiking-4-5-5.pddl,TIMEOUT:301.099:-1.0:300.0:-1
ipc-2014-agile-hiking-4-5-6.pddl,TIMEOUT:301.054:-1.0:300.0:-1
ipc-2014-agile-hiking-4-5-7.pddl,TIMEOUT:301.077:-1.0:300.0:-1
ipc-2014-agile-hiking-4-5-8.pddl,TIMEOUT:301.114:-1.0:300.0:-1
ipc-2014-agile-hiking-4-5-9.pddl,TIMEOUT:301.136:-1.0:300.0:-1
ipc-2014-agile-hiking-5-6-3.pddl,SAT:10.7014:17.0:300.0:-1
ipc-2014-agile-hiking-5-6-4.pddl,TIMEOUT:301.077:-1.0:300.0:-1
ipc-2014-agile-hiking-5-6-5.pddl,TIMEOUT:301.138:-1.0:300.0:-1
ipc-2014-agile-hiking-5-6-6.pddl,TIMEOUT:301.094:-1.0:300.0:-1
ipc-2014-agile-hiking-5-6-7.pddl,TIMEOUT:301.116:-1.0:300.0:-1
ipc-2014-agile-hiking-5-6-8.pddl,TIMEOUT:301.166:-1.0:300.0:-1
ipc-2014-agile-maintenance-1.3.060.180.5-000.pddl,CRASHED:0.199969:1000000000.0:300.0:-1
ipc-2014-agile-maintenance-1.3.060.180.5-001.pddl,CRASHED:29.6105:1000000000.0:300.0:-1
ipc-2014-agile-maintenance-1.3.060.180.5-002.pddl,CRASHED:2.01069:1000000000.0:300.0:-1
ipc-2014-agile-maintenance-1.3.100.300.5-000.pddl,CRASHED:269.985:1000000000.0:300.0:-1
ipc-2014-agile-maintenance-1.3.100.300.5-001.pddl,CRASHED:215.826:1000000000.0:300.0:-1
ipc-2014-agile-maintenance-1.3.100.300.7-000.pddl,CRASHED:145.542:1000000000.0:300.0:-1
ipc-2014-agile-maintenance-1.3.100.300.7-001.pddl,CRASHED:68.0167:1000000000.0:300.0:-1
ipc-2014-agile-maintenance-1.3.100.300.7-002.pddl,TIMEOUT:301.148:-1.0:300.0:-1
ipc-2014-agile-maintenance-1.3.150.500.6-001.pddl,CRASHED:6.52701:1000000000.0:300.0:-1
ipc-2014-agile-maintenance-1.3.200.500.5-001.pddl,CRASHED:10.2654:1000000000.0:300.0:-1
ipc-2014-agile-maintenance-1.3.200.500.5-002.pddl,CRASHED:8.84466:1000000000.0:300.0:-1
ipc-2014-agile-maintenance-1.3.200.700.7-000.pddl,CRASHED:3.3165:1000000000.0:300.0:-1
ipc-2014-agile-maintenance-1.3.200.700.7-001.pddl,CRASHED:3.32549:1000000000.0:300.0:-1
ipc-2014-agile-maintenance-1.3.200.700.7-002.pddl,CRASHED:3.33049:1000000000.0:300.0:-1
ipc-2014-agile-maintenance-1.3.200.900.5-000.pddl,CRASHED:3.02754:1000000000.0:300.0:-1
ipc-2014-agile-maintenance-1.3.200.900.5-001.pddl,CRASHED:3.07053:1000000000.0:300.0:-1
ipc-2014-agile-maintenance-1.3.200.900.5-002.pddl,CRASHED:3.24151:1000000000.0:300.0:-1
ipc-2014-agile-maintenance-1.3.200.900.8-000.pddl,CRASHED:2.99554:1000000000.0:300.0:-1
ipc-2014-agile-maintenance-1.3.200.900.8-001.pddl,CRASHED:3.20151:1000000000.0:300.0:-1
ipc-2014-agile-maintenance-1.3.200.900.8-002.pddl,CRASHED:3.08653:1000000000.0:300.0:-1
ipc-2014-agile-openstacks-p130_2.pddl,CRASHED:175.993:1000000000.0:300.0:-1
ipc-2014-agile-openstacks-p130_3.pddl,CRASHED:44.1643:1000000000.0:300.0:-1
ipc-2014-agile-openstacks-p150_2.pddl,TIMEOUT:301.12:-1.0:300.0:-1
ipc-2014-agile-openstacks-p150_3.pddl,CRASHED:76.5774:1000000000.0:300.0:-1
ipc-2014-agile-openstacks-p170_1.pddl,TIMEOUT:301.072:-1.0:300.0:-1
ipc-2014-agile-openstacks-p170_2.pddl,CRASHED:281.605:1000000000.0:300.0:-1
ipc-2014-agile-openstacks-p170_3.pddl,CRASHED:121.982:1000000000.0:300.0:-1
ipc-2014-agile-openstacks-p190_1.pddl,TIMEOUT:301.065:-1.0:300.0:-1
ipc-2014-agile-openstacks-p190_2.pddl,TIMEOUT:301.164:-1.0:300.0:-1
ipc-2014-agile-openstacks-p190_3.pddl,CRASHED:188.491:1000000000.0:300.0:-1
ipc-2014-agile-openstacks-p210_1.pddl,TIMEOUT:301.078:-1.0:300.0:-1
ipc-2014-agile-openstacks-p210_2.pddl,TIMEOUT:301.147:-1.0:300.0:-1
ipc-2014-agile-openstacks-p230_1.pddl,TIMEOUT:301.16:-1.0:300.0:-1
ipc-2014-agile-openstacks-p230_2.pddl,TIMEOUT:301.171:-1.0:300.0:-1
ipc-2014-agile-openstacks-p250_1.pddl,TIMEOUT:301.201:-1.0:300.0:-1
ipc-2014-agile-openstacks-p250_2.pddl,TIMEOUT:301.188:-1.0:300.0:-1
ipc-2014-agile-openstacks-p270_1.pddl,TIMEOUT:301.207:-1.0:300.0:-1
ipc-2014-agile-openstacks-p270_2.pddl,TIMEOUT:301.256:-1.0:300.0:-1
ipc-2014-agile-openstacks-p290_1.pddl,TIMEOUT:301.183:-1.0:300.0:-1
ipc-2014-agile-openstacks-p290_2.pddl,TIMEOUT:301.193:-1.0:300.0:-1
ipc-2014-agile-parking-28_2.pddl,SAT:20.4309:52.0:300.0:-1
ipc-2014-agile-parking-28_3.pddl,SAT:19.958:53.0:300.0:-1
ipc-2014-agile-parking-30_1.pddl,SAT:29.4285:50.0:300.0:-1
ipc-2014-agile-parking-30_2.pddl,SAT:30.5214:57.0:300.0:-1
ipc-2014-agile-parking-30_3.pddl,SAT:31.2313:56.0:300.0:-1
ipc-2014-agile-parking-32_1.pddl,SAT:49.2755:60.0:300.0:-1
ipc-2014-agile-parking-32_2.pddl,SAT:45.5381:61.0:300.0:-1
ipc-2014-agile-parking-32_3.pddl,SAT:72.624:63.0:300.0:-1
ipc-2014-agile-parking-34_1.pddl,SAT:107.766:69.0:300.0:-1
ipc-2014-agile-parking-34_2.pddl,SAT:92.389:66.0:300.0:-1
ipc-2014-agile-parking-34_3.pddl,SAT:66.1849:70.0:300.0:-1
ipc-2014-agile-parking-36_1.pddl,SAT:92.411:74.0:300.0:-1
ipc-2014-agile-parking-36_2.pddl,SAT:95.6205:75.0:300.0:-1
ipc-2014-agile-parking-36_3.pddl,SAT:89.6454:66.0:300.0:-1
ipc-2014-agile-parking-38_1.pddl,SAT:119.196:73.0:300.0:-1
ipc-2014-agile-parking-38_2.pddl,SAT:122.223:71.0:300.0:-1
ipc-2014-agile-parking-38_3.pddl,SAT:121.725:75.0:300.0:-1
ipc-2014-agile-parking-40_1.pddl,SAT:161.398:77.0:300.0:-1
ipc-2014-agile-parking-40_2.pddl,SAT:164.595:79.0:300.0:-1
ipc-2014-agile-parking-40_3.pddl,SAT:151.456:83.0:300.0:-1
ipc-2014-agile-tetris-020.pddl,SAT:108.635:54.0:300.0:-1
ipc-2014-agile-tetris-021.pddl,TIMEOUT:301.079:-1.0:300.0:-1
ipc-2014-agile-tetris-022.pddl,TIMEOUT:301.056:-1.0:300.0:-1
ipc-2014-agile-tetris-023.pddl,TIMEOUT:301.014:-1.0:300.0:-1
ipc-2014-agile-tetris-024.pddl,TIMEOUT:301.03:-1.0:300.0:-1
ipc-2014-agile-tetris-025.pddl,TIMEOUT:301.052:-1.0:300.0:-1
ipc-2014-agile-tetris-026.pddl,TIMEOUT:301.102:-1.0:300.0:-1
ipc-2014-agile-tetris-027.pddl,TIMEOUT:301.091:-1.0:300.0:-1
ipc-2014-agile-tetris-028.pddl,TIMEOUT:301.064:-1.0:300.0:-1
ipc-2014-agile-tetris-029.pddl,TIMEOUT:301.1:-1.0:300.0:-1
ipc-2014-agile-tetris-031.pddl,TIMEOUT:301.063:-1.0:300.0:-1
ipc-2014-agile-tetris-032.pddl,TIMEOUT:301.107:-1.0:300.0:-1
ipc-2014-agile-tetris-033.pddl,TIMEOUT:301.099:-1.0:300.0:-1
ipc-2014-agile-tetris-034.pddl,TIMEOUT:301.099:-1.0:300.0:-1
ipc-2014-agile-tetris-035.pddl,TIMEOUT:301.055:-1.0:300.0:-1
ipc-2014-agile-tetris-036.pddl,TIMEOUT:301.095:-1.0:300.0:-1
ipc-2014-agile-tetris-037.pddl,TIMEOUT:301.099:-1.0:300.0:-1
ipc-2014-agile-tetris-038.pddl,TIMEOUT:301.014:-1.0:300.0:-1
ipc-2014-agile-tetris-039.pddl,TIMEOUT:301.074:-1.0:300.0:-1
ipc-2014-agile-tetris-040.pddl,TIMEOUT:301.045:-1.0:300.0:-1
ipc-2014-agile-thoughtful-bootstrap-typed-01.pddl,SAT:0.156976:33.0:300.0:-1
ipc-2014-agile-thoughtful-bootstrap-typed-02.pddl,SAT:0.102984:28.0:300.0:-1
ipc-2014-agile-thoughtful-bootstrap-typed-03.pddl,SAT:0.204968:35.0:300.0:-1
ipc-2014-agile-thoughtful-bootstrap-typed-04.pddl,SAT:0.175972:31.0:300.0:-1
ipc-2014-agile-thoughtful-bootstrap-typed-05.pddl,SAT:0.157975:33.0:300.0:-1
ipc-2014-agile-thoughtful-p11_6_53-typed.pddl,SAT:3.9574:115.0:300.0:-1
ipc-2014-agile-thoughtful-p11_6_59-typed.pddl,SAT:2.99754:111.0:300.0:-1
ipc-2014-agile-thoughtful-p11_6_62-typed.pddl,SAT:3.2895:106.0:300.0:-1
ipc-2014-agile-thoughtful-p13_7_78-typed.pddl,SAT:5.58215:131.0:300.0:-1
ipc-2014-agile-thoughtful-p13_7_79-typed.pddl,SAT:4.76127:126.0:300.0:-1
ipc-2014-agile-thoughtful-p13_7_86-typed.pddl,SAT:5.34419:144.0:300.0:-1
ipc-2014-agile-thoughtful-target-typed-20.pddl,SAT:4.97324:109.0:300.0:-1
ipc-2014-agile-thoughtful-target-typed-21.pddl,CRASHED:6.16506:1000000000.0:300.0:-1
ipc-2014-agile-thoughtful-target-typed-22.pddl,SAT:5.20421:151.0:300.0:-1
ipc-2014-agile-thoughtful-target-typed-23.pddl,SAT:6.10707:136.0:300.0:-1
ipc-2014-agile-thoughtful-target-typed-24.pddl,SAT:5.40318:139.0:300.0:-1
ipc-2014-agile-thoughtful-target-typed-25.pddl,SAT:6.23005:113.0:300.0:-1
ipc-2014-agile-thoughtful-target-typed-26.pddl,SAT:5.2762:135.0:300.0:-1
ipc-2014-agile-thoughtful-target-typed-27.pddl,SAT:5.13122:112.0:300.0:-1
ipc-2014-agile-thoughtful-target-typed-28.pddl,CRASHED:4.82627:1000000000.0:300.0:-1
ipc-2014-agile-transport-01.pddl,SAT:53.1269:2274.0:300.0:-1
ipc-2014-agile-transport-02.pddl,SAT:253.658:3144.0:300.0:-1
ipc-2014-agile-transport-03.pddl,SAT:146.525:2783.0:300.0:-1
ipc-2014-agile-transport-04.pddl,TIMEOUT:301.134:-1.0:300.0:-1
ipc-2014-agile-transport-05.pddl,TIMEOUT:301.176:-1.0:300.0:-1
ipc-2014-agile-transport-06.pddl,TIMEOUT:301.152:-1.0:300.0:-1
ipc-2014-agile-transport-07.pddl,TIMEOUT:301.174:-1.0:300.0:-1
ipc-2014-agile-transport-08.pddl,TIMEOUT:301.153:-1.0:300.0:-1
ipc-2014-agile-transport-09.pddl,TIMEOUT:301.155:-1.0:300.0:-1
ipc-2014-agile-transport-10.pddl,TIMEOUT:301.164:-1.0:300.0:-1
ipc-2014-agile-transport-11.pddl,SAT:255.289:2069.0:300.0:-1
ipc-2014-agile-transport-12.pddl,SAT:245.757:2936.0:300.0:-1
ipc-2014-agile-transport-13.pddl,SAT:90.6782:2178.0:300.0:-1
ipc-2014-agile-transport-14.pddl,TIMEOUT:301.129:-1.0:300.0:-1
ipc-2014-agile-transport-15.pddl,TIMEOUT:301.128:-1.0:300.0:-1
ipc-2014-agile-transport-16.pddl,TIMEOUT:301.108:-1.0:300.0:-1
ipc-2014-agile-transport-17.pddl,TIMEOUT:301.137:-1.0:300.0:-1
ipc-2014-agile-transport-18.pddl,TIMEOUT:301.12:-1.0:300.0:-1
ipc-2014-agile-transport-19.pddl,TIMEOUT:301.146:-1.0:300.0:-1
ipc-2014-agile-transport-20.pddl,TIMEOUT:301.225:-1.0:300.0:-1
ipc-2014-agile-visitall-30.pddl,SAT:11.2243:919.0:300.0:-1
ipc-2014-agile-visitall-31.pddl,SAT:13.165:1004.0:300.0:-1
ipc-2014-agile-visitall-32.pddl,SAT:16.0526:1046.0:300.0:-1
ipc-2014-agile-visitall-33.pddl,SAT:17.3034:1136.0:300.0:-1
ipc-2014-agile-visitall-50.pddl,SAT:177.616:2534.0:300.0:-1
ipc-2014-agile-visitall-51.pddl,SAT:198.854:2674.0:300.0:-1
ipc-2014-agile-visitall-52.pddl,SAT:220.714:2741.0:300.0:-1
ipc-2014-agile-visitall-53.pddl,SAT:246.293:2886.0:300.0:-1
ipc-2014-agile-visitall-54.pddl,SAT:273.417:2953.0:300.0:-1
ipc-2014-agile-visitall-55.pddl,TIMEOUT:301.142:-1.0:300.0:-1
ipc-2014-agile-visitall-56.pddl,TIMEOUT:301.129:-1.0:300.0:-1
ipc-2014-agile-visitall-57.pddl,TIMEOUT:301.074:-1.0:300.0:-1
ipc-2014-agile-visitall-58.pddl,TIMEOUT:301.132:-1.0:300.0:-1
ipc-2014-agile-visitall-59.pddl,TIMEOUT:301.161:-1.0:300.0:-1
ipc-2014-agile-visitall-60.pddl,TIMEOUT:301.115:-1.0:300.0:-1
ipc-2014-agile-visitall-61.pddl,TIMEOUT:301.164:-1.0:300.0:-1
ipc-2014-agile-visitall-62.pddl,TIMEOUT:301.112:-1.0:300.0:-1
ipc-2014-agile-visitall-63.pddl,TIMEOUT:301.163:-1.0:300.0:-1
ipc-2014-agile-visitall-64.pddl,TIMEOUT:301.143:-1.0:300.0:-1
ipc-2014-agile-visitall-65.pddl,TIMEOUT:301.104:-1.0:300.0:-1
