instance,ipc-2014-agile-jasper
ipc-2014-agile-barman-p1-11-4-15.pddl,SAT:5.20803:285.0:300.0:-1
ipc-2014-agile-barman-p1-11-5-15.pddl,SAT:5.37481:236.0:300.0:-1
ipc-2014-agile-barman-p1-11-5-16.pddl,SAT:4.45425:241.0:300.0:-1
ipc-2014-agile-barman-p2-10-4-13.pddl,SAT:3.00375:192.0:300.0:-1
ipc-2014-agile-barman-p2-11-4-15.pddl,SAT:8.59713:254.0:300.0:-1
ipc-2014-agile-barman-p2-11-5-15.pddl,SAT:4.97335:202.0:300.0:-1
ipc-2014-agile-barman-p2-11-5-16.pddl,SAT:274.287:326.0:300.0:-1
ipc-2014-agile-barman-p2-11-5-17.pddl,TIMEOUT:301.05:-1.0:300.0:-1
ipc-2014-agile-barman-p3-10-4-13.pddl,SAT:9.23146:326.0:300.0:-1
ipc-2014-agile-barman-p3-11-4-15.pddl,SAT:4.42133:345.0:300.0:-1
ipc-2014-agile-barman-p3-11-5-15.pddl,SAT:11.3371:257.0:300.0:-1
ipc-2014-agile-barman-p3-11-5-16.pddl,SAT:5.79851:199.0:300.0:-1
ipc-2014-agile-barman-p3-11-5-17.pddl,SAT:22.7951:416.0:300.0:-1
ipc-2014-agile-barman-p4-11-4-14.pddl,SAT:2.91643:238.0:300.0:-1
ipc-2014-agile-barman-p4-11-4-15.pddl,SAT:225.414:295.0:300.0:-1
ipc-2014-agile-barman-p4-11-5-15.pddl,SAT:11.3505:291.0:300.0:-1
ipc-2014-agile-barman-p5-10-4-13.pddl,SAT:3.55443:225.0:300.0:-1
ipc-2014-agile-barman-p5-11-4-15.pddl,SAT:6.18937:222.0:300.0:-1
ipc-2014-agile-barman-p5-11-5-15.pddl,SAT:10.3304:338.0:300.0:-1
ipc-2014-agile-barman-p5-11-5-16.pddl,SAT:9.23412:389.0:300.0:-1
ipc-2014-agile-cavediving-01_easy.pddl,TIMEOUT:301.1:-1.0:300.0:-1
ipc-2014-agile-cavediving-01.pddl,TIMEOUT:301.08:-1.0:300.0:-1
ipc-2014-agile-cavediving-02_easy.pddl,TIMEOUT:301.08:-1.0:300.0:-1
ipc-2014-agile-cavediving-03_easy.pddl,TIMEOUT:301.08:-1.0:300.0:-1
ipc-2014-agile-cavediving-04_easy.pddl,TIMEOUT:301.04:-1.0:300.0:-1
ipc-2014-agile-cavediving-05A_easy.pddl,SAT:0.940362:98.0:300.0:-1
ipc-2014-agile-cavediving-06A_easy.pddl,SAT:0.735033:95.0:300.0:-1
ipc-2014-agile-cavediving-07_easy.pddl,SAT:0.674199:132.0:300.0:-1
ipc-2014-agile-cavediving-08_easy.pddl,SAT:1.93321:92.0:300.0:-1
ipc-2014-agile-cavediving-09_easy.pddl,TIMEOUT:301.07:-1.0:300.0:-1
ipc-2014-agile-cavediving-10_easy.pddl,TIMEOUT:301.01:-1.0:300.0:-1
ipc-2014-agile-cavediving-11_easy.pddl,TIMEOUT:301.0:-1.0:300.0:-1
ipc-2014-agile-cavediving-12_easy.pddl,TIMEOUT:301.06:-1.0:300.0:-1
ipc-2014-agile-cavediving-13_easy.pddl,TIMEOUT:301.0:-1.0:300.0:-1
ipc-2014-agile-cavediving-14_easy.pddl,TIMEOUT:301.08:-1.0:300.0:-1
ipc-2014-agile-cavediving-15_easy.pddl,TIMEOUT:301.04:-1.0:300.0:-1
ipc-2014-agile-cavediving-16_easy.pddl,TIMEOUT:301.05:-1.0:300.0:-1
ipc-2014-agile-cavediving-18A_easy.pddl,SAT:1.60699:131.0:300.0:-1
ipc-2014-agile-cavediving-18_easy.pddl,SAT:2.34686:134.0:300.0:-1
ipc-2014-agile-cavediving-20A_easy.pddl,SAT:3.74717:100.0:300.0:-1
ipc-2014-agile-childsnack-05-2.pddl,TIMEOUT:301.0:-1.0:300.0:-1
ipc-2014-agile-childsnack-05.pddl,TIMEOUT:301.04:-1.0:300.0:-1
ipc-2014-agile-childsnack-06-2.pddl,CRASHED:281.22:1000000000.0:300.0:-1
ipc-2014-agile-childsnack-07-2.pddl,TIMEOUT:301.01:-1.0:300.0:-1
ipc-2014-agile-childsnack-08-2.pddl,CRASHED:265.0:1000000000.0:300.0:-1
ipc-2014-agile-childsnack-08.pddl,CRASHED:270.77:1000000000.0:300.0:-1
ipc-2014-agile-childsnack-09-2.pddl,CRASHED:233.51:1000000000.0:300.0:-1
ipc-2014-agile-childsnack-09.pddl,CRASHED:236.32:1000000000.0:300.0:-1
ipc-2014-agile-childsnack-10-2.pddl,CRASHED:235.16:1000000000.0:300.0:-1
ipc-2014-agile-childsnack-10.pddl,CRASHED:249.29:1000000000.0:300.0:-1
ipc-2014-agile-childsnack-11-2.pddl,CRASHED:214.09:1000000000.0:300.0:-1
ipc-2014-agile-childsnack-11.pddl,CRASHED:227.29:1000000000.0:300.0:-1
ipc-2014-agile-childsnack-12.pddl,CRASHED:287.71:1000000000.0:300.0:-1
ipc-2014-agile-childsnack-13-2.pddl,TIMEOUT:301.08:-1.0:300.0:-1
ipc-2014-agile-childsnack-13.pddl,CRASHED:299.36:1000000000.0:300.0:-1
ipc-2014-agile-childsnack-14.pddl,CRASHED:186.72:1000000000.0:300.0:-1
ipc-2014-agile-childsnack-15-2.pddl,CRASHED:211.76:1000000000.0:300.0:-1
ipc-2014-agile-childsnack-16-2.pddl,CRASHED:196.47:1000000000.0:300.0:-1
ipc-2014-agile-childsnack-19-2.pddl,CRASHED:190.81:1000000000.0:300.0:-1
ipc-2014-agile-childsnack-19.pddl,CRASHED:207.9:1000000000.0:300.0:-1
ipc-2014-agile-citycar-p3-2-2-0-1.pddl,SAT:2.23269:1393.0:300.0:-1
ipc-2014-agile-citycar-p3-3-2-0-1.pddl,SAT:6.73487:487.0:300.0:-1
ipc-2014-agile-citycar-p3-4-2-0-1.pddl,SAT:190.628:1355.0:300.0:-1
ipc-2014-agile-citycar-p3-5-2-0-1.pddl,SAT:39.0876:1155.0:300.0:-1
ipc-2014-agile-citycar-p3-5-2-0-2.pddl,SAT:12.785:431.0:300.0:-1
ipc-2014-agile-citycar-p4-2-2-0-1.pddl,TIMEOUT:301.08:-1.0:300.0:-1
ipc-2014-agile-citycar-p4-2-3-0-1.pddl,CRASHED:257.13:1000000000.0:300.0:-1
ipc-2014-agile-citycar-p4-2-3-0-2.pddl,TIMEOUT:301.03:-1.0:300.0:-1
ipc-2014-agile-citycar-p4-3-2-0-1.pddl,TIMEOUT:301.08:-1.0:300.0:-1
ipc-2014-agile-citycar-p4-3-2-0-2.pddl,TIMEOUT:301.04:-1.0:300.0:-1
ipc-2014-agile-citycar-p4-3-3-0-1.pddl,TIMEOUT:301.1:-1.0:300.0:-1
ipc-2014-agile-citycar-p4-3-3-0-2.pddl,TIMEOUT:301.08:-1.0:300.0:-1
ipc-2014-agile-citycar-p4-4-2-0-1.pddl,TIMEOUT:301.02:-1.0:300.0:-1
ipc-2014-agile-citycar-p4-4-2-0-2.pddl,TIMEOUT:301.0:-1.0:300.0:-1
ipc-2014-agile-citycar-p4-4-3-0-1.pddl,TIMEOUT:301.08:-1.0:300.0:-1
ipc-2014-agile-citycar-p4-4-3-0-2.pddl,TIMEOUT:301.11:-1.0:300.0:-1
ipc-2014-agile-citycar-p4-5-2-0-1.pddl,TIMEOUT:301.01:-1.0:300.0:-1
ipc-2014-agile-citycar-p4-5-2-0-2.pddl,TIMEOUT:301.08:-1.0:300.0:-1
ipc-2014-agile-citycar-p4-5-3-0-1.pddl,TIMEOUT:301.04:-1.0:300.0:-1
ipc-2014-agile-citycar-p4-5-3-0-2.pddl,TIMEOUT:301.05:-1.0:300.0:-1
ipc-2014-agile-floortile-p01-4-3-2.pddl,SAT:7.93048:102.0:300.0:-1
ipc-2014-agile-floortile-p01-5-4-2.pddl,TIMEOUT:301.06:-1.0:300.0:-1
ipc-2014-agile-floortile-p01-5-5-2.pddl,TIMEOUT:301.05:-1.0:300.0:-1
ipc-2014-agile-floortile-p01-6-4-2.pddl,TIMEOUT:301.01:-1.0:300.0:-1
ipc-2014-agile-floortile-p01-6-5-2.pddl,TIMEOUT:301.01:-1.0:300.0:-1
ipc-2014-agile-floortile-p01-6-5-3.pddl,TIMEOUT:301.09:-1.0:300.0:-1
ipc-2014-agile-floortile-p02-5-4-2.pddl,TIMEOUT:301.0:-1.0:300.0:-1
ipc-2014-agile-floortile-p02-6-4-2.pddl,TIMEOUT:301.08:-1.0:300.0:-1
ipc-2014-agile-floortile-p02-6-5-2.pddl,TIMEOUT:301.05:-1.0:300.0:-1
ipc-2014-agile-floortile-p02-6-5-3.pddl,TIMEOUT:301.04:-1.0:300.0:-1
ipc-2014-agile-floortile-p03-6-4-2.pddl,TIMEOUT:301.02:-1.0:300.0:-1
ipc-2014-agile-floortile-p03-6-5-2.pddl,TIMEOUT:301.08:-1.0:300.0:-1
ipc-2014-agile-floortile-p03-6-5-3.pddl,TIMEOUT:301.09:-1.0:300.0:-1
ipc-2014-agile-floortile-p04-5-4-2.pddl,TIMEOUT:301.08:-1.0:300.0:-1
ipc-2014-agile-floortile-p04-5-5-2.pddl,TIMEOUT:301.08:-1.0:300.0:-1
ipc-2014-agile-floortile-p04-6-5-2.pddl,TIMEOUT:301.01:-1.0:300.0:-1
ipc-2014-agile-floortile-p04-6-5-3.pddl,TIMEOUT:301.09:-1.0:300.0:-1
ipc-2014-agile-floortile-p05-4-3-2.pddl,SAT:4.32864:114.0:300.0:-1
ipc-2014-agile-floortile-p05-6-5-2.pddl,TIMEOUT:301.07:-1.0:300.0:-1
ipc-2014-agile-floortile-p05-6-5-3.pddl,TIMEOUT:301.06:-1.0:300.0:-1
ipc-2014-agile-ged-d-10-1.pddl,SAT:4.42294:40.0:300.0:-1
ipc-2014-agile-ged-d-10-2.pddl,SAT:4.37153:41.0:300.0:-1
ipc-2014-agile-ged-d-10-3.pddl,SAT:3.51742:55.0:300.0:-1
ipc-2014-agile-ged-d-10-4.pddl,SAT:2.67907:38.0:300.0:-1
ipc-2014-agile-ged-d-10-5.pddl,SAT:5.78279:57.0:300.0:-1
ipc-2014-agile-ged-d-10-6.pddl,SAT:5.07987:48.0:300.0:-1
ipc-2014-agile-ged-d-11-1.pddl,SAT:3.21277:33.0:300.0:-1
ipc-2014-agile-ged-d-11-3.pddl,SAT:2.84006:29.0:300.0:-1
ipc-2014-agile-ged-d-11-5.pddl,SAT:4.16972:40.0:300.0:-1
ipc-2014-agile-ged-d-11-6.pddl,SAT:3.36488:35.0:300.0:-1
ipc-2014-agile-ged-d-12-11.pddl,SAT:3.89368:37.0:300.0:-1
ipc-2014-agile-ged-d-12-2.pddl,SAT:8.70788:66.0:300.0:-1
ipc-2014-agile-ged-d-12-3.pddl,SAT:8.0451:63.0:300.0:-1
ipc-2014-agile-ged-d-12-5.pddl,SAT:9.87524:66.0:300.0:-1
ipc-2014-agile-ged-d-12-6.pddl,SAT:6.37978:63.0:300.0:-1
ipc-2014-agile-ged-d-12-7.pddl,SAT:7.51327:66.0:300.0:-1
ipc-2014-agile-ged-d-12-8.pddl,SAT:13.2598:89.0:300.0:-1
ipc-2014-agile-ged-d-12-9.pddl,SAT:12.8971:72.0:300.0:-1
ipc-2014-agile-ged-d-3-6.pddl,SAT:2.88818:29.0:300.0:-1
ipc-2014-agile-ged-d-9-5.pddl,SAT:3.1175:28.0:300.0:-1
ipc-2014-agile-hiking-3-4-3.pddl,SAT:1.3241:13.0:300.0:-1
ipc-2014-agile-hiking-3-4-4.pddl,SAT:2.60738:22.0:300.0:-1
ipc-2014-agile-hiking-3-4-5.pddl,SAT:8.02736:63.0:300.0:-1
ipc-2014-agile-hiking-3-4-6.pddl,SAT:50.2173:88.0:300.0:-1
ipc-2014-agile-hiking-3-4-7.pddl,SAT:226.6:107.0:300.0:-1
ipc-2014-agile-hiking-3-4-8.pddl,SAT:103.983:124.0:300.0:-1
ipc-2014-agile-hiking-3-4-9.pddl,TIMEOUT:301.09:-1.0:300.0:-1
ipc-2014-agile-hiking-4-5-3.pddl,SAT:4.99325:23.0:300.0:-1
ipc-2014-agile-hiking-4-5-4.pddl,SAT:8.60393:22.0:300.0:-1
ipc-2014-agile-hiking-4-5-5.pddl,SAT:35.7298:51.0:300.0:-1
ipc-2014-agile-hiking-4-5-6.pddl,SAT:93.2424:94.0:300.0:-1
ipc-2014-agile-hiking-4-5-7.pddl,SAT:94.6766:96.0:300.0:-1
ipc-2014-agile-hiking-4-5-8.pddl,TIMEOUT:301.06:-1.0:300.0:-1
ipc-2014-agile-hiking-4-5-9.pddl,TIMEOUT:301.04:-1.0:300.0:-1
ipc-2014-agile-hiking-5-6-3.pddl,SAT:13.5774:20.0:300.0:-1
ipc-2014-agile-hiking-5-6-4.pddl,SAT:48.7864:33.0:300.0:-1
ipc-2014-agile-hiking-5-6-5.pddl,SAT:67.9764:41.0:300.0:-1
ipc-2014-agile-hiking-5-6-6.pddl,TIMEOUT:301.06:-1.0:300.0:-1
ipc-2014-agile-hiking-5-6-7.pddl,TIMEOUT:301.09:-1.0:300.0:-1
ipc-2014-agile-hiking-5-6-8.pddl,TIMEOUT:301.04:-1.0:300.0:-1
ipc-2014-agile-maintenance-1.3.060.180.5-000.pddl,SAT:78.9058:52.0:300.0:-1
ipc-2014-agile-maintenance-1.3.060.180.5-001.pddl,SAT:34.3138:49.0:300.0:-1
ipc-2014-agile-maintenance-1.3.060.180.5-002.pddl,SAT:49.2621:57.0:300.0:-1
ipc-2014-agile-maintenance-1.3.100.300.5-000.pddl,SAT:97.7283:93.0:300.0:-1
ipc-2014-agile-maintenance-1.3.100.300.5-001.pddl,TIMEOUT:301.07:-1.0:300.0:-1
ipc-2014-agile-maintenance-1.3.100.300.7-000.pddl,SAT:2.69256:83.0:300.0:-1
ipc-2014-agile-maintenance-1.3.100.300.7-001.pddl,SAT:2.86687:80.0:300.0:-1
ipc-2014-agile-maintenance-1.3.100.300.7-002.pddl,SAT:2.92213:69.0:300.0:-1
ipc-2014-agile-maintenance-1.3.150.500.6-001.pddl,TIMEOUT:301.0:-1.0:300.0:-1
ipc-2014-agile-maintenance-1.3.200.500.5-001.pddl,TIMEOUT:301.04:-1.0:300.0:-1
ipc-2014-agile-maintenance-1.3.200.500.5-002.pddl,TIMEOUT:301.03:-1.0:300.0:-1
ipc-2014-agile-maintenance-1.3.200.700.7-000.pddl,SAT:9.58325:174.0:300.0:-1
ipc-2014-agile-maintenance-1.3.200.700.7-001.pddl,SAT:9.74475:161.0:300.0:-1
ipc-2014-agile-maintenance-1.3.200.700.7-002.pddl,TIMEOUT:301.06:-1.0:300.0:-1
ipc-2014-agile-maintenance-1.3.200.900.5-000.pddl,TIMEOUT:301.02:-1.0:300.0:-1
ipc-2014-agile-maintenance-1.3.200.900.5-001.pddl,TIMEOUT:301.03:-1.0:300.0:-1
ipc-2014-agile-maintenance-1.3.200.900.5-002.pddl,TIMEOUT:301.0:-1.0:300.0:-1
ipc-2014-agile-maintenance-1.3.200.900.8-000.pddl,SAT:17.457:167.0:300.0:-1
ipc-2014-agile-maintenance-1.3.200.900.8-001.pddl,SAT:15.1776:167.0:300.0:-1
ipc-2014-agile-maintenance-1.3.200.900.8-002.pddl,TIMEOUT:301.09:-1.0:300.0:-1
ipc-2014-agile-openstacks-p130_2.pddl,SAT:13.6482:62.0:300.0:-1
ipc-2014-agile-openstacks-p130_3.pddl,SAT:17.9562:108.0:300.0:-1
ipc-2014-agile-openstacks-p150_2.pddl,SAT:19.5325:75.0:300.0:-1
ipc-2014-agile-openstacks-p150_3.pddl,SAT:27.1581:131.0:300.0:-1
ipc-2014-agile-openstacks-p170_1.pddl,SAT:26.6121:72.0:300.0:-1
ipc-2014-agile-openstacks-p170_2.pddl,SAT:44.7231:103.0:300.0:-1
ipc-2014-agile-openstacks-p170_3.pddl,SAT:66.7282:146.0:300.0:-1
ipc-2014-agile-openstacks-p190_1.pddl,SAT:56.3954:103.0:300.0:-1
ipc-2014-agile-openstacks-p190_2.pddl,SAT:54.2543:113.0:300.0:-1
ipc-2014-agile-openstacks-p190_3.pddl,SAT:80.9959:170.0:300.0:-1
ipc-2014-agile-openstacks-p210_1.pddl,SAT:72.067:107.0:300.0:-1
ipc-2014-agile-openstacks-p210_2.pddl,SAT:75.1205:128.0:300.0:-1
ipc-2014-agile-openstacks-p230_1.pddl,SAT:90.214:119.0:300.0:-1
ipc-2014-agile-openstacks-p230_2.pddl,SAT:86.877:140.0:300.0:-1
ipc-2014-agile-openstacks-p250_1.pddl,SAT:84.5152:144.0:300.0:-1
ipc-2014-agile-openstacks-p250_2.pddl,SAT:90.1753:160.0:300.0:-1
ipc-2014-agile-openstacks-p270_1.pddl,SAT:113.428:154.0:300.0:-1
ipc-2014-agile-openstacks-p270_2.pddl,SAT:145.898:177.0:300.0:-1
ipc-2014-agile-openstacks-p290_1.pddl,SAT:180.128:171.0:300.0:-1
ipc-2014-agile-openstacks-p290_2.pddl,SAT:200.0:205.0:300.0:-1
ipc-2014-agile-parking-28_2.pddl,SAT:59.9569:99.0:300.0:-1
ipc-2014-agile-parking-28_3.pddl,SAT:34.8495:117.0:300.0:-1
ipc-2014-agile-parking-30_1.pddl,SAT:70.3657:144.0:300.0:-1
ipc-2014-agile-parking-30_2.pddl,SAT:133.854:146.0:300.0:-1
ipc-2014-agile-parking-30_3.pddl,SAT:43.4593:90.0:300.0:-1
ipc-2014-agile-parking-32_1.pddl,SAT:91.6366:113.0:300.0:-1
ipc-2014-agile-parking-32_2.pddl,SAT:90.6778:132.0:300.0:-1
ipc-2014-agile-parking-32_3.pddl,SAT:72.8173:99.0:300.0:-1
ipc-2014-agile-parking-34_1.pddl,SAT:73.0503:99.0:300.0:-1
ipc-2014-agile-parking-34_2.pddl,SAT:140.512:142.0:300.0:-1
ipc-2014-agile-parking-34_3.pddl,SAT:142.342:147.0:300.0:-1
ipc-2014-agile-parking-36_1.pddl,SAT:152.966:114.0:300.0:-1
ipc-2014-agile-parking-36_2.pddl,SAT:275.077:175.0:300.0:-1
ipc-2014-agile-parking-36_3.pddl,SAT:160.281:126.0:300.0:-1
ipc-2014-agile-parking-38_1.pddl,TIMEOUT:301.0:-1.0:300.0:-1
ipc-2014-agile-parking-38_2.pddl,SAT:242.674:125.0:300.0:-1
ipc-2014-agile-parking-38_3.pddl,SAT:123.096:101.0:300.0:-1
ipc-2014-agile-parking-40_1.pddl,TIMEOUT:301.04:-1.0:300.0:-1
ipc-2014-agile-parking-40_2.pddl,SAT:294.711:136.0:300.0:-1
ipc-2014-agile-parking-40_3.pddl,TIMEOUT:301.07:-1.0:300.0:-1
ipc-2014-agile-tetris-020.pddl,SAT:16.2055:160.0:300.0:-1
ipc-2014-agile-tetris-021.pddl,SAT:35.5341:166.0:300.0:-1
ipc-2014-agile-tetris-022.pddl,TIMEOUT:301.06:-1.0:300.0:-1
ipc-2014-agile-tetris-023.pddl,SAT:92.9466:282.0:300.0:-1
ipc-2014-agile-tetris-024.pddl,TIMEOUT:301.09:-1.0:300.0:-1
ipc-2014-agile-tetris-025.pddl,SAT:29.5342:178.0:300.0:-1
ipc-2014-agile-tetris-026.pddl,TIMEOUT:301.08:-1.0:300.0:-1
ipc-2014-agile-tetris-027.pddl,SAT:285.406:306.0:300.0:-1
ipc-2014-agile-tetris-028.pddl,TIMEOUT:301.08:-1.0:300.0:-1
ipc-2014-agile-tetris-029.pddl,TIMEOUT:301.03:-1.0:300.0:-1
ipc-2014-agile-tetris-031.pddl,TIMEOUT:301.0:-1.0:300.0:-1
ipc-2014-agile-tetris-032.pddl,TIMEOUT:301.07:-1.0:300.0:-1
ipc-2014-agile-tetris-033.pddl,TIMEOUT:301.09:-1.0:300.0:-1
ipc-2014-agile-tetris-034.pddl,TIMEOUT:301.09:-1.0:300.0:-1
ipc-2014-agile-tetris-035.pddl,TIMEOUT:301.09:-1.0:300.0:-1
ipc-2014-agile-tetris-036.pddl,TIMEOUT:301.03:-1.0:300.0:-1
ipc-2014-agile-tetris-037.pddl,TIMEOUT:301.01:-1.0:300.0:-1
ipc-2014-agile-tetris-038.pddl,TIMEOUT:301.07:-1.0:300.0:-1
ipc-2014-agile-tetris-039.pddl,TIMEOUT:301.08:-1.0:300.0:-1
ipc-2014-agile-tetris-040.pddl,TIMEOUT:301.02:-1.0:300.0:-1
ipc-2014-agile-thoughtful-bootstrap-typed-01.pddl,CRASHED:0.070621:1000000000.0:300.0:-1
ipc-2014-agile-thoughtful-bootstrap-typed-02.pddl,CRASHED:0.074787:1000000000.0:300.0:-1
ipc-2014-agile-thoughtful-bootstrap-typed-03.pddl,CRASHED:0.07604:1000000000.0:300.0:-1
ipc-2014-agile-thoughtful-bootstrap-typed-04.pddl,CRASHED:0.074773:1000000000.0:300.0:-1
ipc-2014-agile-thoughtful-bootstrap-typed-05.pddl,CRASHED:0.073999:1000000000.0:300.0:-1
ipc-2014-agile-thoughtful-p11_6_53-typed.pddl,CRASHED:0.082316:1000000000.0:300.0:-1
ipc-2014-agile-thoughtful-p11_6_59-typed.pddl,CRASHED:0.086032:1000000000.0:300.0:-1
ipc-2014-agile-thoughtful-p11_6_62-typed.pddl,CRASHED:0.082363:1000000000.0:300.0:-1
ipc-2014-agile-thoughtful-p13_7_78-typed.pddl,CRASHED:0.084901:1000000000.0:300.0:-1
ipc-2014-agile-thoughtful-p13_7_79-typed.pddl,CRASHED:0.084597:1000000000.0:300.0:-1
ipc-2014-agile-thoughtful-p13_7_86-typed.pddl,CRASHED:0.084814:1000000000.0:300.0:-1
ipc-2014-agile-thoughtful-target-typed-20.pddl,CRASHED:0.084241:1000000000.0:300.0:-1
ipc-2014-agile-thoughtful-target-typed-21.pddl,CRASHED:0.084642:1000000000.0:300.0:-1
ipc-2014-agile-thoughtful-target-typed-22.pddl,CRASHED:0.084217:1000000000.0:300.0:-1
ipc-2014-agile-thoughtful-target-typed-23.pddl,CRASHED:0.084613:1000000000.0:300.0:-1
ipc-2014-agile-thoughtful-target-typed-24.pddl,CRASHED:0.08483:1000000000.0:300.0:-1
ipc-2014-agile-thoughtful-target-typed-25.pddl,CRASHED:0.0835:1000000000.0:300.0:-1
ipc-2014-agile-thoughtful-target-typed-26.pddl,CRASHED:0.083699:1000000000.0:300.0:-1
ipc-2014-agile-thoughtful-target-typed-27.pddl,CRASHED:0.083332:1000000000.0:300.0:-1
ipc-2014-agile-thoughtful-target-typed-28.pddl,CRASHED:0.084726:1000000000.0:300.0:-1
ipc-2014-agile-transport-01.pddl,SAT:30.5595:2104.0:300.0:-1
ipc-2014-agile-transport-02.pddl,SAT:119.629:3913.0:300.0:-1
ipc-2014-agile-transport-03.pddl,SAT:48.9679:3076.0:300.0:-1
ipc-2014-agile-transport-04.pddl,TIMEOUT:301.07:-1.0:300.0:-1
ipc-2014-agile-transport-05.pddl,TIMEOUT:301.03:-1.0:300.0:-1
ipc-2014-agile-transport-06.pddl,TIMEOUT:301.0:-1.0:300.0:-1
ipc-2014-agile-transport-07.pddl,TIMEOUT:301.09:-1.0:300.0:-1
ipc-2014-agile-transport-08.pddl,TIMEOUT:301.02:-1.0:300.0:-1
ipc-2014-agile-transport-09.pddl,TIMEOUT:301.01:-1.0:300.0:-1
ipc-2014-agile-transport-10.pddl,TIMEOUT:301.09:-1.0:300.0:-1
ipc-2014-agile-transport-11.pddl,SAT:245.098:3189.0:300.0:-1
ipc-2014-agile-transport-12.pddl,SAT:99.4553:2371.0:300.0:-1
ipc-2014-agile-transport-13.pddl,SAT:45.3225:2647.0:300.0:-1
ipc-2014-agile-transport-14.pddl,TIMEOUT:301.02:-1.0:300.0:-1
ipc-2014-agile-transport-15.pddl,TIMEOUT:301.08:-1.0:300.0:-1
ipc-2014-agile-transport-16.pddl,TIMEOUT:301.07:-1.0:300.0:-1
ipc-2014-agile-transport-17.pddl,TIMEOUT:301.05:-1.0:300.0:-1
ipc-2014-agile-transport-18.pddl,TIMEOUT:301.01:-1.0:300.0:-1
ipc-2014-agile-transport-19.pddl,SAT:222.053:6860.0:300.0:-1
ipc-2014-agile-transport-20.pddl,TIMEOUT:301.06:-1.0:300.0:-1
ipc-2014-agile-visitall-30.pddl,SAT:11.15:1221.0:300.0:-1
ipc-2014-agile-visitall-31.pddl,SAT:20.7878:1348.0:300.0:-1
ipc-2014-agile-visitall-32.pddl,SAT:17.4747:1374.0:300.0:-1
ipc-2014-agile-visitall-33.pddl,SAT:25.9451:1436.0:300.0:-1
ipc-2014-agile-visitall-50.pddl,SAT:175.721:3248.0:300.0:-1
ipc-2014-agile-visitall-51.pddl,SAT:154.333:3445.0:300.0:-1
ipc-2014-agile-visitall-52.pddl,SAT:169.327:3632.0:300.0:-1
ipc-2014-agile-visitall-53.pddl,SAT:188.985:3620.0:300.0:-1
ipc-2014-agile-visitall-54.pddl,SAT:161.888:3766.0:300.0:-1
ipc-2014-agile-visitall-55.pddl,SAT:180.394:4055.0:300.0:-1
ipc-2014-agile-visitall-56.pddl,SAT:278.15:3975.0:300.0:-1
ipc-2014-agile-visitall-57.pddl,SAT:245.659:4490.0:300.0:-1
ipc-2014-agile-visitall-58.pddl,TIMEOUT:301.0:-1.0:300.0:-1
ipc-2014-agile-visitall-59.pddl,TIMEOUT:301.0:-1.0:300.0:-1
ipc-2014-agile-visitall-60.pddl,TIMEOUT:301.0:-1.0:300.0:-1
ipc-2014-agile-visitall-61.pddl,TIMEOUT:301.07:-1.0:300.0:-1
ipc-2014-agile-visitall-62.pddl,TIMEOUT:301.04:-1.0:300.0:-1
ipc-2014-agile-visitall-63.pddl,TIMEOUT:301.07:-1.0:300.0:-1
ipc-2014-agile-visitall-64.pddl,TIMEOUT:301.08:-1.0:300.0:-1
ipc-2014-agile-visitall-65.pddl,TIMEOUT:301.06:-1.0:300.0:-1
