instance,ipc-2014-optimal-miplan
ipc-2014-optimal-barman-p433.1.pddl,CRASHED:1.60835:1000000000.0:1800.0:-1
ipc-2014-optimal-barman-p433.2.pddl,CRASHED:1.59592:1000000000.0:1800.0:-1
ipc-2014-optimal-barman-p433.3.pddl,CRASHED:1.69268:1000000000.0:1800.0:-1
ipc-2014-optimal-barman-p435.1.pddl,CRASHED:1780.5:1000000000.0:1800.0:-1
ipc-2014-optimal-barman-p435.2.pddl,CRASHED:1247.97:1000000000.0:1800.0:-1
ipc-2014-optimal-barman-p435.3.pddl,CRASHED:1777.1:1000000000.0:1800.0:-1
ipc-2014-optimal-barman-p443.1.pddl,CRASHED:1.49014:1000000000.0:1800.0:-1
ipc-2014-optimal-barman-p443.2.pddl,CRASHED:1.58042:1000000000.0:1800.0:-1
ipc-2014-optimal-barman-p443.3.pddl,CRASHED:1.51258:1000000000.0:1800.0:-1
ipc-2014-optimal-barman-p536.1.pddl,CRASHED:1777.76:1000000000.0:1800.0:-1
ipc-2014-optimal-barman-p536.2.pddl,CRASHED:1780.32:1000000000.0:1800.0:-1
ipc-2014-optimal-barman-p536.3.pddl,CRASHED:1779.1:1000000000.0:1800.0:-1
ipc-2014-optimal-barman-p638.1.pddl,CRASHED:1780.83:1000000000.0:1800.0:-1
ipc-2014-optimal-barman-p638.2.pddl,CRASHED:1780.14:1000000000.0:1800.0:-1
ipc-2014-optimal-barman-p638.3.pddl,CRASHED:1779.85:1000000000.0:1800.0:-1
ipc-2014-optimal-barman-p739.1.pddl,CRASHED:1780.02:1000000000.0:1800.0:-1
ipc-2014-optimal-barman-p739.2.pddl,CRASHED:1779.47:1000000000.0:1800.0:-1
ipc-2014-optimal-barman-p739.3.pddl,CRASHED:1789.68:1000000000.0:1800.0:-1
ipc-2014-optimal-barman-p839.1.pddl,CRASHED:1786.83:1000000000.0:1800.0:-1
ipc-2014-optimal-barman-p839.2.pddl,CRASHED:1788.28:1000000000.0:1800.0:-1
ipc-2014-optimal-cavediving-01.pddl,CRASHED:136.981:1000000000.0:1800.0:-1
ipc-2014-optimal-cavediving-01_easy.pddl,CRASHED:129.985:1000000000.0:1800.0:-1
ipc-2014-optimal-cavediving-02_easy.pddl,CRASHED:131.039:1000000000.0:1800.0:-1
ipc-2014-optimal-cavediving-03_easy.pddl,CRASHED:128.673:1000000000.0:1800.0:-1
ipc-2014-optimal-cavediving-04_easy.pddl,CRASHED:143.185:1000000000.0:1800.0:-1
ipc-2014-optimal-cavediving-05A_easy.pddl,SAT:20.7001:94.0:1800.0:-1
ipc-2014-optimal-cavediving-06A_easy.pddl,SAT:20.6089:95.0:1800.0:-1
ipc-2014-optimal-cavediving-07_easy.pddl,SAT:35.5701:131.0:1800.0:-1
ipc-2014-optimal-cavediving-08_easy.pddl,SAT:20.513:90.0:1800.0:-1
ipc-2014-optimal-cavediving-09_easy.pddl,CRASHED:234.465:1000000000.0:1800.0:-1
ipc-2014-optimal-cavediving-10_easy.pddl,CRASHED:238.363:1000000000.0:1800.0:-1
ipc-2014-optimal-cavediving-11_easy.pddl,CRASHED:238.645:1000000000.0:1800.0:-1
ipc-2014-optimal-cavediving-12_easy.pddl,CRASHED:238.99:1000000000.0:1800.0:-1
ipc-2014-optimal-cavediving-13_easy.pddl,CRASHED:142.585:1000000000.0:1800.0:-1
ipc-2014-optimal-cavediving-14_easy.pddl,CRASHED:143.374:1000000000.0:1800.0:-1
ipc-2014-optimal-cavediving-15_easy.pddl,CRASHED:135.293:1000000000.0:1800.0:-1
ipc-2014-optimal-cavediving-16_easy.pddl,CRASHED:140.257:1000000000.0:1800.0:-1
ipc-2014-optimal-cavediving-18A_easy.pddl,SAT:57.5948:131.0:1800.0:-1
ipc-2014-optimal-cavediving-18_easy.pddl,CRASHED:112.592:131.0:1800.0:-1
ipc-2014-optimal-cavediving-20A_easy.pddl,SAT:35.6907:98.0:1800.0:-1
ipc-2014-optimal-childsnack-01-2.pddl,CRASHED:1678.89:1000000000.0:1800.0:-1
ipc-2014-optimal-childsnack-01.pddl,CRASHED:1747.26:1000000000.0:1800.0:-1
ipc-2014-optimal-childsnack-02-2.pddl,CRASHED:1778.59:1000000000.0:1800.0:-1
ipc-2014-optimal-childsnack-02.pddl,CRASHED:1771.55:1000000000.0:1800.0:-1
ipc-2014-optimal-childsnack-03-2.pddl,CRASHED:1781.47:1000000000.0:1800.0:-1
ipc-2014-optimal-childsnack-03.pddl,CRASHED:1247.01:1000000000.0:1800.0:-1
ipc-2014-optimal-childsnack-04-2.pddl,CRASHED:1778.4:1000000000.0:1800.0:-1
ipc-2014-optimal-childsnack-04.pddl,CRASHED:1778.23:1000000000.0:1800.0:-1
ipc-2014-optimal-childsnack-05-2.pddl,CRASHED:1246.64:1000000000.0:1800.0:-1
ipc-2014-optimal-childsnack-05.pddl,CRASHED:1779.12:1000000000.0:1800.0:-1
ipc-2014-optimal-childsnack-06-2.pddl,CRASHED:1778.51:1000000000.0:1800.0:-1
ipc-2014-optimal-childsnack-06.pddl,CRASHED:1778.73:1000000000.0:1800.0:-1
ipc-2014-optimal-childsnack-07-2.pddl,CRASHED:1782.02:1000000000.0:1800.0:-1
ipc-2014-optimal-childsnack-07.pddl,CRASHED:1778.21:1000000000.0:1800.0:-1
ipc-2014-optimal-childsnack-08-2.pddl,CRASHED:1780.64:1000000000.0:1800.0:-1
ipc-2014-optimal-childsnack-08.pddl,CRASHED:1231.26:1000000000.0:1800.0:-1
ipc-2014-optimal-childsnack-09-2.pddl,CRASHED:1277.19:1000000000.0:1800.0:-1
ipc-2014-optimal-childsnack-09.pddl,CRASHED:1789.02:1000000000.0:1800.0:-1
ipc-2014-optimal-childsnack-10-2.pddl,CRASHED:1783.51:1000000000.0:1800.0:-1
ipc-2014-optimal-childsnack-10.pddl,CRASHED:1788.75:1000000000.0:1800.0:-1
ipc-2014-optimal-citycar-p2-2-2-1-2.pddl,SAT:4.96116:46.0:1800.0:-1
ipc-2014-optimal-citycar-p2-2-2-2-1.pddl,SAT:9.70846:64.0:1800.0:-1
ipc-2014-optimal-citycar-p2-2-3-1-2.pddl,SAT:6.84211:50.0:1800.0:-1
ipc-2014-optimal-citycar-p2-2-3-2-1.pddl,SAT:6.67572:48.0:1800.0:-1
ipc-2014-optimal-citycar-p2-2-3-2-2.pddl,SAT:6.8301:50.0:1800.0:-1
ipc-2014-optimal-citycar-p2-2-4-1-2.pddl,SAT:8.92263:52.0:1800.0:-1
ipc-2014-optimal-citycar-p2-2-4-2-1.pddl,SAT:8.92867:52.0:1800.0:-1
ipc-2014-optimal-citycar-p2-2-5-2-2.pddl,CRASHED:419.54:76.0:1800.0:-1
ipc-2014-optimal-citycar-p2-2-6-1-1.pddl,SAT:25.0105:58.0:1800.0:-1
ipc-2014-optimal-citycar-p2-2-6-2-2.pddl,SAT:25.1274:58.0:1800.0:-1
ipc-2014-optimal-citycar-p2-3-2-3-1.pddl,SAT:99.1224:68.0:1800.0:-1
ipc-2014-optimal-citycar-p2-3-3-3-1.pddl,SAT:426.19:78.0:1800.0:-1
ipc-2014-optimal-citycar-p2-3-4-3-1.pddl,CRASHED:1606.32:1000000000.0:1800.0:-1
ipc-2014-optimal-citycar-p2-3-6-3-2.pddl,CRASHED:1603.79:1000000000.0:1800.0:-1
ipc-2014-optimal-citycar-p3-3-2-2-1.pddl,CRASHED:1597.22:1000000000.0:1800.0:-1
ipc-2014-optimal-citycar-p3-3-2-2-2.pddl,CRASHED:1594.95:1000000000.0:1800.0:-1
ipc-2014-optimal-citycar-p3-3-2-3-1.pddl,SAT:33.7597:48.0:1800.0:-1
ipc-2014-optimal-citycar-p3-3-2-3-2.pddl,CRASHED:1591.14:1000000000.0:1800.0:-1
ipc-2014-optimal-citycar-p3-3-3-3-1.pddl,CRASHED:1510.57:1000000000.0:1800.0:-1
ipc-2014-optimal-citycar-p3-3-3-3-2.pddl,CRASHED:1497.79:1000000000.0:1800.0:-1
ipc-2014-optimal-floortile-p01-4-3-2.pddl,SAT:124.578:56.0:1800.0:-1
ipc-2014-optimal-floortile-p01-4-4-2.pddl,CRASHED:453.114:68.0:1800.0:-1
ipc-2014-optimal-floortile-p01-5-3-2.pddl,CRASHED:378.704:63.0:1800.0:-1
ipc-2014-optimal-floortile-p01-5-4-2.pddl,CRASHED:1779.13:1000000000.0:1800.0:-1
ipc-2014-optimal-floortile-p01-5-5-2.pddl,CRASHED:1296.32:1000000000.0:1800.0:-1
ipc-2014-optimal-floortile-p01-6-4-2.pddl,CRASHED:1778.21:1000000000.0:1800.0:-1
ipc-2014-optimal-floortile-p01-6-5-2.pddl,CRASHED:1780.23:1000000000.0:1800.0:-1
ipc-2014-optimal-floortile-p02-4-4-2.pddl,CRASHED:1302.08:1000000000.0:1800.0:-1
ipc-2014-optimal-floortile-p02-5-3-2.pddl,CRASHED:408.524:65.0:1800.0:-1
ipc-2014-optimal-floortile-p02-5-4-2.pddl,CRASHED:1779.13:1000000000.0:1800.0:-1
ipc-2014-optimal-floortile-p02-5-5-2.pddl,CRASHED:1778.05:1000000000.0:1800.0:-1
ipc-2014-optimal-floortile-p02-6-4-2.pddl,CRASHED:1784.73:1000000000.0:1800.0:-1
ipc-2014-optimal-floortile-p02-6-5-2.pddl,CRASHED:1785.38:1000000000.0:1800.0:-1
ipc-2014-optimal-floortile-p03-4-3-2.pddl,SAT:344.442:56.0:1800.0:-1
ipc-2014-optimal-floortile-p03-4-4-2.pddl,CRASHED:1776.69:1000000000.0:1800.0:-1
ipc-2014-optimal-floortile-p03-5-3-2.pddl,CRASHED:405.089:65.0:1800.0:-1
ipc-2014-optimal-floortile-p03-5-4-2.pddl,CRASHED:1311.69:1000000000.0:1800.0:-1
ipc-2014-optimal-floortile-p03-5-5-2.pddl,CRASHED:1777.43:1000000000.0:1800.0:-1
ipc-2014-optimal-floortile-p03-6-4-2.pddl,CRASHED:1779.1:1000000000.0:1800.0:-1
ipc-2014-optimal-floortile-p03-6-5-2.pddl,CRASHED:1784.2:1000000000.0:1800.0:-1
ipc-2014-optimal-ged-d-1-2.pddl,SAT:0.720291:1.0:1800.0:-1
ipc-2014-optimal-ged-d-1-3.pddl,SAT:4.58289:4.0:1800.0:-1
ipc-2014-optimal-ged-d-1-4.pddl,SAT:0.682683:1.0:1800.0:-1
ipc-2014-optimal-ged-d-1-8.pddl,SAT:19.5817:4.0:1800.0:-1
ipc-2014-optimal-ged-d-2-1.pddl,SAT:0.70027:1.0:1800.0:-1
ipc-2014-optimal-ged-d-2-3.pddl,SAT:0.908031:3.0:1800.0:-1
ipc-2014-optimal-ged-d-2-4.pddl,SAT:0.737965:2.0:1800.0:-1
ipc-2014-optimal-ged-d-2-8.pddl,CRASHED:1708.62:1000000000.0:1800.0:-1
ipc-2014-optimal-ged-d-3-1.pddl,SAT:4.44961:4.0:1800.0:-1
ipc-2014-optimal-ged-d-3-2.pddl,SAT:0.96981:3.0:1800.0:-1
ipc-2014-optimal-ged-d-3-4.pddl,CRASHED:340.918:5.0:1800.0:-1
ipc-2014-optimal-ged-d-4-2.pddl,SAT:0.779284:2.0:1800.0:-1
ipc-2014-optimal-ged-d-4-3.pddl,CRASHED:336.48:5.0:1800.0:-1
ipc-2014-optimal-ged-d-4-8.pddl,CRASHED:1716.74:1000000000.0:1800.0:-1
ipc-2014-optimal-ged-d-7-5.pddl,SAT:19.6003:4.0:1800.0:-1
ipc-2014-optimal-ged-d-7-6.pddl,SAT:5.76806:4.0:1800.0:-1
ipc-2014-optimal-ged-d-8-1.pddl,SAT:19.7047:4.0:1800.0:-1
ipc-2014-optimal-ged-d-8-2.pddl,CRASHED:1721.06:1000000000.0:1800.0:-1
ipc-2014-optimal-ged-d-8-4.pddl,CRASHED:1703.59:1000000000.0:1800.0:-1
ipc-2014-optimal-ged-d-8-9.pddl,CRASHED:1723.0:1000000000.0:1800.0:-1
ipc-2014-optimal-hiking-1-2-3.pddl,SAT:0.944929:11.0:1800.0:-1
ipc-2014-optimal-hiking-1-2-4.pddl,SAT:20.9205:17.0:1800.0:-1
ipc-2014-optimal-hiking-1-2-5.pddl,SAT:21.5899:25.0:1800.0:-1
ipc-2014-optimal-hiking-1-2-7.pddl,SAT:27.0191:38.0:1800.0:-1
ipc-2014-optimal-hiking-1-2-8.pddl,SAT:29.4252:45.0:1800.0:-1
ipc-2014-optimal-hiking-2-2-3.pddl,SAT:20.9587:10.0:1800.0:-1
ipc-2014-optimal-hiking-2-2-4.pddl,SAT:51.264:16.0:1800.0:-1
ipc-2014-optimal-hiking-2-2-5.pddl,SAT:375.415:22.0:1800.0:-1
ipc-2014-optimal-hiking-2-2-6.pddl,CRASHED:1428.41:1000000000.0:1800.0:-1
ipc-2014-optimal-hiking-2-2-7.pddl,CRASHED:1793.02:1000000000.0:1800.0:-1
ipc-2014-optimal-hiking-2-2-8.pddl,CRASHED:1784.89:1000000000.0:1800.0:-1
ipc-2014-optimal-hiking-2-3-4.pddl,SAT:208.674:17.0:1800.0:-1
ipc-2014-optimal-hiking-2-3-5.pddl,SAT:445.877:24.0:1800.0:-1
ipc-2014-optimal-hiking-2-3-6.pddl,CRASHED:1245.7:1000000000.0:1800.0:-1
ipc-2014-optimal-hiking-2-3-7.pddl,CRASHED:1786.43:1000000000.0:1800.0:-1
ipc-2014-optimal-hiking-2-4-3.pddl,SAT:23.5887:10.0:1800.0:-1
ipc-2014-optimal-hiking-2-4-4.pddl,SAT:360.066:17.0:1800.0:-1
ipc-2014-optimal-hiking-2-4-5.pddl,CRASHED:1584.09:1000000000.0:1800.0:-1
ipc-2014-optimal-hiking-2-4-6.pddl,CRASHED:353.28:1000000000.0:1800.0:-1
ipc-2014-optimal-hiking-2-4-7.pddl,CRASHED:1783.23:1000000000.0:1800.0:-1
ipc-2014-optimal-maintenance-1.3.010.010.1-001.pddl,CRASHED:1.75622:1000000000.0:1800.0:-1
ipc-2014-optimal-maintenance-1.3.010.010.1-002.pddl,CRASHED:1.68597:1000000000.0:1800.0:-1
ipc-2014-optimal-maintenance-1.3.010.010.2-000.pddl,SAT:0.387295:4.0:1800.0:-1
ipc-2014-optimal-maintenance-1.3.010.010.2-001.pddl,SAT:0.44612:7.0:1800.0:-1
ipc-2014-optimal-maintenance-1.3.010.010.2-002.pddl,SAT:0.434052:6.0:1800.0:-1
ipc-2014-optimal-maintenance-1.3.015.020.1-000.pddl,CRASHED:5.20464:1000000000.0:1800.0:-1
ipc-2014-optimal-maintenance-1.3.015.020.1-001.pddl,CRASHED:15.6233:1000000000.0:1800.0:-1
ipc-2014-optimal-maintenance-1.3.015.020.1-002.pddl,CRASHED:24.368:1000000000.0:1800.0:-1
ipc-2014-optimal-maintenance-1.3.015.020.2-000.pddl,CRASHED:130.686:1000000000.0:1800.0:-1
ipc-2014-optimal-maintenance-1.3.015.020.2-001.pddl,SAT:0.504781:11.0:1800.0:-1
ipc-2014-optimal-maintenance-1.3.015.020.2-002.pddl,SAT:0.499862:9.0:1800.0:-1
ipc-2014-optimal-maintenance-1.3.025.050.1-000.pddl,CRASHED:182.013:1000000000.0:1800.0:-1
ipc-2014-optimal-maintenance-1.3.025.050.1-001.pddl,CRASHED:202.231:1000000000.0:1800.0:-1
ipc-2014-optimal-maintenance-1.3.025.050.1-002.pddl,CRASHED:184.833:1000000000.0:1800.0:-1
ipc-2014-optimal-maintenance-1.3.025.100.1-000.pddl,CRASHED:168.23:1000000000.0:1800.0:-1
ipc-2014-optimal-maintenance-1.3.025.100.1-001.pddl,CRASHED:163.408:1000000000.0:1800.0:-1
ipc-2014-optimal-maintenance-1.3.025.100.1-002.pddl,CRASHED:155.688:1000000000.0:1800.0:-1
ipc-2014-optimal-maintenance-1.3.025.100.2-000.pddl,CRASHED:994.215:1000000000.0:1800.0:-1
ipc-2014-optimal-maintenance-1.3.025.100.2-001.pddl,CRASHED:1145.08:1000000000.0:1800.0:-1
ipc-2014-optimal-maintenance-1.3.025.100.2-002.pddl,CRASHED:992.287:1000000000.0:1800.0:-1
ipc-2014-optimal-openstacks-p20_1.pddl,CRASHED:1240.61:3.0:1800.0:-1
ipc-2014-optimal-openstacks-p20_2.pddl,CRASHED:1346.82:4.0:1800.0:-1
ipc-2014-optimal-openstacks-p20_3.pddl,SAT:31.9227:6.0:1800.0:-1
ipc-2014-optimal-openstacks-p25_1.pddl,CRASHED:1710.69:1000000000.0:1800.0:-1
ipc-2014-optimal-openstacks-p25_3.pddl,CRASHED:1778.22:1000000000.0:1800.0:-1
ipc-2014-optimal-openstacks-p30_1.pddl,CRASHED:1665.27:1000000000.0:1800.0:-1
ipc-2014-optimal-openstacks-p30_2.pddl,CRASHED:1780.92:1000000000.0:1800.0:-1
ipc-2014-optimal-openstacks-p30_3.pddl,CRASHED:1780.26:1000000000.0:1800.0:-1
ipc-2014-optimal-openstacks-p35_1.pddl,CRASHED:1267.21:1000000000.0:1800.0:-1
ipc-2014-optimal-openstacks-p35_2.pddl,CRASHED:1780.72:1000000000.0:1800.0:-1
ipc-2014-optimal-openstacks-p35_3.pddl,CRASHED:1782.69:1000000000.0:1800.0:-1
ipc-2014-optimal-openstacks-p40_1.pddl,CRASHED:1781.39:1000000000.0:1800.0:-1
ipc-2014-optimal-openstacks-p40_2.pddl,CRASHED:1781.18:1000000000.0:1800.0:-1
ipc-2014-optimal-openstacks-p40_3.pddl,CRASHED:1783.25:1000000000.0:1800.0:-1
ipc-2014-optimal-openstacks-p45_1.pddl,CRASHED:1781.93:1000000000.0:1800.0:-1
ipc-2014-optimal-openstacks-p45_2.pddl,CRASHED:1261.85:1000000000.0:1800.0:-1
ipc-2014-optimal-openstacks-p45_3.pddl,CRASHED:1780.04:1000000000.0:1800.0:-1
ipc-2014-optimal-openstacks-p50_1.pddl,CRASHED:1782.27:1000000000.0:1800.0:-1
ipc-2014-optimal-openstacks-p50_2.pddl,CRASHED:1267.08:1000000000.0:1800.0:-1
ipc-2014-optimal-openstacks-p50_3.pddl,CRASHED:1307.5:1000000000.0:1800.0:-1
ipc-2014-optimal-parking-12_7-01.pddl,SAT:176.924:18.0:1800.0:-1
ipc-2014-optimal-parking-12_7-02.pddl,SAT:180.764:18.0:1800.0:-1
ipc-2014-optimal-parking-12_7-03.pddl,SAT:85.6132:17.0:1800.0:-1
ipc-2014-optimal-parking-12_7-04.pddl,SAT:201.085:19.0:1800.0:-1
ipc-2014-optimal-parking-14_8-01.pddl,CRASHED:1789.86:1000000000.0:1800.0:-1
ipc-2014-optimal-parking-14_8-02.pddl,SAT:335.695:22.0:1800.0:-1
ipc-2014-optimal-parking-14_8-03.pddl,SAT:215.39:21.0:1800.0:-1
ipc-2014-optimal-parking-14_8-04.pddl,CRASHED:1782.58:1000000000.0:1800.0:-1
ipc-2014-optimal-parking-16_9-01.pddl,CRASHED:1785.9:1000000000.0:1800.0:-1
ipc-2014-optimal-parking-16_9-02.pddl,CRASHED:1787.57:1000000000.0:1800.0:-1
ipc-2014-optimal-parking-16_9-03.pddl,CRASHED:1787.18:1000000000.0:1800.0:-1
ipc-2014-optimal-parking-16_9-04.pddl,CRASHED:1791.34:1000000000.0:1800.0:-1
ipc-2014-optimal-parking-18_10-01.pddl,CRASHED:159.84:1000000000.0:1800.0:-1
ipc-2014-optimal-parking-18_10-02.pddl,CRASHED:1793.93:1000000000.0:1800.0:-1
ipc-2014-optimal-parking-18_10-03.pddl,CRASHED:1796.01:1000000000.0:1800.0:-1
ipc-2014-optimal-parking-18_10-04.pddl,CRASHED:1312.44:1000000000.0:1800.0:-1
ipc-2014-optimal-parking-20_11-01.pddl,CRASHED:1329.99:1000000000.0:1800.0:-1
ipc-2014-optimal-parking-20_11-02.pddl,CRASHED:307.74:1000000000.0:1800.0:-1
ipc-2014-optimal-parking-20_11-03.pddl,CRASHED:1504.84:1000000000.0:1800.0:-1
ipc-2014-optimal-parking-20_11-04.pddl,TIMEOUT:1801.0:-1.0:1800.0:-1
ipc-2014-optimal-tetris-01-10.pddl,CRASHED:1280.08:1000000000.0:1800.0:-1
ipc-2014-optimal-tetris-01-04.pddl,CRASHED:476.207:1000000000.0:1800.0:-1
ipc-2014-optimal-tetris-01-06.pddl,SAT:248.114:30.0:1800.0:-1
ipc-2014-optimal-tetris-01-08.pddl,CRASHED:42.1466:36.0:1800.0:-1
ipc-2014-optimal-tetris-02-10.pddl,CRASHED:254.85:1000000000.0:1800.0:-1
ipc-2014-optimal-tetris-02-04.pddl,SAT:0.58627:10.0:1800.0:-1
ipc-2014-optimal-tetris-02-06.pddl,SAT:48.1574:30.0:1800.0:-1
ipc-2014-optimal-tetris-02-08.pddl,CRASHED:504.26:1000000000.0:1800.0:-1
ipc-2014-optimal-tetris-03-10.pddl,CRASHED:583.45:1000000000.0:1800.0:-1
ipc-2014-optimal-tetris-03-04.pddl,SAT:19.4585:11.0:1800.0:-1
ipc-2014-optimal-tetris-03-06.pddl,SAT:189.868:21.0:1800.0:-1
ipc-2014-optimal-tetris-03-08.pddl,CRASHED:1671.66:1000000000.0:1800.0:-1
ipc-2014-optimal-tetris-04-10.pddl,CRASHED:471.74:1000000000.0:1800.0:-1
ipc-2014-optimal-tetris-04-04.pddl,CRASHED:275.729:1000000000.0:1800.0:-1
ipc-2014-optimal-tetris-04-06.pddl,SAT:227.868:27.0:1800.0:-1
ipc-2014-optimal-tetris-04-08.pddl,CRASHED:487.04:1000000000.0:1800.0:-1
ipc-2014-optimal-tetris-05-10.pddl,CRASHED:378.97:1000000000.0:1800.0:-1
ipc-2014-optimal-tetris-05-04.pddl,CRASHED:359.81:1000000000.0:1800.0:-1
ipc-2014-optimal-tetris-05-06.pddl,SAT:23.6281:19.0:1800.0:-1
ipc-2014-optimal-tetris-05-08.pddl,CRASHED:667.65:1000000000.0:1800.0:-1
ipc-2014-optimal-tidybot-01.pddl,CRASHED:1647.06:1000000000.0:1800.0:-1
ipc-2014-optimal-tidybot-02.pddl,CRASHED:282.53:35.0:1800.0:-1
ipc-2014-optimal-tidybot-03.pddl,SAT:59.688:30.0:1800.0:-1
ipc-2014-optimal-tidybot-04.pddl,CRASHED:283.73:24.0:1800.0:-1
ipc-2014-optimal-tidybot-05.pddl,CRASHED:1651.73:1000000000.0:1800.0:-1
ipc-2014-optimal-tidybot-06.pddl,CRASHED:1546.04:1000000000.0:1800.0:-1
ipc-2014-optimal-tidybot-07.pddl,CRASHED:1649.79:1000000000.0:1800.0:-1
ipc-2014-optimal-tidybot-08.pddl,SAT:68.3379:25.0:1800.0:-1
ipc-2014-optimal-tidybot-09.pddl,CRASHED:1590.41:1000000000.0:1800.0:-1
ipc-2014-optimal-tidybot-10.pddl,CRASHED:1591.5:1000000000.0:1800.0:-1
ipc-2014-optimal-tidybot-11.pddl,SAT:33.2836:29.0:1800.0:-1
ipc-2014-optimal-tidybot-12.pddl,CRASHED:306.13:35.0:1800.0:-1
ipc-2014-optimal-tidybot-13.pddl,SAT:66.757:30.0:1800.0:-1
ipc-2014-optimal-tidybot-14.pddl,SAT:34.2208:25.0:1800.0:-1
ipc-2014-optimal-tidybot-15.pddl,CRASHED:1650.81:1000000000.0:1800.0:-1
ipc-2014-optimal-tidybot-16.pddl,CRASHED:1645.59:1000000000.0:1800.0:-1
ipc-2014-optimal-tidybot-17.pddl,CRASHED:1645.84:1000000000.0:1800.0:-1
ipc-2014-optimal-tidybot-18.pddl,CRASHED:1642.54:1000000000.0:1800.0:-1
ipc-2014-optimal-tidybot-19.pddl,CRASHED:1645.75:1000000000.0:1800.0:-1
ipc-2014-optimal-tidybot-20.pddl,CRASHED:1546.77:1000000000.0:1800.0:-1
ipc-2014-optimal-transport-01.pddl,SAT:21.7888:148.0:1800.0:-1
ipc-2014-optimal-transport-02.pddl,SAT:27.9467:191.0:1800.0:-1
ipc-2014-optimal-transport-03.pddl,SAT:58.4358:300.0:1800.0:-1
ipc-2014-optimal-transport-04.pddl,CRASHED:1777.73:1000000000.0:1800.0:-1
ipc-2014-optimal-transport-05.pddl,CRASHED:1782.29:1000000000.0:1800.0:-1
ipc-2014-optimal-transport-06.pddl,CRASHED:1782.32:1000000000.0:1800.0:-1
ipc-2014-optimal-transport-07.pddl,SAT:54.1973:967.0:1800.0:-1
ipc-2014-optimal-transport-08.pddl,CRASHED:485.176:1173.0:1800.0:-1
ipc-2014-optimal-transport-09.pddl,CRASHED:1783.51:1000000000.0:1800.0:-1
ipc-2014-optimal-transport-10.pddl,CRASHED:1789.92:1000000000.0:1800.0:-1
ipc-2014-optimal-transport-11.pddl,CRASHED:1275.47:1000000000.0:1800.0:-1
ipc-2014-optimal-transport-12.pddl,CRASHED:1783.37:1000000000.0:1800.0:-1
ipc-2014-optimal-transport-13.pddl,SAT:29.111:594.0:1800.0:-1
ipc-2014-optimal-transport-14.pddl,SAT:280.526:526.0:1800.0:-1
ipc-2014-optimal-transport-15.pddl,CRASHED:1249.63:1000000000.0:1800.0:-1
ipc-2014-optimal-transport-16.pddl,CRASHED:1781.18:1000000000.0:1800.0:-1
ipc-2014-optimal-transport-17.pddl,CRASHED:1239.18:1000000000.0:1800.0:-1
ipc-2014-optimal-transport-18.pddl,CRASHED:1787.92:1000000000.0:1800.0:-1
ipc-2014-optimal-transport-19.pddl,CRASHED:1368.92:1000000000.0:1800.0:-1
ipc-2014-optimal-transport-20.pddl,CRASHED:1782.0:1000000000.0:1800.0:-1
ipc-2014-optimal-visitall-05-10.pddl,CRASHED:1780.24:1000000000.0:1800.0:-1
ipc-2014-optimal-visitall-05-05.pddl,SAT:3.43175:21.0:1800.0:-1
ipc-2014-optimal-visitall-05-06.pddl,SAT:5.40848:25.0:1800.0:-1
ipc-2014-optimal-visitall-05-07.pddl,SAT:80.167:34.0:1800.0:-1
ipc-2014-optimal-visitall-05-08.pddl,CRASHED:847.678:43.0:1800.0:-1
ipc-2014-optimal-visitall-05-09.pddl,CRASHED:1779.4:1000000000.0:1800.0:-1
ipc-2014-optimal-visitall-01-10.pddl,SAT:172.091:99.0:1800.0:-1
ipc-2014-optimal-visitall-01-11.pddl,SAT:171.88:120.0:1800.0:-1
ipc-2014-optimal-visitall-01-12.pddl,SAT:214.956:143.0:1800.0:-1
ipc-2014-optimal-visitall-01-13.pddl,SAT:172.644:168.0:1800.0:-1
ipc-2014-optimal-visitall-01-14.pddl,CRASHED:1683.91:1000000000.0:1800.0:-1
ipc-2014-optimal-visitall-01-15.pddl,CRASHED:1781.55:1000000000.0:1800.0:-1
ipc-2014-optimal-visitall-01-16.pddl,CRASHED:1267.88:1000000000.0:1800.0:-1
ipc-2014-optimal-visitall-01-17.pddl,CRASHED:1780.24:1000000000.0:1800.0:-1
ipc-2014-optimal-visitall-01-18.pddl,CRASHED:1779.45:1000000000.0:1800.0:-1
ipc-2014-optimal-visitall-01-05.pddl,SAT:16.874:24.0:1800.0:-1
ipc-2014-optimal-visitall-01-06.pddl,SAT:171.174:35.0:1800.0:-1
ipc-2014-optimal-visitall-01-07.pddl,SAT:171.294:48.0:1800.0:-1
ipc-2014-optimal-visitall-01-08.pddl,SAT:171.416:63.0:1800.0:-1
ipc-2014-optimal-visitall-01-09.pddl,SAT:171.687:80.0:1800.0:-1
