instance,ipc-2014-optimal-cgamer-bd
ipc-2014-optimal-barman-p433.1.pddl,CRASHED:0.946855:1000000000.0:1800.0:-1
ipc-2014-optimal-barman-p433.2.pddl,CRASHED:0.942856:1000000000.0:1800.0:-1
ipc-2014-optimal-barman-p433.3.pddl,CRASHED:0.944855:1000000000.0:1800.0:-1
ipc-2014-optimal-barman-p435.1.pddl,CRASHED:24.1183:49.0:1800.0:-1
ipc-2014-optimal-barman-p435.2.pddl,CRASHED:38.6851:49.0:1800.0:-1
ipc-2014-optimal-barman-p435.3.pddl,CRASHED:24.2533:49.0:1800.0:-1
ipc-2014-optimal-barman-p443.1.pddl,CRASHED:0.952854:1000000000.0:1800.0:-1
ipc-2014-optimal-barman-p443.2.pddl,CRASHED:0.949854:1000000000.0:1800.0:-1
ipc-2014-optimal-barman-p443.3.pddl,CRASHED:0.952854:1000000000.0:1800.0:-1
ipc-2014-optimal-barman-p536.1.pddl,CRASHED:171.384:62.0:1800.0:-1
ipc-2014-optimal-barman-p536.2.pddl,CRASHED:176.204:62.0:1800.0:-1
ipc-2014-optimal-barman-p536.3.pddl,CRASHED:154.194:62.0:1800.0:-1
ipc-2014-optimal-barman-p638.1.pddl,TIMEOUT:1801.09:-1.0:1800.0:-1
ipc-2014-optimal-barman-p638.2.pddl,CRASHED:1694.73:1000000000.0:1800.0:-1
ipc-2014-optimal-barman-p638.3.pddl,CRASHED:1677.05:1000000000.0:1800.0:-1
ipc-2014-optimal-barman-p739.1.pddl,TIMEOUT:1801.07:-1.0:1800.0:-1
ipc-2014-optimal-barman-p739.2.pddl,TIMEOUT:1801.07:-1.0:1800.0:-1
ipc-2014-optimal-barman-p739.3.pddl,TIMEOUT:1801.07:-1.0:1800.0:-1
ipc-2014-optimal-barman-p839.1.pddl,TIMEOUT:1801.1:-1.0:1800.0:-1
ipc-2014-optimal-barman-p839.2.pddl,CRASHED:1466.46:1000000000.0:1800.0:-1
ipc-2014-optimal-cavediving-01.pddl,CRASHED:43.6834:1000000000.0:1800.0:-1
ipc-2014-optimal-cavediving-01_easy.pddl,CRASHED:29.9634:1000000000.0:1800.0:-1
ipc-2014-optimal-cavediving-02_easy.pddl,CRASHED:29.2126:1000000000.0:1800.0:-1
ipc-2014-optimal-cavediving-03_easy.pddl,CRASHED:29.2705:1000000000.0:1800.0:-1
ipc-2014-optimal-cavediving-04_easy.pddl,CRASHED:29.2506:1000000000.0:1800.0:-1
ipc-2014-optimal-cavediving-05A_easy.pddl,CRASHED:5.82811:1000000000.0:1800.0:-1
ipc-2014-optimal-cavediving-06A_easy.pddl,CRASHED:5.85211:1000000000.0:1800.0:-1
ipc-2014-optimal-cavediving-07_easy.pddl,CRASHED:5.83211:1000000000.0:1800.0:-1
ipc-2014-optimal-cavediving-08_easy.pddl,CRASHED:6.06808:1000000000.0:1800.0:-1
ipc-2014-optimal-cavediving-09_easy.pddl,CRASHED:147.8:1000000000.0:1800.0:-1
ipc-2014-optimal-cavediving-10_easy.pddl,CRASHED:148.09:1000000000.0:1800.0:-1
ipc-2014-optimal-cavediving-11_easy.pddl,CRASHED:144.023:1000000000.0:1800.0:-1
ipc-2014-optimal-cavediving-12_easy.pddl,CRASHED:145.376:1000000000.0:1800.0:-1
ipc-2014-optimal-cavediving-13_easy.pddl,CRASHED:41.6777:1000000000.0:1800.0:-1
ipc-2014-optimal-cavediving-14_easy.pddl,CRASHED:41.4027:1000000000.0:1800.0:-1
ipc-2014-optimal-cavediving-15_easy.pddl,CRASHED:36.8254:1000000000.0:1800.0:-1
ipc-2014-optimal-cavediving-16_easy.pddl,CRASHED:43.7753:1000000000.0:1800.0:-1
ipc-2014-optimal-cavediving-18A_easy.pddl,CRASHED:8.94864:1000000000.0:1800.0:-1
ipc-2014-optimal-cavediving-18_easy.pddl,CRASHED:10.4714:1000000000.0:1800.0:-1
ipc-2014-optimal-cavediving-20A_easy.pddl,CRASHED:9.02163:1000000000.0:1800.0:-1
ipc-2014-optimal-childsnack-01-2.pddl,CRASHED:195.917:21.0:1800.0:-1
ipc-2014-optimal-childsnack-01.pddl,CRASHED:114.509:20.0:1800.0:-1
ipc-2014-optimal-childsnack-02-2.pddl,TIMEOUT:1801.09:-1.0:1800.0:-1
ipc-2014-optimal-childsnack-02.pddl,TIMEOUT:1801.0:-1.0:1800.0:-1
ipc-2014-optimal-childsnack-03-2.pddl,TIMEOUT:1801.09:-1.0:1800.0:-1
ipc-2014-optimal-childsnack-03.pddl,CRASHED:1717.95:1000000000.0:1800.0:-1
ipc-2014-optimal-childsnack-04-2.pddl,TIMEOUT:1801.09:-1.0:1800.0:-1
ipc-2014-optimal-childsnack-04.pddl,CRASHED:1167.93:1000000000.0:1800.0:-1
ipc-2014-optimal-childsnack-05-2.pddl,CRASHED:164.37:1000000000.0:1800.0:-1
ipc-2014-optimal-childsnack-05.pddl,CRASHED:595.26:1000000000.0:1800.0:-1
ipc-2014-optimal-childsnack-06-2.pddl,CRASHED:944.79:1000000000.0:1800.0:-1
ipc-2014-optimal-childsnack-06.pddl,CRASHED:213.54:1000000000.0:1800.0:-1
ipc-2014-optimal-childsnack-07-2.pddl,CRASHED:1282.79:1000000000.0:1800.0:-1
ipc-2014-optimal-childsnack-07.pddl,CRASHED:114.04:1000000000.0:1800.0:-1
ipc-2014-optimal-childsnack-08-2.pddl,CRASHED:370.35:1000000000.0:1800.0:-1
ipc-2014-optimal-childsnack-08.pddl,CRASHED:539.83:1000000000.0:1800.0:-1
ipc-2014-optimal-childsnack-09-2.pddl,CRASHED:1292.75:1000000000.0:1800.0:-1
ipc-2014-optimal-childsnack-09.pddl,CRASHED:1181.4:1000000000.0:1800.0:-1
ipc-2014-optimal-childsnack-10-2.pddl,TIMEOUT:1801.08:-1.0:1800.0:-1
ipc-2014-optimal-childsnack-10.pddl,CRASHED:1716.61:1000000000.0:1800.0:-1
ipc-2014-optimal-citycar-p2-2-2-1-2.pddl,CRASHED:29.0686:46.0:1800.0:-1
ipc-2014-optimal-citycar-p2-2-2-2-1.pddl,CRASHED:25.3731:64.0:1800.0:-1
ipc-2014-optimal-citycar-p2-2-3-1-2.pddl,CRASHED:31.2213:50.0:1800.0:-1
ipc-2014-optimal-citycar-p2-2-3-2-1.pddl,CRASHED:38.7911:48.0:1800.0:-1
ipc-2014-optimal-citycar-p2-2-3-2-2.pddl,CRASHED:44.1743:50.0:1800.0:-1
ipc-2014-optimal-citycar-p2-2-4-1-2.pddl,CRASHED:55.1086:52.0:1800.0:-1
ipc-2014-optimal-citycar-p2-2-4-2-1.pddl,CRASHED:47.0518:52.0:1800.0:-1
ipc-2014-optimal-citycar-p2-2-5-2-2.pddl,CRASHED:273.877:76.0:1800.0:-1
ipc-2014-optimal-citycar-p2-2-6-1-1.pddl,CRASHED:488.24:58.0:1800.0:-1
ipc-2014-optimal-citycar-p2-2-6-2-2.pddl,CRASHED:1377.58:58.0:1800.0:-1
ipc-2014-optimal-citycar-p2-3-2-3-1.pddl,CRASHED:70.6203:68.0:1800.0:-1
ipc-2014-optimal-citycar-p2-3-3-3-1.pddl,CRASHED:74.2977:78.0:1800.0:-1
ipc-2014-optimal-citycar-p2-3-4-3-1.pddl,CRASHED:205.199:82.0:1800.0:-1
ipc-2014-optimal-citycar-p2-3-6-3-2.pddl,TIMEOUT:1801.02:-1.0:1800.0:-1
ipc-2014-optimal-citycar-p3-3-2-2-1.pddl,CRASHED:123.474:70.0:1800.0:-1
ipc-2014-optimal-citycar-p3-3-2-2-2.pddl,CRASHED:197.011:92.0:1800.0:-1
ipc-2014-optimal-citycar-p3-3-2-3-1.pddl,CRASHED:109.413:48.0:1800.0:-1
ipc-2014-optimal-citycar-p3-3-2-3-2.pddl,CRASHED:120.039:70.0:1800.0:-1
ipc-2014-optimal-citycar-p3-3-3-3-1.pddl,CRASHED:1341.54:1000000000.0:1800.0:-1
ipc-2014-optimal-citycar-p3-3-3-3-2.pddl,CRASHED:418.406:76.0:1800.0:-1
ipc-2014-optimal-floortile-p01-4-3-2.pddl,CRASHED:3.22351:56.0:1800.0:-1
ipc-2014-optimal-floortile-p01-4-4-2.pddl,CRASHED:4.41733:68.0:1800.0:-1
ipc-2014-optimal-floortile-p01-5-3-2.pddl,CRASHED:3.37349:63.0:1800.0:-1
ipc-2014-optimal-floortile-p01-5-4-2.pddl,CRASHED:7.15291:91.0:1800.0:-1
ipc-2014-optimal-floortile-p01-5-5-2.pddl,CRASHED:37.3143:111.0:1800.0:-1
ipc-2014-optimal-floortile-p01-6-4-2.pddl,CRASHED:10.9713:104.0:1800.0:-1
ipc-2014-optimal-floortile-p01-6-5-2.pddl,CRASHED:101.42:122.0:1800.0:-1
ipc-2014-optimal-floortile-p02-4-4-2.pddl,CRASHED:4.38633:75.0:1800.0:-1
ipc-2014-optimal-floortile-p02-5-3-2.pddl,CRASHED:3.20851:65.0:1800.0:-1
ipc-2014-optimal-floortile-p02-5-4-2.pddl,CRASHED:7.2479:98.0:1800.0:-1
ipc-2014-optimal-floortile-p02-5-5-2.pddl,CRASHED:31.0913:106.0:1800.0:-1
ipc-2014-optimal-floortile-p02-6-4-2.pddl,CRASHED:9.76551:109.0:1800.0:-1
ipc-2014-optimal-floortile-p02-6-5-2.pddl,CRASHED:101.682:141.0:1800.0:-1
ipc-2014-optimal-floortile-p03-4-3-2.pddl,CRASHED:3.04953:56.0:1800.0:-1
ipc-2014-optimal-floortile-p03-4-4-2.pddl,CRASHED:4.10737:72.0:1800.0:-1
ipc-2014-optimal-floortile-p03-5-3-2.pddl,CRASHED:3.19551:65.0:1800.0:-1
ipc-2014-optimal-floortile-p03-5-4-2.pddl,CRASHED:6.88195:83.0:1800.0:-1
ipc-2014-optimal-floortile-p03-5-5-2.pddl,CRASHED:25.6341:100.0:1800.0:-1
ipc-2014-optimal-floortile-p03-6-4-2.pddl,CRASHED:9.33758:116.0:1800.0:-1
ipc-2014-optimal-floortile-p03-6-5-2.pddl,CRASHED:85.463:130.0:1800.0:-1
ipc-2014-optimal-ged-d-1-2.pddl,CRASHED:1.3348:1000000000.0:1800.0:-1
ipc-2014-optimal-ged-d-1-3.pddl,CRASHED:1.57476:1000000000.0:1800.0:-1
ipc-2014-optimal-ged-d-1-4.pddl,CRASHED:1.3238:1000000000.0:1800.0:-1
ipc-2014-optimal-ged-d-1-8.pddl,CRASHED:1.71174:1000000000.0:1800.0:-1
ipc-2014-optimal-ged-d-2-1.pddl,CRASHED:1.3248:1000000000.0:1800.0:-1
ipc-2014-optimal-ged-d-2-3.pddl,CRASHED:1.47478:1000000000.0:1800.0:-1
ipc-2014-optimal-ged-d-2-4.pddl,CRASHED:1.35379:1000000000.0:1800.0:-1
ipc-2014-optimal-ged-d-2-8.pddl,CRASHED:2.14367:1000000000.0:1800.0:-1
ipc-2014-optimal-ged-d-3-1.pddl,CRASHED:1.53877:1000000000.0:1800.0:-1
ipc-2014-optimal-ged-d-3-2.pddl,CRASHED:1.54576:1000000000.0:1800.0:-1
ipc-2014-optimal-ged-d-3-4.pddl,CRASHED:1.73673:1000000000.0:1800.0:-1
ipc-2014-optimal-ged-d-4-2.pddl,CRASHED:1.66175:1000000000.0:1800.0:-1
ipc-2014-optimal-ged-d-4-3.pddl,CRASHED:1.80072:1000000000.0:1800.0:-1
ipc-2014-optimal-ged-d-4-8.pddl,CRASHED:2.06369:1000000000.0:1800.0:-1
ipc-2014-optimal-ged-d-7-5.pddl,CRASHED:1.89971:1000000000.0:1800.0:-1
ipc-2014-optimal-ged-d-7-6.pddl,CRASHED:1.67574:1000000000.0:1800.0:-1
ipc-2014-optimal-ged-d-8-1.pddl,CRASHED:1.67274:1000000000.0:1800.0:-1
ipc-2014-optimal-ged-d-8-2.pddl,CRASHED:2.03569:1000000000.0:1800.0:-1
ipc-2014-optimal-ged-d-8-4.pddl,CRASHED:2.04769:1000000000.0:1800.0:-1
ipc-2014-optimal-ged-d-8-9.pddl,CRASHED:2.06669:1000000000.0:1800.0:-1
ipc-2014-optimal-hiking-1-2-3.pddl,CRASHED:2.23866:11.0:1800.0:-1
ipc-2014-optimal-hiking-1-2-4.pddl,CRASHED:2.48662:17.0:1800.0:-1
ipc-2014-optimal-hiking-1-2-5.pddl,CRASHED:2.67159:25.0:1800.0:-1
ipc-2014-optimal-hiking-1-2-7.pddl,CRASHED:4.69:38.0:1800.0:-1
ipc-2014-optimal-hiking-1-2-8.pddl,CRASHED:4.79927:45.0:1800.0:-1
ipc-2014-optimal-hiking-2-2-3.pddl,CRASHED:3.3055:10.0:1800.0:-1
ipc-2014-optimal-hiking-2-2-4.pddl,CRASHED:7.10192:16.0:1800.0:-1
ipc-2014-optimal-hiking-2-2-5.pddl,CRASHED:25.2962:22.0:1800.0:-1
ipc-2014-optimal-hiking-2-2-6.pddl,CRASHED:106.346:30.0:1800.0:-1
ipc-2014-optimal-hiking-2-2-7.pddl,CRASHED:406.751:34.0:1800.0:-1
ipc-2014-optimal-hiking-2-2-8.pddl,CRASHED:1343.46:42.0:1800.0:-1
ipc-2014-optimal-hiking-2-3-4.pddl,CRASHED:12.1821:17.0:1800.0:-1
ipc-2014-optimal-hiking-2-3-5.pddl,CRASHED:106.195:24.0:1800.0:-1
ipc-2014-optimal-hiking-2-3-6.pddl,CRASHED:803.492:28.0:1800.0:-1
ipc-2014-optimal-hiking-2-3-7.pddl,TIMEOUT:1801.06:-1.0:1800.0:-1
ipc-2014-optimal-hiking-2-4-3.pddl,CRASHED:6.67698:10.0:1800.0:-1
ipc-2014-optimal-hiking-2-4-4.pddl,CRASHED:16.3595:17.0:1800.0:-1
ipc-2014-optimal-hiking-2-4-5.pddl,CRASHED:171.546:23.0:1800.0:-1
ipc-2014-optimal-hiking-2-4-6.pddl,TIMEOUT:1801.03:-1.0:1800.0:-1
ipc-2014-optimal-hiking-2-4-7.pddl,CRASHED:9.16:1000000000.0:1800.0:-1
ipc-2014-optimal-maintenance-1.3.010.010.1-001.pddl,CRASHED:1.08083:1000000000.0:1800.0:-1
ipc-2014-optimal-maintenance-1.3.010.010.1-002.pddl,CRASHED:0.943855:1000000000.0:1800.0:-1
ipc-2014-optimal-maintenance-1.3.010.010.2-000.pddl,CRASHED:1.9697:4.0:1800.0:-1
ipc-2014-optimal-maintenance-1.3.010.010.2-001.pddl,CRASHED:2.00569:7.0:1800.0:-1
ipc-2014-optimal-maintenance-1.3.010.010.2-002.pddl,CRASHED:2.02769:6.0:1800.0:-1
ipc-2014-optimal-maintenance-1.3.015.020.1-000.pddl,CRASHED:1.07384:1000000000.0:1800.0:-1
ipc-2014-optimal-maintenance-1.3.015.020.1-001.pddl,CRASHED:1.11983:1000000000.0:1800.0:-1
ipc-2014-optimal-maintenance-1.3.015.020.1-002.pddl,CRASHED:1.2828:1000000000.0:1800.0:-1
ipc-2014-optimal-maintenance-1.3.015.020.2-000.pddl,CRASHED:1.2998:1000000000.0:1800.0:-1
ipc-2014-optimal-maintenance-1.3.015.020.2-001.pddl,CRASHED:2.6006:11.0:1800.0:-1
ipc-2014-optimal-maintenance-1.3.015.020.2-002.pddl,CRASHED:2.51162:9.0:1800.0:-1
ipc-2014-optimal-maintenance-1.3.025.050.1-000.pddl,CRASHED:1.40179:1000000000.0:1800.0:-1
ipc-2014-optimal-maintenance-1.3.025.050.1-001.pddl,CRASHED:1.41378:1000000000.0:1800.0:-1
ipc-2014-optimal-maintenance-1.3.025.050.1-002.pddl,CRASHED:1.40179:1000000000.0:1800.0:-1
ipc-2014-optimal-maintenance-1.3.025.100.1-000.pddl,CRASHED:1.67074:1000000000.0:1800.0:-1
ipc-2014-optimal-maintenance-1.3.025.100.1-001.pddl,CRASHED:1.66275:1000000000.0:1800.0:-1
ipc-2014-optimal-maintenance-1.3.025.100.1-002.pddl,CRASHED:1.66675:1000000000.0:1800.0:-1
ipc-2014-optimal-maintenance-1.3.025.100.2-000.pddl,CRASHED:1.87471:1000000000.0:1800.0:-1
ipc-2014-optimal-maintenance-1.3.025.100.2-001.pddl,CRASHED:1.82972:1000000000.0:1800.0:-1
ipc-2014-optimal-maintenance-1.3.025.100.2-002.pddl,CRASHED:1.86472:1000000000.0:1800.0:-1
ipc-2014-optimal-openstacks-p20_1.pddl,CRASHED:4.45332:3.0:1800.0:-1
ipc-2014-optimal-openstacks-p20_2.pddl,CRASHED:5.72713:4.0:1800.0:-1
ipc-2014-optimal-openstacks-p20_3.pddl,CRASHED:7.04593:6.0:1800.0:-1
ipc-2014-optimal-openstacks-p25_1.pddl,CRASHED:8.97263:4.0:1800.0:-1
ipc-2014-optimal-openstacks-p25_3.pddl,CRASHED:17.2134:9.0:1800.0:-1
ipc-2014-optimal-openstacks-p30_1.pddl,CRASHED:12.4831:4.0:1800.0:-1
ipc-2014-optimal-openstacks-p30_2.pddl,CRASHED:13.6969:4.0:1800.0:-1
ipc-2014-optimal-openstacks-p30_3.pddl,CRASHED:20.8948:12.0:1800.0:-1
ipc-2014-optimal-openstacks-p35_1.pddl,CRASHED:17.6203:4.0:1800.0:-1
ipc-2014-optimal-openstacks-p35_2.pddl,CRASHED:21.4657:5.0:1800.0:-1
ipc-2014-optimal-openstacks-p35_3.pddl,CRASHED:279.041:14.0:1800.0:-1
ipc-2014-optimal-openstacks-p40_1.pddl,CRASHED:20.5359:3.0:1800.0:-1
ipc-2014-optimal-openstacks-p40_2.pddl,CRASHED:20.8688:4.0:1800.0:-1
ipc-2014-optimal-openstacks-p40_3.pddl,CRASHED:257.797:15.0:1800.0:-1
ipc-2014-optimal-openstacks-p45_1.pddl,CRASHED:23.3035:4.0:1800.0:-1
ipc-2014-optimal-openstacks-p45_2.pddl,CRASHED:27.7048:5.0:1800.0:-1
ipc-2014-optimal-openstacks-p45_3.pddl,CRASHED:418.823:19.0:1800.0:-1
ipc-2014-optimal-openstacks-p50_1.pddl,CRASHED:27.8338:4.0:1800.0:-1
ipc-2014-optimal-openstacks-p50_2.pddl,CRASHED:27.2629:5.0:1800.0:-1
ipc-2014-optimal-openstacks-p50_3.pddl,TIMEOUT:1801.01:-1.0:1800.0:-1
ipc-2014-optimal-parking-12_7-01.pddl,CRASHED:845.56:18.0:1800.0:-1
ipc-2014-optimal-parking-12_7-02.pddl,CRASHED:1086.25:18.0:1800.0:-1
ipc-2014-optimal-parking-12_7-03.pddl,CRASHED:527.638:17.0:1800.0:-1
ipc-2014-optimal-parking-12_7-04.pddl,CRASHED:1348.55:1000000000.0:1800.0:-1
ipc-2014-optimal-parking-14_8-01.pddl,CRASHED:1041.17:1000000000.0:1800.0:-1
ipc-2014-optimal-parking-14_8-02.pddl,CRASHED:1127.56:1000000000.0:1800.0:-1
ipc-2014-optimal-parking-14_8-03.pddl,TIMEOUT:1801.04:-1.0:1800.0:-1
ipc-2014-optimal-parking-14_8-04.pddl,CRASHED:1477.27:1000000000.0:1800.0:-1
ipc-2014-optimal-parking-16_9-01.pddl,CRASHED:50.17:1000000000.0:1800.0:-1
ipc-2014-optimal-parking-16_9-02.pddl,CRASHED:1284.84:1000000000.0:1800.0:-1
ipc-2014-optimal-parking-16_9-03.pddl,TIMEOUT:1801.01:-1.0:1800.0:-1
ipc-2014-optimal-parking-16_9-04.pddl,TIMEOUT:1801.03:-1.0:1800.0:-1
ipc-2014-optimal-parking-18_10-01.pddl,CRASHED:1628.46:1000000000.0:1800.0:-1
ipc-2014-optimal-parking-18_10-02.pddl,CRASHED:136.12:1000000000.0:1800.0:-1
ipc-2014-optimal-parking-18_10-03.pddl,CRASHED:1238.87:1000000000.0:1800.0:-1
ipc-2014-optimal-parking-18_10-04.pddl,CRASHED:1207.14:1000000000.0:1800.0:-1
ipc-2014-optimal-parking-20_11-01.pddl,TIMEOUT:1801.06:-1.0:1800.0:-1
ipc-2014-optimal-parking-20_11-02.pddl,TIMEOUT:1801.01:-1.0:1800.0:-1
ipc-2014-optimal-parking-20_11-03.pddl,TIMEOUT:1801.08:-1.0:1800.0:-1
ipc-2014-optimal-parking-20_11-04.pddl,TIMEOUT:1801.08:-1.0:1800.0:-1
ipc-2014-optimal-tetris-01-10.pddl,CRASHED:1025.58:1000000000.0:1800.0:-1
ipc-2014-optimal-tetris-01-04.pddl,CRASHED:13.332:1000000000.0:1800.0:-1
ipc-2014-optimal-tetris-01-06.pddl,CRASHED:112.682:30.0:1800.0:-1
ipc-2014-optimal-tetris-01-08.pddl,CRASHED:34.6827:36.0:1800.0:-1
ipc-2014-optimal-tetris-02-10.pddl,CRASHED:961.27:1000000000.0:1800.0:-1
ipc-2014-optimal-tetris-02-04.pddl,CRASHED:8.5607:10.0:1800.0:-1
ipc-2014-optimal-tetris-02-06.pddl,CRASHED:31.5152:30.0:1800.0:-1
ipc-2014-optimal-tetris-02-08.pddl,CRASHED:443.536:39.0:1800.0:-1
ipc-2014-optimal-tetris-03-10.pddl,TIMEOUT:1801.01:-1.0:1800.0:-1
ipc-2014-optimal-tetris-03-04.pddl,CRASHED:6.66798:11.0:1800.0:-1
ipc-2014-optimal-tetris-03-06.pddl,CRASHED:53.1229:21.0:1800.0:-1
ipc-2014-optimal-tetris-03-08.pddl,CRASHED:72.8449:48.0:1800.0:-1
ipc-2014-optimal-tetris-04-10.pddl,CRASHED:1083.08:1000000000.0:1800.0:-1
ipc-2014-optimal-tetris-04-04.pddl,CRASHED:11.7972:1000000000.0:1800.0:-1
ipc-2014-optimal-tetris-04-06.pddl,CRASHED:89.7804:27.0:1800.0:-1
ipc-2014-optimal-tetris-04-08.pddl,CRASHED:43.56:1000000000.0:1800.0:-1
ipc-2014-optimal-tetris-05-10.pddl,CRASHED:735.165:66.0:1800.0:-1
ipc-2014-optimal-tetris-05-04.pddl,CRASHED:10.5764:1000000000.0:1800.0:-1
ipc-2014-optimal-tetris-05-06.pddl,CRASHED:12.929:19.0:1800.0:-1
ipc-2014-optimal-tetris-05-08.pddl,TIMEOUT:1801.04:-1.0:1800.0:-1
ipc-2014-optimal-tidybot-01.pddl,CRASHED:507.64:1000000000.0:1800.0:-1
ipc-2014-optimal-tidybot-02.pddl,CRASHED:407.532:35.0:1800.0:-1
ipc-2014-optimal-tidybot-03.pddl,CRASHED:136.611:30.0:1800.0:-1
ipc-2014-optimal-tidybot-04.pddl,CRASHED:307.623:24.0:1800.0:-1
ipc-2014-optimal-tidybot-05.pddl,CRASHED:1166.59:1000000000.0:1800.0:-1
ipc-2014-optimal-tidybot-06.pddl,CRASHED:821.241:63.0:1800.0:-1
ipc-2014-optimal-tidybot-07.pddl,CRASHED:148.381:38.0:1800.0:-1
ipc-2014-optimal-tidybot-08.pddl,CRASHED:256.747:25.0:1800.0:-1
ipc-2014-optimal-tidybot-09.pddl,CRASHED:1093.12:1000000000.0:1800.0:-1
ipc-2014-optimal-tidybot-10.pddl,CRASHED:1214.8:47.0:1800.0:-1
ipc-2014-optimal-tidybot-11.pddl,CRASHED:159.925:29.0:1800.0:-1
ipc-2014-optimal-tidybot-12.pddl,CRASHED:406.588:35.0:1800.0:-1
ipc-2014-optimal-tidybot-13.pddl,CRASHED:222.324:30.0:1800.0:-1
ipc-2014-optimal-tidybot-14.pddl,CRASHED:478.171:25.0:1800.0:-1
ipc-2014-optimal-tidybot-15.pddl,CRASHED:818.27:1000000000.0:1800.0:-1
ipc-2014-optimal-tidybot-16.pddl,CRASHED:1413.9:1000000000.0:1800.0:-1
ipc-2014-optimal-tidybot-17.pddl,CRASHED:99.2229:40.0:1800.0:-1
ipc-2014-optimal-tidybot-18.pddl,CRASHED:224.545:44.0:1800.0:-1
ipc-2014-optimal-tidybot-19.pddl,CRASHED:853.76:1000000000.0:1800.0:-1
ipc-2014-optimal-tidybot-20.pddl,CRASHED:107.368:46.0:1800.0:-1
ipc-2014-optimal-transport-01.pddl,CRASHED:2.89056:148.0:1800.0:-1
ipc-2014-optimal-transport-02.pddl,CRASHED:5.77512:191.0:1800.0:-1
ipc-2014-optimal-transport-03.pddl,CRASHED:11.5182:300.0:1800.0:-1
ipc-2014-optimal-transport-04.pddl,CRASHED:517.629:250.0:1800.0:-1
ipc-2014-optimal-transport-05.pddl,CRASHED:1066.53:1000000000.0:1800.0:-1
ipc-2014-optimal-transport-06.pddl,CRASHED:4.87:1000000000.0:1800.0:-1
ipc-2014-optimal-transport-07.pddl,CRASHED:9.13461:967.0:1800.0:-1
ipc-2014-optimal-transport-08.pddl,CRASHED:771.846:1173.0:1800.0:-1
ipc-2014-optimal-transport-09.pddl,TIMEOUT:1801.03:-1.0:1800.0:-1
ipc-2014-optimal-transport-10.pddl,TIMEOUT:1801.06:-1.0:1800.0:-1
ipc-2014-optimal-transport-11.pddl,CRASHED:1331.79:1000000000.0:1800.0:-1
ipc-2014-optimal-transport-12.pddl,CRASHED:1639.61:1000000000.0:1800.0:-1
ipc-2014-optimal-transport-13.pddl,CRASHED:7.05493:594.0:1800.0:-1
ipc-2014-optimal-transport-14.pddl,CRASHED:78.631:526.0:1800.0:-1
ipc-2014-optimal-transport-15.pddl,CRASHED:1624.8:753.0:1800.0:-1
ipc-2014-optimal-transport-16.pddl,TIMEOUT:1801.05:-1.0:1800.0:-1
ipc-2014-optimal-transport-17.pddl,CRASHED:1492.03:1000000000.0:1800.0:-1
ipc-2014-optimal-transport-18.pddl,TIMEOUT:1801.05:-1.0:1800.0:-1
ipc-2014-optimal-transport-19.pddl,CRASHED:1534.51:1000000000.0:1800.0:-1
ipc-2014-optimal-transport-20.pddl,CRASHED:1651.71:1000000000.0:1800.0:-1
ipc-2014-optimal-visitall-05-10.pddl,CRASHED:691.41:1000000000.0:1800.0:-1
ipc-2014-optimal-visitall-05-05.pddl,CRASHED:2.77058:21.0:1800.0:-1
ipc-2014-optimal-visitall-05-06.pddl,CRASHED:2.44163:25.0:1800.0:-1
ipc-2014-optimal-visitall-05-07.pddl,CRASHED:7.52385:34.0:1800.0:-1
ipc-2014-optimal-visitall-05-08.pddl,CRASHED:120.106:43.0:1800.0:-1
ipc-2014-optimal-visitall-05-09.pddl,CRASHED:516.76:1000000000.0:1800.0:-1
ipc-2014-optimal-visitall-01-10.pddl,CRASHED:498.82:1000000000.0:1800.0:-1
ipc-2014-optimal-visitall-01-11.pddl,CRASHED:707.41:1000000000.0:1800.0:-1
ipc-2014-optimal-visitall-01-12.pddl,CRASHED:669.87:1000000000.0:1800.0:-1
ipc-2014-optimal-visitall-01-13.pddl,CRASHED:932.46:1000000000.0:1800.0:-1
ipc-2014-optimal-visitall-01-14.pddl,CRASHED:1004.68:1000000000.0:1800.0:-1
ipc-2014-optimal-visitall-01-15.pddl,CRASHED:867.26:1000000000.0:1800.0:-1
ipc-2014-optimal-visitall-01-16.pddl,CRASHED:1029.09:1000000000.0:1800.0:-1
ipc-2014-optimal-visitall-01-17.pddl,CRASHED:916.91:1000000000.0:1800.0:-1
ipc-2014-optimal-visitall-01-18.pddl,CRASHED:12.31:1000000000.0:1800.0:-1
ipc-2014-optimal-visitall-01-05.pddl,CRASHED:3.99039:24.0:1800.0:-1
ipc-2014-optimal-visitall-01-06.pddl,CRASHED:402.704:35.0:1800.0:-1
ipc-2014-optimal-visitall-01-07.pddl,CRASHED:461.04:1000000000.0:1800.0:-1
ipc-2014-optimal-visitall-01-08.pddl,CRASHED:460.86:1000000000.0:1800.0:-1
ipc-2014-optimal-visitall-01-09.pddl,CRASHED:580.2:1000000000.0:1800.0:-1
