instance,ipc-2014-optimal-rida-fixed
ipc-2014-optimal-barman-p433.1.pddl,CRASHED:0.307953:1000000000.0:1800.0:-1
ipc-2014-optimal-barman-p433.2.pddl,CRASHED:0.368943:1000000000.0:1800.0:-1
ipc-2014-optimal-barman-p433.3.pddl,CRASHED:0.292955:1000000000.0:1800.0:-1
ipc-2014-optimal-barman-p435.1.pddl,TIMEOUT:1801.07:-1.0:1800.0:-1
ipc-2014-optimal-barman-p435.2.pddl,TIMEOUT:1801.03:-1.0:1800.0:-1
ipc-2014-optimal-barman-p435.3.pddl,CRASHED:699.03:1000000000.0:1800.0:-1
ipc-2014-optimal-barman-p443.1.pddl,CRASHED:0.295954:1000000000.0:1800.0:-1
ipc-2014-optimal-barman-p443.2.pddl,CRASHED:0.334948:1000000000.0:1800.0:-1
ipc-2014-optimal-barman-p443.3.pddl,CRASHED:0.287956:1000000000.0:1800.0:-1
ipc-2014-optimal-barman-p536.1.pddl,CRASHED:495.55:1000000000.0:1800.0:-1
ipc-2014-optimal-barman-p536.2.pddl,CRASHED:488.11:1000000000.0:1800.0:-1
ipc-2014-optimal-barman-p536.3.pddl,CRASHED:486.64:1000000000.0:1800.0:-1
ipc-2014-optimal-barman-p638.1.pddl,CRASHED:509.13:1000000000.0:1800.0:-1
ipc-2014-optimal-barman-p638.2.pddl,TIMEOUT:1801.04:-1.0:1800.0:-1
ipc-2014-optimal-barman-p638.3.pddl,TIMEOUT:1801.0:-1.0:1800.0:-1
ipc-2014-optimal-barman-p739.1.pddl,CRASHED:479.26:1000000000.0:1800.0:-1
ipc-2014-optimal-barman-p739.2.pddl,CRASHED:476.76:1000000000.0:1800.0:-1
ipc-2014-optimal-barman-p739.3.pddl,TIMEOUT:1801.04:-1.0:1800.0:-1
ipc-2014-optimal-barman-p839.1.pddl,CRASHED:496.32:1000000000.0:1800.0:-1
ipc-2014-optimal-barman-p839.2.pddl,CRASHED:466.17:1000000000.0:1800.0:-1
ipc-2014-optimal-cavediving-01.pddl,CRASHED:1.60276:1000000000.0:1800.0:-1
ipc-2014-optimal-cavediving-01_easy.pddl,CRASHED:1.12583:1000000000.0:1800.0:-1
ipc-2014-optimal-cavediving-02_easy.pddl,CRASHED:1.13283:1000000000.0:1800.0:-1
ipc-2014-optimal-cavediving-03_easy.pddl,CRASHED:1.12483:1000000000.0:1800.0:-1
ipc-2014-optimal-cavediving-04_easy.pddl,CRASHED:1.12283:1000000000.0:1800.0:-1
ipc-2014-optimal-cavediving-05A_easy.pddl,CRASHED:0.330949:1000000000.0:1800.0:-1
ipc-2014-optimal-cavediving-06A_easy.pddl,CRASHED:0.318951:1000000000.0:1800.0:-1
ipc-2014-optimal-cavediving-07_easy.pddl,SAT:273.442:131.0:1800.0:-1
ipc-2014-optimal-cavediving-08_easy.pddl,CRASHED:0.330948:1000000000.0:1800.0:-1
ipc-2014-optimal-cavediving-09_easy.pddl,CRASHED:5.22221:1000000000.0:1800.0:-1
ipc-2014-optimal-cavediving-10_easy.pddl,CRASHED:4.96624:1000000000.0:1800.0:-1
ipc-2014-optimal-cavediving-11_easy.pddl,CRASHED:5.2322:1000000000.0:1800.0:-1
ipc-2014-optimal-cavediving-12_easy.pddl,CRASHED:5.2602:1000000000.0:1800.0:-1
ipc-2014-optimal-cavediving-13_easy.pddl,CRASHED:1.53077:1000000000.0:1800.0:-1
ipc-2014-optimal-cavediving-14_easy.pddl,CRASHED:1.54377:1000000000.0:1800.0:-1
ipc-2014-optimal-cavediving-15_easy.pddl,CRASHED:1.3078:1000000000.0:1800.0:-1
ipc-2014-optimal-cavediving-16_easy.pddl,CRASHED:1.59376:1000000000.0:1800.0:-1
ipc-2014-optimal-cavediving-18A_easy.pddl,SAT:216.269:131.0:1800.0:-1
ipc-2014-optimal-cavediving-18_easy.pddl,SAT:261.175:131.0:1800.0:-1
ipc-2014-optimal-cavediving-20A_easy.pddl,CRASHED:0.433933:1000000000.0:1800.0:-1
ipc-2014-optimal-childsnack-01-2.pddl,TIMEOUT:1801.06:-1.0:1800.0:-1
ipc-2014-optimal-childsnack-01.pddl,TIMEOUT:1801.08:-1.0:1800.0:-1
ipc-2014-optimal-childsnack-02-2.pddl,TIMEOUT:1801.09:-1.0:1800.0:-1
ipc-2014-optimal-childsnack-02.pddl,TIMEOUT:1801.08:-1.0:1800.0:-1
ipc-2014-optimal-childsnack-03-2.pddl,TIMEOUT:1801.03:-1.0:1800.0:-1
ipc-2014-optimal-childsnack-03.pddl,TIMEOUT:1801.07:-1.0:1800.0:-1
ipc-2014-optimal-childsnack-04-2.pddl,TIMEOUT:1801.06:-1.0:1800.0:-1
ipc-2014-optimal-childsnack-04.pddl,TIMEOUT:1801.02:-1.0:1800.0:-1
ipc-2014-optimal-childsnack-05-2.pddl,TIMEOUT:1801.03:-1.0:1800.0:-1
ipc-2014-optimal-childsnack-05.pddl,TIMEOUT:1801.02:-1.0:1800.0:-1
ipc-2014-optimal-childsnack-06-2.pddl,TIMEOUT:1801.08:-1.0:1800.0:-1
ipc-2014-optimal-childsnack-06.pddl,TIMEOUT:1801.01:-1.0:1800.0:-1
ipc-2014-optimal-childsnack-07-2.pddl,TIMEOUT:1801.05:-1.0:1800.0:-1
ipc-2014-optimal-childsnack-07.pddl,TIMEOUT:1801.04:-1.0:1800.0:-1
ipc-2014-optimal-childsnack-08-2.pddl,TIMEOUT:1801.01:-1.0:1800.0:-1
ipc-2014-optimal-childsnack-08.pddl,TIMEOUT:1801.04:-1.0:1800.0:-1
ipc-2014-optimal-childsnack-09-2.pddl,TIMEOUT:1801.01:-1.0:1800.0:-1
ipc-2014-optimal-childsnack-09.pddl,TIMEOUT:1801.04:-1.0:1800.0:-1
ipc-2014-optimal-childsnack-10-2.pddl,TIMEOUT:1801.06:-1.0:1800.0:-1
ipc-2014-optimal-childsnack-10.pddl,TIMEOUT:1801.08:-1.0:1800.0:-1
ipc-2014-optimal-citycar-p2-2-2-1-2.pddl,SAT:1.63575:46.0:1800.0:-1
ipc-2014-optimal-citycar-p2-2-2-2-1.pddl,SAT:2.11668:64.0:1800.0:-1
ipc-2014-optimal-citycar-p2-2-3-1-2.pddl,SAT:2.36064:50.0:1800.0:-1
ipc-2014-optimal-citycar-p2-2-3-2-1.pddl,SAT:2.17267:48.0:1800.0:-1
ipc-2014-optimal-citycar-p2-2-3-2-2.pddl,SAT:2.36764:50.0:1800.0:-1
ipc-2014-optimal-citycar-p2-2-4-1-2.pddl,SAT:5.78812:52.0:1800.0:-1
ipc-2014-optimal-citycar-p2-2-4-2-1.pddl,SAT:5.86311:52.0:1800.0:-1
ipc-2014-optimal-citycar-p2-2-5-2-2.pddl,SAT:208.296:76.0:1800.0:-1
ipc-2014-optimal-citycar-p2-2-6-1-1.pddl,SAT:157.477:58.0:1800.0:-1
ipc-2014-optimal-citycar-p2-2-6-2-2.pddl,SAT:159.661:58.0:1800.0:-1
ipc-2014-optimal-citycar-p2-3-2-3-1.pddl,SAT:7.98779:68.0:1800.0:-1
ipc-2014-optimal-citycar-p2-3-3-3-1.pddl,SAT:53.1079:78.0:1800.0:-1
ipc-2014-optimal-citycar-p2-3-4-3-1.pddl,SAT:263.172:82.0:1800.0:-1
ipc-2014-optimal-citycar-p2-3-6-3-2.pddl,TIMEOUT:1801.03:-1.0:1800.0:-1
ipc-2014-optimal-citycar-p3-3-2-2-1.pddl,SAT:202.495:70.0:1800.0:-1
ipc-2014-optimal-citycar-p3-3-2-2-2.pddl,CRASHED:1445.39:1000000000.0:1800.0:-1
ipc-2014-optimal-citycar-p3-3-2-3-1.pddl,SAT:7.57685:48.0:1800.0:-1
ipc-2014-optimal-citycar-p3-3-2-3-2.pddl,SAT:165.238:70.0:1800.0:-1
ipc-2014-optimal-citycar-p3-3-3-3-1.pddl,TIMEOUT:1801.07:-1.0:1800.0:-1
ipc-2014-optimal-citycar-p3-3-3-3-2.pddl,CRASHED:1506.62:76.0:1800.0:-1
ipc-2014-optimal-floortile-p01-4-3-2.pddl,SAT:247.191:56.0:1800.0:-1
ipc-2014-optimal-floortile-p01-4-4-2.pddl,SAT:1318.0:68.0:1800.0:-1
ipc-2014-optimal-floortile-p01-5-3-2.pddl,SAT:400.962:63.0:1800.0:-1
ipc-2014-optimal-floortile-p01-5-4-2.pddl,TIMEOUT:1801.03:-1.0:1800.0:-1
ipc-2014-optimal-floortile-p01-5-5-2.pddl,TIMEOUT:1801.09:-1.0:1800.0:-1
ipc-2014-optimal-floortile-p01-6-4-2.pddl,TIMEOUT:1801.01:-1.0:1800.0:-1
ipc-2014-optimal-floortile-p01-6-5-2.pddl,TIMEOUT:1801.03:-1.0:1800.0:-1
ipc-2014-optimal-floortile-p02-4-4-2.pddl,TIMEOUT:1801.03:-1.0:1800.0:-1
ipc-2014-optimal-floortile-p02-5-3-2.pddl,SAT:474.697:65.0:1800.0:-1
ipc-2014-optimal-floortile-p02-5-4-2.pddl,TIMEOUT:1801.06:-1.0:1800.0:-1
ipc-2014-optimal-floortile-p02-5-5-2.pddl,TIMEOUT:1801.05:-1.0:1800.0:-1
ipc-2014-optimal-floortile-p02-6-4-2.pddl,TIMEOUT:1801.07:-1.0:1800.0:-1
ipc-2014-optimal-floortile-p02-6-5-2.pddl,TIMEOUT:1801.06:-1.0:1800.0:-1
ipc-2014-optimal-floortile-p03-4-3-2.pddl,SAT:257.455:56.0:1800.0:-1
ipc-2014-optimal-floortile-p03-4-4-2.pddl,TIMEOUT:1801.05:-1.0:1800.0:-1
ipc-2014-optimal-floortile-p03-5-3-2.pddl,SAT:491.552:65.0:1800.0:-1
ipc-2014-optimal-floortile-p03-5-4-2.pddl,TIMEOUT:1801.02:-1.0:1800.0:-1
ipc-2014-optimal-floortile-p03-5-5-2.pddl,TIMEOUT:1801.06:-1.0:1800.0:-1
ipc-2014-optimal-floortile-p03-6-4-2.pddl,TIMEOUT:1801.09:-1.0:1800.0:-1
ipc-2014-optimal-floortile-p03-6-5-2.pddl,TIMEOUT:1801.07:-1.0:1800.0:-1
ipc-2014-optimal-ged-d-1-2.pddl,SAT:48.5566:1.0:1800.0:-1
ipc-2014-optimal-ged-d-1-3.pddl,SAT:193.565:4.0:1800.0:-1
ipc-2014-optimal-ged-d-1-4.pddl,SAT:48.5906:1.0:1800.0:-1
ipc-2014-optimal-ged-d-1-8.pddl,SAT:277.65:4.0:1800.0:-1
ipc-2014-optimal-ged-d-2-1.pddl,SAT:48.4236:1.0:1800.0:-1
ipc-2014-optimal-ged-d-2-3.pddl,SAT:136.429:3.0:1800.0:-1
ipc-2014-optimal-ged-d-2-4.pddl,SAT:125.955:2.0:1800.0:-1
ipc-2014-optimal-ged-d-2-8.pddl,TIMEOUT:1801.03:-1.0:1800.0:-1
ipc-2014-optimal-ged-d-3-1.pddl,SAT:228.762:4.0:1800.0:-1
ipc-2014-optimal-ged-d-3-2.pddl,SAT:136.171:3.0:1800.0:-1
ipc-2014-optimal-ged-d-3-4.pddl,SAT:283.791:5.0:1800.0:-1
ipc-2014-optimal-ged-d-4-2.pddl,SAT:121.212:2.0:1800.0:-1
ipc-2014-optimal-ged-d-4-3.pddl,SAT:317.334:5.0:1800.0:-1
ipc-2014-optimal-ged-d-4-8.pddl,SAT:303.949:5.0:1800.0:-1
ipc-2014-optimal-ged-d-7-5.pddl,SAT:277.619:4.0:1800.0:-1
ipc-2014-optimal-ged-d-7-6.pddl,SAT:218.736:4.0:1800.0:-1
ipc-2014-optimal-ged-d-8-1.pddl,SAT:279.592:4.0:1800.0:-1
ipc-2014-optimal-ged-d-8-2.pddl,TIMEOUT:1801.07:-1.0:1800.0:-1
ipc-2014-optimal-ged-d-8-4.pddl,CRASHED:381.857:5.0:1800.0:-1
ipc-2014-optimal-ged-d-8-9.pddl,CRASHED:474.1:1000000000.0:1800.0:-1
ipc-2014-optimal-hiking-1-2-3.pddl,SAT:7.75282:11.0:1800.0:-1
ipc-2014-optimal-hiking-1-2-4.pddl,SAT:10.5374:17.0:1800.0:-1
ipc-2014-optimal-hiking-1-2-5.pddl,SAT:17.3594:25.0:1800.0:-1
ipc-2014-optimal-hiking-1-2-7.pddl,SAT:37.1823:38.0:1800.0:-1
ipc-2014-optimal-hiking-1-2-8.pddl,SAT:59.37:45.0:1800.0:-1
ipc-2014-optimal-hiking-2-2-3.pddl,SAT:132.584:10.0:1800.0:-1
ipc-2014-optimal-hiking-2-2-4.pddl,SAT:201.335:16.0:1800.0:-1
ipc-2014-optimal-hiking-2-2-5.pddl,SAT:296.815:22.0:1800.0:-1
ipc-2014-optimal-hiking-2-2-6.pddl,SAT:411.378:30.0:1800.0:-1
ipc-2014-optimal-hiking-2-2-7.pddl,SAT:437.349:34.0:1800.0:-1
ipc-2014-optimal-hiking-2-2-8.pddl,CRASHED:876.523:42.0:1800.0:-1
ipc-2014-optimal-hiking-2-3-4.pddl,SAT:326.527:17.0:1800.0:-1
ipc-2014-optimal-hiking-2-3-5.pddl,SAT:508.849:24.0:1800.0:-1
ipc-2014-optimal-hiking-2-3-6.pddl,SAT:599.096:28.0:1800.0:-1
ipc-2014-optimal-hiking-2-3-7.pddl,CRASHED:979.42:1000000000.0:1800.0:-1
ipc-2014-optimal-hiking-2-4-3.pddl,SAT:248.589:10.0:1800.0:-1
ipc-2014-optimal-hiking-2-4-4.pddl,SAT:490.017:17.0:1800.0:-1
ipc-2014-optimal-hiking-2-4-5.pddl,SAT:782.279:23.0:1800.0:-1
ipc-2014-optimal-hiking-2-4-6.pddl,CRASHED:1094.98:30.0:1800.0:-1
ipc-2014-optimal-hiking-2-4-7.pddl,CRASHED:785.36:1000000000.0:1800.0:-1
ipc-2014-optimal-maintenance-1.3.010.010.1-001.pddl,CRASHED:7.66083:1000000000.0:1800.0:-1
ipc-2014-optimal-maintenance-1.3.010.010.1-002.pddl,CRASHED:11.5502:1000000000.0:1800.0:-1
ipc-2014-optimal-maintenance-1.3.010.010.2-000.pddl,SAT:21.3178:4.0:1800.0:-1
ipc-2014-optimal-maintenance-1.3.010.010.2-001.pddl,SAT:25.2612:7.0:1800.0:-1
ipc-2014-optimal-maintenance-1.3.010.010.2-002.pddl,SAT:36.0815:6.0:1800.0:-1
ipc-2014-optimal-maintenance-1.3.015.020.1-000.pddl,CRASHED:26.153:1000000000.0:1800.0:-1
ipc-2014-optimal-maintenance-1.3.015.020.1-001.pddl,CRASHED:19.527:1000000000.0:1800.0:-1
ipc-2014-optimal-maintenance-1.3.015.020.1-002.pddl,CRASHED:23.9544:1000000000.0:1800.0:-1
ipc-2014-optimal-maintenance-1.3.015.020.2-000.pddl,CRASHED:330.975:1000000000.0:1800.0:-1
ipc-2014-optimal-maintenance-1.3.015.020.2-001.pddl,SAT:120.146:11.0:1800.0:-1
ipc-2014-optimal-maintenance-1.3.015.020.2-002.pddl,SAT:116.157:9.0:1800.0:-1
ipc-2014-optimal-maintenance-1.3.025.050.1-000.pddl,CRASHED:83.8582:1000000000.0:1800.0:-1
ipc-2014-optimal-maintenance-1.3.025.050.1-001.pddl,CRASHED:169.084:1000000000.0:1800.0:-1
ipc-2014-optimal-maintenance-1.3.025.050.1-002.pddl,CRASHED:169.588:1000000000.0:1800.0:-1
ipc-2014-optimal-maintenance-1.3.025.100.1-000.pddl,CRASHED:80.5787:1000000000.0:1800.0:-1
ipc-2014-optimal-maintenance-1.3.025.100.1-001.pddl,CRASHED:77.3312:1000000000.0:1800.0:-1
ipc-2014-optimal-maintenance-1.3.025.100.1-002.pddl,CRASHED:81.3106:1000000000.0:1800.0:-1
ipc-2014-optimal-maintenance-1.3.025.100.2-000.pddl,TIMEOUT:1801.07:-1.0:1800.0:-1
ipc-2014-optimal-maintenance-1.3.025.100.2-001.pddl,TIMEOUT:1801.03:-1.0:1800.0:-1
ipc-2014-optimal-maintenance-1.3.025.100.2-002.pddl,TIMEOUT:1801.09:-1.0:1800.0:-1
ipc-2014-optimal-openstacks-p20_1.pddl,SAT:321.081:3.0:1800.0:-1
ipc-2014-optimal-openstacks-p20_2.pddl,SAT:277.881:4.0:1800.0:-1
ipc-2014-optimal-openstacks-p20_3.pddl,SAT:174.559:6.0:1800.0:-1
ipc-2014-optimal-openstacks-p25_1.pddl,CRASHED:640.54:1000000000.0:1800.0:-1
ipc-2014-optimal-openstacks-p25_3.pddl,CRASHED:645.05:1000000000.0:1800.0:-1
ipc-2014-optimal-openstacks-p30_1.pddl,TIMEOUT:1801.07:-1.0:1800.0:-1
ipc-2014-optimal-openstacks-p30_2.pddl,TIMEOUT:1801.06:-1.0:1800.0:-1
ipc-2014-optimal-openstacks-p30_3.pddl,TIMEOUT:1801.02:-1.0:1800.0:-1
ipc-2014-optimal-openstacks-p35_1.pddl,TIMEOUT:1801.03:-1.0:1800.0:-1
ipc-2014-optimal-openstacks-p35_2.pddl,TIMEOUT:1801.01:-1.0:1800.0:-1
ipc-2014-optimal-openstacks-p35_3.pddl,CRASHED:601.79:1000000000.0:1800.0:-1
ipc-2014-optimal-openstacks-p40_1.pddl,CRASHED:449.21:1000000000.0:1800.0:-1
ipc-2014-optimal-openstacks-p40_2.pddl,CRASHED:441.54:1000000000.0:1800.0:-1
ipc-2014-optimal-openstacks-p40_3.pddl,CRASHED:658.14:1000000000.0:1800.0:-1
ipc-2014-optimal-openstacks-p45_1.pddl,CRASHED:581.77:1000000000.0:1800.0:-1
ipc-2014-optimal-openstacks-p45_2.pddl,CRASHED:529.46:1000000000.0:1800.0:-1
ipc-2014-optimal-openstacks-p45_3.pddl,CRASHED:685.67:1000000000.0:1800.0:-1
ipc-2014-optimal-openstacks-p50_1.pddl,CRASHED:674.71:1000000000.0:1800.0:-1
ipc-2014-optimal-openstacks-p50_2.pddl,CRASHED:720.73:1000000000.0:1800.0:-1
ipc-2014-optimal-openstacks-p50_3.pddl,CRASHED:657.88:1000000000.0:1800.0:-1
ipc-2014-optimal-parking-12_7-01.pddl,SAT:856.898:18.0:1800.0:-1
ipc-2014-optimal-parking-12_7-02.pddl,SAT:914.94:18.0:1800.0:-1
ipc-2014-optimal-parking-12_7-03.pddl,SAT:916.329:17.0:1800.0:-1
ipc-2014-optimal-parking-12_7-04.pddl,SAT:916.222:19.0:1800.0:-1
ipc-2014-optimal-parking-14_8-01.pddl,CRASHED:1439.16:1000000000.0:1800.0:-1
ipc-2014-optimal-parking-14_8-02.pddl,SAT:1289.26:22.0:1800.0:-1
ipc-2014-optimal-parking-14_8-03.pddl,SAT:1192.89:21.0:1800.0:-1
ipc-2014-optimal-parking-14_8-04.pddl,CRASHED:1483.87:1000000000.0:1800.0:-1
ipc-2014-optimal-parking-16_9-01.pddl,CRASHED:1434.01:1000000000.0:1800.0:-1
ipc-2014-optimal-parking-16_9-02.pddl,CRASHED:1394.48:1000000000.0:1800.0:-1
ipc-2014-optimal-parking-16_9-03.pddl,CRASHED:1400.51:1000000000.0:1800.0:-1
ipc-2014-optimal-parking-16_9-04.pddl,CRASHED:1311.03:1000000000.0:1800.0:-1
ipc-2014-optimal-parking-18_10-01.pddl,TIMEOUT:1801.02:-1.0:1800.0:-1
ipc-2014-optimal-parking-18_10-02.pddl,CRASHED:1717.68:1000000000.0:1800.0:-1
ipc-2014-optimal-parking-18_10-03.pddl,CRASHED:1445.72:1000000000.0:1800.0:-1
ipc-2014-optimal-parking-18_10-04.pddl,CRASHED:1417.96:1000000000.0:1800.0:-1
ipc-2014-optimal-parking-20_11-01.pddl,CRASHED:1724.15:1000000000.0:1800.0:-1
ipc-2014-optimal-parking-20_11-02.pddl,CRASHED:1654.08:1000000000.0:1800.0:-1
ipc-2014-optimal-parking-20_11-03.pddl,CRASHED:1777.14:1000000000.0:1800.0:-1
ipc-2014-optimal-parking-20_11-04.pddl,CRASHED:1483.17:1000000000.0:1800.0:-1
ipc-2014-optimal-tetris-01-10.pddl,TIMEOUT:1801.08:-1.0:1800.0:-1
ipc-2014-optimal-tetris-01-04.pddl,CRASHED:301.206:1000000000.0:1800.0:-1
ipc-2014-optimal-tetris-01-06.pddl,SAT:213.01:30.0:1800.0:-1
ipc-2014-optimal-tetris-01-08.pddl,SAT:992.388:36.0:1800.0:-1
ipc-2014-optimal-tetris-02-10.pddl,TIMEOUT:1801.04:-1.0:1800.0:-1
ipc-2014-optimal-tetris-02-04.pddl,SAT:521.041:10.0:1800.0:-1
ipc-2014-optimal-tetris-02-06.pddl,SAT:290.352:30.0:1800.0:-1
ipc-2014-optimal-tetris-02-08.pddl,TIMEOUT:1801.08:-1.0:1800.0:-1
ipc-2014-optimal-tetris-03-10.pddl,TIMEOUT:1801.02:-1.0:1800.0:-1
ipc-2014-optimal-tetris-03-04.pddl,SAT:741.892:11.0:1800.0:-1
ipc-2014-optimal-tetris-03-06.pddl,SAT:252.281:21.0:1800.0:-1
ipc-2014-optimal-tetris-03-08.pddl,TIMEOUT:1801.07:-1.0:1800.0:-1
ipc-2014-optimal-tetris-04-10.pddl,TIMEOUT:1801.06:-1.0:1800.0:-1
ipc-2014-optimal-tetris-04-04.pddl,CRASHED:330.281:1000000000.0:1800.0:-1
ipc-2014-optimal-tetris-04-06.pddl,SAT:247.835:27.0:1800.0:-1
ipc-2014-optimal-tetris-04-08.pddl,TIMEOUT:1801.06:-1.0:1800.0:-1
ipc-2014-optimal-tetris-05-10.pddl,TIMEOUT:1801.07:-1.0:1800.0:-1
ipc-2014-optimal-tetris-05-04.pddl,CRASHED:407.118:1000000000.0:1800.0:-1
ipc-2014-optimal-tetris-05-06.pddl,SAT:216.215:19.0:1800.0:-1
ipc-2014-optimal-tetris-05-08.pddl,TIMEOUT:1801.05:-1.0:1800.0:-1
ipc-2014-optimal-tidybot-01.pddl,TIMEOUT:1801.06:-1.0:1800.0:-1
ipc-2014-optimal-tidybot-02.pddl,SAT:409.244:35.0:1800.0:-1
ipc-2014-optimal-tidybot-03.pddl,SAT:381.904:30.0:1800.0:-1
ipc-2014-optimal-tidybot-04.pddl,SAT:320.423:24.0:1800.0:-1
ipc-2014-optimal-tidybot-05.pddl,TIMEOUT:1801.01:-1.0:1800.0:-1
ipc-2014-optimal-tidybot-06.pddl,TIMEOUT:1801.07:-1.0:1800.0:-1
ipc-2014-optimal-tidybot-07.pddl,SAT:1189.55:38.0:1800.0:-1
ipc-2014-optimal-tidybot-08.pddl,SAT:298.926:25.0:1800.0:-1
ipc-2014-optimal-tidybot-09.pddl,SAT:1621.74:35.0:1800.0:-1
ipc-2014-optimal-tidybot-10.pddl,TIMEOUT:1801.01:-1.0:1800.0:-1
ipc-2014-optimal-tidybot-11.pddl,SAT:198.05:29.0:1800.0:-1
ipc-2014-optimal-tidybot-12.pddl,SAT:867.502:35.0:1800.0:-1
ipc-2014-optimal-tidybot-13.pddl,SAT:356.093:30.0:1800.0:-1
ipc-2014-optimal-tidybot-14.pddl,SAT:223.031:25.0:1800.0:-1
ipc-2014-optimal-tidybot-15.pddl,TIMEOUT:1801.1:-1.0:1800.0:-1
ipc-2014-optimal-tidybot-16.pddl,TIMEOUT:1801.05:-1.0:1800.0:-1
ipc-2014-optimal-tidybot-17.pddl,TIMEOUT:1801.1:-1.0:1800.0:-1
ipc-2014-optimal-tidybot-18.pddl,TIMEOUT:1801.07:-1.0:1800.0:-1
ipc-2014-optimal-tidybot-19.pddl,TIMEOUT:1801.08:-1.0:1800.0:-1
ipc-2014-optimal-tidybot-20.pddl,TIMEOUT:1801.05:-1.0:1800.0:-1
ipc-2014-optimal-transport-01.pddl,SAT:55.0546:148.0:1800.0:-1
ipc-2014-optimal-transport-02.pddl,SAT:99.7068:191.0:1800.0:-1
ipc-2014-optimal-transport-03.pddl,SAT:204.361:300.0:1800.0:-1
ipc-2014-optimal-transport-04.pddl,TIMEOUT:1801.1:-1.0:1800.0:-1
ipc-2014-optimal-transport-05.pddl,TIMEOUT:1801.08:-1.0:1800.0:-1
ipc-2014-optimal-transport-06.pddl,TIMEOUT:1801.09:-1.0:1800.0:-1
ipc-2014-optimal-transport-07.pddl,SAT:96.5343:967.0:1800.0:-1
ipc-2014-optimal-transport-08.pddl,SAT:195.333:1173.0:1800.0:-1
ipc-2014-optimal-transport-09.pddl,CRASHED:697.68:1000000000.0:1800.0:-1
ipc-2014-optimal-transport-10.pddl,CRASHED:717.45:1000000000.0:1800.0:-1
ipc-2014-optimal-transport-11.pddl,TIMEOUT:1801.08:-1.0:1800.0:-1
ipc-2014-optimal-transport-12.pddl,TIMEOUT:1801.09:-1.0:1800.0:-1
ipc-2014-optimal-transport-13.pddl,SAT:112.386:594.0:1800.0:-1
ipc-2014-optimal-transport-14.pddl,SAT:316.993:526.0:1800.0:-1
ipc-2014-optimal-transport-15.pddl,SAT:272.531:753.0:1800.0:-1
ipc-2014-optimal-transport-16.pddl,CRASHED:818.94:1000000000.0:1800.0:-1
ipc-2014-optimal-transport-17.pddl,TIMEOUT:1801.06:-1.0:1800.0:-1
ipc-2014-optimal-transport-18.pddl,TIMEOUT:1801.02:-1.0:1800.0:-1
ipc-2014-optimal-transport-19.pddl,TIMEOUT:1801.02:-1.0:1800.0:-1
ipc-2014-optimal-transport-20.pddl,TIMEOUT:1801.04:-1.0:1800.0:-1
ipc-2014-optimal-visitall-05-10.pddl,SAT:245.372:60.0:1800.0:-1
ipc-2014-optimal-visitall-05-05.pddl,SAT:34.0238:21.0:1800.0:-1
ipc-2014-optimal-visitall-05-06.pddl,SAT:42.9995:25.0:1800.0:-1
ipc-2014-optimal-visitall-05-07.pddl,SAT:101.499:34.0:1800.0:-1
ipc-2014-optimal-visitall-05-08.pddl,SAT:204.791:43.0:1800.0:-1
ipc-2014-optimal-visitall-05-09.pddl,SAT:192.314:54.0:1800.0:-1
ipc-2014-optimal-visitall-01-10.pddl,SAT:232.741:99.0:1800.0:-1
ipc-2014-optimal-visitall-01-11.pddl,SAT:276.988:120.0:1800.0:-1
ipc-2014-optimal-visitall-01-12.pddl,SAT:618.5:143.0:1800.0:-1
ipc-2014-optimal-visitall-01-13.pddl,SAT:508.672:168.0:1800.0:-1
ipc-2014-optimal-visitall-01-14.pddl,CRASHED:1012.98:1000000000.0:1800.0:-1
ipc-2014-optimal-visitall-01-15.pddl,CRASHED:1027.94:1000000000.0:1800.0:-1
ipc-2014-optimal-visitall-01-16.pddl,CRASHED:1013.01:1000000000.0:1800.0:-1
ipc-2014-optimal-visitall-01-17.pddl,CRASHED:1064.65:1000000000.0:1800.0:-1
ipc-2014-optimal-visitall-01-18.pddl,CRASHED:931.86:1000000000.0:1800.0:-1
ipc-2014-optimal-visitall-01-05.pddl,SAT:121.591:24.0:1800.0:-1
ipc-2014-optimal-visitall-01-06.pddl,SAT:260.414:35.0:1800.0:-1
ipc-2014-optimal-visitall-01-07.pddl,SAT:195.613:48.0:1800.0:-1
ipc-2014-optimal-visitall-01-08.pddl,SAT:256.342:63.0:1800.0:-1
ipc-2014-optimal-visitall-01-09.pddl,SAT:292.052:80.0:1800.0:-1
