instance,ipc-2014-optimal-cgamer-bd
ipc-2014-optimal-barman-p433.1.pddl,CRASHED:0.91086:1000000000.0:1800.0:-1
ipc-2014-optimal-barman-p433.2.pddl,CRASHED:0.874866:1000000000.0:1800.0:-1
ipc-2014-optimal-barman-p433.3.pddl,CRASHED:0.877866:1000000000.0:1800.0:-1
ipc-2014-optimal-barman-p435.1.pddl,SAT:22.8725:49.0:1800.0:-1
ipc-2014-optimal-barman-p435.2.pddl,SAT:37.2183:49.0:1800.0:-1
ipc-2014-optimal-barman-p435.3.pddl,SAT:23.0805:49.0:1800.0:-1
ipc-2014-optimal-barman-p443.1.pddl,CRASHED:0.877865:1000000000.0:1800.0:-1
ipc-2014-optimal-barman-p443.2.pddl,CRASHED:0.894863:1000000000.0:1800.0:-1
ipc-2014-optimal-barman-p443.3.pddl,CRASHED:0.879865:1000000000.0:1800.0:-1
ipc-2014-optimal-barman-p536.1.pddl,SAT:170.178:62.0:1800.0:-1
ipc-2014-optimal-barman-p536.2.pddl,SAT:176.563:62.0:1800.0:-1
ipc-2014-optimal-barman-p536.3.pddl,SAT:157.7:62.0:1800.0:-1
ipc-2014-optimal-barman-p638.1.pddl,TIMEOUT:1801.04:-1.0:1800.0:-1
ipc-2014-optimal-barman-p638.2.pddl,TIMEOUT:1801.01:-1.0:1800.0:-1
ipc-2014-optimal-barman-p638.3.pddl,TIMEOUT:1801.02:-1.0:1800.0:-1
ipc-2014-optimal-barman-p739.1.pddl,TIMEOUT:1801.04:-1.0:1800.0:-1
ipc-2014-optimal-barman-p739.2.pddl,TIMEOUT:1801.09:-1.0:1800.0:-1
ipc-2014-optimal-barman-p739.3.pddl,TIMEOUT:1801.05:-1.0:1800.0:-1
ipc-2014-optimal-barman-p839.1.pddl,TIMEOUT:1801.01:-1.0:1800.0:-1
ipc-2014-optimal-barman-p839.2.pddl,TIMEOUT:1801.11:-1.0:1800.0:-1
ipc-2014-optimal-cavediving-01.pddl,CRASHED:42.6365:1000000000.0:1800.0:-1
ipc-2014-optimal-cavediving-01_easy.pddl,CRASHED:29.4545:1000000000.0:1800.0:-1
ipc-2014-optimal-cavediving-02_easy.pddl,CRASHED:29.2446:1000000000.0:1800.0:-1
ipc-2014-optimal-cavediving-03_easy.pddl,CRASHED:28.4427:1000000000.0:1800.0:-1
ipc-2014-optimal-cavediving-04_easy.pddl,CRASHED:28.9296:1000000000.0:1800.0:-1
ipc-2014-optimal-cavediving-05A_easy.pddl,CRASHED:5.76112:1000000000.0:1800.0:-1
ipc-2014-optimal-cavediving-06A_easy.pddl,CRASHED:5.78312:1000000000.0:1800.0:-1
ipc-2014-optimal-cavediving-07_easy.pddl,CRASHED:5.73513:1000000000.0:1800.0:-1
ipc-2014-optimal-cavediving-08_easy.pddl,CRASHED:5.74113:1000000000.0:1800.0:-1
ipc-2014-optimal-cavediving-09_easy.pddl,CRASHED:144.498:1000000000.0:1800.0:-1
ipc-2014-optimal-cavediving-10_easy.pddl,CRASHED:146.066:1000000000.0:1800.0:-1
ipc-2014-optimal-cavediving-11_easy.pddl,CRASHED:145.242:1000000000.0:1800.0:-1
ipc-2014-optimal-cavediving-12_easy.pddl,CRASHED:143.949:1000000000.0:1800.0:-1
ipc-2014-optimal-cavediving-13_easy.pddl,CRASHED:41.5707:1000000000.0:1800.0:-1
ipc-2014-optimal-cavediving-14_easy.pddl,CRASHED:41.7706:1000000000.0:1800.0:-1
ipc-2014-optimal-cavediving-15_easy.pddl,CRASHED:35.4746:1000000000.0:1800.0:-1
ipc-2014-optimal-cavediving-16_easy.pddl,CRASHED:42.0046:1000000000.0:1800.0:-1
ipc-2014-optimal-cavediving-18A_easy.pddl,CRASHED:8.84166:1000000000.0:1800.0:-1
ipc-2014-optimal-cavediving-18_easy.pddl,CRASHED:10.2884:1000000000.0:1800.0:-1
ipc-2014-optimal-cavediving-20A_easy.pddl,CRASHED:8.86665:1000000000.0:1800.0:-1
ipc-2014-optimal-childsnack-01-2.pddl,SAT:192.406:21.0:1800.0:-1
ipc-2014-optimal-childsnack-01.pddl,SAT:122.768:20.0:1800.0:-1
ipc-2014-optimal-childsnack-02-2.pddl,TIMEOUT:1801.02:-1.0:1800.0:-1
ipc-2014-optimal-childsnack-02.pddl,TIMEOUT:1801.07:-1.0:1800.0:-1
ipc-2014-optimal-childsnack-03-2.pddl,TIMEOUT:1801.06:-1.0:1800.0:-1
ipc-2014-optimal-childsnack-03.pddl,TIMEOUT:1801.07:-1.0:1800.0:-1
ipc-2014-optimal-childsnack-04-2.pddl,TIMEOUT:1801.04:-1.0:1800.0:-1
ipc-2014-optimal-childsnack-04.pddl,TIMEOUT:1801.03:-1.0:1800.0:-1
ipc-2014-optimal-childsnack-05-2.pddl,CRASHED:534.6:1000000000.0:1800.0:-1
ipc-2014-optimal-childsnack-05.pddl,CRASHED:664.91:1000000000.0:1800.0:-1
ipc-2014-optimal-childsnack-06-2.pddl,CRASHED:1521.14:1000000000.0:1800.0:-1
ipc-2014-optimal-childsnack-06.pddl,CRASHED:1555.24:1000000000.0:1800.0:-1
ipc-2014-optimal-childsnack-07-2.pddl,TIMEOUT:1801.1:-1.0:1800.0:-1
ipc-2014-optimal-childsnack-07.pddl,CRASHED:202.46:1000000000.0:1800.0:-1
ipc-2014-optimal-childsnack-08-2.pddl,CRASHED:459.9:1000000000.0:1800.0:-1
ipc-2014-optimal-childsnack-08.pddl,CRASHED:573.17:1000000000.0:1800.0:-1
ipc-2014-optimal-childsnack-09-2.pddl,CRASHED:1045.75:1000000000.0:1800.0:-1
ipc-2014-optimal-childsnack-09.pddl,CRASHED:1336.11:1000000000.0:1800.0:-1
ipc-2014-optimal-childsnack-10-2.pddl,TIMEOUT:1801.07:-1.0:1800.0:-1
ipc-2014-optimal-childsnack-10.pddl,TIMEOUT:1801.01:-1.0:1800.0:-1
ipc-2014-optimal-citycar-p2-2-2-1-2.pddl,SAT:21.6557:46.0:1800.0:-1
ipc-2014-optimal-citycar-p2-2-2-2-1.pddl,SAT:27.4878:64.0:1800.0:-1
ipc-2014-optimal-citycar-p2-2-3-1-2.pddl,SAT:41.2467:50.0:1800.0:-1
ipc-2014-optimal-citycar-p2-2-3-2-1.pddl,SAT:40.7648:48.0:1800.0:-1
ipc-2014-optimal-citycar-p2-2-3-2-2.pddl,SAT:37.9042:50.0:1800.0:-1
ipc-2014-optimal-citycar-p2-2-4-1-2.pddl,SAT:52.2281:52.0:1800.0:-1
ipc-2014-optimal-citycar-p2-2-4-2-1.pddl,SAT:56.4314:52.0:1800.0:-1
ipc-2014-optimal-citycar-p2-2-5-2-2.pddl,SAT:444.754:76.0:1800.0:-1
ipc-2014-optimal-citycar-p2-2-6-1-1.pddl,SAT:500.538:58.0:1800.0:-1
ipc-2014-optimal-citycar-p2-2-6-2-2.pddl,SAT:1435.07:58.0:1800.0:-1
ipc-2014-optimal-citycar-p2-3-2-3-1.pddl,SAT:64.5072:68.0:1800.0:-1
ipc-2014-optimal-citycar-p2-3-3-3-1.pddl,SAT:72.9019:78.0:1800.0:-1
ipc-2014-optimal-citycar-p2-3-4-3-1.pddl,SAT:189.894:82.0:1800.0:-1
ipc-2014-optimal-citycar-p2-3-6-3-2.pddl,TIMEOUT:1801.08:-1.0:1800.0:-1
ipc-2014-optimal-citycar-p3-3-2-2-1.pddl,SAT:116.026:70.0:1800.0:-1
ipc-2014-optimal-citycar-p3-3-2-2-2.pddl,SAT:170.525:92.0:1800.0:-1
ipc-2014-optimal-citycar-p3-3-2-3-1.pddl,SAT:109.833:48.0:1800.0:-1
ipc-2014-optimal-citycar-p3-3-2-3-2.pddl,SAT:126.812:70.0:1800.0:-1
ipc-2014-optimal-citycar-p3-3-3-3-1.pddl,CRASHED:1312.53:1000000000.0:1800.0:-1
ipc-2014-optimal-citycar-p3-3-3-3-2.pddl,SAT:327.255:76.0:1800.0:-1
ipc-2014-optimal-floortile-p01-4-3-2.pddl,SAT:2.24566:56.0:1800.0:-1
ipc-2014-optimal-floortile-p01-4-4-2.pddl,SAT:3.54946:68.0:1800.0:-1
ipc-2014-optimal-floortile-p01-5-3-2.pddl,SAT:2.6286:63.0:1800.0:-1
ipc-2014-optimal-floortile-p01-5-4-2.pddl,SAT:7.00493:91.0:1800.0:-1
ipc-2014-optimal-floortile-p01-5-5-2.pddl,SAT:32.774:111.0:1800.0:-1
ipc-2014-optimal-floortile-p01-6-4-2.pddl,SAT:9.28159:104.0:1800.0:-1
ipc-2014-optimal-floortile-p01-6-5-2.pddl,SAT:111.745:122.0:1800.0:-1
ipc-2014-optimal-floortile-p02-4-4-2.pddl,SAT:3.60345:75.0:1800.0:-1
ipc-2014-optimal-floortile-p02-5-3-2.pddl,SAT:2.6446:65.0:1800.0:-1
ipc-2014-optimal-floortile-p02-5-4-2.pddl,SAT:6.87595:98.0:1800.0:-1
ipc-2014-optimal-floortile-p02-5-5-2.pddl,SAT:28.0727:106.0:1800.0:-1
ipc-2014-optimal-floortile-p02-6-4-2.pddl,SAT:8.71467:109.0:1800.0:-1
ipc-2014-optimal-floortile-p02-6-5-2.pddl,SAT:96.2134:141.0:1800.0:-1
ipc-2014-optimal-floortile-p03-4-3-2.pddl,SAT:2.24166:56.0:1800.0:-1
ipc-2014-optimal-floortile-p03-4-4-2.pddl,SAT:3.54746:72.0:1800.0:-1
ipc-2014-optimal-floortile-p03-5-3-2.pddl,SAT:2.6516:65.0:1800.0:-1
ipc-2014-optimal-floortile-p03-5-4-2.pddl,SAT:6.40602:83.0:1800.0:-1
ipc-2014-optimal-floortile-p03-5-5-2.pddl,SAT:26.128:100.0:1800.0:-1
ipc-2014-optimal-floortile-p03-6-4-2.pddl,SAT:9.05462:116.0:1800.0:-1
ipc-2014-optimal-floortile-p03-6-5-2.pddl,SAT:91.1231:130.0:1800.0:-1
ipc-2014-optimal-ged-d-1-2.pddl,CRASHED:1.18482:1000000000.0:1800.0:-1
ipc-2014-optimal-ged-d-1-3.pddl,CRASHED:1.46378:1000000000.0:1800.0:-1
ipc-2014-optimal-ged-d-1-4.pddl,CRASHED:1.17182:1000000000.0:1800.0:-1
ipc-2014-optimal-ged-d-1-8.pddl,CRASHED:1.48077:1000000000.0:1800.0:-1
ipc-2014-optimal-ged-d-2-1.pddl,CRASHED:1.14782:1000000000.0:1800.0:-1
ipc-2014-optimal-ged-d-2-3.pddl,CRASHED:1.2798:1000000000.0:1800.0:-1
ipc-2014-optimal-ged-d-2-4.pddl,CRASHED:1.19982:1000000000.0:1800.0:-1
ipc-2014-optimal-ged-d-2-8.pddl,CRASHED:1.86371:1000000000.0:1800.0:-1
ipc-2014-optimal-ged-d-3-1.pddl,CRASHED:1.38179:1000000000.0:1800.0:-1
ipc-2014-optimal-ged-d-3-2.pddl,CRASHED:1.2908:1000000000.0:1800.0:-1
ipc-2014-optimal-ged-d-3-4.pddl,CRASHED:1.48477:1000000000.0:1800.0:-1
ipc-2014-optimal-ged-d-4-2.pddl,CRASHED:1.27581:1000000000.0:1800.0:-1
ipc-2014-optimal-ged-d-4-3.pddl,CRASHED:1.47877:1000000000.0:1800.0:-1
ipc-2014-optimal-ged-d-4-8.pddl,CRASHED:1.87671:1000000000.0:1800.0:-1
ipc-2014-optimal-ged-d-7-5.pddl,CRASHED:1.55776:1000000000.0:1800.0:-1
ipc-2014-optimal-ged-d-7-6.pddl,CRASHED:1.43878:1000000000.0:1800.0:-1
ipc-2014-optimal-ged-d-8-1.pddl,CRASHED:1.51977:1000000000.0:1800.0:-1
ipc-2014-optimal-ged-d-8-2.pddl,CRASHED:1.87571:1000000000.0:1800.0:-1
ipc-2014-optimal-ged-d-8-4.pddl,CRASHED:1.85972:1000000000.0:1800.0:-1
ipc-2014-optimal-ged-d-8-9.pddl,CRASHED:1.88371:1000000000.0:1800.0:-1
ipc-2014-optimal-hiking-1-2-3.pddl,SAT:1.76473:11.0:1800.0:-1
ipc-2014-optimal-hiking-1-2-4.pddl,SAT:2.03869:17.0:1800.0:-1
ipc-2014-optimal-hiking-1-2-5.pddl,SAT:2.27565:25.0:1800.0:-1
ipc-2014-optimal-hiking-1-2-7.pddl,SAT:6.14406:38.0:1800.0:-1
ipc-2014-optimal-hiking-1-2-8.pddl,SAT:6.98394:45.0:1800.0:-1
ipc-2014-optimal-hiking-2-2-3.pddl,SAT:6.36803:10.0:1800.0:-1
ipc-2014-optimal-hiking-2-2-4.pddl,SAT:8.61669:16.0:1800.0:-1
ipc-2014-optimal-hiking-2-2-5.pddl,SAT:21.5317:22.0:1800.0:-1
ipc-2014-optimal-hiking-2-2-6.pddl,SAT:261.779:30.0:1800.0:-1
ipc-2014-optimal-hiking-2-2-7.pddl,SAT:429.839:34.0:1800.0:-1
ipc-2014-optimal-hiking-2-2-8.pddl,SAT:1424.43:42.0:1800.0:-1
ipc-2014-optimal-hiking-2-3-4.pddl,SAT:13.6399:17.0:1800.0:-1
ipc-2014-optimal-hiking-2-3-5.pddl,SAT:127.121:24.0:1800.0:-1
ipc-2014-optimal-hiking-2-3-6.pddl,SAT:994.555:28.0:1800.0:-1
ipc-2014-optimal-hiking-2-3-7.pddl,TIMEOUT:1801.09:-1.0:1800.0:-1
ipc-2014-optimal-hiking-2-4-3.pddl,SAT:7.49186:10.0:1800.0:-1
ipc-2014-optimal-hiking-2-4-4.pddl,SAT:12.3601:17.0:1800.0:-1
ipc-2014-optimal-hiking-2-4-5.pddl,SAT:147.747:23.0:1800.0:-1
ipc-2014-optimal-hiking-2-4-6.pddl,SAT:1773.36:30.0:1800.0:-1
ipc-2014-optimal-hiking-2-4-7.pddl,TIMEOUT:1801.05:-1.0:1800.0:-1
ipc-2014-optimal-maintenance-1.3.010.010.1-001.pddl,CRASHED:0.869867:1000000000.0:1800.0:-1
ipc-2014-optimal-maintenance-1.3.010.010.1-002.pddl,CRASHED:0.877865:1000000000.0:1800.0:-1
ipc-2014-optimal-maintenance-1.3.010.010.2-000.pddl,SAT:1.66175:4.0:1800.0:-1
ipc-2014-optimal-maintenance-1.3.010.010.2-001.pddl,SAT:1.74973:7.0:1800.0:-1
ipc-2014-optimal-maintenance-1.3.010.010.2-002.pddl,SAT:1.71374:6.0:1800.0:-1
ipc-2014-optimal-maintenance-1.3.015.020.1-000.pddl,CRASHED:1.00485:1000000000.0:1800.0:-1
ipc-2014-optimal-maintenance-1.3.015.020.1-001.pddl,CRASHED:1.00285:1000000000.0:1800.0:-1
ipc-2014-optimal-maintenance-1.3.015.020.1-002.pddl,CRASHED:1.00984:1000000000.0:1800.0:-1
ipc-2014-optimal-maintenance-1.3.015.020.2-000.pddl,CRASHED:1.06084:1000000000.0:1800.0:-1
ipc-2014-optimal-maintenance-1.3.015.020.2-001.pddl,SAT:2.10868:11.0:1800.0:-1
ipc-2014-optimal-maintenance-1.3.015.020.2-002.pddl,SAT:2.03469:9.0:1800.0:-1
ipc-2014-optimal-maintenance-1.3.025.050.1-000.pddl,CRASHED:1.3088:1000000000.0:1800.0:-1
ipc-2014-optimal-maintenance-1.3.025.050.1-001.pddl,CRASHED:1.3038:1000000000.0:1800.0:-1
ipc-2014-optimal-maintenance-1.3.025.050.1-002.pddl,CRASHED:1.3068:1000000000.0:1800.0:-1
ipc-2014-optimal-maintenance-1.3.025.100.1-000.pddl,CRASHED:1.58476:1000000000.0:1800.0:-1
ipc-2014-optimal-maintenance-1.3.025.100.1-001.pddl,CRASHED:1.63175:1000000000.0:1800.0:-1
ipc-2014-optimal-maintenance-1.3.025.100.1-002.pddl,CRASHED:1.58076:1000000000.0:1800.0:-1
ipc-2014-optimal-maintenance-1.3.025.100.2-000.pddl,CRASHED:1.84672:1000000000.0:1800.0:-1
ipc-2014-optimal-maintenance-1.3.025.100.2-001.pddl,CRASHED:1.86372:1000000000.0:1800.0:-1
ipc-2014-optimal-maintenance-1.3.025.100.2-002.pddl,CRASHED:1.85972:1000000000.0:1800.0:-1
ipc-2014-optimal-openstacks-p20_1.pddl,SAT:3.9614:3.0:1800.0:-1
ipc-2014-optimal-openstacks-p20_2.pddl,SAT:7.2159:4.0:1800.0:-1
ipc-2014-optimal-openstacks-p20_3.pddl,SAT:8.42472:6.0:1800.0:-1
ipc-2014-optimal-openstacks-p25_1.pddl,SAT:9.69053:4.0:1800.0:-1
ipc-2014-optimal-openstacks-p25_3.pddl,SAT:15.9956:9.0:1800.0:-1
ipc-2014-optimal-openstacks-p30_1.pddl,SAT:12.6371:4.0:1800.0:-1
ipc-2014-optimal-openstacks-p30_2.pddl,SAT:14.3978:4.0:1800.0:-1
ipc-2014-optimal-openstacks-p30_3.pddl,SAT:19.415:12.0:1800.0:-1
ipc-2014-optimal-openstacks-p35_1.pddl,SAT:15.6696:4.0:1800.0:-1
ipc-2014-optimal-openstacks-p35_2.pddl,SAT:20.2409:5.0:1800.0:-1
ipc-2014-optimal-openstacks-p35_3.pddl,SAT:261.297:14.0:1800.0:-1
ipc-2014-optimal-openstacks-p40_1.pddl,SAT:19.772:3.0:1800.0:-1
ipc-2014-optimal-openstacks-p40_2.pddl,SAT:20.2259:4.0:1800.0:-1
ipc-2014-optimal-openstacks-p40_3.pddl,SAT:251.575:15.0:1800.0:-1
ipc-2014-optimal-openstacks-p45_1.pddl,SAT:22.7185:4.0:1800.0:-1
ipc-2014-optimal-openstacks-p45_2.pddl,SAT:27.4828:5.0:1800.0:-1
ipc-2014-optimal-openstacks-p45_3.pddl,TIMEOUT:1801.05:-1.0:1800.0:-1
ipc-2014-optimal-openstacks-p50_1.pddl,SAT:28.4737:4.0:1800.0:-1
ipc-2014-optimal-openstacks-p50_2.pddl,SAT:27.9477:5.0:1800.0:-1
ipc-2014-optimal-openstacks-p50_3.pddl,TIMEOUT:1801.09:-1.0:1800.0:-1
ipc-2014-optimal-parking-12_7-01.pddl,SAT:887.449:18.0:1800.0:-1
ipc-2014-optimal-parking-12_7-02.pddl,SAT:808.138:18.0:1800.0:-1
ipc-2014-optimal-parking-12_7-03.pddl,SAT:536.178:17.0:1800.0:-1
ipc-2014-optimal-parking-12_7-04.pddl,SAT:1547.02:19.0:1800.0:-1
ipc-2014-optimal-parking-14_8-01.pddl,CRASHED:1243.3:1000000000.0:1800.0:-1
ipc-2014-optimal-parking-14_8-02.pddl,CRASHED:1197.32:1000000000.0:1800.0:-1
ipc-2014-optimal-parking-14_8-03.pddl,TIMEOUT:1801.02:-1.0:1800.0:-1
ipc-2014-optimal-parking-14_8-04.pddl,TIMEOUT:1801.0:-1.0:1800.0:-1
ipc-2014-optimal-parking-16_9-01.pddl,TIMEOUT:1801.04:-1.0:1800.0:-1
ipc-2014-optimal-parking-16_9-02.pddl,CRASHED:1260.84:1000000000.0:1800.0:-1
ipc-2014-optimal-parking-16_9-03.pddl,TIMEOUT:1801.09:-1.0:1800.0:-1
ipc-2014-optimal-parking-16_9-04.pddl,TIMEOUT:1801.07:-1.0:1800.0:-1
ipc-2014-optimal-parking-18_10-01.pddl,CRASHED:1579.32:1000000000.0:1800.0:-1
ipc-2014-optimal-parking-18_10-02.pddl,CRASHED:1619.99:1000000000.0:1800.0:-1
ipc-2014-optimal-parking-18_10-03.pddl,TIMEOUT:1801.02:-1.0:1800.0:-1
ipc-2014-optimal-parking-18_10-04.pddl,TIMEOUT:1801.02:-1.0:1800.0:-1
ipc-2014-optimal-parking-20_11-01.pddl,TIMEOUT:1801.09:-1.0:1800.0:-1
ipc-2014-optimal-parking-20_11-02.pddl,TIMEOUT:1801.01:-1.0:1800.0:-1
ipc-2014-optimal-parking-20_11-03.pddl,TIMEOUT:1801.03:-1.0:1800.0:-1
ipc-2014-optimal-parking-20_11-04.pddl,TIMEOUT:1801.0:-1.0:1800.0:-1
ipc-2014-optimal-tetris-01-10.pddl,CRASHED:1330.04:1000000000.0:1800.0:-1
ipc-2014-optimal-tetris-01-04.pddl,CRASHED:12.6911:1000000000.0:1800.0:-1
ipc-2014-optimal-tetris-01-06.pddl,SAT:110.924:30.0:1800.0:-1
ipc-2014-optimal-tetris-01-08.pddl,SAT:34.7057:36.0:1800.0:-1
ipc-2014-optimal-tetris-02-10.pddl,TIMEOUT:1801.07:-1.0:1800.0:-1
ipc-2014-optimal-tetris-02-04.pddl,SAT:6.92095:10.0:1800.0:-1
ipc-2014-optimal-tetris-02-06.pddl,SAT:30.6633:30.0:1800.0:-1
ipc-2014-optimal-tetris-02-08.pddl,SAT:389.902:39.0:1800.0:-1
ipc-2014-optimal-tetris-03-10.pddl,TIMEOUT:1801.09:-1.0:1800.0:-1
ipc-2014-optimal-tetris-03-04.pddl,SAT:6.85896:11.0:1800.0:-1
ipc-2014-optimal-tetris-03-06.pddl,SAT:82.3225:21.0:1800.0:-1
ipc-2014-optimal-tetris-03-08.pddl,SAT:100.118:48.0:1800.0:-1
ipc-2014-optimal-tetris-04-10.pddl,CRASHED:1741.56:1000000000.0:1800.0:-1
ipc-2014-optimal-tetris-04-04.pddl,CRASHED:11.4633:1000000000.0:1800.0:-1
ipc-2014-optimal-tetris-04-06.pddl,SAT:97.1282:27.0:1800.0:-1
ipc-2014-optimal-tetris-04-08.pddl,TIMEOUT:1801.03:-1.0:1800.0:-1
ipc-2014-optimal-tetris-05-10.pddl,SAT:979.811:66.0:1800.0:-1
ipc-2014-optimal-tetris-05-04.pddl,CRASHED:10.4854:1000000000.0:1800.0:-1
ipc-2014-optimal-tetris-05-06.pddl,SAT:12.839:19.0:1800.0:-1
ipc-2014-optimal-tetris-05-08.pddl,TIMEOUT:1801.05:-1.0:1800.0:-1
ipc-2014-optimal-tidybot-01.pddl,CRASHED:1365.63:1000000000.0:1800.0:-1
ipc-2014-optimal-tidybot-02.pddl,SAT:419.372:35.0:1800.0:-1
ipc-2014-optimal-tidybot-03.pddl,SAT:135.505:30.0:1800.0:-1
ipc-2014-optimal-tidybot-04.pddl,SAT:316.224:24.0:1800.0:-1
ipc-2014-optimal-tidybot-05.pddl,TIMEOUT:1801.04:-1.0:1800.0:-1
ipc-2014-optimal-tidybot-06.pddl,SAT:937.346:63.0:1800.0:-1
ipc-2014-optimal-tidybot-07.pddl,SAT:184.126:38.0:1800.0:-1
ipc-2014-optimal-tidybot-08.pddl,SAT:316.777:25.0:1800.0:-1
ipc-2014-optimal-tidybot-09.pddl,TIMEOUT:1801.05:-1.0:1800.0:-1
ipc-2014-optimal-tidybot-10.pddl,SAT:1505.99:47.0:1800.0:-1
ipc-2014-optimal-tidybot-11.pddl,SAT:178.838:29.0:1800.0:-1
ipc-2014-optimal-tidybot-12.pddl,SAT:420.869:35.0:1800.0:-1
ipc-2014-optimal-tidybot-13.pddl,SAT:228.76:30.0:1800.0:-1
ipc-2014-optimal-tidybot-14.pddl,SAT:446.832:25.0:1800.0:-1
ipc-2014-optimal-tidybot-15.pddl,CRASHED:1261.64:1000000000.0:1800.0:-1
ipc-2014-optimal-tidybot-16.pddl,CRASHED:1308.69:1000000000.0:1800.0:-1
ipc-2014-optimal-tidybot-17.pddl,SAT:88.9555:40.0:1800.0:-1
ipc-2014-optimal-tidybot-18.pddl,SAT:204.38:44.0:1800.0:-1
ipc-2014-optimal-tidybot-19.pddl,CRASHED:1368.11:1000000000.0:1800.0:-1
ipc-2014-optimal-tidybot-20.pddl,SAT:97.9351:46.0:1800.0:-1
ipc-2014-optimal-transport-01.pddl,SAT:2.40863:148.0:1800.0:-1
ipc-2014-optimal-transport-02.pddl,SAT:5.48017:191.0:1800.0:-1
ipc-2014-optimal-transport-03.pddl,SAT:14.6908:300.0:1800.0:-1
ipc-2014-optimal-transport-04.pddl,SAT:529.63:250.0:1800.0:-1
ipc-2014-optimal-transport-05.pddl,CRASHED:1664.66:1000000000.0:1800.0:-1
ipc-2014-optimal-transport-06.pddl,TIMEOUT:1801.08:-1.0:1800.0:-1
ipc-2014-optimal-transport-07.pddl,SAT:9.81251:967.0:1800.0:-1
ipc-2014-optimal-transport-08.pddl,SAT:801.842:1173.0:1800.0:-1
ipc-2014-optimal-transport-09.pddl,TIMEOUT:1801.07:-1.0:1800.0:-1
ipc-2014-optimal-transport-10.pddl,TIMEOUT:1801.04:-1.0:1800.0:-1
ipc-2014-optimal-transport-11.pddl,TIMEOUT:1801.07:-1.0:1800.0:-1
ipc-2014-optimal-transport-12.pddl,TIMEOUT:1801.06:-1.0:1800.0:-1
ipc-2014-optimal-transport-13.pddl,SAT:9.71252:594.0:1800.0:-1
ipc-2014-optimal-transport-14.pddl,SAT:51.4372:526.0:1800.0:-1
ipc-2014-optimal-transport-15.pddl,TIMEOUT:1801.0:-1.0:1800.0:-1
ipc-2014-optimal-transport-16.pddl,TIMEOUT:1801.05:-1.0:1800.0:-1
ipc-2014-optimal-transport-17.pddl,TIMEOUT:1801.05:-1.0:1800.0:-1
ipc-2014-optimal-transport-18.pddl,TIMEOUT:1801.08:-1.0:1800.0:-1
ipc-2014-optimal-transport-19.pddl,TIMEOUT:1801.06:-1.0:1800.0:-1
ipc-2014-optimal-transport-20.pddl,TIMEOUT:1801.06:-1.0:1800.0:-1
ipc-2014-optimal-visitall-05-10.pddl,CRASHED:888.06:1000000000.0:1800.0:-1
ipc-2014-optimal-visitall-05-05.pddl,SAT:2.01769:21.0:1800.0:-1
ipc-2014-optimal-visitall-05-06.pddl,SAT:2.22866:25.0:1800.0:-1
ipc-2014-optimal-visitall-05-07.pddl,SAT:6.03708:34.0:1800.0:-1
ipc-2014-optimal-visitall-05-08.pddl,SAT:100.76:43.0:1800.0:-1
ipc-2014-optimal-visitall-05-09.pddl,CRASHED:791.39:1000000000.0:1800.0:-1
ipc-2014-optimal-visitall-01-10.pddl,CRASHED:849.99:1000000000.0:1800.0:-1
ipc-2014-optimal-visitall-01-11.pddl,CRASHED:1028.63:1000000000.0:1800.0:-1
ipc-2014-optimal-visitall-01-12.pddl,CRASHED:1217.97:1000000000.0:1800.0:-1
ipc-2014-optimal-visitall-01-13.pddl,CRASHED:1526.63:1000000000.0:1800.0:-1
ipc-2014-optimal-visitall-01-14.pddl,CRASHED:936.01:1000000000.0:1800.0:-1
ipc-2014-optimal-visitall-01-15.pddl,CRASHED:1103.27:1000000000.0:1800.0:-1
ipc-2014-optimal-visitall-01-16.pddl,CRASHED:1403.39:1000000000.0:1800.0:-1
ipc-2014-optimal-visitall-01-17.pddl,CRASHED:1455.49:1000000000.0:1800.0:-1
ipc-2014-optimal-visitall-01-18.pddl,CRASHED:1391.73:1000000000.0:1800.0:-1
ipc-2014-optimal-visitall-01-05.pddl,SAT:3.70744:24.0:1800.0:-1
ipc-2014-optimal-visitall-01-06.pddl,SAT:382.985:35.0:1800.0:-1
ipc-2014-optimal-visitall-01-07.pddl,CRASHED:822.13:1000000000.0:1800.0:-1
ipc-2014-optimal-visitall-01-08.pddl,CRASHED:747.25:1000000000.0:1800.0:-1
ipc-2014-optimal-visitall-01-09.pddl,CRASHED:896.81:1000000000.0:1800.0:-1
