instance,ipc-2014-optimal-nucelar
ipc-2014-optimal-barman-p433.1.pddl,CRASHED:1.10283:1000000000.0:1800.0:-1
ipc-2014-optimal-barman-p433.2.pddl,CRASHED:1.09683:1000000000.0:1800.0:-1
ipc-2014-optimal-barman-p433.3.pddl,CRASHED:1.10483:1000000000.0:1800.0:-1
ipc-2014-optimal-barman-p435.1.pddl,CRASHED:1787.61:1000000000.0:1800.0:-1
ipc-2014-optimal-barman-p435.2.pddl,CRASHED:1786.15:1000000000.0:1800.0:-1
ipc-2014-optimal-barman-p435.3.pddl,CRASHED:1787.22:1000000000.0:1800.0:-1
ipc-2014-optimal-barman-p443.1.pddl,CRASHED:1.11483:1000000000.0:1800.0:-1
ipc-2014-optimal-barman-p443.2.pddl,CRASHED:1.11283:1000000000.0:1800.0:-1
ipc-2014-optimal-barman-p443.3.pddl,CRASHED:1.08583:1000000000.0:1800.0:-1
ipc-2014-optimal-barman-p536.1.pddl,TIMEOUT:1801.0:-1.0:1800.0:-1
ipc-2014-optimal-barman-p536.2.pddl,TIMEOUT:1801.0:-1.0:1800.0:-1
ipc-2014-optimal-barman-p536.3.pddl,TIMEOUT:1801.1:-1.0:1800.0:-1
ipc-2014-optimal-barman-p638.1.pddl,TIMEOUT:1801.0:-1.0:1800.0:-1
ipc-2014-optimal-barman-p638.2.pddl,CRASHED:1799.88:1000000000.0:1800.0:-1
ipc-2014-optimal-barman-p638.3.pddl,TIMEOUT:1801.08:-1.0:1800.0:-1
ipc-2014-optimal-barman-p739.1.pddl,CRASHED:1795.82:1000000000.0:1800.0:-1
ipc-2014-optimal-barman-p739.2.pddl,CRASHED:1798.74:1000000000.0:1800.0:-1
ipc-2014-optimal-barman-p739.3.pddl,CRASHED:1798.0:1000000000.0:1800.0:-1
ipc-2014-optimal-barman-p839.1.pddl,CRASHED:1796.73:1000000000.0:1800.0:-1
ipc-2014-optimal-barman-p839.2.pddl,CRASHED:1585.54:1000000000.0:1800.0:-1
ipc-2014-optimal-cavediving-01.pddl,CRASHED:42.8675:1000000000.0:1800.0:-1
ipc-2014-optimal-cavediving-01_easy.pddl,CRASHED:29.3855:1000000000.0:1800.0:-1
ipc-2014-optimal-cavediving-02_easy.pddl,CRASHED:29.0356:1000000000.0:1800.0:-1
ipc-2014-optimal-cavediving-03_easy.pddl,CRASHED:29.1936:1000000000.0:1800.0:-1
ipc-2014-optimal-cavediving-04_easy.pddl,CRASHED:29.1306:1000000000.0:1800.0:-1
ipc-2014-optimal-cavediving-05A_easy.pddl,CRASHED:5.64614:1000000000.0:1800.0:-1
ipc-2014-optimal-cavediving-06A_easy.pddl,CRASHED:5.69613:1000000000.0:1800.0:-1
ipc-2014-optimal-cavediving-07_easy.pddl,CRASHED:5.65714:1000000000.0:1800.0:-1
ipc-2014-optimal-cavediving-08_easy.pddl,CRASHED:5.67814:1000000000.0:1800.0:-1
ipc-2014-optimal-cavediving-09_easy.pddl,CRASHED:150.537:1000000000.0:1800.0:-1
ipc-2014-optimal-cavediving-10_easy.pddl,CRASHED:151.963:1000000000.0:1800.0:-1
ipc-2014-optimal-cavediving-11_easy.pddl,CRASHED:153.205:1000000000.0:1800.0:-1
ipc-2014-optimal-cavediving-12_easy.pddl,CRASHED:149.795:1000000000.0:1800.0:-1
ipc-2014-optimal-cavediving-13_easy.pddl,CRASHED:43.0974:1000000000.0:1800.0:-1
ipc-2014-optimal-cavediving-14_easy.pddl,CRASHED:44.9572:1000000000.0:1800.0:-1
ipc-2014-optimal-cavediving-15_easy.pddl,CRASHED:38.0392:1000000000.0:1800.0:-1
ipc-2014-optimal-cavediving-16_easy.pddl,CRASHED:42.5585:1000000000.0:1800.0:-1
ipc-2014-optimal-cavediving-18A_easy.pddl,CRASHED:8.73267:1000000000.0:1800.0:-1
ipc-2014-optimal-cavediving-18_easy.pddl,CRASHED:10.1595:1000000000.0:1800.0:-1
ipc-2014-optimal-cavediving-20A_easy.pddl,CRASHED:8.70068:1000000000.0:1800.0:-1
ipc-2014-optimal-childsnack-01-2.pddl,CRASHED:326.43:1000000000.0:1800.0:-1
ipc-2014-optimal-childsnack-01.pddl,CRASHED:1780.63:1000000000.0:1800.0:-1
ipc-2014-optimal-childsnack-02-2.pddl,CRASHED:1779.02:1000000000.0:1800.0:-1
ipc-2014-optimal-childsnack-02.pddl,CRASHED:1775.15:1000000000.0:1800.0:-1
ipc-2014-optimal-childsnack-03-2.pddl,TIMEOUT:1801.05:-1.0:1800.0:-1
ipc-2014-optimal-childsnack-03.pddl,TIMEOUT:1801.01:-1.0:1800.0:-1
ipc-2014-optimal-childsnack-04-2.pddl,CRASHED:1794.8:1000000000.0:1800.0:-1
ipc-2014-optimal-childsnack-04.pddl,CRASHED:1800.77:1000000000.0:1800.0:-1
ipc-2014-optimal-childsnack-05-2.pddl,CRASHED:1791.04:1000000000.0:1800.0:-1
ipc-2014-optimal-childsnack-05.pddl,CRASHED:1466.42:1000000000.0:1800.0:-1
ipc-2014-optimal-childsnack-06-2.pddl,CRASHED:1789.2:1000000000.0:1800.0:-1
ipc-2014-optimal-childsnack-06.pddl,CRASHED:1786.1:1000000000.0:1800.0:-1
ipc-2014-optimal-childsnack-07-2.pddl,CRASHED:1795.02:1000000000.0:1800.0:-1
ipc-2014-optimal-childsnack-07.pddl,CRASHED:1792.99:1000000000.0:1800.0:-1
ipc-2014-optimal-childsnack-08-2.pddl,CRASHED:1466.58:1000000000.0:1800.0:-1
ipc-2014-optimal-childsnack-08.pddl,CRASHED:1794.4:1000000000.0:1800.0:-1
ipc-2014-optimal-childsnack-09-2.pddl,TIMEOUT:1801.06:-1.0:1800.0:-1
ipc-2014-optimal-childsnack-09.pddl,TIMEOUT:1801.02:-1.0:1800.0:-1
ipc-2014-optimal-childsnack-10-2.pddl,TIMEOUT:1801.03:-1.0:1800.0:-1
ipc-2014-optimal-childsnack-10.pddl,TIMEOUT:1801.09:-1.0:1800.0:-1
ipc-2014-optimal-citycar-p2-2-2-1-2.pddl,SAT:46.28:46.0:1800.0:-1
ipc-2014-optimal-citycar-p2-2-2-2-1.pddl,SAT:47.9067:64.0:1800.0:-1
ipc-2014-optimal-citycar-p2-2-3-1-2.pddl,SAT:84.6991:50.0:1800.0:-1
ipc-2014-optimal-citycar-p2-2-3-2-1.pddl,SAT:74.8606:48.0:1800.0:-1
ipc-2014-optimal-citycar-p2-2-3-2-2.pddl,SAT:98.443:50.0:1800.0:-1
ipc-2014-optimal-citycar-p2-2-4-1-2.pddl,SAT:96.6173:52.0:1800.0:-1
ipc-2014-optimal-citycar-p2-2-4-2-1.pddl,SAT:108.662:52.0:1800.0:-1
ipc-2014-optimal-citycar-p2-2-5-2-2.pddl,SAT:520.49:76.0:1800.0:-1
ipc-2014-optimal-citycar-p2-2-6-1-1.pddl,SAT:520.23:58.0:1800.0:-1
ipc-2014-optimal-citycar-p2-2-6-2-2.pddl,SAT:520.37:58.0:1800.0:-1
ipc-2014-optimal-citycar-p2-3-2-3-1.pddl,SAT:224.93:68.0:1800.0:-1
ipc-2014-optimal-citycar-p2-3-3-3-1.pddl,SAT:520.51:78.0:1800.0:-1
ipc-2014-optimal-citycar-p2-3-4-3-1.pddl,TIMEOUT:1801.0:-1.0:1800.0:-1
ipc-2014-optimal-citycar-p2-3-6-3-2.pddl,TIMEOUT:1801.0:-1.0:1800.0:-1
ipc-2014-optimal-citycar-p3-3-2-2-1.pddl,TIMEOUT:1801.0:-1.0:1800.0:-1
ipc-2014-optimal-citycar-p3-3-2-2-2.pddl,TIMEOUT:1801.04:-1.0:1800.0:-1
ipc-2014-optimal-citycar-p3-3-2-3-1.pddl,SAT:115.524:48.0:1800.0:-1
ipc-2014-optimal-citycar-p3-3-2-3-2.pddl,SAT:332.15:70.0:1800.0:-1
ipc-2014-optimal-citycar-p3-3-3-3-1.pddl,TIMEOUT:1801.0:-1.0:1800.0:-1
ipc-2014-optimal-citycar-p3-3-3-3-2.pddl,TIMEOUT:1801.05:-1.0:1800.0:-1
ipc-2014-optimal-floortile-p01-4-3-2.pddl,SAT:43.5864:56.0:1800.0:-1
ipc-2014-optimal-floortile-p01-4-4-2.pddl,SAT:443.221:68.0:1800.0:-1
ipc-2014-optimal-floortile-p01-5-3-2.pddl,SAT:346.05:63.0:1800.0:-1
ipc-2014-optimal-floortile-p01-5-4-2.pddl,CRASHED:1794.19:1000000000.0:1800.0:-1
ipc-2014-optimal-floortile-p01-5-5-2.pddl,TIMEOUT:1801.0:-1.0:1800.0:-1
ipc-2014-optimal-floortile-p01-6-4-2.pddl,TIMEOUT:1801.06:-1.0:1800.0:-1
ipc-2014-optimal-floortile-p01-6-5-2.pddl,TIMEOUT:1801.04:-1.0:1800.0:-1
ipc-2014-optimal-floortile-p02-4-4-2.pddl,CRASHED:1789.32:1000000000.0:1800.0:-1
ipc-2014-optimal-floortile-p02-5-3-2.pddl,SAT:389.394:65.0:1800.0:-1
ipc-2014-optimal-floortile-p02-5-4-2.pddl,CRASHED:1795.23:1000000000.0:1800.0:-1
ipc-2014-optimal-floortile-p02-5-5-2.pddl,TIMEOUT:1801.06:-1.0:1800.0:-1
ipc-2014-optimal-floortile-p02-6-4-2.pddl,CRASHED:1800.96:1000000000.0:1800.0:-1
ipc-2014-optimal-floortile-p02-6-5-2.pddl,TIMEOUT:1801.09:-1.0:1800.0:-1
ipc-2014-optimal-floortile-p03-4-3-2.pddl,SAT:59.36:56.0:1800.0:-1
ipc-2014-optimal-floortile-p03-4-4-2.pddl,CRASHED:1149.17:1000000000.0:1800.0:-1
ipc-2014-optimal-floortile-p03-5-3-2.pddl,SAT:352.741:65.0:1800.0:-1
ipc-2014-optimal-floortile-p03-5-4-2.pddl,CRASHED:1787.23:1000000000.0:1800.0:-1
ipc-2014-optimal-floortile-p03-5-5-2.pddl,TIMEOUT:1801.09:-1.0:1800.0:-1
ipc-2014-optimal-floortile-p03-6-4-2.pddl,CRASHED:1799.82:1000000000.0:1800.0:-1
ipc-2014-optimal-floortile-p03-6-5-2.pddl,TIMEOUT:1801.0:-1.0:1800.0:-1
ipc-2014-optimal-ged-d-1-2.pddl,SAT:2.33964:1.0:1800.0:-1
ipc-2014-optimal-ged-d-1-3.pddl,SAT:8.06277:4.0:1800.0:-1
ipc-2014-optimal-ged-d-1-4.pddl,SAT:2.35364:1.0:1800.0:-1
ipc-2014-optimal-ged-d-1-8.pddl,SAT:24.1483:4.0:1800.0:-1
ipc-2014-optimal-ged-d-2-1.pddl,SAT:2.30265:1.0:1800.0:-1
ipc-2014-optimal-ged-d-2-3.pddl,SAT:2.89656:3.0:1800.0:-1
ipc-2014-optimal-ged-d-2-4.pddl,SAT:2.46362:2.0:1800.0:-1
ipc-2014-optimal-ged-d-2-8.pddl,CRASHED:1788.26:1000000000.0:1800.0:-1
ipc-2014-optimal-ged-d-3-1.pddl,SAT:8.21775:4.0:1800.0:-1
ipc-2014-optimal-ged-d-3-2.pddl,SAT:2.88556:3.0:1800.0:-1
ipc-2014-optimal-ged-d-3-4.pddl,SAT:324.619:5.0:1800.0:-1
ipc-2014-optimal-ged-d-4-2.pddl,SAT:2.40363:2.0:1800.0:-1
ipc-2014-optimal-ged-d-4-3.pddl,SAT:324.173:5.0:1800.0:-1
ipc-2014-optimal-ged-d-4-8.pddl,CRASHED:1797.42:1000000000.0:1800.0:-1
ipc-2014-optimal-ged-d-7-5.pddl,SAT:25.0702:4.0:1800.0:-1
ipc-2014-optimal-ged-d-7-6.pddl,SAT:8.07277:4.0:1800.0:-1
ipc-2014-optimal-ged-d-8-1.pddl,SAT:24.5193:4.0:1800.0:-1
ipc-2014-optimal-ged-d-8-2.pddl,CRASHED:14.5999:1000000000.0:1800.0:-1
ipc-2014-optimal-ged-d-8-4.pddl,CRASHED:23.4601:1000000000.0:1800.0:-1
ipc-2014-optimal-ged-d-8-9.pddl,TIMEOUT:1801.01:-1.0:1800.0:-1
ipc-2014-optimal-hiking-1-2-3.pddl,SAT:1.9837:11.0:1800.0:-1
ipc-2014-optimal-hiking-1-2-4.pddl,SAT:133.453:17.0:1800.0:-1
ipc-2014-optimal-hiking-1-2-5.pddl,SAT:133.584:25.0:1800.0:-1
ipc-2014-optimal-hiking-1-2-7.pddl,SAT:134.38:38.0:1800.0:-1
ipc-2014-optimal-hiking-1-2-8.pddl,SAT:134.745:45.0:1800.0:-1
ipc-2014-optimal-hiking-2-2-3.pddl,SAT:4.6063:10.0:1800.0:-1
ipc-2014-optimal-hiking-2-2-4.pddl,SAT:182.48:16.0:1800.0:-1
ipc-2014-optimal-hiking-2-2-5.pddl,SAT:224.532:22.0:1800.0:-1
ipc-2014-optimal-hiking-2-2-6.pddl,SAT:192.43:30.0:1800.0:-1
ipc-2014-optimal-hiking-2-2-7.pddl,TIMEOUT:1801.0:-1.0:1800.0:-1
ipc-2014-optimal-hiking-2-2-8.pddl,CRASHED:192.23:1000000000.0:1800.0:-1
ipc-2014-optimal-hiking-2-3-4.pddl,SAT:206.453:17.0:1800.0:-1
ipc-2014-optimal-hiking-2-3-5.pddl,SAT:326.019:24.0:1800.0:-1
ipc-2014-optimal-hiking-2-3-6.pddl,CRASHED:326.5:1000000000.0:1800.0:-1
ipc-2014-optimal-hiking-2-3-7.pddl,TIMEOUT:1801.11:-1.0:1800.0:-1
ipc-2014-optimal-hiking-2-4-3.pddl,SAT:25.1342:10.0:1800.0:-1
ipc-2014-optimal-hiking-2-4-4.pddl,SAT:211.751:17.0:1800.0:-1
ipc-2014-optimal-hiking-2-4-5.pddl,CRASHED:1795.05:1000000000.0:1800.0:-1
ipc-2014-optimal-hiking-2-4-6.pddl,CRASHED:192.04:1000000000.0:1800.0:-1
ipc-2014-optimal-hiking-2-4-7.pddl,TIMEOUT:1801.0:-1.0:1800.0:-1
ipc-2014-optimal-maintenance-1.3.010.010.1-001.pddl,CRASHED:2.24866:1000000000.0:1800.0:-1
ipc-2014-optimal-maintenance-1.3.010.010.1-002.pddl,CRASHED:2.30365:1000000000.0:1800.0:-1
ipc-2014-optimal-maintenance-1.3.010.010.2-000.pddl,SAT:1.27581:4.0:1800.0:-1
ipc-2014-optimal-maintenance-1.3.010.010.2-001.pddl,SAT:1.26681:7.0:1800.0:-1
ipc-2014-optimal-maintenance-1.3.010.010.2-002.pddl,SAT:1.37579:6.0:1800.0:-1
ipc-2014-optimal-maintenance-1.3.015.020.1-000.pddl,CRASHED:1300.24:1000000000.0:1800.0:-1
ipc-2014-optimal-maintenance-1.3.015.020.1-001.pddl,CRASHED:1301.57:1000000000.0:1800.0:-1
ipc-2014-optimal-maintenance-1.3.015.020.1-002.pddl,CRASHED:1318.57:1000000000.0:1800.0:-1
ipc-2014-optimal-maintenance-1.3.015.020.2-000.pddl,CRASHED:551.0:1000000000.0:1800.0:-1
ipc-2014-optimal-maintenance-1.3.015.020.2-001.pddl,SAT:1.54876:11.0:1800.0:-1
ipc-2014-optimal-maintenance-1.3.015.020.2-002.pddl,SAT:1.56376:9.0:1800.0:-1
ipc-2014-optimal-maintenance-1.3.025.050.1-000.pddl,CRASHED:1454.59:1000000000.0:1800.0:-1
ipc-2014-optimal-maintenance-1.3.025.050.1-001.pddl,CRASHED:1238.52:1000000000.0:1800.0:-1
ipc-2014-optimal-maintenance-1.3.025.050.1-002.pddl,CRASHED:1237.91:1000000000.0:1800.0:-1
ipc-2014-optimal-maintenance-1.3.025.100.1-000.pddl,CRASHED:180.735:1000000000.0:1800.0:-1
ipc-2014-optimal-maintenance-1.3.025.100.1-001.pddl,CRASHED:173.989:1000000000.0:1800.0:-1
ipc-2014-optimal-maintenance-1.3.025.100.1-002.pddl,CRASHED:183.87:1000000000.0:1800.0:-1
ipc-2014-optimal-maintenance-1.3.025.100.2-000.pddl,CRASHED:1311.07:1000000000.0:1800.0:-1
ipc-2014-optimal-maintenance-1.3.025.100.2-001.pddl,CRASHED:1588.05:1000000000.0:1800.0:-1
ipc-2014-optimal-maintenance-1.3.025.100.2-002.pddl,CRASHED:1288.62:1000000000.0:1800.0:-1
ipc-2014-optimal-openstacks-p20_1.pddl,SAT:515.718:3.0:1800.0:-1
ipc-2014-optimal-openstacks-p20_2.pddl,SAT:517.44:4.0:1800.0:-1
ipc-2014-optimal-openstacks-p20_3.pddl,SAT:20.9068:6.0:1800.0:-1
ipc-2014-optimal-openstacks-p25_1.pddl,SAT:552.617:4.0:1800.0:-1
ipc-2014-optimal-openstacks-p25_3.pddl,SAT:541.351:9.0:1800.0:-1
ipc-2014-optimal-openstacks-p30_1.pddl,SAT:33.7679:4.0:1800.0:-1
ipc-2014-optimal-openstacks-p30_2.pddl,SAT:39.263:4.0:1800.0:-1
ipc-2014-optimal-openstacks-p30_3.pddl,SAT:91.7421:12.0:1800.0:-1
ipc-2014-optimal-openstacks-p35_1.pddl,SAT:97.9441:4.0:1800.0:-1
ipc-2014-optimal-openstacks-p35_2.pddl,SAT:181.995:5.0:1800.0:-1
ipc-2014-optimal-openstacks-p35_3.pddl,TIMEOUT:1801.03:-1.0:1800.0:-1
ipc-2014-optimal-openstacks-p40_1.pddl,SAT:72.195:3.0:1800.0:-1
ipc-2014-optimal-openstacks-p40_2.pddl,SAT:211.451:4.0:1800.0:-1
ipc-2014-optimal-openstacks-p40_3.pddl,TIMEOUT:1801.04:-1.0:1800.0:-1
ipc-2014-optimal-openstacks-p45_1.pddl,SAT:474.712:4.0:1800.0:-1
ipc-2014-optimal-openstacks-p45_2.pddl,TIMEOUT:1801.09:-1.0:1800.0:-1
ipc-2014-optimal-openstacks-p45_3.pddl,TIMEOUT:1801.03:-1.0:1800.0:-1
ipc-2014-optimal-openstacks-p50_1.pddl,TIMEOUT:1801.02:-1.0:1800.0:-1
ipc-2014-optimal-openstacks-p50_2.pddl,TIMEOUT:1801.06:-1.0:1800.0:-1
ipc-2014-optimal-openstacks-p50_3.pddl,TIMEOUT:1801.1:-1.0:1800.0:-1
ipc-2014-optimal-parking-12_7-01.pddl,SAT:115.862:18.0:1800.0:-1
ipc-2014-optimal-parking-12_7-02.pddl,SAT:118.907:18.0:1800.0:-1
ipc-2014-optimal-parking-12_7-03.pddl,SAT:115.368:17.0:1800.0:-1
ipc-2014-optimal-parking-12_7-04.pddl,SAT:136.64:19.0:1800.0:-1
ipc-2014-optimal-parking-14_8-01.pddl,TIMEOUT:1801.05:-1.0:1800.0:-1
ipc-2014-optimal-parking-14_8-02.pddl,SAT:268.406:22.0:1800.0:-1
ipc-2014-optimal-parking-14_8-03.pddl,SAT:155.51:21.0:1800.0:-1
ipc-2014-optimal-parking-14_8-04.pddl,TIMEOUT:1801.06:-1.0:1800.0:-1
ipc-2014-optimal-parking-16_9-01.pddl,TIMEOUT:1801.0:-1.0:1800.0:-1
ipc-2014-optimal-parking-16_9-02.pddl,TIMEOUT:1801.1:-1.0:1800.0:-1
ipc-2014-optimal-parking-16_9-03.pddl,TIMEOUT:1801.07:-1.0:1800.0:-1
ipc-2014-optimal-parking-16_9-04.pddl,TIMEOUT:1801.06:-1.0:1800.0:-1
ipc-2014-optimal-parking-18_10-01.pddl,TIMEOUT:1801.0:-1.0:1800.0:-1
ipc-2014-optimal-parking-18_10-02.pddl,TIMEOUT:1801.0:-1.0:1800.0:-1
ipc-2014-optimal-parking-18_10-03.pddl,TIMEOUT:1801.0:-1.0:1800.0:-1
ipc-2014-optimal-parking-18_10-04.pddl,TIMEOUT:1801.0:-1.0:1800.0:-1
ipc-2014-optimal-parking-20_11-01.pddl,TIMEOUT:1801.0:-1.0:1800.0:-1
ipc-2014-optimal-parking-20_11-02.pddl,TIMEOUT:1801.0:-1.0:1800.0:-1
ipc-2014-optimal-parking-20_11-03.pddl,TIMEOUT:1801.0:-1.0:1800.0:-1
ipc-2014-optimal-parking-20_11-04.pddl,TIMEOUT:1801.0:-1.0:1800.0:-1
ipc-2014-optimal-tetris-01-10.pddl,TIMEOUT:1801.03:-1.0:1800.0:-1
ipc-2014-optimal-tetris-01-04.pddl,CRASHED:766.646:1000000000.0:1800.0:-1
ipc-2014-optimal-tetris-01-06.pddl,SAT:922.523:30.0:1800.0:-1
ipc-2014-optimal-tetris-01-08.pddl,SAT:68.0217:36.0:1800.0:-1
ipc-2014-optimal-tetris-02-10.pddl,TIMEOUT:1801.0:-1.0:1800.0:-1
ipc-2014-optimal-tetris-02-04.pddl,SAT:4.53031:10.0:1800.0:-1
ipc-2014-optimal-tetris-02-06.pddl,SAT:598.325:30.0:1800.0:-1
ipc-2014-optimal-tetris-02-08.pddl,TIMEOUT:1801.0:-1.0:1800.0:-1
ipc-2014-optimal-tetris-03-10.pddl,TIMEOUT:1801.0:-1.0:1800.0:-1
ipc-2014-optimal-tetris-03-04.pddl,SAT:26.264:11.0:1800.0:-1
ipc-2014-optimal-tetris-03-06.pddl,SAT:653.142:21.0:1800.0:-1
ipc-2014-optimal-tetris-03-08.pddl,SAT:602.7:48.0:1800.0:-1
ipc-2014-optimal-tetris-04-10.pddl,TIMEOUT:1801.0:-1.0:1800.0:-1
ipc-2014-optimal-tetris-04-04.pddl,CRASHED:611.782:1000000000.0:1800.0:-1
ipc-2014-optimal-tetris-04-06.pddl,SAT:905.932:27.0:1800.0:-1
ipc-2014-optimal-tetris-04-08.pddl,TIMEOUT:1801.0:-1.0:1800.0:-1
ipc-2014-optimal-tetris-05-10.pddl,TIMEOUT:1801.0:-1.0:1800.0:-1
ipc-2014-optimal-tetris-05-04.pddl,CRASHED:671.922:1000000000.0:1800.0:-1
ipc-2014-optimal-tetris-05-06.pddl,SAT:563.987:19.0:1800.0:-1
ipc-2014-optimal-tetris-05-08.pddl,TIMEOUT:1801.0:-1.0:1800.0:-1
ipc-2014-optimal-tidybot-01.pddl,TIMEOUT:1801.0:-1.0:1800.0:-1
ipc-2014-optimal-tidybot-02.pddl,SAT:429.713:35.0:1800.0:-1
ipc-2014-optimal-tidybot-03.pddl,SAT:142.877:30.0:1800.0:-1
ipc-2014-optimal-tidybot-04.pddl,SAT:203.337:24.0:1800.0:-1
ipc-2014-optimal-tidybot-05.pddl,TIMEOUT:1801.0:-1.0:1800.0:-1
ipc-2014-optimal-tidybot-06.pddl,TIMEOUT:1801.0:-1.0:1800.0:-1
ipc-2014-optimal-tidybot-07.pddl,TIMEOUT:1801.0:-1.0:1800.0:-1
ipc-2014-optimal-tidybot-08.pddl,SAT:111.644:25.0:1800.0:-1
ipc-2014-optimal-tidybot-09.pddl,TIMEOUT:1801.0:-1.0:1800.0:-1
ipc-2014-optimal-tidybot-10.pddl,TIMEOUT:1801.0:-1.0:1800.0:-1
ipc-2014-optimal-tidybot-11.pddl,SAT:76.1254:29.0:1800.0:-1
ipc-2014-optimal-tidybot-12.pddl,SAT:228.668:35.0:1800.0:-1
ipc-2014-optimal-tidybot-13.pddl,SAT:123.309:30.0:1800.0:-1
ipc-2014-optimal-tidybot-14.pddl,SAT:124.407:25.0:1800.0:-1
ipc-2014-optimal-tidybot-15.pddl,TIMEOUT:1801.0:-1.0:1800.0:-1
ipc-2014-optimal-tidybot-16.pddl,TIMEOUT:1801.0:-1.0:1800.0:-1
ipc-2014-optimal-tidybot-17.pddl,TIMEOUT:1801.0:-1.0:1800.0:-1
ipc-2014-optimal-tidybot-18.pddl,TIMEOUT:1801.0:-1.0:1800.0:-1
ipc-2014-optimal-tidybot-19.pddl,TIMEOUT:1801.0:-1.0:1800.0:-1
ipc-2014-optimal-tidybot-20.pddl,TIMEOUT:1801.0:-1.0:1800.0:-1
ipc-2014-optimal-transport-01.pddl,SAT:134.578:148.0:1800.0:-1
ipc-2014-optimal-transport-02.pddl,SAT:138.218:191.0:1800.0:-1
ipc-2014-optimal-transport-03.pddl,SAT:146.838:300.0:1800.0:-1
ipc-2014-optimal-transport-04.pddl,CRASHED:1791.73:1000000000.0:1800.0:-1
ipc-2014-optimal-transport-05.pddl,CRASHED:1789.8:1000000000.0:1800.0:-1
ipc-2014-optimal-transport-06.pddl,CRASHED:1793.71:1000000000.0:1800.0:-1
ipc-2014-optimal-transport-07.pddl,SAT:138.347:967.0:1800.0:-1
ipc-2014-optimal-transport-08.pddl,SAT:310.834:1173.0:1800.0:-1
ipc-2014-optimal-transport-09.pddl,CRASHED:1787.41:1000000000.0:1800.0:-1
ipc-2014-optimal-transport-10.pddl,CRASHED:1449.07:1000000000.0:1800.0:-1
ipc-2014-optimal-transport-11.pddl,CRASHED:1788.51:1000000000.0:1800.0:-1
ipc-2014-optimal-transport-12.pddl,CRASHED:192.87:1000000000.0:1800.0:-1
ipc-2014-optimal-transport-13.pddl,SAT:137.921:594.0:1800.0:-1
ipc-2014-optimal-transport-14.pddl,SAT:270.298:526.0:1800.0:-1
ipc-2014-optimal-transport-15.pddl,CRASHED:1360.16:1000000000.0:1800.0:-1
ipc-2014-optimal-transport-16.pddl,CRASHED:39.1599:1000000000.0:1800.0:-1
ipc-2014-optimal-transport-17.pddl,TIMEOUT:1801.0:-1.0:1800.0:-1
ipc-2014-optimal-transport-18.pddl,TIMEOUT:1801.0:-1.0:1800.0:-1
ipc-2014-optimal-transport-19.pddl,CRASHED:1319.07:1000000000.0:1800.0:-1
ipc-2014-optimal-transport-20.pddl,CRASHED:1542.78:1000000000.0:1800.0:-1
ipc-2014-optimal-visitall-05-10.pddl,CRASHED:1794.47:1000000000.0:1800.0:-1
ipc-2014-optimal-visitall-05-05.pddl,SAT:4.78727:21.0:1800.0:-1
ipc-2014-optimal-visitall-05-06.pddl,SAT:7.28489:25.0:1800.0:-1
ipc-2014-optimal-visitall-05-07.pddl,SAT:379.143:34.0:1800.0:-1
ipc-2014-optimal-visitall-05-08.pddl,SAT:1250.56:43.0:1800.0:-1
ipc-2014-optimal-visitall-05-09.pddl,CRASHED:706.58:1000000000.0:1800.0:-1
ipc-2014-optimal-visitall-01-10.pddl,SAT:1159.22:99.0:1800.0:-1
ipc-2014-optimal-visitall-01-11.pddl,SAT:1155.66:120.0:1800.0:-1
ipc-2014-optimal-visitall-01-12.pddl,SAT:551.11:143.0:1800.0:-1
ipc-2014-optimal-visitall-01-13.pddl,SAT:600.48:168.0:1800.0:-1
ipc-2014-optimal-visitall-01-14.pddl,CRASHED:1793.47:1000000000.0:1800.0:-1
ipc-2014-optimal-visitall-01-15.pddl,CRASHED:1793.19:1000000000.0:1800.0:-1
ipc-2014-optimal-visitall-01-16.pddl,CRASHED:1793.64:1000000000.0:1800.0:-1
ipc-2014-optimal-visitall-01-17.pddl,CRASHED:1793.53:1000000000.0:1800.0:-1
ipc-2014-optimal-visitall-01-18.pddl,CRASHED:1794.19:1000000000.0:1800.0:-1
ipc-2014-optimal-visitall-01-05.pddl,SAT:21.2598:24.0:1800.0:-1
ipc-2014-optimal-visitall-01-06.pddl,SAT:934.762:35.0:1800.0:-1
ipc-2014-optimal-visitall-01-07.pddl,SAT:999.607:48.0:1800.0:-1
ipc-2014-optimal-visitall-01-08.pddl,SAT:1102.97:63.0:1800.0:-1
ipc-2014-optimal-visitall-01-09.pddl,SAT:598.1:80.0:1800.0:-1
