instance,ipc-2014-agile-arvandherd
ipc-2014-agile-barman-p1-11-4-15.pddl,SAT:203.128:172.0:300.0:-1
ipc-2014-agile-barman-p1-11-5-15.pddl,SAT:206.012:195.0:300.0:-1
ipc-2014-agile-barman-p1-11-5-16.pddl,SAT:197.774:176.0:300.0:-1
ipc-2014-agile-barman-p2-10-4-13.pddl,SAT:204.671:161.0:300.0:-1
ipc-2014-agile-barman-p2-11-4-15.pddl,TIMEOUT:301.04:-1.0:300.0:-1
ipc-2014-agile-barman-p2-11-5-15.pddl,SAT:199.147:177.0:300.0:-1
ipc-2014-agile-barman-p2-11-5-16.pddl,TIMEOUT:301.09:-1.0:300.0:-1
ipc-2014-agile-barman-p2-11-5-17.pddl,SAT:207.383:169.0:300.0:-1
ipc-2014-agile-barman-p3-10-4-13.pddl,SAT:201.79:194.0:300.0:-1
ipc-2014-agile-barman-p3-11-4-15.pddl,SAT:205.096:188.0:300.0:-1
ipc-2014-agile-barman-p3-11-5-15.pddl,SAT:206.494:198.0:300.0:-1
ipc-2014-agile-barman-p3-11-5-16.pddl,SAT:201.356:191.0:300.0:-1
ipc-2014-agile-barman-p3-11-5-17.pddl,TIMEOUT:301.01:-1.0:300.0:-1
ipc-2014-agile-barman-p4-11-4-14.pddl,SAT:198.659:170.0:300.0:-1
ipc-2014-agile-barman-p4-11-4-15.pddl,SAT:219.777:179.0:300.0:-1
ipc-2014-agile-barman-p4-11-5-15.pddl,TIMEOUT:301.04:-1.0:300.0:-1
ipc-2014-agile-barman-p5-10-4-13.pddl,SAT:199.147:172.0:300.0:-1
ipc-2014-agile-barman-p5-11-4-15.pddl,SAT:203.474:185.0:300.0:-1
ipc-2014-agile-barman-p5-11-5-15.pddl,TIMEOUT:301.08:-1.0:300.0:-1
ipc-2014-agile-barman-p5-11-5-16.pddl,SAT:201.123:178.0:300.0:-1
ipc-2014-agile-cavediving-01_easy.pddl,TIMEOUT:301.1:-1.0:300.0:-1
ipc-2014-agile-cavediving-01.pddl,TIMEOUT:301.03:-1.0:300.0:-1
ipc-2014-agile-cavediving-02_easy.pddl,TIMEOUT:301.04:-1.0:300.0:-1
ipc-2014-agile-cavediving-03_easy.pddl,TIMEOUT:301.06:-1.0:300.0:-1
ipc-2014-agile-cavediving-04_easy.pddl,TIMEOUT:301.03:-1.0:300.0:-1
ipc-2014-agile-cavediving-05A_easy.pddl,SAT:181.371:94.0:300.0:-1
ipc-2014-agile-cavediving-06A_easy.pddl,SAT:184.183:95.0:300.0:-1
ipc-2014-agile-cavediving-07_easy.pddl,SAT:181.071:131.0:300.0:-1
ipc-2014-agile-cavediving-08_easy.pddl,SAT:197.329:90.0:300.0:-1
ipc-2014-agile-cavediving-09_easy.pddl,TIMEOUT:301.09:-1.0:300.0:-1
ipc-2014-agile-cavediving-10_easy.pddl,TIMEOUT:301.05:-1.0:300.0:-1
ipc-2014-agile-cavediving-11_easy.pddl,TIMEOUT:301.04:-1.0:300.0:-1
ipc-2014-agile-cavediving-12_easy.pddl,TIMEOUT:301.04:-1.0:300.0:-1
ipc-2014-agile-cavediving-13_easy.pddl,TIMEOUT:301.01:-1.0:300.0:-1
ipc-2014-agile-cavediving-14_easy.pddl,TIMEOUT:301.03:-1.0:300.0:-1
ipc-2014-agile-cavediving-15_easy.pddl,TIMEOUT:301.09:-1.0:300.0:-1
ipc-2014-agile-cavediving-16_easy.pddl,TIMEOUT:301.09:-1.0:300.0:-1
ipc-2014-agile-cavediving-18A_easy.pddl,SAT:181.447:131.0:300.0:-1
ipc-2014-agile-cavediving-18_easy.pddl,SAT:181.55:131.0:300.0:-1
ipc-2014-agile-cavediving-20A_easy.pddl,TIMEOUT:301.0:-1.0:300.0:-1
ipc-2014-agile-childsnack-05-2.pddl,SAT:181.409:49.0:300.0:-1
ipc-2014-agile-childsnack-05.pddl,SAT:194.036:52.0:300.0:-1
ipc-2014-agile-childsnack-06-2.pddl,SAT:3.56346:112.0:300.0:-1
ipc-2014-agile-childsnack-07-2.pddl,SAT:184.934:59.0:300.0:-1
ipc-2014-agile-childsnack-08-2.pddl,SAT:14.4858:117.0:300.0:-1
ipc-2014-agile-childsnack-08.pddl,SAT:183.048:64.0:300.0:-1
ipc-2014-agile-childsnack-09-2.pddl,SAT:186.419:69.0:300.0:-1
ipc-2014-agile-childsnack-09.pddl,SAT:240.284:67.0:300.0:-1
ipc-2014-agile-childsnack-10-2.pddl,TIMEOUT:301.01:-1.0:300.0:-1
ipc-2014-agile-childsnack-10.pddl,TIMEOUT:301.01:-1.0:300.0:-1
ipc-2014-agile-childsnack-11-2.pddl,TIMEOUT:301.09:-1.0:300.0:-1
ipc-2014-agile-childsnack-11.pddl,TIMEOUT:301.05:-1.0:300.0:-1
ipc-2014-agile-childsnack-12.pddl,CRASHED:293.942:1000000000.0:300.0:-1
ipc-2014-agile-childsnack-13-2.pddl,TIMEOUT:301.05:-1.0:300.0:-1
ipc-2014-agile-childsnack-13.pddl,TIMEOUT:301.09:-1.0:300.0:-1
ipc-2014-agile-childsnack-14.pddl,TIMEOUT:301.04:-1.0:300.0:-1
ipc-2014-agile-childsnack-15-2.pddl,TIMEOUT:301.01:-1.0:300.0:-1
ipc-2014-agile-childsnack-16-2.pddl,TIMEOUT:301.06:-1.0:300.0:-1
ipc-2014-agile-childsnack-19-2.pddl,TIMEOUT:301.06:-1.0:300.0:-1
ipc-2014-agile-childsnack-19.pddl,TIMEOUT:301.04:-1.0:300.0:-1
ipc-2014-agile-citycar-p3-2-2-0-1.pddl,SAT:0.730888:1698.0:300.0:-1
ipc-2014-agile-citycar-p3-3-2-0-1.pddl,SAT:1.24381:1628.0:300.0:-1
ipc-2014-agile-citycar-p3-4-2-0-1.pddl,SAT:1.11883:2543.0:300.0:-1
ipc-2014-agile-citycar-p3-5-2-0-1.pddl,SAT:1.64375:1675.0:300.0:-1
ipc-2014-agile-citycar-p3-5-2-0-2.pddl,SAT:1.26981:2560.0:300.0:-1
ipc-2014-agile-citycar-p4-2-2-0-1.pddl,SAT:17.1864:1680.0:300.0:-1
ipc-2014-agile-citycar-p4-2-3-0-1.pddl,SAT:7.32488:2376.0:300.0:-1
ipc-2014-agile-citycar-p4-2-3-0-2.pddl,SAT:58.8671:2272.0:300.0:-1
ipc-2014-agile-citycar-p4-3-2-0-1.pddl,SAT:45.0721:1522.0:300.0:-1
ipc-2014-agile-citycar-p4-3-2-0-2.pddl,SAT:13.9819:3471.0:300.0:-1
ipc-2014-agile-citycar-p4-3-3-0-1.pddl,SAT:28.0417:2233.0:300.0:-1
ipc-2014-agile-citycar-p4-3-3-0-2.pddl,SAT:90.6252:1623.0:300.0:-1
ipc-2014-agile-citycar-p4-4-2-0-1.pddl,SAT:18.3822:3252.0:300.0:-1
ipc-2014-agile-citycar-p4-4-2-0-2.pddl,SAT:21.8967:3600.0:300.0:-1
ipc-2014-agile-citycar-p4-4-3-0-1.pddl,SAT:33.7899:2357.0:300.0:-1
ipc-2014-agile-citycar-p4-4-3-0-2.pddl,SAT:111.41:1363.0:300.0:-1
ipc-2014-agile-citycar-p4-5-2-0-1.pddl,TIMEOUT:301.09:-1.0:300.0:-1
ipc-2014-agile-citycar-p4-5-2-0-2.pddl,TIMEOUT:301.08:-1.0:300.0:-1
ipc-2014-agile-citycar-p4-5-3-0-1.pddl,SAT:144.043:2237.0:300.0:-1
ipc-2014-agile-citycar-p4-5-3-0-2.pddl,SAT:43.7014:2125.0:300.0:-1
ipc-2014-agile-floortile-p01-4-3-2.pddl,SAT:189.172:92.0:300.0:-1
ipc-2014-agile-floortile-p01-5-4-2.pddl,TIMEOUT:301.03:-1.0:300.0:-1
ipc-2014-agile-floortile-p01-5-5-2.pddl,TIMEOUT:301.07:-1.0:300.0:-1
ipc-2014-agile-floortile-p01-6-4-2.pddl,TIMEOUT:301.08:-1.0:300.0:-1
ipc-2014-agile-floortile-p01-6-5-2.pddl,TIMEOUT:301.06:-1.0:300.0:-1
ipc-2014-agile-floortile-p01-6-5-3.pddl,TIMEOUT:301.09:-1.0:300.0:-1
ipc-2014-agile-floortile-p02-5-4-2.pddl,TIMEOUT:301.01:-1.0:300.0:-1
ipc-2014-agile-floortile-p02-6-4-2.pddl,TIMEOUT:301.09:-1.0:300.0:-1
ipc-2014-agile-floortile-p02-6-5-2.pddl,TIMEOUT:301.07:-1.0:300.0:-1
ipc-2014-agile-floortile-p02-6-5-3.pddl,TIMEOUT:301.04:-1.0:300.0:-1
ipc-2014-agile-floortile-p03-6-4-2.pddl,TIMEOUT:301.05:-1.0:300.0:-1
ipc-2014-agile-floortile-p03-6-5-2.pddl,TIMEOUT:301.02:-1.0:300.0:-1
ipc-2014-agile-floortile-p03-6-5-3.pddl,TIMEOUT:301.05:-1.0:300.0:-1
ipc-2014-agile-floortile-p04-5-4-2.pddl,TIMEOUT:301.06:-1.0:300.0:-1
ipc-2014-agile-floortile-p04-5-5-2.pddl,TIMEOUT:301.09:-1.0:300.0:-1
ipc-2014-agile-floortile-p04-6-5-2.pddl,TIMEOUT:301.02:-1.0:300.0:-1
ipc-2014-agile-floortile-p04-6-5-3.pddl,TIMEOUT:301.02:-1.0:300.0:-1
ipc-2014-agile-floortile-p05-4-3-2.pddl,SAT:192.587:62.0:300.0:-1
ipc-2014-agile-floortile-p05-6-5-2.pddl,TIMEOUT:301.06:-1.0:300.0:-1
ipc-2014-agile-floortile-p05-6-5-3.pddl,TIMEOUT:301.09:-1.0:300.0:-1
ipc-2014-agile-ged-d-10-1.pddl,SAT:7.96879:45.0:300.0:-1
ipc-2014-agile-ged-d-10-2.pddl,SAT:66.5929:219.0:300.0:-1
ipc-2014-agile-ged-d-10-3.pddl,SAT:73.1779:159.0:300.0:-1
ipc-2014-agile-ged-d-10-4.pddl,SAT:9.80451:69.0:300.0:-1
ipc-2014-agile-ged-d-10-5.pddl,SAT:191.777:49.0:300.0:-1
ipc-2014-agile-ged-d-10-6.pddl,SAT:190.134:38.0:300.0:-1
ipc-2014-agile-ged-d-11-1.pddl,SAT:157.767:63.0:300.0:-1
ipc-2014-agile-ged-d-11-3.pddl,SAT:29.6885:127.0:300.0:-1
ipc-2014-agile-ged-d-11-5.pddl,SAT:107.736:52.0:300.0:-1
ipc-2014-agile-ged-d-11-6.pddl,SAT:188.237:45.0:300.0:-1
ipc-2014-agile-ged-d-12-11.pddl,SAT:187.062:31.0:300.0:-1
ipc-2014-agile-ged-d-12-2.pddl,SAT:209.537:38.0:300.0:-1
ipc-2014-agile-ged-d-12-3.pddl,SAT:220.182:51.0:300.0:-1
ipc-2014-agile-ged-d-12-5.pddl,SAT:208.141:38.0:300.0:-1
ipc-2014-agile-ged-d-12-6.pddl,SAT:193.194:53.0:300.0:-1
ipc-2014-agile-ged-d-12-7.pddl,SAT:195.714:48.0:300.0:-1
ipc-2014-agile-ged-d-12-8.pddl,SAT:198.737:51.0:300.0:-1
ipc-2014-agile-ged-d-12-9.pddl,SAT:201.995:70.0:300.0:-1
ipc-2014-agile-ged-d-3-6.pddl,SAT:5.39218:29.0:300.0:-1
ipc-2014-agile-ged-d-9-5.pddl,SAT:185.599:26.0:300.0:-1
ipc-2014-agile-hiking-3-4-3.pddl,SAT:1.77873:86.0:300.0:-1
ipc-2014-agile-hiking-3-4-4.pddl,SAT:3.22051:107.0:300.0:-1
ipc-2014-agile-hiking-3-4-5.pddl,SAT:5.99709:583.0:300.0:-1
ipc-2014-agile-hiking-3-4-6.pddl,SAT:16.4265:1753.0:300.0:-1
ipc-2014-agile-hiking-3-4-7.pddl,SAT:23.0645:2218.0:300.0:-1
ipc-2014-agile-hiking-3-4-8.pddl,SAT:38.7321:1992.0:300.0:-1
ipc-2014-agile-hiking-3-4-9.pddl,SAT:86.5098:1455.0:300.0:-1
ipc-2014-agile-hiking-4-5-3.pddl,SAT:5.11622:133.0:300.0:-1
ipc-2014-agile-hiking-4-5-4.pddl,SAT:10.0425:788.0:300.0:-1
ipc-2014-agile-hiking-4-5-5.pddl,SAT:17.9313:321.0:300.0:-1
ipc-2014-agile-hiking-4-5-6.pddl,SAT:164.561:561.0:300.0:-1
ipc-2014-agile-hiking-4-5-7.pddl,SAT:76.2304:2058.0:300.0:-1
ipc-2014-agile-hiking-4-5-8.pddl,SAT:167.197:785.0:300.0:-1
ipc-2014-agile-hiking-4-5-9.pddl,TIMEOUT:301.08:-1.0:300.0:-1
ipc-2014-agile-hiking-5-6-3.pddl,SAT:11.0913:49.0:300.0:-1
ipc-2014-agile-hiking-5-6-4.pddl,SAT:25.7821:97.0:300.0:-1
ipc-2014-agile-hiking-5-6-5.pddl,SAT:37.9412:551.0:300.0:-1
ipc-2014-agile-hiking-5-6-6.pddl,SAT:51.3482:1025.0:300.0:-1
ipc-2014-agile-hiking-5-6-7.pddl,TIMEOUT:301.03:-1.0:300.0:-1
ipc-2014-agile-hiking-5-6-8.pddl,TIMEOUT:301.06:-1.0:300.0:-1
ipc-2014-agile-maintenance-1.3.060.180.5-000.pddl,SAT:9.59254:56.0:300.0:-1
ipc-2014-agile-maintenance-1.3.060.180.5-001.pddl,SAT:9.55655:52.0:300.0:-1
ipc-2014-agile-maintenance-1.3.060.180.5-002.pddl,SAT:98.965:51.0:300.0:-1
ipc-2014-agile-maintenance-1.3.100.300.5-000.pddl,SAT:183.261:92.0:300.0:-1
ipc-2014-agile-maintenance-1.3.100.300.5-001.pddl,TIMEOUT:301.08:-1.0:300.0:-1
ipc-2014-agile-maintenance-1.3.100.300.7-000.pddl,SAT:4.25835:96.0:300.0:-1
ipc-2014-agile-maintenance-1.3.100.300.7-001.pddl,SAT:4.16337:73.0:300.0:-1
ipc-2014-agile-maintenance-1.3.100.300.7-002.pddl,SAT:3.45547:77.0:300.0:-1
ipc-2014-agile-maintenance-1.3.150.500.6-001.pddl,SAT:31.8012:128.0:300.0:-1
ipc-2014-agile-maintenance-1.3.200.500.5-001.pddl,SAT:68.7026:176.0:300.0:-1
ipc-2014-agile-maintenance-1.3.200.500.5-002.pddl,SAT:162.387:178.0:300.0:-1
ipc-2014-agile-maintenance-1.3.200.700.7-000.pddl,SAT:53.8158:170.0:300.0:-1
ipc-2014-agile-maintenance-1.3.200.700.7-001.pddl,SAT:65.651:178.0:300.0:-1
ipc-2014-agile-maintenance-1.3.200.700.7-002.pddl,SAT:15.1457:171.0:300.0:-1
ipc-2014-agile-maintenance-1.3.200.900.5-000.pddl,TIMEOUT:301.01:-1.0:300.0:-1
ipc-2014-agile-maintenance-1.3.200.900.5-001.pddl,TIMEOUT:301.01:-1.0:300.0:-1
ipc-2014-agile-maintenance-1.3.200.900.5-002.pddl,TIMEOUT:301.08:-1.0:300.0:-1
ipc-2014-agile-maintenance-1.3.200.900.8-000.pddl,SAT:87.5437:179.0:300.0:-1
ipc-2014-agile-maintenance-1.3.200.900.8-001.pddl,SAT:26.6629:167.0:300.0:-1
ipc-2014-agile-maintenance-1.3.200.900.8-002.pddl,SAT:40.3099:171.0:300.0:-1
ipc-2014-agile-openstacks-p130_2.pddl,SAT:15.5866:104.0:300.0:-1
ipc-2014-agile-openstacks-p130_3.pddl,SAT:23.9154:119.0:300.0:-1
ipc-2014-agile-openstacks-p150_2.pddl,SAT:25.4411:97.0:300.0:-1
ipc-2014-agile-openstacks-p150_3.pddl,SAT:31.5652:137.0:300.0:-1
ipc-2014-agile-openstacks-p170_1.pddl,SAT:29.9384:127.0:300.0:-1
ipc-2014-agile-openstacks-p170_2.pddl,SAT:32.3141:141.0:300.0:-1
ipc-2014-agile-openstacks-p170_3.pddl,SAT:49.2505:160.0:300.0:-1
ipc-2014-agile-openstacks-p190_1.pddl,SAT:40.6868:142.0:300.0:-1
ipc-2014-agile-openstacks-p190_2.pddl,SAT:42.2736:134.0:300.0:-1
ipc-2014-agile-openstacks-p190_3.pddl,SAT:57.0553:188.0:300.0:-1
ipc-2014-agile-openstacks-p210_1.pddl,SAT:61.4407:143.0:300.0:-1
ipc-2014-agile-openstacks-p210_2.pddl,SAT:54.3017:153.0:300.0:-1
ipc-2014-agile-openstacks-p230_1.pddl,SAT:63.5713:174.0:300.0:-1
ipc-2014-agile-openstacks-p230_2.pddl,SAT:69.9714:171.0:300.0:-1
ipc-2014-agile-openstacks-p250_1.pddl,SAT:78.5621:200.0:300.0:-1
ipc-2014-agile-openstacks-p250_2.pddl,SAT:86.8318:189.0:300.0:-1
ipc-2014-agile-openstacks-p270_1.pddl,SAT:98.545:182.0:300.0:-1
ipc-2014-agile-openstacks-p270_2.pddl,SAT:102.097:251.0:300.0:-1
ipc-2014-agile-openstacks-p290_1.pddl,SAT:165.737:216.0:300.0:-1
ipc-2014-agile-openstacks-p290_2.pddl,SAT:138.656:230.0:300.0:-1
ipc-2014-agile-parking-28_2.pddl,TIMEOUT:301.06:-1.0:300.0:-1
ipc-2014-agile-parking-28_3.pddl,TIMEOUT:301.04:-1.0:300.0:-1
ipc-2014-agile-parking-30_1.pddl,TIMEOUT:301.05:-1.0:300.0:-1
ipc-2014-agile-parking-30_2.pddl,TIMEOUT:301.07:-1.0:300.0:-1
ipc-2014-agile-parking-30_3.pddl,TIMEOUT:301.02:-1.0:300.0:-1
ipc-2014-agile-parking-32_1.pddl,TIMEOUT:301.05:-1.0:300.0:-1
ipc-2014-agile-parking-32_2.pddl,TIMEOUT:301.02:-1.0:300.0:-1
ipc-2014-agile-parking-32_3.pddl,TIMEOUT:301.094:-1.0:300.0:-1
ipc-2014-agile-parking-34_1.pddl,TIMEOUT:301.07:-1.0:300.0:-1
ipc-2014-agile-parking-34_2.pddl,TIMEOUT:301.03:-1.0:300.0:-1
ipc-2014-agile-parking-34_3.pddl,TIMEOUT:301.11:-1.0:300.0:-1
ipc-2014-agile-parking-36_1.pddl,TIMEOUT:301.03:-1.0:300.0:-1
ipc-2014-agile-parking-36_2.pddl,TIMEOUT:301.02:-1.0:300.0:-1
ipc-2014-agile-parking-36_3.pddl,TIMEOUT:301.07:-1.0:300.0:-1
ipc-2014-agile-parking-38_1.pddl,TIMEOUT:301.08:-1.0:300.0:-1
ipc-2014-agile-parking-38_2.pddl,TIMEOUT:301.02:-1.0:300.0:-1
ipc-2014-agile-parking-38_3.pddl,TIMEOUT:301.01:-1.0:300.0:-1
ipc-2014-agile-parking-40_1.pddl,TIMEOUT:301.09:-1.0:300.0:-1
ipc-2014-agile-parking-40_2.pddl,TIMEOUT:301.08:-1.0:300.0:-1
ipc-2014-agile-parking-40_3.pddl,TIMEOUT:301.07:-1.0:300.0:-1
ipc-2014-agile-tetris-020.pddl,SAT:5.76912:127.0:300.0:-1
ipc-2014-agile-tetris-021.pddl,SAT:21.3428:156.0:300.0:-1
ipc-2014-agile-tetris-022.pddl,SAT:21.3348:337.0:300.0:-1
ipc-2014-agile-tetris-023.pddl,SAT:17.4034:702.0:300.0:-1
ipc-2014-agile-tetris-024.pddl,SAT:42.9305:901.0:300.0:-1
ipc-2014-agile-tetris-025.pddl,SAT:12.7721:519.0:300.0:-1
ipc-2014-agile-tetris-026.pddl,TIMEOUT:301.01:-1.0:300.0:-1
ipc-2014-agile-tetris-027.pddl,TIMEOUT:301.0:-1.0:300.0:-1
ipc-2014-agile-tetris-028.pddl,SAT:41.2797:904.0:300.0:-1
ipc-2014-agile-tetris-029.pddl,SAT:13.26:726.0:300.0:-1
ipc-2014-agile-tetris-031.pddl,SAT:112.08:1566.0:300.0:-1
ipc-2014-agile-tetris-032.pddl,SAT:48.6256:952.0:300.0:-1
ipc-2014-agile-tetris-033.pddl,SAT:88.9475:919.0:300.0:-1
ipc-2014-agile-tetris-034.pddl,SAT:53.6998:836.0:300.0:-1
ipc-2014-agile-tetris-035.pddl,SAT:64.0443:682.0:300.0:-1
ipc-2014-agile-tetris-036.pddl,SAT:49.8284:1354.0:300.0:-1
ipc-2014-agile-tetris-037.pddl,SAT:37.5813:1820.0:300.0:-1
ipc-2014-agile-tetris-038.pddl,SAT:71.6821:825.0:300.0:-1
ipc-2014-agile-tetris-039.pddl,TIMEOUT:301.04:-1.0:300.0:-1
ipc-2014-agile-tetris-040.pddl,SAT:76.0104:852.0:300.0:-1
ipc-2014-agile-thoughtful-bootstrap-typed-01.pddl,CRASHED:0.12498:1000000000.0:300.0:-1
ipc-2014-agile-thoughtful-bootstrap-typed-02.pddl,CRASHED:0.118981:1000000000.0:300.0:-1
ipc-2014-agile-thoughtful-bootstrap-typed-03.pddl,CRASHED:0.12498:1000000000.0:300.0:-1
ipc-2014-agile-thoughtful-bootstrap-typed-04.pddl,CRASHED:0.114982:1000000000.0:300.0:-1
ipc-2014-agile-thoughtful-bootstrap-typed-05.pddl,CRASHED:0.12498:1000000000.0:300.0:-1
ipc-2014-agile-thoughtful-p11_6_53-typed.pddl,CRASHED:0.127979:1000000000.0:300.0:-1
ipc-2014-agile-thoughtful-p11_6_59-typed.pddl,CRASHED:0.127979:1000000000.0:300.0:-1
ipc-2014-agile-thoughtful-p11_6_62-typed.pddl,CRASHED:0.120981:1000000000.0:300.0:-1
ipc-2014-agile-thoughtful-p13_7_78-typed.pddl,CRASHED:0.228964:1000000000.0:300.0:-1
ipc-2014-agile-thoughtful-p13_7_79-typed.pddl,CRASHED:0.228964:1000000000.0:300.0:-1
ipc-2014-agile-thoughtful-p13_7_86-typed.pddl,CRASHED:0.186971:1000000000.0:300.0:-1
ipc-2014-agile-thoughtful-target-typed-20.pddl,CRASHED:0.137978:1000000000.0:300.0:-1
ipc-2014-agile-thoughtful-target-typed-21.pddl,CRASHED:0.12998:1000000000.0:300.0:-1
ipc-2014-agile-thoughtful-target-typed-22.pddl,CRASHED:0.12898:1000000000.0:300.0:-1
ipc-2014-agile-thoughtful-target-typed-23.pddl,CRASHED:0.12898:1000000000.0:300.0:-1
ipc-2014-agile-thoughtful-target-typed-24.pddl,CRASHED:0.132979:1000000000.0:300.0:-1
ipc-2014-agile-thoughtful-target-typed-25.pddl,CRASHED:0.139977:1000000000.0:300.0:-1
ipc-2014-agile-thoughtful-target-typed-26.pddl,CRASHED:0.129979:1000000000.0:300.0:-1
ipc-2014-agile-thoughtful-target-typed-27.pddl,CRASHED:0.12998:1000000000.0:300.0:-1
ipc-2014-agile-thoughtful-target-typed-28.pddl,CRASHED:0.130979:1000000000.0:300.0:-1
ipc-2014-agile-transport-01.pddl,SAT:20.041:19115.0:300.0:-1
ipc-2014-agile-transport-02.pddl,TIMEOUT:301.1:-1.0:300.0:-1
ipc-2014-agile-transport-03.pddl,SAT:32.845:28113.0:300.0:-1
ipc-2014-agile-transport-04.pddl,TIMEOUT:301.07:-1.0:300.0:-1
ipc-2014-agile-transport-05.pddl,TIMEOUT:301.01:-1.0:300.0:-1
ipc-2014-agile-transport-06.pddl,TIMEOUT:301.06:-1.0:300.0:-1
ipc-2014-agile-transport-07.pddl,TIMEOUT:301.03:-1.0:300.0:-1
ipc-2014-agile-transport-08.pddl,TIMEOUT:301.06:-1.0:300.0:-1
ipc-2014-agile-transport-09.pddl,TIMEOUT:301.04:-1.0:300.0:-1
ipc-2014-agile-transport-10.pddl,TIMEOUT:301.03:-1.0:300.0:-1
ipc-2014-agile-transport-11.pddl,SAT:46.303:18115.0:300.0:-1
ipc-2014-agile-transport-12.pddl,SAT:54.7967:20260.0:300.0:-1
ipc-2014-agile-transport-13.pddl,SAT:18.5202:23656.0:300.0:-1
ipc-2014-agile-transport-14.pddl,TIMEOUT:301.01:-1.0:300.0:-1
ipc-2014-agile-transport-15.pddl,TIMEOUT:301.03:-1.0:300.0:-1
ipc-2014-agile-transport-16.pddl,TIMEOUT:301.01:-1.0:300.0:-1
ipc-2014-agile-transport-17.pddl,TIMEOUT:301.05:-1.0:300.0:-1
ipc-2014-agile-transport-18.pddl,TIMEOUT:301.08:-1.0:300.0:-1
ipc-2014-agile-transport-19.pddl,TIMEOUT:301.01:-1.0:300.0:-1
ipc-2014-agile-transport-20.pddl,TIMEOUT:301.04:-1.0:300.0:-1
ipc-2014-agile-visitall-30.pddl,SAT:102.636:5367.0:300.0:-1
ipc-2014-agile-visitall-31.pddl,SAT:216.214:1367.0:300.0:-1
ipc-2014-agile-visitall-32.pddl,SAT:142.042:7240.0:300.0:-1
ipc-2014-agile-visitall-33.pddl,SAT:157.198:7390.0:300.0:-1
ipc-2014-agile-visitall-50.pddl,TIMEOUT:301.03:-1.0:300.0:-1
ipc-2014-agile-visitall-51.pddl,TIMEOUT:301.08:-1.0:300.0:-1
ipc-2014-agile-visitall-52.pddl,TIMEOUT:301.1:-1.0:300.0:-1
ipc-2014-agile-visitall-53.pddl,TIMEOUT:301.03:-1.0:300.0:-1
ipc-2014-agile-visitall-54.pddl,TIMEOUT:301.1:-1.0:300.0:-1
ipc-2014-agile-visitall-55.pddl,TIMEOUT:301.02:-1.0:300.0:-1
ipc-2014-agile-visitall-56.pddl,TIMEOUT:301.05:-1.0:300.0:-1
ipc-2014-agile-visitall-57.pddl,TIMEOUT:301.11:-1.0:300.0:-1
ipc-2014-agile-visitall-58.pddl,TIMEOUT:301.1:-1.0:300.0:-1
ipc-2014-agile-visitall-59.pddl,TIMEOUT:301.08:-1.0:300.0:-1
ipc-2014-agile-visitall-60.pddl,TIMEOUT:301.11:-1.0:300.0:-1
ipc-2014-agile-visitall-61.pddl,TIMEOUT:301.06:-1.0:300.0:-1
ipc-2014-agile-visitall-62.pddl,TIMEOUT:301.09:-1.0:300.0:-1
ipc-2014-agile-visitall-63.pddl,TIMEOUT:301.09:-1.0:300.0:-1
ipc-2014-agile-visitall-64.pddl,TIMEOUT:301.06:-1.0:300.0:-1
ipc-2014-agile-visitall-65.pddl,TIMEOUT:301.04:-1.0:300.0:-1
