instance,ipc-2014-agile-freelunch
ipc-2014-agile-barman-p1-11-4-15.pddl,TIMEOUT:301.09:-1.0:300.0:-1
ipc-2014-agile-barman-p1-11-5-15.pddl,TIMEOUT:301.06:-1.0:300.0:-1
ipc-2014-agile-barman-p1-11-5-16.pddl,TIMEOUT:301.04:-1.0:300.0:-1
ipc-2014-agile-barman-p2-10-4-13.pddl,TIMEOUT:301.02:-1.0:300.0:-1
ipc-2014-agile-barman-p2-11-4-15.pddl,TIMEOUT:301.06:-1.0:300.0:-1
ipc-2014-agile-barman-p2-11-5-15.pddl,TIMEOUT:301.08:-1.0:300.0:-1
ipc-2014-agile-barman-p2-11-5-16.pddl,TIMEOUT:301.01:-1.0:300.0:-1
ipc-2014-agile-barman-p2-11-5-17.pddl,TIMEOUT:301.07:-1.0:300.0:-1
ipc-2014-agile-barman-p3-10-4-13.pddl,TIMEOUT:301.09:-1.0:300.0:-1
ipc-2014-agile-barman-p3-11-4-15.pddl,TIMEOUT:301.07:-1.0:300.0:-1
ipc-2014-agile-barman-p3-11-5-15.pddl,TIMEOUT:301.02:-1.0:300.0:-1
ipc-2014-agile-barman-p3-11-5-16.pddl,TIMEOUT:301.03:-1.0:300.0:-1
ipc-2014-agile-barman-p3-11-5-17.pddl,TIMEOUT:301.04:-1.0:300.0:-1
ipc-2014-agile-barman-p4-11-4-14.pddl,TIMEOUT:301.02:-1.0:300.0:-1
ipc-2014-agile-barman-p4-11-4-15.pddl,TIMEOUT:301.05:-1.0:300.0:-1
ipc-2014-agile-barman-p4-11-5-15.pddl,TIMEOUT:301.03:-1.0:300.0:-1
ipc-2014-agile-barman-p5-10-4-13.pddl,TIMEOUT:301.07:-1.0:300.0:-1
ipc-2014-agile-barman-p5-11-4-15.pddl,TIMEOUT:301.08:-1.0:300.0:-1
ipc-2014-agile-barman-p5-11-5-15.pddl,TIMEOUT:301.03:-1.0:300.0:-1
ipc-2014-agile-barman-p5-11-5-16.pddl,TIMEOUT:301.09:-1.0:300.0:-1
ipc-2014-agile-cavediving-01_easy.pddl,CRASHED:1.35279:1000000000.0:300.0:-1
ipc-2014-agile-cavediving-01.pddl,CRASHED:1.65475:1000000000.0:300.0:-1
ipc-2014-agile-cavediving-02_easy.pddl,CRASHED:1.24481:1000000000.0:300.0:-1
ipc-2014-agile-cavediving-03_easy.pddl,CRASHED:1.25981:1000000000.0:300.0:-1
ipc-2014-agile-cavediving-04_easy.pddl,CRASHED:1.23881:1000000000.0:300.0:-1
ipc-2014-agile-cavediving-05A_easy.pddl,CRASHED:0.577912:1000000000.0:300.0:-1
ipc-2014-agile-cavediving-06A_easy.pddl,CRASHED:0.563913:1000000000.0:300.0:-1
ipc-2014-agile-cavediving-07_easy.pddl,SAT:170.527:135.0:300.0:-1
ipc-2014-agile-cavediving-08_easy.pddl,CRASHED:0.639901:1000000000.0:300.0:-1
ipc-2014-agile-cavediving-09_easy.pddl,CRASHED:5.29019:1000000000.0:300.0:-1
ipc-2014-agile-cavediving-10_easy.pddl,CRASHED:5.29819:1000000000.0:300.0:-1
ipc-2014-agile-cavediving-11_easy.pddl,CRASHED:4.75328:1000000000.0:300.0:-1
ipc-2014-agile-cavediving-12_easy.pddl,CRASHED:5.29219:1000000000.0:300.0:-1
ipc-2014-agile-cavediving-13_easy.pddl,CRASHED:1.77873:1000000000.0:300.0:-1
ipc-2014-agile-cavediving-14_easy.pddl,CRASHED:1.66275:1000000000.0:300.0:-1
ipc-2014-agile-cavediving-15_easy.pddl,CRASHED:1.44278:1000000000.0:300.0:-1
ipc-2014-agile-cavediving-16_easy.pddl,CRASHED:1.60476:1000000000.0:300.0:-1
ipc-2014-agile-cavediving-18A_easy.pddl,SAT:249.84:131.0:300.0:-1
ipc-2014-agile-cavediving-18_easy.pddl,TIMEOUT:301.09:-1.0:300.0:-1
ipc-2014-agile-cavediving-20A_easy.pddl,CRASHED:0.6539:1000000000.0:300.0:-1
ipc-2014-agile-childsnack-05-2.pddl,SAT:68.0107:38.0:300.0:-1
ipc-2014-agile-childsnack-05.pddl,SAT:67.9957:40.0:300.0:-1
ipc-2014-agile-childsnack-06-2.pddl,SAT:123.199:36.0:300.0:-1
ipc-2014-agile-childsnack-07-2.pddl,SAT:199.088:44.0:300.0:-1
ipc-2014-agile-childsnack-08-2.pddl,TIMEOUT:301.05:-1.0:300.0:-1
ipc-2014-agile-childsnack-08.pddl,TIMEOUT:301.09:-1.0:300.0:-1
ipc-2014-agile-childsnack-09-2.pddl,TIMEOUT:301.09:-1.0:300.0:-1
ipc-2014-agile-childsnack-09.pddl,TIMEOUT:301.07:-1.0:300.0:-1
ipc-2014-agile-childsnack-10-2.pddl,TIMEOUT:301.03:-1.0:300.0:-1
ipc-2014-agile-childsnack-10.pddl,TIMEOUT:301.05:-1.0:300.0:-1
ipc-2014-agile-childsnack-11-2.pddl,TIMEOUT:301.02:-1.0:300.0:-1
ipc-2014-agile-childsnack-11.pddl,TIMEOUT:301.05:-1.0:300.0:-1
ipc-2014-agile-childsnack-12.pddl,TIMEOUT:301.05:-1.0:300.0:-1
ipc-2014-agile-childsnack-13-2.pddl,TIMEOUT:301.01:-1.0:300.0:-1
ipc-2014-agile-childsnack-13.pddl,TIMEOUT:301.11:-1.0:300.0:-1
ipc-2014-agile-childsnack-14.pddl,CRASHED:171.8:1000000000.0:300.0:-1
ipc-2014-agile-childsnack-15-2.pddl,CRASHED:257.2:1000000000.0:300.0:-1
ipc-2014-agile-childsnack-16-2.pddl,CRASHED:46.47:1000000000.0:300.0:-1
ipc-2014-agile-childsnack-19-2.pddl,CRASHED:66.04:1000000000.0:300.0:-1
ipc-2014-agile-childsnack-19.pddl,CRASHED:66.14:1000000000.0:300.0:-1
ipc-2014-agile-citycar-p3-2-2-0-1.pddl,CRASHED:0.735887:1000000000.0:300.0:-1
ipc-2014-agile-citycar-p3-3-2-0-1.pddl,CRASHED:0.868866:1000000000.0:300.0:-1
ipc-2014-agile-citycar-p3-4-2-0-1.pddl,CRASHED:0.972851:1000000000.0:300.0:-1
ipc-2014-agile-citycar-p3-5-2-0-1.pddl,CRASHED:1.08383:1000000000.0:300.0:-1
ipc-2014-agile-citycar-p3-5-2-0-2.pddl,CRASHED:1.11083:1000000000.0:300.0:-1
ipc-2014-agile-citycar-p4-2-2-0-1.pddl,CRASHED:1.3378:1000000000.0:300.0:-1
ipc-2014-agile-citycar-p4-2-3-0-1.pddl,CRASHED:1.36879:1000000000.0:300.0:-1
ipc-2014-agile-citycar-p4-2-3-0-2.pddl,CRASHED:1.3388:1000000000.0:300.0:-1
ipc-2014-agile-citycar-p4-3-2-0-1.pddl,CRASHED:1.65375:1000000000.0:300.0:-1
ipc-2014-agile-citycar-p4-3-2-0-2.pddl,CRASHED:1.65775:1000000000.0:300.0:-1
ipc-2014-agile-citycar-p4-3-3-0-1.pddl,CRASHED:1.64575:1000000000.0:300.0:-1
ipc-2014-agile-citycar-p4-3-3-0-2.pddl,CRASHED:1.73474:1000000000.0:300.0:-1
ipc-2014-agile-citycar-p4-4-2-0-1.pddl,CRASHED:2.06069:1000000000.0:300.0:-1
ipc-2014-agile-citycar-p4-4-2-0-2.pddl,CRASHED:2.08168:1000000000.0:300.0:-1
ipc-2014-agile-citycar-p4-4-3-0-1.pddl,CRASHED:2.06369:1000000000.0:300.0:-1
ipc-2014-agile-citycar-p4-4-3-0-2.pddl,CRASHED:2.07568:1000000000.0:300.0:-1
ipc-2014-agile-citycar-p4-5-2-0-1.pddl,CRASHED:2.39464:1000000000.0:300.0:-1
ipc-2014-agile-citycar-p4-5-2-0-2.pddl,CRASHED:2.32964:1000000000.0:300.0:-1
ipc-2014-agile-citycar-p4-5-3-0-1.pddl,CRASHED:2.25266:1000000000.0:300.0:-1
ipc-2014-agile-citycar-p4-5-3-0-2.pddl,CRASHED:2.26565:1000000000.0:300.0:-1
ipc-2014-agile-floortile-p01-4-3-2.pddl,SAT:14.5078:106.0:300.0:-1
ipc-2014-agile-floortile-p01-5-4-2.pddl,SAT:52.769:187.0:300.0:-1
ipc-2014-agile-floortile-p01-5-5-2.pddl,SAT:270.909:221.0:300.0:-1
ipc-2014-agile-floortile-p01-6-4-2.pddl,SAT:99.9168:214.0:300.0:-1
ipc-2014-agile-floortile-p01-6-5-2.pddl,TIMEOUT:301.07:-1.0:300.0:-1
ipc-2014-agile-floortile-p01-6-5-3.pddl,SAT:151.891:281.0:300.0:-1
ipc-2014-agile-floortile-p02-5-4-2.pddl,SAT:44.0523:170.0:300.0:-1
ipc-2014-agile-floortile-p02-6-4-2.pddl,SAT:93.5628:221.0:300.0:-1
ipc-2014-agile-floortile-p02-6-5-2.pddl,TIMEOUT:301.05:-1.0:300.0:-1
ipc-2014-agile-floortile-p02-6-5-3.pddl,TIMEOUT:301.04:-1.0:300.0:-1
ipc-2014-agile-floortile-p03-6-4-2.pddl,SAT:90.6172:230.0:300.0:-1
ipc-2014-agile-floortile-p03-6-5-2.pddl,TIMEOUT:301.06:-1.0:300.0:-1
ipc-2014-agile-floortile-p03-6-5-3.pddl,SAT:266.282:277.0:300.0:-1
ipc-2014-agile-floortile-p04-5-4-2.pddl,SAT:48.1227:185.0:300.0:-1
ipc-2014-agile-floortile-p04-5-5-2.pddl,TIMEOUT:301.09:-1.0:300.0:-1
ipc-2014-agile-floortile-p04-6-5-2.pddl,TIMEOUT:301.13:-1.0:300.0:-1
ipc-2014-agile-floortile-p04-6-5-3.pddl,TIMEOUT:301.08:-1.0:300.0:-1
ipc-2014-agile-floortile-p05-4-3-2.pddl,SAT:14.9767:92.0:300.0:-1
ipc-2014-agile-floortile-p05-6-5-2.pddl,TIMEOUT:301.02:-1.0:300.0:-1
ipc-2014-agile-floortile-p05-6-5-3.pddl,SAT:226.512:289.0:300.0:-1
ipc-2014-agile-ged-d-10-1.pddl,CRASHED:120.63:1000000000.0:300.0:-1
ipc-2014-agile-ged-d-10-2.pddl,CRASHED:8.31774:1000000000.0:300.0:-1
ipc-2014-agile-ged-d-10-3.pddl,CRASHED:145.21:1000000000.0:300.0:-1
ipc-2014-agile-ged-d-10-4.pddl,CRASHED:132.07:1000000000.0:300.0:-1
ipc-2014-agile-ged-d-10-5.pddl,CRASHED:163.12:1000000000.0:300.0:-1
ipc-2014-agile-ged-d-10-6.pddl,CRASHED:165.52:1000000000.0:300.0:-1
ipc-2014-agile-ged-d-11-1.pddl,CRASHED:9.2016:1000000000.0:300.0:-1
ipc-2014-agile-ged-d-11-3.pddl,CRASHED:138.28:1000000000.0:300.0:-1
ipc-2014-agile-ged-d-11-5.pddl,CRASHED:181.96:1000000000.0:300.0:-1
ipc-2014-agile-ged-d-11-6.pddl,CRASHED:155.59:1000000000.0:300.0:-1
ipc-2014-agile-ged-d-12-11.pddl,CRASHED:174.21:1000000000.0:300.0:-1
ipc-2014-agile-ged-d-12-2.pddl,CRASHED:249.22:1000000000.0:300.0:-1
ipc-2014-agile-ged-d-12-3.pddl,CRASHED:255.76:1000000000.0:300.0:-1
ipc-2014-agile-ged-d-12-5.pddl,CRASHED:263.24:1000000000.0:300.0:-1
ipc-2014-agile-ged-d-12-6.pddl,CRASHED:202.56:1000000000.0:300.0:-1
ipc-2014-agile-ged-d-12-7.pddl,CRASHED:252.5:1000000000.0:300.0:-1
ipc-2014-agile-ged-d-12-8.pddl,TIMEOUT:301.05:-1.0:300.0:-1
ipc-2014-agile-ged-d-12-9.pddl,TIMEOUT:301.04:-1.0:300.0:-1
ipc-2014-agile-ged-d-3-6.pddl,CRASHED:138.08:1000000000.0:300.0:-1
ipc-2014-agile-ged-d-9-5.pddl,CRASHED:164.9:1000000000.0:300.0:-1
ipc-2014-agile-hiking-3-4-3.pddl,SAT:3.88041:1712.0:300.0:-1
ipc-2014-agile-hiking-3-4-4.pddl,CRASHED:9.42157:1000000000.0:300.0:-1
ipc-2014-agile-hiking-3-4-5.pddl,SAT:9.37457:3983.0:300.0:-1
ipc-2014-agile-hiking-3-4-6.pddl,TIMEOUT:301.05:-1.0:300.0:-1
ipc-2014-agile-hiking-3-4-7.pddl,CRASHED:18.9501:1000000000.0:300.0:-1
ipc-2014-agile-hiking-3-4-8.pddl,TIMEOUT:301.16:-1.0:300.0:-1
ipc-2014-agile-hiking-3-4-9.pddl,TIMEOUT:301.22:-1.0:300.0:-1
ipc-2014-agile-hiking-4-5-3.pddl,TIMEOUT:301.03:-1.0:300.0:-1
ipc-2014-agile-hiking-4-5-4.pddl,TIMEOUT:301.04:-1.0:300.0:-1
ipc-2014-agile-hiking-4-5-5.pddl,TIMEOUT:301.08:-1.0:300.0:-1
ipc-2014-agile-hiking-4-5-6.pddl,TIMEOUT:301.04:-1.0:300.0:-1
ipc-2014-agile-hiking-4-5-7.pddl,TIMEOUT:301.21:-1.0:300.0:-1
ipc-2014-agile-hiking-4-5-8.pddl,TIMEOUT:301.03:-1.0:300.0:-1
ipc-2014-agile-hiking-4-5-9.pddl,TIMEOUT:301.32:-1.0:300.0:-1
ipc-2014-agile-hiking-5-6-3.pddl,SAT:20.3789:6322.0:300.0:-1
ipc-2014-agile-hiking-5-6-4.pddl,TIMEOUT:301.09:-1.0:300.0:-1
ipc-2014-agile-hiking-5-6-5.pddl,TIMEOUT:301.14:-1.0:300.0:-1
ipc-2014-agile-hiking-5-6-6.pddl,TIMEOUT:301.15:-1.0:300.0:-1
ipc-2014-agile-hiking-5-6-7.pddl,TIMEOUT:301.19:-1.0:300.0:-1
ipc-2014-agile-hiking-5-6-8.pddl,TIMEOUT:301.13:-1.0:300.0:-1
ipc-2014-agile-maintenance-1.3.060.180.5-000.pddl,SAT:1.39379:42.0:300.0:-1
ipc-2014-agile-maintenance-1.3.060.180.5-001.pddl,SAT:1.39579:41.0:300.0:-1
ipc-2014-agile-maintenance-1.3.060.180.5-002.pddl,SAT:11.7522:58.0:300.0:-1
ipc-2014-agile-maintenance-1.3.100.300.5-000.pddl,SAT:2.74258:71.0:300.0:-1
ipc-2014-agile-maintenance-1.3.100.300.5-001.pddl,SAT:13.252:88.0:300.0:-1
ipc-2014-agile-maintenance-1.3.100.300.7-000.pddl,SAT:3.2735:55.0:300.0:-1
ipc-2014-agile-maintenance-1.3.100.300.7-001.pddl,SAT:14.1438:75.0:300.0:-1
ipc-2014-agile-maintenance-1.3.100.300.7-002.pddl,SAT:3.44848:56.0:300.0:-1
ipc-2014-agile-maintenance-1.3.150.500.6-001.pddl,SAT:17.5833:133.0:300.0:-1
ipc-2014-agile-maintenance-1.3.200.500.5-001.pddl,SAT:18.0603:166.0:300.0:-1
ipc-2014-agile-maintenance-1.3.200.500.5-002.pddl,SAT:18.0643:178.0:300.0:-1
ipc-2014-agile-maintenance-1.3.200.700.7-000.pddl,SAT:23.7384:163.0:300.0:-1
ipc-2014-agile-maintenance-1.3.200.700.7-001.pddl,SAT:12.5361:115.0:300.0:-1
ipc-2014-agile-maintenance-1.3.200.700.7-002.pddl,SAT:12.4961:122.0:300.0:-1
ipc-2014-agile-maintenance-1.3.200.900.5-000.pddl,SAT:23.4994:200.0:300.0:-1
ipc-2014-agile-maintenance-1.3.200.900.5-001.pddl,SAT:23.2135:200.0:300.0:-1
ipc-2014-agile-maintenance-1.3.200.900.5-002.pddl,SAT:23.1625:200.0:300.0:-1
ipc-2014-agile-maintenance-1.3.200.900.8-000.pddl,SAT:17.2984:118.0:300.0:-1
ipc-2014-agile-maintenance-1.3.200.900.8-001.pddl,SAT:17.3204:120.0:300.0:-1
ipc-2014-agile-maintenance-1.3.200.900.8-002.pddl,SAT:28.3927:162.0:300.0:-1
ipc-2014-agile-openstacks-p130_2.pddl,SAT:11.4953:92.0:300.0:-1
ipc-2014-agile-openstacks-p130_3.pddl,SAT:13.296:127.0:300.0:-1
ipc-2014-agile-openstacks-p150_2.pddl,SAT:16.3705:103.0:300.0:-1
ipc-2014-agile-openstacks-p150_3.pddl,TIMEOUT:301.0:-1.0:300.0:-1
ipc-2014-agile-openstacks-p170_1.pddl,SAT:20.4599:110.0:300.0:-1
ipc-2014-agile-openstacks-p170_2.pddl,SAT:19.977:132.0:300.0:-1
ipc-2014-agile-openstacks-p170_3.pddl,SAT:23.3075:169.0:300.0:-1
ipc-2014-agile-openstacks-p190_1.pddl,SAT:24.0573:131.0:300.0:-1
ipc-2014-agile-openstacks-p190_2.pddl,SAT:25.3821:146.0:300.0:-1
ipc-2014-agile-openstacks-p190_3.pddl,SAT:29.8595:187.0:300.0:-1
ipc-2014-agile-openstacks-p210_1.pddl,SAT:30.3604:150.0:300.0:-1
ipc-2014-agile-openstacks-p210_2.pddl,SAT:29.0906:170.0:300.0:-1
ipc-2014-agile-openstacks-p230_1.pddl,SAT:34.0078:165.0:300.0:-1
ipc-2014-agile-openstacks-p230_2.pddl,SAT:35.1976:191.0:300.0:-1
ipc-2014-agile-openstacks-p250_1.pddl,SAT:41.6597:190.0:300.0:-1
ipc-2014-agile-openstacks-p250_2.pddl,SAT:42.6525:213.0:300.0:-1
ipc-2014-agile-openstacks-p270_1.pddl,SAT:49.3455:227.0:300.0:-1
ipc-2014-agile-openstacks-p270_2.pddl,SAT:50.6503:225.0:300.0:-1
ipc-2014-agile-openstacks-p290_1.pddl,SAT:57.1043:223.0:300.0:-1
ipc-2014-agile-openstacks-p290_2.pddl,SAT:58.6351:251.0:300.0:-1
ipc-2014-agile-parking-28_2.pddl,TIMEOUT:301.04:-1.0:300.0:-1
ipc-2014-agile-parking-28_3.pddl,TIMEOUT:301.19:-1.0:300.0:-1
ipc-2014-agile-parking-30_1.pddl,TIMEOUT:301.28:-1.0:300.0:-1
ipc-2014-agile-parking-30_2.pddl,TIMEOUT:301.09:-1.0:300.0:-1
ipc-2014-agile-parking-30_3.pddl,TIMEOUT:301.15:-1.0:300.0:-1
ipc-2014-agile-parking-32_1.pddl,TIMEOUT:301.29:-1.0:300.0:-1
ipc-2014-agile-parking-32_2.pddl,TIMEOUT:301.14:-1.0:300.0:-1
ipc-2014-agile-parking-32_3.pddl,TIMEOUT:301.03:-1.0:300.0:-1
ipc-2014-agile-parking-34_1.pddl,TIMEOUT:301.08:-1.0:300.0:-1
ipc-2014-agile-parking-34_2.pddl,TIMEOUT:301.07:-1.0:300.0:-1
ipc-2014-agile-parking-34_3.pddl,TIMEOUT:301.07:-1.0:300.0:-1
ipc-2014-agile-parking-36_1.pddl,TIMEOUT:301.0:-1.0:300.0:-1
ipc-2014-agile-parking-36_2.pddl,TIMEOUT:301.06:-1.0:300.0:-1
ipc-2014-agile-parking-36_3.pddl,TIMEOUT:301.04:-1.0:300.0:-1
ipc-2014-agile-parking-38_1.pddl,TIMEOUT:301.25:-1.0:300.0:-1
ipc-2014-agile-parking-38_2.pddl,TIMEOUT:301.06:-1.0:300.0:-1
ipc-2014-agile-parking-38_3.pddl,TIMEOUT:301.09:-1.0:300.0:-1
ipc-2014-agile-parking-40_1.pddl,TIMEOUT:301.08:-1.0:300.0:-1
ipc-2014-agile-parking-40_2.pddl,TIMEOUT:301.14:-1.0:300.0:-1
ipc-2014-agile-parking-40_3.pddl,TIMEOUT:301.12:-1.0:300.0:-1
ipc-2014-agile-tetris-020.pddl,SAT:5.39018:206.0:300.0:-1
ipc-2014-agile-tetris-021.pddl,SAT:17.1064:579.0:300.0:-1
ipc-2014-agile-tetris-022.pddl,SAT:12.3411:399.0:300.0:-1
ipc-2014-agile-tetris-023.pddl,SAT:12.5371:407.0:300.0:-1
ipc-2014-agile-tetris-024.pddl,SAT:16.8684:455.0:300.0:-1
ipc-2014-agile-tetris-025.pddl,SAT:7.11392:1335.0:300.0:-1
ipc-2014-agile-tetris-026.pddl,CRASHED:38.5111:1000000000.0:300.0:-1
ipc-2014-agile-tetris-027.pddl,SAT:27.6668:1213.0:300.0:-1
ipc-2014-agile-tetris-028.pddl,SAT:22.2626:678.0:300.0:-1
ipc-2014-agile-tetris-029.pddl,SAT:7.81381:1137.0:300.0:-1
ipc-2014-agile-tetris-031.pddl,SAT:38.7001:1210.0:300.0:-1
ipc-2014-agile-tetris-032.pddl,SAT:14.8697:1486.0:300.0:-1
ipc-2014-agile-tetris-033.pddl,SAT:32.984:660.0:300.0:-1
ipc-2014-agile-tetris-034.pddl,SAT:32.976:500.0:300.0:-1
ipc-2014-agile-tetris-035.pddl,SAT:38.2842:1000.0:300.0:-1
ipc-2014-agile-tetris-036.pddl,SAT:31.5042:632.0:300.0:-1
ipc-2014-agile-tetris-037.pddl,SAT:9.04862:541.0:300.0:-1
ipc-2014-agile-tetris-038.pddl,SAT:26.091:643.0:300.0:-1
ipc-2014-agile-tetris-039.pddl,SAT:38.2442:1738.0:300.0:-1
ipc-2014-agile-tetris-040.pddl,SAT:26.9509:877.0:300.0:-1
ipc-2014-agile-thoughtful-bootstrap-typed-01.pddl,CRASHED:0.399938:1000000000.0:300.0:-1
ipc-2014-agile-thoughtful-bootstrap-typed-02.pddl,CRASHED:0.38594:1000000000.0:300.0:-1
ipc-2014-agile-thoughtful-bootstrap-typed-03.pddl,CRASHED:0.384941:1000000000.0:300.0:-1
ipc-2014-agile-thoughtful-bootstrap-typed-04.pddl,CRASHED:0.38994:1000000000.0:300.0:-1
ipc-2014-agile-thoughtful-bootstrap-typed-05.pddl,CRASHED:0.384941:1000000000.0:300.0:-1
ipc-2014-agile-thoughtful-p11_6_53-typed.pddl,CRASHED:0.402938:1000000000.0:300.0:-1
ipc-2014-agile-thoughtful-p11_6_59-typed.pddl,CRASHED:0.404938:1000000000.0:300.0:-1
ipc-2014-agile-thoughtful-p11_6_62-typed.pddl,CRASHED:0.402938:1000000000.0:300.0:-1
ipc-2014-agile-thoughtful-p13_7_78-typed.pddl,CRASHED:0.431933:1000000000.0:300.0:-1
ipc-2014-agile-thoughtful-p13_7_79-typed.pddl,CRASHED:0.416936:1000000000.0:300.0:-1
ipc-2014-agile-thoughtful-p13_7_86-typed.pddl,CRASHED:0.416935:1000000000.0:300.0:-1
ipc-2014-agile-thoughtful-target-typed-20.pddl,CRASHED:0.414936:1000000000.0:300.0:-1
ipc-2014-agile-thoughtful-target-typed-21.pddl,CRASHED:0.417936:1000000000.0:300.0:-1
ipc-2014-agile-thoughtful-target-typed-22.pddl,CRASHED:0.417936:1000000000.0:300.0:-1
ipc-2014-agile-thoughtful-target-typed-23.pddl,CRASHED:0.419935:1000000000.0:300.0:-1
ipc-2014-agile-thoughtful-target-typed-24.pddl,CRASHED:0.421934:1000000000.0:300.0:-1
ipc-2014-agile-thoughtful-target-typed-25.pddl,CRASHED:0.421935:1000000000.0:300.0:-1
ipc-2014-agile-thoughtful-target-typed-26.pddl,CRASHED:0.424934:1000000000.0:300.0:-1
ipc-2014-agile-thoughtful-target-typed-27.pddl,CRASHED:0.421935:1000000000.0:300.0:-1
ipc-2014-agile-thoughtful-target-typed-28.pddl,CRASHED:0.419935:1000000000.0:300.0:-1
ipc-2014-agile-transport-01.pddl,CRASHED:15.3347:1000000000.0:300.0:-1
ipc-2014-agile-transport-02.pddl,CRASHED:18.9071:1000000000.0:300.0:-1
ipc-2014-agile-transport-03.pddl,CRASHED:16.0096:1000000000.0:300.0:-1
ipc-2014-agile-transport-04.pddl,TIMEOUT:301.25:-1.0:300.0:-1
ipc-2014-agile-transport-05.pddl,TIMEOUT:301.33:-1.0:300.0:-1
ipc-2014-agile-transport-06.pddl,TIMEOUT:301.06:-1.0:300.0:-1
ipc-2014-agile-transport-07.pddl,TIMEOUT:301.04:-1.0:300.0:-1
ipc-2014-agile-transport-08.pddl,TIMEOUT:301.01:-1.0:300.0:-1
ipc-2014-agile-transport-09.pddl,TIMEOUT:301.05:-1.0:300.0:-1
ipc-2014-agile-transport-10.pddl,TIMEOUT:301.11:-1.0:300.0:-1
ipc-2014-agile-transport-11.pddl,CRASHED:22.7545:1000000000.0:300.0:-1
ipc-2014-agile-transport-12.pddl,CRASHED:22.8705:1000000000.0:300.0:-1
ipc-2014-agile-transport-13.pddl,CRASHED:13.8109:1000000000.0:300.0:-1
ipc-2014-agile-transport-14.pddl,TIMEOUT:301.09:-1.0:300.0:-1
ipc-2014-agile-transport-15.pddl,TIMEOUT:301.13:-1.0:300.0:-1
ipc-2014-agile-transport-16.pddl,TIMEOUT:301.41:-1.0:300.0:-1
ipc-2014-agile-transport-17.pddl,TIMEOUT:301.12:-1.0:300.0:-1
ipc-2014-agile-transport-18.pddl,TIMEOUT:301.17:-1.0:300.0:-1
ipc-2014-agile-transport-19.pddl,TIMEOUT:301.02:-1.0:300.0:-1
ipc-2014-agile-transport-20.pddl,TIMEOUT:301.02:-1.0:300.0:-1
ipc-2014-agile-visitall-30.pddl,SAT:2.43663:2548.0:300.0:-1
ipc-2014-agile-visitall-31.pddl,SAT:2.49862:2613.0:300.0:-1
ipc-2014-agile-visitall-32.pddl,SAT:3.01154:2628.0:300.0:-1
ipc-2014-agile-visitall-33.pddl,SAT:3.09153:3089.0:300.0:-1
ipc-2014-agile-visitall-50.pddl,TIMEOUT:301.01:-1.0:300.0:-1
ipc-2014-agile-visitall-51.pddl,SAT:11.5392:6293.0:300.0:-1
ipc-2014-agile-visitall-52.pddl,SAT:5.75512:6835.0:300.0:-1
ipc-2014-agile-visitall-53.pddl,TIMEOUT:301.26:-1.0:300.0:-1
ipc-2014-agile-visitall-54.pddl,TIMEOUT:301.04:-1.0:300.0:-1
ipc-2014-agile-visitall-55.pddl,TIMEOUT:301.07:-1.0:300.0:-1
ipc-2014-agile-visitall-56.pddl,SAT:8.19375:8957.0:300.0:-1
ipc-2014-agile-visitall-57.pddl,TIMEOUT:301.01:-1.0:300.0:-1
ipc-2014-agile-visitall-58.pddl,CRASHED:239.762:1000000000.0:300.0:-1
ipc-2014-agile-visitall-59.pddl,TIMEOUT:301.09:-1.0:300.0:-1
ipc-2014-agile-visitall-60.pddl,TIMEOUT:301.09:-1.0:300.0:-1
ipc-2014-agile-visitall-61.pddl,TIMEOUT:301.09:-1.0:300.0:-1
ipc-2014-agile-visitall-62.pddl,CRASHED:235.752:1000000000.0:300.0:-1
ipc-2014-agile-visitall-63.pddl,TIMEOUT:301.09:-1.0:300.0:-1
ipc-2014-agile-visitall-64.pddl,TIMEOUT:301.02:-1.0:300.0:-1
ipc-2014-agile-visitall-65.pddl,TIMEOUT:301.19:-1.0:300.0:-1
