instance,ipc-2014-agile-madagascar-pc
ipc-2014-agile-barman-p1-11-4-15.pddl,TIMEOUT:301.225:-1.0:300.0:-1
ipc-2014-agile-barman-p1-11-5-15.pddl,TIMEOUT:301.229:-1.0:300.0:-1
ipc-2014-agile-barman-p1-11-5-16.pddl,TIMEOUT:301.196:-1.0:300.0:-1
ipc-2014-agile-barman-p2-10-4-13.pddl,TIMEOUT:301.16:-1.0:300.0:-1
ipc-2014-agile-barman-p2-11-4-15.pddl,TIMEOUT:301.189:-1.0:300.0:-1
ipc-2014-agile-barman-p2-11-5-15.pddl,TIMEOUT:301.256:-1.0:300.0:-1
ipc-2014-agile-barman-p2-11-5-16.pddl,TIMEOUT:301.255:-1.0:300.0:-1
ipc-2014-agile-barman-p2-11-5-17.pddl,TIMEOUT:301.244:-1.0:300.0:-1
ipc-2014-agile-barman-p3-10-4-13.pddl,TIMEOUT:301.138:-1.0:300.0:-1
ipc-2014-agile-barman-p3-11-4-15.pddl,TIMEOUT:301.168:-1.0:300.0:-1
ipc-2014-agile-barman-p3-11-5-15.pddl,TIMEOUT:301.205:-1.0:300.0:-1
ipc-2014-agile-barman-p3-11-5-16.pddl,TIMEOUT:301.244:-1.0:300.0:-1
ipc-2014-agile-barman-p3-11-5-17.pddl,TIMEOUT:301.235:-1.0:300.0:-1
ipc-2014-agile-barman-p4-11-4-14.pddl,TIMEOUT:301.17:-1.0:300.0:-1
ipc-2014-agile-barman-p4-11-4-15.pddl,TIMEOUT:301.231:-1.0:300.0:-1
ipc-2014-agile-barman-p4-11-5-15.pddl,SAT:130.299:441.0:300.0:-1
ipc-2014-agile-barman-p5-10-4-13.pddl,TIMEOUT:301.19:-1.0:300.0:-1
ipc-2014-agile-barman-p5-11-4-15.pddl,TIMEOUT:301.219:-1.0:300.0:-1
ipc-2014-agile-barman-p5-11-5-15.pddl,TIMEOUT:301.172:-1.0:300.0:-1
ipc-2014-agile-barman-p5-11-5-16.pddl,TIMEOUT:301.181:-1.0:300.0:-1
ipc-2014-agile-cavediving-01_easy.pddl,TIMEOUT:301.225:-1.0:300.0:-1
ipc-2014-agile-cavediving-01.pddl,TIMEOUT:301.26:-1.0:300.0:-1
ipc-2014-agile-cavediving-02_easy.pddl,TIMEOUT:301.287:-1.0:300.0:-1
ipc-2014-agile-cavediving-03_easy.pddl,TIMEOUT:301.299:-1.0:300.0:-1
ipc-2014-agile-cavediving-04_easy.pddl,TIMEOUT:301.29:-1.0:300.0:-1
ipc-2014-agile-cavediving-05A_easy.pddl,SAT:97.2672:94.0:300.0:-1
ipc-2014-agile-cavediving-06A_easy.pddl,SAT:103.201:95.0:300.0:-1
ipc-2014-agile-cavediving-07_easy.pddl,TIMEOUT:301.151:-1.0:300.0:-1
ipc-2014-agile-cavediving-08_easy.pddl,SAT:102.787:90.0:300.0:-1
ipc-2014-agile-cavediving-09_easy.pddl,TIMEOUT:301.395:-1.0:300.0:-1
ipc-2014-agile-cavediving-10_easy.pddl,TIMEOUT:301.374:-1.0:300.0:-1
ipc-2014-agile-cavediving-11_easy.pddl,TIMEOUT:301.405:-1.0:300.0:-1
ipc-2014-agile-cavediving-12_easy.pddl,TIMEOUT:301.325:-1.0:300.0:-1
ipc-2014-agile-cavediving-13_easy.pddl,TIMEOUT:301.272:-1.0:300.0:-1
ipc-2014-agile-cavediving-14_easy.pddl,TIMEOUT:301.352:-1.0:300.0:-1
ipc-2014-agile-cavediving-15_easy.pddl,TIMEOUT:301.29:-1.0:300.0:-1
ipc-2014-agile-cavediving-16_easy.pddl,TIMEOUT:301.28:-1.0:300.0:-1
ipc-2014-agile-cavediving-18A_easy.pddl,TIMEOUT:301.159:-1.0:300.0:-1
ipc-2014-agile-cavediving-18_easy.pddl,SAT:0.114981:132.0:300.0:-1
ipc-2014-agile-cavediving-20A_easy.pddl,TIMEOUT:301.133:-1.0:300.0:-1
ipc-2014-agile-childsnack-05-2.pddl,SAT:0.091985:36.0:300.0:-1
ipc-2014-agile-childsnack-05.pddl,SAT:0.095985:38.0:300.0:-1
ipc-2014-agile-childsnack-06-2.pddl,SAT:0.130979:38.0:300.0:-1
ipc-2014-agile-childsnack-07-2.pddl,SAT:0.161974:43.0:300.0:-1
ipc-2014-agile-childsnack-08-2.pddl,CRASHED:98.649:1000000000.0:300.0:-1
ipc-2014-agile-childsnack-08.pddl,SAT:0.210967:47.0:300.0:-1
ipc-2014-agile-childsnack-09-2.pddl,SAT:0.415935:47.0:300.0:-1
ipc-2014-agile-childsnack-09.pddl,CRASHED:33.5299:1000000000.0:300.0:-1
ipc-2014-agile-childsnack-10-2.pddl,CRASHED:33.4329:1000000000.0:300.0:-1
ipc-2014-agile-childsnack-10.pddl,CRASHED:30.0964:1000000000.0:300.0:-1
ipc-2014-agile-childsnack-11-2.pddl,CRASHED:198.424:1000000000.0:300.0:-1
ipc-2014-agile-childsnack-11.pddl,CRASHED:150.426:1000000000.0:300.0:-1
ipc-2014-agile-childsnack-12.pddl,CRASHED:38.6041:1000000000.0:300.0:-1
ipc-2014-agile-childsnack-13-2.pddl,CRASHED:112.39:1000000000.0:300.0:-1
ipc-2014-agile-childsnack-13.pddl,CRASHED:122.707:1000000000.0:300.0:-1
ipc-2014-agile-childsnack-14.pddl,CRASHED:46.4399:1000000000.0:300.0:-1
ipc-2014-agile-childsnack-15-2.pddl,CRASHED:24.9292:1000000000.0:300.0:-1
ipc-2014-agile-childsnack-16-2.pddl,CRASHED:65.0451:1000000000.0:300.0:-1
ipc-2014-agile-childsnack-19-2.pddl,CRASHED:49.5845:1000000000.0:300.0:-1
ipc-2014-agile-childsnack-19.pddl,CRASHED:56.8734:1000000000.0:300.0:-1
ipc-2014-agile-citycar-p3-2-2-0-1.pddl,SAT:0.136978:291.0:300.0:-1
ipc-2014-agile-citycar-p3-3-2-0-1.pddl,SAT:0.78688:651.0:300.0:-1
ipc-2014-agile-citycar-p3-4-2-0-1.pddl,SAT:0.38794:722.0:300.0:-1
ipc-2014-agile-citycar-p3-5-2-0-1.pddl,SAT:69.0425:694.0:300.0:-1
ipc-2014-agile-citycar-p3-5-2-0-2.pddl,SAT:10.4674:1041.0:300.0:-1
ipc-2014-agile-citycar-p4-2-2-0-1.pddl,SAT:50.5993:336.0:300.0:-1
ipc-2014-agile-citycar-p4-2-3-0-1.pddl,SAT:58.8051:417.0:300.0:-1
ipc-2014-agile-citycar-p4-2-3-0-2.pddl,SAT:264.804:494.0:300.0:-1
ipc-2014-agile-citycar-p4-3-2-0-1.pddl,SAT:45.0791:1185.0:300.0:-1
ipc-2014-agile-citycar-p4-3-2-0-2.pddl,TIMEOUT:301.354:-1.0:300.0:-1
ipc-2014-agile-citycar-p4-3-3-0-1.pddl,TIMEOUT:301.333:-1.0:300.0:-1
ipc-2014-agile-citycar-p4-3-3-0-2.pddl,TIMEOUT:301.379:-1.0:300.0:-1
ipc-2014-agile-citycar-p4-4-2-0-1.pddl,TIMEOUT:301.438:-1.0:300.0:-1
ipc-2014-agile-citycar-p4-4-2-0-2.pddl,TIMEOUT:301.465:-1.0:300.0:-1
ipc-2014-agile-citycar-p4-4-3-0-1.pddl,TIMEOUT:301.44:-1.0:300.0:-1
ipc-2014-agile-citycar-p4-4-3-0-2.pddl,TIMEOUT:301.371:-1.0:300.0:-1
ipc-2014-agile-citycar-p4-5-2-0-1.pddl,TIMEOUT:301.403:-1.0:300.0:-1
ipc-2014-agile-citycar-p4-5-2-0-2.pddl,TIMEOUT:301.37:-1.0:300.0:-1
ipc-2014-agile-citycar-p4-5-3-0-1.pddl,TIMEOUT:301.406:-1.0:300.0:-1
ipc-2014-agile-citycar-p4-5-3-0-2.pddl,TIMEOUT:301.413:-1.0:300.0:-1
ipc-2014-agile-floortile-p01-4-3-2.pddl,SAT:0.015997:94.0:300.0:-1
ipc-2014-agile-floortile-p01-5-4-2.pddl,SAT:0.026995:173.0:300.0:-1
ipc-2014-agile-floortile-p01-5-5-2.pddl,SAT:0.041993:197.0:300.0:-1
ipc-2014-agile-floortile-p01-6-4-2.pddl,SAT:0.031994:190.0:300.0:-1
ipc-2014-agile-floortile-p01-6-5-2.pddl,SAT:0.054991:230.0:300.0:-1
ipc-2014-agile-floortile-p01-6-5-3.pddl,SAT:0.068989:223.0:300.0:-1
ipc-2014-agile-floortile-p02-5-4-2.pddl,SAT:0.032994:178.0:300.0:-1
ipc-2014-agile-floortile-p02-6-4-2.pddl,SAT:0.038993:207.0:300.0:-1
ipc-2014-agile-floortile-p02-6-5-2.pddl,SAT:0.068989:251.0:300.0:-1
ipc-2014-agile-floortile-p02-6-5-3.pddl,SAT:0.068989:235.0:300.0:-1
ipc-2014-agile-floortile-p03-6-4-2.pddl,SAT:0.037993:214.0:300.0:-1
ipc-2014-agile-floortile-p03-6-5-2.pddl,SAT:0.051992:248.0:300.0:-1
ipc-2014-agile-floortile-p03-6-5-3.pddl,SAT:0.064989:253.0:300.0:-1
ipc-2014-agile-floortile-p04-5-4-2.pddl,SAT:0.030994:175.0:300.0:-1
ipc-2014-agile-floortile-p04-5-5-2.pddl,SAT:0.042993:214.0:300.0:-1
ipc-2014-agile-floortile-p04-6-5-2.pddl,SAT:0.068989:261.0:300.0:-1
ipc-2014-agile-floortile-p04-6-5-3.pddl,SAT:0.068988:231.0:300.0:-1
ipc-2014-agile-floortile-p05-4-3-2.pddl,SAT:0.013997:96.0:300.0:-1
ipc-2014-agile-floortile-p05-6-5-2.pddl,SAT:0.05699:223.0:300.0:-1
ipc-2014-agile-floortile-p05-6-5-3.pddl,SAT:0.071989:243.0:300.0:-1
ipc-2014-agile-ged-d-10-1.pddl,SAT:15.8796:99.0:300.0:-1
ipc-2014-agile-ged-d-10-2.pddl,SAT:29.0296:212.0:300.0:-1
ipc-2014-agile-ged-d-10-3.pddl,SAT:32.601:130.0:300.0:-1
ipc-2014-agile-ged-d-10-4.pddl,SAT:62.0746:193.0:300.0:-1
ipc-2014-agile-ged-d-10-5.pddl,TIMEOUT:301.36:-1.0:300.0:-1
ipc-2014-agile-ged-d-10-6.pddl,SAT:238.424:139.0:300.0:-1
ipc-2014-agile-ged-d-11-1.pddl,SAT:71.7861:110.0:300.0:-1
ipc-2014-agile-ged-d-11-3.pddl,SAT:47.9557:75.0:300.0:-1
ipc-2014-agile-ged-d-11-5.pddl,SAT:67.6667:116.0:300.0:-1
ipc-2014-agile-ged-d-11-6.pddl,TIMEOUT:301.239:-1.0:300.0:-1
ipc-2014-agile-ged-d-12-11.pddl,SAT:85.1311:190.0:300.0:-1
ipc-2014-agile-ged-d-12-2.pddl,TIMEOUT:301.341:-1.0:300.0:-1
ipc-2014-agile-ged-d-12-3.pddl,TIMEOUT:301.312:-1.0:300.0:-1
ipc-2014-agile-ged-d-12-5.pddl,TIMEOUT:301.35:-1.0:300.0:-1
ipc-2014-agile-ged-d-12-6.pddl,TIMEOUT:301.309:-1.0:300.0:-1
ipc-2014-agile-ged-d-12-7.pddl,TIMEOUT:301.291:-1.0:300.0:-1
ipc-2014-agile-ged-d-12-8.pddl,TIMEOUT:301.389:-1.0:300.0:-1
ipc-2014-agile-ged-d-12-9.pddl,TIMEOUT:301.34:-1.0:300.0:-1
ipc-2014-agile-ged-d-3-6.pddl,SAT:56.9383:102.0:300.0:-1
ipc-2014-agile-ged-d-9-5.pddl,SAT:206.481:167.0:300.0:-1
ipc-2014-agile-hiking-3-4-3.pddl,SAT:0.309952:18.0:300.0:-1
ipc-2014-agile-hiking-3-4-4.pddl,CRASHED:30.5384:1000000000.0:300.0:-1
ipc-2014-agile-hiking-3-4-5.pddl,CRASHED:26.083:1000000000.0:300.0:-1
ipc-2014-agile-hiking-3-4-6.pddl,TIMEOUT:301.321:-1.0:300.0:-1
ipc-2014-agile-hiking-3-4-7.pddl,TIMEOUT:301.371:-1.0:300.0:-1
ipc-2014-agile-hiking-3-4-8.pddl,CRASHED:29.8015:1000000000.0:300.0:-1
ipc-2014-agile-hiking-3-4-9.pddl,CRASHED:32.2301:1000000000.0:300.0:-1
ipc-2014-agile-hiking-4-5-3.pddl,SAT:1.20881:29.0:300.0:-1
ipc-2014-agile-hiking-4-5-4.pddl,SAT:3.71843:47.0:300.0:-1
ipc-2014-agile-hiking-4-5-5.pddl,CRASHED:30.8583:1000000000.0:300.0:-1
ipc-2014-agile-hiking-4-5-6.pddl,TIMEOUT:301.388:-1.0:300.0:-1
ipc-2014-agile-hiking-4-5-7.pddl,TIMEOUT:301.455:-1.0:300.0:-1
ipc-2014-agile-hiking-4-5-8.pddl,TIMEOUT:301.401:-1.0:300.0:-1
ipc-2014-agile-hiking-4-5-9.pddl,CRASHED:90.1023:1000000000.0:300.0:-1
ipc-2014-agile-hiking-5-6-3.pddl,SAT:3.9664:36.0:300.0:-1
ipc-2014-agile-hiking-5-6-4.pddl,CRASHED:36.7084:1000000000.0:300.0:-1
ipc-2014-agile-hiking-5-6-5.pddl,CRASHED:46.9229:1000000000.0:300.0:-1
ipc-2014-agile-hiking-5-6-6.pddl,CRASHED:67.4287:1000000000.0:300.0:-1
ipc-2014-agile-hiking-5-6-7.pddl,CRASHED:113.032:1000000000.0:300.0:-1
ipc-2014-agile-hiking-5-6-8.pddl,CRASHED:173.049:1000000000.0:300.0:-1
ipc-2014-agile-maintenance-1.3.060.180.5-000.pddl,SAT:0.085986:54.0:300.0:-1
ipc-2014-agile-maintenance-1.3.060.180.5-001.pddl,TIMEOUT:301.057:-1.0:300.0:-1
ipc-2014-agile-maintenance-1.3.060.180.5-002.pddl,SAT:76.0814:55.0:300.0:-1
ipc-2014-agile-maintenance-1.3.100.300.5-000.pddl,TIMEOUT:301.131:-1.0:300.0:-1
ipc-2014-agile-maintenance-1.3.100.300.5-001.pddl,TIMEOUT:301.123:-1.0:300.0:-1
ipc-2014-agile-maintenance-1.3.100.300.7-000.pddl,SAT:0.270958:83.0:300.0:-1
ipc-2014-agile-maintenance-1.3.100.300.7-001.pddl,SAT:0.265958:80.0:300.0:-1
ipc-2014-agile-maintenance-1.3.100.300.7-002.pddl,SAT:0.265959:77.0:300.0:-1
ipc-2014-agile-maintenance-1.3.150.500.6-001.pddl,SAT:0.98085:133.0:300.0:-1
ipc-2014-agile-maintenance-1.3.200.500.5-001.pddl,SAT:1.40179:180.0:300.0:-1
ipc-2014-agile-maintenance-1.3.200.500.5-002.pddl,TIMEOUT:301.107:-1.0:300.0:-1
ipc-2014-agile-maintenance-1.3.200.700.7-000.pddl,SAT:2.6156:176.0:300.0:-1
ipc-2014-agile-maintenance-1.3.200.700.7-001.pddl,SAT:2.5976:171.0:300.0:-1
ipc-2014-agile-maintenance-1.3.200.700.7-002.pddl,SAT:2.55961:170.0:300.0:-1
ipc-2014-agile-maintenance-1.3.200.900.5-000.pddl,TIMEOUT:301.153:-1.0:300.0:-1
ipc-2014-agile-maintenance-1.3.200.900.5-001.pddl,TIMEOUT:301.124:-1.0:300.0:-1
ipc-2014-agile-maintenance-1.3.200.900.5-002.pddl,TIMEOUT:301.166:-1.0:300.0:-1
ipc-2014-agile-maintenance-1.3.200.900.8-000.pddl,SAT:4.5743:186.0:300.0:-1
ipc-2014-agile-maintenance-1.3.200.900.8-001.pddl,SAT:4.5803:172.0:300.0:-1
ipc-2014-agile-maintenance-1.3.200.900.8-002.pddl,SAT:4.5703:179.0:300.0:-1
ipc-2014-agile-openstacks-p130_2.pddl,TIMEOUT:301.341:-1.0:300.0:-1
ipc-2014-agile-openstacks-p130_3.pddl,TIMEOUT:301.344:-1.0:300.0:-1
ipc-2014-agile-openstacks-p150_2.pddl,TIMEOUT:301.37:-1.0:300.0:-1
ipc-2014-agile-openstacks-p150_3.pddl,TIMEOUT:301.404:-1.0:300.0:-1
ipc-2014-agile-openstacks-p170_1.pddl,CRASHED:67.4407:1000000000.0:300.0:-1
ipc-2014-agile-openstacks-p170_2.pddl,CRASHED:71.8031:1000000000.0:300.0:-1
ipc-2014-agile-openstacks-p170_3.pddl,TIMEOUT:301.426:-1.0:300.0:-1
ipc-2014-agile-openstacks-p190_1.pddl,CRASHED:151.005:1000000000.0:300.0:-1
ipc-2014-agile-openstacks-p190_2.pddl,CRASHED:141.34:1000000000.0:300.0:-1
ipc-2014-agile-openstacks-p190_3.pddl,CRASHED:167.091:1000000000.0:300.0:-1
ipc-2014-agile-openstacks-p210_1.pddl,TIMEOUT:301.459:-1.0:300.0:-1
ipc-2014-agile-openstacks-p210_2.pddl,TIMEOUT:301.417:-1.0:300.0:-1
ipc-2014-agile-openstacks-p230_1.pddl,CRASHED:187.665:1000000000.0:300.0:-1
ipc-2014-agile-openstacks-p230_2.pddl,CRASHED:202.954:1000000000.0:300.0:-1
ipc-2014-agile-openstacks-p250_1.pddl,CRASHED:245.228:1000000000.0:300.0:-1
ipc-2014-agile-openstacks-p250_2.pddl,CRASHED:262.089:1000000000.0:300.0:-1
ipc-2014-agile-openstacks-p270_1.pddl,TIMEOUT:301.269:-1.0:300.0:-1
ipc-2014-agile-openstacks-p270_2.pddl,TIMEOUT:301.186:-1.0:300.0:-1
ipc-2014-agile-openstacks-p290_1.pddl,TIMEOUT:301.224:-1.0:300.0:-1
ipc-2014-agile-openstacks-p290_2.pddl,TIMEOUT:301.139:-1.0:300.0:-1
ipc-2014-agile-parking-28_2.pddl,SAT:121.304:127.0:300.0:-1
ipc-2014-agile-parking-28_3.pddl,SAT:106.629:86.0:300.0:-1
ipc-2014-agile-parking-30_1.pddl,SAT:165.837:135.0:300.0:-1
ipc-2014-agile-parking-30_2.pddl,TIMEOUT:301.405:-1.0:300.0:-1
ipc-2014-agile-parking-30_3.pddl,SAT:204.871:163.0:300.0:-1
ipc-2014-agile-parking-32_1.pddl,SAT:277.687:161.0:300.0:-1
ipc-2014-agile-parking-32_2.pddl,SAT:278.976:138.0:300.0:-1
ipc-2014-agile-parking-32_3.pddl,SAT:264.395:178.0:300.0:-1
ipc-2014-agile-parking-34_1.pddl,TIMEOUT:301.318:-1.0:300.0:-1
ipc-2014-agile-parking-34_2.pddl,TIMEOUT:301.149:-1.0:300.0:-1
ipc-2014-agile-parking-34_3.pddl,TIMEOUT:301.157:-1.0:300.0:-1
ipc-2014-agile-parking-36_1.pddl,TIMEOUT:301.194:-1.0:300.0:-1
ipc-2014-agile-parking-36_2.pddl,TIMEOUT:301.198:-1.0:300.0:-1
ipc-2014-agile-parking-36_3.pddl,TIMEOUT:301.144:-1.0:300.0:-1
ipc-2014-agile-parking-38_1.pddl,TIMEOUT:301.137:-1.0:300.0:-1
ipc-2014-agile-parking-38_2.pddl,TIMEOUT:301.18:-1.0:300.0:-1
ipc-2014-agile-parking-38_3.pddl,TIMEOUT:301.172:-1.0:300.0:-1
ipc-2014-agile-parking-40_1.pddl,TIMEOUT:301.173:-1.0:300.0:-1
ipc-2014-agile-parking-40_2.pddl,TIMEOUT:301.144:-1.0:300.0:-1
ipc-2014-agile-parking-40_3.pddl,TIMEOUT:301.234:-1.0:300.0:-1
ipc-2014-agile-tetris-020.pddl,SAT:43.4464:56.0:300.0:-1
ipc-2014-agile-tetris-021.pddl,SAT:172.479:145.0:300.0:-1
ipc-2014-agile-tetris-022.pddl,SAT:158.458:102.0:300.0:-1
ipc-2014-agile-tetris-023.pddl,SAT:126.173:105.0:300.0:-1
ipc-2014-agile-tetris-024.pddl,SAT:165.491:161.0:300.0:-1
ipc-2014-agile-tetris-025.pddl,CRASHED:195.885:1000000000.0:300.0:-1
ipc-2014-agile-tetris-026.pddl,CRASHED:269.65:1000000000.0:300.0:-1
ipc-2014-agile-tetris-027.pddl,CRASHED:253.783:1000000000.0:300.0:-1
ipc-2014-agile-tetris-028.pddl,CRASHED:220.867:1000000000.0:300.0:-1
ipc-2014-agile-tetris-029.pddl,CRASHED:198.356:1000000000.0:300.0:-1
ipc-2014-agile-tetris-031.pddl,CRASHED:277.041:1000000000.0:300.0:-1
ipc-2014-agile-tetris-032.pddl,CRASHED:294.891:1000000000.0:300.0:-1
ipc-2014-agile-tetris-033.pddl,TIMEOUT:301.468:-1.0:300.0:-1
ipc-2014-agile-tetris-034.pddl,TIMEOUT:301.516:-1.0:300.0:-1
ipc-2014-agile-tetris-035.pddl,CRASHED:269.206:1000000000.0:300.0:-1
ipc-2014-agile-tetris-036.pddl,CRASHED:239.799:1000000000.0:300.0:-1
ipc-2014-agile-tetris-037.pddl,SAT:183.528:147.0:300.0:-1
ipc-2014-agile-tetris-038.pddl,TIMEOUT:301.327:-1.0:300.0:-1
ipc-2014-agile-tetris-039.pddl,CRASHED:282.624:1000000000.0:300.0:-1
ipc-2014-agile-tetris-040.pddl,TIMEOUT:301.397:-1.0:300.0:-1
ipc-2014-agile-thoughtful-bootstrap-typed-01.pddl,SAT:1.90071:42.0:300.0:-1
ipc-2014-agile-thoughtful-bootstrap-typed-02.pddl,SAT:1.76473:31.0:300.0:-1
ipc-2014-agile-thoughtful-bootstrap-typed-03.pddl,SAT:2.02369:49.0:300.0:-1
ipc-2014-agile-thoughtful-bootstrap-typed-04.pddl,SAT:2.08168:46.0:300.0:-1
ipc-2014-agile-thoughtful-bootstrap-typed-05.pddl,SAT:1.89271:68.0:300.0:-1
ipc-2014-agile-thoughtful-p11_6_53-typed.pddl,TIMEOUT:301.385:-1.0:300.0:-1
ipc-2014-agile-thoughtful-p11_6_59-typed.pddl,CRASHED:110.511:1000000000.0:300.0:-1
ipc-2014-agile-thoughtful-p11_6_62-typed.pddl,TIMEOUT:301.436:-1.0:300.0:-1
ipc-2014-agile-thoughtful-p13_7_78-typed.pddl,CRASHED:191.306:1000000000.0:300.0:-1
ipc-2014-agile-thoughtful-p13_7_79-typed.pddl,CRASHED:182.04:1000000000.0:300.0:-1
ipc-2014-agile-thoughtful-p13_7_86-typed.pddl,CRASHED:185.458:1000000000.0:300.0:-1
ipc-2014-agile-thoughtful-target-typed-20.pddl,CRASHED:183.5:1000000000.0:300.0:-1
ipc-2014-agile-thoughtful-target-typed-21.pddl,CRASHED:181.274:1000000000.0:300.0:-1
ipc-2014-agile-thoughtful-target-typed-22.pddl,TIMEOUT:301.368:-1.0:300.0:-1
ipc-2014-agile-thoughtful-target-typed-23.pddl,CRASHED:198.039:1000000000.0:300.0:-1
ipc-2014-agile-thoughtful-target-typed-24.pddl,TIMEOUT:301.386:-1.0:300.0:-1
ipc-2014-agile-thoughtful-target-typed-25.pddl,CRASHED:187.923:1000000000.0:300.0:-1
ipc-2014-agile-thoughtful-target-typed-26.pddl,TIMEOUT:301.359:-1.0:300.0:-1
ipc-2014-agile-thoughtful-target-typed-27.pddl,TIMEOUT:301.419:-1.0:300.0:-1
ipc-2014-agile-thoughtful-target-typed-28.pddl,CRASHED:205.249:1000000000.0:300.0:-1
ipc-2014-agile-transport-01.pddl,CRASHED:95.8824:1000000000.0:300.0:-1
ipc-2014-agile-transport-02.pddl,TIMEOUT:301.387:-1.0:300.0:-1
ipc-2014-agile-transport-03.pddl,TIMEOUT:301.391:-1.0:300.0:-1
ipc-2014-agile-transport-04.pddl,TIMEOUT:301.476:-1.0:300.0:-1
ipc-2014-agile-transport-05.pddl,CRASHED:117.922:1000000000.0:300.0:-1
ipc-2014-agile-transport-06.pddl,TIMEOUT:301.418:-1.0:300.0:-1
ipc-2014-agile-transport-07.pddl,CRASHED:282.427:1000000000.0:300.0:-1
ipc-2014-agile-transport-08.pddl,TIMEOUT:301.369:-1.0:300.0:-1
ipc-2014-agile-transport-09.pddl,CRASHED:282.165:1000000000.0:300.0:-1
ipc-2014-agile-transport-10.pddl,CRASHED:284.661:1000000000.0:300.0:-1
ipc-2014-agile-transport-11.pddl,TIMEOUT:301.336:-1.0:300.0:-1
ipc-2014-agile-transport-12.pddl,TIMEOUT:301.392:-1.0:300.0:-1
ipc-2014-agile-transport-13.pddl,CRASHED:282.805:1000000000.0:300.0:-1
ipc-2014-agile-transport-14.pddl,CRASHED:97.7691:1000000000.0:300.0:-1
ipc-2014-agile-transport-15.pddl,CRASHED:117.678:1000000000.0:300.0:-1
ipc-2014-agile-transport-16.pddl,CRASHED:77.4902:1000000000.0:300.0:-1
ipc-2014-agile-transport-17.pddl,CRASHED:275.941:1000000000.0:300.0:-1
ipc-2014-agile-transport-18.pddl,TIMEOUT:301.409:-1.0:300.0:-1
ipc-2014-agile-transport-19.pddl,TIMEOUT:301.221:-1.0:300.0:-1
ipc-2014-agile-transport-20.pddl,TIMEOUT:301.494:-1.0:300.0:-1
ipc-2014-agile-visitall-30.pddl,TIMEOUT:301.153:-1.0:300.0:-1
ipc-2014-agile-visitall-31.pddl,TIMEOUT:301.179:-1.0:300.0:-1
ipc-2014-agile-visitall-32.pddl,TIMEOUT:301.128:-1.0:300.0:-1
ipc-2014-agile-visitall-33.pddl,TIMEOUT:301.203:-1.0:300.0:-1
ipc-2014-agile-visitall-50.pddl,TIMEOUT:301.029:-1.0:300.0:-1
ipc-2014-agile-visitall-51.pddl,TIMEOUT:301.089:-1.0:300.0:-1
ipc-2014-agile-visitall-52.pddl,TIMEOUT:301.065:-1.0:300.0:-1
ipc-2014-agile-visitall-53.pddl,TIMEOUT:301.043:-1.0:300.0:-1
ipc-2014-agile-visitall-54.pddl,TIMEOUT:301.081:-1.0:300.0:-1
ipc-2014-agile-visitall-55.pddl,TIMEOUT:301.067:-1.0:300.0:-1
ipc-2014-agile-visitall-56.pddl,TIMEOUT:301.065:-1.0:300.0:-1
ipc-2014-agile-visitall-57.pddl,TIMEOUT:301.118:-1.0:300.0:-1
ipc-2014-agile-visitall-58.pddl,TIMEOUT:301.038:-1.0:300.0:-1
ipc-2014-agile-visitall-59.pddl,TIMEOUT:301.117:-1.0:300.0:-1
ipc-2014-agile-visitall-60.pddl,TIMEOUT:301.077:-1.0:300.0:-1
ipc-2014-agile-visitall-61.pddl,TIMEOUT:301.086:-1.0:300.0:-1
ipc-2014-agile-visitall-62.pddl,TIMEOUT:301.02:-1.0:300.0:-1
ipc-2014-agile-visitall-63.pddl,TIMEOUT:301.082:-1.0:300.0:-1
ipc-2014-agile-visitall-64.pddl,TIMEOUT:301.097:-1.0:300.0:-1
ipc-2014-agile-visitall-65.pddl,TIMEOUT:301.092:-1.0:300.0:-1
