instance,ipc-2014-agile-madagascar
ipc-2014-agile-barman-p1-11-4-15.pddl,TIMEOUT:301.149:-1.0:300.0:-1
ipc-2014-agile-barman-p1-11-5-15.pddl,TIMEOUT:301.083:-1.0:300.0:-1
ipc-2014-agile-barman-p1-11-5-16.pddl,TIMEOUT:301.082:-1.0:300.0:-1
ipc-2014-agile-barman-p2-10-4-13.pddl,TIMEOUT:301.148:-1.0:300.0:-1
ipc-2014-agile-barman-p2-11-4-15.pddl,TIMEOUT:301.115:-1.0:300.0:-1
ipc-2014-agile-barman-p2-11-5-15.pddl,TIMEOUT:301.083:-1.0:300.0:-1
ipc-2014-agile-barman-p2-11-5-16.pddl,TIMEOUT:301.056:-1.0:300.0:-1
ipc-2014-agile-barman-p2-11-5-17.pddl,TIMEOUT:301.102:-1.0:300.0:-1
ipc-2014-agile-barman-p3-10-4-13.pddl,TIMEOUT:301.106:-1.0:300.0:-1
ipc-2014-agile-barman-p3-11-4-15.pddl,TIMEOUT:301.085:-1.0:300.0:-1
ipc-2014-agile-barman-p3-11-5-15.pddl,TIMEOUT:301.161:-1.0:300.0:-1
ipc-2014-agile-barman-p3-11-5-16.pddl,TIMEOUT:301.098:-1.0:300.0:-1
ipc-2014-agile-barman-p3-11-5-17.pddl,TIMEOUT:301.142:-1.0:300.0:-1
ipc-2014-agile-barman-p4-11-4-14.pddl,TIMEOUT:301.099:-1.0:300.0:-1
ipc-2014-agile-barman-p4-11-4-15.pddl,TIMEOUT:301.075:-1.0:300.0:-1
ipc-2014-agile-barman-p4-11-5-15.pddl,TIMEOUT:301.077:-1.0:300.0:-1
ipc-2014-agile-barman-p5-10-4-13.pddl,TIMEOUT:301.108:-1.0:300.0:-1
ipc-2014-agile-barman-p5-11-4-15.pddl,TIMEOUT:301.11:-1.0:300.0:-1
ipc-2014-agile-barman-p5-11-5-15.pddl,TIMEOUT:301.098:-1.0:300.0:-1
ipc-2014-agile-barman-p5-11-5-16.pddl,TIMEOUT:301.072:-1.0:300.0:-1
ipc-2014-agile-cavediving-01_easy.pddl,TIMEOUT:301.133:-1.0:300.0:-1
ipc-2014-agile-cavediving-01.pddl,TIMEOUT:301.206:-1.0:300.0:-1
ipc-2014-agile-cavediving-02_easy.pddl,TIMEOUT:301.137:-1.0:300.0:-1
ipc-2014-agile-cavediving-03_easy.pddl,TIMEOUT:301.179:-1.0:300.0:-1
ipc-2014-agile-cavediving-04_easy.pddl,TIMEOUT:301.148:-1.0:300.0:-1
ipc-2014-agile-cavediving-05A_easy.pddl,SAT:2.6406:99.0:300.0:-1
ipc-2014-agile-cavediving-06A_easy.pddl,SAT:2.77658:100.0:300.0:-1
ipc-2014-agile-cavediving-07_easy.pddl,SAT:5.85811:135.0:300.0:-1
ipc-2014-agile-cavediving-08_easy.pddl,SAT:2.77758:95.0:300.0:-1
ipc-2014-agile-cavediving-09_easy.pddl,TIMEOUT:301.385:-1.0:300.0:-1
ipc-2014-agile-cavediving-10_easy.pddl,TIMEOUT:301.373:-1.0:300.0:-1
ipc-2014-agile-cavediving-11_easy.pddl,TIMEOUT:301.309:-1.0:300.0:-1
ipc-2014-agile-cavediving-12_easy.pddl,TIMEOUT:301.33:-1.0:300.0:-1
ipc-2014-agile-cavediving-13_easy.pddl,TIMEOUT:301.233:-1.0:300.0:-1
ipc-2014-agile-cavediving-14_easy.pddl,TIMEOUT:301.231:-1.0:300.0:-1
ipc-2014-agile-cavediving-15_easy.pddl,TIMEOUT:301.156:-1.0:300.0:-1
ipc-2014-agile-cavediving-16_easy.pddl,TIMEOUT:301.146:-1.0:300.0:-1
ipc-2014-agile-cavediving-18A_easy.pddl,SAT:3.36849:139.0:300.0:-1
ipc-2014-agile-cavediving-18_easy.pddl,SAT:1.27081:135.0:300.0:-1
ipc-2014-agile-cavediving-20A_easy.pddl,SAT:18.8191:104.0:300.0:-1
ipc-2014-agile-childsnack-05-2.pddl,SAT:1.47877:62.0:300.0:-1
ipc-2014-agile-childsnack-05.pddl,SAT:0.466928:38.0:300.0:-1
ipc-2014-agile-childsnack-06-2.pddl,SAT:0.826873:41.0:300.0:-1
ipc-2014-agile-childsnack-07-2.pddl,SAT:6.12007:46.0:300.0:-1
ipc-2014-agile-childsnack-08-2.pddl,SAT:3.19551:49.0:300.0:-1
ipc-2014-agile-childsnack-08.pddl,SAT:5.05923:49.0:300.0:-1
ipc-2014-agile-childsnack-09-2.pddl,SAT:26.587:50.0:300.0:-1
ipc-2014-agile-childsnack-09.pddl,SAT:4.89026:47.0:300.0:-1
ipc-2014-agile-childsnack-10-2.pddl,SAT:23.6504:69.0:300.0:-1
ipc-2014-agile-childsnack-10.pddl,SAT:16.4785:52.0:300.0:-1
ipc-2014-agile-childsnack-11-2.pddl,SAT:18.7501:78.0:300.0:-1
ipc-2014-agile-childsnack-11.pddl,SAT:1.39279:55.0:300.0:-1
ipc-2014-agile-childsnack-12.pddl,SAT:17.7173:77.0:300.0:-1
ipc-2014-agile-childsnack-13-2.pddl,SAT:9.70752:64.0:300.0:-1
ipc-2014-agile-childsnack-13.pddl,SAT:11.4543:66.0:300.0:-1
ipc-2014-agile-childsnack-14.pddl,SAT:51.7771:84.0:300.0:-1
ipc-2014-agile-childsnack-15-2.pddl,SAT:77.1363:101.0:300.0:-1
ipc-2014-agile-childsnack-16-2.pddl,SAT:179.435:76.0:300.0:-1
ipc-2014-agile-childsnack-19-2.pddl,CRASHED:41.2757:1000000000.0:300.0:-1
ipc-2014-agile-childsnack-19.pddl,CRASHED:41.1557:1000000000.0:300.0:-1
ipc-2014-agile-citycar-p3-2-2-0-1.pddl,SAT:0.373942:409.0:300.0:-1
ipc-2014-agile-citycar-p3-3-2-0-1.pddl,SAT:0.969852:443.0:300.0:-1
ipc-2014-agile-citycar-p3-4-2-0-1.pddl,TIMEOUT:301.106:-1.0:300.0:-1
ipc-2014-agile-citycar-p3-5-2-0-1.pddl,TIMEOUT:301.114:-1.0:300.0:-1
ipc-2014-agile-citycar-p3-5-2-0-2.pddl,TIMEOUT:301.113:-1.0:300.0:-1
ipc-2014-agile-citycar-p4-2-2-0-1.pddl,SAT:9.1936:987.0:300.0:-1
ipc-2014-agile-citycar-p4-2-3-0-1.pddl,SAT:3.66944:972.0:300.0:-1
ipc-2014-agile-citycar-p4-2-3-0-2.pddl,SAT:2.53161:369.0:300.0:-1
ipc-2014-agile-citycar-p4-3-2-0-1.pddl,TIMEOUT:301.18:-1.0:300.0:-1
ipc-2014-agile-citycar-p4-3-2-0-2.pddl,TIMEOUT:301.193:-1.0:300.0:-1
ipc-2014-agile-citycar-p4-3-3-0-1.pddl,SAT:282.388:1233.0:300.0:-1
ipc-2014-agile-citycar-p4-3-3-0-2.pddl,TIMEOUT:301.156:-1.0:300.0:-1
ipc-2014-agile-citycar-p4-4-2-0-1.pddl,TIMEOUT:301.23:-1.0:300.0:-1
ipc-2014-agile-citycar-p4-4-2-0-2.pddl,TIMEOUT:301.185:-1.0:300.0:-1
ipc-2014-agile-citycar-p4-4-3-0-1.pddl,TIMEOUT:301.188:-1.0:300.0:-1
ipc-2014-agile-citycar-p4-4-3-0-2.pddl,TIMEOUT:301.195:-1.0:300.0:-1
ipc-2014-agile-citycar-p4-5-2-0-1.pddl,TIMEOUT:301.261:-1.0:300.0:-1
ipc-2014-agile-citycar-p4-5-2-0-2.pddl,TIMEOUT:301.202:-1.0:300.0:-1
ipc-2014-agile-citycar-p4-5-3-0-1.pddl,TIMEOUT:301.202:-1.0:300.0:-1
ipc-2014-agile-citycar-p4-5-3-0-2.pddl,TIMEOUT:301.186:-1.0:300.0:-1
ipc-2014-agile-floortile-p01-4-3-2.pddl,SAT:0.017997:132.0:300.0:-1
ipc-2014-agile-floortile-p01-5-4-2.pddl,SAT:0.047991:219.0:300.0:-1
ipc-2014-agile-floortile-p01-5-5-2.pddl,SAT:0.107983:278.0:300.0:-1
ipc-2014-agile-floortile-p01-6-4-2.pddl,SAT:0.05799:239.0:300.0:-1
ipc-2014-agile-floortile-p01-6-5-2.pddl,SAT:0.164974:260.0:300.0:-1
ipc-2014-agile-floortile-p01-6-5-3.pddl,SAT:0.085986:293.0:300.0:-1
ipc-2014-agile-floortile-p02-5-4-2.pddl,SAT:0.044992:228.0:300.0:-1
ipc-2014-agile-floortile-p02-6-4-2.pddl,SAT:0.051991:221.0:300.0:-1
ipc-2014-agile-floortile-p02-6-5-2.pddl,SAT:0.150976:338.0:300.0:-1
ipc-2014-agile-floortile-p02-6-5-3.pddl,SAT:0.081986:280.0:300.0:-1
ipc-2014-agile-floortile-p03-6-4-2.pddl,SAT:0.068988:252.0:300.0:-1
ipc-2014-agile-floortile-p03-6-5-2.pddl,SAT:0.12798:288.0:300.0:-1
ipc-2014-agile-floortile-p03-6-5-3.pddl,SAT:0.076987:293.0:300.0:-1
ipc-2014-agile-floortile-p04-5-4-2.pddl,SAT:0.042993:207.0:300.0:-1
ipc-2014-agile-floortile-p04-5-5-2.pddl,SAT:0.103984:263.0:300.0:-1
ipc-2014-agile-floortile-p04-6-5-2.pddl,SAT:0.102984:338.0:300.0:-1
ipc-2014-agile-floortile-p04-6-5-3.pddl,SAT:0.107982:298.0:300.0:-1
ipc-2014-agile-floortile-p05-4-3-2.pddl,SAT:0.016996:108.0:300.0:-1
ipc-2014-agile-floortile-p05-6-5-2.pddl,SAT:0.12598:248.0:300.0:-1
ipc-2014-agile-floortile-p05-6-5-3.pddl,SAT:0.12898:350.0:300.0:-1
ipc-2014-agile-ged-d-10-1.pddl,TIMEOUT:301.302:-1.0:300.0:-1
ipc-2014-agile-ged-d-10-2.pddl,TIMEOUT:301.189:-1.0:300.0:-1
ipc-2014-agile-ged-d-10-3.pddl,TIMEOUT:301.268:-1.0:300.0:-1
ipc-2014-agile-ged-d-10-4.pddl,TIMEOUT:301.18:-1.0:300.0:-1
ipc-2014-agile-ged-d-10-5.pddl,TIMEOUT:301.294:-1.0:300.0:-1
ipc-2014-agile-ged-d-10-6.pddl,TIMEOUT:301.338:-1.0:300.0:-1
ipc-2014-agile-ged-d-11-1.pddl,TIMEOUT:301.236:-1.0:300.0:-1
ipc-2014-agile-ged-d-11-3.pddl,TIMEOUT:301.181:-1.0:300.0:-1
ipc-2014-agile-ged-d-11-5.pddl,TIMEOUT:301.279:-1.0:300.0:-1
ipc-2014-agile-ged-d-11-6.pddl,TIMEOUT:301.31:-1.0:300.0:-1
ipc-2014-agile-ged-d-12-11.pddl,TIMEOUT:301.311:-1.0:300.0:-1
ipc-2014-agile-ged-d-12-2.pddl,TIMEOUT:301.366:-1.0:300.0:-1
ipc-2014-agile-ged-d-12-3.pddl,TIMEOUT:301.337:-1.0:300.0:-1
ipc-2014-agile-ged-d-12-5.pddl,TIMEOUT:301.336:-1.0:300.0:-1
ipc-2014-agile-ged-d-12-6.pddl,TIMEOUT:301.251:-1.0:300.0:-1
ipc-2014-agile-ged-d-12-7.pddl,TIMEOUT:301.289:-1.0:300.0:-1
ipc-2014-agile-ged-d-12-8.pddl,TIMEOUT:301.367:-1.0:300.0:-1
ipc-2014-agile-ged-d-12-9.pddl,TIMEOUT:301.335:-1.0:300.0:-1
ipc-2014-agile-ged-d-3-6.pddl,TIMEOUT:301.163:-1.0:300.0:-1
ipc-2014-agile-ged-d-9-5.pddl,TIMEOUT:301.188:-1.0:300.0:-1
ipc-2014-agile-hiking-3-4-3.pddl,SAT:1.26181:34.0:300.0:-1
ipc-2014-agile-hiking-3-4-4.pddl,TIMEOUT:301.239:-1.0:300.0:-1
ipc-2014-agile-hiking-3-4-5.pddl,TIMEOUT:301.311:-1.0:300.0:-1
ipc-2014-agile-hiking-3-4-6.pddl,CRASHED:63.3274:1000000000.0:300.0:-1
ipc-2014-agile-hiking-3-4-7.pddl,CRASHED:69.1935:1000000000.0:300.0:-1
ipc-2014-agile-hiking-3-4-8.pddl,CRASHED:66.6989:1000000000.0:300.0:-1
ipc-2014-agile-hiking-3-4-9.pddl,CRASHED:64.0323:1000000000.0:300.0:-1
ipc-2014-agile-hiking-4-5-3.pddl,SAT:18.7232:34.0:300.0:-1
ipc-2014-agile-hiking-4-5-4.pddl,CRASHED:40.2839:1000000000.0:300.0:-1
ipc-2014-agile-hiking-4-5-5.pddl,CRASHED:41.8566:1000000000.0:300.0:-1
ipc-2014-agile-hiking-4-5-6.pddl,CRASHED:53.8588:1000000000.0:300.0:-1
ipc-2014-agile-hiking-4-5-7.pddl,CRASHED:58.1812:1000000000.0:300.0:-1
ipc-2014-agile-hiking-4-5-8.pddl,CRASHED:70.6193:1000000000.0:300.0:-1
ipc-2014-agile-hiking-4-5-9.pddl,CRASHED:90.9962:1000000000.0:300.0:-1
ipc-2014-agile-hiking-5-6-3.pddl,CRASHED:43.5924:1000000000.0:300.0:-1
ipc-2014-agile-hiking-5-6-4.pddl,CRASHED:47.5028:1000000000.0:300.0:-1
ipc-2014-agile-hiking-5-6-5.pddl,CRASHED:52.795:1000000000.0:300.0:-1
ipc-2014-agile-hiking-5-6-6.pddl,CRASHED:71.0602:1000000000.0:300.0:-1
ipc-2014-agile-hiking-5-6-7.pddl,CRASHED:109.024:1000000000.0:300.0:-1
ipc-2014-agile-hiking-5-6-8.pddl,CRASHED:179.594:1000000000.0:300.0:-1
ipc-2014-agile-maintenance-1.3.060.180.5-000.pddl,SAT:0.179971:60.0:300.0:-1
ipc-2014-agile-maintenance-1.3.060.180.5-001.pddl,SAT:0.219966:60.0:300.0:-1
ipc-2014-agile-maintenance-1.3.060.180.5-002.pddl,SAT:0.107983:60.0:300.0:-1
ipc-2014-agile-maintenance-1.3.100.300.5-000.pddl,SAT:2.23666:100.0:300.0:-1
ipc-2014-agile-maintenance-1.3.100.300.5-001.pddl,SAT:0.718889:100.0:300.0:-1
ipc-2014-agile-maintenance-1.3.100.300.7-000.pddl,SAT:0.294954:99.0:300.0:-1
ipc-2014-agile-maintenance-1.3.100.300.7-001.pddl,SAT:0.294955:98.0:300.0:-1
ipc-2014-agile-maintenance-1.3.100.300.7-002.pddl,SAT:0.293954:98.0:300.0:-1
ipc-2014-agile-maintenance-1.3.150.500.6-001.pddl,SAT:1.3058:150.0:300.0:-1
ipc-2014-agile-maintenance-1.3.200.500.5-001.pddl,SAT:1.72374:200.0:300.0:-1
ipc-2014-agile-maintenance-1.3.200.500.5-002.pddl,SAT:1.53077:199.0:300.0:-1
ipc-2014-agile-maintenance-1.3.200.700.7-000.pddl,SAT:3.00154:196.0:300.0:-1
ipc-2014-agile-maintenance-1.3.200.700.7-001.pddl,SAT:2.88456:199.0:300.0:-1
ipc-2014-agile-maintenance-1.3.200.700.7-002.pddl,SAT:2.57461:198.0:300.0:-1
ipc-2014-agile-maintenance-1.3.200.900.5-000.pddl,TIMEOUT:301.073:-1.0:300.0:-1
ipc-2014-agile-maintenance-1.3.200.900.5-001.pddl,TIMEOUT:301.121:-1.0:300.0:-1
ipc-2014-agile-maintenance-1.3.200.900.5-002.pddl,TIMEOUT:301.146:-1.0:300.0:-1
ipc-2014-agile-maintenance-1.3.200.900.8-000.pddl,SAT:5.56615:196.0:300.0:-1
ipc-2014-agile-maintenance-1.3.200.900.8-001.pddl,SAT:4.25235:198.0:300.0:-1
ipc-2014-agile-maintenance-1.3.200.900.8-002.pddl,SAT:4.14437:198.0:300.0:-1
ipc-2014-agile-openstacks-p130_2.pddl,CRASHED:81.5526:1000000000.0:300.0:-1
ipc-2014-agile-openstacks-p130_3.pddl,CRASHED:79.4359:1000000000.0:300.0:-1
ipc-2014-agile-openstacks-p150_2.pddl,CRASHED:73.9737:1000000000.0:300.0:-1
ipc-2014-agile-openstacks-p150_3.pddl,CRASHED:98.513:1000000000.0:300.0:-1
ipc-2014-agile-openstacks-p170_1.pddl,CRASHED:89.3974:1000000000.0:300.0:-1
ipc-2014-agile-openstacks-p170_2.pddl,CRASHED:94.8626:1000000000.0:300.0:-1
ipc-2014-agile-openstacks-p170_3.pddl,CRASHED:132.353:1000000000.0:300.0:-1
ipc-2014-agile-openstacks-p190_1.pddl,CRASHED:115.336:1000000000.0:300.0:-1
ipc-2014-agile-openstacks-p190_2.pddl,CRASHED:115.836:1000000000.0:300.0:-1
ipc-2014-agile-openstacks-p190_3.pddl,CRASHED:174.626:1000000000.0:300.0:-1
ipc-2014-agile-openstacks-p210_1.pddl,CRASHED:139.753:1000000000.0:300.0:-1
ipc-2014-agile-openstacks-p210_2.pddl,CRASHED:146.765:1000000000.0:300.0:-1
ipc-2014-agile-openstacks-p230_1.pddl,CRASHED:186.62:1000000000.0:300.0:-1
ipc-2014-agile-openstacks-p230_2.pddl,CRASHED:210.189:1000000000.0:300.0:-1
ipc-2014-agile-openstacks-p250_1.pddl,CRASHED:259.006:1000000000.0:300.0:-1
ipc-2014-agile-openstacks-p250_2.pddl,CRASHED:276.587:1000000000.0:300.0:-1
ipc-2014-agile-openstacks-p270_1.pddl,TIMEOUT:301.282:-1.0:300.0:-1
ipc-2014-agile-openstacks-p270_2.pddl,TIMEOUT:301.255:-1.0:300.0:-1
ipc-2014-agile-openstacks-p290_1.pddl,TIMEOUT:301.23:-1.0:300.0:-1
ipc-2014-agile-openstacks-p290_2.pddl,TIMEOUT:301.038:-1.0:300.0:-1
ipc-2014-agile-parking-28_2.pddl,CRASHED:228.579:1000000000.0:300.0:-1
ipc-2014-agile-parking-28_3.pddl,CRASHED:235.142:1000000000.0:300.0:-1
ipc-2014-agile-parking-30_1.pddl,CRASHED:248.347:1000000000.0:300.0:-1
ipc-2014-agile-parking-30_2.pddl,CRASHED:237.238:1000000000.0:300.0:-1
ipc-2014-agile-parking-30_3.pddl,CRASHED:265.995:1000000000.0:300.0:-1
ipc-2014-agile-parking-32_1.pddl,TIMEOUT:301.28:-1.0:300.0:-1
ipc-2014-agile-parking-32_2.pddl,TIMEOUT:301.339:-1.0:300.0:-1
ipc-2014-agile-parking-32_3.pddl,TIMEOUT:301.331:-1.0:300.0:-1
ipc-2014-agile-parking-34_1.pddl,TIMEOUT:301.096:-1.0:300.0:-1
ipc-2014-agile-parking-34_2.pddl,TIMEOUT:301.131:-1.0:300.0:-1
ipc-2014-agile-parking-34_3.pddl,TIMEOUT:301.128:-1.0:300.0:-1
ipc-2014-agile-parking-36_1.pddl,TIMEOUT:301.186:-1.0:300.0:-1
ipc-2014-agile-parking-36_2.pddl,TIMEOUT:301.11:-1.0:300.0:-1
ipc-2014-agile-parking-36_3.pddl,TIMEOUT:301.149:-1.0:300.0:-1
ipc-2014-agile-parking-38_1.pddl,TIMEOUT:301.214:-1.0:300.0:-1
ipc-2014-agile-parking-38_2.pddl,TIMEOUT:301.144:-1.0:300.0:-1
ipc-2014-agile-parking-38_3.pddl,TIMEOUT:301.172:-1.0:300.0:-1
ipc-2014-agile-parking-40_1.pddl,TIMEOUT:301.186:-1.0:300.0:-1
ipc-2014-agile-parking-40_2.pddl,TIMEOUT:301.239:-1.0:300.0:-1
ipc-2014-agile-parking-40_3.pddl,TIMEOUT:301.199:-1.0:300.0:-1
ipc-2014-agile-tetris-020.pddl,TIMEOUT:301.266:-1.0:300.0:-1
ipc-2014-agile-tetris-021.pddl,CRASHED:197.633:1000000000.0:300.0:-1
ipc-2014-agile-tetris-022.pddl,CRASHED:181.32:1000000000.0:300.0:-1
ipc-2014-agile-tetris-023.pddl,CRASHED:162.949:1000000000.0:300.0:-1
ipc-2014-agile-tetris-024.pddl,CRASHED:195.739:1000000000.0:300.0:-1
ipc-2014-agile-tetris-025.pddl,TIMEOUT:301.332:-1.0:300.0:-1
ipc-2014-agile-tetris-026.pddl,CRASHED:241.549:1000000000.0:300.0:-1
ipc-2014-agile-tetris-027.pddl,CRASHED:249.338:1000000000.0:300.0:-1
ipc-2014-agile-tetris-028.pddl,CRASHED:211.36:1000000000.0:300.0:-1
ipc-2014-agile-tetris-029.pddl,TIMEOUT:301.358:-1.0:300.0:-1
ipc-2014-agile-tetris-031.pddl,CRASHED:274.782:1000000000.0:300.0:-1
ipc-2014-agile-tetris-032.pddl,CRASHED:267.592:1000000000.0:300.0:-1
ipc-2014-agile-tetris-033.pddl,TIMEOUT:301.468:-1.0:300.0:-1
ipc-2014-agile-tetris-034.pddl,TIMEOUT:301.528:-1.0:300.0:-1
ipc-2014-agile-tetris-035.pddl,CRASHED:271.091:1000000000.0:300.0:-1
ipc-2014-agile-tetris-036.pddl,CRASHED:247.727:1000000000.0:300.0:-1
ipc-2014-agile-tetris-037.pddl,CRASHED:273.048:1000000000.0:300.0:-1
ipc-2014-agile-tetris-038.pddl,TIMEOUT:301.453:-1.0:300.0:-1
ipc-2014-agile-tetris-039.pddl,CRASHED:291.827:1000000000.0:300.0:-1
ipc-2014-agile-tetris-040.pddl,TIMEOUT:301.43:-1.0:300.0:-1
ipc-2014-agile-thoughtful-bootstrap-typed-01.pddl,SAT:10.9123:34.0:300.0:-1
ipc-2014-agile-thoughtful-bootstrap-typed-02.pddl,SAT:5.49316:41.0:300.0:-1
ipc-2014-agile-thoughtful-bootstrap-typed-03.pddl,SAT:4.49232:38.0:300.0:-1
ipc-2014-agile-thoughtful-bootstrap-typed-04.pddl,SAT:2.23966:48.0:300.0:-1
ipc-2014-agile-thoughtful-bootstrap-typed-05.pddl,SAT:21.2338:49.0:300.0:-1
ipc-2014-agile-thoughtful-p11_6_53-typed.pddl,CRASHED:120.606:1000000000.0:300.0:-1
ipc-2014-agile-thoughtful-p11_6_59-typed.pddl,CRASHED:118.421:1000000000.0:300.0:-1
ipc-2014-agile-thoughtful-p11_6_62-typed.pddl,CRASHED:121.238:1000000000.0:300.0:-1
ipc-2014-agile-thoughtful-p13_7_78-typed.pddl,CRASHED:228.105:1000000000.0:300.0:-1
ipc-2014-agile-thoughtful-p13_7_79-typed.pddl,CRASHED:215.445:1000000000.0:300.0:-1
ipc-2014-agile-thoughtful-p13_7_86-typed.pddl,CRASHED:218.23:1000000000.0:300.0:-1
ipc-2014-agile-thoughtful-target-typed-20.pddl,CRASHED:204.115:1000000000.0:300.0:-1
ipc-2014-agile-thoughtful-target-typed-21.pddl,CRASHED:204.279:1000000000.0:300.0:-1
ipc-2014-agile-thoughtful-target-typed-22.pddl,CRASHED:225.018:1000000000.0:300.0:-1
ipc-2014-agile-thoughtful-target-typed-23.pddl,CRASHED:203.453:1000000000.0:300.0:-1
ipc-2014-agile-thoughtful-target-typed-24.pddl,CRASHED:214.835:1000000000.0:300.0:-1
ipc-2014-agile-thoughtful-target-typed-25.pddl,CRASHED:203.171:1000000000.0:300.0:-1
ipc-2014-agile-thoughtful-target-typed-26.pddl,CRASHED:217.998:1000000000.0:300.0:-1
ipc-2014-agile-thoughtful-target-typed-27.pddl,CRASHED:223.159:1000000000.0:300.0:-1
ipc-2014-agile-thoughtful-target-typed-28.pddl,CRASHED:218.373:1000000000.0:300.0:-1
ipc-2014-agile-transport-01.pddl,CRASHED:57.8092:1000000000.0:300.0:-1
ipc-2014-agile-transport-02.pddl,CRASHED:63.3114:1000000000.0:300.0:-1
ipc-2014-agile-transport-03.pddl,CRASHED:67.2958:1000000000.0:300.0:-1
ipc-2014-agile-transport-04.pddl,CRASHED:130.66:1000000000.0:300.0:-1
ipc-2014-agile-transport-05.pddl,CRASHED:118.697:1000000000.0:300.0:-1
ipc-2014-agile-transport-06.pddl,CRASHED:130.753:1000000000.0:300.0:-1
ipc-2014-agile-transport-07.pddl,TIMEOUT:301.404:-1.0:300.0:-1
ipc-2014-agile-transport-08.pddl,TIMEOUT:301.423:-1.0:300.0:-1
ipc-2014-agile-transport-09.pddl,TIMEOUT:301.461:-1.0:300.0:-1
ipc-2014-agile-transport-10.pddl,CRASHED:228.144:1000000000.0:300.0:-1
ipc-2014-agile-transport-11.pddl,CRASHED:67.2408:1000000000.0:300.0:-1
ipc-2014-agile-transport-12.pddl,CRASHED:66.1339:1000000000.0:300.0:-1
ipc-2014-agile-transport-13.pddl,CRASHED:174.142:1000000000.0:300.0:-1
ipc-2014-agile-transport-14.pddl,CRASHED:87.6377:1000000000.0:300.0:-1
ipc-2014-agile-transport-15.pddl,CRASHED:108.438:1000000000.0:300.0:-1
ipc-2014-agile-transport-16.pddl,CRASHED:83.0784:1000000000.0:300.0:-1
ipc-2014-agile-transport-17.pddl,CRASHED:221.177:1000000000.0:300.0:-1
ipc-2014-agile-transport-18.pddl,TIMEOUT:301.367:-1.0:300.0:-1
ipc-2014-agile-transport-19.pddl,TIMEOUT:301.257:-1.0:300.0:-1
ipc-2014-agile-transport-20.pddl,CRASHED:254.827:1000000000.0:300.0:-1
ipc-2014-agile-visitall-30.pddl,TIMEOUT:301.128:-1.0:300.0:-1
ipc-2014-agile-visitall-31.pddl,TIMEOUT:301.203:-1.0:300.0:-1
ipc-2014-agile-visitall-32.pddl,TIMEOUT:301.216:-1.0:300.0:-1
ipc-2014-agile-visitall-33.pddl,TIMEOUT:301.05:-1.0:300.0:-1
ipc-2014-agile-visitall-50.pddl,TIMEOUT:301.048:-1.0:300.0:-1
ipc-2014-agile-visitall-51.pddl,TIMEOUT:301.109:-1.0:300.0:-1
ipc-2014-agile-visitall-52.pddl,TIMEOUT:301.093:-1.0:300.0:-1
ipc-2014-agile-visitall-53.pddl,TIMEOUT:301.027:-1.0:300.0:-1
ipc-2014-agile-visitall-54.pddl,TIMEOUT:301.077:-1.0:300.0:-1
ipc-2014-agile-visitall-55.pddl,TIMEOUT:301.028:-1.0:300.0:-1
ipc-2014-agile-visitall-56.pddl,TIMEOUT:301.049:-1.0:300.0:-1
ipc-2014-agile-visitall-57.pddl,TIMEOUT:301.078:-1.0:300.0:-1
ipc-2014-agile-visitall-58.pddl,TIMEOUT:301.022:-1.0:300.0:-1
ipc-2014-agile-visitall-59.pddl,TIMEOUT:301.041:-1.0:300.0:-1
ipc-2014-agile-visitall-60.pddl,TIMEOUT:301.087:-1.0:300.0:-1
ipc-2014-agile-visitall-61.pddl,TIMEOUT:301.019:-1.0:300.0:-1
ipc-2014-agile-visitall-62.pddl,TIMEOUT:301.054:-1.0:300.0:-1
ipc-2014-agile-visitall-63.pddl,TIMEOUT:301.073:-1.0:300.0:-1
ipc-2014-agile-visitall-64.pddl,TIMEOUT:301.039:-1.0:300.0:-1
ipc-2014-agile-visitall-65.pddl,TIMEOUT:301.083:-1.0:300.0:-1
