instance,ipc-2014-agile-probe
ipc-2014-agile-barman-p1-11-4-15.pddl,SAT:1.10183:213.0:300.0:-1
ipc-2014-agile-barman-p1-11-5-15.pddl,SAT:68.2296:229.0:300.0:-1
ipc-2014-agile-barman-p1-11-5-16.pddl,SAT:8.34173:213.0:300.0:-1
ipc-2014-agile-barman-p2-10-4-13.pddl,SAT:0.792879:209.0:300.0:-1
ipc-2014-agile-barman-p2-11-4-15.pddl,SAT:0.967852:174.0:300.0:-1
ipc-2014-agile-barman-p2-11-5-15.pddl,SAT:1.15982:180.0:300.0:-1
ipc-2014-agile-barman-p2-11-5-16.pddl,SAT:12.994:259.0:300.0:-1
ipc-2014-agile-barman-p2-11-5-17.pddl,SAT:13.256:296.0:300.0:-1
ipc-2014-agile-barman-p3-10-4-13.pddl,SAT:0.621904:172.0:300.0:-1
ipc-2014-agile-barman-p3-11-4-15.pddl,SAT:1.44478:245.0:300.0:-1
ipc-2014-agile-barman-p3-11-5-15.pddl,SAT:3.49047:188.0:300.0:-1
ipc-2014-agile-barman-p3-11-5-16.pddl,SAT:1.20881:196.0:300.0:-1
ipc-2014-agile-barman-p3-11-5-17.pddl,SAT:1.2928:200.0:300.0:-1
ipc-2014-agile-barman-p4-11-4-14.pddl,SAT:1.04484:163.0:300.0:-1
ipc-2014-agile-barman-p4-11-4-15.pddl,SAT:0.804876:193.0:300.0:-1
ipc-2014-agile-barman-p4-11-5-15.pddl,SAT:1.15482:205.0:300.0:-1
ipc-2014-agile-barman-p5-10-4-13.pddl,SAT:0.615905:170.0:300.0:-1
ipc-2014-agile-barman-p5-11-4-15.pddl,SAT:0.849869:189.0:300.0:-1
ipc-2014-agile-barman-p5-11-5-15.pddl,SAT:1.70474:205.0:300.0:-1
ipc-2014-agile-barman-p5-11-5-16.pddl,SAT:77.8582:225.0:300.0:-1
ipc-2014-agile-cavediving-01_easy.pddl,TIMEOUT:301.119:-1.0:300.0:-1
ipc-2014-agile-cavediving-01.pddl,TIMEOUT:301.157:-1.0:300.0:-1
ipc-2014-agile-cavediving-02_easy.pddl,TIMEOUT:301.191:-1.0:300.0:-1
ipc-2014-agile-cavediving-03_easy.pddl,TIMEOUT:301.169:-1.0:300.0:-1
ipc-2014-agile-cavediving-04_easy.pddl,TIMEOUT:301.097:-1.0:300.0:-1
ipc-2014-agile-cavediving-05A_easy.pddl,TIMEOUT:301.099:-1.0:300.0:-1
ipc-2014-agile-cavediving-06A_easy.pddl,TIMEOUT:301.095:-1.0:300.0:-1
ipc-2014-agile-cavediving-07_easy.pddl,TIMEOUT:301.117:-1.0:300.0:-1
ipc-2014-agile-cavediving-08_easy.pddl,TIMEOUT:301.125:-1.0:300.0:-1
ipc-2014-agile-cavediving-09_easy.pddl,TIMEOUT:301.047:-1.0:300.0:-1
ipc-2014-agile-cavediving-10_easy.pddl,TIMEOUT:301.056:-1.0:300.0:-1
ipc-2014-agile-cavediving-11_easy.pddl,TIMEOUT:301.067:-1.0:300.0:-1
ipc-2014-agile-cavediving-12_easy.pddl,TIMEOUT:301.073:-1.0:300.0:-1
ipc-2014-agile-cavediving-13_easy.pddl,TIMEOUT:301.154:-1.0:300.0:-1
ipc-2014-agile-cavediving-14_easy.pddl,TIMEOUT:301.102:-1.0:300.0:-1
ipc-2014-agile-cavediving-15_easy.pddl,TIMEOUT:301.075:-1.0:300.0:-1
ipc-2014-agile-cavediving-16_easy.pddl,TIMEOUT:301.143:-1.0:300.0:-1
ipc-2014-agile-cavediving-18A_easy.pddl,TIMEOUT:301.152:-1.0:300.0:-1
ipc-2014-agile-cavediving-18_easy.pddl,SAT:5.64414:132.0:300.0:-1
ipc-2014-agile-cavediving-20A_easy.pddl,TIMEOUT:301.092:-1.0:300.0:-1
ipc-2014-agile-childsnack-05-2.pddl,TIMEOUT:301.111:-1.0:300.0:-1
ipc-2014-agile-childsnack-05.pddl,TIMEOUT:301.16:-1.0:300.0:-1
ipc-2014-agile-childsnack-06-2.pddl,TIMEOUT:301.068:-1.0:300.0:-1
ipc-2014-agile-childsnack-07-2.pddl,TIMEOUT:301.087:-1.0:300.0:-1
ipc-2014-agile-childsnack-08-2.pddl,TIMEOUT:301.101:-1.0:300.0:-1
ipc-2014-agile-childsnack-08.pddl,TIMEOUT:301.161:-1.0:300.0:-1
ipc-2014-agile-childsnack-09-2.pddl,TIMEOUT:301.179:-1.0:300.0:-1
ipc-2014-agile-childsnack-09.pddl,TIMEOUT:301.138:-1.0:300.0:-1
ipc-2014-agile-childsnack-10-2.pddl,TIMEOUT:301.128:-1.0:300.0:-1
ipc-2014-agile-childsnack-10.pddl,TIMEOUT:301.11:-1.0:300.0:-1
ipc-2014-agile-childsnack-11-2.pddl,TIMEOUT:301.113:-1.0:300.0:-1
ipc-2014-agile-childsnack-11.pddl,TIMEOUT:301.107:-1.0:300.0:-1
ipc-2014-agile-childsnack-12.pddl,TIMEOUT:301.116:-1.0:300.0:-1
ipc-2014-agile-childsnack-13-2.pddl,TIMEOUT:301.139:-1.0:300.0:-1
ipc-2014-agile-childsnack-13.pddl,TIMEOUT:301.105:-1.0:300.0:-1
ipc-2014-agile-childsnack-14.pddl,TIMEOUT:301.079:-1.0:300.0:-1
ipc-2014-agile-childsnack-15-2.pddl,TIMEOUT:301.118:-1.0:300.0:-1
ipc-2014-agile-childsnack-16-2.pddl,TIMEOUT:301.185:-1.0:300.0:-1
ipc-2014-agile-childsnack-19-2.pddl,TIMEOUT:301.111:-1.0:300.0:-1
ipc-2014-agile-childsnack-19.pddl,TIMEOUT:301.127:-1.0:300.0:-1
ipc-2014-agile-citycar-p3-2-2-0-1.pddl,SAT:0.341947:439.0:300.0:-1
ipc-2014-agile-citycar-p3-3-2-0-1.pddl,SAT:0.451931:610.0:300.0:-1
ipc-2014-agile-citycar-p3-4-2-0-1.pddl,SAT:3.32349:552.0:300.0:-1
ipc-2014-agile-citycar-p3-5-2-0-1.pddl,SAT:5.29219:984.0:300.0:-1
ipc-2014-agile-citycar-p3-5-2-0-2.pddl,SAT:1.22881:1078.0:300.0:-1
ipc-2014-agile-citycar-p4-2-2-0-1.pddl,TIMEOUT:301.186:-1.0:300.0:-1
ipc-2014-agile-citycar-p4-2-3-0-1.pddl,TIMEOUT:301.148:-1.0:300.0:-1
ipc-2014-agile-citycar-p4-2-3-0-2.pddl,SAT:6.13507:574.0:300.0:-1
ipc-2014-agile-citycar-p4-3-2-0-1.pddl,SAT:37.3933:861.0:300.0:-1
ipc-2014-agile-citycar-p4-3-2-0-2.pddl,TIMEOUT:301.138:-1.0:300.0:-1
ipc-2014-agile-citycar-p4-3-3-0-1.pddl,TIMEOUT:301.133:-1.0:300.0:-1
ipc-2014-agile-citycar-p4-3-3-0-2.pddl,SAT:6.85696:722.0:300.0:-1
ipc-2014-agile-citycar-p4-4-2-0-1.pddl,TIMEOUT:301.12:-1.0:300.0:-1
ipc-2014-agile-citycar-p4-4-2-0-2.pddl,SAT:13.032:721.0:300.0:-1
ipc-2014-agile-citycar-p4-4-3-0-1.pddl,TIMEOUT:301.107:-1.0:300.0:-1
ipc-2014-agile-citycar-p4-4-3-0-2.pddl,SAT:192.147:916.0:300.0:-1
ipc-2014-agile-citycar-p4-5-2-0-1.pddl,TIMEOUT:301.062:-1.0:300.0:-1
ipc-2014-agile-citycar-p4-5-2-0-2.pddl,TIMEOUT:301.059:-1.0:300.0:-1
ipc-2014-agile-citycar-p4-5-3-0-1.pddl,TIMEOUT:301.074:-1.0:300.0:-1
ipc-2014-agile-citycar-p4-5-3-0-2.pddl,TIMEOUT:301.067:-1.0:300.0:-1
ipc-2014-agile-floortile-p01-4-3-2.pddl,SAT:173.502:104.0:300.0:-1
ipc-2014-agile-floortile-p01-5-4-2.pddl,TIMEOUT:301.116:-1.0:300.0:-1
ipc-2014-agile-floortile-p01-5-5-2.pddl,TIMEOUT:301.079:-1.0:300.0:-1
ipc-2014-agile-floortile-p01-6-4-2.pddl,TIMEOUT:301.12:-1.0:300.0:-1
ipc-2014-agile-floortile-p01-6-5-2.pddl,TIMEOUT:301.071:-1.0:300.0:-1
ipc-2014-agile-floortile-p01-6-5-3.pddl,TIMEOUT:301.115:-1.0:300.0:-1
ipc-2014-agile-floortile-p02-5-4-2.pddl,TIMEOUT:301.101:-1.0:300.0:-1
ipc-2014-agile-floortile-p02-6-4-2.pddl,TIMEOUT:301.138:-1.0:300.0:-1
ipc-2014-agile-floortile-p02-6-5-2.pddl,TIMEOUT:301.168:-1.0:300.0:-1
ipc-2014-agile-floortile-p02-6-5-3.pddl,TIMEOUT:301.152:-1.0:300.0:-1
ipc-2014-agile-floortile-p03-6-4-2.pddl,TIMEOUT:301.076:-1.0:300.0:-1
ipc-2014-agile-floortile-p03-6-5-2.pddl,TIMEOUT:301.094:-1.0:300.0:-1
ipc-2014-agile-floortile-p03-6-5-3.pddl,TIMEOUT:301.106:-1.0:300.0:-1
ipc-2014-agile-floortile-p04-5-4-2.pddl,TIMEOUT:301.141:-1.0:300.0:-1
ipc-2014-agile-floortile-p04-5-5-2.pddl,TIMEOUT:301.093:-1.0:300.0:-1
ipc-2014-agile-floortile-p04-6-5-2.pddl,TIMEOUT:301.108:-1.0:300.0:-1
ipc-2014-agile-floortile-p04-6-5-3.pddl,TIMEOUT:301.072:-1.0:300.0:-1
ipc-2014-agile-floortile-p05-4-3-2.pddl,SAT:0.033994:77.0:300.0:-1
ipc-2014-agile-floortile-p05-6-5-2.pddl,TIMEOUT:301.141:-1.0:300.0:-1
ipc-2014-agile-floortile-p05-6-5-3.pddl,TIMEOUT:301.101:-1.0:300.0:-1
ipc-2014-agile-ged-d-10-1.pddl,SAT:16.6975:81.0:300.0:-1
ipc-2014-agile-ged-d-10-2.pddl,SAT:16.6675:34.0:300.0:-1
ipc-2014-agile-ged-d-10-3.pddl,SAT:2.68759:28.0:300.0:-1
ipc-2014-agile-ged-d-10-4.pddl,SAT:15.0177:72.0:300.0:-1
ipc-2014-agile-ged-d-10-5.pddl,SAT:22.9325:118.0:300.0:-1
ipc-2014-agile-ged-d-10-6.pddl,SAT:14.4888:50.0:300.0:-1
ipc-2014-agile-ged-d-11-1.pddl,SAT:5.50216:61.0:300.0:-1
ipc-2014-agile-ged-d-11-3.pddl,SAT:12.6881:58.0:300.0:-1
ipc-2014-agile-ged-d-11-5.pddl,SAT:9.49356:39.0:300.0:-1
ipc-2014-agile-ged-d-11-6.pddl,SAT:13.6769:88.0:300.0:-1
ipc-2014-agile-ged-d-12-11.pddl,SAT:48.2017:93.0:300.0:-1
ipc-2014-agile-ged-d-12-2.pddl,SAT:66.3439:64.0:300.0:-1
ipc-2014-agile-ged-d-12-3.pddl,SAT:177.129:103.0:300.0:-1
ipc-2014-agile-ged-d-12-5.pddl,SAT:160.297:117.0:300.0:-1
ipc-2014-agile-ged-d-12-6.pddl,SAT:63.5243:124.0:300.0:-1
ipc-2014-agile-ged-d-12-7.pddl,SAT:147.364:154.0:300.0:-1
ipc-2014-agile-ged-d-12-8.pddl,SAT:230.55:153.0:300.0:-1
ipc-2014-agile-ged-d-12-9.pddl,SAT:99.7498:166.0:300.0:-1
ipc-2014-agile-ged-d-3-6.pddl,SAT:11.9052:101.0:300.0:-1
ipc-2014-agile-ged-d-9-5.pddl,SAT:5.9341:61.0:300.0:-1
ipc-2014-agile-hiking-3-4-3.pddl,SAT:0.597908:17.0:300.0:-1
ipc-2014-agile-hiking-3-4-4.pddl,SAT:2.26465:28.0:300.0:-1
ipc-2014-agile-hiking-3-4-5.pddl,SAT:5.95909:46.0:300.0:-1
ipc-2014-agile-hiking-3-4-6.pddl,SAT:22.2916:57.0:300.0:-1
ipc-2014-agile-hiking-3-4-7.pddl,SAT:43.1564:61.0:300.0:-1
ipc-2014-agile-hiking-3-4-8.pddl,SAT:72.63:74.0:300.0:-1
ipc-2014-agile-hiking-3-4-9.pddl,SAT:110.888:79.0:300.0:-1
ipc-2014-agile-hiking-4-5-3.pddl,SAT:3.91241:19.0:300.0:-1
ipc-2014-agile-hiking-4-5-4.pddl,SAT:18.0073:31.0:300.0:-1
ipc-2014-agile-hiking-4-5-5.pddl,SAT:73.5658:67.0:300.0:-1
ipc-2014-agile-hiking-4-5-6.pddl,SAT:104.893:63.0:300.0:-1
ipc-2014-agile-hiking-4-5-7.pddl,SAT:161.761:61.0:300.0:-1
ipc-2014-agile-hiking-4-5-8.pddl,TIMEOUT:301.086:-1.0:300.0:-1
ipc-2014-agile-hiking-4-5-9.pddl,TIMEOUT:301.101:-1.0:300.0:-1
ipc-2014-agile-hiking-5-6-3.pddl,SAT:23.5724:22.0:300.0:-1
ipc-2014-agile-hiking-5-6-4.pddl,SAT:61.1527:30.0:300.0:-1
ipc-2014-agile-hiking-5-6-5.pddl,SAT:213.521:54.0:300.0:-1
ipc-2014-agile-hiking-5-6-6.pddl,TIMEOUT:301.096:-1.0:300.0:-1
ipc-2014-agile-hiking-5-6-7.pddl,TIMEOUT:301.091:-1.0:300.0:-1
ipc-2014-agile-hiking-5-6-8.pddl,TIMEOUT:301.14:-1.0:300.0:-1
ipc-2014-agile-maintenance-1.3.060.180.5-000.pddl,SAT:0.38594:46.0:300.0:-1
ipc-2014-agile-maintenance-1.3.060.180.5-001.pddl,SAT:0.397939:42.0:300.0:-1
ipc-2014-agile-maintenance-1.3.060.180.5-002.pddl,SAT:0.400938:49.0:300.0:-1
ipc-2014-agile-maintenance-1.3.100.300.5-000.pddl,SAT:1.60376:72.0:300.0:-1
ipc-2014-agile-maintenance-1.3.100.300.5-001.pddl,TIMEOUT:301.185:-1.0:300.0:-1
ipc-2014-agile-maintenance-1.3.100.300.7-000.pddl,SAT:1.62875:55.0:300.0:-1
ipc-2014-agile-maintenance-1.3.100.300.7-001.pddl,SAT:1.57976:61.0:300.0:-1
ipc-2014-agile-maintenance-1.3.100.300.7-002.pddl,SAT:1.58176:58.0:300.0:-1
ipc-2014-agile-maintenance-1.3.150.500.6-001.pddl,SAT:6.08707:103.0:300.0:-1
ipc-2014-agile-maintenance-1.3.200.500.5-001.pddl,TIMEOUT:301.658:-1.0:300.0:-1
ipc-2014-agile-maintenance-1.3.200.500.5-002.pddl,SAT:7.81481:141.0:300.0:-1
ipc-2014-agile-maintenance-1.3.200.700.7-000.pddl,CRASHED:3.50647:1000000000.0:300.0:-1
ipc-2014-agile-maintenance-1.3.200.700.7-001.pddl,CRASHED:3.46147:1000000000.0:300.0:-1
ipc-2014-agile-maintenance-1.3.200.700.7-002.pddl,CRASHED:3.50347:1000000000.0:300.0:-1
ipc-2014-agile-maintenance-1.3.200.900.5-000.pddl,CRASHED:6.00709:1000000000.0:300.0:-1
ipc-2014-agile-maintenance-1.3.200.900.5-001.pddl,CRASHED:6.24705:1000000000.0:300.0:-1
ipc-2014-agile-maintenance-1.3.200.900.5-002.pddl,CRASHED:5.9121:1000000000.0:300.0:-1
ipc-2014-agile-maintenance-1.3.200.900.8-000.pddl,CRASHED:6.03608:1000000000.0:300.0:-1
ipc-2014-agile-maintenance-1.3.200.900.8-001.pddl,CRASHED:6.05308:1000000000.0:300.0:-1
ipc-2014-agile-maintenance-1.3.200.900.8-002.pddl,CRASHED:6.23705:1000000000.0:300.0:-1
ipc-2014-agile-openstacks-p130_2.pddl,TIMEOUT:301.071:-1.0:300.0:-1
ipc-2014-agile-openstacks-p130_3.pddl,TIMEOUT:301.074:-1.0:300.0:-1
ipc-2014-agile-openstacks-p150_2.pddl,TIMEOUT:301.115:-1.0:300.0:-1
ipc-2014-agile-openstacks-p150_3.pddl,TIMEOUT:301.113:-1.0:300.0:-1
ipc-2014-agile-openstacks-p170_1.pddl,TIMEOUT:301.117:-1.0:300.0:-1
ipc-2014-agile-openstacks-p170_2.pddl,TIMEOUT:301.15:-1.0:300.0:-1
ipc-2014-agile-openstacks-p170_3.pddl,TIMEOUT:301.092:-1.0:300.0:-1
ipc-2014-agile-openstacks-p190_1.pddl,TIMEOUT:301.167:-1.0:300.0:-1
ipc-2014-agile-openstacks-p190_2.pddl,TIMEOUT:301.087:-1.0:300.0:-1
ipc-2014-agile-openstacks-p190_3.pddl,TIMEOUT:301.139:-1.0:300.0:-1
ipc-2014-agile-openstacks-p210_1.pddl,TIMEOUT:301.094:-1.0:300.0:-1
ipc-2014-agile-openstacks-p210_2.pddl,TIMEOUT:301.107:-1.0:300.0:-1
ipc-2014-agile-openstacks-p230_1.pddl,TIMEOUT:301.15:-1.0:300.0:-1
ipc-2014-agile-openstacks-p230_2.pddl,TIMEOUT:301.137:-1.0:300.0:-1
ipc-2014-agile-openstacks-p250_1.pddl,TIMEOUT:301.215:-1.0:300.0:-1
ipc-2014-agile-openstacks-p250_2.pddl,TIMEOUT:301.148:-1.0:300.0:-1
ipc-2014-agile-openstacks-p270_1.pddl,TIMEOUT:301.198:-1.0:300.0:-1
ipc-2014-agile-openstacks-p270_2.pddl,TIMEOUT:301.184:-1.0:300.0:-1
ipc-2014-agile-openstacks-p290_1.pddl,TIMEOUT:301.147:-1.0:300.0:-1
ipc-2014-agile-openstacks-p290_2.pddl,TIMEOUT:301.178:-1.0:300.0:-1
ipc-2014-agile-parking-28_2.pddl,SAT:87.3477:99.0:300.0:-1
ipc-2014-agile-parking-28_3.pddl,SAT:275.021:173.0:300.0:-1
ipc-2014-agile-parking-30_1.pddl,SAT:188.891:97.0:300.0:-1
ipc-2014-agile-parking-30_2.pddl,TIMEOUT:301.139:-1.0:300.0:-1
ipc-2014-agile-parking-30_3.pddl,TIMEOUT:301.095:-1.0:300.0:-1
ipc-2014-agile-parking-32_1.pddl,TIMEOUT:301.11:-1.0:300.0:-1
ipc-2014-agile-parking-32_2.pddl,TIMEOUT:301.08:-1.0:300.0:-1
ipc-2014-agile-parking-32_3.pddl,TIMEOUT:301.155:-1.0:300.0:-1
ipc-2014-agile-parking-34_1.pddl,TIMEOUT:301.14:-1.0:300.0:-1
ipc-2014-agile-parking-34_2.pddl,TIMEOUT:301.158:-1.0:300.0:-1
ipc-2014-agile-parking-34_3.pddl,TIMEOUT:301.106:-1.0:300.0:-1
ipc-2014-agile-parking-36_1.pddl,TIMEOUT:301.149:-1.0:300.0:-1
ipc-2014-agile-parking-36_2.pddl,TIMEOUT:301.14:-1.0:300.0:-1
ipc-2014-agile-parking-36_3.pddl,TIMEOUT:301.12:-1.0:300.0:-1
ipc-2014-agile-parking-38_1.pddl,TIMEOUT:301.193:-1.0:300.0:-1
ipc-2014-agile-parking-38_2.pddl,TIMEOUT:301.177:-1.0:300.0:-1
ipc-2014-agile-parking-38_3.pddl,TIMEOUT:301.153:-1.0:300.0:-1
ipc-2014-agile-parking-40_1.pddl,TIMEOUT:301.208:-1.0:300.0:-1
ipc-2014-agile-parking-40_2.pddl,TIMEOUT:301.148:-1.0:300.0:-1
ipc-2014-agile-parking-40_3.pddl,TIMEOUT:301.13:-1.0:300.0:-1
ipc-2014-agile-tetris-020.pddl,TIMEOUT:301.075:-1.0:300.0:-1
ipc-2014-agile-tetris-021.pddl,TIMEOUT:301.094:-1.0:300.0:-1
ipc-2014-agile-tetris-022.pddl,TIMEOUT:301.089:-1.0:300.0:-1
ipc-2014-agile-tetris-023.pddl,TIMEOUT:301.082:-1.0:300.0:-1
ipc-2014-agile-tetris-024.pddl,TIMEOUT:301.069:-1.0:300.0:-1
ipc-2014-agile-tetris-025.pddl,TIMEOUT:301.053:-1.0:300.0:-1
ipc-2014-agile-tetris-026.pddl,TIMEOUT:301.028:-1.0:300.0:-1
ipc-2014-agile-tetris-027.pddl,TIMEOUT:301.115:-1.0:300.0:-1
ipc-2014-agile-tetris-028.pddl,TIMEOUT:301.088:-1.0:300.0:-1
ipc-2014-agile-tetris-029.pddl,TIMEOUT:301.081:-1.0:300.0:-1
ipc-2014-agile-tetris-031.pddl,TIMEOUT:301.118:-1.0:300.0:-1
ipc-2014-agile-tetris-032.pddl,TIMEOUT:301.024:-1.0:300.0:-1
ipc-2014-agile-tetris-033.pddl,TIMEOUT:301.055:-1.0:300.0:-1
ipc-2014-agile-tetris-034.pddl,TIMEOUT:301.069:-1.0:300.0:-1
ipc-2014-agile-tetris-035.pddl,TIMEOUT:301.035:-1.0:300.0:-1
ipc-2014-agile-tetris-036.pddl,TIMEOUT:301.121:-1.0:300.0:-1
ipc-2014-agile-tetris-037.pddl,TIMEOUT:301.095:-1.0:300.0:-1
ipc-2014-agile-tetris-038.pddl,TIMEOUT:301.022:-1.0:300.0:-1
ipc-2014-agile-tetris-039.pddl,TIMEOUT:301.112:-1.0:300.0:-1
ipc-2014-agile-tetris-040.pddl,TIMEOUT:301.042:-1.0:300.0:-1
ipc-2014-agile-thoughtful-bootstrap-typed-01.pddl,SAT:0.224965:39.0:300.0:-1
ipc-2014-agile-thoughtful-bootstrap-typed-02.pddl,SAT:0.199969:35.0:300.0:-1
ipc-2014-agile-thoughtful-bootstrap-typed-03.pddl,SAT:0.250961:44.0:300.0:-1
ipc-2014-agile-thoughtful-bootstrap-typed-04.pddl,SAT:0.25296:37.0:300.0:-1
ipc-2014-agile-thoughtful-bootstrap-typed-05.pddl,SAT:0.219965:34.0:300.0:-1
ipc-2014-agile-thoughtful-p11_6_53-typed.pddl,SAT:19.3771:128.0:300.0:-1
ipc-2014-agile-thoughtful-p11_6_59-typed.pddl,SAT:12.0302:127.0:300.0:-1
ipc-2014-agile-thoughtful-p11_6_62-typed.pddl,TIMEOUT:301.087:-1.0:300.0:-1
ipc-2014-agile-thoughtful-p13_7_78-typed.pddl,TIMEOUT:301.13:-1.0:300.0:-1
ipc-2014-agile-thoughtful-p13_7_79-typed.pddl,TIMEOUT:301.122:-1.0:300.0:-1
ipc-2014-agile-thoughtful-p13_7_86-typed.pddl,SAT:15.0297:169.0:300.0:-1
ipc-2014-agile-thoughtful-target-typed-20.pddl,SAT:16.8024:154.0:300.0:-1
ipc-2014-agile-thoughtful-target-typed-21.pddl,SAT:29.3395:186.0:300.0:-1
ipc-2014-agile-thoughtful-target-typed-22.pddl,SAT:31.4082:145.0:300.0:-1
ipc-2014-agile-thoughtful-target-typed-23.pddl,SAT:17.2784:137.0:300.0:-1
ipc-2014-agile-thoughtful-target-typed-24.pddl,TIMEOUT:301.138:-1.0:300.0:-1
ipc-2014-agile-thoughtful-target-typed-25.pddl,SAT:16.8574:140.0:300.0:-1
ipc-2014-agile-thoughtful-target-typed-26.pddl,SAT:12.8021:156.0:300.0:-1
ipc-2014-agile-thoughtful-target-typed-27.pddl,SAT:36.4055:184.0:300.0:-1
ipc-2014-agile-thoughtful-target-typed-28.pddl,SAT:18.4072:178.0:300.0:-1
ipc-2014-agile-transport-01.pddl,SAT:56.6454:3161.0:300.0:-1
ipc-2014-agile-transport-02.pddl,SAT:107.226:4305.0:300.0:-1
ipc-2014-agile-transport-03.pddl,SAT:84.2422:3522.0:300.0:-1
ipc-2014-agile-transport-04.pddl,TIMEOUT:301.224:-1.0:300.0:-1
ipc-2014-agile-transport-05.pddl,TIMEOUT:301.167:-1.0:300.0:-1
ipc-2014-agile-transport-06.pddl,TIMEOUT:301.189:-1.0:300.0:-1
ipc-2014-agile-transport-07.pddl,TIMEOUT:301.238:-1.0:300.0:-1
ipc-2014-agile-transport-08.pddl,TIMEOUT:301.359:-1.0:300.0:-1
ipc-2014-agile-transport-09.pddl,TIMEOUT:301.289:-1.0:300.0:-1
ipc-2014-agile-transport-10.pddl,TIMEOUT:301.233:-1.0:300.0:-1
ipc-2014-agile-transport-11.pddl,SAT:116.971:2948.0:300.0:-1
ipc-2014-agile-transport-12.pddl,SAT:186.385:4445.0:300.0:-1
ipc-2014-agile-transport-13.pddl,SAT:62.5895:3203.0:300.0:-1
ipc-2014-agile-transport-14.pddl,TIMEOUT:301.178:-1.0:300.0:-1
ipc-2014-agile-transport-15.pddl,TIMEOUT:301.23:-1.0:300.0:-1
ipc-2014-agile-transport-16.pddl,TIMEOUT:301.186:-1.0:300.0:-1
ipc-2014-agile-transport-17.pddl,TIMEOUT:301.308:-1.0:300.0:-1
ipc-2014-agile-transport-18.pddl,TIMEOUT:301.351:-1.0:300.0:-1
ipc-2014-agile-transport-19.pddl,TIMEOUT:301.259:-1.0:300.0:-1
ipc-2014-agile-transport-20.pddl,TIMEOUT:301.301:-1.0:300.0:-1
ipc-2014-agile-visitall-30.pddl,SAT:65.2311:1121.0:300.0:-1
ipc-2014-agile-visitall-31.pddl,SAT:75.8545:1184.0:300.0:-1
ipc-2014-agile-visitall-32.pddl,SAT:93.4388:1306.0:300.0:-1
ipc-2014-agile-visitall-33.pddl,SAT:111.641:1369.0:300.0:-1
ipc-2014-agile-visitall-50.pddl,TIMEOUT:301.164:-1.0:300.0:-1
ipc-2014-agile-visitall-51.pddl,TIMEOUT:301.198:-1.0:300.0:-1
ipc-2014-agile-visitall-52.pddl,TIMEOUT:301.139:-1.0:300.0:-1
ipc-2014-agile-visitall-53.pddl,TIMEOUT:301.187:-1.0:300.0:-1
ipc-2014-agile-visitall-54.pddl,TIMEOUT:301.169:-1.0:300.0:-1
ipc-2014-agile-visitall-55.pddl,TIMEOUT:301.187:-1.0:300.0:-1
ipc-2014-agile-visitall-56.pddl,TIMEOUT:301.176:-1.0:300.0:-1
ipc-2014-agile-visitall-57.pddl,TIMEOUT:301.215:-1.0:300.0:-1
ipc-2014-agile-visitall-58.pddl,TIMEOUT:301.182:-1.0:300.0:-1
ipc-2014-agile-visitall-59.pddl,TIMEOUT:301.169:-1.0:300.0:-1
ipc-2014-agile-visitall-60.pddl,TIMEOUT:301.255:-1.0:300.0:-1
ipc-2014-agile-visitall-61.pddl,TIMEOUT:301.213:-1.0:300.0:-1
ipc-2014-agile-visitall-62.pddl,TIMEOUT:301.228:-1.0:300.0:-1
ipc-2014-agile-visitall-63.pddl,TIMEOUT:301.246:-1.0:300.0:-1
ipc-2014-agile-visitall-64.pddl,TIMEOUT:301.267:-1.0:300.0:-1
ipc-2014-agile-visitall-65.pddl,TIMEOUT:301.218:-1.0:300.0:-1
