instance,ipc-2014-agile-madagascar-pc
ipc-2014-agile-barman-p1-11-4-15.pddl,TIMEOUT:301.223:-1.0:300.0:-1
ipc-2014-agile-barman-p1-11-5-15.pddl,TIMEOUT:301.282:-1.0:300.0:-1
ipc-2014-agile-barman-p1-11-5-16.pddl,TIMEOUT:301.241:-1.0:300.0:-1
ipc-2014-agile-barman-p2-10-4-13.pddl,TIMEOUT:301.216:-1.0:300.0:-1
ipc-2014-agile-barman-p2-11-4-15.pddl,TIMEOUT:301.207:-1.0:300.0:-1
ipc-2014-agile-barman-p2-11-5-15.pddl,TIMEOUT:301.264:-1.0:300.0:-1
ipc-2014-agile-barman-p2-11-5-16.pddl,TIMEOUT:301.257:-1.0:300.0:-1
ipc-2014-agile-barman-p2-11-5-17.pddl,TIMEOUT:301.308:-1.0:300.0:-1
ipc-2014-agile-barman-p3-10-4-13.pddl,TIMEOUT:301.212:-1.0:300.0:-1
ipc-2014-agile-barman-p3-11-4-15.pddl,TIMEOUT:301.219:-1.0:300.0:-1
ipc-2014-agile-barman-p3-11-5-15.pddl,TIMEOUT:301.194:-1.0:300.0:-1
ipc-2014-agile-barman-p3-11-5-16.pddl,TIMEOUT:301.273:-1.0:300.0:-1
ipc-2014-agile-barman-p3-11-5-17.pddl,TIMEOUT:301.288:-1.0:300.0:-1
ipc-2014-agile-barman-p4-11-4-14.pddl,TIMEOUT:301.234:-1.0:300.0:-1
ipc-2014-agile-barman-p4-11-4-15.pddl,TIMEOUT:301.202:-1.0:300.0:-1
ipc-2014-agile-barman-p4-11-5-15.pddl,SAT:128.719:441.0:300.0:-1
ipc-2014-agile-barman-p5-10-4-13.pddl,TIMEOUT:301.203:-1.0:300.0:-1
ipc-2014-agile-barman-p5-11-4-15.pddl,TIMEOUT:301.233:-1.0:300.0:-1
ipc-2014-agile-barman-p5-11-5-15.pddl,TIMEOUT:301.217:-1.0:300.0:-1
ipc-2014-agile-barman-p5-11-5-16.pddl,TIMEOUT:301.251:-1.0:300.0:-1
ipc-2014-agile-cavediving-01_easy.pddl,TIMEOUT:301.296:-1.0:300.0:-1
ipc-2014-agile-cavediving-01.pddl,TIMEOUT:301.415:-1.0:300.0:-1
ipc-2014-agile-cavediving-02_easy.pddl,TIMEOUT:301.307:-1.0:300.0:-1
ipc-2014-agile-cavediving-03_easy.pddl,TIMEOUT:301.309:-1.0:300.0:-1
ipc-2014-agile-cavediving-04_easy.pddl,TIMEOUT:301.329:-1.0:300.0:-1
ipc-2014-agile-cavediving-05A_easy.pddl,SAT:103.643:94.0:300.0:-1
ipc-2014-agile-cavediving-06A_easy.pddl,SAT:103.679:95.0:300.0:-1
ipc-2014-agile-cavediving-07_easy.pddl,TIMEOUT:301.111:-1.0:300.0:-1
ipc-2014-agile-cavediving-08_easy.pddl,SAT:107.942:90.0:300.0:-1
ipc-2014-agile-cavediving-09_easy.pddl,TIMEOUT:301.424:-1.0:300.0:-1
ipc-2014-agile-cavediving-10_easy.pddl,TIMEOUT:301.372:-1.0:300.0:-1
ipc-2014-agile-cavediving-11_easy.pddl,TIMEOUT:301.411:-1.0:300.0:-1
ipc-2014-agile-cavediving-12_easy.pddl,TIMEOUT:301.45:-1.0:300.0:-1
ipc-2014-agile-cavediving-13_easy.pddl,TIMEOUT:301.336:-1.0:300.0:-1
ipc-2014-agile-cavediving-14_easy.pddl,TIMEOUT:301.354:-1.0:300.0:-1
ipc-2014-agile-cavediving-15_easy.pddl,TIMEOUT:301.299:-1.0:300.0:-1
ipc-2014-agile-cavediving-16_easy.pddl,TIMEOUT:301.382:-1.0:300.0:-1
ipc-2014-agile-cavediving-18A_easy.pddl,TIMEOUT:301.209:-1.0:300.0:-1
ipc-2014-agile-cavediving-18_easy.pddl,SAT:0.11998:132.0:300.0:-1
ipc-2014-agile-cavediving-20A_easy.pddl,TIMEOUT:301.19:-1.0:300.0:-1
ipc-2014-agile-childsnack-05-2.pddl,SAT:0.090985:36.0:300.0:-1
ipc-2014-agile-childsnack-05.pddl,SAT:0.102984:38.0:300.0:-1
ipc-2014-agile-childsnack-06-2.pddl,SAT:0.137978:38.0:300.0:-1
ipc-2014-agile-childsnack-07-2.pddl,SAT:0.172973:43.0:300.0:-1
ipc-2014-agile-childsnack-08-2.pddl,CRASHED:104.927:1000000000.0:300.0:-1
ipc-2014-agile-childsnack-08.pddl,SAT:0.226964:47.0:300.0:-1
ipc-2014-agile-childsnack-09-2.pddl,SAT:0.402937:47.0:300.0:-1
ipc-2014-agile-childsnack-09.pddl,CRASHED:33.065:1000000000.0:300.0:-1
ipc-2014-agile-childsnack-10-2.pddl,CRASHED:34.5987:1000000000.0:300.0:-1
ipc-2014-agile-childsnack-10.pddl,CRASHED:31.1713:1000000000.0:300.0:-1
ipc-2014-agile-childsnack-11-2.pddl,CRASHED:225.111:1000000000.0:300.0:-1
ipc-2014-agile-childsnack-11.pddl,CRASHED:169.54:1000000000.0:300.0:-1
ipc-2014-agile-childsnack-12.pddl,CRASHED:40.8688:1000000000.0:300.0:-1
ipc-2014-agile-childsnack-13-2.pddl,CRASHED:131.898:1000000000.0:300.0:-1
ipc-2014-agile-childsnack-13.pddl,CRASHED:146.249:1000000000.0:300.0:-1
ipc-2014-agile-childsnack-14.pddl,CRASHED:53.2099:1000000000.0:300.0:-1
ipc-2014-agile-childsnack-15-2.pddl,CRASHED:27.4108:1000000000.0:300.0:-1
ipc-2014-agile-childsnack-16-2.pddl,CRASHED:62.2915:1000000000.0:300.0:-1
ipc-2014-agile-childsnack-19-2.pddl,CRASHED:42.2746:1000000000.0:300.0:-1
ipc-2014-agile-childsnack-19.pddl,CRASHED:48.5186:1000000000.0:300.0:-1
ipc-2014-agile-citycar-p3-2-2-0-1.pddl,SAT:0.130979:291.0:300.0:-1
ipc-2014-agile-citycar-p3-3-2-0-1.pddl,SAT:0.791879:651.0:300.0:-1
ipc-2014-agile-citycar-p3-4-2-0-1.pddl,SAT:0.392939:722.0:300.0:-1
ipc-2014-agile-citycar-p3-5-2-0-1.pddl,SAT:58.3081:694.0:300.0:-1
ipc-2014-agile-citycar-p3-5-2-0-2.pddl,SAT:9.80651:1041.0:300.0:-1
ipc-2014-agile-citycar-p4-2-2-0-1.pddl,SAT:43.9323:336.0:300.0:-1
ipc-2014-agile-citycar-p4-2-3-0-1.pddl,SAT:56.5424:417.0:300.0:-1
ipc-2014-agile-citycar-p4-2-3-0-2.pddl,SAT:253.367:494.0:300.0:-1
ipc-2014-agile-citycar-p4-3-2-0-1.pddl,SAT:44.1343:1185.0:300.0:-1
ipc-2014-agile-citycar-p4-3-2-0-2.pddl,TIMEOUT:301.39:-1.0:300.0:-1
ipc-2014-agile-citycar-p4-3-3-0-1.pddl,TIMEOUT:301.443:-1.0:300.0:-1
ipc-2014-agile-citycar-p4-3-3-0-2.pddl,TIMEOUT:301.405:-1.0:300.0:-1
ipc-2014-agile-citycar-p4-4-2-0-1.pddl,TIMEOUT:301.407:-1.0:300.0:-1
ipc-2014-agile-citycar-p4-4-2-0-2.pddl,TIMEOUT:301.472:-1.0:300.0:-1
ipc-2014-agile-citycar-p4-4-3-0-1.pddl,TIMEOUT:301.361:-1.0:300.0:-1
ipc-2014-agile-citycar-p4-4-3-0-2.pddl,TIMEOUT:301.396:-1.0:300.0:-1
ipc-2014-agile-citycar-p4-5-2-0-1.pddl,TIMEOUT:301.305:-1.0:300.0:-1
ipc-2014-agile-citycar-p4-5-2-0-2.pddl,TIMEOUT:301.378:-1.0:300.0:-1
ipc-2014-agile-citycar-p4-5-3-0-1.pddl,TIMEOUT:301.328:-1.0:300.0:-1
ipc-2014-agile-citycar-p4-5-3-0-2.pddl,TIMEOUT:301.348:-1.0:300.0:-1
ipc-2014-agile-floortile-p01-4-3-2.pddl,SAT:0.015997:94.0:300.0:-1
ipc-2014-agile-floortile-p01-5-4-2.pddl,SAT:0.027995:173.0:300.0:-1
ipc-2014-agile-floortile-p01-5-5-2.pddl,SAT:0.042993:197.0:300.0:-1
ipc-2014-agile-floortile-p01-6-4-2.pddl,SAT:0.033993:190.0:300.0:-1
ipc-2014-agile-floortile-p01-6-5-2.pddl,SAT:0.056991:230.0:300.0:-1
ipc-2014-agile-floortile-p01-6-5-3.pddl,SAT:0.071988:223.0:300.0:-1
ipc-2014-agile-floortile-p02-5-4-2.pddl,SAT:0.032994:178.0:300.0:-1
ipc-2014-agile-floortile-p02-6-4-2.pddl,SAT:0.039993:207.0:300.0:-1
ipc-2014-agile-floortile-p02-6-5-2.pddl,SAT:0.070989:251.0:300.0:-1
ipc-2014-agile-floortile-p02-6-5-3.pddl,SAT:0.070988:235.0:300.0:-1
ipc-2014-agile-floortile-p03-6-4-2.pddl,SAT:0.038993:214.0:300.0:-1
ipc-2014-agile-floortile-p03-6-5-2.pddl,SAT:0.053991:248.0:300.0:-1
ipc-2014-agile-floortile-p03-6-5-3.pddl,SAT:0.06199:253.0:300.0:-1
ipc-2014-agile-floortile-p04-5-4-2.pddl,SAT:0.031994:175.0:300.0:-1
ipc-2014-agile-floortile-p04-5-5-2.pddl,SAT:0.044992:214.0:300.0:-1
ipc-2014-agile-floortile-p04-6-5-2.pddl,SAT:0.071988:261.0:300.0:-1
ipc-2014-agile-floortile-p04-6-5-3.pddl,SAT:0.073988:231.0:300.0:-1
ipc-2014-agile-floortile-p05-4-3-2.pddl,SAT:0.014997:96.0:300.0:-1
ipc-2014-agile-floortile-p05-6-5-2.pddl,SAT:0.054991:223.0:300.0:-1
ipc-2014-agile-floortile-p05-6-5-3.pddl,SAT:0.072988:243.0:300.0:-1
ipc-2014-agile-ged-d-10-1.pddl,SAT:14.3908:99.0:300.0:-1
ipc-2014-agile-ged-d-10-2.pddl,SAT:30.3554:212.0:300.0:-1
ipc-2014-agile-ged-d-10-3.pddl,SAT:34.0088:130.0:300.0:-1
ipc-2014-agile-ged-d-10-4.pddl,SAT:65.2481:193.0:300.0:-1
ipc-2014-agile-ged-d-10-5.pddl,TIMEOUT:301.335:-1.0:300.0:-1
ipc-2014-agile-ged-d-10-6.pddl,SAT:256.847:139.0:300.0:-1
ipc-2014-agile-ged-d-11-1.pddl,SAT:74.3487:110.0:300.0:-1
ipc-2014-agile-ged-d-11-3.pddl,SAT:49.0016:75.0:300.0:-1
ipc-2014-agile-ged-d-11-5.pddl,SAT:68.9365:116.0:300.0:-1
ipc-2014-agile-ged-d-11-6.pddl,TIMEOUT:301.311:-1.0:300.0:-1
ipc-2014-agile-ged-d-12-11.pddl,SAT:86.0369:190.0:300.0:-1
ipc-2014-agile-ged-d-12-2.pddl,TIMEOUT:301.356:-1.0:300.0:-1
ipc-2014-agile-ged-d-12-3.pddl,TIMEOUT:301.385:-1.0:300.0:-1
ipc-2014-agile-ged-d-12-5.pddl,TIMEOUT:301.419:-1.0:300.0:-1
ipc-2014-agile-ged-d-12-6.pddl,TIMEOUT:301.393:-1.0:300.0:-1
ipc-2014-agile-ged-d-12-7.pddl,TIMEOUT:301.332:-1.0:300.0:-1
ipc-2014-agile-ged-d-12-8.pddl,TIMEOUT:301.46:-1.0:300.0:-1
ipc-2014-agile-ged-d-12-9.pddl,TIMEOUT:301.384:-1.0:300.0:-1
ipc-2014-agile-ged-d-3-6.pddl,SAT:54.4817:102.0:300.0:-1
ipc-2014-agile-ged-d-9-5.pddl,SAT:188.721:167.0:300.0:-1
ipc-2014-agile-hiking-3-4-3.pddl,SAT:0.318951:18.0:300.0:-1
ipc-2014-agile-hiking-3-4-4.pddl,CRASHED:31.8912:1000000000.0:300.0:-1
ipc-2014-agile-hiking-3-4-5.pddl,CRASHED:27.5308:1000000000.0:300.0:-1
ipc-2014-agile-hiking-3-4-6.pddl,TIMEOUT:301.403:-1.0:300.0:-1
ipc-2014-agile-hiking-3-4-7.pddl,TIMEOUT:301.37:-1.0:300.0:-1
ipc-2014-agile-hiking-3-4-8.pddl,CRASHED:31.7012:1000000000.0:300.0:-1
ipc-2014-agile-hiking-3-4-9.pddl,CRASHED:34.0648:1000000000.0:300.0:-1
ipc-2014-agile-hiking-4-5-3.pddl,SAT:1.24081:29.0:300.0:-1
ipc-2014-agile-hiking-4-5-4.pddl,SAT:3.84941:47.0:300.0:-1
ipc-2014-agile-hiking-4-5-5.pddl,CRASHED:33.2439:1000000000.0:300.0:-1
ipc-2014-agile-hiking-4-5-6.pddl,TIMEOUT:301.398:-1.0:300.0:-1
ipc-2014-agile-hiking-4-5-7.pddl,TIMEOUT:301.445:-1.0:300.0:-1
ipc-2014-agile-hiking-4-5-8.pddl,TIMEOUT:301.453:-1.0:300.0:-1
ipc-2014-agile-hiking-4-5-9.pddl,CRASHED:76.5024:1000000000.0:300.0:-1
ipc-2014-agile-hiking-5-6-3.pddl,SAT:3.41748:36.0:300.0:-1
ipc-2014-agile-hiking-5-6-4.pddl,CRASHED:29.2246:1000000000.0:300.0:-1
ipc-2014-agile-hiking-5-6-5.pddl,CRASHED:38.6541:1000000000.0:300.0:-1
ipc-2014-agile-hiking-5-6-6.pddl,CRASHED:58.928:1000000000.0:300.0:-1
ipc-2014-agile-hiking-5-6-7.pddl,CRASHED:102.12:1000000000.0:300.0:-1
ipc-2014-agile-hiking-5-6-8.pddl,CRASHED:158.831:1000000000.0:300.0:-1
ipc-2014-agile-maintenance-1.3.060.180.5-000.pddl,SAT:0.136978:54.0:300.0:-1
ipc-2014-agile-maintenance-1.3.060.180.5-001.pddl,TIMEOUT:301.128:-1.0:300.0:-1
ipc-2014-agile-maintenance-1.3.060.180.5-002.pddl,SAT:55.8575:55.0:300.0:-1
ipc-2014-agile-maintenance-1.3.100.300.5-000.pddl,TIMEOUT:301.147:-1.0:300.0:-1
ipc-2014-agile-maintenance-1.3.100.300.5-001.pddl,TIMEOUT:301.101:-1.0:300.0:-1
ipc-2014-agile-maintenance-1.3.100.300.7-000.pddl,SAT:0.314951:83.0:300.0:-1
ipc-2014-agile-maintenance-1.3.100.300.7-001.pddl,SAT:0.286956:80.0:300.0:-1
ipc-2014-agile-maintenance-1.3.100.300.7-002.pddl,SAT:0.278957:77.0:300.0:-1
ipc-2014-agile-maintenance-1.3.150.500.6-001.pddl,SAT:0.956853:133.0:300.0:-1
ipc-2014-agile-maintenance-1.3.200.500.5-001.pddl,SAT:1.37879:180.0:300.0:-1
ipc-2014-agile-maintenance-1.3.200.500.5-002.pddl,TIMEOUT:301.093:-1.0:300.0:-1
ipc-2014-agile-maintenance-1.3.200.700.7-000.pddl,SAT:2.39164:176.0:300.0:-1
ipc-2014-agile-maintenance-1.3.200.700.7-001.pddl,SAT:2.37664:171.0:300.0:-1
ipc-2014-agile-maintenance-1.3.200.700.7-002.pddl,SAT:2.33165:170.0:300.0:-1
ipc-2014-agile-maintenance-1.3.200.900.5-000.pddl,TIMEOUT:301.145:-1.0:300.0:-1
ipc-2014-agile-maintenance-1.3.200.900.5-001.pddl,TIMEOUT:301.2:-1.0:300.0:-1
ipc-2014-agile-maintenance-1.3.200.900.5-002.pddl,TIMEOUT:301.125:-1.0:300.0:-1
ipc-2014-agile-maintenance-1.3.200.900.8-000.pddl,SAT:4.89625:186.0:300.0:-1
ipc-2014-agile-maintenance-1.3.200.900.8-001.pddl,SAT:4.82227:172.0:300.0:-1
ipc-2014-agile-maintenance-1.3.200.900.8-002.pddl,SAT:4.81727:179.0:300.0:-1
ipc-2014-agile-openstacks-p130_2.pddl,TIMEOUT:301.349:-1.0:300.0:-1
ipc-2014-agile-openstacks-p130_3.pddl,TIMEOUT:301.373:-1.0:300.0:-1
ipc-2014-agile-openstacks-p150_2.pddl,TIMEOUT:301.38:-1.0:300.0:-1
ipc-2014-agile-openstacks-p150_3.pddl,TIMEOUT:301.415:-1.0:300.0:-1
ipc-2014-agile-openstacks-p170_1.pddl,CRASHED:68.6336:1000000000.0:300.0:-1
ipc-2014-agile-openstacks-p170_2.pddl,CRASHED:72.7299:1000000000.0:300.0:-1
ipc-2014-agile-openstacks-p170_3.pddl,TIMEOUT:301.36:-1.0:300.0:-1
ipc-2014-agile-openstacks-p190_1.pddl,CRASHED:142.749:1000000000.0:300.0:-1
ipc-2014-agile-openstacks-p190_2.pddl,CRASHED:132.6:1000000000.0:300.0:-1
ipc-2014-agile-openstacks-p190_3.pddl,CRASHED:156.25:1000000000.0:300.0:-1
ipc-2014-agile-openstacks-p210_1.pddl,TIMEOUT:301.402:-1.0:300.0:-1
ipc-2014-agile-openstacks-p210_2.pddl,TIMEOUT:301.377:-1.0:300.0:-1
ipc-2014-agile-openstacks-p230_1.pddl,CRASHED:177.606:1000000000.0:300.0:-1
ipc-2014-agile-openstacks-p230_2.pddl,CRASHED:196.134:1000000000.0:300.0:-1
ipc-2014-agile-openstacks-p250_1.pddl,CRASHED:236.824:1000000000.0:300.0:-1
ipc-2014-agile-openstacks-p250_2.pddl,CRASHED:265.823:1000000000.0:300.0:-1
ipc-2014-agile-openstacks-p270_1.pddl,TIMEOUT:301.304:-1.0:300.0:-1
ipc-2014-agile-openstacks-p270_2.pddl,TIMEOUT:301.252:-1.0:300.0:-1
ipc-2014-agile-openstacks-p290_1.pddl,TIMEOUT:301.223:-1.0:300.0:-1
ipc-2014-agile-openstacks-p290_2.pddl,TIMEOUT:301.144:-1.0:300.0:-1
ipc-2014-agile-parking-28_2.pddl,SAT:117.098:127.0:300.0:-1
ipc-2014-agile-parking-28_3.pddl,SAT:105.389:86.0:300.0:-1
ipc-2014-agile-parking-30_1.pddl,SAT:163.826:135.0:300.0:-1
ipc-2014-agile-parking-30_2.pddl,TIMEOUT:301.326:-1.0:300.0:-1
ipc-2014-agile-parking-30_3.pddl,SAT:201.971:163.0:300.0:-1
ipc-2014-agile-parking-32_1.pddl,SAT:280.324:161.0:300.0:-1
ipc-2014-agile-parking-32_2.pddl,SAT:282.385:138.0:300.0:-1
ipc-2014-agile-parking-32_3.pddl,SAT:267.71:178.0:300.0:-1
ipc-2014-agile-parking-34_1.pddl,TIMEOUT:301.343:-1.0:300.0:-1
ipc-2014-agile-parking-34_2.pddl,TIMEOUT:301.209:-1.0:300.0:-1
ipc-2014-agile-parking-34_3.pddl,TIMEOUT:301.235:-1.0:300.0:-1
ipc-2014-agile-parking-36_1.pddl,TIMEOUT:301.139:-1.0:300.0:-1
ipc-2014-agile-parking-36_2.pddl,TIMEOUT:301.119:-1.0:300.0:-1
ipc-2014-agile-parking-36_3.pddl,TIMEOUT:301.127:-1.0:300.0:-1
ipc-2014-agile-parking-38_1.pddl,TIMEOUT:301.22:-1.0:300.0:-1
ipc-2014-agile-parking-38_2.pddl,TIMEOUT:301.226:-1.0:300.0:-1
ipc-2014-agile-parking-38_3.pddl,TIMEOUT:301.218:-1.0:300.0:-1
ipc-2014-agile-parking-40_1.pddl,TIMEOUT:301.241:-1.0:300.0:-1
ipc-2014-agile-parking-40_2.pddl,TIMEOUT:301.225:-1.0:300.0:-1
ipc-2014-agile-parking-40_3.pddl,TIMEOUT:301.162:-1.0:300.0:-1
ipc-2014-agile-tetris-020.pddl,SAT:42.8805:56.0:300.0:-1
ipc-2014-agile-tetris-021.pddl,SAT:170.11:145.0:300.0:-1
ipc-2014-agile-tetris-022.pddl,SAT:147.832:102.0:300.0:-1
ipc-2014-agile-tetris-023.pddl,SAT:119.551:105.0:300.0:-1
ipc-2014-agile-tetris-024.pddl,SAT:158.754:161.0:300.0:-1
ipc-2014-agile-tetris-025.pddl,CRASHED:180.067:1000000000.0:300.0:-1
ipc-2014-agile-tetris-026.pddl,CRASHED:251.619:1000000000.0:300.0:-1
ipc-2014-agile-tetris-027.pddl,CRASHED:261.349:1000000000.0:300.0:-1
ipc-2014-agile-tetris-028.pddl,CRASHED:226.367:1000000000.0:300.0:-1
ipc-2014-agile-tetris-029.pddl,CRASHED:192.595:1000000000.0:300.0:-1
ipc-2014-agile-tetris-031.pddl,CRASHED:275.634:1000000000.0:300.0:-1
ipc-2014-agile-tetris-032.pddl,CRASHED:285.173:1000000000.0:300.0:-1
ipc-2014-agile-tetris-033.pddl,TIMEOUT:301.491:-1.0:300.0:-1
ipc-2014-agile-tetris-034.pddl,TIMEOUT:301.432:-1.0:300.0:-1
ipc-2014-agile-tetris-035.pddl,CRASHED:270.196:1000000000.0:300.0:-1
ipc-2014-agile-tetris-036.pddl,CRASHED:241.731:1000000000.0:300.0:-1
ipc-2014-agile-tetris-037.pddl,SAT:188.827:147.0:300.0:-1
ipc-2014-agile-tetris-038.pddl,TIMEOUT:301.401:-1.0:300.0:-1
ipc-2014-agile-tetris-039.pddl,CRASHED:283.213:1000000000.0:300.0:-1
ipc-2014-agile-tetris-040.pddl,TIMEOUT:301.382:-1.0:300.0:-1
ipc-2014-agile-thoughtful-bootstrap-typed-01.pddl,SAT:1.90271:42.0:300.0:-1
ipc-2014-agile-thoughtful-bootstrap-typed-02.pddl,SAT:1.73373:31.0:300.0:-1
ipc-2014-agile-thoughtful-bootstrap-typed-03.pddl,SAT:1.9957:49.0:300.0:-1
ipc-2014-agile-thoughtful-bootstrap-typed-04.pddl,SAT:2.04369:46.0:300.0:-1
ipc-2014-agile-thoughtful-bootstrap-typed-05.pddl,SAT:1.86172:68.0:300.0:-1
ipc-2014-agile-thoughtful-p11_6_53-typed.pddl,TIMEOUT:301.335:-1.0:300.0:-1
ipc-2014-agile-thoughtful-p11_6_59-typed.pddl,CRASHED:105.309:1000000000.0:300.0:-1
ipc-2014-agile-thoughtful-p11_6_62-typed.pddl,TIMEOUT:301.305:-1.0:300.0:-1
ipc-2014-agile-thoughtful-p13_7_78-typed.pddl,CRASHED:185.812:1000000000.0:300.0:-1
ipc-2014-agile-thoughtful-p13_7_79-typed.pddl,CRASHED:184.117:1000000000.0:300.0:-1
ipc-2014-agile-thoughtful-p13_7_86-typed.pddl,CRASHED:187.217:1000000000.0:300.0:-1
ipc-2014-agile-thoughtful-target-typed-20.pddl,CRASHED:190.12:1000000000.0:300.0:-1
ipc-2014-agile-thoughtful-target-typed-21.pddl,CRASHED:191.314:1000000000.0:300.0:-1
ipc-2014-agile-thoughtful-target-typed-22.pddl,TIMEOUT:301.364:-1.0:300.0:-1
ipc-2014-agile-thoughtful-target-typed-23.pddl,CRASHED:193.19:1000000000.0:300.0:-1
ipc-2014-agile-thoughtful-target-typed-24.pddl,TIMEOUT:301.448:-1.0:300.0:-1
ipc-2014-agile-thoughtful-target-typed-25.pddl,CRASHED:191.522:1000000000.0:300.0:-1
ipc-2014-agile-thoughtful-target-typed-26.pddl,TIMEOUT:301.35:-1.0:300.0:-1
ipc-2014-agile-thoughtful-target-typed-27.pddl,TIMEOUT:301.378:-1.0:300.0:-1
ipc-2014-agile-thoughtful-target-typed-28.pddl,CRASHED:206.283:1000000000.0:300.0:-1
ipc-2014-agile-transport-01.pddl,CRASHED:96.0534:1000000000.0:300.0:-1
ipc-2014-agile-transport-02.pddl,TIMEOUT:301.356:-1.0:300.0:-1
ipc-2014-agile-transport-03.pddl,TIMEOUT:301.344:-1.0:300.0:-1
ipc-2014-agile-transport-04.pddl,TIMEOUT:301.407:-1.0:300.0:-1
ipc-2014-agile-transport-05.pddl,CRASHED:116.341:1000000000.0:300.0:-1
ipc-2014-agile-transport-06.pddl,TIMEOUT:301.428:-1.0:300.0:-1
ipc-2014-agile-transport-07.pddl,CRASHED:273.811:1000000000.0:300.0:-1
ipc-2014-agile-transport-08.pddl,TIMEOUT:301.405:-1.0:300.0:-1
ipc-2014-agile-transport-09.pddl,CRASHED:276.149:1000000000.0:300.0:-1
ipc-2014-agile-transport-10.pddl,CRASHED:199.429:1000000000.0:300.0:-1
ipc-2014-agile-transport-11.pddl,TIMEOUT:301.337:-1.0:300.0:-1
ipc-2014-agile-transport-12.pddl,TIMEOUT:301.355:-1.0:300.0:-1
ipc-2014-agile-transport-13.pddl,CRASHED:210.84:1000000000.0:300.0:-1
ipc-2014-agile-transport-14.pddl,CRASHED:82.9704:1000000000.0:300.0:-1
ipc-2014-agile-transport-15.pddl,CRASHED:99.3829:1000000000.0:300.0:-1
ipc-2014-agile-transport-16.pddl,CRASHED:67.2498:1000000000.0:300.0:-1
ipc-2014-agile-transport-17.pddl,CRASHED:209.619:1000000000.0:300.0:-1
ipc-2014-agile-transport-18.pddl,TIMEOUT:301.489:-1.0:300.0:-1
ipc-2014-agile-transport-19.pddl,TIMEOUT:301.311:-1.0:300.0:-1
ipc-2014-agile-transport-20.pddl,CRASHED:263.176:1000000000.0:300.0:-1
ipc-2014-agile-visitall-30.pddl,TIMEOUT:301.188:-1.0:300.0:-1
ipc-2014-agile-visitall-31.pddl,TIMEOUT:301.142:-1.0:300.0:-1
ipc-2014-agile-visitall-32.pddl,TIMEOUT:301.224:-1.0:300.0:-1
ipc-2014-agile-visitall-33.pddl,TIMEOUT:301.173:-1.0:300.0:-1
ipc-2014-agile-visitall-50.pddl,TIMEOUT:301.033:-1.0:300.0:-1
ipc-2014-agile-visitall-51.pddl,TIMEOUT:301.02:-1.0:300.0:-1
ipc-2014-agile-visitall-52.pddl,TIMEOUT:301.066:-1.0:300.0:-1
ipc-2014-agile-visitall-53.pddl,TIMEOUT:301.099:-1.0:300.0:-1
ipc-2014-agile-visitall-54.pddl,TIMEOUT:301.062:-1.0:300.0:-1
ipc-2014-agile-visitall-55.pddl,TIMEOUT:301.041:-1.0:300.0:-1
ipc-2014-agile-visitall-56.pddl,TIMEOUT:301.034:-1.0:300.0:-1
ipc-2014-agile-visitall-57.pddl,TIMEOUT:301.019:-1.0:300.0:-1
ipc-2014-agile-visitall-58.pddl,TIMEOUT:301.033:-1.0:300.0:-1
ipc-2014-agile-visitall-59.pddl,TIMEOUT:301.048:-1.0:300.0:-1
ipc-2014-agile-visitall-60.pddl,TIMEOUT:301.017:-1.0:300.0:-1
ipc-2014-agile-visitall-61.pddl,TIMEOUT:301.02:-1.0:300.0:-1
ipc-2014-agile-visitall-62.pddl,TIMEOUT:301.083:-1.0:300.0:-1
ipc-2014-agile-visitall-63.pddl,TIMEOUT:301.064:-1.0:300.0:-1
ipc-2014-agile-visitall-64.pddl,TIMEOUT:301.088:-1.0:300.0:-1
ipc-2014-agile-visitall-65.pddl,TIMEOUT:301.06:-1.0:300.0:-1
