instance,ipc-2014-agile-arvandherd
ipc-2014-agile-barman-p1-11-4-15.pddl,SAT:201.429:190.0:300.0:-1
ipc-2014-agile-barman-p1-11-5-15.pddl,SAT:209.616:177.0:300.0:-1
ipc-2014-agile-barman-p1-11-5-16.pddl,SAT:197.806:168.0:300.0:-1
ipc-2014-agile-barman-p2-10-4-13.pddl,SAT:203.582:166.0:300.0:-1
ipc-2014-agile-barman-p2-11-4-15.pddl,TIMEOUT:301.06:-1.0:300.0:-1
ipc-2014-agile-barman-p2-11-5-15.pddl,SAT:202.199:168.0:300.0:-1
ipc-2014-agile-barman-p2-11-5-16.pddl,SAT:248.426:183.0:300.0:-1
ipc-2014-agile-barman-p2-11-5-17.pddl,SAT:259.105:186.0:300.0:-1
ipc-2014-agile-barman-p3-10-4-13.pddl,SAT:203.812:177.0:300.0:-1
ipc-2014-agile-barman-p3-11-4-15.pddl,SAT:203.577:201.0:300.0:-1
ipc-2014-agile-barman-p3-11-5-15.pddl,TIMEOUT:301.02:-1.0:300.0:-1
ipc-2014-agile-barman-p3-11-5-16.pddl,SAT:203.005:174.0:300.0:-1
ipc-2014-agile-barman-p3-11-5-17.pddl,SAT:226.352:182.0:300.0:-1
ipc-2014-agile-barman-p4-11-4-14.pddl,SAT:199.194:182.0:300.0:-1
ipc-2014-agile-barman-p4-11-4-15.pddl,SAT:206.535:192.0:300.0:-1
ipc-2014-agile-barman-p4-11-5-15.pddl,TIMEOUT:301.02:-1.0:300.0:-1
ipc-2014-agile-barman-p5-10-4-13.pddl,SAT:198.732:173.0:300.0:-1
ipc-2014-agile-barman-p5-11-4-15.pddl,SAT:199.48:174.0:300.0:-1
ipc-2014-agile-barman-p5-11-5-15.pddl,TIMEOUT:301.03:-1.0:300.0:-1
ipc-2014-agile-barman-p5-11-5-16.pddl,SAT:212.406:172.0:300.0:-1
ipc-2014-agile-cavediving-01_easy.pddl,TIMEOUT:301.1:-1.0:300.0:-1
ipc-2014-agile-cavediving-01.pddl,TIMEOUT:301.01:-1.0:300.0:-1
ipc-2014-agile-cavediving-02_easy.pddl,TIMEOUT:301.04:-1.0:300.0:-1
ipc-2014-agile-cavediving-03_easy.pddl,TIMEOUT:301.09:-1.0:300.0:-1
ipc-2014-agile-cavediving-04_easy.pddl,TIMEOUT:301.02:-1.0:300.0:-1
ipc-2014-agile-cavediving-05A_easy.pddl,SAT:187.874:94.0:300.0:-1
ipc-2014-agile-cavediving-06A_easy.pddl,SAT:199.305:95.0:300.0:-1
ipc-2014-agile-cavediving-07_easy.pddl,SAT:190.159:133.0:300.0:-1
ipc-2014-agile-cavediving-08_easy.pddl,SAT:197.702:91.0:300.0:-1
ipc-2014-agile-cavediving-09_easy.pddl,TIMEOUT:301.06:-1.0:300.0:-1
ipc-2014-agile-cavediving-10_easy.pddl,TIMEOUT:301.06:-1.0:300.0:-1
ipc-2014-agile-cavediving-11_easy.pddl,TIMEOUT:301.0:-1.0:300.0:-1
ipc-2014-agile-cavediving-12_easy.pddl,TIMEOUT:301.04:-1.0:300.0:-1
ipc-2014-agile-cavediving-13_easy.pddl,TIMEOUT:301.03:-1.0:300.0:-1
ipc-2014-agile-cavediving-14_easy.pddl,TIMEOUT:301.09:-1.0:300.0:-1
ipc-2014-agile-cavediving-15_easy.pddl,TIMEOUT:301.08:-1.0:300.0:-1
ipc-2014-agile-cavediving-16_easy.pddl,TIMEOUT:301.07:-1.0:300.0:-1
ipc-2014-agile-cavediving-18A_easy.pddl,SAT:181.38:131.0:300.0:-1
ipc-2014-agile-cavediving-18_easy.pddl,SAT:191.166:131.0:300.0:-1
ipc-2014-agile-cavediving-20A_easy.pddl,SAT:200.72:99.0:300.0:-1
ipc-2014-agile-childsnack-05-2.pddl,SAT:109.139:78.0:300.0:-1
ipc-2014-agile-childsnack-05.pddl,SAT:0.826873:167.0:300.0:-1
ipc-2014-agile-childsnack-06-2.pddl,SAT:186.204:53.0:300.0:-1
ipc-2014-agile-childsnack-07-2.pddl,SAT:183.143:60.0:300.0:-1
ipc-2014-agile-childsnack-08-2.pddl,TIMEOUT:301.02:-1.0:300.0:-1
ipc-2014-agile-childsnack-08.pddl,SAT:197.013:65.0:300.0:-1
ipc-2014-agile-childsnack-09-2.pddl,SAT:232.037:69.0:300.0:-1
ipc-2014-agile-childsnack-09.pddl,SAT:14.6548:222.0:300.0:-1
ipc-2014-agile-childsnack-10-2.pddl,CRASHED:253.09:1000000000.0:300.0:-1
ipc-2014-agile-childsnack-10.pddl,CRASHED:267.58:1000000000.0:300.0:-1
ipc-2014-agile-childsnack-11-2.pddl,TIMEOUT:301.07:-1.0:300.0:-1
ipc-2014-agile-childsnack-11.pddl,TIMEOUT:301.06:-1.0:300.0:-1
ipc-2014-agile-childsnack-12.pddl,TIMEOUT:301.02:-1.0:300.0:-1
ipc-2014-agile-childsnack-13-2.pddl,TIMEOUT:301.03:-1.0:300.0:-1
ipc-2014-agile-childsnack-13.pddl,TIMEOUT:301.06:-1.0:300.0:-1
ipc-2014-agile-childsnack-14.pddl,TIMEOUT:301.1:-1.0:300.0:-1
ipc-2014-agile-childsnack-15-2.pddl,TIMEOUT:301.05:-1.0:300.0:-1
ipc-2014-agile-childsnack-16-2.pddl,TIMEOUT:301.1:-1.0:300.0:-1
ipc-2014-agile-childsnack-19-2.pddl,TIMEOUT:301.05:-1.0:300.0:-1
ipc-2014-agile-childsnack-19.pddl,TIMEOUT:301.07:-1.0:300.0:-1
ipc-2014-agile-citycar-p3-2-2-0-1.pddl,SAT:0.611906:2880.0:300.0:-1
ipc-2014-agile-citycar-p3-3-2-0-1.pddl,SAT:1.35479:1860.0:300.0:-1
ipc-2014-agile-citycar-p3-4-2-0-1.pddl,SAT:2.67359:1172.0:300.0:-1
ipc-2014-agile-citycar-p3-5-2-0-1.pddl,SAT:3.02354:1445.0:300.0:-1
ipc-2014-agile-citycar-p3-5-2-0-2.pddl,SAT:1.48877:1796.0:300.0:-1
ipc-2014-agile-citycar-p4-2-2-0-1.pddl,SAT:4.14837:2554.0:300.0:-1
ipc-2014-agile-citycar-p4-2-3-0-1.pddl,SAT:10.4794:2337.0:300.0:-1
ipc-2014-agile-citycar-p4-2-3-0-2.pddl,SAT:4.50731:1632.0:300.0:-1
ipc-2014-agile-citycar-p4-3-2-0-1.pddl,SAT:274.366:190.0:300.0:-1
ipc-2014-agile-citycar-p4-3-2-0-2.pddl,SAT:61.5486:1994.0:300.0:-1
ipc-2014-agile-citycar-p4-3-3-0-1.pddl,SAT:114.536:2964.0:300.0:-1
ipc-2014-agile-citycar-p4-3-3-0-2.pddl,SAT:12.2761:2267.0:300.0:-1
ipc-2014-agile-citycar-p4-4-2-0-1.pddl,SAT:30.4084:1770.0:300.0:-1
ipc-2014-agile-citycar-p4-4-2-0-2.pddl,SAT:47.0129:1517.0:300.0:-1
ipc-2014-agile-citycar-p4-4-3-0-1.pddl,SAT:38.6841:1857.0:300.0:-1
ipc-2014-agile-citycar-p4-4-3-0-2.pddl,SAT:78.4961:2312.0:300.0:-1
ipc-2014-agile-citycar-p4-5-2-0-1.pddl,SAT:79.088:1700.0:300.0:-1
ipc-2014-agile-citycar-p4-5-2-0-2.pddl,TIMEOUT:301.06:-1.0:300.0:-1
ipc-2014-agile-citycar-p4-5-3-0-1.pddl,SAT:8.5627:4066.0:300.0:-1
ipc-2014-agile-citycar-p4-5-3-0-2.pddl,SAT:27.1979:2516.0:300.0:-1
ipc-2014-agile-floortile-p01-4-3-2.pddl,SAT:182.34:70.0:300.0:-1
ipc-2014-agile-floortile-p01-5-4-2.pddl,TIMEOUT:301.07:-1.0:300.0:-1
ipc-2014-agile-floortile-p01-5-5-2.pddl,TIMEOUT:301.03:-1.0:300.0:-1
ipc-2014-agile-floortile-p01-6-4-2.pddl,TIMEOUT:301.03:-1.0:300.0:-1
ipc-2014-agile-floortile-p01-6-5-2.pddl,TIMEOUT:301.0:-1.0:300.0:-1
ipc-2014-agile-floortile-p01-6-5-3.pddl,TIMEOUT:301.05:-1.0:300.0:-1
ipc-2014-agile-floortile-p02-5-4-2.pddl,TIMEOUT:301.04:-1.0:300.0:-1
ipc-2014-agile-floortile-p02-6-4-2.pddl,TIMEOUT:301.04:-1.0:300.0:-1
ipc-2014-agile-floortile-p02-6-5-2.pddl,TIMEOUT:301.03:-1.0:300.0:-1
ipc-2014-agile-floortile-p02-6-5-3.pddl,TIMEOUT:301.03:-1.0:300.0:-1
ipc-2014-agile-floortile-p03-6-4-2.pddl,TIMEOUT:301.0:-1.0:300.0:-1
ipc-2014-agile-floortile-p03-6-5-2.pddl,TIMEOUT:301.09:-1.0:300.0:-1
ipc-2014-agile-floortile-p03-6-5-3.pddl,TIMEOUT:301.07:-1.0:300.0:-1
ipc-2014-agile-floortile-p04-5-4-2.pddl,TIMEOUT:301.09:-1.0:300.0:-1
ipc-2014-agile-floortile-p04-5-5-2.pddl,TIMEOUT:301.06:-1.0:300.0:-1
ipc-2014-agile-floortile-p04-6-5-2.pddl,TIMEOUT:301.02:-1.0:300.0:-1
ipc-2014-agile-floortile-p04-6-5-3.pddl,TIMEOUT:301.02:-1.0:300.0:-1
ipc-2014-agile-floortile-p05-4-3-2.pddl,SAT:0.308952:530.0:300.0:-1
ipc-2014-agile-floortile-p05-6-5-2.pddl,TIMEOUT:301.1:-1.0:300.0:-1
ipc-2014-agile-floortile-p05-6-5-3.pddl,TIMEOUT:301.02:-1.0:300.0:-1
ipc-2014-agile-ged-d-10-1.pddl,SAT:5.44117:43.0:300.0:-1
ipc-2014-agile-ged-d-10-2.pddl,SAT:46.8119:100.0:300.0:-1
ipc-2014-agile-ged-d-10-3.pddl,SAT:14.2088:102.0:300.0:-1
ipc-2014-agile-ged-d-10-4.pddl,SAT:10.2264:33.0:300.0:-1
ipc-2014-agile-ged-d-10-5.pddl,SAT:192.198:51.0:300.0:-1
ipc-2014-agile-ged-d-10-6.pddl,SAT:191.221:40.0:300.0:-1
ipc-2014-agile-ged-d-11-1.pddl,SAT:164.116:81.0:300.0:-1
ipc-2014-agile-ged-d-11-3.pddl,SAT:186.007:31.0:300.0:-1
ipc-2014-agile-ged-d-11-5.pddl,SAT:193.221:42.0:300.0:-1
ipc-2014-agile-ged-d-11-6.pddl,SAT:31.4022:137.0:300.0:-1
ipc-2014-agile-ged-d-12-11.pddl,SAT:188.882:31.0:300.0:-1
ipc-2014-agile-ged-d-12-2.pddl,SAT:198.947:56.0:300.0:-1
ipc-2014-agile-ged-d-12-3.pddl,SAT:195.767:41.0:300.0:-1
ipc-2014-agile-ged-d-12-5.pddl,SAT:216.088:48.0:300.0:-1
ipc-2014-agile-ged-d-12-6.pddl,SAT:201.25:43.0:300.0:-1
ipc-2014-agile-ged-d-12-7.pddl,SAT:201.286:52.0:300.0:-1
ipc-2014-agile-ged-d-12-8.pddl,SAT:260.259:63.0:300.0:-1
ipc-2014-agile-ged-d-12-9.pddl,SAT:211.892:74.0:300.0:-1
ipc-2014-agile-ged-d-3-6.pddl,SAT:85.1281:30.0:300.0:-1
ipc-2014-agile-ged-d-9-5.pddl,SAT:54.8317:60.0:300.0:-1
ipc-2014-agile-hiking-3-4-3.pddl,SAT:1.80472:102.0:300.0:-1
ipc-2014-agile-hiking-3-4-4.pddl,SAT:3.34449:111.0:300.0:-1
ipc-2014-agile-hiking-3-4-5.pddl,SAT:6.12307:1015.0:300.0:-1
ipc-2014-agile-hiking-3-4-6.pddl,SAT:15.3197:523.0:300.0:-1
ipc-2014-agile-hiking-3-4-7.pddl,SAT:30.0424:2149.0:300.0:-1
ipc-2014-agile-hiking-3-4-8.pddl,SAT:27.4228:3210.0:300.0:-1
ipc-2014-agile-hiking-3-4-9.pddl,SAT:86.3559:2429.0:300.0:-1
ipc-2014-agile-hiking-4-5-3.pddl,SAT:5.11922:85.0:300.0:-1
ipc-2014-agile-hiking-4-5-4.pddl,SAT:9.68953:310.0:300.0:-1
ipc-2014-agile-hiking-4-5-5.pddl,SAT:16.1895:849.0:300.0:-1
ipc-2014-agile-hiking-4-5-6.pddl,SAT:34.7587:592.0:300.0:-1
ipc-2014-agile-hiking-4-5-7.pddl,SAT:80.2288:2339.0:300.0:-1
ipc-2014-agile-hiking-4-5-8.pddl,SAT:120.783:3016.0:300.0:-1
ipc-2014-agile-hiking-4-5-9.pddl,TIMEOUT:301.04:-1.0:300.0:-1
ipc-2014-agile-hiking-5-6-3.pddl,SAT:11.8982:666.0:300.0:-1
ipc-2014-agile-hiking-5-6-4.pddl,SAT:21.4217:115.0:300.0:-1
ipc-2014-agile-hiking-5-6-5.pddl,SAT:38.7761:777.0:300.0:-1
ipc-2014-agile-hiking-5-6-6.pddl,SAT:56.0865:957.0:300.0:-1
ipc-2014-agile-hiking-5-6-7.pddl,SAT:138.085:2155.0:300.0:-1
ipc-2014-agile-hiking-5-6-8.pddl,TIMEOUT:301.0:-1.0:300.0:-1
ipc-2014-agile-maintenance-1.3.060.180.5-000.pddl,SAT:9.28359:52.0:300.0:-1
ipc-2014-agile-maintenance-1.3.060.180.5-001.pddl,SAT:49.3755:56.0:300.0:-1
ipc-2014-agile-maintenance-1.3.060.180.5-002.pddl,SAT:40.7678:51.0:300.0:-1
ipc-2014-agile-maintenance-1.3.100.300.5-000.pddl,TIMEOUT:301.09:-1.0:300.0:-1
ipc-2014-agile-maintenance-1.3.100.300.5-001.pddl,TIMEOUT:301.04:-1.0:300.0:-1
ipc-2014-agile-maintenance-1.3.100.300.7-000.pddl,SAT:3.52146:83.0:300.0:-1
ipc-2014-agile-maintenance-1.3.100.300.7-001.pddl,SAT:5.50616:77.0:300.0:-1
ipc-2014-agile-maintenance-1.3.100.300.7-002.pddl,SAT:3.68744:92.0:300.0:-1
ipc-2014-agile-maintenance-1.3.150.500.6-001.pddl,TIMEOUT:301.06:-1.0:300.0:-1
ipc-2014-agile-maintenance-1.3.200.500.5-001.pddl,TIMEOUT:301.04:-1.0:300.0:-1
ipc-2014-agile-maintenance-1.3.200.500.5-002.pddl,TIMEOUT:301.1:-1.0:300.0:-1
ipc-2014-agile-maintenance-1.3.200.700.7-000.pddl,SAT:29.7515:176.0:300.0:-1
ipc-2014-agile-maintenance-1.3.200.700.7-001.pddl,SAT:21.4797:179.0:300.0:-1
ipc-2014-agile-maintenance-1.3.200.700.7-002.pddl,SAT:21.6227:184.0:300.0:-1
ipc-2014-agile-maintenance-1.3.200.900.5-000.pddl,TIMEOUT:301.02:-1.0:300.0:-1
ipc-2014-agile-maintenance-1.3.200.900.5-001.pddl,TIMEOUT:301.1:-1.0:300.0:-1
ipc-2014-agile-maintenance-1.3.200.900.5-002.pddl,TIMEOUT:301.09:-1.0:300.0:-1
ipc-2014-agile-maintenance-1.3.200.900.8-000.pddl,SAT:28.3157:183.0:300.0:-1
ipc-2014-agile-maintenance-1.3.200.900.8-001.pddl,SAT:32.91:166.0:300.0:-1
ipc-2014-agile-maintenance-1.3.200.900.8-002.pddl,SAT:27.1409:165.0:300.0:-1
ipc-2014-agile-openstacks-p130_2.pddl,SAT:16.0966:85.0:300.0:-1
ipc-2014-agile-openstacks-p130_3.pddl,SAT:21.0068:130.0:300.0:-1
ipc-2014-agile-openstacks-p150_2.pddl,SAT:24.0023:99.0:300.0:-1
ipc-2014-agile-openstacks-p150_3.pddl,SAT:38.6261:142.0:300.0:-1
ipc-2014-agile-openstacks-p170_1.pddl,SAT:31.7822:94.0:300.0:-1
ipc-2014-agile-openstacks-p170_2.pddl,SAT:31.1043:148.0:300.0:-1
ipc-2014-agile-openstacks-p170_3.pddl,SAT:41.8556:170.0:300.0:-1
ipc-2014-agile-openstacks-p190_1.pddl,SAT:43.3694:121.0:300.0:-1
ipc-2014-agile-openstacks-p190_2.pddl,SAT:41.5057:139.0:300.0:-1
ipc-2014-agile-openstacks-p190_3.pddl,SAT:52.881:185.0:300.0:-1
ipc-2014-agile-openstacks-p210_1.pddl,SAT:49.9814:158.0:300.0:-1
ipc-2014-agile-openstacks-p210_2.pddl,SAT:64.0753:144.0:300.0:-1
ipc-2014-agile-openstacks-p230_1.pddl,SAT:67.7337:124.0:300.0:-1
ipc-2014-agile-openstacks-p230_2.pddl,SAT:67.6617:204.0:300.0:-1
ipc-2014-agile-openstacks-p250_1.pddl,SAT:78.2121:169.0:300.0:-1
ipc-2014-agile-openstacks-p250_2.pddl,SAT:80.9477:214.0:300.0:-1
ipc-2014-agile-openstacks-p270_1.pddl,SAT:101.832:213.0:300.0:-1
ipc-2014-agile-openstacks-p270_2.pddl,SAT:105.567:213.0:300.0:-1
ipc-2014-agile-openstacks-p290_1.pddl,SAT:119.823:226.0:300.0:-1
ipc-2014-agile-openstacks-p290_2.pddl,SAT:195.169:237.0:300.0:-1
ipc-2014-agile-parking-28_2.pddl,TIMEOUT:301.01:-1.0:300.0:-1
ipc-2014-agile-parking-28_3.pddl,TIMEOUT:301.0:-1.0:300.0:-1
ipc-2014-agile-parking-30_1.pddl,TIMEOUT:301.01:-1.0:300.0:-1
ipc-2014-agile-parking-30_2.pddl,TIMEOUT:301.02:-1.0:300.0:-1
ipc-2014-agile-parking-30_3.pddl,TIMEOUT:301.11:-1.0:300.0:-1
ipc-2014-agile-parking-32_1.pddl,TIMEOUT:301.05:-1.0:300.0:-1
ipc-2014-agile-parking-32_2.pddl,TIMEOUT:301.09:-1.0:300.0:-1
ipc-2014-agile-parking-32_3.pddl,TIMEOUT:301.02:-1.0:300.0:-1
ipc-2014-agile-parking-34_1.pddl,TIMEOUT:301.06:-1.0:300.0:-1
ipc-2014-agile-parking-34_2.pddl,TIMEOUT:301.07:-1.0:300.0:-1
ipc-2014-agile-parking-34_3.pddl,TIMEOUT:301.08:-1.0:300.0:-1
ipc-2014-agile-parking-36_1.pddl,TIMEOUT:301.09:-1.0:300.0:-1
ipc-2014-agile-parking-36_2.pddl,TIMEOUT:301.06:-1.0:300.0:-1
ipc-2014-agile-parking-36_3.pddl,TIMEOUT:301.05:-1.0:300.0:-1
ipc-2014-agile-parking-38_1.pddl,TIMEOUT:301.05:-1.0:300.0:-1
ipc-2014-agile-parking-38_2.pddl,TIMEOUT:301.1:-1.0:300.0:-1
ipc-2014-agile-parking-38_3.pddl,TIMEOUT:301.02:-1.0:300.0:-1
ipc-2014-agile-parking-40_1.pddl,TIMEOUT:301.01:-1.0:300.0:-1
ipc-2014-agile-parking-40_2.pddl,TIMEOUT:301.07:-1.0:300.0:-1
ipc-2014-agile-parking-40_3.pddl,TIMEOUT:301.04:-1.0:300.0:-1
ipc-2014-agile-tetris-020.pddl,SAT:5.77812:160.0:300.0:-1
ipc-2014-agile-tetris-021.pddl,SAT:22.9735:332.0:300.0:-1
ipc-2014-agile-tetris-022.pddl,SAT:21.3757:758.0:300.0:-1
ipc-2014-agile-tetris-023.pddl,SAT:24.0673:824.0:300.0:-1
ipc-2014-agile-tetris-024.pddl,SAT:25.9021:550.0:300.0:-1
ipc-2014-agile-tetris-025.pddl,SAT:14.0989:334.0:300.0:-1
ipc-2014-agile-tetris-026.pddl,SAT:148.972:493.0:300.0:-1
ipc-2014-agile-tetris-027.pddl,TIMEOUT:301.03:-1.0:300.0:-1
ipc-2014-agile-tetris-028.pddl,SAT:91.0012:1261.0:300.0:-1
ipc-2014-agile-tetris-029.pddl,SAT:9.33758:314.0:300.0:-1
ipc-2014-agile-tetris-031.pddl,TIMEOUT:301.04:-1.0:300.0:-1
ipc-2014-agile-tetris-032.pddl,SAT:31.3862:794.0:300.0:-1
ipc-2014-agile-tetris-033.pddl,SAT:153.535:753.0:300.0:-1
ipc-2014-agile-tetris-034.pddl,SAT:60.0379:414.0:300.0:-1
ipc-2014-agile-tetris-035.pddl,SAT:65.554:679.0:300.0:-1
ipc-2014-agile-tetris-036.pddl,SAT:52.595:710.0:300.0:-1
ipc-2014-agile-tetris-037.pddl,SAT:57.6912:518.0:300.0:-1
ipc-2014-agile-tetris-038.pddl,SAT:75.3425:1239.0:300.0:-1
ipc-2014-agile-tetris-039.pddl,SAT:180.35:808.0:300.0:-1
ipc-2014-agile-tetris-040.pddl,SAT:62.5195:1102.0:300.0:-1
ipc-2014-agile-thoughtful-bootstrap-typed-01.pddl,CRASHED:0.12598:1000000000.0:300.0:-1
ipc-2014-agile-thoughtful-bootstrap-typed-02.pddl,CRASHED:0.117981:1000000000.0:300.0:-1
ipc-2014-agile-thoughtful-bootstrap-typed-03.pddl,CRASHED:0.116981:1000000000.0:300.0:-1
ipc-2014-agile-thoughtful-bootstrap-typed-04.pddl,CRASHED:0.12598:1000000000.0:300.0:-1
ipc-2014-agile-thoughtful-bootstrap-typed-05.pddl,CRASHED:0.120981:1000000000.0:300.0:-1
ipc-2014-agile-thoughtful-p11_6_53-typed.pddl,CRASHED:0.12598:1000000000.0:300.0:-1
ipc-2014-agile-thoughtful-p11_6_59-typed.pddl,CRASHED:0.12598:1000000000.0:300.0:-1
ipc-2014-agile-thoughtful-p11_6_62-typed.pddl,CRASHED:0.12698:1000000000.0:300.0:-1
ipc-2014-agile-thoughtful-p13_7_78-typed.pddl,CRASHED:0.12898:1000000000.0:300.0:-1
ipc-2014-agile-thoughtful-p13_7_79-typed.pddl,CRASHED:0.138978:1000000000.0:300.0:-1
ipc-2014-agile-thoughtful-p13_7_86-typed.pddl,CRASHED:0.129979:1000000000.0:300.0:-1
ipc-2014-agile-thoughtful-target-typed-20.pddl,CRASHED:0.129979:1000000000.0:300.0:-1
ipc-2014-agile-thoughtful-target-typed-21.pddl,CRASHED:0.130979:1000000000.0:300.0:-1
ipc-2014-agile-thoughtful-target-typed-22.pddl,CRASHED:0.130979:1000000000.0:300.0:-1
ipc-2014-agile-thoughtful-target-typed-23.pddl,CRASHED:0.12998:1000000000.0:300.0:-1
ipc-2014-agile-thoughtful-target-typed-24.pddl,CRASHED:0.12998:1000000000.0:300.0:-1
ipc-2014-agile-thoughtful-target-typed-25.pddl,CRASHED:0.135979:1000000000.0:300.0:-1
ipc-2014-agile-thoughtful-target-typed-26.pddl,CRASHED:0.12898:1000000000.0:300.0:-1
ipc-2014-agile-thoughtful-target-typed-27.pddl,CRASHED:0.129979:1000000000.0:300.0:-1
ipc-2014-agile-thoughtful-target-typed-28.pddl,CRASHED:0.12998:1000000000.0:300.0:-1
ipc-2014-agile-transport-01.pddl,SAT:27.4168:19322.0:300.0:-1
ipc-2014-agile-transport-02.pddl,SAT:288.754:3420.0:300.0:-1
ipc-2014-agile-transport-03.pddl,SAT:170.984:26316.0:300.0:-1
ipc-2014-agile-transport-04.pddl,TIMEOUT:301.06:-1.0:300.0:-1
ipc-2014-agile-transport-05.pddl,TIMEOUT:301.03:-1.0:300.0:-1
ipc-2014-agile-transport-06.pddl,TIMEOUT:301.05:-1.0:300.0:-1
ipc-2014-agile-transport-07.pddl,TIMEOUT:301.03:-1.0:300.0:-1
ipc-2014-agile-transport-08.pddl,TIMEOUT:301.08:-1.0:300.0:-1
ipc-2014-agile-transport-09.pddl,TIMEOUT:301.0:-1.0:300.0:-1
ipc-2014-agile-transport-10.pddl,TIMEOUT:301.05:-1.0:300.0:-1
ipc-2014-agile-transport-11.pddl,SAT:29.4115:16632.0:300.0:-1
ipc-2014-agile-transport-12.pddl,SAT:40.8488:24876.0:300.0:-1
ipc-2014-agile-transport-13.pddl,SAT:141.446:22863.0:300.0:-1
ipc-2014-agile-transport-14.pddl,TIMEOUT:301.01:-1.0:300.0:-1
ipc-2014-agile-transport-15.pddl,TIMEOUT:301.01:-1.0:300.0:-1
ipc-2014-agile-transport-16.pddl,TIMEOUT:301.04:-1.0:300.0:-1
ipc-2014-agile-transport-17.pddl,TIMEOUT:301.1:-1.0:300.0:-1
ipc-2014-agile-transport-18.pddl,TIMEOUT:301.03:-1.0:300.0:-1
ipc-2014-agile-transport-19.pddl,TIMEOUT:301.02:-1.0:300.0:-1
ipc-2014-agile-transport-20.pddl,TIMEOUT:301.05:-1.0:300.0:-1
ipc-2014-agile-visitall-30.pddl,SAT:83.4703:5547.0:300.0:-1
ipc-2014-agile-visitall-31.pddl,SAT:128.894:6306.0:300.0:-1
ipc-2014-agile-visitall-32.pddl,SAT:137.777:7567.0:300.0:-1
ipc-2014-agile-visitall-33.pddl,SAT:230.966:1546.0:300.0:-1
ipc-2014-agile-visitall-50.pddl,TIMEOUT:301.04:-1.0:300.0:-1
ipc-2014-agile-visitall-51.pddl,TIMEOUT:301.01:-1.0:300.0:-1
ipc-2014-agile-visitall-52.pddl,TIMEOUT:301.01:-1.0:300.0:-1
ipc-2014-agile-visitall-53.pddl,TIMEOUT:301.06:-1.0:300.0:-1
ipc-2014-agile-visitall-54.pddl,TIMEOUT:301.09:-1.0:300.0:-1
ipc-2014-agile-visitall-55.pddl,TIMEOUT:301.08:-1.0:300.0:-1
ipc-2014-agile-visitall-56.pddl,TIMEOUT:301.08:-1.0:300.0:-1
ipc-2014-agile-visitall-57.pddl,TIMEOUT:301.0:-1.0:300.0:-1
ipc-2014-agile-visitall-58.pddl,TIMEOUT:301.08:-1.0:300.0:-1
ipc-2014-agile-visitall-59.pddl,TIMEOUT:301.01:-1.0:300.0:-1
ipc-2014-agile-visitall-60.pddl,TIMEOUT:301.07:-1.0:300.0:-1
ipc-2014-agile-visitall-61.pddl,TIMEOUT:301.04:-1.0:300.0:-1
ipc-2014-agile-visitall-62.pddl,TIMEOUT:301.07:-1.0:300.0:-1
ipc-2014-agile-visitall-63.pddl,TIMEOUT:301.06:-1.0:300.0:-1
ipc-2014-agile-visitall-64.pddl,TIMEOUT:301.06:-1.0:300.0:-1
ipc-2014-agile-visitall-65.pddl,TIMEOUT:301.07:-1.0:300.0:-1
