instance,ipc-2014-optimal-cedalion
ipc-2014-optimal-barman-p433.1.pddl,CRASHED:0.371353:1000000000.0:1800.0:-1
ipc-2014-optimal-barman-p433.2.pddl,CRASHED:0.345164:1000000000.0:1800.0:-1
ipc-2014-optimal-barman-p433.3.pddl,CRASHED:0.344706:1000000000.0:1800.0:-1
ipc-2014-optimal-barman-p435.1.pddl,CRASHED:1800.69:1000000000.0:1800.0:-1
ipc-2014-optimal-barman-p435.2.pddl,CRASHED:1800.9:1000000000.0:1800.0:-1
ipc-2014-optimal-barman-p435.3.pddl,CRASHED:1800.62:1000000000.0:1800.0:-1
ipc-2014-optimal-barman-p443.1.pddl,CRASHED:0.416853:1000000000.0:1800.0:-1
ipc-2014-optimal-barman-p443.2.pddl,CRASHED:0.415131:1000000000.0:1800.0:-1
ipc-2014-optimal-barman-p443.3.pddl,CRASHED:0.392174:1000000000.0:1800.0:-1
ipc-2014-optimal-barman-p536.1.pddl,CRASHED:1800.56:1000000000.0:1800.0:-1
ipc-2014-optimal-barman-p536.2.pddl,CRASHED:1800.66:1000000000.0:1800.0:-1
ipc-2014-optimal-barman-p536.3.pddl,CRASHED:1800.73:1000000000.0:1800.0:-1
ipc-2014-optimal-barman-p638.1.pddl,CRASHED:1800.8:1000000000.0:1800.0:-1
ipc-2014-optimal-barman-p638.2.pddl,CRASHED:1801.02:1000000000.0:1800.0:-1
ipc-2014-optimal-barman-p638.3.pddl,CRASHED:1801.09:1000000000.0:1800.0:-1
ipc-2014-optimal-barman-p739.1.pddl,CRASHED:1800.07:1000000000.0:1800.0:-1
ipc-2014-optimal-barman-p739.2.pddl,CRASHED:1800.92:1000000000.0:1800.0:-1
ipc-2014-optimal-barman-p739.3.pddl,CRASHED:1800.94:1000000000.0:1800.0:-1
ipc-2014-optimal-barman-p839.1.pddl,CRASHED:1800.2:1000000000.0:1800.0:-1
ipc-2014-optimal-barman-p839.2.pddl,CRASHED:1800.91:1000000000.0:1800.0:-1
ipc-2014-optimal-cavediving-01.pddl,CRASHED:298.4:1000000000.0:1800.0:-1
ipc-2014-optimal-cavediving-01_easy.pddl,CRASHED:298.253:1000000000.0:1800.0:-1
ipc-2014-optimal-cavediving-02_easy.pddl,CRASHED:300.573:1000000000.0:1800.0:-1
ipc-2014-optimal-cavediving-03_easy.pddl,CRASHED:298.11:1000000000.0:1800.0:-1
ipc-2014-optimal-cavediving-04_easy.pddl,CRASHED:300.416:1000000000.0:1800.0:-1
ipc-2014-optimal-cavediving-05A_easy.pddl,SAT:9.2757:94.0:1800.0:-1
ipc-2014-optimal-cavediving-06A_easy.pddl,SAT:9.18199:95.0:1800.0:-1
ipc-2014-optimal-cavediving-07_easy.pddl,SAT:51.0917:131.0:1800.0:-1
ipc-2014-optimal-cavediving-08_easy.pddl,SAT:9.15415:90.0:1800.0:-1
ipc-2014-optimal-cavediving-09_easy.pddl,CRASHED:1798.7:1000000000.0:1800.0:-1
ipc-2014-optimal-cavediving-10_easy.pddl,CRASHED:1797.78:1000000000.0:1800.0:-1
ipc-2014-optimal-cavediving-11_easy.pddl,CRASHED:1798.23:1000000000.0:1800.0:-1
ipc-2014-optimal-cavediving-12_easy.pddl,CRASHED:1799.48:1000000000.0:1800.0:-1
ipc-2014-optimal-cavediving-13_easy.pddl,CRASHED:1800.45:1000000000.0:1800.0:-1
ipc-2014-optimal-cavediving-14_easy.pddl,TIMEOUT:1801.0:-1.0:1800.0:-1
ipc-2014-optimal-cavediving-15_easy.pddl,CRASHED:298.686:1000000000.0:1800.0:-1
ipc-2014-optimal-cavediving-16_easy.pddl,CRASHED:298.815:1000000000.0:1800.0:-1
ipc-2014-optimal-cavediving-18A_easy.pddl,SAT:87.6717:131.0:1800.0:-1
ipc-2014-optimal-cavediving-18_easy.pddl,SAT:156.937:131.0:1800.0:-1
ipc-2014-optimal-cavediving-20A_easy.pddl,SAT:13.1954:98.0:1800.0:-1
ipc-2014-optimal-childsnack-01-2.pddl,CRASHED:1800.6:1000000000.0:1800.0:-1
ipc-2014-optimal-childsnack-01.pddl,CRASHED:1800.94:1000000000.0:1800.0:-1
ipc-2014-optimal-childsnack-02-2.pddl,CRASHED:1800.26:1000000000.0:1800.0:-1
ipc-2014-optimal-childsnack-02.pddl,CRASHED:1800.29:1000000000.0:1800.0:-1
ipc-2014-optimal-childsnack-03-2.pddl,CRASHED:1778.86:1000000000.0:1800.0:-1
ipc-2014-optimal-childsnack-03.pddl,CRASHED:1778.84:1000000000.0:1800.0:-1
ipc-2014-optimal-childsnack-04-2.pddl,CRASHED:1741.74:1000000000.0:1800.0:-1
ipc-2014-optimal-childsnack-04.pddl,CRASHED:1745.85:1000000000.0:1800.0:-1
ipc-2014-optimal-childsnack-05-2.pddl,CRASHED:1801.01:1000000000.0:1800.0:-1
ipc-2014-optimal-childsnack-05.pddl,CRASHED:1789.07:1000000000.0:1800.0:-1
ipc-2014-optimal-childsnack-06-2.pddl,CRASHED:1800.67:1000000000.0:1800.0:-1
ipc-2014-optimal-childsnack-06.pddl,CRASHED:1800.09:1000000000.0:1800.0:-1
ipc-2014-optimal-childsnack-07-2.pddl,CRASHED:1801.02:1000000000.0:1800.0:-1
ipc-2014-optimal-childsnack-07.pddl,CRASHED:1800.9:1000000000.0:1800.0:-1
ipc-2014-optimal-childsnack-08-2.pddl,CRASHED:1456.36:1000000000.0:1800.0:-1
ipc-2014-optimal-childsnack-08.pddl,CRASHED:1465.91:1000000000.0:1800.0:-1
ipc-2014-optimal-childsnack-09-2.pddl,CRASHED:1442.35:1000000000.0:1800.0:-1
ipc-2014-optimal-childsnack-09.pddl,CRASHED:1439.42:1000000000.0:1800.0:-1
ipc-2014-optimal-childsnack-10-2.pddl,CRASHED:1413.69:1000000000.0:1800.0:-1
ipc-2014-optimal-childsnack-10.pddl,CRASHED:1416.49:1000000000.0:1800.0:-1
ipc-2014-optimal-citycar-p2-2-2-1-2.pddl,SAT:2.01894:46.0:1800.0:-1
ipc-2014-optimal-citycar-p2-2-2-2-1.pddl,SAT:2.71077:64.0:1800.0:-1
ipc-2014-optimal-citycar-p2-2-3-1-2.pddl,SAT:5.35123:50.0:1800.0:-1
ipc-2014-optimal-citycar-p2-2-3-2-1.pddl,SAT:4.21165:48.0:1800.0:-1
ipc-2014-optimal-citycar-p2-2-3-2-2.pddl,SAT:4.23838:50.0:1800.0:-1
ipc-2014-optimal-citycar-p2-2-4-1-2.pddl,SAT:9.9479:52.0:1800.0:-1
ipc-2014-optimal-citycar-p2-2-4-2-1.pddl,SAT:10.8423:52.0:1800.0:-1
ipc-2014-optimal-citycar-p2-2-5-2-2.pddl,SAT:190.298:76.0:1800.0:-1
ipc-2014-optimal-citycar-p2-2-6-1-1.pddl,SAT:148.531:58.0:1800.0:-1
ipc-2014-optimal-citycar-p2-2-6-2-2.pddl,SAT:149.02:58.0:1800.0:-1
ipc-2014-optimal-citycar-p2-3-2-3-1.pddl,SAT:12.1564:68.0:1800.0:-1
ipc-2014-optimal-citycar-p2-3-3-3-1.pddl,SAT:46.7798:78.0:1800.0:-1
ipc-2014-optimal-citycar-p2-3-4-3-1.pddl,SAT:230.817:82.0:1800.0:-1
ipc-2014-optimal-citycar-p2-3-6-3-2.pddl,CRASHED:522.591:1000000000.0:1800.0:-1
ipc-2014-optimal-citycar-p3-3-2-2-1.pddl,SAT:209.493:70.0:1800.0:-1
ipc-2014-optimal-citycar-p3-3-2-2-2.pddl,CRASHED:1030.59:1000000000.0:1800.0:-1
ipc-2014-optimal-citycar-p3-3-2-3-1.pddl,SAT:35.3926:48.0:1800.0:-1
ipc-2014-optimal-citycar-p3-3-2-3-2.pddl,SAT:159.123:70.0:1800.0:-1
ipc-2014-optimal-citycar-p3-3-3-3-1.pddl,CRASHED:1798.22:1000000000.0:1800.0:-1
ipc-2014-optimal-citycar-p3-3-3-3-2.pddl,CRASHED:1703.16:1000000000.0:1800.0:-1
ipc-2014-optimal-floortile-p01-4-3-2.pddl,SAT:109.847:56.0:1800.0:-1
ipc-2014-optimal-floortile-p01-4-4-2.pddl,CRASHED:1226.1:1000000000.0:1800.0:-1
ipc-2014-optimal-floortile-p01-5-3-2.pddl,SAT:245.755:63.0:1800.0:-1
ipc-2014-optimal-floortile-p01-5-4-2.pddl,CRASHED:1800.7:1000000000.0:1800.0:-1
ipc-2014-optimal-floortile-p01-5-5-2.pddl,CRASHED:1800.25:1000000000.0:1800.0:-1
ipc-2014-optimal-floortile-p01-6-4-2.pddl,CRASHED:1800.77:1000000000.0:1800.0:-1
ipc-2014-optimal-floortile-p01-6-5-2.pddl,CRASHED:1800.46:1000000000.0:1800.0:-1
ipc-2014-optimal-floortile-p02-4-4-2.pddl,CRASHED:1226.29:1000000000.0:1800.0:-1
ipc-2014-optimal-floortile-p02-5-3-2.pddl,SAT:362.205:65.0:1800.0:-1
ipc-2014-optimal-floortile-p02-5-4-2.pddl,CRASHED:1800.97:1000000000.0:1800.0:-1
ipc-2014-optimal-floortile-p02-5-5-2.pddl,CRASHED:1800.18:1000000000.0:1800.0:-1
ipc-2014-optimal-floortile-p02-6-4-2.pddl,CRASHED:1800.68:1000000000.0:1800.0:-1
ipc-2014-optimal-floortile-p02-6-5-2.pddl,CRASHED:1800.41:1000000000.0:1800.0:-1
ipc-2014-optimal-floortile-p03-4-3-2.pddl,SAT:131.046:56.0:1800.0:-1
ipc-2014-optimal-floortile-p03-4-4-2.pddl,CRASHED:1800.6:1000000000.0:1800.0:-1
ipc-2014-optimal-floortile-p03-5-3-2.pddl,SAT:413.709:65.0:1800.0:-1
ipc-2014-optimal-floortile-p03-5-4-2.pddl,CRASHED:1800.17:1000000000.0:1800.0:-1
ipc-2014-optimal-floortile-p03-5-5-2.pddl,CRASHED:1800.91:1000000000.0:1800.0:-1
ipc-2014-optimal-floortile-p03-6-4-2.pddl,CRASHED:1800.87:1000000000.0:1800.0:-1
ipc-2014-optimal-floortile-p03-6-5-2.pddl,CRASHED:1800.73:1000000000.0:1800.0:-1
ipc-2014-optimal-ged-d-1-2.pddl,SAT:1.10806:1.0:1800.0:-1
ipc-2014-optimal-ged-d-1-3.pddl,SAT:12.6693:4.0:1800.0:-1
ipc-2014-optimal-ged-d-1-4.pddl,SAT:1.10304:1.0:1800.0:-1
ipc-2014-optimal-ged-d-1-8.pddl,SAT:38.1858:4.0:1800.0:-1
ipc-2014-optimal-ged-d-2-1.pddl,SAT:1.31582:1.0:1800.0:-1
ipc-2014-optimal-ged-d-2-3.pddl,SAT:1.80596:3.0:1800.0:-1
ipc-2014-optimal-ged-d-2-4.pddl,SAT:1.40319:2.0:1800.0:-1
ipc-2014-optimal-ged-d-2-8.pddl,CRASHED:1299.49:1000000000.0:1800.0:-1
ipc-2014-optimal-ged-d-3-1.pddl,SAT:9.33449:4.0:1800.0:-1
ipc-2014-optimal-ged-d-3-2.pddl,SAT:1.79234:3.0:1800.0:-1
ipc-2014-optimal-ged-d-3-4.pddl,SAT:315.283:5.0:1800.0:-1
ipc-2014-optimal-ged-d-4-2.pddl,SAT:1.37703:2.0:1800.0:-1
ipc-2014-optimal-ged-d-4-3.pddl,SAT:116.154:5.0:1800.0:-1
ipc-2014-optimal-ged-d-4-8.pddl,CRASHED:1299.28:1000000000.0:1800.0:-1
ipc-2014-optimal-ged-d-7-5.pddl,SAT:25.2829:4.0:1800.0:-1
ipc-2014-optimal-ged-d-7-6.pddl,SAT:61.3095:4.0:1800.0:-1
ipc-2014-optimal-ged-d-8-1.pddl,SAT:24.7014:4.0:1800.0:-1
ipc-2014-optimal-ged-d-8-2.pddl,CRASHED:1295.49:1000000000.0:1800.0:-1
ipc-2014-optimal-ged-d-8-4.pddl,CRASHED:1296.48:1000000000.0:1800.0:-1
ipc-2014-optimal-ged-d-8-9.pddl,CRASHED:1297.91:1000000000.0:1800.0:-1
ipc-2014-optimal-hiking-1-2-3.pddl,SAT:0.398204:11.0:1800.0:-1
ipc-2014-optimal-hiking-1-2-4.pddl,SAT:0.67956:17.0:1800.0:-1
ipc-2014-optimal-hiking-1-2-5.pddl,SAT:1.50696:25.0:1800.0:-1
ipc-2014-optimal-hiking-1-2-7.pddl,SAT:13.1867:38.0:1800.0:-1
ipc-2014-optimal-hiking-1-2-8.pddl,SAT:35.5286:45.0:1800.0:-1
ipc-2014-optimal-hiking-2-2-3.pddl,SAT:2.44056:10.0:1800.0:-1
ipc-2014-optimal-hiking-2-2-4.pddl,SAT:170.668:16.0:1800.0:-1
ipc-2014-optimal-hiking-2-2-5.pddl,SAT:1077.69:22.0:1800.0:-1
ipc-2014-optimal-hiking-2-2-6.pddl,SAT:1165.02:30.0:1800.0:-1
ipc-2014-optimal-hiking-2-2-7.pddl,CRASHED:1800.31:1000000000.0:1800.0:-1
ipc-2014-optimal-hiking-2-2-8.pddl,CRASHED:1800.75:1000000000.0:1800.0:-1
ipc-2014-optimal-hiking-2-3-4.pddl,SAT:945.58:17.0:1800.0:-1
ipc-2014-optimal-hiking-2-3-5.pddl,SAT:1134.3:24.0:1800.0:-1
ipc-2014-optimal-hiking-2-3-6.pddl,CRASHED:1800.84:1000000000.0:1800.0:-1
ipc-2014-optimal-hiking-2-3-7.pddl,CRASHED:1800.68:1000000000.0:1800.0:-1
ipc-2014-optimal-hiking-2-4-3.pddl,SAT:17.1122:10.0:1800.0:-1
ipc-2014-optimal-hiking-2-4-4.pddl,SAT:986.851:17.0:1800.0:-1
ipc-2014-optimal-hiking-2-4-5.pddl,CRASHED:1800.76:1000000000.0:1800.0:-1
ipc-2014-optimal-hiking-2-4-6.pddl,CRASHED:1800.44:1000000000.0:1800.0:-1
ipc-2014-optimal-hiking-2-4-7.pddl,CRASHED:1800.28:1000000000.0:1800.0:-1
ipc-2014-optimal-maintenance-1.3.010.010.1-001.pddl,CRASHED:0.50345:1000000000.0:1800.0:-1
ipc-2014-optimal-maintenance-1.3.010.010.1-002.pddl,CRASHED:0.839612:1000000000.0:1800.0:-1
ipc-2014-optimal-maintenance-1.3.010.010.2-000.pddl,SAT:0.196266:4.0:1800.0:-1
ipc-2014-optimal-maintenance-1.3.010.010.2-001.pddl,SAT:0.197707:7.0:1800.0:-1
ipc-2014-optimal-maintenance-1.3.010.010.2-002.pddl,SAT:0.197825:6.0:1800.0:-1
ipc-2014-optimal-maintenance-1.3.015.020.1-000.pddl,CRASHED:61.7756:1000000000.0:1800.0:-1
ipc-2014-optimal-maintenance-1.3.015.020.1-001.pddl,CRASHED:47.0152:1000000000.0:1800.0:-1
ipc-2014-optimal-maintenance-1.3.015.020.1-002.pddl,CRASHED:50.6651:1000000000.0:1800.0:-1
ipc-2014-optimal-maintenance-1.3.015.020.2-000.pddl,CRASHED:165.159:1000000000.0:1800.0:-1
ipc-2014-optimal-maintenance-1.3.015.020.2-001.pddl,SAT:0.231953:11.0:1800.0:-1
ipc-2014-optimal-maintenance-1.3.015.020.2-002.pddl,SAT:0.188724:9.0:1800.0:-1
ipc-2014-optimal-maintenance-1.3.025.050.1-000.pddl,CRASHED:1284.28:1000000000.0:1800.0:-1
ipc-2014-optimal-maintenance-1.3.025.050.1-001.pddl,CRASHED:1744.94:1000000000.0:1800.0:-1
ipc-2014-optimal-maintenance-1.3.025.050.1-002.pddl,CRASHED:1715.87:1000000000.0:1800.0:-1
ipc-2014-optimal-maintenance-1.3.025.100.1-000.pddl,CRASHED:19.7:1000000000.0:1800.0:-1
ipc-2014-optimal-maintenance-1.3.025.100.1-001.pddl,CRASHED:19.7:1000000000.0:1800.0:-1
ipc-2014-optimal-maintenance-1.3.025.100.1-002.pddl,CRASHED:21.47:1000000000.0:1800.0:-1
ipc-2014-optimal-maintenance-1.3.025.100.2-000.pddl,CRASHED:59.69:1000000000.0:1800.0:-1
ipc-2014-optimal-maintenance-1.3.025.100.2-001.pddl,CRASHED:49.74:1000000000.0:1800.0:-1
ipc-2014-optimal-maintenance-1.3.025.100.2-002.pddl,CRASHED:45.79:1000000000.0:1800.0:-1
ipc-2014-optimal-openstacks-p20_1.pddl,SAT:1122.92:3.0:1800.0:-1
ipc-2014-optimal-openstacks-p20_2.pddl,SAT:1158.73:4.0:1800.0:-1
ipc-2014-optimal-openstacks-p20_3.pddl,SAT:49.7518:6.0:1800.0:-1
ipc-2014-optimal-openstacks-p25_1.pddl,CRASHED:1465.85:1000000000.0:1800.0:-1
ipc-2014-optimal-openstacks-p25_3.pddl,CRASHED:1465.23:1000000000.0:1800.0:-1
ipc-2014-optimal-openstacks-p30_1.pddl,CRASHED:1503.86:1000000000.0:1800.0:-1
ipc-2014-optimal-openstacks-p30_2.pddl,CRASHED:1616.19:1000000000.0:1800.0:-1
ipc-2014-optimal-openstacks-p30_3.pddl,CRASHED:1457.71:1000000000.0:1800.0:-1
ipc-2014-optimal-openstacks-p35_1.pddl,CRASHED:1516.14:1000000000.0:1800.0:-1
ipc-2014-optimal-openstacks-p35_2.pddl,CRASHED:1588.85:1000000000.0:1800.0:-1
ipc-2014-optimal-openstacks-p35_3.pddl,CRASHED:1453.59:1000000000.0:1800.0:-1
ipc-2014-optimal-openstacks-p40_1.pddl,CRASHED:1481.88:1000000000.0:1800.0:-1
ipc-2014-optimal-openstacks-p40_2.pddl,CRASHED:1482.09:1000000000.0:1800.0:-1
ipc-2014-optimal-openstacks-p40_3.pddl,CRASHED:1419.08:1000000000.0:1800.0:-1
ipc-2014-optimal-openstacks-p45_1.pddl,CRASHED:1566.13:1000000000.0:1800.0:-1
ipc-2014-optimal-openstacks-p45_2.pddl,CRASHED:1499.29:1000000000.0:1800.0:-1
ipc-2014-optimal-openstacks-p45_3.pddl,CRASHED:1429.38:1000000000.0:1800.0:-1
ipc-2014-optimal-openstacks-p50_1.pddl,CRASHED:1544.16:1000000000.0:1800.0:-1
ipc-2014-optimal-openstacks-p50_2.pddl,CRASHED:1575.54:1000000000.0:1800.0:-1
ipc-2014-optimal-openstacks-p50_3.pddl,CRASHED:1488.32:1000000000.0:1800.0:-1
ipc-2014-optimal-parking-12_7-01.pddl,SAT:192.673:18.0:1800.0:-1
ipc-2014-optimal-parking-12_7-02.pddl,SAT:560.557:18.0:1800.0:-1
ipc-2014-optimal-parking-12_7-03.pddl,SAT:145.665:17.0:1800.0:-1
ipc-2014-optimal-parking-12_7-04.pddl,CRASHED:1800.61:1000000000.0:1800.0:-1
ipc-2014-optimal-parking-14_8-01.pddl,CRASHED:1477.88:1000000000.0:1800.0:-1
ipc-2014-optimal-parking-14_8-02.pddl,CRASHED:1506.42:1000000000.0:1800.0:-1
ipc-2014-optimal-parking-14_8-03.pddl,CRASHED:1489.51:1000000000.0:1800.0:-1
ipc-2014-optimal-parking-14_8-04.pddl,CRASHED:1508.16:1000000000.0:1800.0:-1
ipc-2014-optimal-parking-16_9-01.pddl,CRASHED:1622.96:1000000000.0:1800.0:-1
ipc-2014-optimal-parking-16_9-02.pddl,CRASHED:1620.12:1000000000.0:1800.0:-1
ipc-2014-optimal-parking-16_9-03.pddl,CRASHED:1633.84:1000000000.0:1800.0:-1
ipc-2014-optimal-parking-16_9-04.pddl,CRASHED:1622.64:1000000000.0:1800.0:-1
ipc-2014-optimal-parking-18_10-01.pddl,CRASHED:1800.85:1000000000.0:1800.0:-1
ipc-2014-optimal-parking-18_10-02.pddl,CRASHED:1801.0:1000000000.0:1800.0:-1
ipc-2014-optimal-parking-18_10-03.pddl,TIMEOUT:1801.07:-1.0:1800.0:-1
ipc-2014-optimal-parking-18_10-04.pddl,CRASHED:1633.29:1000000000.0:1800.0:-1
ipc-2014-optimal-parking-20_11-01.pddl,CRASHED:1800.24:1000000000.0:1800.0:-1
ipc-2014-optimal-parking-20_11-02.pddl,CRASHED:1800.21:1000000000.0:1800.0:-1
ipc-2014-optimal-parking-20_11-03.pddl,CRASHED:1800.4:1000000000.0:1800.0:-1
ipc-2014-optimal-parking-20_11-04.pddl,CRASHED:1801.02:1000000000.0:1800.0:-1
ipc-2014-optimal-tetris-01-10.pddl,TIMEOUT:1801.08:-1.0:1800.0:-1
ipc-2014-optimal-tetris-01-04.pddl,CRASHED:1455.2:1000000000.0:1800.0:-1
ipc-2014-optimal-tetris-01-06.pddl,CRASHED:1800.46:1000000000.0:1800.0:-1
ipc-2014-optimal-tetris-01-08.pddl,TIMEOUT:1801.0:-1.0:1800.0:-1
ipc-2014-optimal-tetris-02-10.pddl,CRASHED:1800.61:1000000000.0:1800.0:-1
ipc-2014-optimal-tetris-02-04.pddl,SAT:2.59167:10.0:1800.0:-1
ipc-2014-optimal-tetris-02-06.pddl,SAT:532.416:30.0:1800.0:-1
ipc-2014-optimal-tetris-02-08.pddl,CRASHED:1800.35:1000000000.0:1800.0:-1
ipc-2014-optimal-tetris-03-10.pddl,CRASHED:1800.44:1000000000.0:1800.0:-1
ipc-2014-optimal-tetris-03-04.pddl,SAT:4.16449:11.0:1800.0:-1
ipc-2014-optimal-tetris-03-06.pddl,SAT:430.473:21.0:1800.0:-1
ipc-2014-optimal-tetris-03-08.pddl,CRASHED:1800.89:1000000000.0:1800.0:-1
ipc-2014-optimal-tetris-04-10.pddl,CRASHED:1800.42:1000000000.0:1800.0:-1
ipc-2014-optimal-tetris-04-04.pddl,CRASHED:1546.13:1000000000.0:1800.0:-1
ipc-2014-optimal-tetris-04-06.pddl,CRASHED:1800.93:1000000000.0:1800.0:-1
ipc-2014-optimal-tetris-04-08.pddl,CRASHED:1800.97:1000000000.0:1800.0:-1
ipc-2014-optimal-tetris-05-10.pddl,CRASHED:1800.96:1000000000.0:1800.0:-1
ipc-2014-optimal-tetris-05-04.pddl,CRASHED:1244.48:1000000000.0:1800.0:-1
ipc-2014-optimal-tetris-05-06.pddl,SAT:68.0723:19.0:1800.0:-1
ipc-2014-optimal-tetris-05-08.pddl,CRASHED:1800.42:1000000000.0:1800.0:-1
ipc-2014-optimal-tidybot-01.pddl,CRASHED:1800.44:1000000000.0:1800.0:-1
ipc-2014-optimal-tidybot-02.pddl,SAT:227.458:35.0:1800.0:-1
ipc-2014-optimal-tidybot-03.pddl,SAT:231.405:30.0:1800.0:-1
ipc-2014-optimal-tidybot-04.pddl,SAT:219.105:24.0:1800.0:-1
ipc-2014-optimal-tidybot-05.pddl,CRASHED:1800.61:1000000000.0:1800.0:-1
ipc-2014-optimal-tidybot-06.pddl,CRASHED:1800.6:1000000000.0:1800.0:-1
ipc-2014-optimal-tidybot-07.pddl,CRASHED:0.00012207:1000000000.0:1800.0:-1
ipc-2014-optimal-tidybot-08.pddl,SAT:137.544:25.0:1800.0:-1
ipc-2014-optimal-tidybot-09.pddl,CRASHED:1800.26:1000000000.0:1800.0:-1
ipc-2014-optimal-tidybot-10.pddl,TIMEOUT:1801.05:-1.0:1800.0:-1
ipc-2014-optimal-tidybot-11.pddl,SAT:116.635:29.0:1800.0:-1
ipc-2014-optimal-tidybot-12.pddl,CRASHED:1800.63:1000000000.0:1800.0:-1
ipc-2014-optimal-tidybot-13.pddl,SAT:276.906:30.0:1800.0:-1
ipc-2014-optimal-tidybot-14.pddl,SAT:48.1941:25.0:1800.0:-1
ipc-2014-optimal-tidybot-15.pddl,CRASHED:1800.23:1000000000.0:1800.0:-1
ipc-2014-optimal-tidybot-16.pddl,CRASHED:1800.59:1000000000.0:1800.0:-1
ipc-2014-optimal-tidybot-17.pddl,CRASHED:1800.95:1000000000.0:1800.0:-1
ipc-2014-optimal-tidybot-18.pddl,CRASHED:1801.08:1000000000.0:1800.0:-1
ipc-2014-optimal-tidybot-19.pddl,CRASHED:1800.32:1000000000.0:1800.0:-1
ipc-2014-optimal-tidybot-20.pddl,CRASHED:1800.63:1000000000.0:1800.0:-1
ipc-2014-optimal-transport-01.pddl,SAT:0.574604:148.0:1800.0:-1
ipc-2014-optimal-transport-02.pddl,SAT:20.9594:191.0:1800.0:-1
ipc-2014-optimal-transport-03.pddl,SAT:77.5177:300.0:1800.0:-1
ipc-2014-optimal-transport-04.pddl,CRASHED:1800.84:1000000000.0:1800.0:-1
ipc-2014-optimal-transport-05.pddl,CRASHED:1744.86:1000000000.0:1800.0:-1
ipc-2014-optimal-transport-06.pddl,CRASHED:1744.77:1000000000.0:1800.0:-1
ipc-2014-optimal-transport-07.pddl,SAT:268.284:967.0:1800.0:-1
ipc-2014-optimal-transport-08.pddl,CRASHED:1800.9:1000000000.0:1800.0:-1
ipc-2014-optimal-transport-09.pddl,CRASHED:1800.27:1000000000.0:1800.0:-1
ipc-2014-optimal-transport-10.pddl,CRASHED:1800.9:1000000000.0:1800.0:-1
ipc-2014-optimal-transport-11.pddl,CRASHED:1800.23:1000000000.0:1800.0:-1
ipc-2014-optimal-transport-12.pddl,CRASHED:1800.19:1000000000.0:1800.0:-1
ipc-2014-optimal-transport-13.pddl,SAT:2.84133:594.0:1800.0:-1
ipc-2014-optimal-transport-14.pddl,SAT:261.546:526.0:1800.0:-1
ipc-2014-optimal-transport-15.pddl,CRASHED:1800.5:1000000000.0:1800.0:-1
ipc-2014-optimal-transport-16.pddl,CRASHED:1800.56:1000000000.0:1800.0:-1
ipc-2014-optimal-transport-17.pddl,CRASHED:1759.92:1000000000.0:1800.0:-1
ipc-2014-optimal-transport-18.pddl,CRASHED:1789.86:1000000000.0:1800.0:-1
ipc-2014-optimal-transport-19.pddl,CRASHED:1801.03:1000000000.0:1800.0:-1
ipc-2014-optimal-transport-20.pddl,CRASHED:1800.45:1000000000.0:1800.0:-1
ipc-2014-optimal-visitall-05-10.pddl,CRASHED:1800.78:1000000000.0:1800.0:-1
ipc-2014-optimal-visitall-05-05.pddl,SAT:0.289545:21.0:1800.0:-1
ipc-2014-optimal-visitall-05-06.pddl,SAT:0.43174:25.0:1800.0:-1
ipc-2014-optimal-visitall-05-07.pddl,SAT:15.518:34.0:1800.0:-1
ipc-2014-optimal-visitall-05-08.pddl,SAT:45.5362:43.0:1800.0:-1
ipc-2014-optimal-visitall-05-09.pddl,CRASHED:1800.81:1000000000.0:1800.0:-1
ipc-2014-optimal-visitall-01-10.pddl,SAT:0.493878:99.0:1800.0:-1
ipc-2014-optimal-visitall-01-11.pddl,SAT:0.546415:120.0:1800.0:-1
ipc-2014-optimal-visitall-01-12.pddl,SAT:17.3198:143.0:1800.0:-1
ipc-2014-optimal-visitall-01-13.pddl,SAT:0.733958:168.0:1800.0:-1
ipc-2014-optimal-visitall-01-14.pddl,CRASHED:1800.45:1000000000.0:1800.0:-1
ipc-2014-optimal-visitall-01-15.pddl,CRASHED:1801.07:1000000000.0:1800.0:-1
ipc-2014-optimal-visitall-01-16.pddl,CRASHED:1800.54:1000000000.0:1800.0:-1
ipc-2014-optimal-visitall-01-17.pddl,CRASHED:1800.92:1000000000.0:1800.0:-1
ipc-2014-optimal-visitall-01-18.pddl,CRASHED:1800.18:1000000000.0:1800.0:-1
ipc-2014-optimal-visitall-01-05.pddl,SAT:0.191727:24.0:1800.0:-1
ipc-2014-optimal-visitall-01-06.pddl,SAT:0.423805:35.0:1800.0:-1
ipc-2014-optimal-visitall-01-07.pddl,SAT:0.282193:48.0:1800.0:-1
ipc-2014-optimal-visitall-01-08.pddl,SAT:0.331547:63.0:1800.0:-1
ipc-2014-optimal-visitall-01-09.pddl,SAT:0.577107:80.0:1800.0:-1
