instance,ipc-2014-optimal-dpmplan
ipc-2014-optimal-barman-p433.1.pddl,CRASHED:1.76844:1000000000.0:1800.0:-1
ipc-2014-optimal-barman-p433.2.pddl,CRASHED:1.69077:1000000000.0:1800.0:-1
ipc-2014-optimal-barman-p433.3.pddl,CRASHED:1.62199:1000000000.0:1800.0:-1
ipc-2014-optimal-barman-p435.1.pddl,CRASHED:1772.06:1000000000.0:1800.0:-1
ipc-2014-optimal-barman-p435.2.pddl,CRASHED:1771.05:1000000000.0:1800.0:-1
ipc-2014-optimal-barman-p435.3.pddl,CRASHED:1294.14:1000000000.0:1800.0:-1
ipc-2014-optimal-barman-p443.1.pddl,CRASHED:1.85142:1000000000.0:1800.0:-1
ipc-2014-optimal-barman-p443.2.pddl,CRASHED:1.82504:1000000000.0:1800.0:-1
ipc-2014-optimal-barman-p443.3.pddl,CRASHED:1.77217:1000000000.0:1800.0:-1
ipc-2014-optimal-barman-p536.1.pddl,CRASHED:1771.04:1000000000.0:1800.0:-1
ipc-2014-optimal-barman-p536.2.pddl,CRASHED:1769.69:1000000000.0:1800.0:-1
ipc-2014-optimal-barman-p536.3.pddl,CRASHED:1770.44:1000000000.0:1800.0:-1
ipc-2014-optimal-barman-p638.1.pddl,CRASHED:1769.88:1000000000.0:1800.0:-1
ipc-2014-optimal-barman-p638.2.pddl,CRASHED:1770.74:1000000000.0:1800.0:-1
ipc-2014-optimal-barman-p638.3.pddl,CRASHED:1770.85:1000000000.0:1800.0:-1
ipc-2014-optimal-barman-p739.1.pddl,CRASHED:1293.32:1000000000.0:1800.0:-1
ipc-2014-optimal-barman-p739.2.pddl,CRASHED:1774.31:1000000000.0:1800.0:-1
ipc-2014-optimal-barman-p739.3.pddl,CRASHED:1771.28:1000000000.0:1800.0:-1
ipc-2014-optimal-barman-p839.1.pddl,CRASHED:1771.83:1000000000.0:1800.0:-1
ipc-2014-optimal-barman-p839.2.pddl,CRASHED:1771.04:1000000000.0:1800.0:-1
ipc-2014-optimal-cavediving-01.pddl,CRASHED:132.126:1000000000.0:1800.0:-1
ipc-2014-optimal-cavediving-01_easy.pddl,CRASHED:123.582:1000000000.0:1800.0:-1
ipc-2014-optimal-cavediving-02_easy.pddl,CRASHED:130.868:1000000000.0:1800.0:-1
ipc-2014-optimal-cavediving-03_easy.pddl,CRASHED:129.384:1000000000.0:1800.0:-1
ipc-2014-optimal-cavediving-04_easy.pddl,CRASHED:143.797:1000000000.0:1800.0:-1
ipc-2014-optimal-cavediving-05A_easy.pddl,SAT:20.079:94.0:1800.0:-1
ipc-2014-optimal-cavediving-06A_easy.pddl,SAT:20.0002:95.0:1800.0:-1
ipc-2014-optimal-cavediving-07_easy.pddl,SAT:34.3363:131.0:1800.0:-1
ipc-2014-optimal-cavediving-08_easy.pddl,SAT:19.879:90.0:1800.0:-1
ipc-2014-optimal-cavediving-09_easy.pddl,CRASHED:240.892:1000000000.0:1800.0:-1
ipc-2014-optimal-cavediving-10_easy.pddl,CRASHED:246.227:1000000000.0:1800.0:-1
ipc-2014-optimal-cavediving-11_easy.pddl,CRASHED:248.007:1000000000.0:1800.0:-1
ipc-2014-optimal-cavediving-12_easy.pddl,CRASHED:245.142:1000000000.0:1800.0:-1
ipc-2014-optimal-cavediving-13_easy.pddl,CRASHED:141.245:1000000000.0:1800.0:-1
ipc-2014-optimal-cavediving-14_easy.pddl,CRASHED:142.683:1000000000.0:1800.0:-1
ipc-2014-optimal-cavediving-15_easy.pddl,CRASHED:136.507:1000000000.0:1800.0:-1
ipc-2014-optimal-cavediving-16_easy.pddl,CRASHED:143.167:1000000000.0:1800.0:-1
ipc-2014-optimal-cavediving-18A_easy.pddl,SAT:57.552:131.0:1800.0:-1
ipc-2014-optimal-cavediving-18_easy.pddl,CRASHED:111.793:131.0:1800.0:-1
ipc-2014-optimal-cavediving-20A_easy.pddl,SAT:35.6396:98.0:1800.0:-1
ipc-2014-optimal-childsnack-01-2.pddl,CRASHED:1633.29:1000000000.0:1800.0:-1
ipc-2014-optimal-childsnack-01.pddl,CRASHED:1674.58:1000000000.0:1800.0:-1
ipc-2014-optimal-childsnack-02-2.pddl,CRASHED:1764.13:1000000000.0:1800.0:-1
ipc-2014-optimal-childsnack-02.pddl,CRASHED:1766.3:1000000000.0:1800.0:-1
ipc-2014-optimal-childsnack-03-2.pddl,CRASHED:1773.15:1000000000.0:1800.0:-1
ipc-2014-optimal-childsnack-03.pddl,CRASHED:1770.93:1000000000.0:1800.0:-1
ipc-2014-optimal-childsnack-04-2.pddl,CRASHED:1238.85:1000000000.0:1800.0:-1
ipc-2014-optimal-childsnack-04.pddl,CRASHED:1770.03:1000000000.0:1800.0:-1
ipc-2014-optimal-childsnack-05-2.pddl,CRASHED:1779.07:1000000000.0:1800.0:-1
ipc-2014-optimal-childsnack-05.pddl,CRASHED:1772.14:1000000000.0:1800.0:-1
ipc-2014-optimal-childsnack-06-2.pddl,CRASHED:58.69:1000000000.0:1800.0:-1
ipc-2014-optimal-childsnack-06.pddl,CRASHED:58.74:1000000000.0:1800.0:-1
ipc-2014-optimal-childsnack-07-2.pddl,CRASHED:58.69:1000000000.0:1800.0:-1
ipc-2014-optimal-childsnack-07.pddl,CRASHED:58.68:1000000000.0:1800.0:-1
ipc-2014-optimal-childsnack-08-2.pddl,CRASHED:58.63:1000000000.0:1800.0:-1
ipc-2014-optimal-childsnack-08.pddl,CRASHED:58.69:1000000000.0:1800.0:-1
ipc-2014-optimal-childsnack-09-2.pddl,CRASHED:58.44:1000000000.0:1800.0:-1
ipc-2014-optimal-childsnack-09.pddl,CRASHED:58.47:1000000000.0:1800.0:-1
ipc-2014-optimal-childsnack-10-2.pddl,CRASHED:58.18:1000000000.0:1800.0:-1
ipc-2014-optimal-childsnack-10.pddl,CRASHED:58.2:1000000000.0:1800.0:-1
ipc-2014-optimal-citycar-p2-2-2-1-2.pddl,SAT:4.93518:46.0:1800.0:-1
ipc-2014-optimal-citycar-p2-2-2-2-1.pddl,SAT:9.31585:64.0:1800.0:-1
ipc-2014-optimal-citycar-p2-2-3-1-2.pddl,SAT:6.72802:50.0:1800.0:-1
ipc-2014-optimal-citycar-p2-2-3-2-1.pddl,SAT:6.63179:48.0:1800.0:-1
ipc-2014-optimal-citycar-p2-2-3-2-2.pddl,SAT:6.78006:50.0:1800.0:-1
ipc-2014-optimal-citycar-p2-2-4-1-2.pddl,SAT:8.95052:52.0:1800.0:-1
ipc-2014-optimal-citycar-p2-2-4-2-1.pddl,SAT:8.84964:52.0:1800.0:-1
ipc-2014-optimal-citycar-p2-2-5-2-2.pddl,SAT:385.58:76.0:1800.0:-1
ipc-2014-optimal-citycar-p2-2-6-1-1.pddl,CRASHED:398.88:58.0:1800.0:-1
ipc-2014-optimal-citycar-p2-2-6-2-2.pddl,CRASHED:390.71:58.0:1800.0:-1
ipc-2014-optimal-citycar-p2-3-2-3-1.pddl,SAT:369.84:68.0:1800.0:-1
ipc-2014-optimal-citycar-p2-3-3-3-1.pddl,SAT:380.84:78.0:1800.0:-1
ipc-2014-optimal-citycar-p2-3-4-3-1.pddl,CRASHED:1548.87:1000000000.0:1800.0:-1
ipc-2014-optimal-citycar-p2-3-6-3-2.pddl,CRASHED:1563.71:1000000000.0:1800.0:-1
ipc-2014-optimal-citycar-p3-3-2-2-1.pddl,CRASHED:1552.21:1000000000.0:1800.0:-1
ipc-2014-optimal-citycar-p3-3-2-2-2.pddl,CRASHED:1552.16:1000000000.0:1800.0:-1
ipc-2014-optimal-citycar-p3-3-2-3-1.pddl,SAT:374.75:48.0:1800.0:-1
ipc-2014-optimal-citycar-p3-3-2-3-2.pddl,CRASHED:1552.56:1000000000.0:1800.0:-1
ipc-2014-optimal-citycar-p3-3-3-3-1.pddl,CRASHED:1448.9:1000000000.0:1800.0:-1
ipc-2014-optimal-citycar-p3-3-3-3-2.pddl,CRASHED:1457.55:1000000000.0:1800.0:-1
ipc-2014-optimal-floortile-p01-4-3-2.pddl,SAT:167.558:56.0:1800.0:-1
ipc-2014-optimal-floortile-p01-4-4-2.pddl,CRASHED:472.553:68.0:1800.0:-1
ipc-2014-optimal-floortile-p01-5-3-2.pddl,CRASHED:405.571:63.0:1800.0:-1
ipc-2014-optimal-floortile-p01-5-4-2.pddl,CRASHED:1768.61:1000000000.0:1800.0:-1
ipc-2014-optimal-floortile-p01-5-5-2.pddl,CRASHED:1769.87:1000000000.0:1800.0:-1
ipc-2014-optimal-floortile-p01-6-4-2.pddl,CRASHED:1770.45:1000000000.0:1800.0:-1
ipc-2014-optimal-floortile-p01-6-5-2.pddl,CRASHED:1772.02:1000000000.0:1800.0:-1
ipc-2014-optimal-floortile-p02-4-4-2.pddl,CRASHED:1339.45:1000000000.0:1800.0:-1
ipc-2014-optimal-floortile-p02-5-3-2.pddl,CRASHED:437.173:65.0:1800.0:-1
ipc-2014-optimal-floortile-p02-5-4-2.pddl,CRASHED:1772.27:1000000000.0:1800.0:-1
ipc-2014-optimal-floortile-p02-5-5-2.pddl,CRASHED:1288.48:1000000000.0:1800.0:-1
ipc-2014-optimal-floortile-p02-6-4-2.pddl,CRASHED:1778.38:1000000000.0:1800.0:-1
ipc-2014-optimal-floortile-p02-6-5-2.pddl,CRASHED:1773.59:1000000000.0:1800.0:-1
ipc-2014-optimal-floortile-p03-4-3-2.pddl,SAT:179.521:56.0:1800.0:-1
ipc-2014-optimal-floortile-p03-4-4-2.pddl,CRASHED:1773.23:1000000000.0:1800.0:-1
ipc-2014-optimal-floortile-p03-5-3-2.pddl,CRASHED:419.972:65.0:1800.0:-1
ipc-2014-optimal-floortile-p03-5-4-2.pddl,CRASHED:1302.82:1000000000.0:1800.0:-1
ipc-2014-optimal-floortile-p03-5-5-2.pddl,CRASHED:1770.77:1000000000.0:1800.0:-1
ipc-2014-optimal-floortile-p03-6-4-2.pddl,CRASHED:1332.07:1000000000.0:1800.0:-1
ipc-2014-optimal-floortile-p03-6-5-2.pddl,CRASHED:1778.09:1000000000.0:1800.0:-1
ipc-2014-optimal-ged-d-1-2.pddl,SAT:0.678418:1.0:1800.0:-1
ipc-2014-optimal-ged-d-1-3.pddl,SAT:5.87742:4.0:1800.0:-1
ipc-2014-optimal-ged-d-1-4.pddl,SAT:0.712183:1.0:1800.0:-1
ipc-2014-optimal-ged-d-1-8.pddl,SAT:44.4424:4.0:1800.0:-1
ipc-2014-optimal-ged-d-2-1.pddl,SAT:0.700518:1.0:1800.0:-1
ipc-2014-optimal-ged-d-2-3.pddl,SAT:0.927921:3.0:1800.0:-1
ipc-2014-optimal-ged-d-2-4.pddl,SAT:0.732462:2.0:1800.0:-1
ipc-2014-optimal-ged-d-2-8.pddl,CRASHED:112.91:1000000000.0:1800.0:-1
ipc-2014-optimal-ged-d-3-1.pddl,SAT:5.8275:4.0:1800.0:-1
ipc-2014-optimal-ged-d-3-2.pddl,SAT:0.903956:3.0:1800.0:-1
ipc-2014-optimal-ged-d-3-4.pddl,CRASHED:360.275:5.0:1800.0:-1
ipc-2014-optimal-ged-d-4-2.pddl,SAT:0.716629:2.0:1800.0:-1
ipc-2014-optimal-ged-d-4-3.pddl,CRASHED:360.546:5.0:1800.0:-1
ipc-2014-optimal-ged-d-4-8.pddl,CRASHED:1733.58:1000000000.0:1800.0:-1
ipc-2014-optimal-ged-d-7-5.pddl,SAT:25.0974:4.0:1800.0:-1
ipc-2014-optimal-ged-d-7-6.pddl,SAT:5.55235:4.0:1800.0:-1
ipc-2014-optimal-ged-d-8-1.pddl,SAT:23.0953:4.0:1800.0:-1
ipc-2014-optimal-ged-d-8-2.pddl,CRASHED:1681.19:1000000000.0:1800.0:-1
ipc-2014-optimal-ged-d-8-4.pddl,CRASHED:68.75:1000000000.0:1800.0:-1
ipc-2014-optimal-ged-d-8-9.pddl,CRASHED:58.71:1000000000.0:1800.0:-1
ipc-2014-optimal-hiking-1-2-3.pddl,SAT:0.926587:11.0:1800.0:-1
ipc-2014-optimal-hiking-1-2-4.pddl,SAT:10.5817:17.0:1800.0:-1
ipc-2014-optimal-hiking-1-2-5.pddl,SAT:10.9818:25.0:1800.0:-1
ipc-2014-optimal-hiking-1-2-7.pddl,SAT:21.832:38.0:1800.0:-1
ipc-2014-optimal-hiking-1-2-8.pddl,SAT:44.6336:45.0:1800.0:-1
ipc-2014-optimal-hiking-2-2-3.pddl,SAT:12.9168:10.0:1800.0:-1
ipc-2014-optimal-hiking-2-2-4.pddl,SAT:66.8786:16.0:1800.0:-1
ipc-2014-optimal-hiking-2-2-5.pddl,SAT:311.162:22.0:1800.0:-1
ipc-2014-optimal-hiking-2-2-6.pddl,CRASHED:58.71:1000000000.0:1800.0:-1
ipc-2014-optimal-hiking-2-2-7.pddl,CRASHED:1297.05:1000000000.0:1800.0:-1
ipc-2014-optimal-hiking-2-2-8.pddl,CRASHED:57.9:1000000000.0:1800.0:-1
ipc-2014-optimal-hiking-2-3-4.pddl,SAT:237.504:17.0:1800.0:-1
ipc-2014-optimal-hiking-2-3-5.pddl,SAT:58.58:24.0:1800.0:-1
ipc-2014-optimal-hiking-2-3-6.pddl,CRASHED:58.21:1000000000.0:1800.0:-1
ipc-2014-optimal-hiking-2-3-7.pddl,CRASHED:57.64:1000000000.0:1800.0:-1
ipc-2014-optimal-hiking-2-4-3.pddl,SAT:30.9205:10.0:1800.0:-1
ipc-2014-optimal-hiking-2-4-4.pddl,SAT:305.813:17.0:1800.0:-1
ipc-2014-optimal-hiking-2-4-5.pddl,CRASHED:58.67:1000000000.0:1800.0:-1
ipc-2014-optimal-hiking-2-4-6.pddl,CRASHED:1290.44:1000000000.0:1800.0:-1
ipc-2014-optimal-hiking-2-4-7.pddl,CRASHED:57.26:1000000000.0:1800.0:-1
ipc-2014-optimal-maintenance-1.3.010.010.1-001.pddl,CRASHED:1.40639:1000000000.0:1800.0:-1
ipc-2014-optimal-maintenance-1.3.010.010.1-002.pddl,CRASHED:1.47385:1000000000.0:1800.0:-1
ipc-2014-optimal-maintenance-1.3.010.010.2-000.pddl,SAT:0.362639:4.0:1800.0:-1
ipc-2014-optimal-maintenance-1.3.010.010.2-001.pddl,SAT:0.361947:7.0:1800.0:-1
ipc-2014-optimal-maintenance-1.3.010.010.2-002.pddl,SAT:0.356055:6.0:1800.0:-1
ipc-2014-optimal-maintenance-1.3.015.020.1-000.pddl,CRASHED:4.25398:1000000000.0:1800.0:-1
ipc-2014-optimal-maintenance-1.3.015.020.1-001.pddl,CRASHED:13.3802:1000000000.0:1800.0:-1
ipc-2014-optimal-maintenance-1.3.015.020.1-002.pddl,CRASHED:20.77:1000000000.0:1800.0:-1
ipc-2014-optimal-maintenance-1.3.015.020.2-000.pddl,CRASHED:119.974:1000000000.0:1800.0:-1
ipc-2014-optimal-maintenance-1.3.015.020.2-001.pddl,SAT:0.451226:11.0:1800.0:-1
ipc-2014-optimal-maintenance-1.3.015.020.2-002.pddl,SAT:0.449027:9.0:1800.0:-1
ipc-2014-optimal-maintenance-1.3.025.050.1-000.pddl,CRASHED:159.597:1000000000.0:1800.0:-1
ipc-2014-optimal-maintenance-1.3.025.050.1-001.pddl,CRASHED:176.398:1000000000.0:1800.0:-1
ipc-2014-optimal-maintenance-1.3.025.050.1-002.pddl,CRASHED:163.313:1000000000.0:1800.0:-1
ipc-2014-optimal-maintenance-1.3.025.100.1-000.pddl,CRASHED:147.656:1000000000.0:1800.0:-1
ipc-2014-optimal-maintenance-1.3.025.100.1-001.pddl,CRASHED:143.015:1000000000.0:1800.0:-1
ipc-2014-optimal-maintenance-1.3.025.100.1-002.pddl,CRASHED:148.305:1000000000.0:1800.0:-1
ipc-2014-optimal-maintenance-1.3.025.100.2-000.pddl,CRASHED:0.129974:1000000000.0:1800.0:-1
ipc-2014-optimal-maintenance-1.3.025.100.2-001.pddl,CRASHED:1142.16:1000000000.0:1800.0:-1
ipc-2014-optimal-maintenance-1.3.025.100.2-002.pddl,CRASHED:998.343:1000000000.0:1800.0:-1
ipc-2014-optimal-openstacks-p20_1.pddl,CRASHED:1260.12:3.0:1800.0:-1
ipc-2014-optimal-openstacks-p20_2.pddl,CRASHED:1354.12:4.0:1800.0:-1
ipc-2014-optimal-openstacks-p20_3.pddl,SAT:18.3437:6.0:1800.0:-1
ipc-2014-optimal-openstacks-p25_1.pddl,CRASHED:153.28:1000000000.0:1800.0:-1
ipc-2014-optimal-openstacks-p25_3.pddl,CRASHED:1771.6:1000000000.0:1800.0:-1
ipc-2014-optimal-openstacks-p30_1.pddl,CRASHED:1327.01:1000000000.0:1800.0:-1
ipc-2014-optimal-openstacks-p30_2.pddl,CRASHED:1772.48:1000000000.0:1800.0:-1
ipc-2014-optimal-openstacks-p30_3.pddl,CRASHED:1773.75:1000000000.0:1800.0:-1
ipc-2014-optimal-openstacks-p35_1.pddl,CRASHED:1775.26:1000000000.0:1800.0:-1
ipc-2014-optimal-openstacks-p35_2.pddl,CRASHED:1305.6:1000000000.0:1800.0:-1
ipc-2014-optimal-openstacks-p35_3.pddl,CRASHED:1773.8:1000000000.0:1800.0:-1
ipc-2014-optimal-openstacks-p40_1.pddl,CRASHED:1246.48:1000000000.0:1800.0:-1
ipc-2014-optimal-openstacks-p40_2.pddl,CRASHED:58.81:1000000000.0:1800.0:-1
ipc-2014-optimal-openstacks-p40_3.pddl,CRASHED:1306.63:1000000000.0:1800.0:-1
ipc-2014-optimal-openstacks-p45_1.pddl,CRASHED:58.67:1000000000.0:1800.0:-1
ipc-2014-optimal-openstacks-p45_2.pddl,CRASHED:58.54:1000000000.0:1800.0:-1
ipc-2014-optimal-openstacks-p45_3.pddl,CRASHED:58.32:1000000000.0:1800.0:-1
ipc-2014-optimal-openstacks-p50_1.pddl,CRASHED:1304.25:1000000000.0:1800.0:-1
ipc-2014-optimal-openstacks-p50_2.pddl,CRASHED:58.57:1000000000.0:1800.0:-1
ipc-2014-optimal-openstacks-p50_3.pddl,CRASHED:58.57:1000000000.0:1800.0:-1
ipc-2014-optimal-parking-12_7-01.pddl,SAT:58.69:18.0:1800.0:-1
ipc-2014-optimal-parking-12_7-02.pddl,SAT:58.45:18.0:1800.0:-1
ipc-2014-optimal-parking-12_7-03.pddl,SAT:58.36:17.0:1800.0:-1
ipc-2014-optimal-parking-12_7-04.pddl,SAT:58.1:19.0:1800.0:-1
ipc-2014-optimal-parking-14_8-01.pddl,CRASHED:1402.28:1000000000.0:1800.0:-1
ipc-2014-optimal-parking-14_8-02.pddl,SAT:186.55:22.0:1800.0:-1
ipc-2014-optimal-parking-14_8-03.pddl,SAT:57.74:21.0:1800.0:-1
ipc-2014-optimal-parking-14_8-04.pddl,CRASHED:57.79:1000000000.0:1800.0:-1
ipc-2014-optimal-parking-16_9-01.pddl,CRASHED:1374.49:1000000000.0:1800.0:-1
ipc-2014-optimal-parking-16_9-02.pddl,CRASHED:56.87:1000000000.0:1800.0:-1
ipc-2014-optimal-parking-16_9-03.pddl,CRASHED:1383.62:1000000000.0:1800.0:-1
ipc-2014-optimal-parking-16_9-04.pddl,CRASHED:57.07:1000000000.0:1800.0:-1
ipc-2014-optimal-parking-18_10-01.pddl,CRASHED:56.03:1000000000.0:1800.0:-1
ipc-2014-optimal-parking-18_10-02.pddl,CRASHED:55.74:1000000000.0:1800.0:-1
ipc-2014-optimal-parking-18_10-03.pddl,CRASHED:55.9:1000000000.0:1800.0:-1
ipc-2014-optimal-parking-18_10-04.pddl,CRASHED:55.85:1000000000.0:1800.0:-1
ipc-2014-optimal-parking-20_11-01.pddl,CRASHED:327.36:1000000000.0:1800.0:-1
ipc-2014-optimal-parking-20_11-02.pddl,CRASHED:327.71:1000000000.0:1800.0:-1
ipc-2014-optimal-parking-20_11-03.pddl,CRASHED:1647.69:1000000000.0:1800.0:-1
ipc-2014-optimal-parking-20_11-04.pddl,CRASHED:327.34:1000000000.0:1800.0:-1
ipc-2014-optimal-tetris-01-10.pddl,CRASHED:235.16:1000000000.0:1800.0:-1
ipc-2014-optimal-tetris-01-04.pddl,CRASHED:445.159:1000000000.0:1800.0:-1
ipc-2014-optimal-tetris-01-06.pddl,SAT:57.55:30.0:1800.0:-1
ipc-2014-optimal-tetris-01-08.pddl,CRASHED:23.93:36.0:1800.0:-1
ipc-2014-optimal-tetris-02-10.pddl,CRASHED:414.57:1000000000.0:1800.0:-1
ipc-2014-optimal-tetris-02-04.pddl,SAT:0.64622:10.0:1800.0:-1
ipc-2014-optimal-tetris-02-06.pddl,SAT:66.4355:30.0:1800.0:-1
ipc-2014-optimal-tetris-02-08.pddl,CRASHED:500.87:1000000000.0:1800.0:-1
ipc-2014-optimal-tetris-03-10.pddl,CRASHED:662.48:1000000000.0:1800.0:-1
ipc-2014-optimal-tetris-03-04.pddl,SAT:12.79:11.0:1800.0:-1
ipc-2014-optimal-tetris-03-06.pddl,SAT:57.53:21.0:1800.0:-1
ipc-2014-optimal-tetris-03-08.pddl,CRASHED:1671.02:1000000000.0:1800.0:-1
ipc-2014-optimal-tetris-04-10.pddl,CRASHED:459.49:1000000000.0:1800.0:-1
ipc-2014-optimal-tetris-04-04.pddl,CRASHED:266.023:1000000000.0:1800.0:-1
ipc-2014-optimal-tetris-04-06.pddl,SAT:57.38:27.0:1800.0:-1
ipc-2014-optimal-tetris-04-08.pddl,CRASHED:479.91:1000000000.0:1800.0:-1
ipc-2014-optimal-tetris-05-10.pddl,CRASHED:401.73:1000000000.0:1800.0:-1
ipc-2014-optimal-tetris-05-04.pddl,CRASHED:349.261:1000000000.0:1800.0:-1
ipc-2014-optimal-tetris-05-06.pddl,SAT:21.3262:19.0:1800.0:-1
ipc-2014-optimal-tetris-05-08.pddl,CRASHED:621.98:1000000000.0:1800.0:-1
ipc-2014-optimal-tidybot-01.pddl,CRASHED:1615.99:1000000000.0:1800.0:-1
ipc-2014-optimal-tidybot-02.pddl,CRASHED:283.14:35.0:1800.0:-1
ipc-2014-optimal-tidybot-03.pddl,CRASHED:298.73:30.0:1800.0:-1
ipc-2014-optimal-tidybot-04.pddl,CRASHED:283.96:24.0:1800.0:-1
ipc-2014-optimal-tidybot-05.pddl,CRASHED:1626.76:1000000000.0:1800.0:-1
ipc-2014-optimal-tidybot-06.pddl,CRASHED:1619.13:1000000000.0:1800.0:-1
ipc-2014-optimal-tidybot-07.pddl,CRASHED:1624.95:1000000000.0:1800.0:-1
ipc-2014-optimal-tidybot-08.pddl,SAT:16.66:25.0:1800.0:-1
ipc-2014-optimal-tidybot-09.pddl,CRASHED:1557.42:1000000000.0:1800.0:-1
ipc-2014-optimal-tidybot-10.pddl,CRASHED:1558.85:1000000000.0:1800.0:-1
ipc-2014-optimal-tidybot-11.pddl,SAT:22.15:29.0:1800.0:-1
ipc-2014-optimal-tidybot-12.pddl,CRASHED:314.97:35.0:1800.0:-1
ipc-2014-optimal-tidybot-13.pddl,SAT:59.25:30.0:1800.0:-1
ipc-2014-optimal-tidybot-14.pddl,SAT:15.93:25.0:1800.0:-1
ipc-2014-optimal-tidybot-15.pddl,CRASHED:1624.15:1000000000.0:1800.0:-1
ipc-2014-optimal-tidybot-16.pddl,CRASHED:1617.55:1000000000.0:1800.0:-1
ipc-2014-optimal-tidybot-17.pddl,CRASHED:1621.98:1000000000.0:1800.0:-1
ipc-2014-optimal-tidybot-18.pddl,CRASHED:1621.59:1000000000.0:1800.0:-1
ipc-2014-optimal-tidybot-19.pddl,CRASHED:1616.56:1000000000.0:1800.0:-1
ipc-2014-optimal-tidybot-20.pddl,CRASHED:1630.37:1000000000.0:1800.0:-1
ipc-2014-optimal-transport-01.pddl,SAT:10.6195:148.0:1800.0:-1
ipc-2014-optimal-transport-02.pddl,SAT:33.7865:191.0:1800.0:-1
ipc-2014-optimal-transport-03.pddl,SAT:72.8524:300.0:1800.0:-1
ipc-2014-optimal-transport-04.pddl,CRASHED:1775.27:1000000000.0:1800.0:-1
ipc-2014-optimal-transport-05.pddl,CRASHED:1773.89:1000000000.0:1800.0:-1
ipc-2014-optimal-transport-06.pddl,CRASHED:1774.06:1000000000.0:1800.0:-1
ipc-2014-optimal-transport-07.pddl,SAT:70.5341:967.0:1800.0:-1
ipc-2014-optimal-transport-08.pddl,CRASHED:498.185:1173.0:1800.0:-1
ipc-2014-optimal-transport-09.pddl,CRASHED:1769.98:1000000000.0:1800.0:-1
ipc-2014-optimal-transport-10.pddl,CRASHED:1304.87:1000000000.0:1800.0:-1
ipc-2014-optimal-transport-11.pddl,CRASHED:1319.66:1000000000.0:1800.0:-1
ipc-2014-optimal-transport-12.pddl,CRASHED:58.27:1000000000.0:1800.0:-1
ipc-2014-optimal-transport-13.pddl,SAT:16.1918:594.0:1800.0:-1
ipc-2014-optimal-transport-14.pddl,SAT:311.798:526.0:1800.0:-1
ipc-2014-optimal-transport-15.pddl,CRASHED:58.8:1000000000.0:1800.0:-1
ipc-2014-optimal-transport-16.pddl,CRASHED:1294.43:1000000000.0:1800.0:-1
ipc-2014-optimal-transport-17.pddl,CRASHED:1290.82:1000000000.0:1800.0:-1
ipc-2014-optimal-transport-18.pddl,CRASHED:57.45:1000000000.0:1800.0:-1
ipc-2014-optimal-transport-19.pddl,CRASHED:1424.79:1000000000.0:1800.0:-1
ipc-2014-optimal-transport-20.pddl,CRASHED:1419.05:1000000000.0:1800.0:-1
ipc-2014-optimal-visitall-05-10.pddl,CRASHED:1779.0:1000000000.0:1800.0:-1
ipc-2014-optimal-visitall-05-05.pddl,SAT:3.20579:21.0:1800.0:-1
ipc-2014-optimal-visitall-05-06.pddl,SAT:5.08575:25.0:1800.0:-1
ipc-2014-optimal-visitall-05-07.pddl,SAT:29.4005:34.0:1800.0:-1
ipc-2014-optimal-visitall-05-08.pddl,CRASHED:611.904:43.0:1800.0:-1
ipc-2014-optimal-visitall-05-09.pddl,CRASHED:1771.7:1000000000.0:1800.0:-1
ipc-2014-optimal-visitall-01-10.pddl,SAT:201.021:99.0:1800.0:-1
ipc-2014-optimal-visitall-01-11.pddl,SAT:201.406:120.0:1800.0:-1
ipc-2014-optimal-visitall-01-12.pddl,SAT:245.454:143.0:1800.0:-1
ipc-2014-optimal-visitall-01-13.pddl,SAT:202.461:168.0:1800.0:-1
ipc-2014-optimal-visitall-01-14.pddl,CRASHED:1709.9:1000000000.0:1800.0:-1
ipc-2014-optimal-visitall-01-15.pddl,CRASHED:1771.25:1000000000.0:1800.0:-1
ipc-2014-optimal-visitall-01-16.pddl,CRASHED:1319.75:1000000000.0:1800.0:-1
ipc-2014-optimal-visitall-01-17.pddl,CRASHED:1771.08:1000000000.0:1800.0:-1
ipc-2014-optimal-visitall-01-18.pddl,CRASHED:1341.3:1000000000.0:1800.0:-1
ipc-2014-optimal-visitall-01-05.pddl,SAT:15.2554:24.0:1800.0:-1
ipc-2014-optimal-visitall-01-06.pddl,SAT:200.545:35.0:1800.0:-1
ipc-2014-optimal-visitall-01-07.pddl,SAT:200.391:48.0:1800.0:-1
ipc-2014-optimal-visitall-01-08.pddl,SAT:200.585:63.0:1800.0:-1
ipc-2014-optimal-visitall-01-09.pddl,SAT:201.121:80.0:1800.0:-1
