instance,ipc-2014-agile-siw
ipc-2014-agile-barman-p1-11-4-15.pddl,TIMEOUT:301.134:-1.0:300.0:-1
ipc-2014-agile-barman-p1-11-5-15.pddl,TIMEOUT:301.158:-1.0:300.0:-1
ipc-2014-agile-barman-p1-11-5-16.pddl,CRASHED:0.493924:1000000000.0:300.0:-1
ipc-2014-agile-barman-p2-10-4-13.pddl,TIMEOUT:301.131:-1.0:300.0:-1
ipc-2014-agile-barman-p2-11-4-15.pddl,TIMEOUT:301.078:-1.0:300.0:-1
ipc-2014-agile-barman-p2-11-5-15.pddl,TIMEOUT:301.116:-1.0:300.0:-1
ipc-2014-agile-barman-p2-11-5-16.pddl,CRASHED:0.52392:1000000000.0:300.0:-1
ipc-2014-agile-barman-p2-11-5-17.pddl,CRASHED:0.605907:1000000000.0:300.0:-1
ipc-2014-agile-barman-p3-10-4-13.pddl,TIMEOUT:301.063:-1.0:300.0:-1
ipc-2014-agile-barman-p3-11-4-15.pddl,TIMEOUT:301.064:-1.0:300.0:-1
ipc-2014-agile-barman-p3-11-5-15.pddl,TIMEOUT:301.124:-1.0:300.0:-1
ipc-2014-agile-barman-p3-11-5-16.pddl,CRASHED:0.490925:1000000000.0:300.0:-1
ipc-2014-agile-barman-p3-11-5-17.pddl,CRASHED:0.606907:1000000000.0:300.0:-1
ipc-2014-agile-barman-p4-11-4-14.pddl,TIMEOUT:301.081:-1.0:300.0:-1
ipc-2014-agile-barman-p4-11-4-15.pddl,TIMEOUT:301.144:-1.0:300.0:-1
ipc-2014-agile-barman-p4-11-5-15.pddl,TIMEOUT:301.119:-1.0:300.0:-1
ipc-2014-agile-barman-p5-10-4-13.pddl,TIMEOUT:301.055:-1.0:300.0:-1
ipc-2014-agile-barman-p5-11-4-15.pddl,TIMEOUT:301.127:-1.0:300.0:-1
ipc-2014-agile-barman-p5-11-5-15.pddl,TIMEOUT:301.094:-1.0:300.0:-1
ipc-2014-agile-barman-p5-11-5-16.pddl,CRASHED:0.529918:1000000000.0:300.0:-1
ipc-2014-agile-cavediving-01_easy.pddl,CRASHED:0.306952:1000000000.0:300.0:-1
ipc-2014-agile-cavediving-01.pddl,CRASHED:0.368943:1000000000.0:300.0:-1
ipc-2014-agile-cavediving-02_easy.pddl,CRASHED:0.32095:1000000000.0:300.0:-1
ipc-2014-agile-cavediving-03_easy.pddl,CRASHED:0.306953:1000000000.0:300.0:-1
ipc-2014-agile-cavediving-04_easy.pddl,CRASHED:0.319951:1000000000.0:300.0:-1
ipc-2014-agile-cavediving-05A_easy.pddl,CRASHED:0.224965:1000000000.0:300.0:-1
ipc-2014-agile-cavediving-06A_easy.pddl,CRASHED:0.225965:1000000000.0:300.0:-1
ipc-2014-agile-cavediving-07_easy.pddl,CRASHED:0.236963:1000000000.0:300.0:-1
ipc-2014-agile-cavediving-08_easy.pddl,CRASHED:0.231964:1000000000.0:300.0:-1
ipc-2014-agile-cavediving-09_easy.pddl,CRASHED:3.88841:1000000000.0:300.0:-1
ipc-2014-agile-cavediving-10_easy.pddl,CRASHED:4.13237:1000000000.0:300.0:-1
ipc-2014-agile-cavediving-11_easy.pddl,CRASHED:4.16737:1000000000.0:300.0:-1
ipc-2014-agile-cavediving-12_easy.pddl,CRASHED:4.04938:1000000000.0:300.0:-1
ipc-2014-agile-cavediving-13_easy.pddl,CRASHED:0.554915:1000000000.0:300.0:-1
ipc-2014-agile-cavediving-14_easy.pddl,CRASHED:0.512921:1000000000.0:300.0:-1
ipc-2014-agile-cavediving-15_easy.pddl,CRASHED:0.421935:1000000000.0:300.0:-1
ipc-2014-agile-cavediving-16_easy.pddl,CRASHED:0.540917:1000000000.0:300.0:-1
ipc-2014-agile-cavediving-18A_easy.pddl,CRASHED:0.040993:1000000000.0:300.0:-1
ipc-2014-agile-cavediving-18_easy.pddl,CRASHED:0.049992:1000000000.0:300.0:-1
ipc-2014-agile-cavediving-20A_easy.pddl,CRASHED:0.043992:1000000000.0:300.0:-1
ipc-2014-agile-childsnack-05-2.pddl,CRASHED:65.4421:1000000000.0:300.0:-1
ipc-2014-agile-childsnack-05.pddl,CRASHED:65.891:1000000000.0:300.0:-1
ipc-2014-agile-childsnack-06-2.pddl,CRASHED:217.939:1000000000.0:300.0:-1
ipc-2014-agile-childsnack-07-2.pddl,TIMEOUT:301.101:-1.0:300.0:-1
ipc-2014-agile-childsnack-08-2.pddl,TIMEOUT:301.056:-1.0:300.0:-1
ipc-2014-agile-childsnack-08.pddl,TIMEOUT:301.071:-1.0:300.0:-1
ipc-2014-agile-childsnack-09-2.pddl,TIMEOUT:301.088:-1.0:300.0:-1
ipc-2014-agile-childsnack-09.pddl,TIMEOUT:301.075:-1.0:300.0:-1
ipc-2014-agile-childsnack-10-2.pddl,TIMEOUT:301.026:-1.0:300.0:-1
ipc-2014-agile-childsnack-10.pddl,TIMEOUT:301.071:-1.0:300.0:-1
ipc-2014-agile-childsnack-11-2.pddl,TIMEOUT:301.072:-1.0:300.0:-1
ipc-2014-agile-childsnack-11.pddl,TIMEOUT:301.064:-1.0:300.0:-1
ipc-2014-agile-childsnack-12.pddl,TIMEOUT:301.096:-1.0:300.0:-1
ipc-2014-agile-childsnack-13-2.pddl,TIMEOUT:301.11:-1.0:300.0:-1
ipc-2014-agile-childsnack-13.pddl,TIMEOUT:301.08:-1.0:300.0:-1
ipc-2014-agile-childsnack-14.pddl,TIMEOUT:301.108:-1.0:300.0:-1
ipc-2014-agile-childsnack-15-2.pddl,TIMEOUT:301.104:-1.0:300.0:-1
ipc-2014-agile-childsnack-16-2.pddl,TIMEOUT:301.124:-1.0:300.0:-1
ipc-2014-agile-childsnack-19-2.pddl,TIMEOUT:301.097:-1.0:300.0:-1
ipc-2014-agile-childsnack-19.pddl,TIMEOUT:301.074:-1.0:300.0:-1
ipc-2014-agile-citycar-p3-2-2-0-1.pddl,SAT:12.2051:88.0:300.0:-1
ipc-2014-agile-citycar-p3-3-2-0-1.pddl,SAT:18.8191:142.0:300.0:-1
ipc-2014-agile-citycar-p3-4-2-0-1.pddl,SAT:15.2937:106.0:300.0:-1
ipc-2014-agile-citycar-p3-5-2-0-1.pddl,SAT:21.4227:150.0:300.0:-1
ipc-2014-agile-citycar-p3-5-2-0-2.pddl,SAT:19.0601:90.0:300.0:-1
ipc-2014-agile-citycar-p4-2-2-0-1.pddl,SAT:281.36:152.0:300.0:-1
ipc-2014-agile-citycar-p4-2-3-0-1.pddl,SAT:290.095:142.0:300.0:-1
ipc-2014-agile-citycar-p4-2-3-0-2.pddl,SAT:279.698:122.0:300.0:-1
ipc-2014-agile-citycar-p4-3-2-0-1.pddl,TIMEOUT:301.049:-1.0:300.0:-1
ipc-2014-agile-citycar-p4-3-2-0-2.pddl,TIMEOUT:301.086:-1.0:300.0:-1
ipc-2014-agile-citycar-p4-3-3-0-1.pddl,TIMEOUT:301.081:-1.0:300.0:-1
ipc-2014-agile-citycar-p4-3-3-0-2.pddl,TIMEOUT:301.094:-1.0:300.0:-1
ipc-2014-agile-citycar-p4-4-2-0-1.pddl,TIMEOUT:301.053:-1.0:300.0:-1
ipc-2014-agile-citycar-p4-4-2-0-2.pddl,TIMEOUT:301.081:-1.0:300.0:-1
ipc-2014-agile-citycar-p4-4-3-0-1.pddl,TIMEOUT:301.118:-1.0:300.0:-1
ipc-2014-agile-citycar-p4-4-3-0-2.pddl,TIMEOUT:301.105:-1.0:300.0:-1
ipc-2014-agile-citycar-p4-5-2-0-1.pddl,TIMEOUT:301.089:-1.0:300.0:-1
ipc-2014-agile-citycar-p4-5-2-0-2.pddl,TIMEOUT:301.053:-1.0:300.0:-1
ipc-2014-agile-citycar-p4-5-3-0-1.pddl,TIMEOUT:301.103:-1.0:300.0:-1
ipc-2014-agile-citycar-p4-5-3-0-2.pddl,TIMEOUT:301.047:-1.0:300.0:-1
ipc-2014-agile-floortile-p01-4-3-2.pddl,CRASHED:1.42078:1000000000.0:300.0:-1
ipc-2014-agile-floortile-p01-5-4-2.pddl,CRASHED:0.315951:1000000000.0:300.0:-1
ipc-2014-agile-floortile-p01-5-5-2.pddl,CRASHED:1.24081:1000000000.0:300.0:-1
ipc-2014-agile-floortile-p01-6-4-2.pddl,CRASHED:1.25081:1000000000.0:300.0:-1
ipc-2014-agile-floortile-p01-6-5-2.pddl,CRASHED:5.87111:1000000000.0:300.0:-1
ipc-2014-agile-floortile-p01-6-5-3.pddl,CRASHED:40.4329:1000000000.0:300.0:-1
ipc-2014-agile-floortile-p02-5-4-2.pddl,CRASHED:0.32295:1000000000.0:300.0:-1
ipc-2014-agile-floortile-p02-6-4-2.pddl,CRASHED:2.55861:1000000000.0:300.0:-1
ipc-2014-agile-floortile-p02-6-5-2.pddl,CRASHED:1.24881:1000000000.0:300.0:-1
ipc-2014-agile-floortile-p02-6-5-3.pddl,CRASHED:9.8655:1000000000.0:300.0:-1
ipc-2014-agile-floortile-p03-6-4-2.pddl,CRASHED:0.855868:1000000000.0:300.0:-1
ipc-2014-agile-floortile-p03-6-5-2.pddl,CRASHED:6.60999:1000000000.0:300.0:-1
ipc-2014-agile-floortile-p03-6-5-3.pddl,CRASHED:5.47817:1000000000.0:300.0:-1
ipc-2014-agile-floortile-p04-5-4-2.pddl,CRASHED:0.234963:1000000000.0:300.0:-1
ipc-2014-agile-floortile-p04-5-5-2.pddl,CRASHED:0.809876:1000000000.0:300.0:-1
ipc-2014-agile-floortile-p04-6-5-2.pddl,CRASHED:1.88271:1000000000.0:300.0:-1
ipc-2014-agile-floortile-p04-6-5-3.pddl,CRASHED:10.5224:1000000000.0:300.0:-1
ipc-2014-agile-floortile-p05-4-3-2.pddl,CRASHED:0.604908:1000000000.0:300.0:-1
ipc-2014-agile-floortile-p05-6-5-2.pddl,CRASHED:3.33749:1000000000.0:300.0:-1
ipc-2014-agile-floortile-p05-6-5-3.pddl,CRASHED:7.08792:1000000000.0:300.0:-1
ipc-2014-agile-ged-d-10-1.pddl,CRASHED:2.44463:1000000000.0:300.0:-1
ipc-2014-agile-ged-d-10-2.pddl,CRASHED:2.46562:1000000000.0:300.0:-1
ipc-2014-agile-ged-d-10-3.pddl,CRASHED:3.24651:1000000000.0:300.0:-1
ipc-2014-agile-ged-d-10-4.pddl,CRASHED:2.58161:1000000000.0:300.0:-1
ipc-2014-agile-ged-d-10-5.pddl,CRASHED:7.2579:1000000000.0:300.0:-1
ipc-2014-agile-ged-d-10-6.pddl,CRASHED:6.76297:1000000000.0:300.0:-1
ipc-2014-agile-ged-d-11-1.pddl,CRASHED:3.14552:1000000000.0:300.0:-1
ipc-2014-agile-ged-d-11-3.pddl,CRASHED:3.2655:1000000000.0:300.0:-1
ipc-2014-agile-ged-d-11-5.pddl,CRASHED:4.84326:1000000000.0:300.0:-1
ipc-2014-agile-ged-d-11-6.pddl,CRASHED:4.07338:1000000000.0:300.0:-1
ipc-2014-agile-ged-d-12-11.pddl,CRASHED:3.9674:1000000000.0:300.0:-1
ipc-2014-agile-ged-d-12-2.pddl,CRASHED:10.0495:1000000000.0:300.0:-1
ipc-2014-agile-ged-d-12-3.pddl,CRASHED:11.8572:1000000000.0:300.0:-1
ipc-2014-agile-ged-d-12-5.pddl,CRASHED:22.3916:1000000000.0:300.0:-1
ipc-2014-agile-ged-d-12-6.pddl,CRASHED:10.3564:1000000000.0:300.0:-1
ipc-2014-agile-ged-d-12-7.pddl,CRASHED:13.5339:1000000000.0:300.0:-1
ipc-2014-agile-ged-d-12-8.pddl,CRASHED:19.2581:1000000000.0:300.0:-1
ipc-2014-agile-ged-d-12-9.pddl,CRASHED:19.468:1000000000.0:300.0:-1
ipc-2014-agile-ged-d-3-6.pddl,CRASHED:3.05853:1000000000.0:300.0:-1
ipc-2014-agile-ged-d-9-5.pddl,SAT:2.05369:20.0:300.0:-1
ipc-2014-agile-hiking-3-4-3.pddl,SAT:0.38694:13.0:300.0:-1
ipc-2014-agile-hiking-3-4-4.pddl,SAT:145.867:27.0:300.0:-1
ipc-2014-agile-hiking-3-4-5.pddl,TIMEOUT:301.09:-1.0:300.0:-1
ipc-2014-agile-hiking-3-4-6.pddl,TIMEOUT:301.108:-1.0:300.0:-1
ipc-2014-agile-hiking-3-4-7.pddl,TIMEOUT:301.043:-1.0:300.0:-1
ipc-2014-agile-hiking-3-4-8.pddl,TIMEOUT:301.059:-1.0:300.0:-1
ipc-2014-agile-hiking-3-4-9.pddl,TIMEOUT:301.079:-1.0:300.0:-1
ipc-2014-agile-hiking-4-5-3.pddl,SAT:2.05669:15.0:300.0:-1
ipc-2014-agile-hiking-4-5-4.pddl,TIMEOUT:301.117:-1.0:300.0:-1
ipc-2014-agile-hiking-4-5-5.pddl,TIMEOUT:301.084:-1.0:300.0:-1
ipc-2014-agile-hiking-4-5-6.pddl,TIMEOUT:301.056:-1.0:300.0:-1
ipc-2014-agile-hiking-4-5-7.pddl,TIMEOUT:301.077:-1.0:300.0:-1
ipc-2014-agile-hiking-4-5-8.pddl,TIMEOUT:301.094:-1.0:300.0:-1
ipc-2014-agile-hiking-4-5-9.pddl,TIMEOUT:301.135:-1.0:300.0:-1
ipc-2014-agile-hiking-5-6-3.pddl,SAT:10.8813:17.0:300.0:-1
ipc-2014-agile-hiking-5-6-4.pddl,TIMEOUT:301.067:-1.0:300.0:-1
ipc-2014-agile-hiking-5-6-5.pddl,TIMEOUT:301.135:-1.0:300.0:-1
ipc-2014-agile-hiking-5-6-6.pddl,TIMEOUT:301.1:-1.0:300.0:-1
ipc-2014-agile-hiking-5-6-7.pddl,TIMEOUT:301.134:-1.0:300.0:-1
ipc-2014-agile-hiking-5-6-8.pddl,TIMEOUT:301.198:-1.0:300.0:-1
ipc-2014-agile-maintenance-1.3.060.180.5-000.pddl,CRASHED:0.202968:1000000000.0:300.0:-1
ipc-2014-agile-maintenance-1.3.060.180.5-001.pddl,CRASHED:32.3451:1000000000.0:300.0:-1
ipc-2014-agile-maintenance-1.3.060.180.5-002.pddl,CRASHED:2.25866:1000000000.0:300.0:-1
ipc-2014-agile-maintenance-1.3.100.300.5-000.pddl,CRASHED:282.328:1000000000.0:300.0:-1
ipc-2014-agile-maintenance-1.3.100.300.5-001.pddl,CRASHED:226.13:1000000000.0:300.0:-1
ipc-2014-agile-maintenance-1.3.100.300.7-000.pddl,CRASHED:153.379:1000000000.0:300.0:-1
ipc-2014-agile-maintenance-1.3.100.300.7-001.pddl,CRASHED:71.8431:1000000000.0:300.0:-1
ipc-2014-agile-maintenance-1.3.100.300.7-002.pddl,TIMEOUT:301.155:-1.0:300.0:-1
ipc-2014-agile-maintenance-1.3.150.500.6-001.pddl,CRASHED:6.73798:1000000000.0:300.0:-1
ipc-2014-agile-maintenance-1.3.200.500.5-001.pddl,CRASHED:10.4744:1000000000.0:300.0:-1
ipc-2014-agile-maintenance-1.3.200.500.5-002.pddl,CRASHED:9.62054:1000000000.0:300.0:-1
ipc-2014-agile-maintenance-1.3.200.700.7-000.pddl,CRASHED:3.22651:1000000000.0:300.0:-1
ipc-2014-agile-maintenance-1.3.200.700.7-001.pddl,CRASHED:3.21151:1000000000.0:300.0:-1
ipc-2014-agile-maintenance-1.3.200.700.7-002.pddl,CRASHED:3.20851:1000000000.0:300.0:-1
ipc-2014-agile-maintenance-1.3.200.900.5-000.pddl,CRASHED:2.97155:1000000000.0:300.0:-1
ipc-2014-agile-maintenance-1.3.200.900.5-001.pddl,CRASHED:2.95555:1000000000.0:300.0:-1
ipc-2014-agile-maintenance-1.3.200.900.5-002.pddl,CRASHED:2.96755:1000000000.0:300.0:-1
ipc-2014-agile-maintenance-1.3.200.900.8-000.pddl,CRASHED:3.02354:1000000000.0:300.0:-1
ipc-2014-agile-maintenance-1.3.200.900.8-001.pddl,CRASHED:3.04354:1000000000.0:300.0:-1
ipc-2014-agile-maintenance-1.3.200.900.8-002.pddl,CRASHED:3.02254:1000000000.0:300.0:-1
ipc-2014-agile-openstacks-p130_2.pddl,CRASHED:168.999:1000000000.0:300.0:-1
ipc-2014-agile-openstacks-p130_3.pddl,CRASHED:48.0837:1000000000.0:300.0:-1
ipc-2014-agile-openstacks-p150_2.pddl,TIMEOUT:301.138:-1.0:300.0:-1
ipc-2014-agile-openstacks-p150_3.pddl,CRASHED:83.6473:1000000000.0:300.0:-1
ipc-2014-agile-openstacks-p170_1.pddl,TIMEOUT:301.096:-1.0:300.0:-1
ipc-2014-agile-openstacks-p170_2.pddl,TIMEOUT:301.053:-1.0:300.0:-1
ipc-2014-agile-openstacks-p170_3.pddl,CRASHED:131.25:1000000000.0:300.0:-1
ipc-2014-agile-openstacks-p190_1.pddl,TIMEOUT:301.12:-1.0:300.0:-1
ipc-2014-agile-openstacks-p190_2.pddl,TIMEOUT:301.079:-1.0:300.0:-1
ipc-2014-agile-openstacks-p190_3.pddl,CRASHED:184.246:1000000000.0:300.0:-1
ipc-2014-agile-openstacks-p210_1.pddl,TIMEOUT:301.114:-1.0:300.0:-1
ipc-2014-agile-openstacks-p210_2.pddl,TIMEOUT:301.102:-1.0:300.0:-1
ipc-2014-agile-openstacks-p230_1.pddl,TIMEOUT:301.095:-1.0:300.0:-1
ipc-2014-agile-openstacks-p230_2.pddl,TIMEOUT:301.084:-1.0:300.0:-1
ipc-2014-agile-openstacks-p250_1.pddl,TIMEOUT:301.169:-1.0:300.0:-1
ipc-2014-agile-openstacks-p250_2.pddl,TIMEOUT:301.154:-1.0:300.0:-1
ipc-2014-agile-openstacks-p270_1.pddl,TIMEOUT:301.156:-1.0:300.0:-1
ipc-2014-agile-openstacks-p270_2.pddl,TIMEOUT:301.13:-1.0:300.0:-1
ipc-2014-agile-openstacks-p290_1.pddl,TIMEOUT:301.239:-1.0:300.0:-1
ipc-2014-agile-openstacks-p290_2.pddl,TIMEOUT:301.226:-1.0:300.0:-1
ipc-2014-agile-parking-28_2.pddl,SAT:22.1496:52.0:300.0:-1
ipc-2014-agile-parking-28_3.pddl,SAT:21.6787:53.0:300.0:-1
ipc-2014-agile-parking-30_1.pddl,SAT:30.4754:50.0:300.0:-1
ipc-2014-agile-parking-30_2.pddl,SAT:31.4562:57.0:300.0:-1
ipc-2014-agile-parking-30_3.pddl,SAT:32.1081:56.0:300.0:-1
ipc-2014-agile-parking-32_1.pddl,SAT:46.8389:60.0:300.0:-1
ipc-2014-agile-parking-32_2.pddl,SAT:43.8783:61.0:300.0:-1
ipc-2014-agile-parking-32_3.pddl,SAT:44.2303:63.0:300.0:-1
ipc-2014-agile-parking-34_1.pddl,SAT:64.1552:69.0:300.0:-1
ipc-2014-agile-parking-34_2.pddl,SAT:62.3305:66.0:300.0:-1
ipc-2014-agile-parking-34_3.pddl,SAT:64.3442:70.0:300.0:-1
ipc-2014-agile-parking-36_1.pddl,SAT:88.1246:74.0:300.0:-1
ipc-2014-agile-parking-36_2.pddl,SAT:91.5561:75.0:300.0:-1
ipc-2014-agile-parking-36_3.pddl,SAT:85.439:66.0:300.0:-1
ipc-2014-agile-parking-38_1.pddl,SAT:113.485:73.0:300.0:-1
ipc-2014-agile-parking-38_2.pddl,SAT:116.334:71.0:300.0:-1
ipc-2014-agile-parking-38_3.pddl,SAT:115.788:75.0:300.0:-1
ipc-2014-agile-parking-40_1.pddl,SAT:181.4:77.0:300.0:-1
ipc-2014-agile-parking-40_2.pddl,SAT:193.127:79.0:300.0:-1
ipc-2014-agile-parking-40_3.pddl,SAT:186.063:83.0:300.0:-1
ipc-2014-agile-tetris-020.pddl,SAT:109.938:54.0:300.0:-1
ipc-2014-agile-tetris-021.pddl,TIMEOUT:301.026:-1.0:300.0:-1
ipc-2014-agile-tetris-022.pddl,TIMEOUT:301.033:-1.0:300.0:-1
ipc-2014-agile-tetris-023.pddl,TIMEOUT:301.045:-1.0:300.0:-1
ipc-2014-agile-tetris-024.pddl,TIMEOUT:301.077:-1.0:300.0:-1
ipc-2014-agile-tetris-025.pddl,TIMEOUT:301.061:-1.0:300.0:-1
ipc-2014-agile-tetris-026.pddl,TIMEOUT:301.044:-1.0:300.0:-1
ipc-2014-agile-tetris-027.pddl,TIMEOUT:301.098:-1.0:300.0:-1
ipc-2014-agile-tetris-028.pddl,TIMEOUT:301.073:-1.0:300.0:-1
ipc-2014-agile-tetris-029.pddl,TIMEOUT:301.086:-1.0:300.0:-1
ipc-2014-agile-tetris-031.pddl,TIMEOUT:301.065:-1.0:300.0:-1
ipc-2014-agile-tetris-032.pddl,TIMEOUT:301.012:-1.0:300.0:-1
ipc-2014-agile-tetris-033.pddl,TIMEOUT:301.067:-1.0:300.0:-1
ipc-2014-agile-tetris-034.pddl,TIMEOUT:301.021:-1.0:300.0:-1
ipc-2014-agile-tetris-035.pddl,TIMEOUT:301.093:-1.0:300.0:-1
ipc-2014-agile-tetris-036.pddl,TIMEOUT:301.083:-1.0:300.0:-1
ipc-2014-agile-tetris-037.pddl,TIMEOUT:301.095:-1.0:300.0:-1
ipc-2014-agile-tetris-038.pddl,TIMEOUT:301.023:-1.0:300.0:-1
ipc-2014-agile-tetris-039.pddl,TIMEOUT:301.057:-1.0:300.0:-1
ipc-2014-agile-tetris-040.pddl,TIMEOUT:301.05:-1.0:300.0:-1
ipc-2014-agile-thoughtful-bootstrap-typed-01.pddl,SAT:0.101984:33.0:300.0:-1
ipc-2014-agile-thoughtful-bootstrap-typed-02.pddl,SAT:0.090985:28.0:300.0:-1
ipc-2014-agile-thoughtful-bootstrap-typed-03.pddl,SAT:0.125979:35.0:300.0:-1
ipc-2014-agile-thoughtful-bootstrap-typed-04.pddl,SAT:0.110982:31.0:300.0:-1
ipc-2014-agile-thoughtful-bootstrap-typed-05.pddl,SAT:0.111982:33.0:300.0:-1
ipc-2014-agile-thoughtful-p11_6_53-typed.pddl,SAT:4.19736:115.0:300.0:-1
ipc-2014-agile-thoughtful-p11_6_59-typed.pddl,SAT:3.16952:111.0:300.0:-1
ipc-2014-agile-thoughtful-p11_6_62-typed.pddl,SAT:3.46247:106.0:300.0:-1
ipc-2014-agile-thoughtful-p13_7_78-typed.pddl,SAT:5.9431:131.0:300.0:-1
ipc-2014-agile-thoughtful-p13_7_79-typed.pddl,SAT:5.05723:126.0:300.0:-1
ipc-2014-agile-thoughtful-p13_7_86-typed.pddl,SAT:5.48317:144.0:300.0:-1
ipc-2014-agile-thoughtful-target-typed-20.pddl,SAT:5.22321:109.0:300.0:-1
ipc-2014-agile-thoughtful-target-typed-21.pddl,CRASHED:6.42002:1000000000.0:300.0:-1
ipc-2014-agile-thoughtful-target-typed-22.pddl,SAT:5.53716:151.0:300.0:-1
ipc-2014-agile-thoughtful-target-typed-23.pddl,SAT:6.34604:136.0:300.0:-1
ipc-2014-agile-thoughtful-target-typed-24.pddl,SAT:5.79712:139.0:300.0:-1
ipc-2014-agile-thoughtful-target-typed-25.pddl,SAT:6.18606:113.0:300.0:-1
ipc-2014-agile-thoughtful-target-typed-26.pddl,SAT:5.16721:135.0:300.0:-1
ipc-2014-agile-thoughtful-target-typed-27.pddl,SAT:5.03123:112.0:300.0:-1
ipc-2014-agile-thoughtful-target-typed-28.pddl,CRASHED:4.75128:1000000000.0:300.0:-1
ipc-2014-agile-transport-01.pddl,SAT:51.6691:2274.0:300.0:-1
ipc-2014-agile-transport-02.pddl,SAT:244.624:3144.0:300.0:-1
ipc-2014-agile-transport-03.pddl,SAT:140.258:2783.0:300.0:-1
ipc-2014-agile-transport-04.pddl,TIMEOUT:301.115:-1.0:300.0:-1
ipc-2014-agile-transport-05.pddl,TIMEOUT:301.112:-1.0:300.0:-1
ipc-2014-agile-transport-06.pddl,TIMEOUT:301.121:-1.0:300.0:-1
ipc-2014-agile-transport-07.pddl,TIMEOUT:301.201:-1.0:300.0:-1
ipc-2014-agile-transport-08.pddl,TIMEOUT:301.225:-1.0:300.0:-1
ipc-2014-agile-transport-09.pddl,TIMEOUT:301.142:-1.0:300.0:-1
ipc-2014-agile-transport-10.pddl,TIMEOUT:301.18:-1.0:300.0:-1
ipc-2014-agile-transport-11.pddl,SAT:278.073:2069.0:300.0:-1
ipc-2014-agile-transport-12.pddl,SAT:269.462:2936.0:300.0:-1
ipc-2014-agile-transport-13.pddl,SAT:99.5549:2178.0:300.0:-1
ipc-2014-agile-transport-14.pddl,TIMEOUT:301.206:-1.0:300.0:-1
ipc-2014-agile-transport-15.pddl,TIMEOUT:301.189:-1.0:300.0:-1
ipc-2014-agile-transport-16.pddl,TIMEOUT:301.164:-1.0:300.0:-1
ipc-2014-agile-transport-17.pddl,TIMEOUT:301.215:-1.0:300.0:-1
ipc-2014-agile-transport-18.pddl,TIMEOUT:301.184:-1.0:300.0:-1
ipc-2014-agile-transport-19.pddl,TIMEOUT:301.183:-1.0:300.0:-1
ipc-2014-agile-transport-20.pddl,TIMEOUT:301.208:-1.0:300.0:-1
ipc-2014-agile-visitall-30.pddl,SAT:11.1073:919.0:300.0:-1
ipc-2014-agile-visitall-31.pddl,SAT:12.7501:1004.0:300.0:-1
ipc-2014-agile-visitall-32.pddl,SAT:15.4586:1046.0:300.0:-1
ipc-2014-agile-visitall-33.pddl,SAT:18.3202:1136.0:300.0:-1
ipc-2014-agile-visitall-50.pddl,SAT:183.983:2534.0:300.0:-1
ipc-2014-agile-visitall-51.pddl,SAT:205.782:2674.0:300.0:-1
ipc-2014-agile-visitall-52.pddl,SAT:228.3:2741.0:300.0:-1
ipc-2014-agile-visitall-53.pddl,SAT:254.736:2886.0:300.0:-1
ipc-2014-agile-visitall-54.pddl,SAT:283.141:2953.0:300.0:-1
ipc-2014-agile-visitall-55.pddl,TIMEOUT:301.081:-1.0:300.0:-1
ipc-2014-agile-visitall-56.pddl,TIMEOUT:301.099:-1.0:300.0:-1
ipc-2014-agile-visitall-57.pddl,TIMEOUT:301.083:-1.0:300.0:-1
ipc-2014-agile-visitall-58.pddl,TIMEOUT:301.163:-1.0:300.0:-1
ipc-2014-agile-visitall-59.pddl,TIMEOUT:301.123:-1.0:300.0:-1
ipc-2014-agile-visitall-60.pddl,TIMEOUT:301.124:-1.0:300.0:-1
ipc-2014-agile-visitall-61.pddl,TIMEOUT:301.102:-1.0:300.0:-1
ipc-2014-agile-visitall-62.pddl,TIMEOUT:301.135:-1.0:300.0:-1
ipc-2014-agile-visitall-63.pddl,TIMEOUT:301.106:-1.0:300.0:-1
ipc-2014-agile-visitall-64.pddl,TIMEOUT:301.1:-1.0:300.0:-1
ipc-2014-agile-visitall-65.pddl,TIMEOUT:301.108:-1.0:300.0:-1
