instance,ipc-2014-agile-yahsp3
ipc-2014-agile-barman-p1-11-4-15.pddl,TIMEOUT:301.119:-1.0:300.0:-1
ipc-2014-agile-barman-p1-11-5-15.pddl,TIMEOUT:301.058:-1.0:300.0:-1
ipc-2014-agile-barman-p1-11-5-16.pddl,TIMEOUT:301.072:-1.0:300.0:-1
ipc-2014-agile-barman-p2-10-4-13.pddl,TIMEOUT:301.065:-1.0:300.0:-1
ipc-2014-agile-barman-p2-11-4-15.pddl,TIMEOUT:301.133:-1.0:300.0:-1
ipc-2014-agile-barman-p2-11-5-15.pddl,TIMEOUT:301.086:-1.0:300.0:-1
ipc-2014-agile-barman-p2-11-5-16.pddl,TIMEOUT:301.131:-1.0:300.0:-1
ipc-2014-agile-barman-p2-11-5-17.pddl,TIMEOUT:301.115:-1.0:300.0:-1
ipc-2014-agile-barman-p3-10-4-13.pddl,TIMEOUT:301.103:-1.0:300.0:-1
ipc-2014-agile-barman-p3-11-4-15.pddl,TIMEOUT:301.071:-1.0:300.0:-1
ipc-2014-agile-barman-p3-11-5-15.pddl,SAT:104.193:377.0:300.0:-1
ipc-2014-agile-barman-p3-11-5-16.pddl,TIMEOUT:301.033:-1.0:300.0:-1
ipc-2014-agile-barman-p3-11-5-17.pddl,TIMEOUT:301.024:-1.0:300.0:-1
ipc-2014-agile-barman-p4-11-4-14.pddl,TIMEOUT:301.035:-1.0:300.0:-1
ipc-2014-agile-barman-p4-11-4-15.pddl,TIMEOUT:301.035:-1.0:300.0:-1
ipc-2014-agile-barman-p4-11-5-15.pddl,TIMEOUT:301.084:-1.0:300.0:-1
ipc-2014-agile-barman-p5-10-4-13.pddl,TIMEOUT:301.064:-1.0:300.0:-1
ipc-2014-agile-barman-p5-11-4-15.pddl,TIMEOUT:301.04:-1.0:300.0:-1
ipc-2014-agile-barman-p5-11-5-15.pddl,TIMEOUT:301.035:-1.0:300.0:-1
ipc-2014-agile-barman-p5-11-5-16.pddl,TIMEOUT:301.103:-1.0:300.0:-1
ipc-2014-agile-cavediving-01_easy.pddl,CRASHED:0.007998:1000000000.0:300.0:-1
ipc-2014-agile-cavediving-01.pddl,CRASHED:0.008997:1000000000.0:300.0:-1
ipc-2014-agile-cavediving-02_easy.pddl,CRASHED:0.006998:1000000000.0:300.0:-1
ipc-2014-agile-cavediving-03_easy.pddl,CRASHED:0.006998:1000000000.0:300.0:-1
ipc-2014-agile-cavediving-04_easy.pddl,CRASHED:0.006998:1000000000.0:300.0:-1
ipc-2014-agile-cavediving-05A_easy.pddl,CRASHED:0.007998:1000000000.0:300.0:-1
ipc-2014-agile-cavediving-06A_easy.pddl,CRASHED:0.006998:1000000000.0:300.0:-1
ipc-2014-agile-cavediving-07_easy.pddl,CRASHED:0.006998:1000000000.0:300.0:-1
ipc-2014-agile-cavediving-08_easy.pddl,CRASHED:0.007998:1000000000.0:300.0:-1
ipc-2014-agile-cavediving-09_easy.pddl,CRASHED:0.006998:1000000000.0:300.0:-1
ipc-2014-agile-cavediving-10_easy.pddl,CRASHED:0.006998:1000000000.0:300.0:-1
ipc-2014-agile-cavediving-11_easy.pddl,CRASHED:0.006998:1000000000.0:300.0:-1
ipc-2014-agile-cavediving-12_easy.pddl,CRASHED:0.007998:1000000000.0:300.0:-1
ipc-2014-agile-cavediving-13_easy.pddl,CRASHED:0.006998:1000000000.0:300.0:-1
ipc-2014-agile-cavediving-14_easy.pddl,CRASHED:0.006998:1000000000.0:300.0:-1
ipc-2014-agile-cavediving-15_easy.pddl,CRASHED:0.006998:1000000000.0:300.0:-1
ipc-2014-agile-cavediving-16_easy.pddl,CRASHED:0.007997:1000000000.0:300.0:-1
ipc-2014-agile-cavediving-18A_easy.pddl,CRASHED:0.006998:1000000000.0:300.0:-1
ipc-2014-agile-cavediving-18_easy.pddl,CRASHED:0.006998:1000000000.0:300.0:-1
ipc-2014-agile-cavediving-20A_easy.pddl,CRASHED:0.006998:1000000000.0:300.0:-1
ipc-2014-agile-childsnack-05-2.pddl,TIMEOUT:301.181:-1.0:300.0:-1
ipc-2014-agile-childsnack-05.pddl,TIMEOUT:301.154:-1.0:300.0:-1
ipc-2014-agile-childsnack-06-2.pddl,TIMEOUT:301.093:-1.0:300.0:-1
ipc-2014-agile-childsnack-07-2.pddl,TIMEOUT:301.137:-1.0:300.0:-1
ipc-2014-agile-childsnack-08-2.pddl,TIMEOUT:301.119:-1.0:300.0:-1
ipc-2014-agile-childsnack-08.pddl,TIMEOUT:301.084:-1.0:300.0:-1
ipc-2014-agile-childsnack-09-2.pddl,TIMEOUT:301.201:-1.0:300.0:-1
ipc-2014-agile-childsnack-09.pddl,TIMEOUT:301.256:-1.0:300.0:-1
ipc-2014-agile-childsnack-10-2.pddl,TIMEOUT:301.122:-1.0:300.0:-1
ipc-2014-agile-childsnack-10.pddl,TIMEOUT:301.277:-1.0:300.0:-1
ipc-2014-agile-childsnack-11-2.pddl,TIMEOUT:301.127:-1.0:300.0:-1
ipc-2014-agile-childsnack-11.pddl,TIMEOUT:301.322:-1.0:300.0:-1
ipc-2014-agile-childsnack-12.pddl,TIMEOUT:301.166:-1.0:300.0:-1
ipc-2014-agile-childsnack-13-2.pddl,TIMEOUT:301.37:-1.0:300.0:-1
ipc-2014-agile-childsnack-13.pddl,TIMEOUT:301.305:-1.0:300.0:-1
ipc-2014-agile-childsnack-14.pddl,TIMEOUT:301.361:-1.0:300.0:-1
ipc-2014-agile-childsnack-15-2.pddl,TIMEOUT:301.131:-1.0:300.0:-1
ipc-2014-agile-childsnack-16-2.pddl,TIMEOUT:301.167:-1.0:300.0:-1
ipc-2014-agile-childsnack-19-2.pddl,TIMEOUT:301.182:-1.0:300.0:-1
ipc-2014-agile-childsnack-19.pddl,TIMEOUT:301.187:-1.0:300.0:-1
ipc-2014-agile-citycar-p3-2-2-0-1.pddl,CRASHED:0.007998:1000000000.0:300.0:-1
ipc-2014-agile-citycar-p3-3-2-0-1.pddl,CRASHED:0.006998:1000000000.0:300.0:-1
ipc-2014-agile-citycar-p3-4-2-0-1.pddl,CRASHED:0.008997:1000000000.0:300.0:-1
ipc-2014-agile-citycar-p3-5-2-0-1.pddl,CRASHED:0.007998:1000000000.0:300.0:-1
ipc-2014-agile-citycar-p3-5-2-0-2.pddl,CRASHED:0.006998:1000000000.0:300.0:-1
ipc-2014-agile-citycar-p4-2-2-0-1.pddl,CRASHED:0.007998:1000000000.0:300.0:-1
ipc-2014-agile-citycar-p4-2-3-0-1.pddl,CRASHED:0.006998:1000000000.0:300.0:-1
ipc-2014-agile-citycar-p4-2-3-0-2.pddl,CRASHED:0.007998:1000000000.0:300.0:-1
ipc-2014-agile-citycar-p4-3-2-0-1.pddl,CRASHED:0.006998:1000000000.0:300.0:-1
ipc-2014-agile-citycar-p4-3-2-0-2.pddl,CRASHED:0.007997:1000000000.0:300.0:-1
ipc-2014-agile-citycar-p4-3-3-0-1.pddl,CRASHED:0.006998:1000000000.0:300.0:-1
ipc-2014-agile-citycar-p4-3-3-0-2.pddl,CRASHED:0.006998:1000000000.0:300.0:-1
ipc-2014-agile-citycar-p4-4-2-0-1.pddl,CRASHED:0.007998:1000000000.0:300.0:-1
ipc-2014-agile-citycar-p4-4-2-0-2.pddl,CRASHED:0.006998:1000000000.0:300.0:-1
ipc-2014-agile-citycar-p4-4-3-0-1.pddl,CRASHED:0.006998:1000000000.0:300.0:-1
ipc-2014-agile-citycar-p4-4-3-0-2.pddl,CRASHED:0.006998:1000000000.0:300.0:-1
ipc-2014-agile-citycar-p4-5-2-0-1.pddl,CRASHED:0.007998:1000000000.0:300.0:-1
ipc-2014-agile-citycar-p4-5-2-0-2.pddl,CRASHED:0.006998:1000000000.0:300.0:-1
ipc-2014-agile-citycar-p4-5-3-0-1.pddl,CRASHED:0.006998:1000000000.0:300.0:-1
ipc-2014-agile-citycar-p4-5-3-0-2.pddl,CRASHED:0.006998:1000000000.0:300.0:-1
ipc-2014-agile-floortile-p01-4-3-2.pddl,SAT:27.0949:107.0:300.0:-1
ipc-2014-agile-floortile-p01-5-4-2.pddl,TIMEOUT:301.175:-1.0:300.0:-1
ipc-2014-agile-floortile-p01-5-5-2.pddl,TIMEOUT:301.203:-1.0:300.0:-1
ipc-2014-agile-floortile-p01-6-4-2.pddl,TIMEOUT:301.212:-1.0:300.0:-1
ipc-2014-agile-floortile-p01-6-5-2.pddl,TIMEOUT:301.108:-1.0:300.0:-1
ipc-2014-agile-floortile-p01-6-5-3.pddl,TIMEOUT:301.155:-1.0:300.0:-1
ipc-2014-agile-floortile-p02-5-4-2.pddl,TIMEOUT:301.159:-1.0:300.0:-1
ipc-2014-agile-floortile-p02-6-4-2.pddl,TIMEOUT:301.175:-1.0:300.0:-1
ipc-2014-agile-floortile-p02-6-5-2.pddl,TIMEOUT:301.169:-1.0:300.0:-1
ipc-2014-agile-floortile-p02-6-5-3.pddl,TIMEOUT:301.143:-1.0:300.0:-1
ipc-2014-agile-floortile-p03-6-4-2.pddl,TIMEOUT:301.177:-1.0:300.0:-1
ipc-2014-agile-floortile-p03-6-5-2.pddl,TIMEOUT:301.186:-1.0:300.0:-1
ipc-2014-agile-floortile-p03-6-5-3.pddl,TIMEOUT:301.111:-1.0:300.0:-1
ipc-2014-agile-floortile-p04-5-4-2.pddl,TIMEOUT:301.148:-1.0:300.0:-1
ipc-2014-agile-floortile-p04-5-5-2.pddl,TIMEOUT:301.106:-1.0:300.0:-1
ipc-2014-agile-floortile-p04-6-5-2.pddl,TIMEOUT:301.183:-1.0:300.0:-1
ipc-2014-agile-floortile-p04-6-5-3.pddl,TIMEOUT:301.143:-1.0:300.0:-1
ipc-2014-agile-floortile-p05-4-3-2.pddl,SAT:14.3478:101.0:300.0:-1
ipc-2014-agile-floortile-p05-6-5-2.pddl,TIMEOUT:301.189:-1.0:300.0:-1
ipc-2014-agile-floortile-p05-6-5-3.pddl,TIMEOUT:301.133:-1.0:300.0:-1
ipc-2014-agile-ged-d-10-1.pddl,SAT:1.47578:35.0:300.0:-1
ipc-2014-agile-ged-d-10-2.pddl,SAT:1.36579:49.0:300.0:-1
ipc-2014-agile-ged-d-10-3.pddl,SAT:0.937856:58.0:300.0:-1
ipc-2014-agile-ged-d-10-4.pddl,SAT:0.756884:49.0:300.0:-1
ipc-2014-agile-ged-d-10-5.pddl,SAT:0.531919:38.0:300.0:-1
ipc-2014-agile-ged-d-10-6.pddl,SAT:3.48447:113.0:300.0:-1
ipc-2014-agile-ged-d-11-1.pddl,SAT:0.32395:112.0:300.0:-1
ipc-2014-agile-ged-d-11-3.pddl,SAT:1.22881:73.0:300.0:-1
ipc-2014-agile-ged-d-11-5.pddl,SAT:3.85441:78.0:300.0:-1
ipc-2014-agile-ged-d-11-6.pddl,SAT:1.64675:97.0:300.0:-1
ipc-2014-agile-ged-d-12-11.pddl,SAT:3.15252:55.0:300.0:-1
ipc-2014-agile-ged-d-12-2.pddl,SAT:0.544916:148.0:300.0:-1
ipc-2014-agile-ged-d-12-3.pddl,SAT:21.4377:57.0:300.0:-1
ipc-2014-agile-ged-d-12-5.pddl,SAT:35.4636:233.0:300.0:-1
ipc-2014-agile-ged-d-12-6.pddl,SAT:5.99109:139.0:300.0:-1
ipc-2014-agile-ged-d-12-7.pddl,SAT:20.0969:74.0:300.0:-1
ipc-2014-agile-ged-d-12-8.pddl,SAT:46.6349:199.0:300.0:-1
ipc-2014-agile-ged-d-12-9.pddl,SAT:38.9891:95.0:300.0:-1
ipc-2014-agile-ged-d-3-6.pddl,SAT:0.686895:39.0:300.0:-1
ipc-2014-agile-ged-d-9-5.pddl,SAT:1.70374:163.0:300.0:-1
ipc-2014-agile-hiking-3-4-3.pddl,SAT:0.089985:34.0:300.0:-1
ipc-2014-agile-hiking-3-4-4.pddl,SAT:0.218966:1042.0:300.0:-1
ipc-2014-agile-hiking-3-4-5.pddl,SAT:0.644901:1843.0:300.0:-1
ipc-2014-agile-hiking-3-4-6.pddl,SAT:22.6496:1124.0:300.0:-1
ipc-2014-agile-hiking-3-4-7.pddl,SAT:257.093:1912.0:300.0:-1
ipc-2014-agile-hiking-3-4-8.pddl,TIMEOUT:301.087:-1.0:300.0:-1
ipc-2014-agile-hiking-3-4-9.pddl,TIMEOUT:301.118:-1.0:300.0:-1
ipc-2014-agile-hiking-4-5-3.pddl,SAT:0.12998:64.0:300.0:-1
ipc-2014-agile-hiking-4-5-4.pddl,SAT:1.08383:245.0:300.0:-1
ipc-2014-agile-hiking-4-5-5.pddl,SAT:0.791879:779.0:300.0:-1
ipc-2014-agile-hiking-4-5-6.pddl,SAT:25.5021:3640.0:300.0:-1
ipc-2014-agile-hiking-4-5-7.pddl,TIMEOUT:301.111:-1.0:300.0:-1
ipc-2014-agile-hiking-4-5-8.pddl,TIMEOUT:301.137:-1.0:300.0:-1
ipc-2014-agile-hiking-4-5-9.pddl,TIMEOUT:301.045:-1.0:300.0:-1
ipc-2014-agile-hiking-5-6-3.pddl,SAT:0.288955:48.0:300.0:-1
ipc-2014-agile-hiking-5-6-4.pddl,SAT:1.27781:671.0:300.0:-1
ipc-2014-agile-hiking-5-6-5.pddl,SAT:40.2379:1133.0:300.0:-1
ipc-2014-agile-hiking-5-6-6.pddl,SAT:56.8834:3510.0:300.0:-1
ipc-2014-agile-hiking-5-6-7.pddl,SAT:22.1626:4058.0:300.0:-1
ipc-2014-agile-hiking-5-6-8.pddl,TIMEOUT:301.084:-1.0:300.0:-1
ipc-2014-agile-maintenance-1.3.060.180.5-000.pddl,CRASHED:0.007998:1000000000.0:300.0:-1
ipc-2014-agile-maintenance-1.3.060.180.5-001.pddl,CRASHED:0.007998:1000000000.0:300.0:-1
ipc-2014-agile-maintenance-1.3.060.180.5-002.pddl,CRASHED:0.006998:1000000000.0:300.0:-1
ipc-2014-agile-maintenance-1.3.100.300.5-000.pddl,CRASHED:0.007998:1000000000.0:300.0:-1
ipc-2014-agile-maintenance-1.3.100.300.5-001.pddl,CRASHED:0.007997:1000000000.0:300.0:-1
ipc-2014-agile-maintenance-1.3.100.300.7-000.pddl,CRASHED:0.007998:1000000000.0:300.0:-1
ipc-2014-agile-maintenance-1.3.100.300.7-001.pddl,CRASHED:0.007998:1000000000.0:300.0:-1
ipc-2014-agile-maintenance-1.3.100.300.7-002.pddl,CRASHED:0.007998:1000000000.0:300.0:-1
ipc-2014-agile-maintenance-1.3.150.500.6-001.pddl,CRASHED:0.007998:1000000000.0:300.0:-1
ipc-2014-agile-maintenance-1.3.200.500.5-001.pddl,CRASHED:0.007998:1000000000.0:300.0:-1
ipc-2014-agile-maintenance-1.3.200.500.5-002.pddl,CRASHED:0.007997:1000000000.0:300.0:-1
ipc-2014-agile-maintenance-1.3.200.700.7-000.pddl,CRASHED:0.006998:1000000000.0:300.0:-1
ipc-2014-agile-maintenance-1.3.200.700.7-001.pddl,CRASHED:0.006998:1000000000.0:300.0:-1
ipc-2014-agile-maintenance-1.3.200.700.7-002.pddl,CRASHED:0.007997:1000000000.0:300.0:-1
ipc-2014-agile-maintenance-1.3.200.900.5-000.pddl,CRASHED:0.007998:1000000000.0:300.0:-1
ipc-2014-agile-maintenance-1.3.200.900.5-001.pddl,CRASHED:0.007997:1000000000.0:300.0:-1
ipc-2014-agile-maintenance-1.3.200.900.5-002.pddl,CRASHED:0.007998:1000000000.0:300.0:-1
ipc-2014-agile-maintenance-1.3.200.900.8-000.pddl,CRASHED:0.006998:1000000000.0:300.0:-1
ipc-2014-agile-maintenance-1.3.200.900.8-001.pddl,CRASHED:0.006998:1000000000.0:300.0:-1
ipc-2014-agile-maintenance-1.3.200.900.8-002.pddl,CRASHED:0.006998:1000000000.0:300.0:-1
ipc-2014-agile-openstacks-p130_2.pddl,CRASHED:1.01184:1000000000.0:300.0:-1
ipc-2014-agile-openstacks-p130_3.pddl,CRASHED:1.25981:1000000000.0:300.0:-1
ipc-2014-agile-openstacks-p150_2.pddl,CRASHED:1.52477:1000000000.0:300.0:-1
ipc-2014-agile-openstacks-p150_3.pddl,CRASHED:1.90771:1000000000.0:300.0:-1
ipc-2014-agile-openstacks-p170_1.pddl,CRASHED:2.24666:1000000000.0:300.0:-1
ipc-2014-agile-openstacks-p170_2.pddl,CRASHED:2.39763:1000000000.0:300.0:-1
ipc-2014-agile-openstacks-p170_3.pddl,CRASHED:2.76258:1000000000.0:300.0:-1
ipc-2014-agile-openstacks-p190_1.pddl,CRASHED:3.40048:1000000000.0:300.0:-1
ipc-2014-agile-openstacks-p190_2.pddl,CRASHED:3.55546:1000000000.0:300.0:-1
ipc-2014-agile-openstacks-p190_3.pddl,CRASHED:4.08338:1000000000.0:300.0:-1
ipc-2014-agile-openstacks-p210_1.pddl,CRASHED:4.69629:1000000000.0:300.0:-1
ipc-2014-agile-openstacks-p210_2.pddl,CRASHED:4.69929:1000000000.0:300.0:-1
ipc-2014-agile-openstacks-p230_1.pddl,CRASHED:6.25805:1000000000.0:300.0:-1
ipc-2014-agile-openstacks-p230_2.pddl,CRASHED:6.08607:1000000000.0:300.0:-1
ipc-2014-agile-openstacks-p250_1.pddl,CRASHED:8.20375:1000000000.0:300.0:-1
ipc-2014-agile-openstacks-p250_2.pddl,CRASHED:7.99178:1000000000.0:300.0:-1
ipc-2014-agile-openstacks-p270_1.pddl,CRASHED:9.59654:1000000000.0:300.0:-1
ipc-2014-agile-openstacks-p270_2.pddl,CRASHED:9.64853:1000000000.0:300.0:-1
ipc-2014-agile-openstacks-p290_1.pddl,CRASHED:12.1522:1000000000.0:300.0:-1
ipc-2014-agile-openstacks-p290_2.pddl,CRASHED:13.096:1000000000.0:300.0:-1
ipc-2014-agile-parking-28_2.pddl,TIMEOUT:301.072:-1.0:300.0:-1
ipc-2014-agile-parking-28_3.pddl,TIMEOUT:301.046:-1.0:300.0:-1
ipc-2014-agile-parking-30_1.pddl,TIMEOUT:301.062:-1.0:300.0:-1
ipc-2014-agile-parking-30_2.pddl,TIMEOUT:301.037:-1.0:300.0:-1
ipc-2014-agile-parking-30_3.pddl,TIMEOUT:301.064:-1.0:300.0:-1
ipc-2014-agile-parking-32_1.pddl,TIMEOUT:301.083:-1.0:300.0:-1
ipc-2014-agile-parking-32_2.pddl,TIMEOUT:301.029:-1.0:300.0:-1
ipc-2014-agile-parking-32_3.pddl,TIMEOUT:301.045:-1.0:300.0:-1
ipc-2014-agile-parking-34_1.pddl,TIMEOUT:301.115:-1.0:300.0:-1
ipc-2014-agile-parking-34_2.pddl,TIMEOUT:301.117:-1.0:300.0:-1
ipc-2014-agile-parking-34_3.pddl,TIMEOUT:301.119:-1.0:300.0:-1
ipc-2014-agile-parking-36_1.pddl,TIMEOUT:301.039:-1.0:300.0:-1
ipc-2014-agile-parking-36_2.pddl,TIMEOUT:301.104:-1.0:300.0:-1
ipc-2014-agile-parking-36_3.pddl,TIMEOUT:301.11:-1.0:300.0:-1
ipc-2014-agile-parking-38_1.pddl,TIMEOUT:301.088:-1.0:300.0:-1
ipc-2014-agile-parking-38_2.pddl,TIMEOUT:301.066:-1.0:300.0:-1
ipc-2014-agile-parking-38_3.pddl,TIMEOUT:301.108:-1.0:300.0:-1
ipc-2014-agile-parking-40_1.pddl,TIMEOUT:301.037:-1.0:300.0:-1
ipc-2014-agile-parking-40_2.pddl,TIMEOUT:301.109:-1.0:300.0:-1
ipc-2014-agile-parking-40_3.pddl,TIMEOUT:301.131:-1.0:300.0:-1
ipc-2014-agile-tetris-020.pddl,SAT:83.4083:83.0:300.0:-1
ipc-2014-agile-tetris-021.pddl,CRASHED:18.8731:1000000000.0:300.0:-1
ipc-2014-agile-tetris-022.pddl,CRASHED:17.2864:1000000000.0:300.0:-1
ipc-2014-agile-tetris-023.pddl,CRASHED:17.3664:1000000000.0:300.0:-1
ipc-2014-agile-tetris-024.pddl,CRASHED:19.1341:1000000000.0:300.0:-1
ipc-2014-agile-tetris-025.pddl,TIMEOUT:301.117:-1.0:300.0:-1
ipc-2014-agile-tetris-026.pddl,CRASHED:27.2938:1000000000.0:300.0:-1
ipc-2014-agile-tetris-027.pddl,CRASHED:22.0496:1000000000.0:300.0:-1
ipc-2014-agile-tetris-028.pddl,CRASHED:20.5009:1000000000.0:300.0:-1
ipc-2014-agile-tetris-029.pddl,TIMEOUT:301.086:-1.0:300.0:-1
ipc-2014-agile-tetris-031.pddl,CRASHED:37.1893:1000000000.0:300.0:-1
ipc-2014-agile-tetris-032.pddl,CRASHED:27.7528:1000000000.0:300.0:-1
ipc-2014-agile-tetris-033.pddl,CRASHED:34.6677:1000000000.0:300.0:-1
ipc-2014-agile-tetris-034.pddl,CRASHED:34.3558:1000000000.0:300.0:-1
ipc-2014-agile-tetris-035.pddl,CRASHED:42.0016:1000000000.0:300.0:-1
ipc-2014-agile-tetris-036.pddl,CRASHED:39.474:1000000000.0:300.0:-1
ipc-2014-agile-tetris-037.pddl,CRASHED:26.348:1000000000.0:300.0:-1
ipc-2014-agile-tetris-038.pddl,CRASHED:32.3951:1000000000.0:300.0:-1
ipc-2014-agile-tetris-039.pddl,CRASHED:37.5653:1000000000.0:300.0:-1
ipc-2014-agile-tetris-040.pddl,CRASHED:33.123:1000000000.0:300.0:-1
ipc-2014-agile-thoughtful-bootstrap-typed-01.pddl,SAT:0.78288:46.0:300.0:-1
ipc-2014-agile-thoughtful-bootstrap-typed-02.pddl,SAT:0.743886:74.0:300.0:-1
ipc-2014-agile-thoughtful-bootstrap-typed-03.pddl,SAT:0.746885:61.0:300.0:-1
ipc-2014-agile-thoughtful-bootstrap-typed-04.pddl,SAT:0.744886:41.0:300.0:-1
ipc-2014-agile-thoughtful-bootstrap-typed-05.pddl,SAT:0.750885:53.0:300.0:-1
ipc-2014-agile-thoughtful-p11_6_53-typed.pddl,SAT:117.167:288.0:300.0:-1
ipc-2014-agile-thoughtful-p11_6_59-typed.pddl,TIMEOUT:301.111:-1.0:300.0:-1
ipc-2014-agile-thoughtful-p11_6_62-typed.pddl,SAT:13.6519:318.0:300.0:-1
ipc-2014-agile-thoughtful-p13_7_78-typed.pddl,TIMEOUT:301.088:-1.0:300.0:-1
ipc-2014-agile-thoughtful-p13_7_79-typed.pddl,TIMEOUT:301.046:-1.0:300.0:-1
ipc-2014-agile-thoughtful-p13_7_86-typed.pddl,TIMEOUT:301.082:-1.0:300.0:-1
ipc-2014-agile-thoughtful-target-typed-20.pddl,TIMEOUT:301.129:-1.0:300.0:-1
ipc-2014-agile-thoughtful-target-typed-21.pddl,TIMEOUT:301.106:-1.0:300.0:-1
ipc-2014-agile-thoughtful-target-typed-22.pddl,TIMEOUT:301.108:-1.0:300.0:-1
ipc-2014-agile-thoughtful-target-typed-23.pddl,TIMEOUT:301.056:-1.0:300.0:-1
ipc-2014-agile-thoughtful-target-typed-24.pddl,SAT:25.7441:199.0:300.0:-1
ipc-2014-agile-thoughtful-target-typed-25.pddl,TIMEOUT:301.072:-1.0:300.0:-1
ipc-2014-agile-thoughtful-target-typed-26.pddl,TIMEOUT:301.069:-1.0:300.0:-1
ipc-2014-agile-thoughtful-target-typed-27.pddl,SAT:25.7391:230.0:300.0:-1
ipc-2014-agile-thoughtful-target-typed-28.pddl,SAT:39.684:246.0:300.0:-1
ipc-2014-agile-transport-01.pddl,SAT:0.935857:4683.0:300.0:-1
ipc-2014-agile-transport-02.pddl,SAT:1.42178:5361.0:300.0:-1
ipc-2014-agile-transport-03.pddl,SAT:1.06884:4263.0:300.0:-1
ipc-2014-agile-transport-04.pddl,SAT:4.71728:9712.0:300.0:-1
ipc-2014-agile-transport-05.pddl,SAT:8.85465:15500.0:300.0:-1
ipc-2014-agile-transport-06.pddl,SAT:4.70528:9712.0:300.0:-1
ipc-2014-agile-transport-07.pddl,SAT:6.42602:11670.0:300.0:-1
ipc-2014-agile-transport-08.pddl,SAT:9.31958:12502.0:300.0:-1
ipc-2014-agile-transport-09.pddl,SAT:6.39503:11670.0:300.0:-1
ipc-2014-agile-transport-10.pddl,SAT:5.63714:10021.0:300.0:-1
ipc-2014-agile-transport-11.pddl,SAT:1.20182:3491.0:300.0:-1
ipc-2014-agile-transport-12.pddl,SAT:1.70774:5020.0:300.0:-1
ipc-2014-agile-transport-13.pddl,SAT:1.11983:5929.0:300.0:-1
ipc-2014-agile-transport-14.pddl,SAT:5.15721:11687.0:300.0:-1
ipc-2014-agile-transport-15.pddl,SAT:7.00893:12437.0:300.0:-1
ipc-2014-agile-transport-16.pddl,SAT:3.84042:13661.0:300.0:-1
ipc-2014-agile-transport-17.pddl,SAT:6.29904:10606.0:300.0:-1
ipc-2014-agile-transport-18.pddl,SAT:8.99363:12877.0:300.0:-1
ipc-2014-agile-transport-19.pddl,SAT:4.95225:11273.0:300.0:-1
ipc-2014-agile-transport-20.pddl,SAT:6.96194:9041.0:300.0:-1
ipc-2014-agile-visitall-30.pddl,SAT:0.788879:1116.0:300.0:-1
ipc-2014-agile-visitall-31.pddl,SAT:0.946855:1217.0:300.0:-1
ipc-2014-agile-visitall-32.pddl,SAT:1.02384:1230.0:300.0:-1
ipc-2014-agile-visitall-33.pddl,SAT:1.36379:1390.0:300.0:-1
ipc-2014-agile-visitall-50.pddl,SAT:12.1602:2967.0:300.0:-1
ipc-2014-agile-visitall-51.pddl,SAT:12.6351:3051.0:300.0:-1
ipc-2014-agile-visitall-52.pddl,SAT:12.1981:3180.0:300.0:-1
ipc-2014-agile-visitall-53.pddl,SAT:14.3748:3206.0:300.0:-1
ipc-2014-agile-visitall-54.pddl,SAT:16.0726:3349.0:300.0:-1
ipc-2014-agile-visitall-55.pddl,SAT:16.3795:3496.0:300.0:-1
ipc-2014-agile-visitall-56.pddl,SAT:20.7238:3634.0:300.0:-1
ipc-2014-agile-visitall-57.pddl,SAT:19.0621:3842.0:300.0:-1
ipc-2014-agile-visitall-58.pddl,SAT:24.6463:3768.0:300.0:-1
ipc-2014-agile-visitall-59.pddl,SAT:26.447:3964.0:300.0:-1
ipc-2014-agile-visitall-60.pddl,SAT:27.7448:4089.0:300.0:-1
ipc-2014-agile-visitall-61.pddl,SAT:32.899:4275.0:300.0:-1
ipc-2014-agile-visitall-62.pddl,SAT:35.5576:4279.0:300.0:-1
ipc-2014-agile-visitall-63.pddl,SAT:35.9865:4707.0:300.0:-1
ipc-2014-agile-visitall-64.pddl,SAT:48.6666:4809.0:300.0:-1
ipc-2014-agile-visitall-65.pddl,SAT:47.6448:4976.0:300.0:-1
