instance,ipc-2014-optimal-cedalion
ipc-2014-optimal-barman-p433.1.pddl,CRASHED:0.840871:1000000000.0:1800.0:-1
ipc-2014-optimal-barman-p433.2.pddl,CRASHED:1.70574:1000000000.0:1800.0:-1
ipc-2014-optimal-barman-p433.3.pddl,CRASHED:0.836872:1000000000.0:1800.0:-1
ipc-2014-optimal-barman-p435.1.pddl,CRASHED:1800.64:1000000000.0:1800.0:-1
ipc-2014-optimal-barman-p435.2.pddl,CRASHED:1800.85:1000000000.0:1800.0:-1
ipc-2014-optimal-barman-p435.3.pddl,CRASHED:1800.2:1000000000.0:1800.0:-1
ipc-2014-optimal-barman-p443.1.pddl,CRASHED:0.859868:1000000000.0:1800.0:-1
ipc-2014-optimal-barman-p443.2.pddl,CRASHED:0.879865:1000000000.0:1800.0:-1
ipc-2014-optimal-barman-p443.3.pddl,CRASHED:0.878865:1000000000.0:1800.0:-1
ipc-2014-optimal-barman-p536.1.pddl,CRASHED:1800.91:1000000000.0:1800.0:-1
ipc-2014-optimal-barman-p536.2.pddl,CRASHED:1800.13:1000000000.0:1800.0:-1
ipc-2014-optimal-barman-p536.3.pddl,CRASHED:1800.44:1000000000.0:1800.0:-1
ipc-2014-optimal-barman-p638.1.pddl,CRASHED:1800.79:1000000000.0:1800.0:-1
ipc-2014-optimal-barman-p638.2.pddl,CRASHED:1800.32:1000000000.0:1800.0:-1
ipc-2014-optimal-barman-p638.3.pddl,CRASHED:1800.82:1000000000.0:1800.0:-1
ipc-2014-optimal-barman-p739.1.pddl,CRASHED:1800.26:1000000000.0:1800.0:-1
ipc-2014-optimal-barman-p739.2.pddl,CRASHED:1800.57:1000000000.0:1800.0:-1
ipc-2014-optimal-barman-p739.3.pddl,CRASHED:1800.86:1000000000.0:1800.0:-1
ipc-2014-optimal-barman-p839.1.pddl,CRASHED:1800.85:1000000000.0:1800.0:-1
ipc-2014-optimal-barman-p839.2.pddl,CRASHED:1800.79:1000000000.0:1800.0:-1
ipc-2014-optimal-cavediving-01.pddl,CRASHED:299.068:1000000000.0:1800.0:-1
ipc-2014-optimal-cavediving-01_easy.pddl,CRASHED:301.031:1000000000.0:1800.0:-1
ipc-2014-optimal-cavediving-02_easy.pddl,CRASHED:300.974:1000000000.0:1800.0:-1
ipc-2014-optimal-cavediving-03_easy.pddl,CRASHED:300.925:1000000000.0:1800.0:-1
ipc-2014-optimal-cavediving-04_easy.pddl,CRASHED:298.957:1000000000.0:1800.0:-1
ipc-2014-optimal-cavediving-05A_easy.pddl,SAT:10.7334:94.0:1800.0:-1
ipc-2014-optimal-cavediving-06A_easy.pddl,SAT:10.6484:95.0:1800.0:-1
ipc-2014-optimal-cavediving-07_easy.pddl,SAT:62.0136:131.0:1800.0:-1
ipc-2014-optimal-cavediving-08_easy.pddl,SAT:10.7794:90.0:1800.0:-1
ipc-2014-optimal-cavediving-09_easy.pddl,CRASHED:1799.74:1000000000.0:1800.0:-1
ipc-2014-optimal-cavediving-10_easy.pddl,CRASHED:1796.91:1000000000.0:1800.0:-1
ipc-2014-optimal-cavediving-11_easy.pddl,CRASHED:1797.11:1000000000.0:1800.0:-1
ipc-2014-optimal-cavediving-12_easy.pddl,TIMEOUT:1801.07:-1.0:1800.0:-1
ipc-2014-optimal-cavediving-13_easy.pddl,TIMEOUT:1801.04:-1.0:1800.0:-1
ipc-2014-optimal-cavediving-14_easy.pddl,CRASHED:1795.37:1000000000.0:1800.0:-1
ipc-2014-optimal-cavediving-15_easy.pddl,CRASHED:298.859:1000000000.0:1800.0:-1
ipc-2014-optimal-cavediving-16_easy.pddl,CRASHED:301.804:1000000000.0:1800.0:-1
ipc-2014-optimal-cavediving-18A_easy.pddl,SAT:108.216:131.0:1800.0:-1
ipc-2014-optimal-cavediving-18_easy.pddl,SAT:194.181:131.0:1800.0:-1
ipc-2014-optimal-cavediving-20A_easy.pddl,SAT:16.2985:98.0:1800.0:-1
ipc-2014-optimal-childsnack-01-2.pddl,CRASHED:1800.16:1000000000.0:1800.0:-1
ipc-2014-optimal-childsnack-01.pddl,CRASHED:1800.98:1000000000.0:1800.0:-1
ipc-2014-optimal-childsnack-02-2.pddl,CRASHED:1800.74:1000000000.0:1800.0:-1
ipc-2014-optimal-childsnack-02.pddl,CRASHED:1800.28:1000000000.0:1800.0:-1
ipc-2014-optimal-childsnack-03-2.pddl,CRASHED:1773.09:1000000000.0:1800.0:-1
ipc-2014-optimal-childsnack-03.pddl,CRASHED:1769.03:1000000000.0:1800.0:-1
ipc-2014-optimal-childsnack-04-2.pddl,CRASHED:1737.26:1000000000.0:1800.0:-1
ipc-2014-optimal-childsnack-04.pddl,CRASHED:1738.26:1000000000.0:1800.0:-1
ipc-2014-optimal-childsnack-05-2.pddl,CRASHED:1770.92:1000000000.0:1800.0:-1
ipc-2014-optimal-childsnack-05.pddl,CRASHED:1771.25:1000000000.0:1800.0:-1
ipc-2014-optimal-childsnack-06-2.pddl,CRASHED:1800.82:1000000000.0:1800.0:-1
ipc-2014-optimal-childsnack-06.pddl,CRASHED:1800.43:1000000000.0:1800.0:-1
ipc-2014-optimal-childsnack-07-2.pddl,CRASHED:1800.74:1000000000.0:1800.0:-1
ipc-2014-optimal-childsnack-07.pddl,CRASHED:1800.7:1000000000.0:1800.0:-1
ipc-2014-optimal-childsnack-08-2.pddl,CRASHED:1460.73:1000000000.0:1800.0:-1
ipc-2014-optimal-childsnack-08.pddl,CRASHED:1445.8:1000000000.0:1800.0:-1
ipc-2014-optimal-childsnack-09-2.pddl,CRASHED:1457.66:1000000000.0:1800.0:-1
ipc-2014-optimal-childsnack-09.pddl,CRASHED:1453.18:1000000000.0:1800.0:-1
ipc-2014-optimal-childsnack-10-2.pddl,CRASHED:1433.35:1000000000.0:1800.0:-1
ipc-2014-optimal-childsnack-10.pddl,CRASHED:1443.73:1000000000.0:1800.0:-1
ipc-2014-optimal-citycar-p2-2-2-1-2.pddl,SAT:2.98155:46.0:1800.0:-1
ipc-2014-optimal-citycar-p2-2-2-2-1.pddl,SAT:3.99339:64.0:1800.0:-1
ipc-2014-optimal-citycar-p2-2-3-1-2.pddl,SAT:6.90795:50.0:1800.0:-1
ipc-2014-optimal-citycar-p2-2-3-2-1.pddl,SAT:5.81012:48.0:1800.0:-1
ipc-2014-optimal-citycar-p2-2-3-2-2.pddl,SAT:5.54116:50.0:1800.0:-1
ipc-2014-optimal-citycar-p2-2-4-1-2.pddl,SAT:12.7301:52.0:1800.0:-1
ipc-2014-optimal-citycar-p2-2-4-2-1.pddl,SAT:13.8349:52.0:1800.0:-1
ipc-2014-optimal-citycar-p2-2-5-2-2.pddl,SAT:259.314:76.0:1800.0:-1
ipc-2014-optimal-citycar-p2-2-6-1-1.pddl,SAT:201.423:58.0:1800.0:-1
ipc-2014-optimal-citycar-p2-2-6-2-2.pddl,SAT:200.302:58.0:1800.0:-1
ipc-2014-optimal-citycar-p2-3-2-3-1.pddl,SAT:16.6285:68.0:1800.0:-1
ipc-2014-optimal-citycar-p2-3-3-3-1.pddl,SAT:68.3066:78.0:1800.0:-1
ipc-2014-optimal-citycar-p2-3-4-3-1.pddl,CRASHED:309.199:1000000000.0:1800.0:-1
ipc-2014-optimal-citycar-p2-3-6-3-2.pddl,CRASHED:587.451:1000000000.0:1800.0:-1
ipc-2014-optimal-citycar-p3-3-2-2-1.pddl,SAT:300.873:70.0:1800.0:-1
ipc-2014-optimal-citycar-p3-3-2-2-2.pddl,CRASHED:1323.67:1000000000.0:1800.0:-1
ipc-2014-optimal-citycar-p3-3-2-3-1.pddl,SAT:42.9515:48.0:1800.0:-1
ipc-2014-optimal-citycar-p3-3-2-3-2.pddl,SAT:231.333:70.0:1800.0:-1
ipc-2014-optimal-citycar-p3-3-3-3-1.pddl,CRASHED:1797.58:1000000000.0:1800.0:-1
ipc-2014-optimal-citycar-p3-3-3-3-2.pddl,CRASHED:1796.4:1000000000.0:1800.0:-1
ipc-2014-optimal-floortile-p01-4-3-2.pddl,SAT:166.786:56.0:1800.0:-1
ipc-2014-optimal-floortile-p01-4-4-2.pddl,CRASHED:1800.28:1000000000.0:1800.0:-1
ipc-2014-optimal-floortile-p01-5-3-2.pddl,SAT:368.854:63.0:1800.0:-1
ipc-2014-optimal-floortile-p01-5-4-2.pddl,CRASHED:1800.58:1000000000.0:1800.0:-1
ipc-2014-optimal-floortile-p01-5-5-2.pddl,CRASHED:1800.97:1000000000.0:1800.0:-1
ipc-2014-optimal-floortile-p01-6-4-2.pddl,CRASHED:1800.54:1000000000.0:1800.0:-1
ipc-2014-optimal-floortile-p01-6-5-2.pddl,CRASHED:1801.06:1000000000.0:1800.0:-1
ipc-2014-optimal-floortile-p02-4-4-2.pddl,CRASHED:1800.62:1000000000.0:1800.0:-1
ipc-2014-optimal-floortile-p02-5-3-2.pddl,SAT:478.771:65.0:1800.0:-1
ipc-2014-optimal-floortile-p02-5-4-2.pddl,CRASHED:1800.7:1000000000.0:1800.0:-1
ipc-2014-optimal-floortile-p02-5-5-2.pddl,CRASHED:1801.01:1000000000.0:1800.0:-1
ipc-2014-optimal-floortile-p02-6-4-2.pddl,CRASHED:1801.0:1000000000.0:1800.0:-1
ipc-2014-optimal-floortile-p02-6-5-2.pddl,CRASHED:1800.56:1000000000.0:1800.0:-1
ipc-2014-optimal-floortile-p03-4-3-2.pddl,SAT:164.243:56.0:1800.0:-1
ipc-2014-optimal-floortile-p03-4-4-2.pddl,CRASHED:6.10352e-05:1000000000.0:1800.0:-1
ipc-2014-optimal-floortile-p03-5-3-2.pddl,SAT:520.261:65.0:1800.0:-1
ipc-2014-optimal-floortile-p03-5-4-2.pddl,CRASHED:1800.16:1000000000.0:1800.0:-1
ipc-2014-optimal-floortile-p03-5-5-2.pddl,CRASHED:1800.61:1000000000.0:1800.0:-1
ipc-2014-optimal-floortile-p03-6-4-2.pddl,CRASHED:1800.55:1000000000.0:1800.0:-1
ipc-2014-optimal-floortile-p03-6-5-2.pddl,CRASHED:1800.16:1000000000.0:1800.0:-1
ipc-2014-optimal-ged-d-1-2.pddl,SAT:2.04669:1.0:1800.0:-1
ipc-2014-optimal-ged-d-1-3.pddl,SAT:14.4728:4.0:1800.0:-1
ipc-2014-optimal-ged-d-1-4.pddl,SAT:2.02569:1.0:1800.0:-1
ipc-2014-optimal-ged-d-1-8.pddl,SAT:43.1844:4.0:1800.0:-1
ipc-2014-optimal-ged-d-2-1.pddl,SAT:2.00569:1.0:1800.0:-1
ipc-2014-optimal-ged-d-2-3.pddl,SAT:2.71559:3.0:1800.0:-1
ipc-2014-optimal-ged-d-2-4.pddl,SAT:1.9437:2.0:1800.0:-1
ipc-2014-optimal-ged-d-2-8.pddl,CRASHED:1307.32:1000000000.0:1800.0:-1
ipc-2014-optimal-ged-d-3-1.pddl,SAT:11.3423:4.0:1800.0:-1
ipc-2014-optimal-ged-d-3-2.pddl,SAT:2.68959:3.0:1800.0:-1
ipc-2014-optimal-ged-d-3-4.pddl,SAT:384.783:5.0:1800.0:-1
ipc-2014-optimal-ged-d-4-2.pddl,SAT:2.16867:2.0:1800.0:-1
ipc-2014-optimal-ged-d-4-3.pddl,SAT:124.44:5.0:1800.0:-1
ipc-2014-optimal-ged-d-4-8.pddl,CRASHED:1295.2:1000000000.0:1800.0:-1
ipc-2014-optimal-ged-d-7-5.pddl,SAT:29.4465:4.0:1800.0:-1
ipc-2014-optimal-ged-d-7-6.pddl,SAT:66.5819:4.0:1800.0:-1
ipc-2014-optimal-ged-d-8-1.pddl,SAT:30.5424:4.0:1800.0:-1
ipc-2014-optimal-ged-d-8-2.pddl,CRASHED:1301.06:1000000000.0:1800.0:-1
ipc-2014-optimal-ged-d-8-4.pddl,CRASHED:1301.26:1000000000.0:1800.0:-1
ipc-2014-optimal-ged-d-8-9.pddl,CRASHED:1296.92:1000000000.0:1800.0:-1
ipc-2014-optimal-hiking-1-2-3.pddl,SAT:0.766882:11.0:1800.0:-1
ipc-2014-optimal-hiking-1-2-4.pddl,SAT:1.09083:17.0:1800.0:-1
ipc-2014-optimal-hiking-1-2-5.pddl,SAT:2.26865:25.0:1800.0:-1
ipc-2014-optimal-hiking-1-2-7.pddl,SAT:15.8996:38.0:1800.0:-1
ipc-2014-optimal-hiking-1-2-8.pddl,SAT:41.7307:45.0:1800.0:-1
ipc-2014-optimal-hiking-2-2-3.pddl,SAT:3.22351:10.0:1800.0:-1
ipc-2014-optimal-hiking-2-2-4.pddl,SAT:201.71:16.0:1800.0:-1
ipc-2014-optimal-hiking-2-2-5.pddl,SAT:1078.28:22.0:1800.0:-1
ipc-2014-optimal-hiking-2-2-6.pddl,SAT:1159.86:30.0:1800.0:-1
ipc-2014-optimal-hiking-2-2-7.pddl,CRASHED:1800.41:1000000000.0:1800.0:-1
ipc-2014-optimal-hiking-2-2-8.pddl,CRASHED:1800.29:1000000000.0:1800.0:-1
ipc-2014-optimal-hiking-2-3-4.pddl,SAT:944.946:17.0:1800.0:-1
ipc-2014-optimal-hiking-2-3-5.pddl,SAT:1146.59:24.0:1800.0:-1
ipc-2014-optimal-hiking-2-3-6.pddl,CRASHED:1800.71:1000000000.0:1800.0:-1
ipc-2014-optimal-hiking-2-3-7.pddl,CRASHED:1800.6:1000000000.0:1800.0:-1
ipc-2014-optimal-hiking-2-4-3.pddl,SAT:19.907:10.0:1800.0:-1
ipc-2014-optimal-hiking-2-4-4.pddl,SAT:1000.54:17.0:1800.0:-1
ipc-2014-optimal-hiking-2-4-5.pddl,CRASHED:1801.01:1000000000.0:1800.0:-1
ipc-2014-optimal-hiking-2-4-6.pddl,CRASHED:1800.42:1000000000.0:1800.0:-1
ipc-2014-optimal-hiking-2-4-7.pddl,CRASHED:1787.75:1000000000.0:1800.0:-1
ipc-2014-optimal-maintenance-1.3.010.010.1-001.pddl,CRASHED:1.01184:1000000000.0:1800.0:-1
ipc-2014-optimal-maintenance-1.3.010.010.1-002.pddl,CRASHED:1.38779:1000000000.0:1800.0:-1
ipc-2014-optimal-maintenance-1.3.010.010.2-000.pddl,SAT:0.545916:4.0:1800.0:-1
ipc-2014-optimal-maintenance-1.3.010.010.2-001.pddl,SAT:0.523919:7.0:1800.0:-1
ipc-2014-optimal-maintenance-1.3.010.010.2-002.pddl,SAT:0.52192:6.0:1800.0:-1
ipc-2014-optimal-maintenance-1.3.015.020.1-000.pddl,CRASHED:70.4733:1000000000.0:1800.0:-1
ipc-2014-optimal-maintenance-1.3.015.020.1-001.pddl,CRASHED:38.7421:1000000000.0:1800.0:-1
ipc-2014-optimal-maintenance-1.3.015.020.1-002.pddl,CRASHED:40.5718:1000000000.0:1800.0:-1
ipc-2014-optimal-maintenance-1.3.015.020.2-000.pddl,CRASHED:208.974:1000000000.0:1800.0:-1
ipc-2014-optimal-maintenance-1.3.015.020.2-001.pddl,SAT:0.537917:11.0:1800.0:-1
ipc-2014-optimal-maintenance-1.3.015.020.2-002.pddl,SAT:0.524919:9.0:1800.0:-1
ipc-2014-optimal-maintenance-1.3.025.050.1-000.pddl,CRASHED:1359.8:1000000000.0:1800.0:-1
ipc-2014-optimal-maintenance-1.3.025.050.1-001.pddl,TIMEOUT:1801.16:-1.0:1800.0:-1
ipc-2014-optimal-maintenance-1.3.025.050.1-002.pddl,CRASHED:1735.53:1000000000.0:1800.0:-1
ipc-2014-optimal-maintenance-1.3.025.100.1-000.pddl,CRASHED:29.04:1000000000.0:1800.0:-1
ipc-2014-optimal-maintenance-1.3.025.100.1-001.pddl,CRASHED:27.78:1000000000.0:1800.0:-1
ipc-2014-optimal-maintenance-1.3.025.100.1-002.pddl,CRASHED:30.74:1000000000.0:1800.0:-1
ipc-2014-optimal-maintenance-1.3.025.100.2-000.pddl,CRASHED:73.31:1000000000.0:1800.0:-1
ipc-2014-optimal-maintenance-1.3.025.100.2-001.pddl,CRASHED:65.41:1000000000.0:1800.0:-1
ipc-2014-optimal-maintenance-1.3.025.100.2-002.pddl,CRASHED:59.64:1000000000.0:1800.0:-1
ipc-2014-optimal-openstacks-p20_1.pddl,SAT:1169.74:3.0:1800.0:-1
ipc-2014-optimal-openstacks-p20_2.pddl,SAT:1215.31:4.0:1800.0:-1
ipc-2014-optimal-openstacks-p20_3.pddl,SAT:60.4748:6.0:1800.0:-1
ipc-2014-optimal-openstacks-p25_1.pddl,CRASHED:1453.73:1000000000.0:1800.0:-1
ipc-2014-optimal-openstacks-p25_3.pddl,CRASHED:1470.12:1000000000.0:1800.0:-1
ipc-2014-optimal-openstacks-p30_1.pddl,CRASHED:1492.55:1000000000.0:1800.0:-1
ipc-2014-optimal-openstacks-p30_2.pddl,CRASHED:1576.58:1000000000.0:1800.0:-1
ipc-2014-optimal-openstacks-p30_3.pddl,CRASHED:1459.03:1000000000.0:1800.0:-1
ipc-2014-optimal-openstacks-p35_1.pddl,CRASHED:1496.32:1000000000.0:1800.0:-1
ipc-2014-optimal-openstacks-p35_2.pddl,CRASHED:1601.27:1000000000.0:1800.0:-1
ipc-2014-optimal-openstacks-p35_3.pddl,CRASHED:1450.51:1000000000.0:1800.0:-1
ipc-2014-optimal-openstacks-p40_1.pddl,CRASHED:1469.81:1000000000.0:1800.0:-1
ipc-2014-optimal-openstacks-p40_2.pddl,CRASHED:1466.59:1000000000.0:1800.0:-1
ipc-2014-optimal-openstacks-p40_3.pddl,CRASHED:1470.37:1000000000.0:1800.0:-1
ipc-2014-optimal-openstacks-p45_1.pddl,CRASHED:1570.28:1000000000.0:1800.0:-1
ipc-2014-optimal-openstacks-p45_2.pddl,CRASHED:1499.98:1000000000.0:1800.0:-1
ipc-2014-optimal-openstacks-p45_3.pddl,CRASHED:1476.27:1000000000.0:1800.0:-1
ipc-2014-optimal-openstacks-p50_1.pddl,CRASHED:1550.0:1000000000.0:1800.0:-1
ipc-2014-optimal-openstacks-p50_2.pddl,CRASHED:1537.77:1000000000.0:1800.0:-1
ipc-2014-optimal-openstacks-p50_3.pddl,CRASHED:1472.82:1000000000.0:1800.0:-1
ipc-2014-optimal-parking-12_7-01.pddl,SAT:223.432:18.0:1800.0:-1
ipc-2014-optimal-parking-12_7-02.pddl,CRASHED:1800.2:1000000000.0:1800.0:-1
ipc-2014-optimal-parking-12_7-03.pddl,SAT:171.061:17.0:1800.0:-1
ipc-2014-optimal-parking-12_7-04.pddl,CRASHED:1801.06:1000000000.0:1800.0:-1
ipc-2014-optimal-parking-14_8-01.pddl,CRASHED:1460.62:1000000000.0:1800.0:-1
ipc-2014-optimal-parking-14_8-02.pddl,CRASHED:1479.71:1000000000.0:1800.0:-1
ipc-2014-optimal-parking-14_8-03.pddl,CRASHED:1486.02:1000000000.0:1800.0:-1
ipc-2014-optimal-parking-14_8-04.pddl,CRASHED:1503.04:1000000000.0:1800.0:-1
ipc-2014-optimal-parking-16_9-01.pddl,CRASHED:1618.09:1000000000.0:1800.0:-1
ipc-2014-optimal-parking-16_9-02.pddl,CRASHED:1595.69:1000000000.0:1800.0:-1
ipc-2014-optimal-parking-16_9-03.pddl,CRASHED:1620.18:1000000000.0:1800.0:-1
ipc-2014-optimal-parking-16_9-04.pddl,CRASHED:1629.95:1000000000.0:1800.0:-1
ipc-2014-optimal-parking-18_10-01.pddl,CRASHED:1800.94:1000000000.0:1800.0:-1
ipc-2014-optimal-parking-18_10-02.pddl,CRASHED:1800.47:1000000000.0:1800.0:-1
ipc-2014-optimal-parking-18_10-03.pddl,CRASHED:1800.95:1000000000.0:1800.0:-1
ipc-2014-optimal-parking-18_10-04.pddl,CRASHED:1637.79:1000000000.0:1800.0:-1
ipc-2014-optimal-parking-20_11-01.pddl,CRASHED:1800.85:1000000000.0:1800.0:-1
ipc-2014-optimal-parking-20_11-02.pddl,CRASHED:1800.23:1000000000.0:1800.0:-1
ipc-2014-optimal-parking-20_11-03.pddl,CRASHED:1800.25:1000000000.0:1800.0:-1
ipc-2014-optimal-parking-20_11-04.pddl,CRASHED:1801.0:1000000000.0:1800.0:-1
ipc-2014-optimal-tetris-01-10.pddl,CRASHED:1800.25:1000000000.0:1800.0:-1
ipc-2014-optimal-tetris-01-04.pddl,CRASHED:1401.93:1000000000.0:1800.0:-1
ipc-2014-optimal-tetris-01-06.pddl,CRASHED:1801.04:1000000000.0:1800.0:-1
ipc-2014-optimal-tetris-01-08.pddl,CRASHED:1800.8:1000000000.0:1800.0:-1
ipc-2014-optimal-tetris-02-10.pddl,CRASHED:1800.82:1000000000.0:1800.0:-1
ipc-2014-optimal-tetris-02-04.pddl,SAT:3.57846:10.0:1800.0:-1
ipc-2014-optimal-tetris-02-06.pddl,SAT:813.529:30.0:1800.0:-1
ipc-2014-optimal-tetris-02-08.pddl,CRASHED:1801.03:1000000000.0:1800.0:-1
ipc-2014-optimal-tetris-03-10.pddl,TIMEOUT:1801.0:-1.0:1800.0:-1
ipc-2014-optimal-tetris-03-04.pddl,SAT:82.3925:11.0:1800.0:-1
ipc-2014-optimal-tetris-03-06.pddl,SAT:488.059:21.0:1800.0:-1
ipc-2014-optimal-tetris-03-08.pddl,CRASHED:1800.31:1000000000.0:1800.0:-1
ipc-2014-optimal-tetris-04-10.pddl,CRASHED:1800.44:1000000000.0:1800.0:-1
ipc-2014-optimal-tetris-04-04.pddl,CRASHED:1566.05:1000000000.0:1800.0:-1
ipc-2014-optimal-tetris-04-06.pddl,CRASHED:1800.6:1000000000.0:1800.0:-1
ipc-2014-optimal-tetris-04-08.pddl,CRASHED:1800.8:1000000000.0:1800.0:-1
ipc-2014-optimal-tetris-05-10.pddl,CRASHED:1800.86:1000000000.0:1800.0:-1
ipc-2014-optimal-tetris-05-04.pddl,CRASHED:1351.31:1000000000.0:1800.0:-1
ipc-2014-optimal-tetris-05-06.pddl,SAT:83.1554:19.0:1800.0:-1
ipc-2014-optimal-tetris-05-08.pddl,CRASHED:1800.61:1000000000.0:1800.0:-1
ipc-2014-optimal-tidybot-01.pddl,CRASHED:1800.46:1000000000.0:1800.0:-1
ipc-2014-optimal-tidybot-02.pddl,SAT:354.931:35.0:1800.0:-1
ipc-2014-optimal-tidybot-03.pddl,SAT:333.264:30.0:1800.0:-1
ipc-2014-optimal-tidybot-04.pddl,SAT:389.667:24.0:1800.0:-1
ipc-2014-optimal-tidybot-05.pddl,CRASHED:1800.63:1000000000.0:1800.0:-1
ipc-2014-optimal-tidybot-06.pddl,CRASHED:1800.46:1000000000.0:1800.0:-1
ipc-2014-optimal-tidybot-07.pddl,CRASHED:1800.54:1000000000.0:1800.0:-1
ipc-2014-optimal-tidybot-08.pddl,SAT:209.883:25.0:1800.0:-1
ipc-2014-optimal-tidybot-09.pddl,CRASHED:1800.72:1000000000.0:1800.0:-1
ipc-2014-optimal-tidybot-10.pddl,CRASHED:1801.01:1000000000.0:1800.0:-1
ipc-2014-optimal-tidybot-11.pddl,SAT:138.293:29.0:1800.0:-1
ipc-2014-optimal-tidybot-12.pddl,CRASHED:1800.94:1000000000.0:1800.0:-1
ipc-2014-optimal-tidybot-13.pddl,SAT:382.237:30.0:1800.0:-1
ipc-2014-optimal-tidybot-14.pddl,SAT:64.0943:25.0:1800.0:-1
ipc-2014-optimal-tidybot-15.pddl,CRASHED:1800.84:1000000000.0:1800.0:-1
ipc-2014-optimal-tidybot-16.pddl,CRASHED:1800.33:1000000000.0:1800.0:-1
ipc-2014-optimal-tidybot-17.pddl,CRASHED:1800.79:1000000000.0:1800.0:-1
ipc-2014-optimal-tidybot-18.pddl,CRASHED:1800.37:1000000000.0:1800.0:-1
ipc-2014-optimal-tidybot-19.pddl,CRASHED:1800.44:1000000000.0:1800.0:-1
ipc-2014-optimal-tidybot-20.pddl,CRASHED:1800.02:1000000000.0:1800.0:-1
ipc-2014-optimal-transport-01.pddl,SAT:1.06084:148.0:1800.0:-1
ipc-2014-optimal-transport-02.pddl,SAT:24.4923:191.0:1800.0:-1
ipc-2014-optimal-transport-03.pddl,SAT:89.5414:300.0:1800.0:-1
ipc-2014-optimal-transport-04.pddl,CRASHED:1800.91:1000000000.0:1800.0:-1
ipc-2014-optimal-transport-05.pddl,CRASHED:1733.29:1000000000.0:1800.0:-1
ipc-2014-optimal-transport-06.pddl,CRASHED:1737.19:1000000000.0:1800.0:-1
ipc-2014-optimal-transport-07.pddl,SAT:318.16:967.0:1800.0:-1
ipc-2014-optimal-transport-08.pddl,CRASHED:1800.48:1000000000.0:1800.0:-1
ipc-2014-optimal-transport-09.pddl,CRASHED:1800.82:1000000000.0:1800.0:-1
ipc-2014-optimal-transport-10.pddl,CRASHED:1801.04:1000000000.0:1800.0:-1
ipc-2014-optimal-transport-11.pddl,CRASHED:1800.49:1000000000.0:1800.0:-1
ipc-2014-optimal-transport-12.pddl,CRASHED:1800.96:1000000000.0:1800.0:-1
ipc-2014-optimal-transport-13.pddl,SAT:9.97548:594.0:1800.0:-1
ipc-2014-optimal-transport-14.pddl,SAT:306.169:526.0:1800.0:-1
ipc-2014-optimal-transport-15.pddl,CRASHED:1800.15:1000000000.0:1800.0:-1
ipc-2014-optimal-transport-16.pddl,CRASHED:1800.54:1000000000.0:1800.0:-1
ipc-2014-optimal-transport-17.pddl,CRASHED:1737.8:1000000000.0:1800.0:-1
ipc-2014-optimal-transport-18.pddl,CRASHED:1756.71:1000000000.0:1800.0:-1
ipc-2014-optimal-transport-19.pddl,CRASHED:1768.81:1000000000.0:1800.0:-1
ipc-2014-optimal-transport-20.pddl,CRASHED:1777.49:1000000000.0:1800.0:-1
ipc-2014-optimal-visitall-05-10.pddl,CRASHED:1800.4:1000000000.0:1800.0:-1
ipc-2014-optimal-visitall-05-05.pddl,SAT:0.628903:21.0:1800.0:-1
ipc-2014-optimal-visitall-05-06.pddl,SAT:0.805877:25.0:1800.0:-1
ipc-2014-optimal-visitall-05-07.pddl,SAT:19.2291:34.0:1800.0:-1
ipc-2014-optimal-visitall-05-08.pddl,SAT:57.8562:43.0:1800.0:-1
ipc-2014-optimal-visitall-05-09.pddl,CRASHED:1800.35:1000000000.0:1800.0:-1
ipc-2014-optimal-visitall-01-10.pddl,SAT:0.966852:99.0:1800.0:-1
ipc-2014-optimal-visitall-01-11.pddl,SAT:1.12083:120.0:1800.0:-1
ipc-2014-optimal-visitall-01-12.pddl,SAT:23.0845:143.0:1800.0:-1
ipc-2014-optimal-visitall-01-13.pddl,SAT:1.41678:168.0:1800.0:-1
ipc-2014-optimal-visitall-01-14.pddl,CRASHED:1800.68:1000000000.0:1800.0:-1
ipc-2014-optimal-visitall-01-15.pddl,CRASHED:1800.72:1000000000.0:1800.0:-1
ipc-2014-optimal-visitall-01-16.pddl,CRASHED:1801.05:1000000000.0:1800.0:-1
ipc-2014-optimal-visitall-01-17.pddl,CRASHED:1800.96:1000000000.0:1800.0:-1
ipc-2014-optimal-visitall-01-18.pddl,CRASHED:1800.52:1000000000.0:1800.0:-1
ipc-2014-optimal-visitall-01-05.pddl,SAT:0.539917:24.0:1800.0:-1
ipc-2014-optimal-visitall-01-06.pddl,SAT:0.618905:35.0:1800.0:-1
ipc-2014-optimal-visitall-01-07.pddl,SAT:0.6549:48.0:1800.0:-1
ipc-2014-optimal-visitall-01-08.pddl,SAT:0.769882:63.0:1800.0:-1
ipc-2014-optimal-visitall-01-09.pddl,SAT:0.871866:80.0:1800.0:-1
