instance,ipc-2014-agile-bfs-f
ipc-2014-agile-barman-p1-11-4-15.pddl,SAT:35.3316:183.0:300.0:-1
ipc-2014-agile-barman-p1-11-5-15.pddl,SAT:38.9391:185.0:300.0:-1
ipc-2014-agile-barman-p1-11-5-16.pddl,SAT:1.3368:154.0:300.0:-1
ipc-2014-agile-barman-p2-10-4-13.pddl,SAT:2.25166:144.0:300.0:-1
ipc-2014-agile-barman-p2-11-4-15.pddl,SAT:2.6316:165.0:300.0:-1
ipc-2014-agile-barman-p2-11-5-15.pddl,SAT:1.06884:153.0:300.0:-1
ipc-2014-agile-barman-p2-11-5-16.pddl,SAT:4.48832:173.0:300.0:-1
ipc-2014-agile-barman-p2-11-5-17.pddl,SAT:17.8973:203.0:300.0:-1
ipc-2014-agile-barman-p3-10-4-13.pddl,SAT:1.56376:141.0:300.0:-1
ipc-2014-agile-barman-p3-11-4-15.pddl,SAT:2.05069:166.0:300.0:-1
ipc-2014-agile-barman-p3-11-5-15.pddl,SAT:7.2009:178.0:300.0:-1
ipc-2014-agile-barman-p3-11-5-16.pddl,SAT:1.59476:168.0:300.0:-1
ipc-2014-agile-barman-p3-11-5-17.pddl,SAT:5.83211:175.0:300.0:-1
ipc-2014-agile-barman-p4-11-4-14.pddl,SAT:3.03654:161.0:300.0:-1
ipc-2014-agile-barman-p4-11-4-15.pddl,SAT:6.30004:159.0:300.0:-1
ipc-2014-agile-barman-p4-11-5-15.pddl,SAT:4.72828:156.0:300.0:-1
ipc-2014-agile-barman-p5-10-4-13.pddl,SAT:1.72674:142.0:300.0:-1
ipc-2014-agile-barman-p5-11-4-15.pddl,SAT:5.38318:176.0:300.0:-1
ipc-2014-agile-barman-p5-11-5-15.pddl,SAT:7.95179:157.0:300.0:-1
ipc-2014-agile-barman-p5-11-5-16.pddl,SAT:3.89041:160.0:300.0:-1
ipc-2014-agile-cavediving-01_easy.pddl,TIMEOUT:301.172:-1.0:300.0:-1
ipc-2014-agile-cavediving-01.pddl,SAT:247.554:177.0:300.0:-1
ipc-2014-agile-cavediving-02_easy.pddl,TIMEOUT:301.188:-1.0:300.0:-1
ipc-2014-agile-cavediving-03_easy.pddl,TIMEOUT:301.173:-1.0:300.0:-1
ipc-2014-agile-cavediving-04_easy.pddl,TIMEOUT:301.167:-1.0:300.0:-1
ipc-2014-agile-cavediving-05A_easy.pddl,SAT:0.306952:94.0:300.0:-1
ipc-2014-agile-cavediving-06A_easy.pddl,SAT:0.305952:95.0:300.0:-1
ipc-2014-agile-cavediving-07_easy.pddl,SAT:0.51792:131.0:300.0:-1
ipc-2014-agile-cavediving-08_easy.pddl,SAT:0.303953:90.0:300.0:-1
ipc-2014-agile-cavediving-09_easy.pddl,TIMEOUT:301.139:-1.0:300.0:-1
ipc-2014-agile-cavediving-10_easy.pddl,TIMEOUT:301.185:-1.0:300.0:-1
ipc-2014-agile-cavediving-11_easy.pddl,TIMEOUT:301.158:-1.0:300.0:-1
ipc-2014-agile-cavediving-12_easy.pddl,TIMEOUT:301.131:-1.0:300.0:-1
ipc-2014-agile-cavediving-13_easy.pddl,TIMEOUT:301.19:-1.0:300.0:-1
ipc-2014-agile-cavediving-14_easy.pddl,TIMEOUT:301.151:-1.0:300.0:-1
ipc-2014-agile-cavediving-15_easy.pddl,TIMEOUT:301.141:-1.0:300.0:-1
ipc-2014-agile-cavediving-16_easy.pddl,TIMEOUT:301.142:-1.0:300.0:-1
ipc-2014-agile-cavediving-18A_easy.pddl,SAT:0.877866:131.0:300.0:-1
ipc-2014-agile-cavediving-18_easy.pddl,SAT:2.39064:131.0:300.0:-1
ipc-2014-agile-cavediving-20A_easy.pddl,SAT:0.78488:98.0:300.0:-1
ipc-2014-agile-childsnack-05-2.pddl,SAT:32.3441:46.0:300.0:-1
ipc-2014-agile-childsnack-05.pddl,SAT:0.546915:47.0:300.0:-1
ipc-2014-agile-childsnack-06-2.pddl,SAT:55.6095:50.0:300.0:-1
ipc-2014-agile-childsnack-07-2.pddl,SAT:1.59076:57.0:300.0:-1
ipc-2014-agile-childsnack-08-2.pddl,TIMEOUT:301.249:-1.0:300.0:-1
ipc-2014-agile-childsnack-08.pddl,SAT:212.955:61.0:300.0:-1
ipc-2014-agile-childsnack-09-2.pddl,TIMEOUT:301.265:-1.0:300.0:-1
ipc-2014-agile-childsnack-09.pddl,SAT:9.57054:67.0:300.0:-1
ipc-2014-agile-childsnack-10-2.pddl,SAT:8.03878:72.0:300.0:-1
ipc-2014-agile-childsnack-10.pddl,SAT:5.9051:72.0:300.0:-1
ipc-2014-agile-childsnack-11-2.pddl,SAT:8.45471:77.0:300.0:-1
ipc-2014-agile-childsnack-11.pddl,TIMEOUT:301.25:-1.0:300.0:-1
ipc-2014-agile-childsnack-12.pddl,TIMEOUT:301.252:-1.0:300.0:-1
ipc-2014-agile-childsnack-13-2.pddl,TIMEOUT:301.232:-1.0:300.0:-1
ipc-2014-agile-childsnack-13.pddl,TIMEOUT:301.339:-1.0:300.0:-1
ipc-2014-agile-childsnack-14.pddl,TIMEOUT:301.306:-1.0:300.0:-1
ipc-2014-agile-childsnack-15-2.pddl,TIMEOUT:301.273:-1.0:300.0:-1
ipc-2014-agile-childsnack-16-2.pddl,TIMEOUT:301.247:-1.0:300.0:-1
ipc-2014-agile-childsnack-19-2.pddl,TIMEOUT:301.315:-1.0:300.0:-1
ipc-2014-agile-childsnack-19.pddl,TIMEOUT:301.312:-1.0:300.0:-1
ipc-2014-agile-citycar-p3-2-2-0-1.pddl,SAT:1.34579:110.0:300.0:-1
ipc-2014-agile-citycar-p3-3-2-0-1.pddl,SAT:18.9791:285.0:300.0:-1
ipc-2014-agile-citycar-p3-4-2-0-1.pddl,SAT:7.36788:240.0:300.0:-1
ipc-2014-agile-citycar-p3-5-2-0-1.pddl,SAT:9.11361:241.0:300.0:-1
ipc-2014-agile-citycar-p3-5-2-0-2.pddl,SAT:26.9629:273.0:300.0:-1
ipc-2014-agile-citycar-p4-2-2-0-1.pddl,TIMEOUT:301.186:-1.0:300.0:-1
ipc-2014-agile-citycar-p4-2-3-0-1.pddl,TIMEOUT:301.171:-1.0:300.0:-1
ipc-2014-agile-citycar-p4-2-3-0-2.pddl,TIMEOUT:301.196:-1.0:300.0:-1
ipc-2014-agile-citycar-p4-3-2-0-1.pddl,TIMEOUT:301.219:-1.0:300.0:-1
ipc-2014-agile-citycar-p4-3-2-0-2.pddl,TIMEOUT:301.367:-1.0:300.0:-1
ipc-2014-agile-citycar-p4-3-3-0-1.pddl,TIMEOUT:301.377:-1.0:300.0:-1
ipc-2014-agile-citycar-p4-3-3-0-2.pddl,TIMEOUT:301.121:-1.0:300.0:-1
ipc-2014-agile-citycar-p4-4-2-0-1.pddl,TIMEOUT:301.36:-1.0:300.0:-1
ipc-2014-agile-citycar-p4-4-2-0-2.pddl,TIMEOUT:301.195:-1.0:300.0:-1
ipc-2014-agile-citycar-p4-4-3-0-1.pddl,TIMEOUT:301.179:-1.0:300.0:-1
ipc-2014-agile-citycar-p4-4-3-0-2.pddl,TIMEOUT:301.176:-1.0:300.0:-1
ipc-2014-agile-citycar-p4-5-2-0-1.pddl,TIMEOUT:301.365:-1.0:300.0:-1
ipc-2014-agile-citycar-p4-5-2-0-2.pddl,TIMEOUT:301.143:-1.0:300.0:-1
ipc-2014-agile-citycar-p4-5-3-0-1.pddl,TIMEOUT:301.217:-1.0:300.0:-1
ipc-2014-agile-citycar-p4-5-3-0-2.pddl,TIMEOUT:301.229:-1.0:300.0:-1
ipc-2014-agile-floortile-p01-4-3-2.pddl,SAT:2.46462:101.0:300.0:-1
ipc-2014-agile-floortile-p01-5-4-2.pddl,TIMEOUT:301.21:-1.0:300.0:-1
ipc-2014-agile-floortile-p01-5-5-2.pddl,TIMEOUT:301.174:-1.0:300.0:-1
ipc-2014-agile-floortile-p01-6-4-2.pddl,SAT:283.796:174.0:300.0:-1
ipc-2014-agile-floortile-p01-6-5-2.pddl,TIMEOUT:301.131:-1.0:300.0:-1
ipc-2014-agile-floortile-p01-6-5-3.pddl,TIMEOUT:301.189:-1.0:300.0:-1
ipc-2014-agile-floortile-p02-5-4-2.pddl,TIMEOUT:301.203:-1.0:300.0:-1
ipc-2014-agile-floortile-p02-6-4-2.pddl,TIMEOUT:301.252:-1.0:300.0:-1
ipc-2014-agile-floortile-p02-6-5-2.pddl,TIMEOUT:301.195:-1.0:300.0:-1
ipc-2014-agile-floortile-p02-6-5-3.pddl,TIMEOUT:301.167:-1.0:300.0:-1
ipc-2014-agile-floortile-p03-6-4-2.pddl,TIMEOUT:301.154:-1.0:300.0:-1
ipc-2014-agile-floortile-p03-6-5-2.pddl,TIMEOUT:301.181:-1.0:300.0:-1
ipc-2014-agile-floortile-p03-6-5-3.pddl,TIMEOUT:301.156:-1.0:300.0:-1
ipc-2014-agile-floortile-p04-5-4-2.pddl,TIMEOUT:301.201:-1.0:300.0:-1
ipc-2014-agile-floortile-p04-5-5-2.pddl,TIMEOUT:301.201:-1.0:300.0:-1
ipc-2014-agile-floortile-p04-6-5-2.pddl,TIMEOUT:301.135:-1.0:300.0:-1
ipc-2014-agile-floortile-p04-6-5-3.pddl,TIMEOUT:301.183:-1.0:300.0:-1
ipc-2014-agile-floortile-p05-4-3-2.pddl,SAT:0.277957:72.0:300.0:-1
ipc-2014-agile-floortile-p05-6-5-2.pddl,TIMEOUT:301.152:-1.0:300.0:-1
ipc-2014-agile-floortile-p05-6-5-3.pddl,TIMEOUT:301.164:-1.0:300.0:-1
ipc-2014-agile-ged-d-10-1.pddl,SAT:5.2642:39.0:300.0:-1
ipc-2014-agile-ged-d-10-2.pddl,SAT:5.2602:40.0:300.0:-1
ipc-2014-agile-ged-d-10-3.pddl,SAT:7.44487:41.0:300.0:-1
ipc-2014-agile-ged-d-10-4.pddl,SAT:3.78142:34.0:300.0:-1
ipc-2014-agile-ged-d-10-5.pddl,TIMEOUT:301.067:-1.0:300.0:-1
ipc-2014-agile-ged-d-10-6.pddl,TIMEOUT:301.127:-1.0:300.0:-1
ipc-2014-agile-ged-d-11-1.pddl,SAT:6.31804:45.0:300.0:-1
ipc-2014-agile-ged-d-11-3.pddl,TIMEOUT:301.115:-1.0:300.0:-1
ipc-2014-agile-ged-d-11-5.pddl,SAT:13.234:55.0:300.0:-1
ipc-2014-agile-ged-d-11-6.pddl,TIMEOUT:301.133:-1.0:300.0:-1
ipc-2014-agile-ged-d-12-11.pddl,TIMEOUT:301.138:-1.0:300.0:-1
ipc-2014-agile-ged-d-12-2.pddl,TIMEOUT:301.116:-1.0:300.0:-1
ipc-2014-agile-ged-d-12-3.pddl,TIMEOUT:301.07:-1.0:300.0:-1
ipc-2014-agile-ged-d-12-5.pddl,TIMEOUT:301.071:-1.0:300.0:-1
ipc-2014-agile-ged-d-12-6.pddl,TIMEOUT:301.116:-1.0:300.0:-1
ipc-2014-agile-ged-d-12-7.pddl,SAT:29.0376:62.0:300.0:-1
ipc-2014-agile-ged-d-12-8.pddl,TIMEOUT:301.099:-1.0:300.0:-1
ipc-2014-agile-ged-d-12-9.pddl,TIMEOUT:301.137:-1.0:300.0:-1
ipc-2014-agile-ged-d-3-6.pddl,SAT:2.79857:32.0:300.0:-1
ipc-2014-agile-ged-d-9-5.pddl,SAT:202.539:31.0:300.0:-1
ipc-2014-agile-hiking-3-4-3.pddl,SAT:10.9293:17.0:300.0:-1
ipc-2014-agile-hiking-3-4-4.pddl,SAT:37.8432:23.0:300.0:-1
ipc-2014-agile-hiking-3-4-5.pddl,SAT:220.605:45.0:300.0:-1
ipc-2014-agile-hiking-3-4-6.pddl,TIMEOUT:301.099:-1.0:300.0:-1
ipc-2014-agile-hiking-3-4-7.pddl,TIMEOUT:301.088:-1.0:300.0:-1
ipc-2014-agile-hiking-3-4-8.pddl,TIMEOUT:301.095:-1.0:300.0:-1
ipc-2014-agile-hiking-3-4-9.pddl,TIMEOUT:301.109:-1.0:300.0:-1
ipc-2014-agile-hiking-4-5-3.pddl,SAT:119.984:20.0:300.0:-1
ipc-2014-agile-hiking-4-5-4.pddl,TIMEOUT:301.066:-1.0:300.0:-1
ipc-2014-agile-hiking-4-5-5.pddl,TIMEOUT:301.082:-1.0:300.0:-1
ipc-2014-agile-hiking-4-5-6.pddl,TIMEOUT:301.098:-1.0:300.0:-1
ipc-2014-agile-hiking-4-5-7.pddl,TIMEOUT:301.08:-1.0:300.0:-1
ipc-2014-agile-hiking-4-5-8.pddl,TIMEOUT:301.082:-1.0:300.0:-1
ipc-2014-agile-hiking-4-5-9.pddl,TIMEOUT:301.167:-1.0:300.0:-1
ipc-2014-agile-hiking-5-6-3.pddl,TIMEOUT:301.099:-1.0:300.0:-1
ipc-2014-agile-hiking-5-6-4.pddl,TIMEOUT:301.098:-1.0:300.0:-1
ipc-2014-agile-hiking-5-6-5.pddl,TIMEOUT:301.132:-1.0:300.0:-1
ipc-2014-agile-hiking-5-6-6.pddl,TIMEOUT:301.074:-1.0:300.0:-1
ipc-2014-agile-hiking-5-6-7.pddl,TIMEOUT:301.13:-1.0:300.0:-1
ipc-2014-agile-hiking-5-6-8.pddl,TIMEOUT:301.163:-1.0:300.0:-1
ipc-2014-agile-maintenance-1.3.060.180.5-000.pddl,SAT:3.53046:40.0:300.0:-1
ipc-2014-agile-maintenance-1.3.060.180.5-001.pddl,SAT:8.13376:44.0:300.0:-1
ipc-2014-agile-maintenance-1.3.060.180.5-002.pddl,SAT:3.59845:43.0:300.0:-1
ipc-2014-agile-maintenance-1.3.100.300.5-000.pddl,SAT:28.4157:68.0:300.0:-1
ipc-2014-agile-maintenance-1.3.100.300.5-001.pddl,SAT:29.5595:72.0:300.0:-1
ipc-2014-agile-maintenance-1.3.100.300.7-000.pddl,SAT:29.5165:56.0:300.0:-1
ipc-2014-agile-maintenance-1.3.100.300.7-001.pddl,SAT:28.3587:54.0:300.0:-1
ipc-2014-agile-maintenance-1.3.100.300.7-002.pddl,SAT:29.8315:56.0:300.0:-1
ipc-2014-agile-maintenance-1.3.150.500.6-001.pddl,SAT:5.34219:98.0:300.0:-1
ipc-2014-agile-maintenance-1.3.200.500.5-001.pddl,CRASHED:43.1364:1000000000.0:300.0:-1
ipc-2014-agile-maintenance-1.3.200.500.5-002.pddl,SAT:8.48271:127.0:300.0:-1
ipc-2014-agile-maintenance-1.3.200.700.7-000.pddl,CRASHED:2.93655:1000000000.0:300.0:-1
ipc-2014-agile-maintenance-1.3.200.700.7-001.pddl,CRASHED:2.93955:1000000000.0:300.0:-1
ipc-2014-agile-maintenance-1.3.200.700.7-002.pddl,CRASHED:2.92155:1000000000.0:300.0:-1
ipc-2014-agile-maintenance-1.3.200.900.5-000.pddl,CRASHED:2.48062:1000000000.0:300.0:-1
ipc-2014-agile-maintenance-1.3.200.900.5-001.pddl,CRASHED:2.47362:1000000000.0:300.0:-1
ipc-2014-agile-maintenance-1.3.200.900.5-002.pddl,CRASHED:2.49562:1000000000.0:300.0:-1
ipc-2014-agile-maintenance-1.3.200.900.8-000.pddl,CRASHED:2.50762:1000000000.0:300.0:-1
ipc-2014-agile-maintenance-1.3.200.900.8-001.pddl,CRASHED:2.52761:1000000000.0:300.0:-1
ipc-2014-agile-maintenance-1.3.200.900.8-002.pddl,CRASHED:2.53361:1000000000.0:300.0:-1
ipc-2014-agile-openstacks-p130_2.pddl,SAT:202.439:64.0:300.0:-1
ipc-2014-agile-openstacks-p130_3.pddl,SAT:283.665:108.0:300.0:-1
ipc-2014-agile-openstacks-p150_2.pddl,TIMEOUT:301.077:-1.0:300.0:-1
ipc-2014-agile-openstacks-p150_3.pddl,TIMEOUT:301.113:-1.0:300.0:-1
ipc-2014-agile-openstacks-p170_1.pddl,TIMEOUT:301.073:-1.0:300.0:-1
ipc-2014-agile-openstacks-p170_2.pddl,TIMEOUT:301.078:-1.0:300.0:-1
ipc-2014-agile-openstacks-p170_3.pddl,TIMEOUT:301.068:-1.0:300.0:-1
ipc-2014-agile-openstacks-p190_1.pddl,TIMEOUT:301.08:-1.0:300.0:-1
ipc-2014-agile-openstacks-p190_2.pddl,TIMEOUT:301.083:-1.0:300.0:-1
ipc-2014-agile-openstacks-p190_3.pddl,TIMEOUT:301.121:-1.0:300.0:-1
ipc-2014-agile-openstacks-p210_1.pddl,TIMEOUT:301.151:-1.0:300.0:-1
ipc-2014-agile-openstacks-p210_2.pddl,TIMEOUT:301.124:-1.0:300.0:-1
ipc-2014-agile-openstacks-p230_1.pddl,TIMEOUT:301.107:-1.0:300.0:-1
ipc-2014-agile-openstacks-p230_2.pddl,TIMEOUT:301.187:-1.0:300.0:-1
ipc-2014-agile-openstacks-p250_1.pddl,TIMEOUT:301.144:-1.0:300.0:-1
ipc-2014-agile-openstacks-p250_2.pddl,TIMEOUT:301.137:-1.0:300.0:-1
ipc-2014-agile-openstacks-p270_1.pddl,TIMEOUT:301.178:-1.0:300.0:-1
ipc-2014-agile-openstacks-p270_2.pddl,TIMEOUT:301.204:-1.0:300.0:-1
ipc-2014-agile-openstacks-p290_1.pddl,TIMEOUT:301.237:-1.0:300.0:-1
ipc-2014-agile-openstacks-p290_2.pddl,TIMEOUT:301.246:-1.0:300.0:-1
ipc-2014-agile-parking-28_2.pddl,SAT:168.838:96.0:300.0:-1
ipc-2014-agile-parking-28_3.pddl,SAT:160.099:90.0:300.0:-1
ipc-2014-agile-parking-30_1.pddl,SAT:82.2335:58.0:300.0:-1
ipc-2014-agile-parking-30_2.pddl,SAT:227.313:98.0:300.0:-1
ipc-2014-agile-parking-30_3.pddl,SAT:173.58:96.0:300.0:-1
ipc-2014-agile-parking-32_1.pddl,TIMEOUT:301.074:-1.0:300.0:-1
ipc-2014-agile-parking-32_2.pddl,TIMEOUT:301.109:-1.0:300.0:-1
ipc-2014-agile-parking-32_3.pddl,TIMEOUT:301.109:-1.0:300.0:-1
ipc-2014-agile-parking-34_1.pddl,TIMEOUT:301.094:-1.0:300.0:-1
ipc-2014-agile-parking-34_2.pddl,TIMEOUT:301.136:-1.0:300.0:-1
ipc-2014-agile-parking-34_3.pddl,TIMEOUT:301.081:-1.0:300.0:-1
ipc-2014-agile-parking-36_1.pddl,TIMEOUT:301.135:-1.0:300.0:-1
ipc-2014-agile-parking-36_2.pddl,TIMEOUT:301.158:-1.0:300.0:-1
ipc-2014-agile-parking-36_3.pddl,TIMEOUT:301.143:-1.0:300.0:-1
ipc-2014-agile-parking-38_1.pddl,TIMEOUT:301.111:-1.0:300.0:-1
ipc-2014-agile-parking-38_2.pddl,TIMEOUT:301.144:-1.0:300.0:-1
ipc-2014-agile-parking-38_3.pddl,TIMEOUT:301.197:-1.0:300.0:-1
ipc-2014-agile-parking-40_1.pddl,TIMEOUT:301.154:-1.0:300.0:-1
ipc-2014-agile-parking-40_2.pddl,TIMEOUT:301.188:-1.0:300.0:-1
ipc-2014-agile-parking-40_3.pddl,TIMEOUT:301.129:-1.0:300.0:-1
ipc-2014-agile-tetris-020.pddl,SAT:108.33:55.0:300.0:-1
ipc-2014-agile-tetris-021.pddl,TIMEOUT:301.12:-1.0:300.0:-1
ipc-2014-agile-tetris-022.pddl,TIMEOUT:301.028:-1.0:300.0:-1
ipc-2014-agile-tetris-023.pddl,TIMEOUT:301.111:-1.0:300.0:-1
ipc-2014-agile-tetris-024.pddl,TIMEOUT:301.033:-1.0:300.0:-1
ipc-2014-agile-tetris-025.pddl,TIMEOUT:301.1:-1.0:300.0:-1
ipc-2014-agile-tetris-026.pddl,TIMEOUT:301.029:-1.0:300.0:-1
ipc-2014-agile-tetris-027.pddl,TIMEOUT:301.085:-1.0:300.0:-1
ipc-2014-agile-tetris-028.pddl,TIMEOUT:301.048:-1.0:300.0:-1
ipc-2014-agile-tetris-029.pddl,TIMEOUT:301.024:-1.0:300.0:-1
ipc-2014-agile-tetris-031.pddl,TIMEOUT:301.08:-1.0:300.0:-1
ipc-2014-agile-tetris-032.pddl,TIMEOUT:301.049:-1.0:300.0:-1
ipc-2014-agile-tetris-033.pddl,TIMEOUT:301.083:-1.0:300.0:-1
ipc-2014-agile-tetris-034.pddl,TIMEOUT:301.065:-1.0:300.0:-1
ipc-2014-agile-tetris-035.pddl,TIMEOUT:301.049:-1.0:300.0:-1
ipc-2014-agile-tetris-036.pddl,TIMEOUT:301.094:-1.0:300.0:-1
ipc-2014-agile-tetris-037.pddl,TIMEOUT:301.014:-1.0:300.0:-1
ipc-2014-agile-tetris-038.pddl,TIMEOUT:301.077:-1.0:300.0:-1
ipc-2014-agile-tetris-039.pddl,TIMEOUT:301.092:-1.0:300.0:-1
ipc-2014-agile-tetris-040.pddl,TIMEOUT:301.107:-1.0:300.0:-1
ipc-2014-agile-thoughtful-bootstrap-typed-01.pddl,SAT:0.115981:29.0:300.0:-1
ipc-2014-agile-thoughtful-bootstrap-typed-02.pddl,SAT:0.107982:31.0:300.0:-1
ipc-2014-agile-thoughtful-bootstrap-typed-03.pddl,SAT:0.12198:34.0:300.0:-1
ipc-2014-agile-thoughtful-bootstrap-typed-04.pddl,SAT:0.12098:32.0:300.0:-1
ipc-2014-agile-thoughtful-bootstrap-typed-05.pddl,SAT:0.136978:35.0:300.0:-1
ipc-2014-agile-thoughtful-p11_6_53-typed.pddl,SAT:4.99224:114.0:300.0:-1
ipc-2014-agile-thoughtful-p11_6_59-typed.pddl,TIMEOUT:301.163:-1.0:300.0:-1
ipc-2014-agile-thoughtful-p11_6_62-typed.pddl,TIMEOUT:301.151:-1.0:300.0:-1
ipc-2014-agile-thoughtful-p13_7_78-typed.pddl,SAT:9.56954:149.0:300.0:-1
ipc-2014-agile-thoughtful-p13_7_79-typed.pddl,SAT:6.11307:123.0:300.0:-1
ipc-2014-agile-thoughtful-p13_7_86-typed.pddl,SAT:6.91395:143.0:300.0:-1
ipc-2014-agile-thoughtful-target-typed-20.pddl,SAT:9.28459:126.0:300.0:-1
ipc-2014-agile-thoughtful-target-typed-21.pddl,TIMEOUT:301.119:-1.0:300.0:-1
ipc-2014-agile-thoughtful-target-typed-22.pddl,SAT:10.5924:154.0:300.0:-1
ipc-2014-agile-thoughtful-target-typed-23.pddl,SAT:7.2549:141.0:300.0:-1
ipc-2014-agile-thoughtful-target-typed-24.pddl,SAT:9.80251:153.0:300.0:-1
ipc-2014-agile-thoughtful-target-typed-25.pddl,SAT:23.1465:146.0:300.0:-1
ipc-2014-agile-thoughtful-target-typed-26.pddl,TIMEOUT:301.163:-1.0:300.0:-1
ipc-2014-agile-thoughtful-target-typed-27.pddl,SAT:15.2927:140.0:300.0:-1
ipc-2014-agile-thoughtful-target-typed-28.pddl,SAT:20.2599:137.0:300.0:-1
ipc-2014-agile-transport-01.pddl,SAT:94.7876:3106.0:300.0:-1
ipc-2014-agile-transport-02.pddl,SAT:209.958:3526.0:300.0:-1
ipc-2014-agile-transport-03.pddl,SAT:141.054:2949.0:300.0:-1
ipc-2014-agile-transport-04.pddl,TIMEOUT:301.118:-1.0:300.0:-1
ipc-2014-agile-transport-05.pddl,TIMEOUT:301.156:-1.0:300.0:-1
ipc-2014-agile-transport-06.pddl,TIMEOUT:301.128:-1.0:300.0:-1
ipc-2014-agile-transport-07.pddl,TIMEOUT:301.159:-1.0:300.0:-1
ipc-2014-agile-transport-08.pddl,TIMEOUT:301.188:-1.0:300.0:-1
ipc-2014-agile-transport-09.pddl,TIMEOUT:301.174:-1.0:300.0:-1
ipc-2014-agile-transport-10.pddl,TIMEOUT:301.205:-1.0:300.0:-1
ipc-2014-agile-transport-11.pddl,SAT:251.91:2366.0:300.0:-1
ipc-2014-agile-transport-12.pddl,SAT:244.128:3603.0:300.0:-1
ipc-2014-agile-transport-13.pddl,SAT:76.2524:2762.0:300.0:-1
ipc-2014-agile-transport-14.pddl,TIMEOUT:301.162:-1.0:300.0:-1
ipc-2014-agile-transport-15.pddl,TIMEOUT:301.106:-1.0:300.0:-1
ipc-2014-agile-transport-16.pddl,TIMEOUT:301.175:-1.0:300.0:-1
ipc-2014-agile-transport-17.pddl,TIMEOUT:301.149:-1.0:300.0:-1
ipc-2014-agile-transport-18.pddl,TIMEOUT:301.219:-1.0:300.0:-1
ipc-2014-agile-transport-19.pddl,TIMEOUT:301.164:-1.0:300.0:-1
ipc-2014-agile-transport-20.pddl,TIMEOUT:301.214:-1.0:300.0:-1
ipc-2014-agile-visitall-30.pddl,SAT:8.92864:899.0:300.0:-1
ipc-2014-agile-visitall-31.pddl,SAT:10.7894:960.0:300.0:-1
ipc-2014-agile-visitall-32.pddl,SAT:12.7571:1023.0:300.0:-1
ipc-2014-agile-visitall-33.pddl,SAT:14.9547:1088.0:300.0:-1
ipc-2014-agile-visitall-50.pddl,SAT:142.087:2499.0:300.0:-1
ipc-2014-agile-visitall-51.pddl,SAT:159.392:2600.0:300.0:-1
ipc-2014-agile-visitall-52.pddl,SAT:177.776:2703.0:300.0:-1
ipc-2014-agile-visitall-53.pddl,SAT:197.001:2808.0:300.0:-1
ipc-2014-agile-visitall-54.pddl,SAT:218.386:2915.0:300.0:-1
ipc-2014-agile-visitall-55.pddl,SAT:242.99:3024.0:300.0:-1
ipc-2014-agile-visitall-56.pddl,SAT:274.88:3135.0:300.0:-1
ipc-2014-agile-visitall-57.pddl,TIMEOUT:301.157:-1.0:300.0:-1
ipc-2014-agile-visitall-58.pddl,TIMEOUT:301.165:-1.0:300.0:-1
ipc-2014-agile-visitall-59.pddl,TIMEOUT:301.148:-1.0:300.0:-1
ipc-2014-agile-visitall-60.pddl,TIMEOUT:301.08:-1.0:300.0:-1
ipc-2014-agile-visitall-61.pddl,TIMEOUT:301.113:-1.0:300.0:-1
ipc-2014-agile-visitall-62.pddl,TIMEOUT:301.162:-1.0:300.0:-1
ipc-2014-agile-visitall-63.pddl,TIMEOUT:301.173:-1.0:300.0:-1
ipc-2014-agile-visitall-64.pddl,TIMEOUT:301.169:-1.0:300.0:-1
ipc-2014-agile-visitall-65.pddl,TIMEOUT:301.125:-1.0:300.0:-1
