instance,ipc-2014-agile-yahsp3-mt
ipc-2014-agile-barman-p1-11-4-15.pddl,CRASHED:70.0214:1000000000.0:300.0:-1
ipc-2014-agile-barman-p1-11-5-15.pddl,CRASHED:142.737:1000000000.0:300.0:-1
ipc-2014-agile-barman-p1-11-5-16.pddl,CRASHED:57.0643:1000000000.0:300.0:-1
ipc-2014-agile-barman-p2-10-4-13.pddl,CRASHED:25.8891:1000000000.0:300.0:-1
ipc-2014-agile-barman-p2-11-4-15.pddl,CRASHED:63.1934:1000000000.0:300.0:-1
ipc-2014-agile-barman-p2-11-5-15.pddl,CRASHED:23.3624:1000000000.0:300.0:-1
ipc-2014-agile-barman-p2-11-5-16.pddl,SAT:9.51955:527.0:300.0:-1
ipc-2014-agile-barman-p2-11-5-17.pddl,CRASHED:263.197:1000000000.0:300.0:-1
ipc-2014-agile-barman-p3-10-4-13.pddl,CRASHED:24.4573:1000000000.0:300.0:-1
ipc-2014-agile-barman-p3-11-4-15.pddl,CRASHED:39.153:1000000000.0:300.0:-1
ipc-2014-agile-barman-p3-11-5-15.pddl,CRASHED:52.524:1000000000.0:300.0:-1
ipc-2014-agile-barman-p3-11-5-16.pddl,CRASHED:39.353:1000000000.0:300.0:-1
ipc-2014-agile-barman-p3-11-5-17.pddl,CRASHED:31.6612:1000000000.0:300.0:-1
ipc-2014-agile-barman-p4-11-4-14.pddl,CRASHED:28.2117:1000000000.0:300.0:-1
ipc-2014-agile-barman-p4-11-4-15.pddl,CRASHED:52.9909:1000000000.0:300.0:-1
ipc-2014-agile-barman-p4-11-5-15.pddl,CRASHED:28.9866:1000000000.0:300.0:-1
ipc-2014-agile-barman-p5-10-4-13.pddl,CRASHED:24.7132:1000000000.0:300.0:-1
ipc-2014-agile-barman-p5-11-4-15.pddl,CRASHED:31.0153:1000000000.0:300.0:-1
ipc-2014-agile-barman-p5-11-5-15.pddl,CRASHED:72.452:1000000000.0:300.0:-1
ipc-2014-agile-barman-p5-11-5-16.pddl,SAT:9.62554:521.0:300.0:-1
ipc-2014-agile-cavediving-01_easy.pddl,CRASHED:0.008997:1000000000.0:300.0:-1
ipc-2014-agile-cavediving-01.pddl,CRASHED:0.007997:1000000000.0:300.0:-1
ipc-2014-agile-cavediving-02_easy.pddl,CRASHED:0.011998:1000000000.0:300.0:-1
ipc-2014-agile-cavediving-03_easy.pddl,CRASHED:0.007998:1000000000.0:300.0:-1
ipc-2014-agile-cavediving-04_easy.pddl,CRASHED:0.007998:1000000000.0:300.0:-1
ipc-2014-agile-cavediving-05A_easy.pddl,CRASHED:0.011997:1000000000.0:300.0:-1
ipc-2014-agile-cavediving-06A_easy.pddl,CRASHED:0.007998:1000000000.0:300.0:-1
ipc-2014-agile-cavediving-07_easy.pddl,CRASHED:0.007997:1000000000.0:300.0:-1
ipc-2014-agile-cavediving-08_easy.pddl,CRASHED:0.011998:1000000000.0:300.0:-1
ipc-2014-agile-cavediving-09_easy.pddl,CRASHED:0.007998:1000000000.0:300.0:-1
ipc-2014-agile-cavediving-10_easy.pddl,CRASHED:0.007998:1000000000.0:300.0:-1
ipc-2014-agile-cavediving-11_easy.pddl,CRASHED:0.011997:1000000000.0:300.0:-1
ipc-2014-agile-cavediving-12_easy.pddl,CRASHED:0.007998:1000000000.0:300.0:-1
ipc-2014-agile-cavediving-13_easy.pddl,CRASHED:0.007998:1000000000.0:300.0:-1
ipc-2014-agile-cavediving-14_easy.pddl,CRASHED:0.011997:1000000000.0:300.0:-1
ipc-2014-agile-cavediving-15_easy.pddl,CRASHED:0.007998:1000000000.0:300.0:-1
ipc-2014-agile-cavediving-16_easy.pddl,CRASHED:0.007997:1000000000.0:300.0:-1
ipc-2014-agile-cavediving-18A_easy.pddl,CRASHED:0.007997:1000000000.0:300.0:-1
ipc-2014-agile-cavediving-18_easy.pddl,CRASHED:0.006998:1000000000.0:300.0:-1
ipc-2014-agile-cavediving-20A_easy.pddl,CRASHED:0.007998:1000000000.0:300.0:-1
ipc-2014-agile-childsnack-05-2.pddl,TIMEOUT:302.213:-1.0:300.0:-1
ipc-2014-agile-childsnack-05.pddl,TIMEOUT:302.162:-1.0:300.0:-1
ipc-2014-agile-childsnack-06-2.pddl,TIMEOUT:302.452:-1.0:300.0:-1
ipc-2014-agile-childsnack-07-2.pddl,TIMEOUT:302.166:-1.0:300.0:-1
ipc-2014-agile-childsnack-08-2.pddl,TIMEOUT:303.058:-1.0:300.0:-1
ipc-2014-agile-childsnack-08.pddl,SAT:0.750885:71.0:300.0:-1
ipc-2014-agile-childsnack-09-2.pddl,TIMEOUT:301.986:-1.0:300.0:-1
ipc-2014-agile-childsnack-09.pddl,TIMEOUT:302.941:-1.0:300.0:-1
ipc-2014-agile-childsnack-10-2.pddl,TIMEOUT:302.049:-1.0:300.0:-1
ipc-2014-agile-childsnack-10.pddl,TIMEOUT:303.339:-1.0:300.0:-1
ipc-2014-agile-childsnack-11-2.pddl,TIMEOUT:302.207:-1.0:300.0:-1
ipc-2014-agile-childsnack-11.pddl,TIMEOUT:301.73:-1.0:300.0:-1
ipc-2014-agile-childsnack-12.pddl,TIMEOUT:302.465:-1.0:300.0:-1
ipc-2014-agile-childsnack-13-2.pddl,TIMEOUT:301.994:-1.0:300.0:-1
ipc-2014-agile-childsnack-13.pddl,TIMEOUT:303.503:-1.0:300.0:-1
ipc-2014-agile-childsnack-14.pddl,TIMEOUT:303.403:-1.0:300.0:-1
ipc-2014-agile-childsnack-15-2.pddl,TIMEOUT:303.289:-1.0:300.0:-1
ipc-2014-agile-childsnack-16-2.pddl,TIMEOUT:302.889:-1.0:300.0:-1
ipc-2014-agile-childsnack-19-2.pddl,TIMEOUT:303.082:-1.0:300.0:-1
ipc-2014-agile-childsnack-19.pddl,TIMEOUT:303.088:-1.0:300.0:-1
ipc-2014-agile-citycar-p3-2-2-0-1.pddl,CRASHED:0.008997:1000000000.0:300.0:-1
ipc-2014-agile-citycar-p3-3-2-0-1.pddl,CRASHED:0.008998:1000000000.0:300.0:-1
ipc-2014-agile-citycar-p3-4-2-0-1.pddl,CRASHED:0.007998:1000000000.0:300.0:-1
ipc-2014-agile-citycar-p3-5-2-0-1.pddl,CRASHED:0.007998:1000000000.0:300.0:-1
ipc-2014-agile-citycar-p3-5-2-0-2.pddl,CRASHED:0.007998:1000000000.0:300.0:-1
ipc-2014-agile-citycar-p4-2-2-0-1.pddl,CRASHED:0.007998:1000000000.0:300.0:-1
ipc-2014-agile-citycar-p4-2-3-0-1.pddl,CRASHED:0.007998:1000000000.0:300.0:-1
ipc-2014-agile-citycar-p4-2-3-0-2.pddl,CRASHED:0.007998:1000000000.0:300.0:-1
ipc-2014-agile-citycar-p4-3-2-0-1.pddl,CRASHED:0.008997:1000000000.0:300.0:-1
ipc-2014-agile-citycar-p4-3-2-0-2.pddl,CRASHED:0.006998:1000000000.0:300.0:-1
ipc-2014-agile-citycar-p4-3-3-0-1.pddl,CRASHED:0.007997:1000000000.0:300.0:-1
ipc-2014-agile-citycar-p4-3-3-0-2.pddl,CRASHED:0.007998:1000000000.0:300.0:-1
ipc-2014-agile-citycar-p4-4-2-0-1.pddl,CRASHED:0.007997:1000000000.0:300.0:-1
ipc-2014-agile-citycar-p4-4-2-0-2.pddl,CRASHED:0.007998:1000000000.0:300.0:-1
ipc-2014-agile-citycar-p4-4-3-0-1.pddl,CRASHED:0.008997:1000000000.0:300.0:-1
ipc-2014-agile-citycar-p4-4-3-0-2.pddl,CRASHED:0.008997:1000000000.0:300.0:-1
ipc-2014-agile-citycar-p4-5-2-0-1.pddl,CRASHED:0.007998:1000000000.0:300.0:-1
ipc-2014-agile-citycar-p4-5-2-0-2.pddl,CRASHED:0.007998:1000000000.0:300.0:-1
ipc-2014-agile-citycar-p4-5-3-0-1.pddl,CRASHED:0.007997:1000000000.0:300.0:-1
ipc-2014-agile-citycar-p4-5-3-0-2.pddl,CRASHED:0.007998:1000000000.0:300.0:-1
ipc-2014-agile-floortile-p01-4-3-2.pddl,CRASHED:25.2012:1000000000.0:300.0:-1
ipc-2014-agile-floortile-p01-5-4-2.pddl,TIMEOUT:302.254:-1.0:300.0:-1
ipc-2014-agile-floortile-p01-5-5-2.pddl,TIMEOUT:302.745:-1.0:300.0:-1
ipc-2014-agile-floortile-p01-6-4-2.pddl,TIMEOUT:302.807:-1.0:300.0:-1
ipc-2014-agile-floortile-p01-6-5-2.pddl,TIMEOUT:302.754:-1.0:300.0:-1
ipc-2014-agile-floortile-p01-6-5-3.pddl,TIMEOUT:302.244:-1.0:300.0:-1
ipc-2014-agile-floortile-p02-5-4-2.pddl,TIMEOUT:303.707:-1.0:300.0:-1
ipc-2014-agile-floortile-p02-6-4-2.pddl,TIMEOUT:302.432:-1.0:300.0:-1
ipc-2014-agile-floortile-p02-6-5-2.pddl,TIMEOUT:302.939:-1.0:300.0:-1
ipc-2014-agile-floortile-p02-6-5-3.pddl,TIMEOUT:302.209:-1.0:300.0:-1
ipc-2014-agile-floortile-p03-6-4-2.pddl,TIMEOUT:302.874:-1.0:300.0:-1
ipc-2014-agile-floortile-p03-6-5-2.pddl,TIMEOUT:302.204:-1.0:300.0:-1
ipc-2014-agile-floortile-p03-6-5-3.pddl,TIMEOUT:302.533:-1.0:300.0:-1
ipc-2014-agile-floortile-p04-5-4-2.pddl,TIMEOUT:302.258:-1.0:300.0:-1
ipc-2014-agile-floortile-p04-5-5-2.pddl,TIMEOUT:303.981:-1.0:300.0:-1
ipc-2014-agile-floortile-p04-6-5-2.pddl,TIMEOUT:302.737:-1.0:300.0:-1
ipc-2014-agile-floortile-p04-6-5-3.pddl,TIMEOUT:303.48:-1.0:300.0:-1
ipc-2014-agile-floortile-p05-4-3-2.pddl,CRASHED:6.40203:1000000000.0:300.0:-1
ipc-2014-agile-floortile-p05-6-5-2.pddl,TIMEOUT:302.269:-1.0:300.0:-1
ipc-2014-agile-floortile-p05-6-5-3.pddl,TIMEOUT:302.875:-1.0:300.0:-1
ipc-2014-agile-ged-d-10-1.pddl,CRASHED:77.5522:1000000000.0:300.0:-1
ipc-2014-agile-ged-d-10-2.pddl,CRASHED:92.6499:1000000000.0:300.0:-1
ipc-2014-agile-ged-d-10-3.pddl,CRASHED:69.3435:1000000000.0:300.0:-1
ipc-2014-agile-ged-d-10-4.pddl,CRASHED:57.6982:1000000000.0:300.0:-1
ipc-2014-agile-ged-d-10-5.pddl,TIMEOUT:302.222:-1.0:300.0:-1
ipc-2014-agile-ged-d-10-6.pddl,CRASHED:269.623:1000000000.0:300.0:-1
ipc-2014-agile-ged-d-11-1.pddl,CRASHED:141.671:1000000000.0:300.0:-1
ipc-2014-agile-ged-d-11-3.pddl,CRASHED:75.5775:1000000000.0:300.0:-1
ipc-2014-agile-ged-d-11-5.pddl,TIMEOUT:302.085:-1.0:300.0:-1
ipc-2014-agile-ged-d-11-6.pddl,SAT:42.4525:49.0:300.0:-1
ipc-2014-agile-ged-d-12-11.pddl,SAT:23.8354:62.0:300.0:-1
ipc-2014-agile-ged-d-12-2.pddl,TIMEOUT:301.956:-1.0:300.0:-1
ipc-2014-agile-ged-d-12-3.pddl,TIMEOUT:301.997:-1.0:300.0:-1
ipc-2014-agile-ged-d-12-5.pddl,TIMEOUT:302.048:-1.0:300.0:-1
ipc-2014-agile-ged-d-12-6.pddl,TIMEOUT:302.17:-1.0:300.0:-1
ipc-2014-agile-ged-d-12-7.pddl,TIMEOUT:302.195:-1.0:300.0:-1
ipc-2014-agile-ged-d-12-8.pddl,TIMEOUT:302.15:-1.0:300.0:-1
ipc-2014-agile-ged-d-12-9.pddl,TIMEOUT:302.766:-1.0:300.0:-1
ipc-2014-agile-ged-d-3-6.pddl,CRASHED:82.4985:1000000000.0:300.0:-1
ipc-2014-agile-ged-d-9-5.pddl,CRASHED:241.388:1000000000.0:300.0:-1
ipc-2014-agile-hiking-3-4-3.pddl,SAT:0.047991:35.0:300.0:-1
ipc-2014-agile-hiking-3-4-4.pddl,SAT:0.128979:173.0:300.0:-1
ipc-2014-agile-hiking-3-4-5.pddl,SAT:1.36779:679.0:300.0:-1
ipc-2014-agile-hiking-3-4-6.pddl,SAT:11.2243:2522.0:300.0:-1
ipc-2014-agile-hiking-3-4-7.pddl,SAT:197.343:7019.0:300.0:-1
ipc-2014-agile-hiking-3-4-8.pddl,TIMEOUT:301.261:-1.0:300.0:-1
ipc-2014-agile-hiking-3-4-9.pddl,TIMEOUT:301.439:-1.0:300.0:-1
ipc-2014-agile-hiking-4-5-3.pddl,SAT:0.130979:24.0:300.0:-1
ipc-2014-agile-hiking-4-5-4.pddl,SAT:0.305953:116.0:300.0:-1
ipc-2014-agile-hiking-4-5-5.pddl,SAT:1.75973:583.0:300.0:-1
ipc-2014-agile-hiking-4-5-6.pddl,SAT:28.9706:1618.0:300.0:-1
ipc-2014-agile-hiking-4-5-7.pddl,SAT:86.8958:3180.0:300.0:-1
ipc-2014-agile-hiking-4-5-8.pddl,TIMEOUT:301.468:-1.0:300.0:-1
ipc-2014-agile-hiking-4-5-9.pddl,TIMEOUT:301.14:-1.0:300.0:-1
ipc-2014-agile-hiking-5-6-3.pddl,SAT:0.339948:59.0:300.0:-1
ipc-2014-agile-hiking-5-6-4.pddl,SAT:0.637902:144.0:300.0:-1
ipc-2014-agile-hiking-5-6-5.pddl,SAT:3.61145:434.0:300.0:-1
ipc-2014-agile-hiking-5-6-6.pddl,SAT:19.446:707.0:300.0:-1
ipc-2014-agile-hiking-5-6-7.pddl,SAT:135.62:2136.0:300.0:-1
ipc-2014-agile-hiking-5-6-8.pddl,TIMEOUT:301.144:-1.0:300.0:-1
ipc-2014-agile-maintenance-1.3.060.180.5-000.pddl,CRASHED:0.007998:1000000000.0:300.0:-1
ipc-2014-agile-maintenance-1.3.060.180.5-001.pddl,CRASHED:0.007997:1000000000.0:300.0:-1
ipc-2014-agile-maintenance-1.3.060.180.5-002.pddl,CRASHED:0.009998:1000000000.0:300.0:-1
ipc-2014-agile-maintenance-1.3.100.300.5-000.pddl,CRASHED:0.007998:1000000000.0:300.0:-1
ipc-2014-agile-maintenance-1.3.100.300.5-001.pddl,CRASHED:0.007997:1000000000.0:300.0:-1
ipc-2014-agile-maintenance-1.3.100.300.7-000.pddl,CRASHED:0.010997:1000000000.0:300.0:-1
ipc-2014-agile-maintenance-1.3.100.300.7-001.pddl,CRASHED:0.007997:1000000000.0:300.0:-1
ipc-2014-agile-maintenance-1.3.100.300.7-002.pddl,CRASHED:0.007998:1000000000.0:300.0:-1
ipc-2014-agile-maintenance-1.3.150.500.6-001.pddl,CRASHED:0.009997:1000000000.0:300.0:-1
ipc-2014-agile-maintenance-1.3.200.500.5-001.pddl,CRASHED:0.007998:1000000000.0:300.0:-1
ipc-2014-agile-maintenance-1.3.200.500.5-002.pddl,CRASHED:0.007998:1000000000.0:300.0:-1
ipc-2014-agile-maintenance-1.3.200.700.7-000.pddl,CRASHED:0.008997:1000000000.0:300.0:-1
ipc-2014-agile-maintenance-1.3.200.700.7-001.pddl,CRASHED:0.007998:1000000000.0:300.0:-1
ipc-2014-agile-maintenance-1.3.200.700.7-002.pddl,CRASHED:0.007998:1000000000.0:300.0:-1
ipc-2014-agile-maintenance-1.3.200.900.5-000.pddl,CRASHED:0.007998:1000000000.0:300.0:-1
ipc-2014-agile-maintenance-1.3.200.900.5-001.pddl,CRASHED:0.007998:1000000000.0:300.0:-1
ipc-2014-agile-maintenance-1.3.200.900.5-002.pddl,CRASHED:0.007998:1000000000.0:300.0:-1
ipc-2014-agile-maintenance-1.3.200.900.8-000.pddl,CRASHED:0.007998:1000000000.0:300.0:-1
ipc-2014-agile-maintenance-1.3.200.900.8-001.pddl,CRASHED:0.008998:1000000000.0:300.0:-1
ipc-2014-agile-maintenance-1.3.200.900.8-002.pddl,CRASHED:0.008997:1000000000.0:300.0:-1
ipc-2014-agile-openstacks-p130_2.pddl,CRASHED:0.84687:1000000000.0:300.0:-1
ipc-2014-agile-openstacks-p130_3.pddl,CRASHED:0.98385:1000000000.0:300.0:-1
ipc-2014-agile-openstacks-p150_2.pddl,CRASHED:1.26681:1000000000.0:300.0:-1
ipc-2014-agile-openstacks-p150_3.pddl,CRASHED:1.52277:1000000000.0:300.0:-1
ipc-2014-agile-openstacks-p170_1.pddl,CRASHED:1.88271:1000000000.0:300.0:-1
ipc-2014-agile-openstacks-p170_2.pddl,CRASHED:1.9677:1000000000.0:300.0:-1
ipc-2014-agile-openstacks-p170_3.pddl,CRASHED:2.20966:1000000000.0:300.0:-1
ipc-2014-agile-openstacks-p190_1.pddl,CRASHED:2.77958:1000000000.0:300.0:-1
ipc-2014-agile-openstacks-p190_2.pddl,CRASHED:2.85056:1000000000.0:300.0:-1
ipc-2014-agile-openstacks-p190_3.pddl,CRASHED:3.20451:1000000000.0:300.0:-1
ipc-2014-agile-openstacks-p210_1.pddl,CRASHED:3.73843:1000000000.0:300.0:-1
ipc-2014-agile-openstacks-p210_2.pddl,CRASHED:3.77043:1000000000.0:300.0:-1
ipc-2014-agile-openstacks-p230_1.pddl,CRASHED:5.12022:1000000000.0:300.0:-1
ipc-2014-agile-openstacks-p230_2.pddl,CRASHED:5.00424:1000000000.0:300.0:-1
ipc-2014-agile-openstacks-p250_1.pddl,CRASHED:6.63999:1000000000.0:300.0:-1
ipc-2014-agile-openstacks-p250_2.pddl,CRASHED:6.51901:1000000000.0:300.0:-1
ipc-2014-agile-openstacks-p270_1.pddl,CRASHED:7.93979:1000000000.0:300.0:-1
ipc-2014-agile-openstacks-p270_2.pddl,CRASHED:8.00278:1000000000.0:300.0:-1
ipc-2014-agile-openstacks-p290_1.pddl,CRASHED:10.1285:1000000000.0:300.0:-1
ipc-2014-agile-openstacks-p290_2.pddl,CRASHED:10.7244:1000000000.0:300.0:-1
ipc-2014-agile-parking-28_2.pddl,TIMEOUT:301.566:-1.0:300.0:-1
ipc-2014-agile-parking-28_3.pddl,TIMEOUT:301.215:-1.0:300.0:-1
ipc-2014-agile-parking-30_1.pddl,TIMEOUT:302.007:-1.0:300.0:-1
ipc-2014-agile-parking-30_2.pddl,TIMEOUT:301.515:-1.0:300.0:-1
ipc-2014-agile-parking-30_3.pddl,TIMEOUT:301.887:-1.0:300.0:-1
ipc-2014-agile-parking-32_1.pddl,TIMEOUT:301.73:-1.0:300.0:-1
ipc-2014-agile-parking-32_2.pddl,TIMEOUT:301.627:-1.0:300.0:-1
ipc-2014-agile-parking-32_3.pddl,TIMEOUT:301.215:-1.0:300.0:-1
ipc-2014-agile-parking-34_1.pddl,TIMEOUT:301.678:-1.0:300.0:-1
ipc-2014-agile-parking-34_2.pddl,TIMEOUT:301.263:-1.0:300.0:-1
ipc-2014-agile-parking-34_3.pddl,TIMEOUT:301.683:-1.0:300.0:-1
ipc-2014-agile-parking-36_1.pddl,TIMEOUT:301.373:-1.0:300.0:-1
ipc-2014-agile-parking-36_2.pddl,TIMEOUT:301.214:-1.0:300.0:-1
ipc-2014-agile-parking-36_3.pddl,TIMEOUT:301.544:-1.0:300.0:-1
ipc-2014-agile-parking-38_1.pddl,TIMEOUT:301.413:-1.0:300.0:-1
ipc-2014-agile-parking-38_2.pddl,TIMEOUT:301.325:-1.0:300.0:-1
ipc-2014-agile-parking-38_3.pddl,TIMEOUT:301.215:-1.0:300.0:-1
ipc-2014-agile-parking-40_1.pddl,TIMEOUT:301.248:-1.0:300.0:-1
ipc-2014-agile-parking-40_2.pddl,TIMEOUT:301.433:-1.0:300.0:-1
ipc-2014-agile-parking-40_3.pddl,TIMEOUT:301.52:-1.0:300.0:-1
ipc-2014-agile-tetris-020.pddl,SAT:6.97494:66.0:300.0:-1
ipc-2014-agile-tetris-021.pddl,CRASHED:16.0146:1000000000.0:300.0:-1
ipc-2014-agile-tetris-022.pddl,CRASHED:14.7318:1000000000.0:300.0:-1
ipc-2014-agile-tetris-023.pddl,CRASHED:14.7568:1000000000.0:300.0:-1
ipc-2014-agile-tetris-024.pddl,CRASHED:16.1295:1000000000.0:300.0:-1
ipc-2014-agile-tetris-025.pddl,SAT:45.4741:106.0:300.0:-1
ipc-2014-agile-tetris-026.pddl,CRASHED:23.6444:1000000000.0:300.0:-1
ipc-2014-agile-tetris-027.pddl,CRASHED:19.0271:1000000000.0:300.0:-1
ipc-2014-agile-tetris-028.pddl,CRASHED:17.6733:1000000000.0:300.0:-1
ipc-2014-agile-tetris-029.pddl,TIMEOUT:302.8:-1.0:300.0:-1
ipc-2014-agile-tetris-031.pddl,CRASHED:31.5962:1000000000.0:300.0:-1
ipc-2014-agile-tetris-032.pddl,CRASHED:23.0915:1000000000.0:300.0:-1
ipc-2014-agile-tetris-033.pddl,CRASHED:32.0851:1000000000.0:300.0:-1
ipc-2014-agile-tetris-034.pddl,CRASHED:29.2596:1000000000.0:300.0:-1
ipc-2014-agile-tetris-035.pddl,CRASHED:35.4456:1000000000.0:300.0:-1
ipc-2014-agile-tetris-036.pddl,CRASHED:32.773:1000000000.0:300.0:-1
ipc-2014-agile-tetris-037.pddl,CRASHED:20.9918:1000000000.0:300.0:-1
ipc-2014-agile-tetris-038.pddl,CRASHED:26.594:1000000000.0:300.0:-1
ipc-2014-agile-tetris-039.pddl,CRASHED:31.1473:1000000000.0:300.0:-1
ipc-2014-agile-tetris-040.pddl,CRASHED:27.0489:1000000000.0:300.0:-1
ipc-2014-agile-thoughtful-bootstrap-typed-01.pddl,SAT:0.668897:43.0:300.0:-1
ipc-2014-agile-thoughtful-bootstrap-typed-02.pddl,SAT:0.665897:49.0:300.0:-1
ipc-2014-agile-thoughtful-bootstrap-typed-03.pddl,SAT:0.663898:58.0:300.0:-1
ipc-2014-agile-thoughtful-bootstrap-typed-04.pddl,SAT:0.662898:41.0:300.0:-1
ipc-2014-agile-thoughtful-bootstrap-typed-05.pddl,SAT:0.658899:44.0:300.0:-1
ipc-2014-agile-thoughtful-p11_6_53-typed.pddl,SAT:11.3833:251.0:300.0:-1
ipc-2014-agile-thoughtful-p11_6_59-typed.pddl,SAT:11.3433:252.0:300.0:-1
ipc-2014-agile-thoughtful-p11_6_62-typed.pddl,SAT:12.1861:280.0:300.0:-1
ipc-2014-agile-thoughtful-p13_7_78-typed.pddl,TIMEOUT:302.653:-1.0:300.0:-1
ipc-2014-agile-thoughtful-p13_7_79-typed.pddl,SAT:21.6137:218.0:300.0:-1
ipc-2014-agile-thoughtful-p13_7_86-typed.pddl,SAT:22.0996:242.0:300.0:-1
ipc-2014-agile-thoughtful-target-typed-20.pddl,SAT:21.9537:240.0:300.0:-1
ipc-2014-agile-thoughtful-target-typed-21.pddl,SAT:22.9905:265.0:300.0:-1
ipc-2014-agile-thoughtful-target-typed-22.pddl,SAT:24.4773:221.0:300.0:-1
ipc-2014-agile-thoughtful-target-typed-23.pddl,SAT:22.5436:300.0:300.0:-1
ipc-2014-agile-thoughtful-target-typed-24.pddl,SAT:21.8057:199.0:300.0:-1
ipc-2014-agile-thoughtful-target-typed-25.pddl,SAT:21.6107:262.0:300.0:-1
ipc-2014-agile-thoughtful-target-typed-26.pddl,SAT:21.6757:217.0:300.0:-1
ipc-2014-agile-thoughtful-target-typed-27.pddl,SAT:21.4287:249.0:300.0:-1
ipc-2014-agile-thoughtful-target-typed-28.pddl,SAT:21.4937:251.0:300.0:-1
ipc-2014-agile-transport-01.pddl,SAT:1.20082:3810.0:300.0:-1
ipc-2014-agile-transport-02.pddl,SAT:2.6326:6184.0:300.0:-1
ipc-2014-agile-transport-03.pddl,SAT:1.37779:3743.0:300.0:-1
ipc-2014-agile-transport-04.pddl,SAT:8.39972:10850.0:300.0:-1
ipc-2014-agile-transport-05.pddl,SAT:22.2576:15192.0:300.0:-1
ipc-2014-agile-transport-06.pddl,SAT:7.2269:10850.0:300.0:-1
ipc-2014-agile-transport-07.pddl,SAT:8.43572:9553.0:300.0:-1
ipc-2014-agile-transport-08.pddl,SAT:12.3971:10621.0:300.0:-1
ipc-2014-agile-transport-09.pddl,SAT:8.83966:9553.0:300.0:-1
ipc-2014-agile-transport-10.pddl,SAT:9.13661:10048.0:300.0:-1
ipc-2014-agile-transport-11.pddl,SAT:2.03969:3135.0:300.0:-1
ipc-2014-agile-transport-12.pddl,SAT:2.58661:4243.0:300.0:-1
ipc-2014-agile-transport-13.pddl,SAT:4.00439:5166.0:300.0:-1
ipc-2014-agile-transport-14.pddl,SAT:7.52285:13141.0:300.0:-1
ipc-2014-agile-transport-15.pddl,SAT:17.7143:14125.0:300.0:-1
ipc-2014-agile-transport-16.pddl,SAT:9.79351:9618.0:300.0:-1
ipc-2014-agile-transport-17.pddl,SAT:10.0705:11167.0:300.0:-1
ipc-2014-agile-transport-18.pddl,SAT:10.3884:11132.0:300.0:-1
ipc-2014-agile-transport-19.pddl,SAT:6.86696:10489.0:300.0:-1
ipc-2014-agile-transport-20.pddl,SAT:8.94064:7929.0:300.0:-1
ipc-2014-agile-visitall-30.pddl,SAT:5.21121:1626.0:300.0:-1
ipc-2014-agile-visitall-31.pddl,SAT:6.49101:1764.0:300.0:-1
ipc-2014-agile-visitall-32.pddl,SAT:7.92179:1830.0:300.0:-1
ipc-2014-agile-visitall-33.pddl,SAT:10.0095:2018.0:300.0:-1
ipc-2014-agile-visitall-50.pddl,SAT:119.614:4725.0:300.0:-1
ipc-2014-agile-visitall-51.pddl,SAT:135.598:4941.0:300.0:-1
ipc-2014-agile-visitall-52.pddl,SAT:155.308:5337.0:300.0:-1
ipc-2014-agile-visitall-53.pddl,SAT:178.375:5338.0:300.0:-1
ipc-2014-agile-visitall-54.pddl,SAT:218.304:5769.0:300.0:-1
ipc-2014-agile-visitall-55.pddl,SAT:227.828:5918.0:300.0:-1
ipc-2014-agile-visitall-56.pddl,SAT:214.653:6328.0:300.0:-1
ipc-2014-agile-visitall-57.pddl,SAT:242.4:6646.0:300.0:-1
ipc-2014-agile-visitall-58.pddl,SAT:262.292:6523.0:300.0:-1
ipc-2014-agile-visitall-59.pddl,TIMEOUT:301.102:-1.0:300.0:-1
ipc-2014-agile-visitall-60.pddl,TIMEOUT:301.057:-1.0:300.0:-1
ipc-2014-agile-visitall-61.pddl,TIMEOUT:301.138:-1.0:300.0:-1
ipc-2014-agile-visitall-62.pddl,TIMEOUT:301.095:-1.0:300.0:-1
ipc-2014-agile-visitall-63.pddl,TIMEOUT:301.066:-1.0:300.0:-1
ipc-2014-agile-visitall-64.pddl,TIMEOUT:301.12:-1.0:300.0:-1
ipc-2014-agile-visitall-65.pddl,TIMEOUT:301.107:-1.0:300.0:-1
