instance,ipc-2014-agile-madagascar-pc
ipc-2014-agile-barman-p1-11-4-15.pddl,TIMEOUT:301.146:-1.0:300.0:-1
ipc-2014-agile-barman-p1-11-5-15.pddl,TIMEOUT:301.174:-1.0:300.0:-1
ipc-2014-agile-barman-p1-11-5-16.pddl,TIMEOUT:301.178:-1.0:300.0:-1
ipc-2014-agile-barman-p2-10-4-13.pddl,TIMEOUT:301.182:-1.0:300.0:-1
ipc-2014-agile-barman-p2-11-4-15.pddl,TIMEOUT:301.229:-1.0:300.0:-1
ipc-2014-agile-barman-p2-11-5-15.pddl,TIMEOUT:301.207:-1.0:300.0:-1
ipc-2014-agile-barman-p2-11-5-16.pddl,TIMEOUT:301.236:-1.0:300.0:-1
ipc-2014-agile-barman-p2-11-5-17.pddl,TIMEOUT:301.239:-1.0:300.0:-1
ipc-2014-agile-barman-p3-10-4-13.pddl,TIMEOUT:301.187:-1.0:300.0:-1
ipc-2014-agile-barman-p3-11-4-15.pddl,TIMEOUT:301.241:-1.0:300.0:-1
ipc-2014-agile-barman-p3-11-5-15.pddl,TIMEOUT:301.214:-1.0:300.0:-1
ipc-2014-agile-barman-p3-11-5-16.pddl,TIMEOUT:301.284:-1.0:300.0:-1
ipc-2014-agile-barman-p3-11-5-17.pddl,TIMEOUT:301.301:-1.0:300.0:-1
ipc-2014-agile-barman-p4-11-4-14.pddl,TIMEOUT:301.201:-1.0:300.0:-1
ipc-2014-agile-barman-p4-11-4-15.pddl,TIMEOUT:301.214:-1.0:300.0:-1
ipc-2014-agile-barman-p4-11-5-15.pddl,SAT:133.58:441.0:300.0:-1
ipc-2014-agile-barman-p5-10-4-13.pddl,TIMEOUT:301.213:-1.0:300.0:-1
ipc-2014-agile-barman-p5-11-4-15.pddl,TIMEOUT:301.184:-1.0:300.0:-1
ipc-2014-agile-barman-p5-11-5-15.pddl,TIMEOUT:301.182:-1.0:300.0:-1
ipc-2014-agile-barman-p5-11-5-16.pddl,TIMEOUT:301.303:-1.0:300.0:-1
ipc-2014-agile-cavediving-01_easy.pddl,TIMEOUT:301.261:-1.0:300.0:-1
ipc-2014-agile-cavediving-01.pddl,TIMEOUT:301.333:-1.0:300.0:-1
ipc-2014-agile-cavediving-02_easy.pddl,TIMEOUT:301.283:-1.0:300.0:-1
ipc-2014-agile-cavediving-03_easy.pddl,TIMEOUT:301.317:-1.0:300.0:-1
ipc-2014-agile-cavediving-04_easy.pddl,TIMEOUT:301.29:-1.0:300.0:-1
ipc-2014-agile-cavediving-05A_easy.pddl,SAT:107.021:94.0:300.0:-1
ipc-2014-agile-cavediving-06A_easy.pddl,SAT:104.304:95.0:300.0:-1
ipc-2014-agile-cavediving-07_easy.pddl,TIMEOUT:301.157:-1.0:300.0:-1
ipc-2014-agile-cavediving-08_easy.pddl,SAT:104.773:90.0:300.0:-1
ipc-2014-agile-cavediving-09_easy.pddl,TIMEOUT:301.39:-1.0:300.0:-1
ipc-2014-agile-cavediving-10_easy.pddl,TIMEOUT:301.364:-1.0:300.0:-1
ipc-2014-agile-cavediving-11_easy.pddl,TIMEOUT:301.372:-1.0:300.0:-1
ipc-2014-agile-cavediving-12_easy.pddl,TIMEOUT:301.418:-1.0:300.0:-1
ipc-2014-agile-cavediving-13_easy.pddl,TIMEOUT:301.334:-1.0:300.0:-1
ipc-2014-agile-cavediving-14_easy.pddl,TIMEOUT:301.321:-1.0:300.0:-1
ipc-2014-agile-cavediving-15_easy.pddl,TIMEOUT:301.322:-1.0:300.0:-1
ipc-2014-agile-cavediving-16_easy.pddl,TIMEOUT:301.351:-1.0:300.0:-1
ipc-2014-agile-cavediving-18A_easy.pddl,TIMEOUT:301.184:-1.0:300.0:-1
ipc-2014-agile-cavediving-18_easy.pddl,SAT:0.115982:132.0:300.0:-1
ipc-2014-agile-cavediving-20A_easy.pddl,TIMEOUT:301.127:-1.0:300.0:-1
ipc-2014-agile-childsnack-05-2.pddl,SAT:0.089986:36.0:300.0:-1
ipc-2014-agile-childsnack-05.pddl,SAT:0.093985:38.0:300.0:-1
ipc-2014-agile-childsnack-06-2.pddl,SAT:0.136978:38.0:300.0:-1
ipc-2014-agile-childsnack-07-2.pddl,SAT:0.168973:43.0:300.0:-1
ipc-2014-agile-childsnack-08-2.pddl,CRASHED:126.355:1000000000.0:300.0:-1
ipc-2014-agile-childsnack-08.pddl,SAT:0.230964:47.0:300.0:-1
ipc-2014-agile-childsnack-09-2.pddl,SAT:0.414936:47.0:300.0:-1
ipc-2014-agile-childsnack-09.pddl,CRASHED:39.761:1000000000.0:300.0:-1
ipc-2014-agile-childsnack-10-2.pddl,CRASHED:43.3924:1000000000.0:300.0:-1
ipc-2014-agile-childsnack-10.pddl,CRASHED:27.6918:1000000000.0:300.0:-1
ipc-2014-agile-childsnack-11-2.pddl,CRASHED:182.041:1000000000.0:300.0:-1
ipc-2014-agile-childsnack-11.pddl,CRASHED:143.256:1000000000.0:300.0:-1
ipc-2014-agile-childsnack-12.pddl,CRASHED:36.0935:1000000000.0:300.0:-1
ipc-2014-agile-childsnack-13-2.pddl,CRASHED:107.753:1000000000.0:300.0:-1
ipc-2014-agile-childsnack-13.pddl,CRASHED:141.314:1000000000.0:300.0:-1
ipc-2014-agile-childsnack-14.pddl,CRASHED:52.353:1000000000.0:300.0:-1
ipc-2014-agile-childsnack-15-2.pddl,CRASHED:26.7259:1000000000.0:300.0:-1
ipc-2014-agile-childsnack-16-2.pddl,CRASHED:73.9608:1000000000.0:300.0:-1
ipc-2014-agile-childsnack-19-2.pddl,CRASHED:49.8014:1000000000.0:300.0:-1
ipc-2014-agile-childsnack-19.pddl,CRASHED:52.641:1000000000.0:300.0:-1
ipc-2014-agile-citycar-p3-2-2-0-1.pddl,SAT:0.130979:291.0:300.0:-1
ipc-2014-agile-citycar-p3-3-2-0-1.pddl,SAT:0.78688:651.0:300.0:-1
ipc-2014-agile-citycar-p3-4-2-0-1.pddl,SAT:0.375942:722.0:300.0:-1
ipc-2014-agile-citycar-p3-5-2-0-1.pddl,SAT:59.355:694.0:300.0:-1
ipc-2014-agile-citycar-p3-5-2-0-2.pddl,SAT:9.77851:1041.0:300.0:-1
ipc-2014-agile-citycar-p4-2-2-0-1.pddl,SAT:44.2933:336.0:300.0:-1
ipc-2014-agile-citycar-p4-2-3-0-1.pddl,SAT:57.3263:417.0:300.0:-1
ipc-2014-agile-citycar-p4-2-3-0-2.pddl,SAT:259.5:494.0:300.0:-1
ipc-2014-agile-citycar-p4-3-2-0-1.pddl,SAT:44.3603:1185.0:300.0:-1
ipc-2014-agile-citycar-p4-3-2-0-2.pddl,TIMEOUT:301.335:-1.0:300.0:-1
ipc-2014-agile-citycar-p4-3-3-0-1.pddl,TIMEOUT:301.275:-1.0:300.0:-1
ipc-2014-agile-citycar-p4-3-3-0-2.pddl,TIMEOUT:301.273:-1.0:300.0:-1
ipc-2014-agile-citycar-p4-4-2-0-1.pddl,TIMEOUT:301.378:-1.0:300.0:-1
ipc-2014-agile-citycar-p4-4-2-0-2.pddl,TIMEOUT:301.392:-1.0:300.0:-1
ipc-2014-agile-citycar-p4-4-3-0-1.pddl,TIMEOUT:301.389:-1.0:300.0:-1
ipc-2014-agile-citycar-p4-4-3-0-2.pddl,TIMEOUT:301.373:-1.0:300.0:-1
ipc-2014-agile-citycar-p4-5-2-0-1.pddl,TIMEOUT:301.308:-1.0:300.0:-1
ipc-2014-agile-citycar-p4-5-2-0-2.pddl,TIMEOUT:301.29:-1.0:300.0:-1
ipc-2014-agile-citycar-p4-5-3-0-1.pddl,TIMEOUT:301.35:-1.0:300.0:-1
ipc-2014-agile-citycar-p4-5-3-0-2.pddl,TIMEOUT:301.278:-1.0:300.0:-1
ipc-2014-agile-floortile-p01-4-3-2.pddl,SAT:0.015997:94.0:300.0:-1
ipc-2014-agile-floortile-p01-5-4-2.pddl,SAT:0.025995:173.0:300.0:-1
ipc-2014-agile-floortile-p01-5-5-2.pddl,SAT:0.040993:197.0:300.0:-1
ipc-2014-agile-floortile-p01-6-4-2.pddl,SAT:0.030994:190.0:300.0:-1
ipc-2014-agile-floortile-p01-6-5-2.pddl,SAT:0.053991:230.0:300.0:-1
ipc-2014-agile-floortile-p01-6-5-3.pddl,SAT:0.066989:223.0:300.0:-1
ipc-2014-agile-floortile-p02-5-4-2.pddl,SAT:0.031994:178.0:300.0:-1
ipc-2014-agile-floortile-p02-6-4-2.pddl,SAT:0.040993:207.0:300.0:-1
ipc-2014-agile-floortile-p02-6-5-2.pddl,SAT:0.068989:251.0:300.0:-1
ipc-2014-agile-floortile-p02-6-5-3.pddl,SAT:0.069989:235.0:300.0:-1
ipc-2014-agile-floortile-p03-6-4-2.pddl,SAT:0.037994:214.0:300.0:-1
ipc-2014-agile-floortile-p03-6-5-2.pddl,SAT:0.051992:248.0:300.0:-1
ipc-2014-agile-floortile-p03-6-5-3.pddl,SAT:0.061989:253.0:300.0:-1
ipc-2014-agile-floortile-p04-5-4-2.pddl,SAT:0.030995:175.0:300.0:-1
ipc-2014-agile-floortile-p04-5-5-2.pddl,SAT:0.042992:214.0:300.0:-1
ipc-2014-agile-floortile-p04-6-5-2.pddl,SAT:0.068988:261.0:300.0:-1
ipc-2014-agile-floortile-p04-6-5-3.pddl,SAT:0.068989:231.0:300.0:-1
ipc-2014-agile-floortile-p05-4-3-2.pddl,SAT:0.013997:96.0:300.0:-1
ipc-2014-agile-floortile-p05-6-5-2.pddl,SAT:0.055991:223.0:300.0:-1
ipc-2014-agile-floortile-p05-6-5-3.pddl,SAT:0.065989:243.0:300.0:-1
ipc-2014-agile-ged-d-10-1.pddl,SAT:13.5119:99.0:300.0:-1
ipc-2014-agile-ged-d-10-2.pddl,SAT:28.2557:212.0:300.0:-1
ipc-2014-agile-ged-d-10-3.pddl,SAT:31.8052:130.0:300.0:-1
ipc-2014-agile-ged-d-10-4.pddl,SAT:61.9306:193.0:300.0:-1
ipc-2014-agile-ged-d-10-5.pddl,TIMEOUT:301.325:-1.0:300.0:-1
ipc-2014-agile-ged-d-10-6.pddl,SAT:239.22:139.0:300.0:-1
ipc-2014-agile-ged-d-11-1.pddl,SAT:71.8661:110.0:300.0:-1
ipc-2014-agile-ged-d-11-3.pddl,SAT:47.5978:75.0:300.0:-1
ipc-2014-agile-ged-d-11-5.pddl,SAT:67.6977:116.0:300.0:-1
ipc-2014-agile-ged-d-11-6.pddl,TIMEOUT:301.283:-1.0:300.0:-1
ipc-2014-agile-ged-d-12-11.pddl,SAT:83.6473:190.0:300.0:-1
ipc-2014-agile-ged-d-12-2.pddl,TIMEOUT:301.363:-1.0:300.0:-1
ipc-2014-agile-ged-d-12-3.pddl,TIMEOUT:301.33:-1.0:300.0:-1
ipc-2014-agile-ged-d-12-5.pddl,TIMEOUT:301.348:-1.0:300.0:-1
ipc-2014-agile-ged-d-12-6.pddl,TIMEOUT:301.321:-1.0:300.0:-1
ipc-2014-agile-ged-d-12-7.pddl,TIMEOUT:301.366:-1.0:300.0:-1
ipc-2014-agile-ged-d-12-8.pddl,TIMEOUT:301.427:-1.0:300.0:-1
ipc-2014-agile-ged-d-12-9.pddl,TIMEOUT:301.452:-1.0:300.0:-1
ipc-2014-agile-ged-d-3-6.pddl,SAT:65.476:102.0:300.0:-1
ipc-2014-agile-ged-d-9-5.pddl,SAT:248.454:167.0:300.0:-1
ipc-2014-agile-hiking-3-4-3.pddl,SAT:0.332948:18.0:300.0:-1
ipc-2014-agile-hiking-3-4-4.pddl,CRASHED:37.9352:1000000000.0:300.0:-1
ipc-2014-agile-hiking-3-4-5.pddl,CRASHED:33.4269:1000000000.0:300.0:-1
ipc-2014-agile-hiking-3-4-6.pddl,TIMEOUT:301.352:-1.0:300.0:-1
ipc-2014-agile-hiking-3-4-7.pddl,TIMEOUT:301.346:-1.0:300.0:-1
ipc-2014-agile-hiking-3-4-8.pddl,CRASHED:32.1451:1000000000.0:300.0:-1
ipc-2014-agile-hiking-3-4-9.pddl,CRASHED:34.8197:1000000000.0:300.0:-1
ipc-2014-agile-hiking-4-5-3.pddl,SAT:1.27681:29.0:300.0:-1
ipc-2014-agile-hiking-4-5-4.pddl,SAT:3.63545:47.0:300.0:-1
ipc-2014-agile-hiking-4-5-5.pddl,CRASHED:30.1774:1000000000.0:300.0:-1
ipc-2014-agile-hiking-4-5-6.pddl,TIMEOUT:301.397:-1.0:300.0:-1
ipc-2014-agile-hiking-4-5-7.pddl,TIMEOUT:301.468:-1.0:300.0:-1
ipc-2014-agile-hiking-4-5-8.pddl,TIMEOUT:301.419:-1.0:300.0:-1
ipc-2014-agile-hiking-4-5-9.pddl,CRASHED:81.9235:1000000000.0:300.0:-1
ipc-2014-agile-hiking-5-6-3.pddl,SAT:3.86341:36.0:300.0:-1
ipc-2014-agile-hiking-5-6-4.pddl,CRASHED:37.6573:1000000000.0:300.0:-1
ipc-2014-agile-hiking-5-6-5.pddl,CRASHED:45.779:1000000000.0:300.0:-1
ipc-2014-agile-hiking-5-6-6.pddl,CRASHED:67.1208:1000000000.0:300.0:-1
ipc-2014-agile-hiking-5-6-7.pddl,CRASHED:113.355:1000000000.0:300.0:-1
ipc-2014-agile-hiking-5-6-8.pddl,CRASHED:173.523:1000000000.0:300.0:-1
ipc-2014-agile-maintenance-1.3.060.180.5-000.pddl,SAT:0.085986:54.0:300.0:-1
ipc-2014-agile-maintenance-1.3.060.180.5-001.pddl,TIMEOUT:301.071:-1.0:300.0:-1
ipc-2014-agile-maintenance-1.3.060.180.5-002.pddl,SAT:66.7639:55.0:300.0:-1
ipc-2014-agile-maintenance-1.3.100.300.5-000.pddl,TIMEOUT:301.063:-1.0:300.0:-1
ipc-2014-agile-maintenance-1.3.100.300.5-001.pddl,TIMEOUT:301.074:-1.0:300.0:-1
ipc-2014-agile-maintenance-1.3.100.300.7-000.pddl,SAT:0.264958:83.0:300.0:-1
ipc-2014-agile-maintenance-1.3.100.300.7-001.pddl,SAT:0.262959:80.0:300.0:-1
ipc-2014-agile-maintenance-1.3.100.300.7-002.pddl,SAT:0.263959:77.0:300.0:-1
ipc-2014-agile-maintenance-1.3.150.500.6-001.pddl,SAT:0.966852:133.0:300.0:-1
ipc-2014-agile-maintenance-1.3.200.500.5-001.pddl,SAT:1.37779:180.0:300.0:-1
ipc-2014-agile-maintenance-1.3.200.500.5-002.pddl,TIMEOUT:301.173:-1.0:300.0:-1
ipc-2014-agile-maintenance-1.3.200.700.7-000.pddl,SAT:2.58661:176.0:300.0:-1
ipc-2014-agile-maintenance-1.3.200.700.7-001.pddl,SAT:2.56561:171.0:300.0:-1
ipc-2014-agile-maintenance-1.3.200.700.7-002.pddl,SAT:2.52261:170.0:300.0:-1
ipc-2014-agile-maintenance-1.3.200.900.5-000.pddl,TIMEOUT:301.119:-1.0:300.0:-1
ipc-2014-agile-maintenance-1.3.200.900.5-001.pddl,TIMEOUT:301.136:-1.0:300.0:-1
ipc-2014-agile-maintenance-1.3.200.900.5-002.pddl,TIMEOUT:301.141:-1.0:300.0:-1
ipc-2014-agile-maintenance-1.3.200.900.8-000.pddl,SAT:4.81327:186.0:300.0:-1
ipc-2014-agile-maintenance-1.3.200.900.8-001.pddl,SAT:4.72228:172.0:300.0:-1
ipc-2014-agile-maintenance-1.3.200.900.8-002.pddl,SAT:4.79527:179.0:300.0:-1
ipc-2014-agile-openstacks-p130_2.pddl,TIMEOUT:301.417:-1.0:300.0:-1
ipc-2014-agile-openstacks-p130_3.pddl,TIMEOUT:301.353:-1.0:300.0:-1
ipc-2014-agile-openstacks-p150_2.pddl,TIMEOUT:301.364:-1.0:300.0:-1
ipc-2014-agile-openstacks-p150_3.pddl,TIMEOUT:301.385:-1.0:300.0:-1
ipc-2014-agile-openstacks-p170_1.pddl,CRASHED:69.8724:1000000000.0:300.0:-1
ipc-2014-agile-openstacks-p170_2.pddl,CRASHED:74.0527:1000000000.0:300.0:-1
ipc-2014-agile-openstacks-p170_3.pddl,TIMEOUT:301.356:-1.0:300.0:-1
ipc-2014-agile-openstacks-p190_1.pddl,CRASHED:152.083:1000000000.0:300.0:-1
ipc-2014-agile-openstacks-p190_2.pddl,CRASHED:139.65:1000000000.0:300.0:-1
ipc-2014-agile-openstacks-p190_3.pddl,CRASHED:156.835:1000000000.0:300.0:-1
ipc-2014-agile-openstacks-p210_1.pddl,TIMEOUT:301.462:-1.0:300.0:-1
ipc-2014-agile-openstacks-p210_2.pddl,TIMEOUT:301.498:-1.0:300.0:-1
ipc-2014-agile-openstacks-p230_1.pddl,CRASHED:175.951:1000000000.0:300.0:-1
ipc-2014-agile-openstacks-p230_2.pddl,CRASHED:194.406:1000000000.0:300.0:-1
ipc-2014-agile-openstacks-p250_1.pddl,CRASHED:241.205:1000000000.0:300.0:-1
ipc-2014-agile-openstacks-p250_2.pddl,CRASHED:260.431:1000000000.0:300.0:-1
ipc-2014-agile-openstacks-p270_1.pddl,TIMEOUT:301.336:-1.0:300.0:-1
ipc-2014-agile-openstacks-p270_2.pddl,TIMEOUT:301.34:-1.0:300.0:-1
ipc-2014-agile-openstacks-p290_1.pddl,TIMEOUT:301.267:-1.0:300.0:-1
ipc-2014-agile-openstacks-p290_2.pddl,TIMEOUT:301.107:-1.0:300.0:-1
ipc-2014-agile-parking-28_2.pddl,SAT:122.734:127.0:300.0:-1
ipc-2014-agile-parking-28_3.pddl,SAT:110.119:86.0:300.0:-1
ipc-2014-agile-parking-30_1.pddl,SAT:172.335:135.0:300.0:-1
ipc-2014-agile-parking-30_2.pddl,TIMEOUT:301.384:-1.0:300.0:-1
ipc-2014-agile-parking-30_3.pddl,SAT:204.902:163.0:300.0:-1
ipc-2014-agile-parking-32_1.pddl,SAT:291.068:161.0:300.0:-1
ipc-2014-agile-parking-32_2.pddl,TIMEOUT:301.441:-1.0:300.0:-1
ipc-2014-agile-parking-32_3.pddl,SAT:280.436:178.0:300.0:-1
ipc-2014-agile-parking-34_1.pddl,TIMEOUT:301.254:-1.0:300.0:-1
ipc-2014-agile-parking-34_2.pddl,TIMEOUT:301.167:-1.0:300.0:-1
ipc-2014-agile-parking-34_3.pddl,TIMEOUT:301.185:-1.0:300.0:-1
ipc-2014-agile-parking-36_1.pddl,TIMEOUT:301.145:-1.0:300.0:-1
ipc-2014-agile-parking-36_2.pddl,TIMEOUT:301.102:-1.0:300.0:-1
ipc-2014-agile-parking-36_3.pddl,TIMEOUT:301.195:-1.0:300.0:-1
ipc-2014-agile-parking-38_1.pddl,TIMEOUT:301.182:-1.0:300.0:-1
ipc-2014-agile-parking-38_2.pddl,TIMEOUT:301.198:-1.0:300.0:-1
ipc-2014-agile-parking-38_3.pddl,TIMEOUT:301.193:-1.0:300.0:-1
ipc-2014-agile-parking-40_1.pddl,TIMEOUT:301.169:-1.0:300.0:-1
ipc-2014-agile-parking-40_2.pddl,TIMEOUT:301.231:-1.0:300.0:-1
ipc-2014-agile-parking-40_3.pddl,TIMEOUT:301.244:-1.0:300.0:-1
ipc-2014-agile-tetris-020.pddl,SAT:42.8095:56.0:300.0:-1
ipc-2014-agile-tetris-021.pddl,SAT:168.593:145.0:300.0:-1
ipc-2014-agile-tetris-022.pddl,SAT:182.786:102.0:300.0:-1
ipc-2014-agile-tetris-023.pddl,SAT:137.105:105.0:300.0:-1
ipc-2014-agile-tetris-024.pddl,SAT:193.611:161.0:300.0:-1
ipc-2014-agile-tetris-025.pddl,CRASHED:230.333:1000000000.0:300.0:-1
ipc-2014-agile-tetris-026.pddl,TIMEOUT:301.584:-1.0:300.0:-1
ipc-2014-agile-tetris-027.pddl,CRASHED:253.109:1000000000.0:300.0:-1
ipc-2014-agile-tetris-028.pddl,CRASHED:219.837:1000000000.0:300.0:-1
ipc-2014-agile-tetris-029.pddl,CRASHED:193.855:1000000000.0:300.0:-1
ipc-2014-agile-tetris-031.pddl,CRASHED:274.331:1000000000.0:300.0:-1
ipc-2014-agile-tetris-032.pddl,CRASHED:289.023:1000000000.0:300.0:-1
ipc-2014-agile-tetris-033.pddl,TIMEOUT:301.448:-1.0:300.0:-1
ipc-2014-agile-tetris-034.pddl,TIMEOUT:301.5:-1.0:300.0:-1
ipc-2014-agile-tetris-035.pddl,CRASHED:273.402:1000000000.0:300.0:-1
ipc-2014-agile-tetris-036.pddl,CRASHED:244.303:1000000000.0:300.0:-1
ipc-2014-agile-tetris-037.pddl,SAT:189.787:147.0:300.0:-1
ipc-2014-agile-tetris-038.pddl,TIMEOUT:301.36:-1.0:300.0:-1
ipc-2014-agile-tetris-039.pddl,CRASHED:282.944:1000000000.0:300.0:-1
ipc-2014-agile-tetris-040.pddl,TIMEOUT:301.331:-1.0:300.0:-1
ipc-2014-agile-thoughtful-bootstrap-typed-01.pddl,SAT:1.90571:42.0:300.0:-1
ipc-2014-agile-thoughtful-bootstrap-typed-02.pddl,SAT:1.74173:31.0:300.0:-1
ipc-2014-agile-thoughtful-bootstrap-typed-03.pddl,SAT:1.9947:49.0:300.0:-1
ipc-2014-agile-thoughtful-bootstrap-typed-04.pddl,SAT:2.05369:46.0:300.0:-1
ipc-2014-agile-thoughtful-bootstrap-typed-05.pddl,SAT:1.86672:68.0:300.0:-1
ipc-2014-agile-thoughtful-p11_6_53-typed.pddl,TIMEOUT:301.318:-1.0:300.0:-1
ipc-2014-agile-thoughtful-p11_6_59-typed.pddl,CRASHED:105.971:1000000000.0:300.0:-1
ipc-2014-agile-thoughtful-p11_6_62-typed.pddl,TIMEOUT:301.394:-1.0:300.0:-1
ipc-2014-agile-thoughtful-p13_7_78-typed.pddl,CRASHED:187.306:1000000000.0:300.0:-1
ipc-2014-agile-thoughtful-p13_7_79-typed.pddl,CRASHED:179.101:1000000000.0:300.0:-1
ipc-2014-agile-thoughtful-p13_7_86-typed.pddl,CRASHED:181.65:1000000000.0:300.0:-1
ipc-2014-agile-thoughtful-target-typed-20.pddl,CRASHED:183.688:1000000000.0:300.0:-1
ipc-2014-agile-thoughtful-target-typed-21.pddl,CRASHED:183.215:1000000000.0:300.0:-1
ipc-2014-agile-thoughtful-target-typed-22.pddl,TIMEOUT:301.341:-1.0:300.0:-1
ipc-2014-agile-thoughtful-target-typed-23.pddl,CRASHED:188.496:1000000000.0:300.0:-1
ipc-2014-agile-thoughtful-target-typed-24.pddl,TIMEOUT:301.372:-1.0:300.0:-1
ipc-2014-agile-thoughtful-target-typed-25.pddl,CRASHED:187.712:1000000000.0:300.0:-1
ipc-2014-agile-thoughtful-target-typed-26.pddl,TIMEOUT:301.401:-1.0:300.0:-1
ipc-2014-agile-thoughtful-target-typed-27.pddl,CRASHED:285.291:1000000000.0:300.0:-1
ipc-2014-agile-thoughtful-target-typed-28.pddl,CRASHED:200.027:1000000000.0:300.0:-1
ipc-2014-agile-transport-01.pddl,CRASHED:87.7317:1000000000.0:300.0:-1
ipc-2014-agile-transport-02.pddl,TIMEOUT:301.415:-1.0:300.0:-1
ipc-2014-agile-transport-03.pddl,TIMEOUT:301.335:-1.0:300.0:-1
ipc-2014-agile-transport-04.pddl,TIMEOUT:301.502:-1.0:300.0:-1
ipc-2014-agile-transport-05.pddl,CRASHED:130.662:1000000000.0:300.0:-1
ipc-2014-agile-transport-06.pddl,TIMEOUT:301.454:-1.0:300.0:-1
ipc-2014-agile-transport-07.pddl,TIMEOUT:301.484:-1.0:300.0:-1
ipc-2014-agile-transport-08.pddl,TIMEOUT:301.455:-1.0:300.0:-1
ipc-2014-agile-transport-09.pddl,CRASHED:296.202:1000000000.0:300.0:-1
ipc-2014-agile-transport-10.pddl,CRASHED:215.712:1000000000.0:300.0:-1
ipc-2014-agile-transport-11.pddl,TIMEOUT:301.345:-1.0:300.0:-1
ipc-2014-agile-transport-12.pddl,TIMEOUT:301.346:-1.0:300.0:-1
ipc-2014-agile-transport-13.pddl,CRASHED:224.576:1000000000.0:300.0:-1
ipc-2014-agile-transport-14.pddl,CRASHED:83.7073:1000000000.0:300.0:-1
ipc-2014-agile-transport-15.pddl,CRASHED:100.329:1000000000.0:300.0:-1
ipc-2014-agile-transport-16.pddl,CRASHED:67.6937:1000000000.0:300.0:-1
ipc-2014-agile-transport-17.pddl,CRASHED:223.273:1000000000.0:300.0:-1
ipc-2014-agile-transport-18.pddl,TIMEOUT:301.405:-1.0:300.0:-1
ipc-2014-agile-transport-19.pddl,TIMEOUT:301.333:-1.0:300.0:-1
ipc-2014-agile-transport-20.pddl,CRASHED:283.687:1000000000.0:300.0:-1
ipc-2014-agile-visitall-30.pddl,TIMEOUT:301.136:-1.0:300.0:-1
ipc-2014-agile-visitall-31.pddl,TIMEOUT:301.191:-1.0:300.0:-1
ipc-2014-agile-visitall-32.pddl,TIMEOUT:301.137:-1.0:300.0:-1
ipc-2014-agile-visitall-33.pddl,TIMEOUT:301.162:-1.0:300.0:-1
ipc-2014-agile-visitall-50.pddl,TIMEOUT:301.105:-1.0:300.0:-1
ipc-2014-agile-visitall-51.pddl,TIMEOUT:301.044:-1.0:300.0:-1
ipc-2014-agile-visitall-52.pddl,TIMEOUT:301.05:-1.0:300.0:-1
ipc-2014-agile-visitall-53.pddl,TIMEOUT:301.123:-1.0:300.0:-1
ipc-2014-agile-visitall-54.pddl,TIMEOUT:301.027:-1.0:300.0:-1
ipc-2014-agile-visitall-55.pddl,TIMEOUT:301.037:-1.0:300.0:-1
ipc-2014-agile-visitall-56.pddl,TIMEOUT:301.019:-1.0:300.0:-1
ipc-2014-agile-visitall-57.pddl,TIMEOUT:301.106:-1.0:300.0:-1
ipc-2014-agile-visitall-58.pddl,TIMEOUT:301.089:-1.0:300.0:-1
ipc-2014-agile-visitall-59.pddl,TIMEOUT:301.1:-1.0:300.0:-1
ipc-2014-agile-visitall-60.pddl,TIMEOUT:301.053:-1.0:300.0:-1
ipc-2014-agile-visitall-61.pddl,TIMEOUT:301.013:-1.0:300.0:-1
ipc-2014-agile-visitall-62.pddl,TIMEOUT:301.082:-1.0:300.0:-1
ipc-2014-agile-visitall-63.pddl,TIMEOUT:301.102:-1.0:300.0:-1
ipc-2014-agile-visitall-64.pddl,TIMEOUT:301.097:-1.0:300.0:-1
ipc-2014-agile-visitall-65.pddl,TIMEOUT:301.102:-1.0:300.0:-1
