instance,ipc-2014-agile-freelunch
ipc-2014-agile-barman-p1-11-4-15.pddl,CRASHED:29.2:1000000000.0:300.0:-1
ipc-2014-agile-barman-p1-11-5-15.pddl,CRASHED:34.45:1000000000.0:300.0:-1
ipc-2014-agile-barman-p1-11-5-16.pddl,CRASHED:38.01:1000000000.0:300.0:-1
ipc-2014-agile-barman-p2-10-4-13.pddl,CRASHED:29.67:1000000000.0:300.0:-1
ipc-2014-agile-barman-p2-11-4-15.pddl,CRASHED:28.94:1000000000.0:300.0:-1
ipc-2014-agile-barman-p2-11-5-15.pddl,CRASHED:34.0:1000000000.0:300.0:-1
ipc-2014-agile-barman-p2-11-5-16.pddl,CRASHED:37.6:1000000000.0:300.0:-1
ipc-2014-agile-barman-p2-11-5-17.pddl,CRASHED:40.54:1000000000.0:300.0:-1
ipc-2014-agile-barman-p3-10-4-13.pddl,CRASHED:28.54:1000000000.0:300.0:-1
ipc-2014-agile-barman-p3-11-4-15.pddl,CRASHED:29.53:1000000000.0:300.0:-1
ipc-2014-agile-barman-p3-11-5-15.pddl,CRASHED:34.49:1000000000.0:300.0:-1
ipc-2014-agile-barman-p3-11-5-16.pddl,CRASHED:38.51:1000000000.0:300.0:-1
ipc-2014-agile-barman-p3-11-5-17.pddl,CRASHED:44.01:1000000000.0:300.0:-1
ipc-2014-agile-barman-p4-11-4-14.pddl,CRASHED:32.98:1000000000.0:300.0:-1
ipc-2014-agile-barman-p4-11-4-15.pddl,CRASHED:29.29:1000000000.0:300.0:-1
ipc-2014-agile-barman-p4-11-5-15.pddl,CRASHED:36.18:1000000000.0:300.0:-1
ipc-2014-agile-barman-p5-10-4-13.pddl,CRASHED:29.55:1000000000.0:300.0:-1
ipc-2014-agile-barman-p5-11-4-15.pddl,CRASHED:30.34:1000000000.0:300.0:-1
ipc-2014-agile-barman-p5-11-5-15.pddl,CRASHED:36.18:1000000000.0:300.0:-1
ipc-2014-agile-barman-p5-11-5-16.pddl,CRASHED:38.4:1000000000.0:300.0:-1
ipc-2014-agile-cavediving-01_easy.pddl,CRASHED:1.3368:1000000000.0:300.0:-1
ipc-2014-agile-cavediving-01.pddl,CRASHED:1.61375:1000000000.0:300.0:-1
ipc-2014-agile-cavediving-02_easy.pddl,CRASHED:1.2848:1000000000.0:300.0:-1
ipc-2014-agile-cavediving-03_easy.pddl,CRASHED:1.2938:1000000000.0:300.0:-1
ipc-2014-agile-cavediving-04_easy.pddl,CRASHED:1.2918:1000000000.0:300.0:-1
ipc-2014-agile-cavediving-05A_easy.pddl,CRASHED:0.548916:1000000000.0:300.0:-1
ipc-2014-agile-cavediving-06A_easy.pddl,CRASHED:0.534917:1000000000.0:300.0:-1
ipc-2014-agile-cavediving-07_easy.pddl,TIMEOUT:301.09:-1.0:300.0:-1
ipc-2014-agile-cavediving-08_easy.pddl,CRASHED:0.546916:1000000000.0:300.0:-1
ipc-2014-agile-cavediving-09_easy.pddl,CRASHED:4.88726:1000000000.0:300.0:-1
ipc-2014-agile-cavediving-10_easy.pddl,CRASHED:4.64429:1000000000.0:300.0:-1
ipc-2014-agile-cavediving-11_easy.pddl,CRASHED:4.71528:1000000000.0:300.0:-1
ipc-2014-agile-cavediving-12_easy.pddl,CRASHED:4.86826:1000000000.0:300.0:-1
ipc-2014-agile-cavediving-13_easy.pddl,CRASHED:1.59476:1000000000.0:300.0:-1
ipc-2014-agile-cavediving-14_easy.pddl,CRASHED:1.59876:1000000000.0:300.0:-1
ipc-2014-agile-cavediving-15_easy.pddl,CRASHED:1.47977:1000000000.0:300.0:-1
ipc-2014-agile-cavediving-16_easy.pddl,CRASHED:1.59676:1000000000.0:300.0:-1
ipc-2014-agile-cavediving-18A_easy.pddl,CRASHED:111.87:1000000000.0:300.0:-1
ipc-2014-agile-cavediving-18_easy.pddl,SAT:267.702:133.0:300.0:-1
ipc-2014-agile-cavediving-20A_easy.pddl,CRASHED:0.633903:1000000000.0:300.0:-1
ipc-2014-agile-childsnack-05-2.pddl,SAT:70.8972:37.0:300.0:-1
ipc-2014-agile-childsnack-05.pddl,SAT:71.0282:38.0:300.0:-1
ipc-2014-agile-childsnack-06-2.pddl,CRASHED:63.16:1000000000.0:300.0:-1
ipc-2014-agile-childsnack-07-2.pddl,CRASHED:84.46:1000000000.0:300.0:-1
ipc-2014-agile-childsnack-08-2.pddl,CRASHED:62.8:1000000000.0:300.0:-1
ipc-2014-agile-childsnack-08.pddl,CRASHED:61.99:1000000000.0:300.0:-1
ipc-2014-agile-childsnack-09-2.pddl,CRASHED:26.12:1000000000.0:300.0:-1
ipc-2014-agile-childsnack-09.pddl,CRASHED:26.08:1000000000.0:300.0:-1
ipc-2014-agile-childsnack-10-2.pddl,CRASHED:20.94:1000000000.0:300.0:-1
ipc-2014-agile-childsnack-10.pddl,CRASHED:20.94:1000000000.0:300.0:-1
ipc-2014-agile-childsnack-11-2.pddl,CRASHED:21.18:1000000000.0:300.0:-1
ipc-2014-agile-childsnack-11.pddl,CRASHED:21.04:1000000000.0:300.0:-1
ipc-2014-agile-childsnack-12.pddl,CRASHED:23.54:1000000000.0:300.0:-1
ipc-2014-agile-childsnack-13-2.pddl,CRASHED:26.28:1000000000.0:300.0:-1
ipc-2014-agile-childsnack-13.pddl,CRASHED:26.99:1000000000.0:300.0:-1
ipc-2014-agile-childsnack-14.pddl,CRASHED:28.39:1000000000.0:300.0:-1
ipc-2014-agile-childsnack-15-2.pddl,CRASHED:32.46:1000000000.0:300.0:-1
ipc-2014-agile-childsnack-16-2.pddl,CRASHED:38.31:1000000000.0:300.0:-1
ipc-2014-agile-childsnack-19-2.pddl,CRASHED:33.01:1000000000.0:300.0:-1
ipc-2014-agile-childsnack-19.pddl,CRASHED:33.17:1000000000.0:300.0:-1
ipc-2014-agile-citycar-p3-2-2-0-1.pddl,CRASHED:0.761883:1000000000.0:300.0:-1
ipc-2014-agile-citycar-p3-3-2-0-1.pddl,CRASHED:0.900862:1000000000.0:300.0:-1
ipc-2014-agile-citycar-p3-4-2-0-1.pddl,CRASHED:1.00285:1000000000.0:300.0:-1
ipc-2014-agile-citycar-p3-5-2-0-1.pddl,CRASHED:1.12583:1000000000.0:300.0:-1
ipc-2014-agile-citycar-p3-5-2-0-2.pddl,CRASHED:1.12483:1000000000.0:300.0:-1
ipc-2014-agile-citycar-p4-2-2-0-1.pddl,CRASHED:1.34779:1000000000.0:300.0:-1
ipc-2014-agile-citycar-p4-2-3-0-1.pddl,CRASHED:1.3378:1000000000.0:300.0:-1
ipc-2014-agile-citycar-p4-2-3-0-2.pddl,CRASHED:1.34879:1000000000.0:300.0:-1
ipc-2014-agile-citycar-p4-3-2-0-1.pddl,CRASHED:1.62175:1000000000.0:300.0:-1
ipc-2014-agile-citycar-p4-3-2-0-2.pddl,CRASHED:1.63575:1000000000.0:300.0:-1
ipc-2014-agile-citycar-p4-3-3-0-1.pddl,CRASHED:1.63175:1000000000.0:300.0:-1
ipc-2014-agile-citycar-p4-3-3-0-2.pddl,CRASHED:1.63575:1000000000.0:300.0:-1
ipc-2014-agile-citycar-p4-4-2-0-1.pddl,CRASHED:1.9467:1000000000.0:300.0:-1
ipc-2014-agile-citycar-p4-4-2-0-2.pddl,CRASHED:1.9427:1000000000.0:300.0:-1
ipc-2014-agile-citycar-p4-4-3-0-1.pddl,CRASHED:1.9497:1000000000.0:300.0:-1
ipc-2014-agile-citycar-p4-4-3-0-2.pddl,CRASHED:1.9507:1000000000.0:300.0:-1
ipc-2014-agile-citycar-p4-5-2-0-1.pddl,CRASHED:2.28265:1000000000.0:300.0:-1
ipc-2014-agile-citycar-p4-5-2-0-2.pddl,CRASHED:2.11768:1000000000.0:300.0:-1
ipc-2014-agile-citycar-p4-5-3-0-1.pddl,CRASHED:2.13667:1000000000.0:300.0:-1
ipc-2014-agile-citycar-p4-5-3-0-2.pddl,CRASHED:2.10968:1000000000.0:300.0:-1
ipc-2014-agile-floortile-p01-4-3-2.pddl,SAT:15.8276:128.0:300.0:-1
ipc-2014-agile-floortile-p01-5-4-2.pddl,SAT:45.1211:167.0:300.0:-1
ipc-2014-agile-floortile-p01-5-5-2.pddl,SAT:173.837:231.0:300.0:-1
ipc-2014-agile-floortile-p01-6-4-2.pddl,SAT:81.8596:198.0:300.0:-1
ipc-2014-agile-floortile-p01-6-5-2.pddl,TIMEOUT:301.06:-1.0:300.0:-1
ipc-2014-agile-floortile-p01-6-5-3.pddl,SAT:142.845:259.0:300.0:-1
ipc-2014-agile-floortile-p02-5-4-2.pddl,SAT:44.6432:200.0:300.0:-1
ipc-2014-agile-floortile-p02-6-4-2.pddl,SAT:78.929:227.0:300.0:-1
ipc-2014-agile-floortile-p02-6-5-2.pddl,TIMEOUT:301.06:-1.0:300.0:-1
ipc-2014-agile-floortile-p02-6-5-3.pddl,SAT:156.06:285.0:300.0:-1
ipc-2014-agile-floortile-p03-6-4-2.pddl,SAT:113.835:214.0:300.0:-1
ipc-2014-agile-floortile-p03-6-5-2.pddl,TIMEOUT:301.09:-1.0:300.0:-1
ipc-2014-agile-floortile-p03-6-5-3.pddl,SAT:282.148:289.0:300.0:-1
ipc-2014-agile-floortile-p04-5-4-2.pddl,SAT:47.5118:203.0:300.0:-1
ipc-2014-agile-floortile-p04-5-5-2.pddl,SAT:227.805:252.0:300.0:-1
ipc-2014-agile-floortile-p04-6-5-2.pddl,TIMEOUT:301.05:-1.0:300.0:-1
ipc-2014-agile-floortile-p04-6-5-3.pddl,TIMEOUT:301.05:-1.0:300.0:-1
ipc-2014-agile-floortile-p05-4-3-2.pddl,SAT:13.9339:104.0:300.0:-1
ipc-2014-agile-floortile-p05-6-5-2.pddl,TIMEOUT:301.01:-1.0:300.0:-1
ipc-2014-agile-floortile-p05-6-5-3.pddl,TIMEOUT:301.05:-1.0:300.0:-1
ipc-2014-agile-ged-d-10-1.pddl,CRASHED:43.9:1000000000.0:300.0:-1
ipc-2014-agile-ged-d-10-2.pddl,CRASHED:44.36:1000000000.0:300.0:-1
ipc-2014-agile-ged-d-10-3.pddl,CRASHED:50.01:1000000000.0:300.0:-1
ipc-2014-agile-ged-d-10-4.pddl,CRASHED:42.77:1000000000.0:300.0:-1
ipc-2014-agile-ged-d-10-5.pddl,CRASHED:80.71:1000000000.0:300.0:-1
ipc-2014-agile-ged-d-10-6.pddl,CRASHED:85.56:1000000000.0:300.0:-1
ipc-2014-agile-ged-d-11-1.pddl,CRASHED:52.23:1000000000.0:300.0:-1
ipc-2014-agile-ged-d-11-3.pddl,CRASHED:50.77:1000000000.0:300.0:-1
ipc-2014-agile-ged-d-11-5.pddl,CRASHED:71.37:1000000000.0:300.0:-1
ipc-2014-agile-ged-d-11-6.pddl,CRASHED:62.37:1000000000.0:300.0:-1
ipc-2014-agile-ged-d-12-11.pddl,CRASHED:62.33:1000000000.0:300.0:-1
ipc-2014-agile-ged-d-12-2.pddl,CRASHED:112.02:1000000000.0:300.0:-1
ipc-2014-agile-ged-d-12-3.pddl,CRASHED:165.15:1000000000.0:300.0:-1
ipc-2014-agile-ged-d-12-5.pddl,CRASHED:189.79:1000000000.0:300.0:-1
ipc-2014-agile-ged-d-12-6.pddl,CRASHED:113.4:1000000000.0:300.0:-1
ipc-2014-agile-ged-d-12-7.pddl,CRASHED:163.53:1000000000.0:300.0:-1
ipc-2014-agile-ged-d-12-8.pddl,CRASHED:220.31:1000000000.0:300.0:-1
ipc-2014-agile-ged-d-12-9.pddl,CRASHED:227.2:1000000000.0:300.0:-1
ipc-2014-agile-ged-d-3-6.pddl,CRASHED:49.37:1000000000.0:300.0:-1
ipc-2014-agile-ged-d-9-5.pddl,CRASHED:58.36:1000000000.0:300.0:-1
ipc-2014-agile-hiking-3-4-3.pddl,SAT:2.71759:377.0:300.0:-1
ipc-2014-agile-hiking-3-4-4.pddl,SAT:6.44902:9595.0:300.0:-1
ipc-2014-agile-hiking-3-4-5.pddl,SAT:7.27689:3483.0:300.0:-1
ipc-2014-agile-hiking-3-4-6.pddl,TIMEOUT:301.06:-1.0:300.0:-1
ipc-2014-agile-hiking-3-4-7.pddl,TIMEOUT:301.1:-1.0:300.0:-1
ipc-2014-agile-hiking-3-4-8.pddl,TIMEOUT:301.07:-1.0:300.0:-1
ipc-2014-agile-hiking-3-4-9.pddl,TIMEOUT:301.06:-1.0:300.0:-1
ipc-2014-agile-hiking-4-5-3.pddl,TIMEOUT:301.07:-1.0:300.0:-1
ipc-2014-agile-hiking-4-5-4.pddl,TIMEOUT:301.02:-1.0:300.0:-1
ipc-2014-agile-hiking-4-5-5.pddl,SAT:17.4813:8261.0:300.0:-1
ipc-2014-agile-hiking-4-5-6.pddl,TIMEOUT:301.1:-1.0:300.0:-1
ipc-2014-agile-hiking-4-5-7.pddl,TIMEOUT:301.07:-1.0:300.0:-1
ipc-2014-agile-hiking-4-5-8.pddl,TIMEOUT:301.21:-1.0:300.0:-1
ipc-2014-agile-hiking-4-5-9.pddl,TIMEOUT:301.28:-1.0:300.0:-1
ipc-2014-agile-hiking-5-6-3.pddl,TIMEOUT:301.0:-1.0:300.0:-1
ipc-2014-agile-hiking-5-6-4.pddl,TIMEOUT:301.14:-1.0:300.0:-1
ipc-2014-agile-hiking-5-6-5.pddl,TIMEOUT:301.14:-1.0:300.0:-1
ipc-2014-agile-hiking-5-6-6.pddl,TIMEOUT:301.23:-1.0:300.0:-1
ipc-2014-agile-hiking-5-6-7.pddl,TIMEOUT:301.04:-1.0:300.0:-1
ipc-2014-agile-hiking-5-6-8.pddl,TIMEOUT:301.16:-1.0:300.0:-1
ipc-2014-agile-maintenance-1.3.060.180.5-000.pddl,SAT:1.3398:40.0:300.0:-1
ipc-2014-agile-maintenance-1.3.060.180.5-001.pddl,SAT:11.8862:54.0:300.0:-1
ipc-2014-agile-maintenance-1.3.060.180.5-002.pddl,SAT:11.8032:55.0:300.0:-1
ipc-2014-agile-maintenance-1.3.100.300.5-000.pddl,SAT:13.394:94.0:300.0:-1
ipc-2014-agile-maintenance-1.3.100.300.5-001.pddl,SAT:13.375:88.0:300.0:-1
ipc-2014-agile-maintenance-1.3.100.300.7-000.pddl,SAT:3.21751:57.0:300.0:-1
ipc-2014-agile-maintenance-1.3.100.300.7-001.pddl,SAT:3.23351:54.0:300.0:-1
ipc-2014-agile-maintenance-1.3.100.300.7-002.pddl,SAT:3.22251:55.0:300.0:-1
ipc-2014-agile-maintenance-1.3.150.500.6-001.pddl,SAT:17.1244:133.0:300.0:-1
ipc-2014-agile-maintenance-1.3.200.500.5-001.pddl,SAT:18.0573:177.0:300.0:-1
ipc-2014-agile-maintenance-1.3.200.500.5-002.pddl,SAT:18.0942:181.0:300.0:-1
ipc-2014-agile-maintenance-1.3.200.700.7-000.pddl,SAT:12.4711:119.0:300.0:-1
ipc-2014-agile-maintenance-1.3.200.700.7-001.pddl,SAT:12.5721:115.0:300.0:-1
ipc-2014-agile-maintenance-1.3.200.700.7-002.pddl,SAT:23.4144:169.0:300.0:-1
ipc-2014-agile-maintenance-1.3.200.900.5-000.pddl,SAT:23.6184:200.0:300.0:-1
ipc-2014-agile-maintenance-1.3.200.900.5-001.pddl,SAT:23.4584:200.0:300.0:-1
ipc-2014-agile-maintenance-1.3.200.900.5-002.pddl,SAT:23.9514:200.0:300.0:-1
ipc-2014-agile-maintenance-1.3.200.900.8-000.pddl,SAT:28.7156:162.0:300.0:-1
ipc-2014-agile-maintenance-1.3.200.900.8-001.pddl,SAT:17.7323:116.0:300.0:-1
ipc-2014-agile-maintenance-1.3.200.900.8-002.pddl,SAT:17.7753:121.0:300.0:-1
ipc-2014-agile-openstacks-p130_2.pddl,SAT:11.5053:90.0:300.0:-1
ipc-2014-agile-openstacks-p130_3.pddl,SAT:12.863:130.0:300.0:-1
ipc-2014-agile-openstacks-p150_2.pddl,SAT:14.6068:102.0:300.0:-1
ipc-2014-agile-openstacks-p150_3.pddl,SAT:17.2484:148.0:300.0:-1
ipc-2014-agile-openstacks-p170_1.pddl,SAT:18.4932:110.0:300.0:-1
ipc-2014-agile-openstacks-p170_2.pddl,SAT:18.9341:124.0:300.0:-1
ipc-2014-agile-openstacks-p170_3.pddl,SAT:22.0396:166.0:300.0:-1
ipc-2014-agile-openstacks-p190_1.pddl,SAT:23.2715:136.0:300.0:-1
ipc-2014-agile-openstacks-p190_2.pddl,SAT:23.6484:140.0:300.0:-1
ipc-2014-agile-openstacks-p190_3.pddl,SAT:27.5818:186.0:300.0:-1
ipc-2014-agile-openstacks-p210_1.pddl,SAT:27.6748:145.0:300.0:-1
ipc-2014-agile-openstacks-p210_2.pddl,SAT:27.9468:164.0:300.0:-1
ipc-2014-agile-openstacks-p230_1.pddl,SAT:33.2149:157.0:300.0:-1
ipc-2014-agile-openstacks-p230_2.pddl,SAT:37.1484:180.0:300.0:-1
ipc-2014-agile-openstacks-p250_1.pddl,SAT:41.5377:190.0:300.0:-1
ipc-2014-agile-openstacks-p250_2.pddl,SAT:43.1944:203.0:300.0:-1
ipc-2014-agile-openstacks-p270_1.pddl,SAT:49.6245:215.0:300.0:-1
ipc-2014-agile-openstacks-p270_2.pddl,SAT:51.6451:231.0:300.0:-1
ipc-2014-agile-openstacks-p290_1.pddl,SAT:57.1123:216.0:300.0:-1
ipc-2014-agile-openstacks-p290_2.pddl,SAT:57.0943:262.0:300.0:-1
ipc-2014-agile-parking-28_2.pddl,TIMEOUT:301.01:-1.0:300.0:-1
ipc-2014-agile-parking-28_3.pddl,TIMEOUT:301.05:-1.0:300.0:-1
ipc-2014-agile-parking-30_1.pddl,TIMEOUT:301.14:-1.0:300.0:-1
ipc-2014-agile-parking-30_2.pddl,TIMEOUT:301.16:-1.0:300.0:-1
ipc-2014-agile-parking-30_3.pddl,TIMEOUT:301.11:-1.0:300.0:-1
ipc-2014-agile-parking-32_1.pddl,TIMEOUT:301.15:-1.0:300.0:-1
ipc-2014-agile-parking-32_2.pddl,TIMEOUT:301.21:-1.0:300.0:-1
ipc-2014-agile-parking-32_3.pddl,TIMEOUT:301.24:-1.0:300.0:-1
ipc-2014-agile-parking-34_1.pddl,TIMEOUT:301.36:-1.0:300.0:-1
ipc-2014-agile-parking-34_2.pddl,TIMEOUT:301.03:-1.0:300.0:-1
ipc-2014-agile-parking-34_3.pddl,TIMEOUT:301.07:-1.0:300.0:-1
ipc-2014-agile-parking-36_1.pddl,TIMEOUT:301.06:-1.0:300.0:-1
ipc-2014-agile-parking-36_2.pddl,TIMEOUT:301.05:-1.0:300.0:-1
ipc-2014-agile-parking-36_3.pddl,TIMEOUT:301.12:-1.0:300.0:-1
ipc-2014-agile-parking-38_1.pddl,TIMEOUT:301.01:-1.0:300.0:-1
ipc-2014-agile-parking-38_2.pddl,TIMEOUT:301.07:-1.0:300.0:-1
ipc-2014-agile-parking-38_3.pddl,TIMEOUT:301.21:-1.0:300.0:-1
ipc-2014-agile-parking-40_1.pddl,TIMEOUT:301.16:-1.0:300.0:-1
ipc-2014-agile-parking-40_2.pddl,TIMEOUT:301.28:-1.0:300.0:-1
ipc-2014-agile-parking-40_3.pddl,TIMEOUT:301.32:-1.0:300.0:-1
ipc-2014-agile-tetris-020.pddl,SAT:5.66114:318.0:300.0:-1
ipc-2014-agile-tetris-021.pddl,SAT:17.2554:472.0:300.0:-1
ipc-2014-agile-tetris-022.pddl,SAT:12.1442:541.0:300.0:-1
ipc-2014-agile-tetris-023.pddl,SAT:12.6941:260.0:300.0:-1
ipc-2014-agile-tetris-024.pddl,SAT:18.0253:816.0:300.0:-1
ipc-2014-agile-tetris-025.pddl,SAT:7.51586:510.0:300.0:-1
ipc-2014-agile-tetris-026.pddl,SAT:35.0057:5751.0:300.0:-1
ipc-2014-agile-tetris-027.pddl,SAT:28.1627:1403.0:300.0:-1
ipc-2014-agile-tetris-028.pddl,SAT:23.0635:648.0:300.0:-1
ipc-2014-agile-tetris-029.pddl,SAT:7.2469:481.0:300.0:-1
ipc-2014-agile-tetris-031.pddl,SAT:41.2297:7835.0:300.0:-1
ipc-2014-agile-tetris-032.pddl,SAT:14.2738:1177.0:300.0:-1
ipc-2014-agile-tetris-033.pddl,SAT:32.1281:1035.0:300.0:-1
ipc-2014-agile-tetris-034.pddl,SAT:31.7592:627.0:300.0:-1
ipc-2014-agile-tetris-035.pddl,SAT:37.4953:921.0:300.0:-1
ipc-2014-agile-tetris-036.pddl,SAT:32.2461:2699.0:300.0:-1
ipc-2014-agile-tetris-037.pddl,SAT:9.00463:1460.0:300.0:-1
ipc-2014-agile-tetris-038.pddl,SAT:25.8991:589.0:300.0:-1
ipc-2014-agile-tetris-039.pddl,SAT:37.8922:2358.0:300.0:-1
ipc-2014-agile-tetris-040.pddl,SAT:26.22:903.0:300.0:-1
ipc-2014-agile-thoughtful-bootstrap-typed-01.pddl,CRASHED:0.371943:1000000000.0:300.0:-1
ipc-2014-agile-thoughtful-bootstrap-typed-02.pddl,CRASHED:0.365943:1000000000.0:300.0:-1
ipc-2014-agile-thoughtful-bootstrap-typed-03.pddl,CRASHED:0.368943:1000000000.0:300.0:-1
ipc-2014-agile-thoughtful-bootstrap-typed-04.pddl,CRASHED:0.366943:1000000000.0:300.0:-1
ipc-2014-agile-thoughtful-bootstrap-typed-05.pddl,CRASHED:0.360944:1000000000.0:300.0:-1
ipc-2014-agile-thoughtful-p11_6_53-typed.pddl,CRASHED:0.385941:1000000000.0:300.0:-1
ipc-2014-agile-thoughtful-p11_6_59-typed.pddl,CRASHED:0.373942:1000000000.0:300.0:-1
ipc-2014-agile-thoughtful-p11_6_62-typed.pddl,CRASHED:0.375942:1000000000.0:300.0:-1
ipc-2014-agile-thoughtful-p13_7_78-typed.pddl,CRASHED:0.382941:1000000000.0:300.0:-1
ipc-2014-agile-thoughtful-p13_7_79-typed.pddl,CRASHED:0.39094:1000000000.0:300.0:-1
ipc-2014-agile-thoughtful-p13_7_86-typed.pddl,CRASHED:0.381941:1000000000.0:300.0:-1
ipc-2014-agile-thoughtful-target-typed-20.pddl,CRASHED:0.394939:1000000000.0:300.0:-1
ipc-2014-agile-thoughtful-target-typed-21.pddl,CRASHED:0.380941:1000000000.0:300.0:-1
ipc-2014-agile-thoughtful-target-typed-22.pddl,CRASHED:0.424935:1000000000.0:300.0:-1
ipc-2014-agile-thoughtful-target-typed-23.pddl,CRASHED:0.413936:1000000000.0:300.0:-1
ipc-2014-agile-thoughtful-target-typed-24.pddl,CRASHED:0.415936:1000000000.0:300.0:-1
ipc-2014-agile-thoughtful-target-typed-25.pddl,CRASHED:0.403938:1000000000.0:300.0:-1
ipc-2014-agile-thoughtful-target-typed-26.pddl,CRASHED:0.406938:1000000000.0:300.0:-1
ipc-2014-agile-thoughtful-target-typed-27.pddl,CRASHED:0.418935:1000000000.0:300.0:-1
ipc-2014-agile-thoughtful-target-typed-28.pddl,CRASHED:0.430934:1000000000.0:300.0:-1
ipc-2014-agile-transport-01.pddl,CRASHED:15.1597:1000000000.0:300.0:-1
ipc-2014-agile-transport-02.pddl,CRASHED:17.5633:1000000000.0:300.0:-1
ipc-2014-agile-transport-03.pddl,CRASHED:15.0227:1000000000.0:300.0:-1
ipc-2014-agile-transport-04.pddl,TIMEOUT:301.07:-1.0:300.0:-1
ipc-2014-agile-transport-05.pddl,TIMEOUT:301.08:-1.0:300.0:-1
ipc-2014-agile-transport-06.pddl,TIMEOUT:301.3:-1.0:300.0:-1
ipc-2014-agile-transport-07.pddl,TIMEOUT:301.05:-1.0:300.0:-1
ipc-2014-agile-transport-08.pddl,TIMEOUT:301.03:-1.0:300.0:-1
ipc-2014-agile-transport-09.pddl,TIMEOUT:301.08:-1.0:300.0:-1
ipc-2014-agile-transport-10.pddl,TIMEOUT:301.03:-1.0:300.0:-1
ipc-2014-agile-transport-11.pddl,CRASHED:18.9131:1000000000.0:300.0:-1
ipc-2014-agile-transport-12.pddl,CRASHED:18.7451:1000000000.0:300.0:-1
ipc-2014-agile-transport-13.pddl,CRASHED:13.7029:1000000000.0:300.0:-1
ipc-2014-agile-transport-14.pddl,TIMEOUT:301.02:-1.0:300.0:-1
ipc-2014-agile-transport-15.pddl,TIMEOUT:301.09:-1.0:300.0:-1
ipc-2014-agile-transport-16.pddl,TIMEOUT:301.01:-1.0:300.0:-1
ipc-2014-agile-transport-17.pddl,TIMEOUT:301.01:-1.0:300.0:-1
ipc-2014-agile-transport-18.pddl,TIMEOUT:301.03:-1.0:300.0:-1
ipc-2014-agile-transport-19.pddl,TIMEOUT:301.12:-1.0:300.0:-1
ipc-2014-agile-transport-20.pddl,TIMEOUT:301.15:-1.0:300.0:-1
ipc-2014-agile-visitall-30.pddl,SAT:2.45363:2328.0:300.0:-1
ipc-2014-agile-visitall-31.pddl,SAT:2.91856:2405.0:300.0:-1
ipc-2014-agile-visitall-32.pddl,SAT:3.9414:2503.0:300.0:-1
ipc-2014-agile-visitall-33.pddl,SAT:3.2935:2786.0:300.0:-1
ipc-2014-agile-visitall-50.pddl,SAT:8.35673:6544.0:300.0:-1
ipc-2014-agile-visitall-51.pddl,TIMEOUT:301.26:-1.0:300.0:-1
ipc-2014-agile-visitall-52.pddl,TIMEOUT:301.05:-1.0:300.0:-1
ipc-2014-agile-visitall-53.pddl,TIMEOUT:301.07:-1.0:300.0:-1
ipc-2014-agile-visitall-54.pddl,TIMEOUT:301.02:-1.0:300.0:-1
ipc-2014-agile-visitall-55.pddl,TIMEOUT:301.06:-1.0:300.0:-1
ipc-2014-agile-visitall-56.pddl,SAT:8.5327:8470.0:300.0:-1
ipc-2014-agile-visitall-57.pddl,TIMEOUT:301.0:-1.0:300.0:-1
ipc-2014-agile-visitall-58.pddl,TIMEOUT:301.19:-1.0:300.0:-1
ipc-2014-agile-visitall-59.pddl,TIMEOUT:301.01:-1.0:300.0:-1
ipc-2014-agile-visitall-60.pddl,TIMEOUT:301.05:-1.0:300.0:-1
ipc-2014-agile-visitall-61.pddl,TIMEOUT:301.01:-1.0:300.0:-1
ipc-2014-agile-visitall-62.pddl,TIMEOUT:301.04:-1.0:300.0:-1
ipc-2014-agile-visitall-63.pddl,TIMEOUT:301.1:-1.0:300.0:-1
ipc-2014-agile-visitall-64.pddl,TIMEOUT:301.27:-1.0:300.0:-1
ipc-2014-agile-visitall-65.pddl,TIMEOUT:301.05:-1.0:300.0:-1
