instance,ipc-2014-agile-siw
ipc-2014-agile-barman-p1-11-4-15.pddl,TIMEOUT:301.167:-1.0:300.0:-1
ipc-2014-agile-barman-p1-11-5-15.pddl,TIMEOUT:301.147:-1.0:300.0:-1
ipc-2014-agile-barman-p1-11-5-16.pddl,CRASHED:0.481926:1000000000.0:300.0:-1
ipc-2014-agile-barman-p2-10-4-13.pddl,TIMEOUT:301.061:-1.0:300.0:-1
ipc-2014-agile-barman-p2-11-4-15.pddl,TIMEOUT:301.128:-1.0:300.0:-1
ipc-2014-agile-barman-p2-11-5-15.pddl,TIMEOUT:301.132:-1.0:300.0:-1
ipc-2014-agile-barman-p2-11-5-16.pddl,CRASHED:0.504922:1000000000.0:300.0:-1
ipc-2014-agile-barman-p2-11-5-17.pddl,CRASHED:0.58391:1000000000.0:300.0:-1
ipc-2014-agile-barman-p3-10-4-13.pddl,TIMEOUT:301.136:-1.0:300.0:-1
ipc-2014-agile-barman-p3-11-4-15.pddl,TIMEOUT:301.15:-1.0:300.0:-1
ipc-2014-agile-barman-p3-11-5-15.pddl,TIMEOUT:301.139:-1.0:300.0:-1
ipc-2014-agile-barman-p3-11-5-16.pddl,CRASHED:0.506922:1000000000.0:300.0:-1
ipc-2014-agile-barman-p3-11-5-17.pddl,CRASHED:0.613906:1000000000.0:300.0:-1
ipc-2014-agile-barman-p4-11-4-14.pddl,TIMEOUT:301.138:-1.0:300.0:-1
ipc-2014-agile-barman-p4-11-4-15.pddl,TIMEOUT:301.091:-1.0:300.0:-1
ipc-2014-agile-barman-p4-11-5-15.pddl,TIMEOUT:301.089:-1.0:300.0:-1
ipc-2014-agile-barman-p5-10-4-13.pddl,TIMEOUT:301.103:-1.0:300.0:-1
ipc-2014-agile-barman-p5-11-4-15.pddl,TIMEOUT:301.15:-1.0:300.0:-1
ipc-2014-agile-barman-p5-11-5-15.pddl,TIMEOUT:301.148:-1.0:300.0:-1
ipc-2014-agile-barman-p5-11-5-16.pddl,CRASHED:0.525919:1000000000.0:300.0:-1
ipc-2014-agile-cavediving-01_easy.pddl,CRASHED:0.311952:1000000000.0:300.0:-1
ipc-2014-agile-cavediving-01.pddl,CRASHED:0.406937:1000000000.0:300.0:-1
ipc-2014-agile-cavediving-02_easy.pddl,CRASHED:0.370943:1000000000.0:300.0:-1
ipc-2014-agile-cavediving-03_easy.pddl,CRASHED:0.310952:1000000000.0:300.0:-1
ipc-2014-agile-cavediving-04_easy.pddl,CRASHED:0.332949:1000000000.0:300.0:-1
ipc-2014-agile-cavediving-05A_easy.pddl,CRASHED:0.246961:1000000000.0:300.0:-1
ipc-2014-agile-cavediving-06A_easy.pddl,CRASHED:0.231964:1000000000.0:300.0:-1
ipc-2014-agile-cavediving-07_easy.pddl,CRASHED:0.25396:1000000000.0:300.0:-1
ipc-2014-agile-cavediving-08_easy.pddl,CRASHED:0.241962:1000000000.0:300.0:-1
ipc-2014-agile-cavediving-09_easy.pddl,CRASHED:3.3085:1000000000.0:300.0:-1
ipc-2014-agile-cavediving-10_easy.pddl,CRASHED:3.36649:1000000000.0:300.0:-1
ipc-2014-agile-cavediving-11_easy.pddl,CRASHED:3.41248:1000000000.0:300.0:-1
ipc-2014-agile-cavediving-12_easy.pddl,CRASHED:3.37649:1000000000.0:300.0:-1
ipc-2014-agile-cavediving-13_easy.pddl,CRASHED:0.553915:1000000000.0:300.0:-1
ipc-2014-agile-cavediving-14_easy.pddl,CRASHED:0.51892:1000000000.0:300.0:-1
ipc-2014-agile-cavediving-15_easy.pddl,CRASHED:0.446931:1000000000.0:300.0:-1
ipc-2014-agile-cavediving-16_easy.pddl,CRASHED:0.563913:1000000000.0:300.0:-1
ipc-2014-agile-cavediving-18A_easy.pddl,CRASHED:0.070988:1000000000.0:300.0:-1
ipc-2014-agile-cavediving-18_easy.pddl,CRASHED:0.079987:1000000000.0:300.0:-1
ipc-2014-agile-cavediving-20A_easy.pddl,CRASHED:0.070988:1000000000.0:300.0:-1
ipc-2014-agile-childsnack-05-2.pddl,CRASHED:61.2937:1000000000.0:300.0:-1
ipc-2014-agile-childsnack-05.pddl,CRASHED:61.7126:1000000000.0:300.0:-1
ipc-2014-agile-childsnack-06-2.pddl,CRASHED:203.824:1000000000.0:300.0:-1
ipc-2014-agile-childsnack-07-2.pddl,TIMEOUT:301.083:-1.0:300.0:-1
ipc-2014-agile-childsnack-08-2.pddl,TIMEOUT:301.048:-1.0:300.0:-1
ipc-2014-agile-childsnack-08.pddl,TIMEOUT:301.025:-1.0:300.0:-1
ipc-2014-agile-childsnack-09-2.pddl,TIMEOUT:301.09:-1.0:300.0:-1
ipc-2014-agile-childsnack-09.pddl,TIMEOUT:301.078:-1.0:300.0:-1
ipc-2014-agile-childsnack-10-2.pddl,TIMEOUT:301.128:-1.0:300.0:-1
ipc-2014-agile-childsnack-10.pddl,TIMEOUT:301.061:-1.0:300.0:-1
ipc-2014-agile-childsnack-11-2.pddl,TIMEOUT:301.125:-1.0:300.0:-1
ipc-2014-agile-childsnack-11.pddl,TIMEOUT:301.017:-1.0:300.0:-1
ipc-2014-agile-childsnack-12.pddl,TIMEOUT:301.132:-1.0:300.0:-1
ipc-2014-agile-childsnack-13-2.pddl,TIMEOUT:301.039:-1.0:300.0:-1
ipc-2014-agile-childsnack-13.pddl,TIMEOUT:301.055:-1.0:300.0:-1
ipc-2014-agile-childsnack-14.pddl,TIMEOUT:301.034:-1.0:300.0:-1
ipc-2014-agile-childsnack-15-2.pddl,TIMEOUT:301.081:-1.0:300.0:-1
ipc-2014-agile-childsnack-16-2.pddl,TIMEOUT:301.102:-1.0:300.0:-1
ipc-2014-agile-childsnack-19-2.pddl,TIMEOUT:301.111:-1.0:300.0:-1
ipc-2014-agile-childsnack-19.pddl,TIMEOUT:301.093:-1.0:300.0:-1
ipc-2014-agile-citycar-p3-2-2-0-1.pddl,SAT:11.5092:88.0:300.0:-1
ipc-2014-agile-citycar-p3-3-2-0-1.pddl,SAT:17.4913:142.0:300.0:-1
ipc-2014-agile-citycar-p3-4-2-0-1.pddl,SAT:14.2938:106.0:300.0:-1
ipc-2014-agile-citycar-p3-5-2-0-1.pddl,SAT:22.0327:150.0:300.0:-1
ipc-2014-agile-citycar-p3-5-2-0-2.pddl,SAT:19.76:90.0:300.0:-1
ipc-2014-agile-citycar-p4-2-2-0-1.pddl,SAT:287.665:152.0:300.0:-1
ipc-2014-agile-citycar-p4-2-3-0-1.pddl,SAT:294.174:142.0:300.0:-1
ipc-2014-agile-citycar-p4-2-3-0-2.pddl,SAT:285.628:122.0:300.0:-1
ipc-2014-agile-citycar-p4-3-2-0-1.pddl,TIMEOUT:301.045:-1.0:300.0:-1
ipc-2014-agile-citycar-p4-3-2-0-2.pddl,TIMEOUT:301.061:-1.0:300.0:-1
ipc-2014-agile-citycar-p4-3-3-0-1.pddl,TIMEOUT:301.11:-1.0:300.0:-1
ipc-2014-agile-citycar-p4-3-3-0-2.pddl,TIMEOUT:301.078:-1.0:300.0:-1
ipc-2014-agile-citycar-p4-4-2-0-1.pddl,TIMEOUT:301.055:-1.0:300.0:-1
ipc-2014-agile-citycar-p4-4-2-0-2.pddl,TIMEOUT:301.039:-1.0:300.0:-1
ipc-2014-agile-citycar-p4-4-3-0-1.pddl,TIMEOUT:301.127:-1.0:300.0:-1
ipc-2014-agile-citycar-p4-4-3-0-2.pddl,TIMEOUT:301.028:-1.0:300.0:-1
ipc-2014-agile-citycar-p4-5-2-0-1.pddl,TIMEOUT:301.12:-1.0:300.0:-1
ipc-2014-agile-citycar-p4-5-2-0-2.pddl,TIMEOUT:301.066:-1.0:300.0:-1
ipc-2014-agile-citycar-p4-5-3-0-1.pddl,TIMEOUT:301.115:-1.0:300.0:-1
ipc-2014-agile-citycar-p4-5-3-0-2.pddl,TIMEOUT:301.088:-1.0:300.0:-1
ipc-2014-agile-floortile-p01-4-3-2.pddl,CRASHED:1.07084:1000000000.0:300.0:-1
ipc-2014-agile-floortile-p01-5-4-2.pddl,CRASHED:0.378941:1000000000.0:300.0:-1
ipc-2014-agile-floortile-p01-5-5-2.pddl,CRASHED:1.15182:1000000000.0:300.0:-1
ipc-2014-agile-floortile-p01-6-4-2.pddl,CRASHED:1.13982:1000000000.0:300.0:-1
ipc-2014-agile-floortile-p01-6-5-2.pddl,CRASHED:4.91025:1000000000.0:300.0:-1
ipc-2014-agile-floortile-p01-6-5-3.pddl,CRASHED:32.849:1000000000.0:300.0:-1
ipc-2014-agile-floortile-p02-5-4-2.pddl,CRASHED:0.336948:1000000000.0:300.0:-1
ipc-2014-agile-floortile-p02-6-4-2.pddl,CRASHED:2.50062:1000000000.0:300.0:-1
ipc-2014-agile-floortile-p02-6-5-2.pddl,CRASHED:1.37079:1000000000.0:300.0:-1
ipc-2014-agile-floortile-p02-6-5-3.pddl,CRASHED:9.52155:1000000000.0:300.0:-1
ipc-2014-agile-floortile-p03-6-4-2.pddl,CRASHED:0.803876:1000000000.0:300.0:-1
ipc-2014-agile-floortile-p03-6-5-2.pddl,CRASHED:6.43602:1000000000.0:300.0:-1
ipc-2014-agile-floortile-p03-6-5-3.pddl,CRASHED:5.34519:1000000000.0:300.0:-1
ipc-2014-agile-floortile-p04-5-4-2.pddl,CRASHED:0.244962:1000000000.0:300.0:-1
ipc-2014-agile-floortile-p04-5-5-2.pddl,CRASHED:0.808876:1000000000.0:300.0:-1
ipc-2014-agile-floortile-p04-6-5-2.pddl,CRASHED:2.02269:1000000000.0:300.0:-1
ipc-2014-agile-floortile-p04-6-5-3.pddl,CRASHED:10.3934:1000000000.0:300.0:-1
ipc-2014-agile-floortile-p05-4-3-2.pddl,CRASHED:0.607906:1000000000.0:300.0:-1
ipc-2014-agile-floortile-p05-6-5-2.pddl,CRASHED:3.19151:1000000000.0:300.0:-1
ipc-2014-agile-floortile-p05-6-5-3.pddl,CRASHED:6.84896:1000000000.0:300.0:-1
ipc-2014-agile-ged-d-10-1.pddl,CRASHED:2.34964:1000000000.0:300.0:-1
ipc-2014-agile-ged-d-10-2.pddl,CRASHED:2.34964:1000000000.0:300.0:-1
ipc-2014-agile-ged-d-10-3.pddl,CRASHED:3.16652:1000000000.0:300.0:-1
ipc-2014-agile-ged-d-10-4.pddl,CRASHED:2.53361:1000000000.0:300.0:-1
ipc-2014-agile-ged-d-10-5.pddl,CRASHED:6.86895:1000000000.0:300.0:-1
ipc-2014-agile-ged-d-10-6.pddl,CRASHED:6.81796:1000000000.0:300.0:-1
ipc-2014-agile-ged-d-11-1.pddl,CRASHED:3.21351:1000000000.0:300.0:-1
ipc-2014-agile-ged-d-11-3.pddl,CRASHED:3.34249:1000000000.0:300.0:-1
ipc-2014-agile-ged-d-11-5.pddl,CRASHED:5.13422:1000000000.0:300.0:-1
ipc-2014-agile-ged-d-11-6.pddl,CRASHED:4.06438:1000000000.0:300.0:-1
ipc-2014-agile-ged-d-12-11.pddl,CRASHED:4.17436:1000000000.0:300.0:-1
ipc-2014-agile-ged-d-12-2.pddl,CRASHED:10.1585:1000000000.0:300.0:-1
ipc-2014-agile-ged-d-12-3.pddl,CRASHED:12.3691:1000000000.0:300.0:-1
ipc-2014-agile-ged-d-12-5.pddl,CRASHED:23.2945:1000000000.0:300.0:-1
ipc-2014-agile-ged-d-12-6.pddl,CRASHED:10.7784:1000000000.0:300.0:-1
ipc-2014-agile-ged-d-12-7.pddl,CRASHED:13.085:1000000000.0:300.0:-1
ipc-2014-agile-ged-d-12-8.pddl,CRASHED:18.9361:1000000000.0:300.0:-1
ipc-2014-agile-ged-d-12-9.pddl,CRASHED:19.1681:1000000000.0:300.0:-1
ipc-2014-agile-ged-d-3-6.pddl,CRASHED:2.94455:1000000000.0:300.0:-1
ipc-2014-agile-ged-d-9-5.pddl,SAT:1.90471:20.0:300.0:-1
ipc-2014-agile-hiking-3-4-3.pddl,SAT:0.368943:13.0:300.0:-1
ipc-2014-agile-hiking-3-4-4.pddl,SAT:142.321:27.0:300.0:-1
ipc-2014-agile-hiking-3-4-5.pddl,TIMEOUT:301.071:-1.0:300.0:-1
ipc-2014-agile-hiking-3-4-6.pddl,TIMEOUT:301.042:-1.0:300.0:-1
ipc-2014-agile-hiking-3-4-7.pddl,TIMEOUT:301.109:-1.0:300.0:-1
ipc-2014-agile-hiking-3-4-8.pddl,TIMEOUT:301.087:-1.0:300.0:-1
ipc-2014-agile-hiking-3-4-9.pddl,TIMEOUT:301.042:-1.0:300.0:-1
ipc-2014-agile-hiking-4-5-3.pddl,SAT:2.04269:15.0:300.0:-1
ipc-2014-agile-hiking-4-5-4.pddl,TIMEOUT:301.067:-1.0:300.0:-1
ipc-2014-agile-hiking-4-5-5.pddl,TIMEOUT:301.099:-1.0:300.0:-1
ipc-2014-agile-hiking-4-5-6.pddl,TIMEOUT:301.098:-1.0:300.0:-1
ipc-2014-agile-hiking-4-5-7.pddl,TIMEOUT:301.133:-1.0:300.0:-1
ipc-2014-agile-hiking-4-5-8.pddl,TIMEOUT:301.146:-1.0:300.0:-1
ipc-2014-agile-hiking-4-5-9.pddl,TIMEOUT:301.113:-1.0:300.0:-1
ipc-2014-agile-hiking-5-6-3.pddl,SAT:11.0423:17.0:300.0:-1
ipc-2014-agile-hiking-5-6-4.pddl,TIMEOUT:301.13:-1.0:300.0:-1
ipc-2014-agile-hiking-5-6-5.pddl,TIMEOUT:301.138:-1.0:300.0:-1
ipc-2014-agile-hiking-5-6-6.pddl,TIMEOUT:301.089:-1.0:300.0:-1
ipc-2014-agile-hiking-5-6-7.pddl,TIMEOUT:301.11:-1.0:300.0:-1
ipc-2014-agile-hiking-5-6-8.pddl,TIMEOUT:301.176:-1.0:300.0:-1
ipc-2014-agile-maintenance-1.3.060.180.5-000.pddl,CRASHED:0.202968:1000000000.0:300.0:-1
ipc-2014-agile-maintenance-1.3.060.180.5-001.pddl,CRASHED:32.3581:1000000000.0:300.0:-1
ipc-2014-agile-maintenance-1.3.060.180.5-002.pddl,CRASHED:2.17967:1000000000.0:300.0:-1
ipc-2014-agile-maintenance-1.3.100.300.5-000.pddl,CRASHED:283.121:1000000000.0:300.0:-1
ipc-2014-agile-maintenance-1.3.100.300.5-001.pddl,CRASHED:164.792:1000000000.0:300.0:-1
ipc-2014-agile-maintenance-1.3.100.300.7-000.pddl,CRASHED:111.061:1000000000.0:300.0:-1
ipc-2014-agile-maintenance-1.3.100.300.7-001.pddl,CRASHED:52.0591:1000000000.0:300.0:-1
ipc-2014-agile-maintenance-1.3.100.300.7-002.pddl,TIMEOUT:301.154:-1.0:300.0:-1
ipc-2014-agile-maintenance-1.3.150.500.6-001.pddl,CRASHED:5.9061:1000000000.0:300.0:-1
ipc-2014-agile-maintenance-1.3.200.500.5-001.pddl,CRASHED:9.51355:1000000000.0:300.0:-1
ipc-2014-agile-maintenance-1.3.200.500.5-002.pddl,CRASHED:8.82966:1000000000.0:300.0:-1
ipc-2014-agile-maintenance-1.3.200.700.7-000.pddl,CRASHED:3.32149:1000000000.0:300.0:-1
ipc-2014-agile-maintenance-1.3.200.700.7-001.pddl,CRASHED:3.07953:1000000000.0:300.0:-1
ipc-2014-agile-maintenance-1.3.200.700.7-002.pddl,CRASHED:3.07953:1000000000.0:300.0:-1
ipc-2014-agile-maintenance-1.3.200.900.5-000.pddl,CRASHED:2.84457:1000000000.0:300.0:-1
ipc-2014-agile-maintenance-1.3.200.900.5-001.pddl,CRASHED:2.83457:1000000000.0:300.0:-1
ipc-2014-agile-maintenance-1.3.200.900.5-002.pddl,CRASHED:3.48847:1000000000.0:300.0:-1
ipc-2014-agile-maintenance-1.3.200.900.8-000.pddl,CRASHED:3.53646:1000000000.0:300.0:-1
ipc-2014-agile-maintenance-1.3.200.900.8-001.pddl,CRASHED:3.50747:1000000000.0:300.0:-1
ipc-2014-agile-maintenance-1.3.200.900.8-002.pddl,CRASHED:3.55146:1000000000.0:300.0:-1
ipc-2014-agile-openstacks-p130_2.pddl,CRASHED:171.155:1000000000.0:300.0:-1
ipc-2014-agile-openstacks-p130_3.pddl,CRASHED:43.5084:1000000000.0:300.0:-1
ipc-2014-agile-openstacks-p150_2.pddl,TIMEOUT:301.062:-1.0:300.0:-1
ipc-2014-agile-openstacks-p150_3.pddl,CRASHED:76.4694:1000000000.0:300.0:-1
ipc-2014-agile-openstacks-p170_1.pddl,TIMEOUT:301.134:-1.0:300.0:-1
ipc-2014-agile-openstacks-p170_2.pddl,CRASHED:284.242:1000000000.0:300.0:-1
ipc-2014-agile-openstacks-p170_3.pddl,CRASHED:126.255:1000000000.0:300.0:-1
ipc-2014-agile-openstacks-p190_1.pddl,TIMEOUT:301.104:-1.0:300.0:-1
ipc-2014-agile-openstacks-p190_2.pddl,TIMEOUT:301.129:-1.0:300.0:-1
ipc-2014-agile-openstacks-p190_3.pddl,CRASHED:196.718:1000000000.0:300.0:-1
ipc-2014-agile-openstacks-p210_1.pddl,TIMEOUT:301.098:-1.0:300.0:-1
ipc-2014-agile-openstacks-p210_2.pddl,TIMEOUT:301.125:-1.0:300.0:-1
ipc-2014-agile-openstacks-p230_1.pddl,TIMEOUT:301.155:-1.0:300.0:-1
ipc-2014-agile-openstacks-p230_2.pddl,TIMEOUT:301.125:-1.0:300.0:-1
ipc-2014-agile-openstacks-p250_1.pddl,TIMEOUT:301.199:-1.0:300.0:-1
ipc-2014-agile-openstacks-p250_2.pddl,TIMEOUT:301.133:-1.0:300.0:-1
ipc-2014-agile-openstacks-p270_1.pddl,TIMEOUT:301.218:-1.0:300.0:-1
ipc-2014-agile-openstacks-p270_2.pddl,TIMEOUT:301.152:-1.0:300.0:-1
ipc-2014-agile-openstacks-p290_1.pddl,TIMEOUT:301.191:-1.0:300.0:-1
ipc-2014-agile-openstacks-p290_2.pddl,TIMEOUT:301.174:-1.0:300.0:-1
ipc-2014-agile-parking-28_2.pddl,SAT:22.8245:52.0:300.0:-1
ipc-2014-agile-parking-28_3.pddl,SAT:22.0416:53.0:300.0:-1
ipc-2014-agile-parking-30_1.pddl,SAT:30.8603:50.0:300.0:-1
ipc-2014-agile-parking-30_2.pddl,SAT:32.5331:57.0:300.0:-1
ipc-2014-agile-parking-30_3.pddl,SAT:33.078:56.0:300.0:-1
ipc-2014-agile-parking-32_1.pddl,SAT:54.2647:60.0:300.0:-1
ipc-2014-agile-parking-32_2.pddl,SAT:44.9552:61.0:300.0:-1
ipc-2014-agile-parking-32_3.pddl,SAT:45.5481:63.0:300.0:-1
ipc-2014-agile-parking-34_1.pddl,SAT:64.9451:69.0:300.0:-1
ipc-2014-agile-parking-34_2.pddl,SAT:63.7453:66.0:300.0:-1
ipc-2014-agile-parking-34_3.pddl,SAT:67.4507:70.0:300.0:-1
ipc-2014-agile-parking-36_1.pddl,SAT:92.305:74.0:300.0:-1
ipc-2014-agile-parking-36_2.pddl,SAT:95.6445:75.0:300.0:-1
ipc-2014-agile-parking-36_3.pddl,SAT:89.5694:66.0:300.0:-1
ipc-2014-agile-parking-38_1.pddl,SAT:118.817:73.0:300.0:-1
ipc-2014-agile-parking-38_2.pddl,SAT:121.304:71.0:300.0:-1
ipc-2014-agile-parking-38_3.pddl,SAT:121.096:75.0:300.0:-1
ipc-2014-agile-parking-40_1.pddl,SAT:160.578:77.0:300.0:-1
ipc-2014-agile-parking-40_2.pddl,SAT:164.155:79.0:300.0:-1
ipc-2014-agile-parking-40_3.pddl,SAT:156.431:83.0:300.0:-1
ipc-2014-agile-tetris-020.pddl,SAT:110.679:54.0:300.0:-1
ipc-2014-agile-tetris-021.pddl,TIMEOUT:301.111:-1.0:300.0:-1
ipc-2014-agile-tetris-022.pddl,TIMEOUT:301.11:-1.0:300.0:-1
ipc-2014-agile-tetris-023.pddl,TIMEOUT:301.063:-1.0:300.0:-1
ipc-2014-agile-tetris-024.pddl,TIMEOUT:301.097:-1.0:300.0:-1
ipc-2014-agile-tetris-025.pddl,TIMEOUT:301.016:-1.0:300.0:-1
ipc-2014-agile-tetris-026.pddl,TIMEOUT:301.072:-1.0:300.0:-1
ipc-2014-agile-tetris-027.pddl,TIMEOUT:301.073:-1.0:300.0:-1
ipc-2014-agile-tetris-028.pddl,TIMEOUT:301.065:-1.0:300.0:-1
ipc-2014-agile-tetris-029.pddl,TIMEOUT:301.068:-1.0:300.0:-1
ipc-2014-agile-tetris-031.pddl,TIMEOUT:301.063:-1.0:300.0:-1
ipc-2014-agile-tetris-032.pddl,TIMEOUT:301.061:-1.0:300.0:-1
ipc-2014-agile-tetris-033.pddl,TIMEOUT:301.049:-1.0:300.0:-1
ipc-2014-agile-tetris-034.pddl,TIMEOUT:301.049:-1.0:300.0:-1
ipc-2014-agile-tetris-035.pddl,TIMEOUT:301.078:-1.0:300.0:-1
ipc-2014-agile-tetris-036.pddl,TIMEOUT:301.1:-1.0:300.0:-1
ipc-2014-agile-tetris-037.pddl,TIMEOUT:301.055:-1.0:300.0:-1
ipc-2014-agile-tetris-038.pddl,TIMEOUT:301.101:-1.0:300.0:-1
ipc-2014-agile-tetris-039.pddl,TIMEOUT:301.083:-1.0:300.0:-1
ipc-2014-agile-tetris-040.pddl,TIMEOUT:301.104:-1.0:300.0:-1
ipc-2014-agile-thoughtful-bootstrap-typed-01.pddl,SAT:0.103983:33.0:300.0:-1
ipc-2014-agile-thoughtful-bootstrap-typed-02.pddl,SAT:0.091985:28.0:300.0:-1
ipc-2014-agile-thoughtful-bootstrap-typed-03.pddl,SAT:0.12698:35.0:300.0:-1
ipc-2014-agile-thoughtful-bootstrap-typed-04.pddl,SAT:0.115981:31.0:300.0:-1
ipc-2014-agile-thoughtful-bootstrap-typed-05.pddl,SAT:0.125979:33.0:300.0:-1
ipc-2014-agile-thoughtful-p11_6_53-typed.pddl,SAT:4.28435:115.0:300.0:-1
ipc-2014-agile-thoughtful-p11_6_59-typed.pddl,SAT:3.50447:111.0:300.0:-1
ipc-2014-agile-thoughtful-p11_6_62-typed.pddl,SAT:3.47347:106.0:300.0:-1
ipc-2014-agile-thoughtful-p13_7_78-typed.pddl,SAT:6.02608:131.0:300.0:-1
ipc-2014-agile-thoughtful-p13_7_79-typed.pddl,SAT:5.39518:126.0:300.0:-1
ipc-2014-agile-thoughtful-p13_7_86-typed.pddl,SAT:5.15:144.0:300.0:-1
ipc-2014-agile-thoughtful-target-typed-20.pddl,SAT:5.21521:109.0:300.0:-1
ipc-2014-agile-thoughtful-target-typed-21.pddl,CRASHED:6.35603:1000000000.0:300.0:-1
ipc-2014-agile-thoughtful-target-typed-22.pddl,SAT:5.29019:151.0:300.0:-1
ipc-2014-agile-thoughtful-target-typed-23.pddl,SAT:5.96009:136.0:300.0:-1
ipc-2014-agile-thoughtful-target-typed-24.pddl,SAT:5.2322:139.0:300.0:-1
ipc-2014-agile-thoughtful-target-typed-25.pddl,SAT:6.06608:113.0:300.0:-1
ipc-2014-agile-thoughtful-target-typed-26.pddl,SAT:5.14122:135.0:300.0:-1
ipc-2014-agile-thoughtful-target-typed-27.pddl,SAT:5.02623:112.0:300.0:-1
ipc-2014-agile-thoughtful-target-typed-28.pddl,CRASHED:4.87726:1000000000.0:300.0:-1
ipc-2014-agile-transport-01.pddl,SAT:53.6668:2274.0:300.0:-1
ipc-2014-agile-transport-02.pddl,SAT:252.031:3144.0:300.0:-1
ipc-2014-agile-transport-03.pddl,SAT:145.979:2783.0:300.0:-1
ipc-2014-agile-transport-04.pddl,TIMEOUT:301.126:-1.0:300.0:-1
ipc-2014-agile-transport-05.pddl,TIMEOUT:301.17:-1.0:300.0:-1
ipc-2014-agile-transport-06.pddl,TIMEOUT:301.157:-1.0:300.0:-1
ipc-2014-agile-transport-07.pddl,TIMEOUT:301.176:-1.0:300.0:-1
ipc-2014-agile-transport-08.pddl,TIMEOUT:301.227:-1.0:300.0:-1
ipc-2014-agile-transport-09.pddl,TIMEOUT:301.197:-1.0:300.0:-1
ipc-2014-agile-transport-10.pddl,TIMEOUT:301.104:-1.0:300.0:-1
ipc-2014-agile-transport-11.pddl,SAT:256.884:2069.0:300.0:-1
ipc-2014-agile-transport-12.pddl,SAT:246.591:2936.0:300.0:-1
ipc-2014-agile-transport-13.pddl,SAT:91.5401:2178.0:300.0:-1
ipc-2014-agile-transport-14.pddl,TIMEOUT:301.201:-1.0:300.0:-1
ipc-2014-agile-transport-15.pddl,TIMEOUT:301.117:-1.0:300.0:-1
ipc-2014-agile-transport-16.pddl,TIMEOUT:301.108:-1.0:300.0:-1
ipc-2014-agile-transport-17.pddl,TIMEOUT:301.164:-1.0:300.0:-1
ipc-2014-agile-transport-18.pddl,TIMEOUT:301.205:-1.0:300.0:-1
ipc-2014-agile-transport-19.pddl,TIMEOUT:301.151:-1.0:300.0:-1
ipc-2014-agile-transport-20.pddl,TIMEOUT:301.18:-1.0:300.0:-1
ipc-2014-agile-visitall-30.pddl,SAT:10.2564:919.0:300.0:-1
ipc-2014-agile-visitall-31.pddl,SAT:12.2361:1004.0:300.0:-1
ipc-2014-agile-visitall-32.pddl,SAT:14.6528:1046.0:300.0:-1
ipc-2014-agile-visitall-33.pddl,SAT:17.2204:1136.0:300.0:-1
ipc-2014-agile-visitall-50.pddl,SAT:176.654:2534.0:300.0:-1
ipc-2014-agile-visitall-51.pddl,SAT:204.757:2674.0:300.0:-1
ipc-2014-agile-visitall-52.pddl,SAT:227.764:2741.0:300.0:-1
ipc-2014-agile-visitall-53.pddl,SAT:254.103:2886.0:300.0:-1
ipc-2014-agile-visitall-54.pddl,SAT:281.617:2953.0:300.0:-1
ipc-2014-agile-visitall-55.pddl,TIMEOUT:301.131:-1.0:300.0:-1
ipc-2014-agile-visitall-56.pddl,TIMEOUT:301.139:-1.0:300.0:-1
ipc-2014-agile-visitall-57.pddl,TIMEOUT:301.08:-1.0:300.0:-1
ipc-2014-agile-visitall-58.pddl,TIMEOUT:301.093:-1.0:300.0:-1
ipc-2014-agile-visitall-59.pddl,TIMEOUT:301.158:-1.0:300.0:-1
ipc-2014-agile-visitall-60.pddl,TIMEOUT:301.13:-1.0:300.0:-1
ipc-2014-agile-visitall-61.pddl,TIMEOUT:301.161:-1.0:300.0:-1
ipc-2014-agile-visitall-62.pddl,TIMEOUT:301.134:-1.0:300.0:-1
ipc-2014-agile-visitall-63.pddl,TIMEOUT:301.162:-1.0:300.0:-1
ipc-2014-agile-visitall-64.pddl,TIMEOUT:301.163:-1.0:300.0:-1
ipc-2014-agile-visitall-65.pddl,TIMEOUT:301.146:-1.0:300.0:-1
