instance,ipc-2014-agile-use
ipc-2014-agile-barman-p1-11-4-15.pddl,SAT:2.73858:256.0:300.0:-1
ipc-2014-agile-barman-p1-11-5-15.pddl,SAT:4.11237:308.0:300.0:-1
ipc-2014-agile-barman-p1-11-5-16.pddl,SAT:2.90856:268.0:300.0:-1
ipc-2014-agile-barman-p2-10-4-13.pddl,SAT:2.39863:224.0:300.0:-1
ipc-2014-agile-barman-p2-11-4-15.pddl,SAT:4.85726:248.0:300.0:-1
ipc-2014-agile-barman-p2-11-5-15.pddl,SAT:3.37849:248.0:300.0:-1
ipc-2014-agile-barman-p2-11-5-16.pddl,SAT:5.02923:253.0:300.0:-1
ipc-2014-agile-barman-p2-11-5-17.pddl,SAT:6.46402:221.0:300.0:-1
ipc-2014-agile-barman-p3-10-4-13.pddl,SAT:4.53231:240.0:300.0:-1
ipc-2014-agile-barman-p3-11-4-15.pddl,SAT:3.64944:272.0:300.0:-1
ipc-2014-agile-barman-p3-11-5-15.pddl,SAT:4.01939:263.0:300.0:-1
ipc-2014-agile-barman-p3-11-5-16.pddl,SAT:2.98155:253.0:300.0:-1
ipc-2014-agile-barman-p3-11-5-17.pddl,SAT:7.70483:294.0:300.0:-1
ipc-2014-agile-barman-p4-11-4-14.pddl,SAT:2.75858:270.0:300.0:-1
ipc-2014-agile-barman-p4-11-4-15.pddl,SAT:3.01154:245.0:300.0:-1
ipc-2014-agile-barman-p4-11-5-15.pddl,SAT:8.22175:276.0:300.0:-1
ipc-2014-agile-barman-p5-10-4-13.pddl,SAT:2.41563:220.0:300.0:-1
ipc-2014-agile-barman-p5-11-4-15.pddl,SAT:2.87456:237.0:300.0:-1
ipc-2014-agile-barman-p5-11-5-15.pddl,SAT:13.343:319.0:300.0:-1
ipc-2014-agile-barman-p5-11-5-16.pddl,SAT:5.14022:244.0:300.0:-1
ipc-2014-agile-cavediving-01_easy.pddl,TIMEOUT:301.07:-1.0:300.0:-1
ipc-2014-agile-cavediving-01.pddl,TIMEOUT:301.02:-1.0:300.0:-1
ipc-2014-agile-cavediving-02_easy.pddl,TIMEOUT:301.0:-1.0:300.0:-1
ipc-2014-agile-cavediving-03_easy.pddl,TIMEOUT:301.03:-1.0:300.0:-1
ipc-2014-agile-cavediving-04_easy.pddl,CRASHED:289.994:1000000000.0:300.0:-1
ipc-2014-agile-cavediving-05A_easy.pddl,TIMEOUT:301.08:-1.0:300.0:-1
ipc-2014-agile-cavediving-06A_easy.pddl,TIMEOUT:301.07:-1.0:300.0:-1
ipc-2014-agile-cavediving-07_easy.pddl,CRASHED:289.249:1000000000.0:300.0:-1
ipc-2014-agile-cavediving-08_easy.pddl,TIMEOUT:301.01:-1.0:300.0:-1
ipc-2014-agile-cavediving-09_easy.pddl,TIMEOUT:301.06:-1.0:300.0:-1
ipc-2014-agile-cavediving-10_easy.pddl,CRASHED:289.886:1000000000.0:300.0:-1
ipc-2014-agile-cavediving-11_easy.pddl,TIMEOUT:301.01:-1.0:300.0:-1
ipc-2014-agile-cavediving-12_easy.pddl,TIMEOUT:301.01:-1.0:300.0:-1
ipc-2014-agile-cavediving-13_easy.pddl,TIMEOUT:301.05:-1.0:300.0:-1
ipc-2014-agile-cavediving-14_easy.pddl,TIMEOUT:301.08:-1.0:300.0:-1
ipc-2014-agile-cavediving-15_easy.pddl,TIMEOUT:301.06:-1.0:300.0:-1
ipc-2014-agile-cavediving-16_easy.pddl,TIMEOUT:301.1:-1.0:300.0:-1
ipc-2014-agile-cavediving-18A_easy.pddl,TIMEOUT:301.08:-1.0:300.0:-1
ipc-2014-agile-cavediving-18_easy.pddl,TIMEOUT:301.02:-1.0:300.0:-1
ipc-2014-agile-cavediving-20A_easy.pddl,TIMEOUT:301.0:-1.0:300.0:-1
ipc-2014-agile-childsnack-05-2.pddl,SAT:8.5657:57.0:300.0:-1
ipc-2014-agile-childsnack-05.pddl,SAT:2.72558:67.0:300.0:-1
ipc-2014-agile-childsnack-06-2.pddl,SAT:2.99654:67.0:300.0:-1
ipc-2014-agile-childsnack-07-2.pddl,SAT:29.6285:66.0:300.0:-1
ipc-2014-agile-childsnack-08-2.pddl,SAT:23.1165:74.0:300.0:-1
ipc-2014-agile-childsnack-08.pddl,SAT:3.69844:76.0:300.0:-1
ipc-2014-agile-childsnack-09-2.pddl,SAT:26.567:79.0:300.0:-1
ipc-2014-agile-childsnack-09.pddl,SAT:39.285:87.0:300.0:-1
ipc-2014-agile-childsnack-10-2.pddl,CRASHED:289.407:1000000000.0:300.0:-1
ipc-2014-agile-childsnack-10.pddl,CRASHED:288.923:1000000000.0:300.0:-1
ipc-2014-agile-childsnack-11-2.pddl,CRASHED:290.194:1000000000.0:300.0:-1
ipc-2014-agile-childsnack-11.pddl,CRASHED:289.346:1000000000.0:300.0:-1
ipc-2014-agile-childsnack-12.pddl,CRASHED:288.891:1000000000.0:300.0:-1
ipc-2014-agile-childsnack-13-2.pddl,CRASHED:289.423:1000000000.0:300.0:-1
ipc-2014-agile-childsnack-13.pddl,CRASHED:289.556:1000000000.0:300.0:-1
ipc-2014-agile-childsnack-14.pddl,CRASHED:288.991:1000000000.0:300.0:-1
ipc-2014-agile-childsnack-15-2.pddl,CRASHED:290.162:1000000000.0:300.0:-1
ipc-2014-agile-childsnack-16-2.pddl,CRASHED:289.501:1000000000.0:300.0:-1
ipc-2014-agile-childsnack-19-2.pddl,CRASHED:289.865:1000000000.0:300.0:-1
ipc-2014-agile-childsnack-19.pddl,CRASHED:291.162:1000000000.0:300.0:-1
ipc-2014-agile-citycar-p3-2-2-0-1.pddl,CRASHED:290.306:1000000000.0:300.0:-1
ipc-2014-agile-citycar-p3-3-2-0-1.pddl,CRASHED:291.215:1000000000.0:300.0:-1
ipc-2014-agile-citycar-p3-4-2-0-1.pddl,CRASHED:289.038:1000000000.0:300.0:-1
ipc-2014-agile-citycar-p3-5-2-0-1.pddl,CRASHED:290.8:1000000000.0:300.0:-1
ipc-2014-agile-citycar-p3-5-2-0-2.pddl,TIMEOUT:301.05:-1.0:300.0:-1
ipc-2014-agile-citycar-p4-2-2-0-1.pddl,CRASHED:291.041:1000000000.0:300.0:-1
ipc-2014-agile-citycar-p4-2-3-0-1.pddl,TIMEOUT:301.05:-1.0:300.0:-1
ipc-2014-agile-citycar-p4-2-3-0-2.pddl,CRASHED:288.736:1000000000.0:300.0:-1
ipc-2014-agile-citycar-p4-3-2-0-1.pddl,CRASHED:288.812:1000000000.0:300.0:-1
ipc-2014-agile-citycar-p4-3-2-0-2.pddl,CRASHED:288.82:1000000000.0:300.0:-1
ipc-2014-agile-citycar-p4-3-3-0-1.pddl,CRASHED:288.982:1000000000.0:300.0:-1
ipc-2014-agile-citycar-p4-3-3-0-2.pddl,CRASHED:288.93:1000000000.0:300.0:-1
ipc-2014-agile-citycar-p4-4-2-0-1.pddl,CRASHED:290.91:1000000000.0:300.0:-1
ipc-2014-agile-citycar-p4-4-2-0-2.pddl,CRASHED:290.839:1000000000.0:300.0:-1
ipc-2014-agile-citycar-p4-4-3-0-1.pddl,TIMEOUT:301.01:-1.0:300.0:-1
ipc-2014-agile-citycar-p4-4-3-0-2.pddl,CRASHED:290.724:1000000000.0:300.0:-1
ipc-2014-agile-citycar-p4-5-2-0-1.pddl,CRASHED:288.952:1000000000.0:300.0:-1
ipc-2014-agile-citycar-p4-5-2-0-2.pddl,CRASHED:288.984:1000000000.0:300.0:-1
ipc-2014-agile-citycar-p4-5-3-0-1.pddl,CRASHED:291.409:1000000000.0:300.0:-1
ipc-2014-agile-citycar-p4-5-3-0-2.pddl,CRASHED:288.983:1000000000.0:300.0:-1
ipc-2014-agile-floortile-p01-4-3-2.pddl,SAT:57.3093:126.0:300.0:-1
ipc-2014-agile-floortile-p01-5-4-2.pddl,SAT:288.769:163.0:300.0:-1
ipc-2014-agile-floortile-p01-5-5-2.pddl,SAT:291.41:237.0:300.0:-1
ipc-2014-agile-floortile-p01-6-4-2.pddl,SAT:290.735:190.0:300.0:-1
ipc-2014-agile-floortile-p01-6-5-2.pddl,SAT:289.752:258.0:300.0:-1
ipc-2014-agile-floortile-p01-6-5-3.pddl,SAT:292.092:259.0:300.0:-1
ipc-2014-agile-floortile-p02-5-4-2.pddl,SAT:289.111:184.0:300.0:-1
ipc-2014-agile-floortile-p02-6-4-2.pddl,SAT:289.246:231.0:300.0:-1
ipc-2014-agile-floortile-p02-6-5-2.pddl,SAT:289.84:309.0:300.0:-1
ipc-2014-agile-floortile-p02-6-5-3.pddl,TIMEOUT:301.01:-1.0:300.0:-1
ipc-2014-agile-floortile-p03-6-4-2.pddl,SAT:291.561:224.0:300.0:-1
ipc-2014-agile-floortile-p03-6-5-2.pddl,SAT:289.283:288.0:300.0:-1
ipc-2014-agile-floortile-p03-6-5-3.pddl,SAT:290.061:259.0:300.0:-1
ipc-2014-agile-floortile-p04-5-4-2.pddl,SAT:291.931:229.0:300.0:-1
ipc-2014-agile-floortile-p04-5-5-2.pddl,SAT:289.167:256.0:300.0:-1
ipc-2014-agile-floortile-p04-6-5-2.pddl,SAT:289.377:305.0:300.0:-1
ipc-2014-agile-floortile-p04-6-5-3.pddl,SAT:289.483:295.0:300.0:-1
ipc-2014-agile-floortile-p05-4-3-2.pddl,SAT:8.80966:122.0:300.0:-1
ipc-2014-agile-floortile-p05-6-5-2.pddl,SAT:290.499:271.0:300.0:-1
ipc-2014-agile-floortile-p05-6-5-3.pddl,TIMEOUT:301.01:-1.0:300.0:-1
ipc-2014-agile-ged-d-10-1.pddl,SAT:4.97824:38.0:300.0:-1
ipc-2014-agile-ged-d-10-2.pddl,SAT:5.84311:43.0:300.0:-1
ipc-2014-agile-ged-d-10-3.pddl,SAT:8.14776:59.0:300.0:-1
ipc-2014-agile-ged-d-10-4.pddl,SAT:4.87126:36.0:300.0:-1
ipc-2014-agile-ged-d-10-5.pddl,SAT:9.01763:53.0:300.0:-1
ipc-2014-agile-ged-d-10-6.pddl,SAT:11.3833:52.0:300.0:-1
ipc-2014-agile-ged-d-11-1.pddl,SAT:5.70513:27.0:300.0:-1
ipc-2014-agile-ged-d-11-3.pddl,SAT:5.55115:29.0:300.0:-1
ipc-2014-agile-ged-d-11-5.pddl,SAT:6.75197:30.0:300.0:-1
ipc-2014-agile-ged-d-11-6.pddl,SAT:9.2186:55.0:300.0:-1
ipc-2014-agile-ged-d-12-11.pddl,SAT:6.84096:37.0:300.0:-1
ipc-2014-agile-ged-d-12-2.pddl,SAT:10.3994:38.0:300.0:-1
ipc-2014-agile-ged-d-12-3.pddl,SAT:19.99:67.0:300.0:-1
ipc-2014-agile-ged-d-12-5.pddl,SAT:22.7775:72.0:300.0:-1
ipc-2014-agile-ged-d-12-6.pddl,SAT:12.3521:47.0:300.0:-1
ipc-2014-agile-ged-d-12-7.pddl,SAT:12.7481:48.0:300.0:-1
ipc-2014-agile-ged-d-12-8.pddl,SAT:27.5948:59.0:300.0:-1
ipc-2014-agile-ged-d-12-9.pddl,SAT:20.7348:56.0:300.0:-1
ipc-2014-agile-ged-d-3-6.pddl,SAT:5.20621:29.0:300.0:-1
ipc-2014-agile-ged-d-9-5.pddl,SAT:5.70913:32.0:300.0:-1
ipc-2014-agile-hiking-3-4-3.pddl,SAT:2.13368:15.0:300.0:-1
ipc-2014-agile-hiking-3-4-4.pddl,SAT:3.9424:26.0:300.0:-1
ipc-2014-agile-hiking-3-4-5.pddl,SAT:11.4003:76.0:300.0:-1
ipc-2014-agile-hiking-3-4-6.pddl,SAT:191.882:72.0:300.0:-1
ipc-2014-agile-hiking-3-4-7.pddl,SAT:33.5939:85.0:300.0:-1
ipc-2014-agile-hiking-3-4-8.pddl,TIMEOUT:301.02:-1.0:300.0:-1
ipc-2014-agile-hiking-3-4-9.pddl,TIMEOUT:301.07:-1.0:300.0:-1
ipc-2014-agile-hiking-4-5-3.pddl,SAT:9.94749:25.0:300.0:-1
ipc-2014-agile-hiking-4-5-4.pddl,SAT:15.0737:30.0:300.0:-1
ipc-2014-agile-hiking-4-5-5.pddl,SAT:37.7973:48.0:300.0:-1
ipc-2014-agile-hiking-4-5-6.pddl,SAT:196.293:81.0:300.0:-1
ipc-2014-agile-hiking-4-5-7.pddl,TIMEOUT:301.09:-1.0:300.0:-1
ipc-2014-agile-hiking-4-5-8.pddl,TIMEOUT:301.03:-1.0:300.0:-1
ipc-2014-agile-hiking-4-5-9.pddl,TIMEOUT:301.02:-1.0:300.0:-1
ipc-2014-agile-hiking-5-6-3.pddl,SAT:14.0039:19.0:300.0:-1
ipc-2014-agile-hiking-5-6-4.pddl,TIMEOUT:301.11:-1.0:300.0:-1
ipc-2014-agile-hiking-5-6-5.pddl,TIMEOUT:301.08:-1.0:300.0:-1
ipc-2014-agile-hiking-5-6-6.pddl,TIMEOUT:301.06:-1.0:300.0:-1
ipc-2014-agile-hiking-5-6-7.pddl,TIMEOUT:301.08:-1.0:300.0:-1
ipc-2014-agile-hiking-5-6-8.pddl,TIMEOUT:301.02:-1.0:300.0:-1
ipc-2014-agile-maintenance-1.3.060.180.5-000.pddl,SAT:2.83857:51.0:300.0:-1
ipc-2014-agile-maintenance-1.3.060.180.5-001.pddl,SAT:1.59976:53.0:300.0:-1
ipc-2014-agile-maintenance-1.3.060.180.5-002.pddl,SAT:2.26365:57.0:300.0:-1
ipc-2014-agile-maintenance-1.3.100.300.5-000.pddl,SAT:3.77043:96.0:300.0:-1
ipc-2014-agile-maintenance-1.3.100.300.5-001.pddl,SAT:48.3896:89.0:300.0:-1
ipc-2014-agile-maintenance-1.3.100.300.7-000.pddl,SAT:3.23751:85.0:300.0:-1
ipc-2014-agile-maintenance-1.3.100.300.7-001.pddl,SAT:3.21551:82.0:300.0:-1
ipc-2014-agile-maintenance-1.3.100.300.7-002.pddl,SAT:3.2555:86.0:300.0:-1
ipc-2014-agile-maintenance-1.3.150.500.6-001.pddl,SAT:19.1631:133.0:300.0:-1
ipc-2014-agile-maintenance-1.3.200.500.5-001.pddl,SAT:39.0491:175.0:300.0:-1
ipc-2014-agile-maintenance-1.3.200.500.5-002.pddl,SAT:136.553:184.0:300.0:-1
ipc-2014-agile-maintenance-1.3.200.700.7-000.pddl,SAT:14.6758:177.0:300.0:-1
ipc-2014-agile-maintenance-1.3.200.700.7-001.pddl,SAT:22.8005:184.0:300.0:-1
ipc-2014-agile-maintenance-1.3.200.700.7-002.pddl,SAT:13.45:176.0:300.0:-1
ipc-2014-agile-maintenance-1.3.200.900.5-000.pddl,TIMEOUT:301.065:-1.0:300.0:-1
ipc-2014-agile-maintenance-1.3.200.900.5-001.pddl,TIMEOUT:301.073:-1.0:300.0:-1
ipc-2014-agile-maintenance-1.3.200.900.5-002.pddl,TIMEOUT:301.058:-1.0:300.0:-1
ipc-2014-agile-maintenance-1.3.200.900.8-000.pddl,SAT:26.471:171.0:300.0:-1
ipc-2014-agile-maintenance-1.3.200.900.8-001.pddl,SAT:22.0257:188.0:300.0:-1
ipc-2014-agile-maintenance-1.3.200.900.8-002.pddl,SAT:30.3674:175.0:300.0:-1
ipc-2014-agile-openstacks-p130_2.pddl,SAT:27.3838:81.0:300.0:-1
ipc-2014-agile-openstacks-p130_3.pddl,SAT:37.0404:118.0:300.0:-1
ipc-2014-agile-openstacks-p150_2.pddl,SAT:41.3697:90.0:300.0:-1
ipc-2014-agile-openstacks-p150_3.pddl,SAT:59.061:140.0:300.0:-1
ipc-2014-agile-openstacks-p170_1.pddl,SAT:59.8529:98.0:300.0:-1
ipc-2014-agile-openstacks-p170_2.pddl,SAT:60.7568:111.0:300.0:-1
ipc-2014-agile-openstacks-p170_3.pddl,SAT:86.3489:157.0:300.0:-1
ipc-2014-agile-openstacks-p190_1.pddl,SAT:83.7863:127.0:300.0:-1
ipc-2014-agile-openstacks-p190_2.pddl,SAT:88.8355:133.0:300.0:-1
ipc-2014-agile-openstacks-p190_3.pddl,SAT:122.045:181.0:300.0:-1
ipc-2014-agile-openstacks-p210_1.pddl,SAT:114.473:124.0:300.0:-1
ipc-2014-agile-openstacks-p210_2.pddl,SAT:118.771:140.0:300.0:-1
ipc-2014-agile-openstacks-p230_1.pddl,SAT:148.492:143.0:300.0:-1
ipc-2014-agile-openstacks-p230_2.pddl,SAT:163.833:175.0:300.0:-1
ipc-2014-agile-openstacks-p250_1.pddl,SAT:196.092:174.0:300.0:-1
ipc-2014-agile-openstacks-p250_2.pddl,SAT:207.844:190.0:300.0:-1
ipc-2014-agile-openstacks-p270_1.pddl,SAT:253.715:192.0:300.0:-1
ipc-2014-agile-openstacks-p270_2.pddl,SAT:269.76:220.0:300.0:-1
ipc-2014-agile-openstacks-p290_1.pddl,SAT:289.702:206.0:300.0:-1
ipc-2014-agile-openstacks-p290_2.pddl,SAT:288.908:237.0:300.0:-1
ipc-2014-agile-parking-28_2.pddl,TIMEOUT:301.09:-1.0:300.0:-1
ipc-2014-agile-parking-28_3.pddl,SAT:50.1364:79.0:300.0:-1
ipc-2014-agile-parking-30_1.pddl,TIMEOUT:301.09:-1.0:300.0:-1
ipc-2014-agile-parking-30_2.pddl,SAT:53.0939:86.0:300.0:-1
ipc-2014-agile-parking-30_3.pddl,SAT:94.8246:109.0:300.0:-1
ipc-2014-agile-parking-32_1.pddl,TIMEOUT:301.09:-1.0:300.0:-1
ipc-2014-agile-parking-32_2.pddl,SAT:64.8351:87.0:300.0:-1
ipc-2014-agile-parking-32_3.pddl,TIMEOUT:301.08:-1.0:300.0:-1
ipc-2014-agile-parking-34_1.pddl,TIMEOUT:301.08:-1.0:300.0:-1
ipc-2014-agile-parking-34_2.pddl,TIMEOUT:301.08:-1.0:300.0:-1
ipc-2014-agile-parking-34_3.pddl,TIMEOUT:301.08:-1.0:300.0:-1
ipc-2014-agile-parking-36_1.pddl,TIMEOUT:301.08:-1.0:300.0:-1
ipc-2014-agile-parking-36_2.pddl,SAT:182.764:115.0:300.0:-1
ipc-2014-agile-parking-36_3.pddl,TIMEOUT:301.11:-1.0:300.0:-1
ipc-2014-agile-parking-38_1.pddl,SAT:260.62:138.0:300.0:-1
ipc-2014-agile-parking-38_2.pddl,SAT:194.335:129.0:300.0:-1
ipc-2014-agile-parking-38_3.pddl,TIMEOUT:301.09:-1.0:300.0:-1
ipc-2014-agile-parking-40_1.pddl,SAT:242.07:137.0:300.0:-1
ipc-2014-agile-parking-40_2.pddl,TIMEOUT:301.0:-1.0:300.0:-1
ipc-2014-agile-parking-40_3.pddl,TIMEOUT:301.06:-1.0:300.0:-1
ipc-2014-agile-tetris-020.pddl,SAT:19.746:213.0:300.0:-1
ipc-2014-agile-tetris-021.pddl,SAT:289.684:297.0:300.0:-1
ipc-2014-agile-tetris-022.pddl,SAT:289.149:218.0:300.0:-1
ipc-2014-agile-tetris-023.pddl,TIMEOUT:301.08:-1.0:300.0:-1
ipc-2014-agile-tetris-024.pddl,TIMEOUT:301.05:-1.0:300.0:-1
ipc-2014-agile-tetris-025.pddl,SAT:132.69:229.0:300.0:-1
ipc-2014-agile-tetris-026.pddl,TIMEOUT:301.09:-1.0:300.0:-1
ipc-2014-agile-tetris-027.pddl,TIMEOUT:301.04:-1.0:300.0:-1
ipc-2014-agile-tetris-028.pddl,SAT:288.996:479.0:300.0:-1
ipc-2014-agile-tetris-029.pddl,SAT:289.856:291.0:300.0:-1
ipc-2014-agile-tetris-031.pddl,TIMEOUT:301.08:-1.0:300.0:-1
ipc-2014-agile-tetris-032.pddl,TIMEOUT:301.08:-1.0:300.0:-1
ipc-2014-agile-tetris-033.pddl,TIMEOUT:301.02:-1.0:300.0:-1
ipc-2014-agile-tetris-034.pddl,TIMEOUT:301.01:-1.0:300.0:-1
ipc-2014-agile-tetris-035.pddl,TIMEOUT:301.11:-1.0:300.0:-1
ipc-2014-agile-tetris-036.pddl,TIMEOUT:301.09:-1.0:300.0:-1
ipc-2014-agile-tetris-037.pddl,TIMEOUT:301.0:-1.0:300.0:-1
ipc-2014-agile-tetris-038.pddl,TIMEOUT:301.09:-1.0:300.0:-1
ipc-2014-agile-tetris-039.pddl,TIMEOUT:301.01:-1.0:300.0:-1
ipc-2014-agile-tetris-040.pddl,TIMEOUT:301.08:-1.0:300.0:-1
ipc-2014-agile-thoughtful-bootstrap-typed-01.pddl,CRASHED:0.140977:1000000000.0:300.0:-1
ipc-2014-agile-thoughtful-bootstrap-typed-02.pddl,CRASHED:0.132979:1000000000.0:300.0:-1
ipc-2014-agile-thoughtful-bootstrap-typed-03.pddl,CRASHED:0.133978:1000000000.0:300.0:-1
ipc-2014-agile-thoughtful-bootstrap-typed-04.pddl,CRASHED:0.132979:1000000000.0:300.0:-1
ipc-2014-agile-thoughtful-bootstrap-typed-05.pddl,CRASHED:0.132979:1000000000.0:300.0:-1
ipc-2014-agile-thoughtful-p11_6_53-typed.pddl,CRASHED:0.143977:1000000000.0:300.0:-1
ipc-2014-agile-thoughtful-p11_6_59-typed.pddl,CRASHED:0.145977:1000000000.0:300.0:-1
ipc-2014-agile-thoughtful-p11_6_62-typed.pddl,CRASHED:0.142978:1000000000.0:300.0:-1
ipc-2014-agile-thoughtful-p13_7_78-typed.pddl,CRASHED:0.145977:1000000000.0:300.0:-1
ipc-2014-agile-thoughtful-p13_7_79-typed.pddl,CRASHED:0.277956:1000000000.0:300.0:-1
ipc-2014-agile-thoughtful-p13_7_86-typed.pddl,CRASHED:0.262959:1000000000.0:300.0:-1
ipc-2014-agile-thoughtful-target-typed-20.pddl,CRASHED:0.260959:1000000000.0:300.0:-1
ipc-2014-agile-thoughtful-target-typed-21.pddl,CRASHED:0.260959:1000000000.0:300.0:-1
ipc-2014-agile-thoughtful-target-typed-22.pddl,CRASHED:0.261959:1000000000.0:300.0:-1
ipc-2014-agile-thoughtful-target-typed-23.pddl,CRASHED:0.264959:1000000000.0:300.0:-1
ipc-2014-agile-thoughtful-target-typed-24.pddl,CRASHED:0.25996:1000000000.0:300.0:-1
ipc-2014-agile-thoughtful-target-typed-25.pddl,CRASHED:0.260959:1000000000.0:300.0:-1
ipc-2014-agile-thoughtful-target-typed-26.pddl,CRASHED:0.261959:1000000000.0:300.0:-1
ipc-2014-agile-thoughtful-target-typed-27.pddl,CRASHED:0.262959:1000000000.0:300.0:-1
ipc-2014-agile-thoughtful-target-typed-28.pddl,CRASHED:0.261959:1000000000.0:300.0:-1
ipc-2014-agile-transport-01.pddl,SAT:27.7428:2645.0:300.0:-1
ipc-2014-agile-transport-02.pddl,SAT:191.241:5812.0:300.0:-1
ipc-2014-agile-transport-03.pddl,SAT:79.256:3977.0:300.0:-1
ipc-2014-agile-transport-04.pddl,TIMEOUT:301.07:-1.0:300.0:-1
ipc-2014-agile-transport-05.pddl,TIMEOUT:301.03:-1.0:300.0:-1
ipc-2014-agile-transport-06.pddl,TIMEOUT:301.04:-1.0:300.0:-1
ipc-2014-agile-transport-07.pddl,TIMEOUT:301.06:-1.0:300.0:-1
ipc-2014-agile-transport-08.pddl,TIMEOUT:301.08:-1.0:300.0:-1
ipc-2014-agile-transport-09.pddl,TIMEOUT:301.11:-1.0:300.0:-1
ipc-2014-agile-transport-10.pddl,TIMEOUT:301.04:-1.0:300.0:-1
ipc-2014-agile-transport-11.pddl,SAT:186.816:4431.0:300.0:-1
ipc-2014-agile-transport-12.pddl,SAT:237.186:4163.0:300.0:-1
ipc-2014-agile-transport-13.pddl,SAT:55.0046:3498.0:300.0:-1
ipc-2014-agile-transport-14.pddl,TIMEOUT:301.09:-1.0:300.0:-1
ipc-2014-agile-transport-15.pddl,TIMEOUT:301.02:-1.0:300.0:-1
ipc-2014-agile-transport-16.pddl,TIMEOUT:301.09:-1.0:300.0:-1
ipc-2014-agile-transport-17.pddl,TIMEOUT:301.09:-1.0:300.0:-1
ipc-2014-agile-transport-18.pddl,TIMEOUT:301.07:-1.0:300.0:-1
ipc-2014-agile-transport-19.pddl,SAT:289.491:10463.0:300.0:-1
ipc-2014-agile-transport-20.pddl,TIMEOUT:301.04:-1.0:300.0:-1
ipc-2014-agile-visitall-30.pddl,SAT:11.1843:1226.0:300.0:-1
ipc-2014-agile-visitall-31.pddl,SAT:21.9457:1418.0:300.0:-1
ipc-2014-agile-visitall-32.pddl,SAT:15.7556:1395.0:300.0:-1
ipc-2014-agile-visitall-33.pddl,SAT:25.9341:1621.0:300.0:-1
ipc-2014-agile-visitall-50.pddl,SAT:140.62:3499.0:300.0:-1
ipc-2014-agile-visitall-51.pddl,SAT:157.223:3568.0:300.0:-1
ipc-2014-agile-visitall-52.pddl,SAT:275.751:3768.0:300.0:-1
ipc-2014-agile-visitall-53.pddl,SAT:194.609:3876.0:300.0:-1
ipc-2014-agile-visitall-54.pddl,SAT:227.506:4179.0:300.0:-1
ipc-2014-agile-visitall-55.pddl,TIMEOUT:301.02:-1.0:300.0:-1
ipc-2014-agile-visitall-56.pddl,SAT:244.795:4223.0:300.0:-1
ipc-2014-agile-visitall-57.pddl,SAT:208.708:4455.0:300.0:-1
ipc-2014-agile-visitall-58.pddl,SAT:195.688:4600.0:300.0:-1
ipc-2014-agile-visitall-59.pddl,SAT:260.55:4732.0:300.0:-1
ipc-2014-agile-visitall-60.pddl,SAT:256.713:5072.0:300.0:-1
ipc-2014-agile-visitall-61.pddl,TIMEOUT:301.02:-1.0:300.0:-1
ipc-2014-agile-visitall-62.pddl,SAT:278.887:5298.0:300.0:-1
ipc-2014-agile-visitall-63.pddl,TIMEOUT:301.05:-1.0:300.0:-1
ipc-2014-agile-visitall-64.pddl,TIMEOUT:301.09:-1.0:300.0:-1
ipc-2014-agile-visitall-65.pddl,TIMEOUT:301.06:-1.0:300.0:-1
