instance,ipc-2014-optimal-nucelar
ipc-2014-optimal-barman-p433.1.pddl,CRASHED:1.58176:1000000000.0:1800.0:-1
ipc-2014-optimal-barman-p433.2.pddl,CRASHED:1.75173:1000000000.0:1800.0:-1
ipc-2014-optimal-barman-p433.3.pddl,CRASHED:1.36779:1000000000.0:1800.0:-1
ipc-2014-optimal-barman-p435.1.pddl,CRASHED:1780.82:1000000000.0:1800.0:-1
ipc-2014-optimal-barman-p435.2.pddl,CRASHED:1789.82:1000000000.0:1800.0:-1
ipc-2014-optimal-barman-p435.3.pddl,CRASHED:331.09:1000000000.0:1800.0:-1
ipc-2014-optimal-barman-p443.1.pddl,CRASHED:1.3378:1000000000.0:1800.0:-1
ipc-2014-optimal-barman-p443.2.pddl,CRASHED:1.3208:1000000000.0:1800.0:-1
ipc-2014-optimal-barman-p443.3.pddl,CRASHED:1.3238:1000000000.0:1800.0:-1
ipc-2014-optimal-barman-p536.1.pddl,CRASHED:1792.65:1000000000.0:1800.0:-1
ipc-2014-optimal-barman-p536.2.pddl,TIMEOUT:1801.01:-1.0:1800.0:-1
ipc-2014-optimal-barman-p536.3.pddl,TIMEOUT:1801.0:-1.0:1800.0:-1
ipc-2014-optimal-barman-p638.1.pddl,CRASHED:1799.36:1000000000.0:1800.0:-1
ipc-2014-optimal-barman-p638.2.pddl,CRASHED:1791.92:1000000000.0:1800.0:-1
ipc-2014-optimal-barman-p638.3.pddl,CRASHED:1797.71:1000000000.0:1800.0:-1
ipc-2014-optimal-barman-p739.1.pddl,CRASHED:1797.94:1000000000.0:1800.0:-1
ipc-2014-optimal-barman-p739.2.pddl,CRASHED:1798.56:1000000000.0:1800.0:-1
ipc-2014-optimal-barman-p739.3.pddl,CRASHED:1799.25:1000000000.0:1800.0:-1
ipc-2014-optimal-barman-p839.1.pddl,TIMEOUT:1801.09:-1.0:1800.0:-1
ipc-2014-optimal-barman-p839.2.pddl,CRASHED:326.55:1000000000.0:1800.0:-1
ipc-2014-optimal-cavediving-01.pddl,CRASHED:42.9605:1000000000.0:1800.0:-1
ipc-2014-optimal-cavediving-01_easy.pddl,CRASHED:29.0396:1000000000.0:1800.0:-1
ipc-2014-optimal-cavediving-02_easy.pddl,CRASHED:29.3175:1000000000.0:1800.0:-1
ipc-2014-optimal-cavediving-03_easy.pddl,CRASHED:29.1306:1000000000.0:1800.0:-1
ipc-2014-optimal-cavediving-04_easy.pddl,CRASHED:29.3415:1000000000.0:1800.0:-1
ipc-2014-optimal-cavediving-05A_easy.pddl,CRASHED:6.05208:1000000000.0:1800.0:-1
ipc-2014-optimal-cavediving-06A_easy.pddl,CRASHED:6.00109:1000000000.0:1800.0:-1
ipc-2014-optimal-cavediving-07_easy.pddl,CRASHED:6.01708:1000000000.0:1800.0:-1
ipc-2014-optimal-cavediving-08_easy.pddl,CRASHED:6.03908:1000000000.0:1800.0:-1
ipc-2014-optimal-cavediving-09_easy.pddl,CRASHED:159.272:1000000000.0:1800.0:-1
ipc-2014-optimal-cavediving-10_easy.pddl,CRASHED:158.996:1000000000.0:1800.0:-1
ipc-2014-optimal-cavediving-11_easy.pddl,CRASHED:159.415:1000000000.0:1800.0:-1
ipc-2014-optimal-cavediving-12_easy.pddl,CRASHED:160.089:1000000000.0:1800.0:-1
ipc-2014-optimal-cavediving-13_easy.pddl,CRASHED:45.4861:1000000000.0:1800.0:-1
ipc-2014-optimal-cavediving-14_easy.pddl,CRASHED:45.757:1000000000.0:1800.0:-1
ipc-2014-optimal-cavediving-15_easy.pddl,CRASHED:38.3632:1000000000.0:1800.0:-1
ipc-2014-optimal-cavediving-16_easy.pddl,CRASHED:45.2081:1000000000.0:1800.0:-1
ipc-2014-optimal-cavediving-18A_easy.pddl,CRASHED:9.25459:1000000000.0:1800.0:-1
ipc-2014-optimal-cavediving-18_easy.pddl,CRASHED:10.8983:1000000000.0:1800.0:-1
ipc-2014-optimal-cavediving-20A_easy.pddl,CRASHED:9.1996:1000000000.0:1800.0:-1
ipc-2014-optimal-childsnack-01-2.pddl,CRASHED:327.29:1000000000.0:1800.0:-1
ipc-2014-optimal-childsnack-01.pddl,CRASHED:1789.19:1000000000.0:1800.0:-1
ipc-2014-optimal-childsnack-02-2.pddl,CRASHED:1789.97:1000000000.0:1800.0:-1
ipc-2014-optimal-childsnack-02.pddl,CRASHED:1782.44:1000000000.0:1800.0:-1
ipc-2014-optimal-childsnack-03-2.pddl,CRASHED:1796.77:1000000000.0:1800.0:-1
ipc-2014-optimal-childsnack-03.pddl,CRASHED:1777.19:1000000000.0:1800.0:-1
ipc-2014-optimal-childsnack-04-2.pddl,CRASHED:1249.75:1000000000.0:1800.0:-1
ipc-2014-optimal-childsnack-04.pddl,CRASHED:1783.82:1000000000.0:1800.0:-1
ipc-2014-optimal-childsnack-05-2.pddl,CRASHED:1791.35:1000000000.0:1800.0:-1
ipc-2014-optimal-childsnack-05.pddl,CRASHED:1257.28:1000000000.0:1800.0:-1
ipc-2014-optimal-childsnack-06-2.pddl,CRASHED:1785.73:1000000000.0:1800.0:-1
ipc-2014-optimal-childsnack-06.pddl,CRASHED:1781.02:1000000000.0:1800.0:-1
ipc-2014-optimal-childsnack-07-2.pddl,CRASHED:220.93:1000000000.0:1800.0:-1
ipc-2014-optimal-childsnack-07.pddl,CRASHED:1794.06:1000000000.0:1800.0:-1
ipc-2014-optimal-childsnack-08-2.pddl,CRASHED:187.99:1000000000.0:1800.0:-1
ipc-2014-optimal-childsnack-08.pddl,CRASHED:188.08:1000000000.0:1800.0:-1
ipc-2014-optimal-childsnack-09-2.pddl,TIMEOUT:1801.04:-1.0:1800.0:-1
ipc-2014-optimal-childsnack-09.pddl,TIMEOUT:1801.06:-1.0:1800.0:-1
ipc-2014-optimal-childsnack-10-2.pddl,TIMEOUT:1801.01:-1.0:1800.0:-1
ipc-2014-optimal-childsnack-10.pddl,TIMEOUT:1801.02:-1.0:1800.0:-1
ipc-2014-optimal-citycar-p2-2-2-1-2.pddl,CRASHED:39.8499:46.0:1800.0:-1
ipc-2014-optimal-citycar-p2-2-2-2-1.pddl,CRASHED:47.3668:64.0:1800.0:-1
ipc-2014-optimal-citycar-p2-2-3-1-2.pddl,SAT:77.2553:50.0:1800.0:-1
ipc-2014-optimal-citycar-p2-2-3-2-1.pddl,SAT:73.3339:48.0:1800.0:-1
ipc-2014-optimal-citycar-p2-2-3-2-2.pddl,SAT:85.421:50.0:1800.0:-1
ipc-2014-optimal-citycar-p2-2-4-1-2.pddl,SAT:105.896:52.0:1800.0:-1
ipc-2014-optimal-citycar-p2-2-4-2-1.pddl,SAT:93.7957:52.0:1800.0:-1
ipc-2014-optimal-citycar-p2-2-5-2-2.pddl,CRASHED:521.84:76.0:1800.0:-1
ipc-2014-optimal-citycar-p2-2-6-1-1.pddl,CRASHED:521.59:58.0:1800.0:-1
ipc-2014-optimal-citycar-p2-2-6-2-2.pddl,CRASHED:548.32:58.0:1800.0:-1
ipc-2014-optimal-citycar-p2-3-2-3-1.pddl,CRASHED:220.449:68.0:1800.0:-1
ipc-2014-optimal-citycar-p2-3-3-3-1.pddl,CRASHED:521.73:78.0:1800.0:-1
ipc-2014-optimal-citycar-p2-3-4-3-1.pddl,TIMEOUT:1801.0:-1.0:1800.0:-1
ipc-2014-optimal-citycar-p2-3-6-3-2.pddl,TIMEOUT:1801.0:-1.0:1800.0:-1
ipc-2014-optimal-citycar-p3-3-2-2-1.pddl,TIMEOUT:1801.01:-1.0:1800.0:-1
ipc-2014-optimal-citycar-p3-3-2-2-2.pddl,TIMEOUT:1801.0:-1.0:1800.0:-1
ipc-2014-optimal-citycar-p3-3-2-3-1.pddl,SAT:117.19:48.0:1800.0:-1
ipc-2014-optimal-citycar-p3-3-2-3-2.pddl,CRASHED:333.62:70.0:1800.0:-1
ipc-2014-optimal-citycar-p3-3-3-3-1.pddl,TIMEOUT:1801.07:-1.0:1800.0:-1
ipc-2014-optimal-citycar-p3-3-3-3-2.pddl,TIMEOUT:1801.0:-1.0:1800.0:-1
ipc-2014-optimal-floortile-p01-4-3-2.pddl,SAT:40.3779:56.0:1800.0:-1
ipc-2014-optimal-floortile-p01-4-4-2.pddl,CRASHED:405.522:68.0:1800.0:-1
ipc-2014-optimal-floortile-p01-5-3-2.pddl,CRASHED:318.615:63.0:1800.0:-1
ipc-2014-optimal-floortile-p01-5-4-2.pddl,CRASHED:1791.71:1000000000.0:1800.0:-1
ipc-2014-optimal-floortile-p01-5-5-2.pddl,TIMEOUT:1801.04:-1.0:1800.0:-1
ipc-2014-optimal-floortile-p01-6-4-2.pddl,TIMEOUT:1801.07:-1.0:1800.0:-1
ipc-2014-optimal-floortile-p01-6-5-2.pddl,TIMEOUT:1801.03:-1.0:1800.0:-1
ipc-2014-optimal-floortile-p02-4-4-2.pddl,CRASHED:1790.45:1000000000.0:1800.0:-1
ipc-2014-optimal-floortile-p02-5-3-2.pddl,CRASHED:344.922:65.0:1800.0:-1
ipc-2014-optimal-floortile-p02-5-4-2.pddl,CRASHED:1791.39:1000000000.0:1800.0:-1
ipc-2014-optimal-floortile-p02-5-5-2.pddl,TIMEOUT:1801.0:-1.0:1800.0:-1
ipc-2014-optimal-floortile-p02-6-4-2.pddl,TIMEOUT:1801.04:-1.0:1800.0:-1
ipc-2014-optimal-floortile-p02-6-5-2.pddl,CRASHED:1800.29:1000000000.0:1800.0:-1
ipc-2014-optimal-floortile-p03-4-3-2.pddl,SAT:55.5326:56.0:1800.0:-1
ipc-2014-optimal-floortile-p03-4-4-2.pddl,CRASHED:1791.41:1000000000.0:1800.0:-1
ipc-2014-optimal-floortile-p03-5-3-2.pddl,CRASHED:339.185:65.0:1800.0:-1
ipc-2014-optimal-floortile-p03-5-4-2.pddl,CRASHED:0.0100098:1000000000.0:1800.0:-1
ipc-2014-optimal-floortile-p03-5-5-2.pddl,TIMEOUT:1801.05:-1.0:1800.0:-1
ipc-2014-optimal-floortile-p03-6-4-2.pddl,TIMEOUT:1801.07:-1.0:1800.0:-1
ipc-2014-optimal-floortile-p03-6-5-2.pddl,TIMEOUT:1801.0:-1.0:1800.0:-1
ipc-2014-optimal-ged-d-1-2.pddl,SAT:2.30265:1.0:1800.0:-1
ipc-2014-optimal-ged-d-1-3.pddl,SAT:7.73882:4.0:1800.0:-1
ipc-2014-optimal-ged-d-1-4.pddl,CRASHED:2.67159:1.0:1800.0:-1
ipc-2014-optimal-ged-d-1-8.pddl,SAT:23.2235:4.0:1800.0:-1
ipc-2014-optimal-ged-d-2-1.pddl,CRASHED:2.49762:1.0:1800.0:-1
ipc-2014-optimal-ged-d-2-3.pddl,CRASHED:2.82057:3.0:1800.0:-1
ipc-2014-optimal-ged-d-2-4.pddl,CRASHED:2.51862:2.0:1800.0:-1
ipc-2014-optimal-ged-d-2-8.pddl,TIMEOUT:1801.03:-1.0:1800.0:-1
ipc-2014-optimal-ged-d-3-1.pddl,SAT:8.25874:4.0:1800.0:-1
ipc-2014-optimal-ged-d-3-2.pddl,CRASHED:2.95755:3.0:1800.0:-1
ipc-2014-optimal-ged-d-3-4.pddl,CRASHED:188.23:5.0:1800.0:-1
ipc-2014-optimal-ged-d-4-2.pddl,CRASHED:2.77858:2.0:1800.0:-1
ipc-2014-optimal-ged-d-4-3.pddl,CRASHED:322.751:5.0:1800.0:-1
ipc-2014-optimal-ged-d-4-8.pddl,CRASHED:1774.96:1000000000.0:1800.0:-1
ipc-2014-optimal-ged-d-7-5.pddl,SAT:22.8745:4.0:1800.0:-1
ipc-2014-optimal-ged-d-7-6.pddl,SAT:8.11277:4.0:1800.0:-1
ipc-2014-optimal-ged-d-8-1.pddl,SAT:22.9665:4.0:1800.0:-1
ipc-2014-optimal-ged-d-8-2.pddl,CRASHED:1336.01:1000000000.0:1800.0:-1
ipc-2014-optimal-ged-d-8-4.pddl,CRASHED:1794.22:1000000000.0:1800.0:-1
ipc-2014-optimal-ged-d-8-9.pddl,CRASHED:1794.63:1000000000.0:1800.0:-1
ipc-2014-optimal-hiking-1-2-3.pddl,CRASHED:1.9737:11.0:1800.0:-1
ipc-2014-optimal-hiking-1-2-4.pddl,CRASHED:133.169:17.0:1800.0:-1
ipc-2014-optimal-hiking-1-2-5.pddl,SAT:133.33:25.0:1800.0:-1
ipc-2014-optimal-hiking-1-2-7.pddl,SAT:134.053:38.0:1800.0:-1
ipc-2014-optimal-hiking-1-2-8.pddl,SAT:134.7:45.0:1800.0:-1
ipc-2014-optimal-hiking-2-2-3.pddl,CRASHED:4.86326:10.0:1800.0:-1
ipc-2014-optimal-hiking-2-2-4.pddl,CRASHED:171.315:16.0:1800.0:-1
ipc-2014-optimal-hiking-2-2-5.pddl,SAT:221.498:22.0:1800.0:-1
ipc-2014-optimal-hiking-2-2-6.pddl,SAT:445.429:30.0:1800.0:-1
ipc-2014-optimal-hiking-2-2-7.pddl,TIMEOUT:1801.0:-1.0:1800.0:-1
ipc-2014-optimal-hiking-2-2-8.pddl,TIMEOUT:1801.07:-1.0:1800.0:-1
ipc-2014-optimal-hiking-2-3-4.pddl,SAT:203.87:17.0:1800.0:-1
ipc-2014-optimal-hiking-2-3-5.pddl,SAT:314.607:24.0:1800.0:-1
ipc-2014-optimal-hiking-2-3-6.pddl,TIMEOUT:1801.06:-1.0:1800.0:-1
ipc-2014-optimal-hiking-2-3-7.pddl,CRASHED:189.66:1000000000.0:1800.0:-1
ipc-2014-optimal-hiking-2-4-3.pddl,CRASHED:24.2183:10.0:1800.0:-1
ipc-2014-optimal-hiking-2-4-4.pddl,SAT:210.829:17.0:1800.0:-1
ipc-2014-optimal-hiking-2-4-5.pddl,CRASHED:191.48:1000000000.0:1800.0:-1
ipc-2014-optimal-hiking-2-4-6.pddl,TIMEOUT:1801.02:-1.0:1800.0:-1
ipc-2014-optimal-hiking-2-4-7.pddl,TIMEOUT:1801.0:-1.0:1800.0:-1
ipc-2014-optimal-maintenance-1.3.010.010.1-001.pddl,CRASHED:2.06069:1000000000.0:1800.0:-1
ipc-2014-optimal-maintenance-1.3.010.010.1-002.pddl,CRASHED:2.18067:1000000000.0:1800.0:-1
ipc-2014-optimal-maintenance-1.3.010.010.2-000.pddl,CRASHED:1.16582:4.0:1800.0:-1
ipc-2014-optimal-maintenance-1.3.010.010.2-001.pddl,CRASHED:1.15782:7.0:1800.0:-1
ipc-2014-optimal-maintenance-1.3.010.010.2-002.pddl,SAT:1.16782:6.0:1800.0:-1
ipc-2014-optimal-maintenance-1.3.015.020.1-000.pddl,CRASHED:1300.48:1000000000.0:1800.0:-1
ipc-2014-optimal-maintenance-1.3.015.020.1-001.pddl,CRASHED:1285.41:1000000000.0:1800.0:-1
ipc-2014-optimal-maintenance-1.3.015.020.1-002.pddl,CRASHED:1323.39:1000000000.0:1800.0:-1
ipc-2014-optimal-maintenance-1.3.015.020.2-000.pddl,CRASHED:668.526:1000000000.0:1800.0:-1
ipc-2014-optimal-maintenance-1.3.015.020.2-001.pddl,SAT:1.39679:11.0:1800.0:-1
ipc-2014-optimal-maintenance-1.3.015.020.2-002.pddl,SAT:1.34579:9.0:1800.0:-1
ipc-2014-optimal-maintenance-1.3.025.050.1-000.pddl,CRASHED:1434.28:1000000000.0:1800.0:-1
ipc-2014-optimal-maintenance-1.3.025.050.1-001.pddl,CRASHED:1451.83:1000000000.0:1800.0:-1
ipc-2014-optimal-maintenance-1.3.025.050.1-002.pddl,CRASHED:1436.57:1000000000.0:1800.0:-1
ipc-2014-optimal-maintenance-1.3.025.100.1-000.pddl,CRASHED:173.46:1000000000.0:1800.0:-1
ipc-2014-optimal-maintenance-1.3.025.100.1-001.pddl,CRASHED:166.123:1000000000.0:1800.0:-1
ipc-2014-optimal-maintenance-1.3.025.100.1-002.pddl,CRASHED:156.719:1000000000.0:1800.0:-1
ipc-2014-optimal-maintenance-1.3.025.100.2-000.pddl,CRASHED:1158.78:1000000000.0:1800.0:-1
ipc-2014-optimal-maintenance-1.3.025.100.2-001.pddl,CRASHED:1421.06:1000000000.0:1800.0:-1
ipc-2014-optimal-maintenance-1.3.025.100.2-002.pddl,CRASHED:1231.8:1000000000.0:1800.0:-1
ipc-2014-optimal-openstacks-p20_1.pddl,CRASHED:524.881:3.0:1800.0:-1
ipc-2014-optimal-openstacks-p20_2.pddl,CRASHED:524.516:4.0:1800.0:-1
ipc-2014-optimal-openstacks-p20_3.pddl,CRASHED:20.2609:6.0:1800.0:-1
ipc-2014-optimal-openstacks-p25_1.pddl,CRASHED:544.419:4.0:1800.0:-1
ipc-2014-optimal-openstacks-p25_3.pddl,CRASHED:544.197:9.0:1800.0:-1
ipc-2014-optimal-openstacks-p30_1.pddl,CRASHED:32.2561:4.0:1800.0:-1
ipc-2014-optimal-openstacks-p30_2.pddl,CRASHED:37.5273:4.0:1800.0:-1
ipc-2014-optimal-openstacks-p30_3.pddl,CRASHED:87.7057:12.0:1800.0:-1
ipc-2014-optimal-openstacks-p35_1.pddl,CRASHED:94.5326:4.0:1800.0:-1
ipc-2014-optimal-openstacks-p35_2.pddl,CRASHED:120.628:5.0:1800.0:-1
ipc-2014-optimal-openstacks-p35_3.pddl,TIMEOUT:1801.05:-1.0:1800.0:-1
ipc-2014-optimal-openstacks-p40_1.pddl,CRASHED:72.068:3.0:1800.0:-1
ipc-2014-optimal-openstacks-p40_2.pddl,CRASHED:210.076:4.0:1800.0:-1
ipc-2014-optimal-openstacks-p40_3.pddl,TIMEOUT:1801.04:-1.0:1800.0:-1
ipc-2014-optimal-openstacks-p45_1.pddl,CRASHED:309.423:4.0:1800.0:-1
ipc-2014-optimal-openstacks-p45_2.pddl,TIMEOUT:1801.05:-1.0:1800.0:-1
ipc-2014-optimal-openstacks-p45_3.pddl,TIMEOUT:1801.01:-1.0:1800.0:-1
ipc-2014-optimal-openstacks-p50_1.pddl,TIMEOUT:1801.05:-1.0:1800.0:-1
ipc-2014-optimal-openstacks-p50_2.pddl,TIMEOUT:1801.07:-1.0:1800.0:-1
ipc-2014-optimal-openstacks-p50_3.pddl,TIMEOUT:1801.06:-1.0:1800.0:-1
ipc-2014-optimal-parking-12_7-01.pddl,CRASHED:116.006:18.0:1800.0:-1
ipc-2014-optimal-parking-12_7-02.pddl,SAT:119.146:18.0:1800.0:-1
ipc-2014-optimal-parking-12_7-03.pddl,SAT:115.666:17.0:1800.0:-1
ipc-2014-optimal-parking-12_7-04.pddl,CRASHED:135.45:19.0:1800.0:-1
ipc-2014-optimal-parking-14_8-01.pddl,CRASHED:1797.67:1000000000.0:1800.0:-1
ipc-2014-optimal-parking-14_8-02.pddl,CRASHED:255.044:22.0:1800.0:-1
ipc-2014-optimal-parking-14_8-03.pddl,CRASHED:155.324:21.0:1800.0:-1
ipc-2014-optimal-parking-14_8-04.pddl,TIMEOUT:1801.0:-1.0:1800.0:-1
ipc-2014-optimal-parking-16_9-01.pddl,TIMEOUT:1801.04:-1.0:1800.0:-1
ipc-2014-optimal-parking-16_9-02.pddl,TIMEOUT:1801.07:-1.0:1800.0:-1
ipc-2014-optimal-parking-16_9-03.pddl,TIMEOUT:1801.03:-1.0:1800.0:-1
ipc-2014-optimal-parking-16_9-04.pddl,TIMEOUT:1801.1:-1.0:1800.0:-1
ipc-2014-optimal-parking-18_10-01.pddl,TIMEOUT:1801.0:-1.0:1800.0:-1
ipc-2014-optimal-parking-18_10-02.pddl,TIMEOUT:1801.0:-1.0:1800.0:-1
ipc-2014-optimal-parking-18_10-03.pddl,TIMEOUT:1801.0:-1.0:1800.0:-1
ipc-2014-optimal-parking-18_10-04.pddl,TIMEOUT:1801.0:-1.0:1800.0:-1
ipc-2014-optimal-parking-20_11-01.pddl,TIMEOUT:1801.0:-1.0:1800.0:-1
ipc-2014-optimal-parking-20_11-02.pddl,TIMEOUT:1801.0:-1.0:1800.0:-1
ipc-2014-optimal-parking-20_11-03.pddl,TIMEOUT:1801.0:-1.0:1800.0:-1
ipc-2014-optimal-parking-20_11-04.pddl,TIMEOUT:1801.0:-1.0:1800.0:-1
ipc-2014-optimal-tetris-01-10.pddl,TIMEOUT:1801.12:-1.0:1800.0:-1
ipc-2014-optimal-tetris-01-04.pddl,CRASHED:550.77:1000000000.0:1800.0:-1
ipc-2014-optimal-tetris-01-06.pddl,SAT:935.828:30.0:1800.0:-1
ipc-2014-optimal-tetris-01-08.pddl,CRASHED:72.043:36.0:1800.0:-1
ipc-2014-optimal-tetris-02-10.pddl,TIMEOUT:1801.0:-1.0:1800.0:-1
ipc-2014-optimal-tetris-02-04.pddl,SAT:4.87826:10.0:1800.0:-1
ipc-2014-optimal-tetris-02-06.pddl,SAT:601.736:30.0:1800.0:-1
ipc-2014-optimal-tetris-02-08.pddl,TIMEOUT:1801.0:-1.0:1800.0:-1
ipc-2014-optimal-tetris-03-10.pddl,TIMEOUT:1801.0:-1.0:1800.0:-1
ipc-2014-optimal-tetris-03-04.pddl,SAT:26.306:11.0:1800.0:-1
ipc-2014-optimal-tetris-03-06.pddl,CRASHED:655.95:21.0:1800.0:-1
ipc-2014-optimal-tetris-03-08.pddl,CRASHED:601.5:48.0:1800.0:-1
ipc-2014-optimal-tetris-04-10.pddl,TIMEOUT:1801.0:-1.0:1800.0:-1
ipc-2014-optimal-tetris-04-04.pddl,CRASHED:607.642:1000000000.0:1800.0:-1
ipc-2014-optimal-tetris-04-06.pddl,CRASHED:882.342:27.0:1800.0:-1
ipc-2014-optimal-tetris-04-08.pddl,TIMEOUT:1801.0:-1.0:1800.0:-1
ipc-2014-optimal-tetris-05-10.pddl,TIMEOUT:1801.0:-1.0:1800.0:-1
ipc-2014-optimal-tetris-05-04.pddl,CRASHED:663.973:1000000000.0:1800.0:-1
ipc-2014-optimal-tetris-05-06.pddl,SAT:565.405:19.0:1800.0:-1
ipc-2014-optimal-tetris-05-08.pddl,TIMEOUT:1801.0:-1.0:1800.0:-1
ipc-2014-optimal-tidybot-01.pddl,TIMEOUT:1801.0:-1.0:1800.0:-1
ipc-2014-optimal-tidybot-02.pddl,SAT:423.3:35.0:1800.0:-1
ipc-2014-optimal-tidybot-03.pddl,SAT:135.472:30.0:1800.0:-1
ipc-2014-optimal-tidybot-04.pddl,CRASHED:219.225:24.0:1800.0:-1
ipc-2014-optimal-tidybot-05.pddl,TIMEOUT:1801.0:-1.0:1800.0:-1
ipc-2014-optimal-tidybot-06.pddl,TIMEOUT:1801.0:-1.0:1800.0:-1
ipc-2014-optimal-tidybot-07.pddl,TIMEOUT:1801.0:-1.0:1800.0:-1
ipc-2014-optimal-tidybot-08.pddl,CRASHED:109.911:25.0:1800.0:-1
ipc-2014-optimal-tidybot-09.pddl,TIMEOUT:1801.0:-1.0:1800.0:-1
ipc-2014-optimal-tidybot-10.pddl,TIMEOUT:1801.0:-1.0:1800.0:-1
ipc-2014-optimal-tidybot-11.pddl,CRASHED:76.6583:29.0:1800.0:-1
ipc-2014-optimal-tidybot-12.pddl,CRASHED:235.152:35.0:1800.0:-1
ipc-2014-optimal-tidybot-13.pddl,CRASHED:125.618:30.0:1800.0:-1
ipc-2014-optimal-tidybot-14.pddl,SAT:103.435:25.0:1800.0:-1
ipc-2014-optimal-tidybot-15.pddl,TIMEOUT:1801.0:-1.0:1800.0:-1
ipc-2014-optimal-tidybot-16.pddl,TIMEOUT:1801.0:-1.0:1800.0:-1
ipc-2014-optimal-tidybot-17.pddl,TIMEOUT:1801.0:-1.0:1800.0:-1
ipc-2014-optimal-tidybot-18.pddl,TIMEOUT:1801.0:-1.0:1800.0:-1
ipc-2014-optimal-tidybot-19.pddl,TIMEOUT:1801.0:-1.0:1800.0:-1
ipc-2014-optimal-tidybot-20.pddl,TIMEOUT:1801.0:-1.0:1800.0:-1
ipc-2014-optimal-transport-01.pddl,CRASHED:134.553:148.0:1800.0:-1
ipc-2014-optimal-transport-02.pddl,SAT:138.104:191.0:1800.0:-1
ipc-2014-optimal-transport-03.pddl,SAT:146.448:300.0:1800.0:-1
ipc-2014-optimal-transport-04.pddl,CRASHED:1793.55:1000000000.0:1800.0:-1
ipc-2014-optimal-transport-05.pddl,CRASHED:1785.87:1000000000.0:1800.0:-1
ipc-2014-optimal-transport-06.pddl,CRASHED:1795.58:1000000000.0:1800.0:-1
ipc-2014-optimal-transport-07.pddl,SAT:138.304:967.0:1800.0:-1
ipc-2014-optimal-transport-08.pddl,CRASHED:286.539:1173.0:1800.0:-1
ipc-2014-optimal-transport-09.pddl,CRASHED:1793.34:1000000000.0:1800.0:-1
ipc-2014-optimal-transport-10.pddl,CRASHED:119.08:1000000000.0:1800.0:-1
ipc-2014-optimal-transport-11.pddl,CRASHED:1783.76:1000000000.0:1800.0:-1
ipc-2014-optimal-transport-12.pddl,CRASHED:526.26:1000000000.0:1800.0:-1
ipc-2014-optimal-transport-13.pddl,CRASHED:137.899:594.0:1800.0:-1
ipc-2014-optimal-transport-14.pddl,CRASHED:247.771:526.0:1800.0:-1
ipc-2014-optimal-transport-15.pddl,CRASHED:1788.49:1000000000.0:1800.0:-1
ipc-2014-optimal-transport-16.pddl,CRASHED:1423.61:1000000000.0:1800.0:-1
ipc-2014-optimal-transport-17.pddl,TIMEOUT:1801.0:-1.0:1800.0:-1
ipc-2014-optimal-transport-18.pddl,CRASHED:192.63:1000000000.0:1800.0:-1
ipc-2014-optimal-transport-19.pddl,CRASHED:1324.49:1000000000.0:1800.0:-1
ipc-2014-optimal-transport-20.pddl,CRASHED:1324.73:1000000000.0:1800.0:-1
ipc-2014-optimal-visitall-05-10.pddl,CRASHED:669.68:1000000000.0:1800.0:-1
ipc-2014-optimal-visitall-05-05.pddl,CRASHED:4.63129:21.0:1800.0:-1
ipc-2014-optimal-visitall-05-06.pddl,CRASHED:7.00393:25.0:1800.0:-1
ipc-2014-optimal-visitall-05-07.pddl,CRASHED:358.555:34.0:1800.0:-1
ipc-2014-optimal-visitall-05-08.pddl,CRASHED:1258.09:43.0:1800.0:-1
ipc-2014-optimal-visitall-05-09.pddl,CRASHED:1794.7:1000000000.0:1800.0:-1
ipc-2014-optimal-visitall-01-10.pddl,SAT:1159.53:99.0:1800.0:-1
ipc-2014-optimal-visitall-01-11.pddl,CRASHED:1156.84:120.0:1800.0:-1
ipc-2014-optimal-visitall-01-12.pddl,SAT:599.28:143.0:1800.0:-1
ipc-2014-optimal-visitall-01-13.pddl,SAT:1159.48:168.0:1800.0:-1
ipc-2014-optimal-visitall-01-14.pddl,CRASHED:1794.59:1000000000.0:1800.0:-1
ipc-2014-optimal-visitall-01-15.pddl,CRASHED:1793.93:1000000000.0:1800.0:-1
ipc-2014-optimal-visitall-01-16.pddl,CRASHED:538.19:1000000000.0:1800.0:-1
ipc-2014-optimal-visitall-01-17.pddl,CRASHED:1792.49:1000000000.0:1800.0:-1
ipc-2014-optimal-visitall-01-18.pddl,CRASHED:1794.84:1000000000.0:1800.0:-1
ipc-2014-optimal-visitall-01-05.pddl,CRASHED:20.9088:24.0:1800.0:-1
ipc-2014-optimal-visitall-01-06.pddl,CRASHED:935.964:35.0:1800.0:-1
ipc-2014-optimal-visitall-01-07.pddl,CRASHED:1000.45:48.0:1800.0:-1
ipc-2014-optimal-visitall-01-08.pddl,CRASHED:1093.84:63.0:1800.0:-1
ipc-2014-optimal-visitall-01-09.pddl,CRASHED:1156.56:80.0:1800.0:-1
