instance,ipc-2014-agile-arvandherd
ipc-2014-agile-barman-p1-11-4-15.pddl,SAT:193.565:181.0:300.0:-1
ipc-2014-agile-barman-p1-11-5-15.pddl,SAT:196.088:185.0:300.0:-1
ipc-2014-agile-barman-p1-11-5-16.pddl,SAT:186.348:189.0:300.0:-1
ipc-2014-agile-barman-p2-10-4-13.pddl,SAT:192.479:168.0:300.0:-1
ipc-2014-agile-barman-p2-11-4-15.pddl,SAT:193.924:181.0:300.0:-1
ipc-2014-agile-barman-p2-11-5-15.pddl,SAT:194.43:169.0:300.0:-1
ipc-2014-agile-barman-p2-11-5-16.pddl,SAT:296.111:175.0:300.0:-1
ipc-2014-agile-barman-p2-11-5-17.pddl,SAT:203.112:187.0:300.0:-1
ipc-2014-agile-barman-p3-10-4-13.pddl,TIMEOUT:301.0:-1.0:300.0:-1
ipc-2014-agile-barman-p3-11-4-15.pddl,SAT:198.739:176.0:300.0:-1
ipc-2014-agile-barman-p3-11-5-15.pddl,SAT:196.192:200.0:300.0:-1
ipc-2014-agile-barman-p3-11-5-16.pddl,SAT:198.68:189.0:300.0:-1
ipc-2014-agile-barman-p3-11-5-17.pddl,TIMEOUT:301.07:-1.0:300.0:-1
ipc-2014-agile-barman-p4-11-4-14.pddl,SAT:192.718:192.0:300.0:-1
ipc-2014-agile-barman-p4-11-4-15.pddl,SAT:272.331:185.0:300.0:-1
ipc-2014-agile-barman-p4-11-5-15.pddl,SAT:285.073:197.0:300.0:-1
ipc-2014-agile-barman-p5-10-4-13.pddl,SAT:192.674:176.0:300.0:-1
ipc-2014-agile-barman-p5-11-4-15.pddl,SAT:186.49:194.0:300.0:-1
ipc-2014-agile-barman-p5-11-5-15.pddl,SAT:195.022:187.0:300.0:-1
ipc-2014-agile-barman-p5-11-5-16.pddl,SAT:296.142:163.0:300.0:-1
ipc-2014-agile-cavediving-01_easy.pddl,TIMEOUT:301.09:-1.0:300.0:-1
ipc-2014-agile-cavediving-01.pddl,TIMEOUT:301.02:-1.0:300.0:-1
ipc-2014-agile-cavediving-02_easy.pddl,TIMEOUT:301.09:-1.0:300.0:-1
ipc-2014-agile-cavediving-03_easy.pddl,TIMEOUT:301.03:-1.0:300.0:-1
ipc-2014-agile-cavediving-04_easy.pddl,TIMEOUT:301.02:-1.0:300.0:-1
ipc-2014-agile-cavediving-05A_easy.pddl,SAT:182.4:94.0:300.0:-1
ipc-2014-agile-cavediving-06A_easy.pddl,SAT:186.874:95.0:300.0:-1
ipc-2014-agile-cavediving-07_easy.pddl,SAT:181.619:131.0:300.0:-1
ipc-2014-agile-cavediving-08_easy.pddl,SAT:185.936:90.0:300.0:-1
ipc-2014-agile-cavediving-09_easy.pddl,TIMEOUT:301.07:-1.0:300.0:-1
ipc-2014-agile-cavediving-10_easy.pddl,TIMEOUT:301.02:-1.0:300.0:-1
ipc-2014-agile-cavediving-11_easy.pddl,TIMEOUT:301.04:-1.0:300.0:-1
ipc-2014-agile-cavediving-12_easy.pddl,TIMEOUT:301.02:-1.0:300.0:-1
ipc-2014-agile-cavediving-13_easy.pddl,TIMEOUT:301.09:-1.0:300.0:-1
ipc-2014-agile-cavediving-14_easy.pddl,TIMEOUT:301.08:-1.0:300.0:-1
ipc-2014-agile-cavediving-15_easy.pddl,TIMEOUT:301.04:-1.0:300.0:-1
ipc-2014-agile-cavediving-16_easy.pddl,TIMEOUT:301.05:-1.0:300.0:-1
ipc-2014-agile-cavediving-18A_easy.pddl,SAT:188.855:131.0:300.0:-1
ipc-2014-agile-cavediving-18_easy.pddl,SAT:181.293:131.0:300.0:-1
ipc-2014-agile-cavediving-20A_easy.pddl,SAT:184.044:98.0:300.0:-1
ipc-2014-agile-childsnack-05-2.pddl,SAT:183.527:48.0:300.0:-1
ipc-2014-agile-childsnack-05.pddl,SAT:4.8554:267.0:300.0:-1
ipc-2014-agile-childsnack-06-2.pddl,SAT:54.6601:108.0:300.0:-1
ipc-2014-agile-childsnack-07-2.pddl,SAT:181.06:61.0:300.0:-1
ipc-2014-agile-childsnack-08-2.pddl,CRASHED:289.703:1000000000.0:300.0:-1
ipc-2014-agile-childsnack-08.pddl,SAT:199.328:66.0:300.0:-1
ipc-2014-agile-childsnack-09-2.pddl,SAT:109.619:136.0:300.0:-1
ipc-2014-agile-childsnack-09.pddl,SAT:194.668:71.0:300.0:-1
ipc-2014-agile-childsnack-10-2.pddl,SAT:2.30319:221.0:300.0:-1
ipc-2014-agile-childsnack-10.pddl,CRASHED:291.864:1000000000.0:300.0:-1
ipc-2014-agile-childsnack-11-2.pddl,CRASHED:282.19:1000000000.0:300.0:-1
ipc-2014-agile-childsnack-11.pddl,CRASHED:281.41:1000000000.0:300.0:-1
ipc-2014-agile-childsnack-12.pddl,CRASHED:266.21:1000000000.0:300.0:-1
ipc-2014-agile-childsnack-13-2.pddl,CRASHED:291.971:1000000000.0:300.0:-1
ipc-2014-agile-childsnack-13.pddl,CRASHED:297.522:1000000000.0:300.0:-1
ipc-2014-agile-childsnack-14.pddl,TIMEOUT:301.01:-1.0:300.0:-1
ipc-2014-agile-childsnack-15-2.pddl,TIMEOUT:301.0:-1.0:300.0:-1
ipc-2014-agile-childsnack-16-2.pddl,TIMEOUT:301.09:-1.0:300.0:-1
ipc-2014-agile-childsnack-19-2.pddl,TIMEOUT:301.08:-1.0:300.0:-1
ipc-2014-agile-childsnack-19.pddl,TIMEOUT:301.02:-1.0:300.0:-1
ipc-2014-agile-citycar-p3-2-2-0-1.pddl,SAT:0.972173:870.0:300.0:-1
ipc-2014-agile-citycar-p3-3-2-0-1.pddl,SAT:0.874514:1605.0:300.0:-1
ipc-2014-agile-citycar-p3-4-2-0-1.pddl,SAT:3.63728:1585.0:300.0:-1
ipc-2014-agile-citycar-p3-5-2-0-1.pddl,SAT:1.23502:2956.0:300.0:-1
ipc-2014-agile-citycar-p3-5-2-0-2.pddl,SAT:1.03499:1052.0:300.0:-1
ipc-2014-agile-citycar-p4-2-2-0-1.pddl,SAT:10.7648:2039.0:300.0:-1
ipc-2014-agile-citycar-p4-2-3-0-1.pddl,SAT:7.26923:2271.0:300.0:-1
ipc-2014-agile-citycar-p4-2-3-0-2.pddl,SAT:2.63648:1757.0:300.0:-1
ipc-2014-agile-citycar-p4-3-2-0-1.pddl,SAT:6.53464:2785.0:300.0:-1
ipc-2014-agile-citycar-p4-3-2-0-2.pddl,SAT:49.0354:1203.0:300.0:-1
ipc-2014-agile-citycar-p4-3-3-0-1.pddl,SAT:27.2543:2246.0:300.0:-1
ipc-2014-agile-citycar-p4-3-3-0-2.pddl,SAT:5.4298:2379.0:300.0:-1
ipc-2014-agile-citycar-p4-4-2-0-1.pddl,SAT:16.234:2801.0:300.0:-1
ipc-2014-agile-citycar-p4-4-2-0-2.pddl,SAT:4.58321:1608.0:300.0:-1
ipc-2014-agile-citycar-p4-4-3-0-1.pddl,SAT:22.4173:3281.0:300.0:-1
ipc-2014-agile-citycar-p4-4-3-0-2.pddl,SAT:15.8041:2117.0:300.0:-1
ipc-2014-agile-citycar-p4-5-2-0-1.pddl,TIMEOUT:301.05:-1.0:300.0:-1
ipc-2014-agile-citycar-p4-5-2-0-2.pddl,SAT:248.568:148.0:300.0:-1
ipc-2014-agile-citycar-p4-5-3-0-1.pddl,SAT:40.5834:3253.0:300.0:-1
ipc-2014-agile-citycar-p4-5-3-0-2.pddl,SAT:152.382:2176.0:300.0:-1
ipc-2014-agile-floortile-p01-4-3-2.pddl,SAT:181.86:98.0:300.0:-1
ipc-2014-agile-floortile-p01-5-4-2.pddl,TIMEOUT:301.0:-1.0:300.0:-1
ipc-2014-agile-floortile-p01-5-5-2.pddl,TIMEOUT:301.01:-1.0:300.0:-1
ipc-2014-agile-floortile-p01-6-4-2.pddl,TIMEOUT:301.02:-1.0:300.0:-1
ipc-2014-agile-floortile-p01-6-5-2.pddl,TIMEOUT:301.06:-1.0:300.0:-1
ipc-2014-agile-floortile-p01-6-5-3.pddl,TIMEOUT:301.01:-1.0:300.0:-1
ipc-2014-agile-floortile-p02-5-4-2.pddl,TIMEOUT:301.06:-1.0:300.0:-1
ipc-2014-agile-floortile-p02-6-4-2.pddl,TIMEOUT:301.01:-1.0:300.0:-1
ipc-2014-agile-floortile-p02-6-5-2.pddl,TIMEOUT:301.04:-1.0:300.0:-1
ipc-2014-agile-floortile-p02-6-5-3.pddl,TIMEOUT:301.07:-1.0:300.0:-1
ipc-2014-agile-floortile-p03-6-4-2.pddl,TIMEOUT:301.03:-1.0:300.0:-1
ipc-2014-agile-floortile-p03-6-5-2.pddl,TIMEOUT:301.05:-1.0:300.0:-1
ipc-2014-agile-floortile-p03-6-5-3.pddl,TIMEOUT:301.11:-1.0:300.0:-1
ipc-2014-agile-floortile-p04-5-4-2.pddl,TIMEOUT:301.05:-1.0:300.0:-1
ipc-2014-agile-floortile-p04-5-5-2.pddl,TIMEOUT:301.02:-1.0:300.0:-1
ipc-2014-agile-floortile-p04-6-5-2.pddl,TIMEOUT:301.04:-1.0:300.0:-1
ipc-2014-agile-floortile-p04-6-5-3.pddl,TIMEOUT:301.03:-1.0:300.0:-1
ipc-2014-agile-floortile-p05-4-3-2.pddl,SAT:0.203305:208.0:300.0:-1
ipc-2014-agile-floortile-p05-6-5-2.pddl,TIMEOUT:301.08:-1.0:300.0:-1
ipc-2014-agile-floortile-p05-6-5-3.pddl,TIMEOUT:301.09:-1.0:300.0:-1
ipc-2014-agile-ged-d-10-1.pddl,SAT:140.19:287.0:300.0:-1
ipc-2014-agile-ged-d-10-2.pddl,SAT:39.4502:155.0:300.0:-1
ipc-2014-agile-ged-d-10-3.pddl,SAT:31.4473:35.0:300.0:-1
ipc-2014-agile-ged-d-10-4.pddl,SAT:9.6056:55.0:300.0:-1
ipc-2014-agile-ged-d-10-5.pddl,SAT:102.827:123.0:300.0:-1
ipc-2014-agile-ged-d-10-6.pddl,SAT:186.277:40.0:300.0:-1
ipc-2014-agile-ged-d-11-1.pddl,SAT:32.0182:64.0:300.0:-1
ipc-2014-agile-ged-d-11-3.pddl,SAT:110.413:43.0:300.0:-1
ipc-2014-agile-ged-d-11-5.pddl,SAT:157.807:74.0:300.0:-1
ipc-2014-agile-ged-d-11-6.pddl,SAT:95.8273:110.0:300.0:-1
ipc-2014-agile-ged-d-12-11.pddl,SAT:113.78:133.0:300.0:-1
ipc-2014-agile-ged-d-12-2.pddl,SAT:189.092:42.0:300.0:-1
ipc-2014-agile-ged-d-12-3.pddl,SAT:191.847:45.0:300.0:-1
ipc-2014-agile-ged-d-12-5.pddl,SAT:211.078:44.0:300.0:-1
ipc-2014-agile-ged-d-12-6.pddl,SAT:192.035:47.0:300.0:-1
ipc-2014-agile-ged-d-12-7.pddl,SAT:84.5593:187.0:300.0:-1
ipc-2014-agile-ged-d-12-8.pddl,SAT:195.17:49.0:300.0:-1
ipc-2014-agile-ged-d-12-9.pddl,SAT:199.585:54.0:300.0:-1
ipc-2014-agile-ged-d-3-6.pddl,SAT:104.348:57.0:300.0:-1
ipc-2014-agile-ged-d-9-5.pddl,SAT:91.8425:68.0:300.0:-1
ipc-2014-agile-hiking-3-4-3.pddl,SAT:1.2784:52.0:300.0:-1
ipc-2014-agile-hiking-3-4-4.pddl,SAT:2.77686:426.0:300.0:-1
ipc-2014-agile-hiking-3-4-5.pddl,SAT:7.56037:1106.0:300.0:-1
ipc-2014-agile-hiking-3-4-6.pddl,SAT:11.2259:1509.0:300.0:-1
ipc-2014-agile-hiking-3-4-7.pddl,SAT:20.7882:1317.0:300.0:-1
ipc-2014-agile-hiking-3-4-8.pddl,SAT:28.9176:3683.0:300.0:-1
ipc-2014-agile-hiking-3-4-9.pddl,SAT:35.8843:1840.0:300.0:-1
ipc-2014-agile-hiking-4-5-3.pddl,SAT:3.81581:68.0:300.0:-1
ipc-2014-agile-hiking-4-5-4.pddl,SAT:7.39744:212.0:300.0:-1
ipc-2014-agile-hiking-4-5-5.pddl,SAT:11.4873:678.0:300.0:-1
ipc-2014-agile-hiking-4-5-6.pddl,SAT:55.8559:328.0:300.0:-1
ipc-2014-agile-hiking-4-5-7.pddl,SAT:37.6669:2447.0:300.0:-1
ipc-2014-agile-hiking-4-5-8.pddl,SAT:87.724:1084.0:300.0:-1
ipc-2014-agile-hiking-4-5-9.pddl,SAT:211.226:2639.0:300.0:-1
ipc-2014-agile-hiking-5-6-3.pddl,SAT:9.14336:57.0:300.0:-1
ipc-2014-agile-hiking-5-6-4.pddl,SAT:16.669:118.0:300.0:-1
ipc-2014-agile-hiking-5-6-5.pddl,SAT:24.1414:230.0:300.0:-1
ipc-2014-agile-hiking-5-6-6.pddl,SAT:39.0103:765.0:300.0:-1
ipc-2014-agile-hiking-5-6-7.pddl,TIMEOUT:301.03:-1.0:300.0:-1
ipc-2014-agile-hiking-5-6-8.pddl,SAT:178.131:5097.0:300.0:-1
ipc-2014-agile-maintenance-1.3.060.180.5-000.pddl,SAT:12.4858:54.0:300.0:-1
ipc-2014-agile-maintenance-1.3.060.180.5-001.pddl,TIMEOUT:301.08:-1.0:300.0:-1
ipc-2014-agile-maintenance-1.3.060.180.5-002.pddl,SAT:1.71543:58.0:300.0:-1
ipc-2014-agile-maintenance-1.3.100.300.5-000.pddl,TIMEOUT:301.06:-1.0:300.0:-1
ipc-2014-agile-maintenance-1.3.100.300.5-001.pddl,SAT:40.508:88.0:300.0:-1
ipc-2014-agile-maintenance-1.3.100.300.7-000.pddl,SAT:2.35649:79.0:300.0:-1
ipc-2014-agile-maintenance-1.3.100.300.7-001.pddl,SAT:3.50281:75.0:300.0:-1
ipc-2014-agile-maintenance-1.3.100.300.7-002.pddl,SAT:2.3539:79.0:300.0:-1
ipc-2014-agile-maintenance-1.3.150.500.6-001.pddl,TIMEOUT:301.05:-1.0:300.0:-1
ipc-2014-agile-maintenance-1.3.200.500.5-001.pddl,TIMEOUT:301.06:-1.0:300.0:-1
ipc-2014-agile-maintenance-1.3.200.500.5-002.pddl,TIMEOUT:301.0:-1.0:300.0:-1
ipc-2014-agile-maintenance-1.3.200.700.7-000.pddl,SAT:24.0999:161.0:300.0:-1
ipc-2014-agile-maintenance-1.3.200.700.7-001.pddl,SAT:32.7573:187.0:300.0:-1
ipc-2014-agile-maintenance-1.3.200.700.7-002.pddl,SAT:17.4426:165.0:300.0:-1
ipc-2014-agile-maintenance-1.3.200.900.5-000.pddl,TIMEOUT:301.08:-1.0:300.0:-1
ipc-2014-agile-maintenance-1.3.200.900.5-001.pddl,TIMEOUT:301.0:-1.0:300.0:-1
ipc-2014-agile-maintenance-1.3.200.900.5-002.pddl,TIMEOUT:301.04:-1.0:300.0:-1
ipc-2014-agile-maintenance-1.3.200.900.8-000.pddl,SAT:18.9756:169.0:300.0:-1
ipc-2014-agile-maintenance-1.3.200.900.8-001.pddl,SAT:39.6185:179.0:300.0:-1
ipc-2014-agile-maintenance-1.3.200.900.8-002.pddl,SAT:18.727:166.0:300.0:-1
ipc-2014-agile-openstacks-p130_2.pddl,SAT:12.9196:104.0:300.0:-1
ipc-2014-agile-openstacks-p130_3.pddl,SAT:20.9965:124.0:300.0:-1
ipc-2014-agile-openstacks-p150_2.pddl,SAT:17.88:87.0:300.0:-1
ipc-2014-agile-openstacks-p150_3.pddl,SAT:23.4581:145.0:300.0:-1
ipc-2014-agile-openstacks-p170_1.pddl,SAT:25.4686:96.0:300.0:-1
ipc-2014-agile-openstacks-p170_2.pddl,SAT:27.3085:114.0:300.0:-1
ipc-2014-agile-openstacks-p170_3.pddl,SAT:34.143:165.0:300.0:-1
ipc-2014-agile-openstacks-p190_1.pddl,SAT:27.267:120.0:300.0:-1
ipc-2014-agile-openstacks-p190_2.pddl,SAT:36.3679:133.0:300.0:-1
ipc-2014-agile-openstacks-p190_3.pddl,SAT:46.0452:179.0:300.0:-1
ipc-2014-agile-openstacks-p210_1.pddl,SAT:41.0534:132.0:300.0:-1
ipc-2014-agile-openstacks-p210_2.pddl,SAT:46.2056:134.0:300.0:-1
ipc-2014-agile-openstacks-p230_1.pddl,SAT:63.7651:141.0:300.0:-1
ipc-2014-agile-openstacks-p230_2.pddl,SAT:55.9052:187.0:300.0:-1
ipc-2014-agile-openstacks-p250_1.pddl,SAT:68.242:204.0:300.0:-1
ipc-2014-agile-openstacks-p250_2.pddl,SAT:95.4797:189.0:300.0:-1
ipc-2014-agile-openstacks-p270_1.pddl,SAT:98.3286:192.0:300.0:-1
ipc-2014-agile-openstacks-p270_2.pddl,SAT:140.486:210.0:300.0:-1
ipc-2014-agile-openstacks-p290_1.pddl,SAT:116.559:228.0:300.0:-1
ipc-2014-agile-openstacks-p290_2.pddl,SAT:126.394:243.0:300.0:-1
ipc-2014-agile-parking-28_2.pddl,TIMEOUT:301.09:-1.0:300.0:-1
ipc-2014-agile-parking-28_3.pddl,TIMEOUT:301.01:-1.0:300.0:-1
ipc-2014-agile-parking-30_1.pddl,SAT:113.966:538.0:300.0:-1
ipc-2014-agile-parking-30_2.pddl,TIMEOUT:301.02:-1.0:300.0:-1
ipc-2014-agile-parking-30_3.pddl,TIMEOUT:301.09:-1.0:300.0:-1
ipc-2014-agile-parking-32_1.pddl,TIMEOUT:301.02:-1.0:300.0:-1
ipc-2014-agile-parking-32_2.pddl,TIMEOUT:301.09:-1.0:300.0:-1
ipc-2014-agile-parking-32_3.pddl,TIMEOUT:301.04:-1.0:300.0:-1
ipc-2014-agile-parking-34_1.pddl,TIMEOUT:301.1:-1.0:300.0:-1
ipc-2014-agile-parking-34_2.pddl,TIMEOUT:301.04:-1.0:300.0:-1
ipc-2014-agile-parking-34_3.pddl,TIMEOUT:301.097:-1.0:300.0:-1
ipc-2014-agile-parking-36_1.pddl,TIMEOUT:301.03:-1.0:300.0:-1
ipc-2014-agile-parking-36_2.pddl,TIMEOUT:301.09:-1.0:300.0:-1
ipc-2014-agile-parking-36_3.pddl,TIMEOUT:301.08:-1.0:300.0:-1
ipc-2014-agile-parking-38_1.pddl,TIMEOUT:301.01:-1.0:300.0:-1
ipc-2014-agile-parking-38_2.pddl,TIMEOUT:301.0:-1.0:300.0:-1
ipc-2014-agile-parking-38_3.pddl,TIMEOUT:301.08:-1.0:300.0:-1
ipc-2014-agile-parking-40_1.pddl,TIMEOUT:301.0:-1.0:300.0:-1
ipc-2014-agile-parking-40_2.pddl,TIMEOUT:301.08:-1.0:300.0:-1
ipc-2014-agile-parking-40_3.pddl,TIMEOUT:301.08:-1.0:300.0:-1
ipc-2014-agile-tetris-020.pddl,SAT:5.76087:179.0:300.0:-1
ipc-2014-agile-tetris-021.pddl,SAT:36.4689:283.0:300.0:-1
ipc-2014-agile-tetris-022.pddl,SAT:13.2292:358.0:300.0:-1
ipc-2014-agile-tetris-023.pddl,SAT:21.1534:400.0:300.0:-1
ipc-2014-agile-tetris-024.pddl,SAT:101.183:861.0:300.0:-1
ipc-2014-agile-tetris-025.pddl,SAT:9.33197:345.0:300.0:-1
ipc-2014-agile-tetris-026.pddl,TIMEOUT:301.0:-1.0:300.0:-1
ipc-2014-agile-tetris-027.pddl,TIMEOUT:301.05:-1.0:300.0:-1
ipc-2014-agile-tetris-028.pddl,SAT:51.0453:1225.0:300.0:-1
ipc-2014-agile-tetris-029.pddl,SAT:8.46723:466.0:300.0:-1
ipc-2014-agile-tetris-031.pddl,TIMEOUT:301.01:-1.0:300.0:-1
ipc-2014-agile-tetris-032.pddl,SAT:32.0839:710.0:300.0:-1
ipc-2014-agile-tetris-033.pddl,SAT:49.3661:561.0:300.0:-1
ipc-2014-agile-tetris-034.pddl,SAT:46.6853:487.0:300.0:-1
ipc-2014-agile-tetris-035.pddl,TIMEOUT:301.05:-1.0:300.0:-1
ipc-2014-agile-tetris-036.pddl,SAT:123.979:746.0:300.0:-1
ipc-2014-agile-tetris-037.pddl,SAT:12.7339:1132.0:300.0:-1
ipc-2014-agile-tetris-038.pddl,TIMEOUT:301.03:-1.0:300.0:-1
ipc-2014-agile-tetris-039.pddl,TIMEOUT:301.06:-1.0:300.0:-1
ipc-2014-agile-tetris-040.pddl,SAT:49.8144:850.0:300.0:-1
ipc-2014-agile-thoughtful-bootstrap-typed-01.pddl,CRASHED:0.078142:1000000000.0:300.0:-1
ipc-2014-agile-thoughtful-bootstrap-typed-02.pddl,CRASHED:0.07403:1000000000.0:300.0:-1
ipc-2014-agile-thoughtful-bootstrap-typed-03.pddl,CRASHED:0.073447:1000000000.0:300.0:-1
ipc-2014-agile-thoughtful-bootstrap-typed-04.pddl,CRASHED:0.076937:1000000000.0:300.0:-1
ipc-2014-agile-thoughtful-bootstrap-typed-05.pddl,CRASHED:0.076931:1000000000.0:300.0:-1
ipc-2014-agile-thoughtful-p11_6_53-typed.pddl,CRASHED:0.08611:1000000000.0:300.0:-1
ipc-2014-agile-thoughtful-p11_6_59-typed.pddl,CRASHED:0.089949:1000000000.0:300.0:-1
ipc-2014-agile-thoughtful-p11_6_62-typed.pddl,CRASHED:0.076752:1000000000.0:300.0:-1
ipc-2014-agile-thoughtful-p13_7_78-typed.pddl,CRASHED:0.083134:1000000000.0:300.0:-1
ipc-2014-agile-thoughtful-p13_7_79-typed.pddl,CRASHED:0.088494:1000000000.0:300.0:-1
ipc-2014-agile-thoughtful-p13_7_86-typed.pddl,CRASHED:0.088995:1000000000.0:300.0:-1
ipc-2014-agile-thoughtful-target-typed-20.pddl,CRASHED:0.088895:1000000000.0:300.0:-1
ipc-2014-agile-thoughtful-target-typed-21.pddl,CRASHED:0.09004:1000000000.0:300.0:-1
ipc-2014-agile-thoughtful-target-typed-22.pddl,CRASHED:0.089832:1000000000.0:300.0:-1
ipc-2014-agile-thoughtful-target-typed-23.pddl,CRASHED:0.087718:1000000000.0:300.0:-1
ipc-2014-agile-thoughtful-target-typed-24.pddl,CRASHED:0.089419:1000000000.0:300.0:-1
ipc-2014-agile-thoughtful-target-typed-25.pddl,CRASHED:0.089642:1000000000.0:300.0:-1
ipc-2014-agile-thoughtful-target-typed-26.pddl,CRASHED:0.088317:1000000000.0:300.0:-1
ipc-2014-agile-thoughtful-target-typed-27.pddl,CRASHED:0.090487:1000000000.0:300.0:-1
ipc-2014-agile-thoughtful-target-typed-28.pddl,CRASHED:0.074489:1000000000.0:300.0:-1
ipc-2014-agile-transport-01.pddl,SAT:38.6305:26972.0:300.0:-1
ipc-2014-agile-transport-02.pddl,SAT:239.026:3625.0:300.0:-1
ipc-2014-agile-transport-03.pddl,SAT:38.7561:24341.0:300.0:-1
ipc-2014-agile-transport-04.pddl,TIMEOUT:301.03:-1.0:300.0:-1
ipc-2014-agile-transport-05.pddl,TIMEOUT:301.07:-1.0:300.0:-1
ipc-2014-agile-transport-06.pddl,TIMEOUT:301.05:-1.0:300.0:-1
ipc-2014-agile-transport-07.pddl,TIMEOUT:301.02:-1.0:300.0:-1
ipc-2014-agile-transport-08.pddl,TIMEOUT:301.07:-1.0:300.0:-1
ipc-2014-agile-transport-09.pddl,TIMEOUT:301.07:-1.0:300.0:-1
ipc-2014-agile-transport-10.pddl,TIMEOUT:301.08:-1.0:300.0:-1
ipc-2014-agile-transport-11.pddl,SAT:25.5146:15214.0:300.0:-1
ipc-2014-agile-transport-12.pddl,SAT:43.3494:19218.0:300.0:-1
ipc-2014-agile-transport-13.pddl,SAT:27.0621:16380.0:300.0:-1
ipc-2014-agile-transport-14.pddl,TIMEOUT:301.01:-1.0:300.0:-1
ipc-2014-agile-transport-15.pddl,TIMEOUT:301.04:-1.0:300.0:-1
ipc-2014-agile-transport-16.pddl,TIMEOUT:301.03:-1.0:300.0:-1
ipc-2014-agile-transport-17.pddl,TIMEOUT:301.02:-1.0:300.0:-1
ipc-2014-agile-transport-18.pddl,TIMEOUT:301.02:-1.0:300.0:-1
ipc-2014-agile-transport-19.pddl,TIMEOUT:301.01:-1.0:300.0:-1
ipc-2014-agile-transport-20.pddl,TIMEOUT:301.02:-1.0:300.0:-1
ipc-2014-agile-visitall-30.pddl,SAT:92.7429:5819.0:300.0:-1
ipc-2014-agile-visitall-31.pddl,SAT:112.566:5840.0:300.0:-1
ipc-2014-agile-visitall-32.pddl,SAT:120.312:6268.0:300.0:-1
ipc-2014-agile-visitall-33.pddl,SAT:157.519:7739.0:300.0:-1
ipc-2014-agile-visitall-50.pddl,TIMEOUT:301.09:-1.0:300.0:-1
ipc-2014-agile-visitall-51.pddl,TIMEOUT:301.03:-1.0:300.0:-1
ipc-2014-agile-visitall-52.pddl,TIMEOUT:301.09:-1.0:300.0:-1
ipc-2014-agile-visitall-53.pddl,TIMEOUT:301.04:-1.0:300.0:-1
ipc-2014-agile-visitall-54.pddl,TIMEOUT:301.06:-1.0:300.0:-1
ipc-2014-agile-visitall-55.pddl,TIMEOUT:301.01:-1.0:300.0:-1
ipc-2014-agile-visitall-56.pddl,TIMEOUT:301.01:-1.0:300.0:-1
ipc-2014-agile-visitall-57.pddl,TIMEOUT:301.06:-1.0:300.0:-1
ipc-2014-agile-visitall-58.pddl,TIMEOUT:301.08:-1.0:300.0:-1
ipc-2014-agile-visitall-59.pddl,TIMEOUT:301.0:-1.0:300.0:-1
ipc-2014-agile-visitall-60.pddl,TIMEOUT:301.04:-1.0:300.0:-1
ipc-2014-agile-visitall-61.pddl,TIMEOUT:301.06:-1.0:300.0:-1
ipc-2014-agile-visitall-62.pddl,TIMEOUT:301.09:-1.0:300.0:-1
ipc-2014-agile-visitall-63.pddl,TIMEOUT:301.08:-1.0:300.0:-1
ipc-2014-agile-visitall-64.pddl,TIMEOUT:301.0:-1.0:300.0:-1
ipc-2014-agile-visitall-65.pddl,TIMEOUT:301.07:-1.0:300.0:-1
