instance,ipc-2014-agile-mercury
ipc-2014-agile-barman-p1-11-4-15.pddl,SAT:3.50039:233.0:300.0:-1
ipc-2014-agile-barman-p1-11-5-15.pddl,TIMEOUT:301.02:-1.0:300.0:-1
ipc-2014-agile-barman-p1-11-5-16.pddl,SAT:227.141:190.0:300.0:-1
ipc-2014-agile-barman-p2-10-4-13.pddl,SAT:206.178:194.0:300.0:-1
ipc-2014-agile-barman-p2-11-4-15.pddl,TIMEOUT:301.0:-1.0:300.0:-1
ipc-2014-agile-barman-p2-11-5-15.pddl,SAT:270.559:232.0:300.0:-1
ipc-2014-agile-barman-p2-11-5-16.pddl,TIMEOUT:301.01:-1.0:300.0:-1
ipc-2014-agile-barman-p2-11-5-17.pddl,TIMEOUT:301.06:-1.0:300.0:-1
ipc-2014-agile-barman-p3-10-4-13.pddl,SAT:98.4787:299.0:300.0:-1
ipc-2014-agile-barman-p3-11-4-15.pddl,SAT:181.301:221.0:300.0:-1
ipc-2014-agile-barman-p3-11-5-15.pddl,SAT:3.86539:275.0:300.0:-1
ipc-2014-agile-barman-p3-11-5-16.pddl,SAT:275.155:244.0:300.0:-1
ipc-2014-agile-barman-p3-11-5-17.pddl,TIMEOUT:301.03:-1.0:300.0:-1
ipc-2014-agile-barman-p4-11-4-14.pddl,SAT:4.29244:310.0:300.0:-1
ipc-2014-agile-barman-p4-11-4-15.pddl,TIMEOUT:301.0:-1.0:300.0:-1
ipc-2014-agile-barman-p4-11-5-15.pddl,SAT:146.662:291.0:300.0:-1
ipc-2014-agile-barman-p5-10-4-13.pddl,SAT:4.92912:180.0:300.0:-1
ipc-2014-agile-barman-p5-11-4-15.pddl,SAT:3.53476:279.0:300.0:-1
ipc-2014-agile-barman-p5-11-5-15.pddl,SAT:16.5949:297.0:300.0:-1
ipc-2014-agile-barman-p5-11-5-16.pddl,SAT:161.711:235.0:300.0:-1
ipc-2014-agile-cavediving-01_easy.pddl,TIMEOUT:301.05:-1.0:300.0:-1
ipc-2014-agile-cavediving-01.pddl,TIMEOUT:301.08:-1.0:300.0:-1
ipc-2014-agile-cavediving-02_easy.pddl,TIMEOUT:301.04:-1.0:300.0:-1
ipc-2014-agile-cavediving-03_easy.pddl,TIMEOUT:301.0:-1.0:300.0:-1
ipc-2014-agile-cavediving-04_easy.pddl,TIMEOUT:301.04:-1.0:300.0:-1
ipc-2014-agile-cavediving-05A_easy.pddl,SAT:23.7941:94.0:300.0:-1
ipc-2014-agile-cavediving-06A_easy.pddl,SAT:23.9649:95.0:300.0:-1
ipc-2014-agile-cavediving-07_easy.pddl,SAT:38.2749:131.0:300.0:-1
ipc-2014-agile-cavediving-08_easy.pddl,SAT:23.6155:90.0:300.0:-1
ipc-2014-agile-cavediving-09_easy.pddl,TIMEOUT:301.04:-1.0:300.0:-1
ipc-2014-agile-cavediving-10_easy.pddl,TIMEOUT:301.02:-1.0:300.0:-1
ipc-2014-agile-cavediving-11_easy.pddl,TIMEOUT:301.06:-1.0:300.0:-1
ipc-2014-agile-cavediving-12_easy.pddl,TIMEOUT:301.07:-1.0:300.0:-1
ipc-2014-agile-cavediving-13_easy.pddl,TIMEOUT:301.07:-1.0:300.0:-1
ipc-2014-agile-cavediving-14_easy.pddl,TIMEOUT:301.01:-1.0:300.0:-1
ipc-2014-agile-cavediving-15_easy.pddl,TIMEOUT:301.03:-1.0:300.0:-1
ipc-2014-agile-cavediving-16_easy.pddl,TIMEOUT:301.07:-1.0:300.0:-1
ipc-2014-agile-cavediving-18A_easy.pddl,SAT:90.7123:131.0:300.0:-1
ipc-2014-agile-cavediving-18_easy.pddl,SAT:192.404:131.0:300.0:-1
ipc-2014-agile-cavediving-20A_easy.pddl,SAT:55.1786:98.0:300.0:-1
ipc-2014-agile-childsnack-05-2.pddl,SAT:34.1989:52.0:300.0:-1
ipc-2014-agile-childsnack-05.pddl,SAT:117.647:53.0:300.0:-1
ipc-2014-agile-childsnack-06-2.pddl,SAT:68.8041:60.0:300.0:-1
ipc-2014-agile-childsnack-07-2.pddl,SAT:181.179:66.0:300.0:-1
ipc-2014-agile-childsnack-08-2.pddl,TIMEOUT:301.03:-1.0:300.0:-1
ipc-2014-agile-childsnack-08.pddl,SAT:108.304:68.0:300.0:-1
ipc-2014-agile-childsnack-09-2.pddl,CRASHED:244.82:1000000000.0:300.0:-1
ipc-2014-agile-childsnack-09.pddl,TIMEOUT:301.06:-1.0:300.0:-1
ipc-2014-agile-childsnack-10-2.pddl,CRASHED:268.52:1000000000.0:300.0:-1
ipc-2014-agile-childsnack-10.pddl,CRASHED:261.96:1000000000.0:300.0:-1
ipc-2014-agile-childsnack-11-2.pddl,CRASHED:256.35:1000000000.0:300.0:-1
ipc-2014-agile-childsnack-11.pddl,CRASHED:272.64:1000000000.0:300.0:-1
ipc-2014-agile-childsnack-12.pddl,CRASHED:268.68:1000000000.0:300.0:-1
ipc-2014-agile-childsnack-13-2.pddl,CRASHED:263.4:1000000000.0:300.0:-1
ipc-2014-agile-childsnack-13.pddl,CRASHED:248.79:1000000000.0:300.0:-1
ipc-2014-agile-childsnack-14.pddl,CRASHED:254.74:1000000000.0:300.0:-1
ipc-2014-agile-childsnack-15-2.pddl,CRASHED:274.54:1000000000.0:300.0:-1
ipc-2014-agile-childsnack-16-2.pddl,TIMEOUT:301.08:-1.0:300.0:-1
ipc-2014-agile-childsnack-19-2.pddl,CRASHED:186.87:1000000000.0:300.0:-1
ipc-2014-agile-childsnack-19.pddl,CRASHED:186.7:1000000000.0:300.0:-1
ipc-2014-agile-citycar-p3-2-2-0-1.pddl,SAT:3.24606:201.0:300.0:-1
ipc-2014-agile-citycar-p3-3-2-0-1.pddl,SAT:19.771:384.0:300.0:-1
ipc-2014-agile-citycar-p3-4-2-0-1.pddl,SAT:29.9573:231.0:300.0:-1
ipc-2014-agile-citycar-p3-5-2-0-1.pddl,SAT:56.0149:279.0:300.0:-1
ipc-2014-agile-citycar-p3-5-2-0-2.pddl,SAT:186.064:199.0:300.0:-1
ipc-2014-agile-citycar-p4-2-2-0-1.pddl,TIMEOUT:301.03:-1.0:300.0:-1
ipc-2014-agile-citycar-p4-2-3-0-1.pddl,TIMEOUT:301.04:-1.0:300.0:-1
ipc-2014-agile-citycar-p4-2-3-0-2.pddl,TIMEOUT:301.01:-1.0:300.0:-1
ipc-2014-agile-citycar-p4-3-2-0-1.pddl,TIMEOUT:301.01:-1.0:300.0:-1
ipc-2014-agile-citycar-p4-3-2-0-2.pddl,TIMEOUT:301.05:-1.0:300.0:-1
ipc-2014-agile-citycar-p4-3-3-0-1.pddl,TIMEOUT:301.08:-1.0:300.0:-1
ipc-2014-agile-citycar-p4-3-3-0-2.pddl,TIMEOUT:301.05:-1.0:300.0:-1
ipc-2014-agile-citycar-p4-4-2-0-1.pddl,TIMEOUT:301.02:-1.0:300.0:-1
ipc-2014-agile-citycar-p4-4-2-0-2.pddl,TIMEOUT:301.06:-1.0:300.0:-1
ipc-2014-agile-citycar-p4-4-3-0-1.pddl,TIMEOUT:301.04:-1.0:300.0:-1
ipc-2014-agile-citycar-p4-4-3-0-2.pddl,TIMEOUT:301.04:-1.0:300.0:-1
ipc-2014-agile-citycar-p4-5-2-0-1.pddl,TIMEOUT:301.06:-1.0:300.0:-1
ipc-2014-agile-citycar-p4-5-2-0-2.pddl,TIMEOUT:301.04:-1.0:300.0:-1
ipc-2014-agile-citycar-p4-5-3-0-1.pddl,TIMEOUT:301.01:-1.0:300.0:-1
ipc-2014-agile-citycar-p4-5-3-0-2.pddl,TIMEOUT:301.07:-1.0:300.0:-1
ipc-2014-agile-floortile-p01-4-3-2.pddl,SAT:6.32871:94.0:300.0:-1
ipc-2014-agile-floortile-p01-5-4-2.pddl,TIMEOUT:301.0:-1.0:300.0:-1
ipc-2014-agile-floortile-p01-5-5-2.pddl,TIMEOUT:301.06:-1.0:300.0:-1
ipc-2014-agile-floortile-p01-6-4-2.pddl,TIMEOUT:301.04:-1.0:300.0:-1
ipc-2014-agile-floortile-p01-6-5-2.pddl,TIMEOUT:301.08:-1.0:300.0:-1
ipc-2014-agile-floortile-p01-6-5-3.pddl,TIMEOUT:301.03:-1.0:300.0:-1
ipc-2014-agile-floortile-p02-5-4-2.pddl,TIMEOUT:301.08:-1.0:300.0:-1
ipc-2014-agile-floortile-p02-6-4-2.pddl,TIMEOUT:301.02:-1.0:300.0:-1
ipc-2014-agile-floortile-p02-6-5-2.pddl,TIMEOUT:301.01:-1.0:300.0:-1
ipc-2014-agile-floortile-p02-6-5-3.pddl,TIMEOUT:301.07:-1.0:300.0:-1
ipc-2014-agile-floortile-p03-6-4-2.pddl,TIMEOUT:301.04:-1.0:300.0:-1
ipc-2014-agile-floortile-p03-6-5-2.pddl,TIMEOUT:301.01:-1.0:300.0:-1
ipc-2014-agile-floortile-p03-6-5-3.pddl,TIMEOUT:301.09:-1.0:300.0:-1
ipc-2014-agile-floortile-p04-5-4-2.pddl,TIMEOUT:301.05:-1.0:300.0:-1
ipc-2014-agile-floortile-p04-5-5-2.pddl,TIMEOUT:301.01:-1.0:300.0:-1
ipc-2014-agile-floortile-p04-6-5-2.pddl,TIMEOUT:301.01:-1.0:300.0:-1
ipc-2014-agile-floortile-p04-6-5-3.pddl,TIMEOUT:301.07:-1.0:300.0:-1
ipc-2014-agile-floortile-p05-4-3-2.pddl,SAT:0.614904:93.0:300.0:-1
ipc-2014-agile-floortile-p05-6-5-2.pddl,TIMEOUT:301.03:-1.0:300.0:-1
ipc-2014-agile-floortile-p05-6-5-3.pddl,TIMEOUT:301.01:-1.0:300.0:-1
ipc-2014-agile-ged-d-10-1.pddl,SAT:4.03185:24.0:300.0:-1
ipc-2014-agile-ged-d-10-2.pddl,SAT:4.09518:25.0:300.0:-1
ipc-2014-agile-ged-d-10-3.pddl,SAT:4.31134:31.0:300.0:-1
ipc-2014-agile-ged-d-10-4.pddl,SAT:4.03224:24.0:300.0:-1
ipc-2014-agile-ged-d-10-5.pddl,SAT:5.87412:33.0:300.0:-1
ipc-2014-agile-ged-d-10-6.pddl,SAT:5.65992:34.0:300.0:-1
ipc-2014-agile-ged-d-11-1.pddl,SAT:3.93585:27.0:300.0:-1
ipc-2014-agile-ged-d-11-3.pddl,SAT:3.94685:28.0:300.0:-1
ipc-2014-agile-ged-d-11-5.pddl,SAT:4.85145:30.0:300.0:-1
ipc-2014-agile-ged-d-11-6.pddl,SAT:4.5334:37.0:300.0:-1
ipc-2014-agile-ged-d-12-11.pddl,SAT:4.28611:27.0:300.0:-1
ipc-2014-agile-ged-d-12-2.pddl,SAT:6.74515:40.0:300.0:-1
ipc-2014-agile-ged-d-12-3.pddl,SAT:11.6297:61.0:300.0:-1
ipc-2014-agile-ged-d-12-5.pddl,SAT:9.49089:60.0:300.0:-1
ipc-2014-agile-ged-d-12-6.pddl,SAT:7.62414:39.0:300.0:-1
ipc-2014-agile-ged-d-12-7.pddl,SAT:8.37729:44.0:300.0:-1
ipc-2014-agile-ged-d-12-8.pddl,SAT:16.5359:71.0:300.0:-1
ipc-2014-agile-ged-d-12-9.pddl,SAT:13.4362:70.0:300.0:-1
ipc-2014-agile-ged-d-3-6.pddl,SAT:4.18634:29.0:300.0:-1
ipc-2014-agile-ged-d-9-5.pddl,SAT:4.37531:26.0:300.0:-1
ipc-2014-agile-hiking-3-4-3.pddl,SAT:1.63105:13.0:300.0:-1
ipc-2014-agile-hiking-3-4-4.pddl,SAT:2.36436:24.0:300.0:-1
ipc-2014-agile-hiking-3-4-5.pddl,TIMEOUT:301.09:-1.0:300.0:-1
ipc-2014-agile-hiking-3-4-6.pddl,TIMEOUT:301.08:-1.0:300.0:-1
ipc-2014-agile-hiking-3-4-7.pddl,TIMEOUT:301.06:-1.0:300.0:-1
ipc-2014-agile-hiking-3-4-8.pddl,TIMEOUT:301.09:-1.0:300.0:-1
ipc-2014-agile-hiking-3-4-9.pddl,TIMEOUT:301.04:-1.0:300.0:-1
ipc-2014-agile-hiking-4-5-3.pddl,SAT:3.06229:15.0:300.0:-1
ipc-2014-agile-hiking-4-5-4.pddl,SAT:4.99951:22.0:300.0:-1
ipc-2014-agile-hiking-4-5-5.pddl,SAT:8.30078:32.0:300.0:-1
ipc-2014-agile-hiking-4-5-6.pddl,TIMEOUT:301.05:-1.0:300.0:-1
ipc-2014-agile-hiking-4-5-7.pddl,TIMEOUT:301.04:-1.0:300.0:-1
ipc-2014-agile-hiking-4-5-8.pddl,TIMEOUT:301.0:-1.0:300.0:-1
ipc-2014-agile-hiking-4-5-9.pddl,TIMEOUT:301.01:-1.0:300.0:-1
ipc-2014-agile-hiking-5-6-3.pddl,SAT:5.71321:18.0:300.0:-1
ipc-2014-agile-hiking-5-6-4.pddl,SAT:11.4621:27.0:300.0:-1
ipc-2014-agile-hiking-5-6-5.pddl,SAT:21.2307:34.0:300.0:-1
ipc-2014-agile-hiking-5-6-6.pddl,TIMEOUT:301.08:-1.0:300.0:-1
ipc-2014-agile-hiking-5-6-7.pddl,TIMEOUT:301.02:-1.0:300.0:-1
ipc-2014-agile-hiking-5-6-8.pddl,TIMEOUT:301.07:-1.0:300.0:-1
ipc-2014-agile-maintenance-1.3.060.180.5-000.pddl,TIMEOUT:301.01:-1.0:300.0:-1
ipc-2014-agile-maintenance-1.3.060.180.5-001.pddl,TIMEOUT:301.03:-1.0:300.0:-1
ipc-2014-agile-maintenance-1.3.060.180.5-002.pddl,TIMEOUT:301.02:-1.0:300.0:-1
ipc-2014-agile-maintenance-1.3.100.300.5-000.pddl,TIMEOUT:301.0:-1.0:300.0:-1
ipc-2014-agile-maintenance-1.3.100.300.5-001.pddl,TIMEOUT:301.01:-1.0:300.0:-1
ipc-2014-agile-maintenance-1.3.100.300.7-000.pddl,SAT:1.28522:82.0:300.0:-1
ipc-2014-agile-maintenance-1.3.100.300.7-001.pddl,SAT:1.23383:77.0:300.0:-1
ipc-2014-agile-maintenance-1.3.100.300.7-002.pddl,SAT:1.23344:74.0:300.0:-1
ipc-2014-agile-maintenance-1.3.150.500.6-001.pddl,SAT:2.17118:133.0:300.0:-1
ipc-2014-agile-maintenance-1.3.200.500.5-001.pddl,TIMEOUT:301.04:-1.0:300.0:-1
ipc-2014-agile-maintenance-1.3.200.500.5-002.pddl,TIMEOUT:301.01:-1.0:300.0:-1
ipc-2014-agile-maintenance-1.3.200.700.7-000.pddl,SAT:3.73087:173.0:300.0:-1
ipc-2014-agile-maintenance-1.3.200.700.7-001.pddl,SAT:2.53263:168.0:300.0:-1
ipc-2014-agile-maintenance-1.3.200.700.7-002.pddl,SAT:2.37878:169.0:300.0:-1
ipc-2014-agile-maintenance-1.3.200.900.5-000.pddl,TIMEOUT:301.02:-1.0:300.0:-1
ipc-2014-agile-maintenance-1.3.200.900.5-001.pddl,TIMEOUT:301.02:-1.0:300.0:-1
ipc-2014-agile-maintenance-1.3.200.900.5-002.pddl,TIMEOUT:301.01:-1.0:300.0:-1
ipc-2014-agile-maintenance-1.3.200.900.8-000.pddl,SAT:4.62299:166.0:300.0:-1
ipc-2014-agile-maintenance-1.3.200.900.8-001.pddl,SAT:4.70115:160.0:300.0:-1
ipc-2014-agile-maintenance-1.3.200.900.8-002.pddl,SAT:4.58421:168.0:300.0:-1
ipc-2014-agile-openstacks-p130_2.pddl,SAT:17.4685:50.0:300.0:-1
ipc-2014-agile-openstacks-p130_3.pddl,SAT:32.6907:104.0:300.0:-1
ipc-2014-agile-openstacks-p150_2.pddl,SAT:27.543:54.0:300.0:-1
ipc-2014-agile-openstacks-p150_3.pddl,SAT:62.1117:128.0:300.0:-1
ipc-2014-agile-openstacks-p170_1.pddl,SAT:40.2549:55.0:300.0:-1
ipc-2014-agile-openstacks-p170_2.pddl,SAT:50.3822:80.0:300.0:-1
ipc-2014-agile-openstacks-p170_3.pddl,SAT:102.025:141.0:300.0:-1
ipc-2014-agile-openstacks-p190_1.pddl,SAT:70.9871:76.0:300.0:-1
ipc-2014-agile-openstacks-p190_2.pddl,SAT:95.1426:94.0:300.0:-1
ipc-2014-agile-openstacks-p190_3.pddl,SAT:157.774:164.0:300.0:-1
ipc-2014-agile-openstacks-p210_1.pddl,SAT:86.5861:89.0:300.0:-1
ipc-2014-agile-openstacks-p210_2.pddl,SAT:101.048:102.0:300.0:-1
ipc-2014-agile-openstacks-p230_1.pddl,SAT:126.003:79.0:300.0:-1
ipc-2014-agile-openstacks-p230_2.pddl,SAT:222.515:112.0:300.0:-1
ipc-2014-agile-openstacks-p250_1.pddl,SAT:281.103:117.0:300.0:-1
ipc-2014-agile-openstacks-p250_2.pddl,TIMEOUT:301.09:-1.0:300.0:-1
ipc-2014-agile-openstacks-p270_1.pddl,TIMEOUT:301.06:-1.0:300.0:-1
ipc-2014-agile-openstacks-p270_2.pddl,TIMEOUT:301.05:-1.0:300.0:-1
ipc-2014-agile-openstacks-p290_1.pddl,TIMEOUT:301.06:-1.0:300.0:-1
ipc-2014-agile-openstacks-p290_2.pddl,TIMEOUT:301.06:-1.0:300.0:-1
ipc-2014-agile-parking-28_2.pddl,SAT:87.3147:135.0:300.0:-1
ipc-2014-agile-parking-28_3.pddl,SAT:100.959:109.0:300.0:-1
ipc-2014-agile-parking-30_1.pddl,SAT:245.088:109.0:300.0:-1
ipc-2014-agile-parking-30_2.pddl,SAT:89.8021:73.0:300.0:-1
ipc-2014-agile-parking-30_3.pddl,TIMEOUT:301.03:-1.0:300.0:-1
ipc-2014-agile-parking-32_1.pddl,SAT:249.849:119.0:300.0:-1
ipc-2014-agile-parking-32_2.pddl,SAT:193.889:104.0:300.0:-1
ipc-2014-agile-parking-32_3.pddl,SAT:220.88:105.0:300.0:-1
ipc-2014-agile-parking-34_1.pddl,TIMEOUT:301.01:-1.0:300.0:-1
ipc-2014-agile-parking-34_2.pddl,TIMEOUT:301.05:-1.0:300.0:-1
ipc-2014-agile-parking-34_3.pddl,TIMEOUT:301.0:-1.0:300.0:-1
ipc-2014-agile-parking-36_1.pddl,SAT:130.717:116.0:300.0:-1
ipc-2014-agile-parking-36_2.pddl,TIMEOUT:301.07:-1.0:300.0:-1
ipc-2014-agile-parking-36_3.pddl,TIMEOUT:301.03:-1.0:300.0:-1
ipc-2014-agile-parking-38_1.pddl,TIMEOUT:301.04:-1.0:300.0:-1
ipc-2014-agile-parking-38_2.pddl,TIMEOUT:301.05:-1.0:300.0:-1
ipc-2014-agile-parking-38_3.pddl,TIMEOUT:301.02:-1.0:300.0:-1
ipc-2014-agile-parking-40_1.pddl,TIMEOUT:301.08:-1.0:300.0:-1
ipc-2014-agile-parking-40_2.pddl,TIMEOUT:301.06:-1.0:300.0:-1
ipc-2014-agile-parking-40_3.pddl,TIMEOUT:301.08:-1.0:300.0:-1
ipc-2014-agile-tetris-020.pddl,SAT:4.64673:60.0:300.0:-1
ipc-2014-agile-tetris-021.pddl,SAT:111.909:110.0:300.0:-1
ipc-2014-agile-tetris-022.pddl,SAT:219.094:184.0:300.0:-1
ipc-2014-agile-tetris-023.pddl,SAT:198.461:116.0:300.0:-1
ipc-2014-agile-tetris-024.pddl,SAT:253.586:129.0:300.0:-1
ipc-2014-agile-tetris-025.pddl,SAT:35.5625:96.0:300.0:-1
ipc-2014-agile-tetris-026.pddl,TIMEOUT:301.02:-1.0:300.0:-1
ipc-2014-agile-tetris-027.pddl,TIMEOUT:301.07:-1.0:300.0:-1
ipc-2014-agile-tetris-028.pddl,TIMEOUT:301.0:-1.0:300.0:-1
ipc-2014-agile-tetris-029.pddl,TIMEOUT:301.03:-1.0:300.0:-1
ipc-2014-agile-tetris-031.pddl,TIMEOUT:301.04:-1.0:300.0:-1
ipc-2014-agile-tetris-032.pddl,TIMEOUT:301.02:-1.0:300.0:-1
ipc-2014-agile-tetris-033.pddl,TIMEOUT:301.05:-1.0:300.0:-1
ipc-2014-agile-tetris-034.pddl,SAT:141.067:205.0:300.0:-1
ipc-2014-agile-tetris-035.pddl,TIMEOUT:301.07:-1.0:300.0:-1
ipc-2014-agile-tetris-036.pddl,SAT:95.0945:129.0:300.0:-1
ipc-2014-agile-tetris-037.pddl,TIMEOUT:301.1:-1.0:300.0:-1
ipc-2014-agile-tetris-038.pddl,TIMEOUT:301.0:-1.0:300.0:-1
ipc-2014-agile-tetris-039.pddl,TIMEOUT:301.04:-1.0:300.0:-1
ipc-2014-agile-tetris-040.pddl,TIMEOUT:301.05:-1.0:300.0:-1
ipc-2014-agile-thoughtful-bootstrap-typed-01.pddl,CRASHED:0.292167:1000000000.0:300.0:-1
ipc-2014-agile-thoughtful-bootstrap-typed-02.pddl,CRASHED:0.289507:1000000000.0:300.0:-1
ipc-2014-agile-thoughtful-bootstrap-typed-03.pddl,CRASHED:0.289886:1000000000.0:300.0:-1
ipc-2014-agile-thoughtful-bootstrap-typed-04.pddl,CRASHED:0.265643:1000000000.0:300.0:-1
ipc-2014-agile-thoughtful-bootstrap-typed-05.pddl,CRASHED:0.280864:1000000000.0:300.0:-1
ipc-2014-agile-thoughtful-p11_6_53-typed.pddl,CRASHED:0.28391:1000000000.0:300.0:-1
ipc-2014-agile-thoughtful-p11_6_59-typed.pddl,CRASHED:0.309604:1000000000.0:300.0:-1
ipc-2014-agile-thoughtful-p11_6_62-typed.pddl,CRASHED:0.291333:1000000000.0:300.0:-1
ipc-2014-agile-thoughtful-p13_7_78-typed.pddl,CRASHED:0.286161:1000000000.0:300.0:-1
ipc-2014-agile-thoughtful-p13_7_79-typed.pddl,CRASHED:0.302602:1000000000.0:300.0:-1
ipc-2014-agile-thoughtful-p13_7_86-typed.pddl,CRASHED:0.300173:1000000000.0:300.0:-1
ipc-2014-agile-thoughtful-target-typed-20.pddl,CRASHED:0.307619:1000000000.0:300.0:-1
ipc-2014-agile-thoughtful-target-typed-21.pddl,CRASHED:0.306826:1000000000.0:300.0:-1
ipc-2014-agile-thoughtful-target-typed-22.pddl,CRASHED:0.301619:1000000000.0:300.0:-1
ipc-2014-agile-thoughtful-target-typed-23.pddl,CRASHED:0.288325:1000000000.0:300.0:-1
ipc-2014-agile-thoughtful-target-typed-24.pddl,CRASHED:0.301864:1000000000.0:300.0:-1
ipc-2014-agile-thoughtful-target-typed-25.pddl,CRASHED:0.310219:1000000000.0:300.0:-1
ipc-2014-agile-thoughtful-target-typed-26.pddl,CRASHED:0.313958:1000000000.0:300.0:-1
ipc-2014-agile-thoughtful-target-typed-27.pddl,CRASHED:0.31759:1000000000.0:300.0:-1
ipc-2014-agile-thoughtful-target-typed-28.pddl,CRASHED:0.315119:1000000000.0:300.0:-1
ipc-2014-agile-transport-01.pddl,SAT:6.46788:1474.0:300.0:-1
ipc-2014-agile-transport-02.pddl,SAT:8.4101:2528.0:300.0:-1
ipc-2014-agile-transport-03.pddl,SAT:7.0596:1885.0:300.0:-1
ipc-2014-agile-transport-04.pddl,SAT:22.5771:6061.0:300.0:-1
ipc-2014-agile-transport-05.pddl,SAT:28.129:9166.0:300.0:-1
ipc-2014-agile-transport-06.pddl,SAT:22.8501:6061.0:300.0:-1
ipc-2014-agile-transport-07.pddl,SAT:41.295:5686.0:300.0:-1
ipc-2014-agile-transport-08.pddl,SAT:51.6868:4725.0:300.0:-1
ipc-2014-agile-transport-09.pddl,SAT:40.8961:5686.0:300.0:-1
ipc-2014-agile-transport-10.pddl,SAT:39.3377:5638.0:300.0:-1
ipc-2014-agile-transport-11.pddl,SAT:9.90504:1687.0:300.0:-1
ipc-2014-agile-transport-12.pddl,SAT:10.4246:1868.0:300.0:-1
ipc-2014-agile-transport-13.pddl,SAT:5.58293:1691.0:300.0:-1
ipc-2014-agile-transport-14.pddl,SAT:20.2537:6850.0:300.0:-1
ipc-2014-agile-transport-15.pddl,SAT:21.1157:6947.0:300.0:-1
ipc-2014-agile-transport-16.pddl,SAT:12.9333:5952.0:300.0:-1
ipc-2014-agile-transport-17.pddl,SAT:35.8262:5963.0:300.0:-1
ipc-2014-agile-transport-18.pddl,SAT:49.925:5825.0:300.0:-1
ipc-2014-agile-transport-19.pddl,SAT:30.0832:4418.0:300.0:-1
ipc-2014-agile-transport-20.pddl,SAT:52.5342:6118.0:300.0:-1
ipc-2014-agile-visitall-30.pddl,SAT:7.94958:909.0:300.0:-1
ipc-2014-agile-visitall-31.pddl,SAT:9.19866:980.0:300.0:-1
ipc-2014-agile-visitall-32.pddl,SAT:10.7024:1033.0:300.0:-1
ipc-2014-agile-visitall-33.pddl,SAT:12.6276:1118.0:300.0:-1
ipc-2014-agile-visitall-50.pddl,SAT:124.644:2509.0:300.0:-1
ipc-2014-agile-visitall-51.pddl,SAT:139.413:2620.0:300.0:-1
ipc-2014-agile-visitall-52.pddl,SAT:156.16:2713.0:300.0:-1
ipc-2014-agile-visitall-53.pddl,SAT:175.898:2858.0:300.0:-1
ipc-2014-agile-visitall-54.pddl,SAT:196.029:2925.0:300.0:-1
ipc-2014-agile-visitall-55.pddl,SAT:220.311:3044.0:300.0:-1
ipc-2014-agile-visitall-56.pddl,SAT:243.573:3145.0:300.0:-1
ipc-2014-agile-visitall-57.pddl,SAT:270.849:3302.0:300.0:-1
ipc-2014-agile-visitall-58.pddl,TIMEOUT:301.01:-1.0:300.0:-1
ipc-2014-agile-visitall-59.pddl,SAT:288.319:3500.0:300.0:-1
ipc-2014-agile-visitall-60.pddl,TIMEOUT:301.06:-1.0:300.0:-1
ipc-2014-agile-visitall-61.pddl,TIMEOUT:301.1:-1.0:300.0:-1
ipc-2014-agile-visitall-62.pddl,TIMEOUT:301.0:-1.0:300.0:-1
ipc-2014-agile-visitall-63.pddl,TIMEOUT:301.08:-1.0:300.0:-1
ipc-2014-agile-visitall-64.pddl,TIMEOUT:301.08:-1.0:300.0:-1
ipc-2014-agile-visitall-65.pddl,TIMEOUT:301.05:-1.0:300.0:-1
