instance,ipc-2014-agile-siw
ipc-2014-agile-barman-p1-11-4-15.pddl,TIMEOUT:301.056:-1.0:300.0:-1
ipc-2014-agile-barman-p1-11-5-15.pddl,TIMEOUT:301.077:-1.0:300.0:-1
ipc-2014-agile-barman-p1-11-5-16.pddl,CRASHED:0.480295:1000000000.0:300.0:-1
ipc-2014-agile-barman-p2-10-4-13.pddl,TIMEOUT:301.033:-1.0:300.0:-1
ipc-2014-agile-barman-p2-11-4-15.pddl,TIMEOUT:301.034:-1.0:300.0:-1
ipc-2014-agile-barman-p2-11-5-15.pddl,TIMEOUT:301.067:-1.0:300.0:-1
ipc-2014-agile-barman-p2-11-5-16.pddl,CRASHED:0.479923:1000000000.0:300.0:-1
ipc-2014-agile-barman-p2-11-5-17.pddl,CRASHED:0.54577:1000000000.0:300.0:-1
ipc-2014-agile-barman-p3-10-4-13.pddl,TIMEOUT:301.087:-1.0:300.0:-1
ipc-2014-agile-barman-p3-11-4-15.pddl,TIMEOUT:301.08:-1.0:300.0:-1
ipc-2014-agile-barman-p3-11-5-15.pddl,TIMEOUT:301.109:-1.0:300.0:-1
ipc-2014-agile-barman-p3-11-5-16.pddl,CRASHED:0.434429:1000000000.0:300.0:-1
ipc-2014-agile-barman-p3-11-5-17.pddl,CRASHED:0.551487:1000000000.0:300.0:-1
ipc-2014-agile-barman-p4-11-4-14.pddl,TIMEOUT:301.118:-1.0:300.0:-1
ipc-2014-agile-barman-p4-11-4-15.pddl,TIMEOUT:301.046:-1.0:300.0:-1
ipc-2014-agile-barman-p4-11-5-15.pddl,TIMEOUT:301.08:-1.0:300.0:-1
ipc-2014-agile-barman-p5-10-4-13.pddl,TIMEOUT:301.106:-1.0:300.0:-1
ipc-2014-agile-barman-p5-11-4-15.pddl,TIMEOUT:301.085:-1.0:300.0:-1
ipc-2014-agile-barman-p5-11-5-15.pddl,TIMEOUT:301.06:-1.0:300.0:-1
ipc-2014-agile-barman-p5-11-5-16.pddl,CRASHED:0.458739:1000000000.0:300.0:-1
ipc-2014-agile-cavediving-01_easy.pddl,CRASHED:0.257869:1000000000.0:300.0:-1
ipc-2014-agile-cavediving-01.pddl,CRASHED:0.268001:1000000000.0:300.0:-1
ipc-2014-agile-cavediving-02_easy.pddl,CRASHED:0.24965:1000000000.0:300.0:-1
ipc-2014-agile-cavediving-03_easy.pddl,CRASHED:0.243822:1000000000.0:300.0:-1
ipc-2014-agile-cavediving-04_easy.pddl,CRASHED:0.250125:1000000000.0:300.0:-1
ipc-2014-agile-cavediving-05A_easy.pddl,CRASHED:0.128473:1000000000.0:300.0:-1
ipc-2014-agile-cavediving-06A_easy.pddl,CRASHED:0.129435:1000000000.0:300.0:-1
ipc-2014-agile-cavediving-07_easy.pddl,CRASHED:0.129533:1000000000.0:300.0:-1
ipc-2014-agile-cavediving-08_easy.pddl,CRASHED:0.130074:1000000000.0:300.0:-1
ipc-2014-agile-cavediving-09_easy.pddl,CRASHED:2.57186:1000000000.0:300.0:-1
ipc-2014-agile-cavediving-10_easy.pddl,CRASHED:2.77728:1000000000.0:300.0:-1
ipc-2014-agile-cavediving-11_easy.pddl,CRASHED:2.7359:1000000000.0:300.0:-1
ipc-2014-agile-cavediving-12_easy.pddl,CRASHED:2.80741:1000000000.0:300.0:-1
ipc-2014-agile-cavediving-13_easy.pddl,CRASHED:0.447911:1000000000.0:300.0:-1
ipc-2014-agile-cavediving-14_easy.pddl,CRASHED:0.411963:1000000000.0:300.0:-1
ipc-2014-agile-cavediving-15_easy.pddl,CRASHED:0.328265:1000000000.0:300.0:-1
ipc-2014-agile-cavediving-16_easy.pddl,CRASHED:0.432307:1000000000.0:300.0:-1
ipc-2014-agile-cavediving-18A_easy.pddl,CRASHED:0.030952:1000000000.0:300.0:-1
ipc-2014-agile-cavediving-18_easy.pddl,CRASHED:0.036033:1000000000.0:300.0:-1
ipc-2014-agile-cavediving-20A_easy.pddl,CRASHED:0.032007:1000000000.0:300.0:-1
ipc-2014-agile-childsnack-05-2.pddl,CRASHED:67.2756:1000000000.0:300.0:-1
ipc-2014-agile-childsnack-05.pddl,CRASHED:66.783:1000000000.0:300.0:-1
ipc-2014-agile-childsnack-06-2.pddl,CRASHED:210.553:1000000000.0:300.0:-1
ipc-2014-agile-childsnack-07-2.pddl,TIMEOUT:301.079:-1.0:300.0:-1
ipc-2014-agile-childsnack-08-2.pddl,TIMEOUT:301.031:-1.0:300.0:-1
ipc-2014-agile-childsnack-08.pddl,TIMEOUT:301.066:-1.0:300.0:-1
ipc-2014-agile-childsnack-09-2.pddl,TIMEOUT:301.094:-1.0:300.0:-1
ipc-2014-agile-childsnack-09.pddl,TIMEOUT:301.038:-1.0:300.0:-1
ipc-2014-agile-childsnack-10-2.pddl,TIMEOUT:301.102:-1.0:300.0:-1
ipc-2014-agile-childsnack-10.pddl,TIMEOUT:301.057:-1.0:300.0:-1
ipc-2014-agile-childsnack-11-2.pddl,TIMEOUT:301.023:-1.0:300.0:-1
ipc-2014-agile-childsnack-11.pddl,TIMEOUT:301.058:-1.0:300.0:-1
ipc-2014-agile-childsnack-12.pddl,TIMEOUT:301.113:-1.0:300.0:-1
ipc-2014-agile-childsnack-13-2.pddl,TIMEOUT:301.102:-1.0:300.0:-1
ipc-2014-agile-childsnack-13.pddl,TIMEOUT:301.086:-1.0:300.0:-1
ipc-2014-agile-childsnack-14.pddl,TIMEOUT:301.018:-1.0:300.0:-1
ipc-2014-agile-childsnack-15-2.pddl,TIMEOUT:301.027:-1.0:300.0:-1
ipc-2014-agile-childsnack-16-2.pddl,TIMEOUT:301.098:-1.0:300.0:-1
ipc-2014-agile-childsnack-19-2.pddl,TIMEOUT:301.078:-1.0:300.0:-1
ipc-2014-agile-childsnack-19.pddl,TIMEOUT:301.026:-1.0:300.0:-1
ipc-2014-agile-citycar-p3-2-2-0-1.pddl,SAT:11.7317:88.0:300.0:-1
ipc-2014-agile-citycar-p3-3-2-0-1.pddl,SAT:18.7224:142.0:300.0:-1
ipc-2014-agile-citycar-p3-4-2-0-1.pddl,SAT:15.3873:106.0:300.0:-1
ipc-2014-agile-citycar-p3-5-2-0-1.pddl,SAT:21.299:150.0:300.0:-1
ipc-2014-agile-citycar-p3-5-2-0-2.pddl,SAT:18.7289:90.0:300.0:-1
ipc-2014-agile-citycar-p4-2-2-0-1.pddl,SAT:264.137:152.0:300.0:-1
ipc-2014-agile-citycar-p4-2-3-0-1.pddl,SAT:270.887:142.0:300.0:-1
ipc-2014-agile-citycar-p4-2-3-0-2.pddl,SAT:266.955:122.0:300.0:-1
ipc-2014-agile-citycar-p4-3-2-0-1.pddl,SAT:289.605:118.0:300.0:-1
ipc-2014-agile-citycar-p4-3-2-0-2.pddl,TIMEOUT:301.08:-1.0:300.0:-1
ipc-2014-agile-citycar-p4-3-3-0-1.pddl,TIMEOUT:301.016:-1.0:300.0:-1
ipc-2014-agile-citycar-p4-3-3-0-2.pddl,TIMEOUT:301.049:-1.0:300.0:-1
ipc-2014-agile-citycar-p4-4-2-0-1.pddl,TIMEOUT:301.074:-1.0:300.0:-1
ipc-2014-agile-citycar-p4-4-2-0-2.pddl,SAT:255.38:164.0:300.0:-1
ipc-2014-agile-citycar-p4-4-3-0-1.pddl,TIMEOUT:301.029:-1.0:300.0:-1
ipc-2014-agile-citycar-p4-4-3-0-2.pddl,TIMEOUT:301.022:-1.0:300.0:-1
ipc-2014-agile-citycar-p4-5-2-0-1.pddl,TIMEOUT:301.115:-1.0:300.0:-1
ipc-2014-agile-citycar-p4-5-2-0-2.pddl,TIMEOUT:301.117:-1.0:300.0:-1
ipc-2014-agile-citycar-p4-5-3-0-1.pddl,TIMEOUT:301.086:-1.0:300.0:-1
ipc-2014-agile-citycar-p4-5-3-0-2.pddl,TIMEOUT:301.036:-1.0:300.0:-1
ipc-2014-agile-floortile-p01-4-3-2.pddl,CRASHED:1.32678:1000000000.0:300.0:-1
ipc-2014-agile-floortile-p01-5-4-2.pddl,CRASHED:0.299106:1000000000.0:300.0:-1
ipc-2014-agile-floortile-p01-5-5-2.pddl,CRASHED:1.13676:1000000000.0:300.0:-1
ipc-2014-agile-floortile-p01-6-4-2.pddl,CRASHED:1.0569:1000000000.0:300.0:-1
ipc-2014-agile-floortile-p01-6-5-2.pddl,CRASHED:5.0325:1000000000.0:300.0:-1
ipc-2014-agile-floortile-p01-6-5-3.pddl,CRASHED:33.49:1000000000.0:300.0:-1
ipc-2014-agile-floortile-p02-5-4-2.pddl,CRASHED:0.27075:1000000000.0:300.0:-1
ipc-2014-agile-floortile-p02-6-4-2.pddl,CRASHED:2.07937:1000000000.0:300.0:-1
ipc-2014-agile-floortile-p02-6-5-2.pddl,CRASHED:1.09591:1000000000.0:300.0:-1
ipc-2014-agile-floortile-p02-6-5-3.pddl,CRASHED:8.10699:1000000000.0:300.0:-1
ipc-2014-agile-floortile-p03-6-4-2.pddl,CRASHED:0.672469:1000000000.0:300.0:-1
ipc-2014-agile-floortile-p03-6-5-2.pddl,CRASHED:5.30919:1000000000.0:300.0:-1
ipc-2014-agile-floortile-p03-6-5-3.pddl,CRASHED:4.54539:1000000000.0:300.0:-1
ipc-2014-agile-floortile-p04-5-4-2.pddl,CRASHED:0.192203:1000000000.0:300.0:-1
ipc-2014-agile-floortile-p04-5-5-2.pddl,CRASHED:0.715099:1000000000.0:300.0:-1
ipc-2014-agile-floortile-p04-6-5-2.pddl,CRASHED:1.53659:1000000000.0:300.0:-1
ipc-2014-agile-floortile-p04-6-5-3.pddl,CRASHED:9.22591:1000000000.0:300.0:-1
ipc-2014-agile-floortile-p05-4-3-2.pddl,CRASHED:0.478394:1000000000.0:300.0:-1
ipc-2014-agile-floortile-p05-6-5-2.pddl,CRASHED:2.76715:1000000000.0:300.0:-1
ipc-2014-agile-floortile-p05-6-5-3.pddl,CRASHED:5.75286:1000000000.0:300.0:-1
ipc-2014-agile-ged-d-10-1.pddl,CRASHED:2.09989:1000000000.0:300.0:-1
ipc-2014-agile-ged-d-10-2.pddl,CRASHED:2.10593:1000000000.0:300.0:-1
ipc-2014-agile-ged-d-10-3.pddl,CRASHED:2.80945:1000000000.0:300.0:-1
ipc-2014-agile-ged-d-10-4.pddl,CRASHED:2.27127:1000000000.0:300.0:-1
ipc-2014-agile-ged-d-10-5.pddl,CRASHED:5.78594:1000000000.0:300.0:-1
ipc-2014-agile-ged-d-10-6.pddl,CRASHED:6.1701:1000000000.0:300.0:-1
ipc-2014-agile-ged-d-11-1.pddl,CRASHED:3.04426:1000000000.0:300.0:-1
ipc-2014-agile-ged-d-11-3.pddl,CRASHED:3.18065:1000000000.0:300.0:-1
ipc-2014-agile-ged-d-11-5.pddl,CRASHED:4.63457:1000000000.0:300.0:-1
ipc-2014-agile-ged-d-11-6.pddl,CRASHED:3.90833:1000000000.0:300.0:-1
ipc-2014-agile-ged-d-12-11.pddl,CRASHED:3.91655:1000000000.0:300.0:-1
ipc-2014-agile-ged-d-12-2.pddl,CRASHED:8.98067:1000000000.0:300.0:-1
ipc-2014-agile-ged-d-12-3.pddl,CRASHED:10.5011:1000000000.0:300.0:-1
ipc-2014-agile-ged-d-12-5.pddl,CRASHED:20.9236:1000000000.0:300.0:-1
ipc-2014-agile-ged-d-12-6.pddl,CRASHED:9.813:1000000000.0:300.0:-1
ipc-2014-agile-ged-d-12-7.pddl,CRASHED:11.1246:1000000000.0:300.0:-1
ipc-2014-agile-ged-d-12-8.pddl,CRASHED:16.0052:1000000000.0:300.0:-1
ipc-2014-agile-ged-d-12-9.pddl,CRASHED:16.8353:1000000000.0:300.0:-1
ipc-2014-agile-ged-d-3-6.pddl,CRASHED:2.67667:1000000000.0:300.0:-1
ipc-2014-agile-ged-d-9-5.pddl,SAT:1.54386:20.0:300.0:-1
ipc-2014-agile-hiking-3-4-3.pddl,SAT:0.339017:13.0:300.0:-1
ipc-2014-agile-hiking-3-4-4.pddl,SAT:142.327:27.0:300.0:-1
ipc-2014-agile-hiking-3-4-5.pddl,TIMEOUT:301.065:-1.0:300.0:-1
ipc-2014-agile-hiking-3-4-6.pddl,TIMEOUT:301.008:-1.0:300.0:-1
ipc-2014-agile-hiking-3-4-7.pddl,TIMEOUT:301.087:-1.0:300.0:-1
ipc-2014-agile-hiking-3-4-8.pddl,TIMEOUT:301.034:-1.0:300.0:-1
ipc-2014-agile-hiking-3-4-9.pddl,TIMEOUT:301.064:-1.0:300.0:-1
ipc-2014-agile-hiking-4-5-3.pddl,SAT:1.99566:15.0:300.0:-1
ipc-2014-agile-hiking-4-5-4.pddl,TIMEOUT:301.032:-1.0:300.0:-1
ipc-2014-agile-hiking-4-5-5.pddl,TIMEOUT:301.052:-1.0:300.0:-1
ipc-2014-agile-hiking-4-5-6.pddl,TIMEOUT:301.047:-1.0:300.0:-1
ipc-2014-agile-hiking-4-5-7.pddl,TIMEOUT:301.072:-1.0:300.0:-1
ipc-2014-agile-hiking-4-5-8.pddl,TIMEOUT:301.119:-1.0:300.0:-1
ipc-2014-agile-hiking-4-5-9.pddl,TIMEOUT:301.071:-1.0:300.0:-1
ipc-2014-agile-hiking-5-6-3.pddl,SAT:11.134:17.0:300.0:-1
ipc-2014-agile-hiking-5-6-4.pddl,TIMEOUT:301.078:-1.0:300.0:-1
ipc-2014-agile-hiking-5-6-5.pddl,TIMEOUT:301.065:-1.0:300.0:-1
ipc-2014-agile-hiking-5-6-6.pddl,TIMEOUT:301.073:-1.0:300.0:-1
ipc-2014-agile-hiking-5-6-7.pddl,TIMEOUT:301.16:-1.0:300.0:-1
ipc-2014-agile-hiking-5-6-8.pddl,TIMEOUT:301.164:-1.0:300.0:-1
ipc-2014-agile-maintenance-1.3.060.180.5-000.pddl,CRASHED:0.116829:1000000000.0:300.0:-1
ipc-2014-agile-maintenance-1.3.060.180.5-001.pddl,CRASHED:31.6265:1000000000.0:300.0:-1
ipc-2014-agile-maintenance-1.3.060.180.5-002.pddl,CRASHED:1.9924:1000000000.0:300.0:-1
ipc-2014-agile-maintenance-1.3.100.300.5-000.pddl,CRASHED:240.36:1000000000.0:300.0:-1
ipc-2014-agile-maintenance-1.3.100.300.5-001.pddl,CRASHED:141.284:1000000000.0:300.0:-1
ipc-2014-agile-maintenance-1.3.100.300.7-000.pddl,CRASHED:95.5868:1000000000.0:300.0:-1
ipc-2014-agile-maintenance-1.3.100.300.7-001.pddl,CRASHED:44.283:1000000000.0:300.0:-1
ipc-2014-agile-maintenance-1.3.100.300.7-002.pddl,TIMEOUT:301.022:-1.0:300.0:-1
ipc-2014-agile-maintenance-1.3.150.500.6-001.pddl,CRASHED:4.41519:1000000000.0:300.0:-1
ipc-2014-agile-maintenance-1.3.200.500.5-001.pddl,CRASHED:7.48682:1000000000.0:300.0:-1
ipc-2014-agile-maintenance-1.3.200.500.5-002.pddl,CRASHED:6.81144:1000000000.0:300.0:-1
ipc-2014-agile-maintenance-1.3.200.700.7-000.pddl,CRASHED:1.62196:1000000000.0:300.0:-1
ipc-2014-agile-maintenance-1.3.200.700.7-001.pddl,CRASHED:1.63053:1000000000.0:300.0:-1
ipc-2014-agile-maintenance-1.3.200.700.7-002.pddl,CRASHED:1.62668:1000000000.0:300.0:-1
ipc-2014-agile-maintenance-1.3.200.900.5-000.pddl,CRASHED:1.50203:1000000000.0:300.0:-1
ipc-2014-agile-maintenance-1.3.200.900.5-001.pddl,CRASHED:1.51406:1000000000.0:300.0:-1
ipc-2014-agile-maintenance-1.3.200.900.5-002.pddl,CRASHED:1.49717:1000000000.0:300.0:-1
ipc-2014-agile-maintenance-1.3.200.900.8-000.pddl,CRASHED:1.52845:1000000000.0:300.0:-1
ipc-2014-agile-maintenance-1.3.200.900.8-001.pddl,CRASHED:1.53548:1000000000.0:300.0:-1
ipc-2014-agile-maintenance-1.3.200.900.8-002.pddl,CRASHED:1.5184:1000000000.0:300.0:-1
ipc-2014-agile-openstacks-p130_2.pddl,CRASHED:160.661:1000000000.0:300.0:-1
ipc-2014-agile-openstacks-p130_3.pddl,CRASHED:39.7743:1000000000.0:300.0:-1
ipc-2014-agile-openstacks-p150_2.pddl,TIMEOUT:301.082:-1.0:300.0:-1
ipc-2014-agile-openstacks-p150_3.pddl,CRASHED:71.6391:1000000000.0:300.0:-1
ipc-2014-agile-openstacks-p170_1.pddl,TIMEOUT:301.078:-1.0:300.0:-1
ipc-2014-agile-openstacks-p170_2.pddl,CRASHED:263.321:1000000000.0:300.0:-1
ipc-2014-agile-openstacks-p170_3.pddl,CRASHED:118.847:1000000000.0:300.0:-1
ipc-2014-agile-openstacks-p190_1.pddl,TIMEOUT:301.111:-1.0:300.0:-1
ipc-2014-agile-openstacks-p190_2.pddl,TIMEOUT:301.114:-1.0:300.0:-1
ipc-2014-agile-openstacks-p190_3.pddl,CRASHED:184.297:1000000000.0:300.0:-1
ipc-2014-agile-openstacks-p210_1.pddl,TIMEOUT:301.112:-1.0:300.0:-1
ipc-2014-agile-openstacks-p210_2.pddl,TIMEOUT:301.095:-1.0:300.0:-1
ipc-2014-agile-openstacks-p230_1.pddl,TIMEOUT:301.081:-1.0:300.0:-1
ipc-2014-agile-openstacks-p230_2.pddl,TIMEOUT:301.14:-1.0:300.0:-1
ipc-2014-agile-openstacks-p250_1.pddl,TIMEOUT:301.165:-1.0:300.0:-1
ipc-2014-agile-openstacks-p250_2.pddl,TIMEOUT:301.184:-1.0:300.0:-1
ipc-2014-agile-openstacks-p270_1.pddl,TIMEOUT:301.152:-1.0:300.0:-1
ipc-2014-agile-openstacks-p270_2.pddl,TIMEOUT:301.138:-1.0:300.0:-1
ipc-2014-agile-openstacks-p290_1.pddl,TIMEOUT:301.209:-1.0:300.0:-1
ipc-2014-agile-openstacks-p290_2.pddl,TIMEOUT:301.196:-1.0:300.0:-1
ipc-2014-agile-parking-28_2.pddl,SAT:18.9588:52.0:300.0:-1
ipc-2014-agile-parking-28_3.pddl,SAT:19.688:53.0:300.0:-1
ipc-2014-agile-parking-30_1.pddl,SAT:26.9605:50.0:300.0:-1
ipc-2014-agile-parking-30_2.pddl,SAT:27.1382:57.0:300.0:-1
ipc-2014-agile-parking-30_3.pddl,SAT:28.0347:56.0:300.0:-1
ipc-2014-agile-parking-32_1.pddl,SAT:40.2641:60.0:300.0:-1
ipc-2014-agile-parking-32_2.pddl,SAT:37.8853:61.0:300.0:-1
ipc-2014-agile-parking-32_3.pddl,SAT:39.0521:63.0:300.0:-1
ipc-2014-agile-parking-34_1.pddl,SAT:57.9757:69.0:300.0:-1
ipc-2014-agile-parking-34_2.pddl,SAT:56.1128:66.0:300.0:-1
ipc-2014-agile-parking-34_3.pddl,SAT:58.1755:70.0:300.0:-1
ipc-2014-agile-parking-36_1.pddl,SAT:80.4467:74.0:300.0:-1
ipc-2014-agile-parking-36_2.pddl,SAT:83.9894:75.0:300.0:-1
ipc-2014-agile-parking-36_3.pddl,SAT:77.6414:66.0:300.0:-1
ipc-2014-agile-parking-38_1.pddl,SAT:101.171:73.0:300.0:-1
ipc-2014-agile-parking-38_2.pddl,SAT:102.023:71.0:300.0:-1
ipc-2014-agile-parking-38_3.pddl,SAT:101.785:75.0:300.0:-1
ipc-2014-agile-parking-40_1.pddl,SAT:136.118:77.0:300.0:-1
ipc-2014-agile-parking-40_2.pddl,SAT:138.38:79.0:300.0:-1
ipc-2014-agile-parking-40_3.pddl,SAT:126.163:83.0:300.0:-1
ipc-2014-agile-tetris-020.pddl,SAT:66.8713:54.0:300.0:-1
ipc-2014-agile-tetris-021.pddl,SAT:223.332:115.0:300.0:-1
ipc-2014-agile-tetris-022.pddl,SAT:218.03:86.0:300.0:-1
ipc-2014-agile-tetris-023.pddl,SAT:293.363:104.0:300.0:-1
ipc-2014-agile-tetris-024.pddl,TIMEOUT:301.122:-1.0:300.0:-1
ipc-2014-agile-tetris-025.pddl,TIMEOUT:301.09:-1.0:300.0:-1
ipc-2014-agile-tetris-026.pddl,TIMEOUT:301.168:-1.0:300.0:-1
ipc-2014-agile-tetris-027.pddl,TIMEOUT:301.21:-1.0:300.0:-1
ipc-2014-agile-tetris-028.pddl,TIMEOUT:301.249:-1.0:300.0:-1
ipc-2014-agile-tetris-029.pddl,SAT:288.922:95.0:300.0:-1
ipc-2014-agile-tetris-031.pddl,TIMEOUT:301.094:-1.0:300.0:-1
ipc-2014-agile-tetris-032.pddl,TIMEOUT:301.081:-1.0:300.0:-1
ipc-2014-agile-tetris-033.pddl,TIMEOUT:301.076:-1.0:300.0:-1
ipc-2014-agile-tetris-034.pddl,TIMEOUT:301.109:-1.0:300.0:-1
ipc-2014-agile-tetris-035.pddl,TIMEOUT:301.07:-1.0:300.0:-1
ipc-2014-agile-tetris-036.pddl,TIMEOUT:301.061:-1.0:300.0:-1
ipc-2014-agile-tetris-037.pddl,TIMEOUT:301.094:-1.0:300.0:-1
ipc-2014-agile-tetris-038.pddl,TIMEOUT:301.112:-1.0:300.0:-1
ipc-2014-agile-tetris-039.pddl,TIMEOUT:301.063:-1.0:300.0:-1
ipc-2014-agile-tetris-040.pddl,TIMEOUT:301.097:-1.0:300.0:-1
ipc-2014-agile-thoughtful-bootstrap-typed-01.pddl,SAT:0.08331:33.0:300.0:-1
ipc-2014-agile-thoughtful-bootstrap-typed-02.pddl,SAT:0.074105:28.0:300.0:-1
ipc-2014-agile-thoughtful-bootstrap-typed-03.pddl,SAT:0.10619:35.0:300.0:-1
ipc-2014-agile-thoughtful-bootstrap-typed-04.pddl,SAT:0.094041:31.0:300.0:-1
ipc-2014-agile-thoughtful-bootstrap-typed-05.pddl,SAT:0.096951:33.0:300.0:-1
ipc-2014-agile-thoughtful-p11_6_53-typed.pddl,SAT:4.01414:115.0:300.0:-1
ipc-2014-agile-thoughtful-p11_6_59-typed.pddl,SAT:3.07996:111.0:300.0:-1
ipc-2014-agile-thoughtful-p11_6_62-typed.pddl,SAT:3.0005:106.0:300.0:-1
ipc-2014-agile-thoughtful-p13_7_78-typed.pddl,SAT:5.0761:131.0:300.0:-1
ipc-2014-agile-thoughtful-p13_7_79-typed.pddl,SAT:4.67352:126.0:300.0:-1
ipc-2014-agile-thoughtful-p13_7_86-typed.pddl,SAT:4.64095:144.0:300.0:-1
ipc-2014-agile-thoughtful-target-typed-20.pddl,SAT:4.21716:109.0:300.0:-1
ipc-2014-agile-thoughtful-target-typed-21.pddl,CRASHED:5.19499:1000000000.0:300.0:-1
ipc-2014-agile-thoughtful-target-typed-22.pddl,SAT:4.36051:151.0:300.0:-1
ipc-2014-agile-thoughtful-target-typed-23.pddl,SAT:5.13211:136.0:300.0:-1
ipc-2014-agile-thoughtful-target-typed-24.pddl,SAT:4.45063:139.0:300.0:-1
ipc-2014-agile-thoughtful-target-typed-25.pddl,SAT:5.00087:113.0:300.0:-1
ipc-2014-agile-thoughtful-target-typed-26.pddl,SAT:4.37027:135.0:300.0:-1
ipc-2014-agile-thoughtful-target-typed-27.pddl,SAT:4.37546:112.0:300.0:-1
ipc-2014-agile-thoughtful-target-typed-28.pddl,CRASHED:3.90665:1000000000.0:300.0:-1
ipc-2014-agile-transport-01.pddl,SAT:49.2651:2274.0:300.0:-1
ipc-2014-agile-transport-02.pddl,SAT:236.712:3144.0:300.0:-1
ipc-2014-agile-transport-03.pddl,SAT:138.111:2783.0:300.0:-1
ipc-2014-agile-transport-04.pddl,TIMEOUT:301.189:-1.0:300.0:-1
ipc-2014-agile-transport-05.pddl,TIMEOUT:301.194:-1.0:300.0:-1
ipc-2014-agile-transport-06.pddl,TIMEOUT:301.123:-1.0:300.0:-1
ipc-2014-agile-transport-07.pddl,TIMEOUT:301.203:-1.0:300.0:-1
ipc-2014-agile-transport-08.pddl,TIMEOUT:301.203:-1.0:300.0:-1
ipc-2014-agile-transport-09.pddl,TIMEOUT:301.181:-1.0:300.0:-1
ipc-2014-agile-transport-10.pddl,TIMEOUT:301.119:-1.0:300.0:-1
ipc-2014-agile-transport-11.pddl,SAT:250.507:2069.0:300.0:-1
ipc-2014-agile-transport-12.pddl,SAT:238.97:2936.0:300.0:-1
ipc-2014-agile-transport-13.pddl,SAT:89.9759:2178.0:300.0:-1
ipc-2014-agile-transport-14.pddl,TIMEOUT:301.142:-1.0:300.0:-1
ipc-2014-agile-transport-15.pddl,TIMEOUT:301.172:-1.0:300.0:-1
ipc-2014-agile-transport-16.pddl,TIMEOUT:301.173:-1.0:300.0:-1
ipc-2014-agile-transport-17.pddl,TIMEOUT:301.151:-1.0:300.0:-1
ipc-2014-agile-transport-18.pddl,TIMEOUT:301.151:-1.0:300.0:-1
ipc-2014-agile-transport-19.pddl,TIMEOUT:301.143:-1.0:300.0:-1
ipc-2014-agile-transport-20.pddl,TIMEOUT:301.192:-1.0:300.0:-1
ipc-2014-agile-visitall-30.pddl,SAT:7.43163:919.0:300.0:-1
ipc-2014-agile-visitall-31.pddl,SAT:9.19101:1004.0:300.0:-1
ipc-2014-agile-visitall-32.pddl,SAT:10.6124:1046.0:300.0:-1
ipc-2014-agile-visitall-33.pddl,SAT:12.8549:1136.0:300.0:-1
ipc-2014-agile-visitall-50.pddl,SAT:127.704:2534.0:300.0:-1
ipc-2014-agile-visitall-51.pddl,SAT:162.883:2674.0:300.0:-1
ipc-2014-agile-visitall-52.pddl,SAT:178.56:2741.0:300.0:-1
ipc-2014-agile-visitall-53.pddl,SAT:197.64:2886.0:300.0:-1
ipc-2014-agile-visitall-54.pddl,SAT:216.941:2953.0:300.0:-1
ipc-2014-agile-visitall-55.pddl,SAT:244.896:3104.0:300.0:-1
ipc-2014-agile-visitall-56.pddl,SAT:281.665:3176.0:300.0:-1
ipc-2014-agile-visitall-57.pddl,SAT:299.091:3332.0:300.0:-1
ipc-2014-agile-visitall-58.pddl,TIMEOUT:301.138:-1.0:300.0:-1
ipc-2014-agile-visitall-59.pddl,TIMEOUT:301.148:-1.0:300.0:-1
ipc-2014-agile-visitall-60.pddl,TIMEOUT:301.127:-1.0:300.0:-1
ipc-2014-agile-visitall-61.pddl,TIMEOUT:301.085:-1.0:300.0:-1
ipc-2014-agile-visitall-62.pddl,TIMEOUT:301.118:-1.0:300.0:-1
ipc-2014-agile-visitall-63.pddl,TIMEOUT:301.115:-1.0:300.0:-1
ipc-2014-agile-visitall-64.pddl,TIMEOUT:301.098:-1.0:300.0:-1
ipc-2014-agile-visitall-65.pddl,TIMEOUT:301.048:-1.0:300.0:-1
