instance,ipc-2014-agile-madagascar-pc
ipc-2014-agile-barman-p1-11-4-15.pddl,TIMEOUT:301.245:-1.0:300.0:-1
ipc-2014-agile-barman-p1-11-5-15.pddl,TIMEOUT:301.245:-1.0:300.0:-1
ipc-2014-agile-barman-p1-11-5-16.pddl,TIMEOUT:301.228:-1.0:300.0:-1
ipc-2014-agile-barman-p2-10-4-13.pddl,TIMEOUT:301.156:-1.0:300.0:-1
ipc-2014-agile-barman-p2-11-4-15.pddl,TIMEOUT:301.24:-1.0:300.0:-1
ipc-2014-agile-barman-p2-11-5-15.pddl,TIMEOUT:301.24:-1.0:300.0:-1
ipc-2014-agile-barman-p2-11-5-16.pddl,TIMEOUT:301.288:-1.0:300.0:-1
ipc-2014-agile-barman-p2-11-5-17.pddl,TIMEOUT:301.359:-1.0:300.0:-1
ipc-2014-agile-barman-p3-10-4-13.pddl,TIMEOUT:301.227:-1.0:300.0:-1
ipc-2014-agile-barman-p3-11-4-15.pddl,TIMEOUT:301.227:-1.0:300.0:-1
ipc-2014-agile-barman-p3-11-5-15.pddl,TIMEOUT:301.233:-1.0:300.0:-1
ipc-2014-agile-barman-p3-11-5-16.pddl,TIMEOUT:301.226:-1.0:300.0:-1
ipc-2014-agile-barman-p3-11-5-17.pddl,TIMEOUT:301.195:-1.0:300.0:-1
ipc-2014-agile-barman-p4-11-4-14.pddl,TIMEOUT:301.229:-1.0:300.0:-1
ipc-2014-agile-barman-p4-11-4-15.pddl,TIMEOUT:301.234:-1.0:300.0:-1
ipc-2014-agile-barman-p4-11-5-15.pddl,SAT:128.993:441.0:300.0:-1
ipc-2014-agile-barman-p5-10-4-13.pddl,TIMEOUT:301.206:-1.0:300.0:-1
ipc-2014-agile-barman-p5-11-4-15.pddl,TIMEOUT:301.227:-1.0:300.0:-1
ipc-2014-agile-barman-p5-11-5-15.pddl,TIMEOUT:301.189:-1.0:300.0:-1
ipc-2014-agile-barman-p5-11-5-16.pddl,TIMEOUT:301.273:-1.0:300.0:-1
ipc-2014-agile-cavediving-01_easy.pddl,TIMEOUT:301.303:-1.0:300.0:-1
ipc-2014-agile-cavediving-01.pddl,TIMEOUT:301.324:-1.0:300.0:-1
ipc-2014-agile-cavediving-02_easy.pddl,TIMEOUT:301.342:-1.0:300.0:-1
ipc-2014-agile-cavediving-03_easy.pddl,TIMEOUT:301.323:-1.0:300.0:-1
ipc-2014-agile-cavediving-04_easy.pddl,TIMEOUT:301.311:-1.0:300.0:-1
ipc-2014-agile-cavediving-05A_easy.pddl,SAT:108.029:94.0:300.0:-1
ipc-2014-agile-cavediving-06A_easy.pddl,SAT:107.993:95.0:300.0:-1
ipc-2014-agile-cavediving-07_easy.pddl,TIMEOUT:301.143:-1.0:300.0:-1
ipc-2014-agile-cavediving-08_easy.pddl,SAT:103.767:90.0:300.0:-1
ipc-2014-agile-cavediving-09_easy.pddl,TIMEOUT:301.437:-1.0:300.0:-1
ipc-2014-agile-cavediving-10_easy.pddl,TIMEOUT:301.364:-1.0:300.0:-1
ipc-2014-agile-cavediving-11_easy.pddl,TIMEOUT:301.307:-1.0:300.0:-1
ipc-2014-agile-cavediving-12_easy.pddl,TIMEOUT:301.371:-1.0:300.0:-1
ipc-2014-agile-cavediving-13_easy.pddl,TIMEOUT:301.3:-1.0:300.0:-1
ipc-2014-agile-cavediving-14_easy.pddl,TIMEOUT:301.358:-1.0:300.0:-1
ipc-2014-agile-cavediving-15_easy.pddl,TIMEOUT:301.284:-1.0:300.0:-1
ipc-2014-agile-cavediving-16_easy.pddl,TIMEOUT:301.284:-1.0:300.0:-1
ipc-2014-agile-cavediving-18A_easy.pddl,TIMEOUT:301.162:-1.0:300.0:-1
ipc-2014-agile-cavediving-18_easy.pddl,SAT:0.114982:132.0:300.0:-1
ipc-2014-agile-cavediving-20A_easy.pddl,TIMEOUT:301.133:-1.0:300.0:-1
ipc-2014-agile-childsnack-05-2.pddl,SAT:0.095984:36.0:300.0:-1
ipc-2014-agile-childsnack-05.pddl,SAT:0.094985:38.0:300.0:-1
ipc-2014-agile-childsnack-06-2.pddl,SAT:0.12798:38.0:300.0:-1
ipc-2014-agile-childsnack-07-2.pddl,SAT:0.158974:43.0:300.0:-1
ipc-2014-agile-childsnack-08-2.pddl,CRASHED:91.4051:1000000000.0:300.0:-1
ipc-2014-agile-childsnack-08.pddl,SAT:0.207968:47.0:300.0:-1
ipc-2014-agile-childsnack-09-2.pddl,SAT:0.368943:47.0:300.0:-1
ipc-2014-agile-childsnack-09.pddl,CRASHED:31.2023:1000000000.0:300.0:-1
ipc-2014-agile-childsnack-10-2.pddl,CRASHED:33.3959:1000000000.0:300.0:-1
ipc-2014-agile-childsnack-10.pddl,CRASHED:29.5825:1000000000.0:300.0:-1
ipc-2014-agile-childsnack-11-2.pddl,CRASHED:183.627:1000000000.0:300.0:-1
ipc-2014-agile-childsnack-11.pddl,CRASHED:143.138:1000000000.0:300.0:-1
ipc-2014-agile-childsnack-12.pddl,CRASHED:36.3955:1000000000.0:300.0:-1
ipc-2014-agile-childsnack-13-2.pddl,CRASHED:108.707:1000000000.0:300.0:-1
ipc-2014-agile-childsnack-13.pddl,CRASHED:118.292:1000000000.0:300.0:-1
ipc-2014-agile-childsnack-14.pddl,CRASHED:45.1361:1000000000.0:300.0:-1
ipc-2014-agile-childsnack-15-2.pddl,CRASHED:24.0873:1000000000.0:300.0:-1
ipc-2014-agile-childsnack-16-2.pddl,CRASHED:62.9114:1000000000.0:300.0:-1
ipc-2014-agile-childsnack-19-2.pddl,CRASHED:42.6275:1000000000.0:300.0:-1
ipc-2014-agile-childsnack-19.pddl,CRASHED:47.3078:1000000000.0:300.0:-1
ipc-2014-agile-citycar-p3-2-2-0-1.pddl,SAT:0.12798:291.0:300.0:-1
ipc-2014-agile-citycar-p3-3-2-0-1.pddl,SAT:0.758884:651.0:300.0:-1
ipc-2014-agile-citycar-p3-4-2-0-1.pddl,SAT:0.374942:722.0:300.0:-1
ipc-2014-agile-citycar-p3-5-2-0-1.pddl,SAT:58.1822:694.0:300.0:-1
ipc-2014-agile-citycar-p3-5-2-0-2.pddl,SAT:9.69752:1041.0:300.0:-1
ipc-2014-agile-citycar-p4-2-2-0-1.pddl,SAT:43.6704:336.0:300.0:-1
ipc-2014-agile-citycar-p4-2-3-0-1.pddl,SAT:56.4604:417.0:300.0:-1
ipc-2014-agile-citycar-p4-2-3-0-2.pddl,SAT:256.848:494.0:300.0:-1
ipc-2014-agile-citycar-p4-3-2-0-1.pddl,SAT:43.9703:1185.0:300.0:-1
ipc-2014-agile-citycar-p4-3-2-0-2.pddl,TIMEOUT:301.334:-1.0:300.0:-1
ipc-2014-agile-citycar-p4-3-3-0-1.pddl,TIMEOUT:301.321:-1.0:300.0:-1
ipc-2014-agile-citycar-p4-3-3-0-2.pddl,TIMEOUT:301.319:-1.0:300.0:-1
ipc-2014-agile-citycar-p4-4-2-0-1.pddl,TIMEOUT:301.401:-1.0:300.0:-1
ipc-2014-agile-citycar-p4-4-2-0-2.pddl,TIMEOUT:301.32:-1.0:300.0:-1
ipc-2014-agile-citycar-p4-4-3-0-1.pddl,TIMEOUT:301.315:-1.0:300.0:-1
ipc-2014-agile-citycar-p4-4-3-0-2.pddl,TIMEOUT:301.405:-1.0:300.0:-1
ipc-2014-agile-citycar-p4-5-2-0-1.pddl,TIMEOUT:301.38:-1.0:300.0:-1
ipc-2014-agile-citycar-p4-5-2-0-2.pddl,TIMEOUT:301.315:-1.0:300.0:-1
ipc-2014-agile-citycar-p4-5-3-0-1.pddl,TIMEOUT:301.306:-1.0:300.0:-1
ipc-2014-agile-citycar-p4-5-3-0-2.pddl,TIMEOUT:301.316:-1.0:300.0:-1
ipc-2014-agile-floortile-p01-4-3-2.pddl,SAT:0.014996:94.0:300.0:-1
ipc-2014-agile-floortile-p01-5-4-2.pddl,SAT:0.027995:173.0:300.0:-1
ipc-2014-agile-floortile-p01-5-5-2.pddl,SAT:0.041993:197.0:300.0:-1
ipc-2014-agile-floortile-p01-6-4-2.pddl,SAT:0.031994:190.0:300.0:-1
ipc-2014-agile-floortile-p01-6-5-2.pddl,SAT:0.05499:230.0:300.0:-1
ipc-2014-agile-floortile-p01-6-5-3.pddl,SAT:0.069988:223.0:300.0:-1
ipc-2014-agile-floortile-p02-5-4-2.pddl,SAT:0.032994:178.0:300.0:-1
ipc-2014-agile-floortile-p02-6-4-2.pddl,SAT:0.038993:207.0:300.0:-1
ipc-2014-agile-floortile-p02-6-5-2.pddl,SAT:0.068989:251.0:300.0:-1
ipc-2014-agile-floortile-p02-6-5-3.pddl,SAT:0.067989:235.0:300.0:-1
ipc-2014-agile-floortile-p03-6-4-2.pddl,SAT:0.037993:214.0:300.0:-1
ipc-2014-agile-floortile-p03-6-5-2.pddl,SAT:0.051991:248.0:300.0:-1
ipc-2014-agile-floortile-p03-6-5-3.pddl,SAT:0.06199:253.0:300.0:-1
ipc-2014-agile-floortile-p04-5-4-2.pddl,SAT:0.029994:175.0:300.0:-1
ipc-2014-agile-floortile-p04-5-5-2.pddl,SAT:0.042993:214.0:300.0:-1
ipc-2014-agile-floortile-p04-6-5-2.pddl,SAT:0.068989:261.0:300.0:-1
ipc-2014-agile-floortile-p04-6-5-3.pddl,SAT:0.069988:231.0:300.0:-1
ipc-2014-agile-floortile-p05-4-3-2.pddl,SAT:0.014997:96.0:300.0:-1
ipc-2014-agile-floortile-p05-6-5-2.pddl,SAT:0.05499:223.0:300.0:-1
ipc-2014-agile-floortile-p05-6-5-3.pddl,SAT:0.066989:243.0:300.0:-1
ipc-2014-agile-ged-d-10-1.pddl,SAT:13.5959:99.0:300.0:-1
ipc-2014-agile-ged-d-10-2.pddl,SAT:28.4877:212.0:300.0:-1
ipc-2014-agile-ged-d-10-3.pddl,SAT:32.2831:130.0:300.0:-1
ipc-2014-agile-ged-d-10-4.pddl,SAT:60.9997:193.0:300.0:-1
ipc-2014-agile-ged-d-10-5.pddl,TIMEOUT:301.355:-1.0:300.0:-1
ipc-2014-agile-ged-d-10-6.pddl,SAT:202.747:139.0:300.0:-1
ipc-2014-agile-ged-d-11-1.pddl,SAT:66.8648:110.0:300.0:-1
ipc-2014-agile-ged-d-11-3.pddl,SAT:44.8842:75.0:300.0:-1
ipc-2014-agile-ged-d-11-5.pddl,SAT:64.8091:116.0:300.0:-1
ipc-2014-agile-ged-d-11-6.pddl,TIMEOUT:301.254:-1.0:300.0:-1
ipc-2014-agile-ged-d-12-11.pddl,SAT:80.0188:190.0:300.0:-1
ipc-2014-agile-ged-d-12-2.pddl,TIMEOUT:301.268:-1.0:300.0:-1
ipc-2014-agile-ged-d-12-3.pddl,TIMEOUT:301.361:-1.0:300.0:-1
ipc-2014-agile-ged-d-12-5.pddl,TIMEOUT:301.319:-1.0:300.0:-1
ipc-2014-agile-ged-d-12-6.pddl,TIMEOUT:301.256:-1.0:300.0:-1
ipc-2014-agile-ged-d-12-7.pddl,TIMEOUT:301.289:-1.0:300.0:-1
ipc-2014-agile-ged-d-12-8.pddl,TIMEOUT:301.368:-1.0:300.0:-1
ipc-2014-agile-ged-d-12-9.pddl,TIMEOUT:301.38:-1.0:300.0:-1
ipc-2014-agile-ged-d-3-6.pddl,SAT:49.9404:102.0:300.0:-1
ipc-2014-agile-ged-d-9-5.pddl,SAT:171.247:167.0:300.0:-1
ipc-2014-agile-hiking-3-4-3.pddl,SAT:0.309952:18.0:300.0:-1
ipc-2014-agile-hiking-3-4-4.pddl,CRASHED:31.0993:1000000000.0:300.0:-1
ipc-2014-agile-hiking-3-4-5.pddl,CRASHED:26.438:1000000000.0:300.0:-1
ipc-2014-agile-hiking-3-4-6.pddl,TIMEOUT:301.323:-1.0:300.0:-1
ipc-2014-agile-hiking-3-4-7.pddl,TIMEOUT:301.408:-1.0:300.0:-1
ipc-2014-agile-hiking-3-4-8.pddl,CRASHED:31.8922:1000000000.0:300.0:-1
ipc-2014-agile-hiking-3-4-9.pddl,CRASHED:34.6547:1000000000.0:300.0:-1
ipc-2014-agile-hiking-4-5-3.pddl,SAT:1.24881:29.0:300.0:-1
ipc-2014-agile-hiking-4-5-4.pddl,SAT:3.78042:47.0:300.0:-1
ipc-2014-agile-hiking-4-5-5.pddl,CRASHED:33.3479:1000000000.0:300.0:-1
ipc-2014-agile-hiking-4-5-6.pddl,TIMEOUT:301.469:-1.0:300.0:-1
ipc-2014-agile-hiking-4-5-7.pddl,TIMEOUT:301.431:-1.0:300.0:-1
ipc-2014-agile-hiking-4-5-8.pddl,TIMEOUT:301.494:-1.0:300.0:-1
ipc-2014-agile-hiking-4-5-9.pddl,CRASHED:86.9198:1000000000.0:300.0:-1
ipc-2014-agile-hiking-5-6-3.pddl,SAT:3.86141:36.0:300.0:-1
ipc-2014-agile-hiking-5-6-4.pddl,CRASHED:37.1863:1000000000.0:300.0:-1
ipc-2014-agile-hiking-5-6-5.pddl,CRASHED:48.1307:1000000000.0:300.0:-1
ipc-2014-agile-hiking-5-6-6.pddl,CRASHED:69.7654:1000000000.0:300.0:-1
ipc-2014-agile-hiking-5-6-7.pddl,CRASHED:115.635:1000000000.0:300.0:-1
ipc-2014-agile-hiking-5-6-8.pddl,CRASHED:172.828:1000000000.0:300.0:-1
ipc-2014-agile-maintenance-1.3.060.180.5-000.pddl,SAT:0.084986:54.0:300.0:-1
ipc-2014-agile-maintenance-1.3.060.180.5-001.pddl,TIMEOUT:301.134:-1.0:300.0:-1
ipc-2014-agile-maintenance-1.3.060.180.5-002.pddl,SAT:71.0692:55.0:300.0:-1
ipc-2014-agile-maintenance-1.3.100.300.5-000.pddl,TIMEOUT:301.062:-1.0:300.0:-1
ipc-2014-agile-maintenance-1.3.100.300.5-001.pddl,TIMEOUT:301.081:-1.0:300.0:-1
ipc-2014-agile-maintenance-1.3.100.300.7-000.pddl,SAT:0.278957:83.0:300.0:-1
ipc-2014-agile-maintenance-1.3.100.300.7-001.pddl,SAT:0.274958:80.0:300.0:-1
ipc-2014-agile-maintenance-1.3.100.300.7-002.pddl,SAT:0.271958:77.0:300.0:-1
ipc-2014-agile-maintenance-1.3.150.500.6-001.pddl,SAT:1.00585:133.0:300.0:-1
ipc-2014-agile-maintenance-1.3.200.500.5-001.pddl,SAT:1.40979:180.0:300.0:-1
ipc-2014-agile-maintenance-1.3.200.500.5-002.pddl,TIMEOUT:301.154:-1.0:300.0:-1
ipc-2014-agile-maintenance-1.3.200.700.7-000.pddl,SAT:2.6036:176.0:300.0:-1
ipc-2014-agile-maintenance-1.3.200.700.7-001.pddl,SAT:2.6016:171.0:300.0:-1
ipc-2014-agile-maintenance-1.3.200.700.7-002.pddl,SAT:2.58161:170.0:300.0:-1
ipc-2014-agile-maintenance-1.3.200.900.5-000.pddl,TIMEOUT:301.129:-1.0:300.0:-1
ipc-2014-agile-maintenance-1.3.200.900.5-001.pddl,TIMEOUT:301.179:-1.0:300.0:-1
ipc-2014-agile-maintenance-1.3.200.900.5-002.pddl,TIMEOUT:301.137:-1.0:300.0:-1
ipc-2014-agile-maintenance-1.3.200.900.8-000.pddl,SAT:4.87126:186.0:300.0:-1
ipc-2014-agile-maintenance-1.3.200.900.8-001.pddl,SAT:4.76327:172.0:300.0:-1
ipc-2014-agile-maintenance-1.3.200.900.8-002.pddl,SAT:4.63029:179.0:300.0:-1
ipc-2014-agile-openstacks-p130_2.pddl,TIMEOUT:301.306:-1.0:300.0:-1
ipc-2014-agile-openstacks-p130_3.pddl,TIMEOUT:301.357:-1.0:300.0:-1
ipc-2014-agile-openstacks-p150_2.pddl,TIMEOUT:301.376:-1.0:300.0:-1
ipc-2014-agile-openstacks-p150_3.pddl,TIMEOUT:301.357:-1.0:300.0:-1
ipc-2014-agile-openstacks-p170_1.pddl,CRASHED:67.9327:1000000000.0:300.0:-1
ipc-2014-agile-openstacks-p170_2.pddl,CRASHED:72.8619:1000000000.0:300.0:-1
ipc-2014-agile-openstacks-p170_3.pddl,TIMEOUT:301.399:-1.0:300.0:-1
ipc-2014-agile-openstacks-p190_1.pddl,CRASHED:152.014:1000000000.0:300.0:-1
ipc-2014-agile-openstacks-p190_2.pddl,CRASHED:136.512:1000000000.0:300.0:-1
ipc-2014-agile-openstacks-p190_3.pddl,CRASHED:156.299:1000000000.0:300.0:-1
ipc-2014-agile-openstacks-p210_1.pddl,TIMEOUT:301.371:-1.0:300.0:-1
ipc-2014-agile-openstacks-p210_2.pddl,TIMEOUT:301.429:-1.0:300.0:-1
ipc-2014-agile-openstacks-p230_1.pddl,CRASHED:176.532:1000000000.0:300.0:-1
ipc-2014-agile-openstacks-p230_2.pddl,CRASHED:196.754:1000000000.0:300.0:-1
ipc-2014-agile-openstacks-p250_1.pddl,CRASHED:240.225:1000000000.0:300.0:-1
ipc-2014-agile-openstacks-p250_2.pddl,CRASHED:257.291:1000000000.0:300.0:-1
ipc-2014-agile-openstacks-p270_1.pddl,TIMEOUT:301.347:-1.0:300.0:-1
ipc-2014-agile-openstacks-p270_2.pddl,TIMEOUT:301.256:-1.0:300.0:-1
ipc-2014-agile-openstacks-p290_1.pddl,TIMEOUT:301.266:-1.0:300.0:-1
ipc-2014-agile-openstacks-p290_2.pddl,TIMEOUT:301.065:-1.0:300.0:-1
ipc-2014-agile-parking-28_2.pddl,SAT:122.786:127.0:300.0:-1
ipc-2014-agile-parking-28_3.pddl,SAT:113.811:86.0:300.0:-1
ipc-2014-agile-parking-30_1.pddl,SAT:169.775:135.0:300.0:-1
ipc-2014-agile-parking-30_2.pddl,TIMEOUT:301.425:-1.0:300.0:-1
ipc-2014-agile-parking-30_3.pddl,SAT:201.322:163.0:300.0:-1
ipc-2014-agile-parking-32_1.pddl,SAT:279.883:161.0:300.0:-1
ipc-2014-agile-parking-32_2.pddl,SAT:282.636:138.0:300.0:-1
ipc-2014-agile-parking-32_3.pddl,SAT:263.804:178.0:300.0:-1
ipc-2014-agile-parking-34_1.pddl,TIMEOUT:301.357:-1.0:300.0:-1
ipc-2014-agile-parking-34_2.pddl,TIMEOUT:301.291:-1.0:300.0:-1
ipc-2014-agile-parking-34_3.pddl,TIMEOUT:301.33:-1.0:300.0:-1
ipc-2014-agile-parking-36_1.pddl,TIMEOUT:301.136:-1.0:300.0:-1
ipc-2014-agile-parking-36_2.pddl,TIMEOUT:301.148:-1.0:300.0:-1
ipc-2014-agile-parking-36_3.pddl,TIMEOUT:301.147:-1.0:300.0:-1
ipc-2014-agile-parking-38_1.pddl,TIMEOUT:301.155:-1.0:300.0:-1
ipc-2014-agile-parking-38_2.pddl,TIMEOUT:301.204:-1.0:300.0:-1
ipc-2014-agile-parking-38_3.pddl,TIMEOUT:301.169:-1.0:300.0:-1
ipc-2014-agile-parking-40_1.pddl,TIMEOUT:301.153:-1.0:300.0:-1
ipc-2014-agile-parking-40_2.pddl,TIMEOUT:301.173:-1.0:300.0:-1
ipc-2014-agile-parking-40_3.pddl,TIMEOUT:301.227:-1.0:300.0:-1
ipc-2014-agile-tetris-020.pddl,SAT:43.4874:56.0:300.0:-1
ipc-2014-agile-tetris-021.pddl,SAT:168.949:145.0:300.0:-1
ipc-2014-agile-tetris-022.pddl,SAT:156.474:102.0:300.0:-1
ipc-2014-agile-tetris-023.pddl,SAT:123.74:105.0:300.0:-1
ipc-2014-agile-tetris-024.pddl,SAT:162.686:161.0:300.0:-1
ipc-2014-agile-tetris-025.pddl,CRASHED:188.163:1000000000.0:300.0:-1
ipc-2014-agile-tetris-026.pddl,CRASHED:252.216:1000000000.0:300.0:-1
ipc-2014-agile-tetris-027.pddl,CRASHED:271.576:1000000000.0:300.0:-1
ipc-2014-agile-tetris-028.pddl,CRASHED:234.528:1000000000.0:300.0:-1
ipc-2014-agile-tetris-029.pddl,CRASHED:198.492:1000000000.0:300.0:-1
ipc-2014-agile-tetris-031.pddl,CRASHED:278.083:1000000000.0:300.0:-1
ipc-2014-agile-tetris-032.pddl,TIMEOUT:301.453:-1.0:300.0:-1
ipc-2014-agile-tetris-033.pddl,TIMEOUT:301.488:-1.0:300.0:-1
ipc-2014-agile-tetris-034.pddl,TIMEOUT:301.491:-1.0:300.0:-1
ipc-2014-agile-tetris-035.pddl,CRASHED:269.055:1000000000.0:300.0:-1
ipc-2014-agile-tetris-036.pddl,CRASHED:240.181:1000000000.0:300.0:-1
ipc-2014-agile-tetris-037.pddl,SAT:186.057:147.0:300.0:-1
ipc-2014-agile-tetris-038.pddl,TIMEOUT:301.417:-1.0:300.0:-1
ipc-2014-agile-tetris-039.pddl,CRASHED:285.508:1000000000.0:300.0:-1
ipc-2014-agile-tetris-040.pddl,TIMEOUT:301.393:-1.0:300.0:-1
ipc-2014-agile-thoughtful-bootstrap-typed-01.pddl,SAT:1.91371:42.0:300.0:-1
ipc-2014-agile-thoughtful-bootstrap-typed-02.pddl,SAT:1.74773:31.0:300.0:-1
ipc-2014-agile-thoughtful-bootstrap-typed-03.pddl,SAT:2.00469:49.0:300.0:-1
ipc-2014-agile-thoughtful-bootstrap-typed-04.pddl,SAT:2.10468:46.0:300.0:-1
ipc-2014-agile-thoughtful-bootstrap-typed-05.pddl,SAT:1.91671:68.0:300.0:-1
ipc-2014-agile-thoughtful-p11_6_53-typed.pddl,TIMEOUT:301.388:-1.0:300.0:-1
ipc-2014-agile-thoughtful-p11_6_59-typed.pddl,CRASHED:106.525:1000000000.0:300.0:-1
ipc-2014-agile-thoughtful-p11_6_62-typed.pddl,TIMEOUT:301.333:-1.0:300.0:-1
ipc-2014-agile-thoughtful-p13_7_78-typed.pddl,CRASHED:187.3:1000000000.0:300.0:-1
ipc-2014-agile-thoughtful-p13_7_79-typed.pddl,CRASHED:179.531:1000000000.0:300.0:-1
ipc-2014-agile-thoughtful-p13_7_86-typed.pddl,CRASHED:182.345:1000000000.0:300.0:-1
ipc-2014-agile-thoughtful-target-typed-20.pddl,CRASHED:183.8:1000000000.0:300.0:-1
ipc-2014-agile-thoughtful-target-typed-21.pddl,CRASHED:181.732:1000000000.0:300.0:-1
ipc-2014-agile-thoughtful-target-typed-22.pddl,TIMEOUT:301.307:-1.0:300.0:-1
ipc-2014-agile-thoughtful-target-typed-23.pddl,CRASHED:185.591:1000000000.0:300.0:-1
ipc-2014-agile-thoughtful-target-typed-24.pddl,TIMEOUT:301.338:-1.0:300.0:-1
ipc-2014-agile-thoughtful-target-typed-25.pddl,CRASHED:185.208:1000000000.0:300.0:-1
ipc-2014-agile-thoughtful-target-typed-26.pddl,TIMEOUT:301.303:-1.0:300.0:-1
ipc-2014-agile-thoughtful-target-typed-27.pddl,CRASHED:290.235:1000000000.0:300.0:-1
ipc-2014-agile-thoughtful-target-typed-28.pddl,CRASHED:197.944:1000000000.0:300.0:-1
ipc-2014-agile-transport-01.pddl,CRASHED:85.403:1000000000.0:300.0:-1
ipc-2014-agile-transport-02.pddl,TIMEOUT:301.325:-1.0:300.0:-1
ipc-2014-agile-transport-03.pddl,TIMEOUT:301.36:-1.0:300.0:-1
ipc-2014-agile-transport-04.pddl,TIMEOUT:301.444:-1.0:300.0:-1
ipc-2014-agile-transport-05.pddl,CRASHED:118.08:1000000000.0:300.0:-1
ipc-2014-agile-transport-06.pddl,TIMEOUT:301.377:-1.0:300.0:-1
ipc-2014-agile-transport-07.pddl,CRASHED:290.014:1000000000.0:300.0:-1
ipc-2014-agile-transport-08.pddl,TIMEOUT:301.379:-1.0:300.0:-1
ipc-2014-agile-transport-09.pddl,CRASHED:288.88:1000000000.0:300.0:-1
ipc-2014-agile-transport-10.pddl,CRASHED:208.181:1000000000.0:300.0:-1
ipc-2014-agile-transport-11.pddl,TIMEOUT:301.355:-1.0:300.0:-1
ipc-2014-agile-transport-12.pddl,TIMEOUT:301.338:-1.0:300.0:-1
ipc-2014-agile-transport-13.pddl,CRASHED:234.585:1000000000.0:300.0:-1
ipc-2014-agile-transport-14.pddl,CRASHED:83.4663:1000000000.0:300.0:-1
ipc-2014-agile-transport-15.pddl,CRASHED:100.123:1000000000.0:300.0:-1
ipc-2014-agile-transport-16.pddl,CRASHED:67.8207:1000000000.0:300.0:-1
ipc-2014-agile-transport-17.pddl,CRASHED:209.511:1000000000.0:300.0:-1
ipc-2014-agile-transport-18.pddl,TIMEOUT:301.364:-1.0:300.0:-1
ipc-2014-agile-transport-19.pddl,TIMEOUT:301.246:-1.0:300.0:-1
ipc-2014-agile-transport-20.pddl,CRASHED:253.827:1000000000.0:300.0:-1
ipc-2014-agile-visitall-30.pddl,TIMEOUT:301.167:-1.0:300.0:-1
ipc-2014-agile-visitall-31.pddl,TIMEOUT:301.138:-1.0:300.0:-1
ipc-2014-agile-visitall-32.pddl,TIMEOUT:301.2:-1.0:300.0:-1
ipc-2014-agile-visitall-33.pddl,TIMEOUT:301.178:-1.0:300.0:-1
ipc-2014-agile-visitall-50.pddl,TIMEOUT:301.05:-1.0:300.0:-1
ipc-2014-agile-visitall-51.pddl,TIMEOUT:301.079:-1.0:300.0:-1
ipc-2014-agile-visitall-52.pddl,TIMEOUT:301.055:-1.0:300.0:-1
ipc-2014-agile-visitall-53.pddl,TIMEOUT:301.032:-1.0:300.0:-1
ipc-2014-agile-visitall-54.pddl,TIMEOUT:301.08:-1.0:300.0:-1
ipc-2014-agile-visitall-55.pddl,TIMEOUT:301.06:-1.0:300.0:-1
ipc-2014-agile-visitall-56.pddl,TIMEOUT:301.027:-1.0:300.0:-1
ipc-2014-agile-visitall-57.pddl,TIMEOUT:301.094:-1.0:300.0:-1
ipc-2014-agile-visitall-58.pddl,TIMEOUT:301.023:-1.0:300.0:-1
ipc-2014-agile-visitall-59.pddl,TIMEOUT:301.078:-1.0:300.0:-1
ipc-2014-agile-visitall-60.pddl,TIMEOUT:301.113:-1.0:300.0:-1
ipc-2014-agile-visitall-61.pddl,TIMEOUT:301.032:-1.0:300.0:-1
ipc-2014-agile-visitall-62.pddl,TIMEOUT:301.092:-1.0:300.0:-1
ipc-2014-agile-visitall-63.pddl,TIMEOUT:301.081:-1.0:300.0:-1
ipc-2014-agile-visitall-64.pddl,TIMEOUT:301.055:-1.0:300.0:-1
ipc-2014-agile-visitall-65.pddl,TIMEOUT:301.068:-1.0:300.0:-1
