instance,ipc-2014-optimal-cedalion
ipc-2014-optimal-barman-p433.1.pddl,CRASHED:1.48377:1000000000.0:1800.0:-1
ipc-2014-optimal-barman-p433.2.pddl,CRASHED:0.897862:1000000000.0:1800.0:-1
ipc-2014-optimal-barman-p433.3.pddl,CRASHED:0.853869:1000000000.0:1800.0:-1
ipc-2014-optimal-barman-p435.1.pddl,CRASHED:1800.55:1000000000.0:1800.0:-1
ipc-2014-optimal-barman-p435.2.pddl,TIMEOUT:1801.13:-1.0:1800.0:-1
ipc-2014-optimal-barman-p435.3.pddl,CRASHED:1800.45:1000000000.0:1800.0:-1
ipc-2014-optimal-barman-p443.1.pddl,CRASHED:0.922858:1000000000.0:1800.0:-1
ipc-2014-optimal-barman-p443.2.pddl,CRASHED:1.00385:1000000000.0:1800.0:-1
ipc-2014-optimal-barman-p443.3.pddl,CRASHED:0.920859:1000000000.0:1800.0:-1
ipc-2014-optimal-barman-p536.1.pddl,CRASHED:1800.16:1000000000.0:1800.0:-1
ipc-2014-optimal-barman-p536.2.pddl,CRASHED:1800.71:1000000000.0:1800.0:-1
ipc-2014-optimal-barman-p536.3.pddl,CRASHED:1800.19:1000000000.0:1800.0:-1
ipc-2014-optimal-barman-p638.1.pddl,CRASHED:1800.53:1000000000.0:1800.0:-1
ipc-2014-optimal-barman-p638.2.pddl,CRASHED:1800.1:1000000000.0:1800.0:-1
ipc-2014-optimal-barman-p638.3.pddl,CRASHED:1800.8:1000000000.0:1800.0:-1
ipc-2014-optimal-barman-p739.1.pddl,CRASHED:1800.87:1000000000.0:1800.0:-1
ipc-2014-optimal-barman-p739.2.pddl,CRASHED:1800.66:1000000000.0:1800.0:-1
ipc-2014-optimal-barman-p739.3.pddl,CRASHED:1800.42:1000000000.0:1800.0:-1
ipc-2014-optimal-barman-p839.1.pddl,CRASHED:1800.55:1000000000.0:1800.0:-1
ipc-2014-optimal-barman-p839.2.pddl,CRASHED:1800.75:1000000000.0:1800.0:-1
ipc-2014-optimal-cavediving-01.pddl,CRASHED:299.137:1000000000.0:1800.0:-1
ipc-2014-optimal-cavediving-01_easy.pddl,CRASHED:298.963:1000000000.0:1800.0:-1
ipc-2014-optimal-cavediving-02_easy.pddl,CRASHED:298.697:1000000000.0:1800.0:-1
ipc-2014-optimal-cavediving-03_easy.pddl,CRASHED:301.645:1000000000.0:1800.0:-1
ipc-2014-optimal-cavediving-04_easy.pddl,CRASHED:298.674:1000000000.0:1800.0:-1
ipc-2014-optimal-cavediving-05A_easy.pddl,SAT:11.2163:94.0:1800.0:-1
ipc-2014-optimal-cavediving-06A_easy.pddl,SAT:11.8802:95.0:1800.0:-1
ipc-2014-optimal-cavediving-07_easy.pddl,SAT:62.8734:131.0:1800.0:-1
ipc-2014-optimal-cavediving-08_easy.pddl,SAT:11.8292:90.0:1800.0:-1
ipc-2014-optimal-cavediving-09_easy.pddl,CRASHED:1796.37:1000000000.0:1800.0:-1
ipc-2014-optimal-cavediving-10_easy.pddl,CRASHED:1796.25:1000000000.0:1800.0:-1
ipc-2014-optimal-cavediving-11_easy.pddl,CRASHED:1796.64:1000000000.0:1800.0:-1
ipc-2014-optimal-cavediving-12_easy.pddl,TIMEOUT:1801.11:-1.0:1800.0:-1
ipc-2014-optimal-cavediving-13_easy.pddl,CRASHED:1795.21:1000000000.0:1800.0:-1
ipc-2014-optimal-cavediving-14_easy.pddl,CRASHED:1796.93:1000000000.0:1800.0:-1
ipc-2014-optimal-cavediving-15_easy.pddl,CRASHED:298.824:1000000000.0:1800.0:-1
ipc-2014-optimal-cavediving-16_easy.pddl,CRASHED:301.23:1000000000.0:1800.0:-1
ipc-2014-optimal-cavediving-18A_easy.pddl,SAT:111.74:131.0:1800.0:-1
ipc-2014-optimal-cavediving-18_easy.pddl,SAT:202.403:131.0:1800.0:-1
ipc-2014-optimal-cavediving-20A_easy.pddl,SAT:16.4815:98.0:1800.0:-1
ipc-2014-optimal-childsnack-01-2.pddl,CRASHED:1800.64:1000000000.0:1800.0:-1
ipc-2014-optimal-childsnack-01.pddl,CRASHED:1800.38:1000000000.0:1800.0:-1
ipc-2014-optimal-childsnack-02-2.pddl,CRASHED:1800.87:1000000000.0:1800.0:-1
ipc-2014-optimal-childsnack-02.pddl,CRASHED:1801.0:1000000000.0:1800.0:-1
ipc-2014-optimal-childsnack-03-2.pddl,CRASHED:1800.42:1000000000.0:1800.0:-1
ipc-2014-optimal-childsnack-03.pddl,CRASHED:1777.44:1000000000.0:1800.0:-1
ipc-2014-optimal-childsnack-04-2.pddl,CRASHED:1737.91:1000000000.0:1800.0:-1
ipc-2014-optimal-childsnack-04.pddl,CRASHED:1746.28:1000000000.0:1800.0:-1
ipc-2014-optimal-childsnack-05-2.pddl,CRASHED:1780.62:1000000000.0:1800.0:-1
ipc-2014-optimal-childsnack-05.pddl,CRASHED:1779.29:1000000000.0:1800.0:-1
ipc-2014-optimal-childsnack-06-2.pddl,CRASHED:1800.75:1000000000.0:1800.0:-1
ipc-2014-optimal-childsnack-06.pddl,CRASHED:1800.65:1000000000.0:1800.0:-1
ipc-2014-optimal-childsnack-07-2.pddl,CRASHED:1800.11:1000000000.0:1800.0:-1
ipc-2014-optimal-childsnack-07.pddl,CRASHED:1800.93:1000000000.0:1800.0:-1
ipc-2014-optimal-childsnack-08-2.pddl,CRASHED:1462.53:1000000000.0:1800.0:-1
ipc-2014-optimal-childsnack-08.pddl,CRASHED:1464.17:1000000000.0:1800.0:-1
ipc-2014-optimal-childsnack-09-2.pddl,CRASHED:1466.47:1000000000.0:1800.0:-1
ipc-2014-optimal-childsnack-09.pddl,CRASHED:1475.31:1000000000.0:1800.0:-1
ipc-2014-optimal-childsnack-10-2.pddl,CRASHED:1441.17:1000000000.0:1800.0:-1
ipc-2014-optimal-childsnack-10.pddl,CRASHED:1431.05:1000000000.0:1800.0:-1
ipc-2014-optimal-citycar-p2-2-2-1-2.pddl,SAT:2.98854:46.0:1800.0:-1
ipc-2014-optimal-citycar-p2-2-2-2-1.pddl,SAT:3.9254:64.0:1800.0:-1
ipc-2014-optimal-citycar-p2-2-3-1-2.pddl,SAT:7.61084:50.0:1800.0:-1
ipc-2014-optimal-citycar-p2-2-3-2-1.pddl,SAT:5.70213:48.0:1800.0:-1
ipc-2014-optimal-citycar-p2-2-3-2-2.pddl,SAT:5.61715:50.0:1800.0:-1
ipc-2014-optimal-citycar-p2-2-4-1-2.pddl,SAT:12.929:52.0:1800.0:-1
ipc-2014-optimal-citycar-p2-2-4-2-1.pddl,SAT:13.9499:52.0:1800.0:-1
ipc-2014-optimal-citycar-p2-2-5-2-2.pddl,SAT:283.352:76.0:1800.0:-1
ipc-2014-optimal-citycar-p2-2-6-1-1.pddl,SAT:221.67:58.0:1800.0:-1
ipc-2014-optimal-citycar-p2-2-6-2-2.pddl,SAT:210.572:58.0:1800.0:-1
ipc-2014-optimal-citycar-p2-3-2-3-1.pddl,SAT:16.4965:68.0:1800.0:-1
ipc-2014-optimal-citycar-p2-3-3-3-1.pddl,SAT:69.3325:78.0:1800.0:-1
ipc-2014-optimal-citycar-p2-3-4-3-1.pddl,CRASHED:311.99:1000000000.0:1800.0:-1
ipc-2014-optimal-citycar-p2-3-6-3-2.pddl,CRASHED:589.734:1000000000.0:1800.0:-1
ipc-2014-optimal-citycar-p3-3-2-2-1.pddl,CRASHED:1458.61:1000000000.0:1800.0:-1
ipc-2014-optimal-citycar-p3-3-2-2-2.pddl,CRASHED:1318.81:1000000000.0:1800.0:-1
ipc-2014-optimal-citycar-p3-3-2-3-1.pddl,SAT:44.0993:48.0:1800.0:-1
ipc-2014-optimal-citycar-p3-3-2-3-2.pddl,SAT:244.123:70.0:1800.0:-1
ipc-2014-optimal-citycar-p3-3-3-3-1.pddl,CRASHED:1795.73:1000000000.0:1800.0:-1
ipc-2014-optimal-citycar-p3-3-3-3-2.pddl,CRASHED:1796.24:1000000000.0:1800.0:-1
ipc-2014-optimal-floortile-p01-4-3-2.pddl,SAT:173.933:56.0:1800.0:-1
ipc-2014-optimal-floortile-p01-4-4-2.pddl,CRASHED:1800.36:1000000000.0:1800.0:-1
ipc-2014-optimal-floortile-p01-5-3-2.pddl,SAT:379.543:63.0:1800.0:-1
ipc-2014-optimal-floortile-p01-5-4-2.pddl,CRASHED:1800.22:1000000000.0:1800.0:-1
ipc-2014-optimal-floortile-p01-5-5-2.pddl,CRASHED:1800.75:1000000000.0:1800.0:-1
ipc-2014-optimal-floortile-p01-6-4-2.pddl,CRASHED:1800.62:1000000000.0:1800.0:-1
ipc-2014-optimal-floortile-p01-6-5-2.pddl,CRASHED:1800.31:1000000000.0:1800.0:-1
ipc-2014-optimal-floortile-p02-4-4-2.pddl,CRASHED:1800.39:1000000000.0:1800.0:-1
ipc-2014-optimal-floortile-p02-5-3-2.pddl,SAT:537.79:65.0:1800.0:-1
ipc-2014-optimal-floortile-p02-5-4-2.pddl,TIMEOUT:1801.07:-1.0:1800.0:-1
ipc-2014-optimal-floortile-p02-5-5-2.pddl,CRASHED:1800.69:1000000000.0:1800.0:-1
ipc-2014-optimal-floortile-p02-6-4-2.pddl,CRASHED:1800.56:1000000000.0:1800.0:-1
ipc-2014-optimal-floortile-p02-6-5-2.pddl,CRASHED:1800.88:1000000000.0:1800.0:-1
ipc-2014-optimal-floortile-p03-4-3-2.pddl,SAT:177.178:56.0:1800.0:-1
ipc-2014-optimal-floortile-p03-4-4-2.pddl,CRASHED:1800.69:1000000000.0:1800.0:-1
ipc-2014-optimal-floortile-p03-5-3-2.pddl,SAT:553.756:65.0:1800.0:-1
ipc-2014-optimal-floortile-p03-5-4-2.pddl,CRASHED:1800.86:1000000000.0:1800.0:-1
ipc-2014-optimal-floortile-p03-5-5-2.pddl,CRASHED:1800.28:1000000000.0:1800.0:-1
ipc-2014-optimal-floortile-p03-6-4-2.pddl,CRASHED:1800.77:1000000000.0:1800.0:-1
ipc-2014-optimal-floortile-p03-6-5-2.pddl,CRASHED:1800.91:1000000000.0:1800.0:-1
ipc-2014-optimal-ged-d-1-2.pddl,SAT:1.91771:1.0:1800.0:-1
ipc-2014-optimal-ged-d-1-3.pddl,SAT:15.3297:4.0:1800.0:-1
ipc-2014-optimal-ged-d-1-4.pddl,SAT:1.9787:1.0:1800.0:-1
ipc-2014-optimal-ged-d-1-8.pddl,SAT:46.4209:4.0:1800.0:-1
ipc-2014-optimal-ged-d-2-1.pddl,SAT:1.9817:1.0:1800.0:-1
ipc-2014-optimal-ged-d-2-3.pddl,SAT:2.68659:3.0:1800.0:-1
ipc-2014-optimal-ged-d-2-4.pddl,SAT:2.14267:2.0:1800.0:-1
ipc-2014-optimal-ged-d-2-8.pddl,CRASHED:1297.39:1000000000.0:1800.0:-1
ipc-2014-optimal-ged-d-3-1.pddl,SAT:11.4133:4.0:1800.0:-1
ipc-2014-optimal-ged-d-3-2.pddl,SAT:2.65459:3.0:1800.0:-1
ipc-2014-optimal-ged-d-3-4.pddl,SAT:385.599:5.0:1800.0:-1
ipc-2014-optimal-ged-d-4-2.pddl,SAT:2.12368:2.0:1800.0:-1
ipc-2014-optimal-ged-d-4-3.pddl,SAT:139.212:5.0:1800.0:-1
ipc-2014-optimal-ged-d-4-8.pddl,CRASHED:1304.51:1000000000.0:1800.0:-1
ipc-2014-optimal-ged-d-7-5.pddl,SAT:30.9543:4.0:1800.0:-1
ipc-2014-optimal-ged-d-7-6.pddl,SAT:73.6458:4.0:1800.0:-1
ipc-2014-optimal-ged-d-8-1.pddl,SAT:30.7653:4.0:1800.0:-1
ipc-2014-optimal-ged-d-8-2.pddl,CRASHED:1296.64:1000000000.0:1800.0:-1
ipc-2014-optimal-ged-d-8-4.pddl,CRASHED:1294.94:1000000000.0:1800.0:-1
ipc-2014-optimal-ged-d-8-9.pddl,CRASHED:1305.74:1000000000.0:1800.0:-1
ipc-2014-optimal-hiking-1-2-3.pddl,SAT:0.78188:11.0:1800.0:-1
ipc-2014-optimal-hiking-1-2-4.pddl,SAT:1.16082:17.0:1800.0:-1
ipc-2014-optimal-hiking-1-2-5.pddl,SAT:2.22266:25.0:1800.0:-1
ipc-2014-optimal-hiking-1-2-7.pddl,SAT:15.9596:38.0:1800.0:-1
ipc-2014-optimal-hiking-1-2-8.pddl,SAT:43.2914:45.0:1800.0:-1
ipc-2014-optimal-hiking-2-2-3.pddl,SAT:3.44847:10.0:1800.0:-1
ipc-2014-optimal-hiking-2-2-4.pddl,SAT:207.604:16.0:1800.0:-1
ipc-2014-optimal-hiking-2-2-5.pddl,SAT:1087.02:22.0:1800.0:-1
ipc-2014-optimal-hiking-2-2-6.pddl,SAT:1165.06:30.0:1800.0:-1
ipc-2014-optimal-hiking-2-2-7.pddl,CRASHED:1800.41:1000000000.0:1800.0:-1
ipc-2014-optimal-hiking-2-2-8.pddl,CRASHED:1800.19:1000000000.0:1800.0:-1
ipc-2014-optimal-hiking-2-3-4.pddl,SAT:948.417:17.0:1800.0:-1
ipc-2014-optimal-hiking-2-3-5.pddl,SAT:1154.73:24.0:1800.0:-1
ipc-2014-optimal-hiking-2-3-6.pddl,CRASHED:1801.07:1000000000.0:1800.0:-1
ipc-2014-optimal-hiking-2-3-7.pddl,CRASHED:1800.92:1000000000.0:1800.0:-1
ipc-2014-optimal-hiking-2-4-3.pddl,SAT:20.6889:10.0:1800.0:-1
ipc-2014-optimal-hiking-2-4-4.pddl,SAT:1007.94:17.0:1800.0:-1
ipc-2014-optimal-hiking-2-4-5.pddl,CRASHED:1800.25:1000000000.0:1800.0:-1
ipc-2014-optimal-hiking-2-4-6.pddl,CRASHED:1800.28:1000000000.0:1800.0:-1
ipc-2014-optimal-hiking-2-4-7.pddl,CRASHED:1800.4:1000000000.0:1800.0:-1
ipc-2014-optimal-maintenance-1.3.010.010.1-001.pddl,CRASHED:0.968852:1000000000.0:1800.0:-1
ipc-2014-optimal-maintenance-1.3.010.010.1-002.pddl,CRASHED:1.3328:1000000000.0:1800.0:-1
ipc-2014-optimal-maintenance-1.3.010.010.2-000.pddl,SAT:0.545916:4.0:1800.0:-1
ipc-2014-optimal-maintenance-1.3.010.010.2-001.pddl,SAT:0.556914:7.0:1800.0:-1
ipc-2014-optimal-maintenance-1.3.010.010.2-002.pddl,SAT:0.521919:6.0:1800.0:-1
ipc-2014-optimal-maintenance-1.3.015.020.1-000.pddl,CRASHED:69.1165:1000000000.0:1800.0:-1
ipc-2014-optimal-maintenance-1.3.015.020.1-001.pddl,CRASHED:38.4062:1000000000.0:1800.0:-1
ipc-2014-optimal-maintenance-1.3.015.020.1-002.pddl,CRASHED:41.6227:1000000000.0:1800.0:-1
ipc-2014-optimal-maintenance-1.3.015.020.2-000.pddl,CRASHED:207.088:1000000000.0:1800.0:-1
ipc-2014-optimal-maintenance-1.3.015.020.2-001.pddl,SAT:0.578911:11.0:1800.0:-1
ipc-2014-optimal-maintenance-1.3.015.020.2-002.pddl,SAT:0.58291:9.0:1800.0:-1
ipc-2014-optimal-maintenance-1.3.025.050.1-000.pddl,CRASHED:1403.55:1000000000.0:1800.0:-1
ipc-2014-optimal-maintenance-1.3.025.050.1-001.pddl,CRASHED:1800.67:1000000000.0:1800.0:-1
ipc-2014-optimal-maintenance-1.3.025.050.1-002.pddl,CRASHED:1742.16:1000000000.0:1800.0:-1
ipc-2014-optimal-maintenance-1.3.025.100.1-000.pddl,CRASHED:27.52:1000000000.0:1800.0:-1
ipc-2014-optimal-maintenance-1.3.025.100.1-001.pddl,CRASHED:26.43:1000000000.0:1800.0:-1
ipc-2014-optimal-maintenance-1.3.025.100.1-002.pddl,CRASHED:28.8:1000000000.0:1800.0:-1
ipc-2014-optimal-maintenance-1.3.025.100.2-000.pddl,CRASHED:75.51:1000000000.0:1800.0:-1
ipc-2014-optimal-maintenance-1.3.025.100.2-001.pddl,CRASHED:66.34:1000000000.0:1800.0:-1
ipc-2014-optimal-maintenance-1.3.025.100.2-002.pddl,CRASHED:60.12:1000000000.0:1800.0:-1
ipc-2014-optimal-openstacks-p20_1.pddl,SAT:1166.49:3.0:1800.0:-1
ipc-2014-optimal-openstacks-p20_2.pddl,SAT:1204.53:4.0:1800.0:-1
ipc-2014-optimal-openstacks-p20_3.pddl,SAT:62.6965:6.0:1800.0:-1
ipc-2014-optimal-openstacks-p25_1.pddl,CRASHED:1472.1:1000000000.0:1800.0:-1
ipc-2014-optimal-openstacks-p25_3.pddl,CRASHED:1470.93:1000000000.0:1800.0:-1
ipc-2014-optimal-openstacks-p30_1.pddl,CRASHED:1512.96:1000000000.0:1800.0:-1
ipc-2014-optimal-openstacks-p30_2.pddl,CRASHED:1593.38:1000000000.0:1800.0:-1
ipc-2014-optimal-openstacks-p30_3.pddl,CRASHED:1447.03:1000000000.0:1800.0:-1
ipc-2014-optimal-openstacks-p35_1.pddl,CRASHED:1507.59:1000000000.0:1800.0:-1
ipc-2014-optimal-openstacks-p35_2.pddl,CRASHED:1581.92:1000000000.0:1800.0:-1
ipc-2014-optimal-openstacks-p35_3.pddl,CRASHED:1458.55:1000000000.0:1800.0:-1
ipc-2014-optimal-openstacks-p40_1.pddl,CRASHED:1509.31:1000000000.0:1800.0:-1
ipc-2014-optimal-openstacks-p40_2.pddl,CRASHED:1476.36:1000000000.0:1800.0:-1
ipc-2014-optimal-openstacks-p40_3.pddl,CRASHED:1459.05:1000000000.0:1800.0:-1
ipc-2014-optimal-openstacks-p45_1.pddl,CRASHED:1564.0:1000000000.0:1800.0:-1
ipc-2014-optimal-openstacks-p45_2.pddl,CRASHED:1500.06:1000000000.0:1800.0:-1
ipc-2014-optimal-openstacks-p45_3.pddl,CRASHED:1476.36:1000000000.0:1800.0:-1
ipc-2014-optimal-openstacks-p50_1.pddl,CRASHED:1564.36:1000000000.0:1800.0:-1
ipc-2014-optimal-openstacks-p50_2.pddl,CRASHED:1568.0:1000000000.0:1800.0:-1
ipc-2014-optimal-openstacks-p50_3.pddl,CRASHED:1476.33:1000000000.0:1800.0:-1
ipc-2014-optimal-parking-12_7-01.pddl,SAT:216.165:18.0:1800.0:-1
ipc-2014-optimal-parking-12_7-02.pddl,CRASHED:1800.33:1000000000.0:1800.0:-1
ipc-2014-optimal-parking-12_7-03.pddl,SAT:171.746:17.0:1800.0:-1
ipc-2014-optimal-parking-12_7-04.pddl,CRASHED:1800.78:1000000000.0:1800.0:-1
ipc-2014-optimal-parking-14_8-01.pddl,CRASHED:1480.97:1000000000.0:1800.0:-1
ipc-2014-optimal-parking-14_8-02.pddl,CRASHED:1493.36:1000000000.0:1800.0:-1
ipc-2014-optimal-parking-14_8-03.pddl,CRASHED:1493.65:1000000000.0:1800.0:-1
ipc-2014-optimal-parking-14_8-04.pddl,CRASHED:1500.2:1000000000.0:1800.0:-1
ipc-2014-optimal-parking-16_9-01.pddl,CRASHED:1625.85:1000000000.0:1800.0:-1
ipc-2014-optimal-parking-16_9-02.pddl,CRASHED:1609.26:1000000000.0:1800.0:-1
ipc-2014-optimal-parking-16_9-03.pddl,CRASHED:1624.07:1000000000.0:1800.0:-1
ipc-2014-optimal-parking-16_9-04.pddl,CRASHED:4.76837e-07:1000000000.0:1800.0:-1
ipc-2014-optimal-parking-18_10-01.pddl,CRASHED:1800.98:1000000000.0:1800.0:-1
ipc-2014-optimal-parking-18_10-02.pddl,CRASHED:1800.93:1000000000.0:1800.0:-1
ipc-2014-optimal-parking-18_10-03.pddl,CRASHED:1800.23:1000000000.0:1800.0:-1
ipc-2014-optimal-parking-18_10-04.pddl,CRASHED:1800.84:1000000000.0:1800.0:-1
ipc-2014-optimal-parking-20_11-01.pddl,CRASHED:1800.17:1000000000.0:1800.0:-1
ipc-2014-optimal-parking-20_11-02.pddl,CRASHED:1800.18:1000000000.0:1800.0:-1
ipc-2014-optimal-parking-20_11-03.pddl,CRASHED:1800.15:1000000000.0:1800.0:-1
ipc-2014-optimal-parking-20_11-04.pddl,CRASHED:1800.57:1000000000.0:1800.0:-1
ipc-2014-optimal-tetris-01-10.pddl,CRASHED:1800.43:1000000000.0:1800.0:-1
ipc-2014-optimal-tetris-01-04.pddl,CRASHED:1678.1:1000000000.0:1800.0:-1
ipc-2014-optimal-tetris-01-06.pddl,CRASHED:1800.75:1000000000.0:1800.0:-1
ipc-2014-optimal-tetris-01-08.pddl,CRASHED:1800.92:1000000000.0:1800.0:-1
ipc-2014-optimal-tetris-02-10.pddl,CRASHED:1800.6:1000000000.0:1800.0:-1
ipc-2014-optimal-tetris-02-04.pddl,SAT:3.80642:10.0:1800.0:-1
ipc-2014-optimal-tetris-02-06.pddl,SAT:849.556:30.0:1800.0:-1
ipc-2014-optimal-tetris-02-08.pddl,CRASHED:1800.22:1000000000.0:1800.0:-1
ipc-2014-optimal-tetris-03-10.pddl,CRASHED:1800.55:1000000000.0:1800.0:-1
ipc-2014-optimal-tetris-03-04.pddl,SAT:85.8599:11.0:1800.0:-1
ipc-2014-optimal-tetris-03-06.pddl,SAT:514.947:21.0:1800.0:-1
ipc-2014-optimal-tetris-03-08.pddl,CRASHED:1800.74:1000000000.0:1800.0:-1
ipc-2014-optimal-tetris-04-10.pddl,TIMEOUT:1801.09:-1.0:1800.0:-1
ipc-2014-optimal-tetris-04-04.pddl,CRASHED:1639.96:1000000000.0:1800.0:-1
ipc-2014-optimal-tetris-04-06.pddl,CRASHED:1801.08:1000000000.0:1800.0:-1
ipc-2014-optimal-tetris-04-08.pddl,CRASHED:1801.04:1000000000.0:1800.0:-1
ipc-2014-optimal-tetris-05-10.pddl,CRASHED:1800.72:1000000000.0:1800.0:-1
ipc-2014-optimal-tetris-05-04.pddl,CRASHED:1381.66:1000000000.0:1800.0:-1
ipc-2014-optimal-tetris-05-06.pddl,SAT:87.7437:19.0:1800.0:-1
ipc-2014-optimal-tetris-05-08.pddl,CRASHED:1801.09:1000000000.0:1800.0:-1
ipc-2014-optimal-tidybot-01.pddl,CRASHED:1800.46:1000000000.0:1800.0:-1
ipc-2014-optimal-tidybot-02.pddl,SAT:327.79:35.0:1800.0:-1
ipc-2014-optimal-tidybot-03.pddl,SAT:413.108:30.0:1800.0:-1
ipc-2014-optimal-tidybot-04.pddl,SAT:410.625:24.0:1800.0:-1
ipc-2014-optimal-tidybot-05.pddl,CRASHED:1800.78:1000000000.0:1800.0:-1
ipc-2014-optimal-tidybot-06.pddl,CRASHED:1800.42:1000000000.0:1800.0:-1
ipc-2014-optimal-tidybot-07.pddl,CRASHED:1800.44:1000000000.0:1800.0:-1
ipc-2014-optimal-tidybot-08.pddl,SAT:253.989:25.0:1800.0:-1
ipc-2014-optimal-tidybot-09.pddl,CRASHED:1800.69:1000000000.0:1800.0:-1
ipc-2014-optimal-tidybot-10.pddl,CRASHED:1801.02:1000000000.0:1800.0:-1
ipc-2014-optimal-tidybot-11.pddl,SAT:159.808:29.0:1800.0:-1
ipc-2014-optimal-tidybot-12.pddl,CRASHED:1800.6:1000000000.0:1800.0:-1
ipc-2014-optimal-tidybot-13.pddl,SAT:430.714:30.0:1800.0:-1
ipc-2014-optimal-tidybot-14.pddl,SAT:71.0032:25.0:1800.0:-1
ipc-2014-optimal-tidybot-15.pddl,CRASHED:1801.12:1000000000.0:1800.0:-1
ipc-2014-optimal-tidybot-16.pddl,CRASHED:1800.26:1000000000.0:1800.0:-1
ipc-2014-optimal-tidybot-17.pddl,CRASHED:1800.57:1000000000.0:1800.0:-1
ipc-2014-optimal-tidybot-18.pddl,CRASHED:1800.52:1000000000.0:1800.0:-1
ipc-2014-optimal-tidybot-19.pddl,CRASHED:1800.61:1000000000.0:1800.0:-1
ipc-2014-optimal-tidybot-20.pddl,CRASHED:1800.59:1000000000.0:1800.0:-1
ipc-2014-optimal-transport-01.pddl,SAT:1.13883:148.0:1800.0:-1
ipc-2014-optimal-transport-02.pddl,SAT:24.2293:191.0:1800.0:-1
ipc-2014-optimal-transport-03.pddl,SAT:89.2144:300.0:1800.0:-1
ipc-2014-optimal-transport-04.pddl,CRASHED:1800.86:1000000000.0:1800.0:-1
ipc-2014-optimal-transport-05.pddl,CRASHED:1743.39:1000000000.0:1800.0:-1
ipc-2014-optimal-transport-06.pddl,CRASHED:1743.41:1000000000.0:1800.0:-1
ipc-2014-optimal-transport-07.pddl,SAT:315.494:967.0:1800.0:-1
ipc-2014-optimal-transport-08.pddl,CRASHED:1800.92:1000000000.0:1800.0:-1
ipc-2014-optimal-transport-09.pddl,CRASHED:1800.51:1000000000.0:1800.0:-1
ipc-2014-optimal-transport-10.pddl,CRASHED:1800.55:1000000000.0:1800.0:-1
ipc-2014-optimal-transport-11.pddl,CRASHED:1800.37:1000000000.0:1800.0:-1
ipc-2014-optimal-transport-12.pddl,CRASHED:1800.73:1000000000.0:1800.0:-1
ipc-2014-optimal-transport-13.pddl,SAT:9.75852:594.0:1800.0:-1
ipc-2014-optimal-transport-14.pddl,SAT:304.841:526.0:1800.0:-1
ipc-2014-optimal-transport-15.pddl,CRASHED:1800.52:1000000000.0:1800.0:-1
ipc-2014-optimal-transport-16.pddl,CRASHED:1800.98:1000000000.0:1800.0:-1
ipc-2014-optimal-transport-17.pddl,CRASHED:1747.53:1000000000.0:1800.0:-1
ipc-2014-optimal-transport-18.pddl,CRASHED:1784.59:1000000000.0:1800.0:-1
ipc-2014-optimal-transport-19.pddl,CRASHED:1800.35:1000000000.0:1800.0:-1
ipc-2014-optimal-transport-20.pddl,CRASHED:4.76837e-07:1000000000.0:1800.0:-1
ipc-2014-optimal-visitall-05-10.pddl,CRASHED:1800.58:1000000000.0:1800.0:-1
ipc-2014-optimal-visitall-05-05.pddl,SAT:0.628903:21.0:1800.0:-1
ipc-2014-optimal-visitall-05-06.pddl,SAT:0.78288:25.0:1800.0:-1
ipc-2014-optimal-visitall-05-07.pddl,SAT:19.2061:34.0:1800.0:-1
ipc-2014-optimal-visitall-05-08.pddl,SAT:58.0382:43.0:1800.0:-1
ipc-2014-optimal-visitall-05-09.pddl,CRASHED:1800.93:1000000000.0:1800.0:-1
ipc-2014-optimal-visitall-01-10.pddl,SAT:0.97985:99.0:1800.0:-1
ipc-2014-optimal-visitall-01-11.pddl,SAT:1.11483:120.0:1800.0:-1
ipc-2014-optimal-visitall-01-12.pddl,SAT:22.7435:143.0:1800.0:-1
ipc-2014-optimal-visitall-01-13.pddl,SAT:1.41678:168.0:1800.0:-1
ipc-2014-optimal-visitall-01-14.pddl,CRASHED:1800.54:1000000000.0:1800.0:-1
ipc-2014-optimal-visitall-01-15.pddl,CRASHED:1800.57:1000000000.0:1800.0:-1
ipc-2014-optimal-visitall-01-16.pddl,CRASHED:1800.26:1000000000.0:1800.0:-1
ipc-2014-optimal-visitall-01-17.pddl,CRASHED:1800.86:1000000000.0:1800.0:-1
ipc-2014-optimal-visitall-01-18.pddl,CRASHED:1800.74:1000000000.0:1800.0:-1
ipc-2014-optimal-visitall-01-05.pddl,SAT:0.595909:24.0:1800.0:-1
ipc-2014-optimal-visitall-01-06.pddl,SAT:0.674896:35.0:1800.0:-1
ipc-2014-optimal-visitall-01-07.pddl,SAT:0.724889:48.0:1800.0:-1
ipc-2014-optimal-visitall-01-08.pddl,SAT:0.835872:63.0:1800.0:-1
ipc-2014-optimal-visitall-01-09.pddl,SAT:0.930857:80.0:1800.0:-1
