instance,ipc-2014-optimal-gamer
ipc-2014-optimal-barman-p433.1.pddl,CRASHED:0.045992:1000000000.0:1800.0:-1
ipc-2014-optimal-barman-p433.2.pddl,CRASHED:0.050992:1000000000.0:1800.0:-1
ipc-2014-optimal-barman-p433.3.pddl,CRASHED:0.051991:1000000000.0:1800.0:-1
ipc-2014-optimal-barman-p435.1.pddl,SAT:1011.87:49.0:1800.0:-1
ipc-2014-optimal-barman-p435.2.pddl,SAT:907.798:49.0:1800.0:-1
ipc-2014-optimal-barman-p435.3.pddl,SAT:990.769:49.0:1800.0:-1
ipc-2014-optimal-barman-p443.1.pddl,CRASHED:0.051991:1000000000.0:1800.0:-1
ipc-2014-optimal-barman-p443.2.pddl,CRASHED:0.043992:1000000000.0:1800.0:-1
ipc-2014-optimal-barman-p443.3.pddl,CRASHED:0.048992:1000000000.0:1800.0:-1
ipc-2014-optimal-barman-p536.1.pddl,TIMEOUT:1801.04:-1.0:1800.0:-1
ipc-2014-optimal-barman-p536.2.pddl,TIMEOUT:1801.08:-1.0:1800.0:-1
ipc-2014-optimal-barman-p536.3.pddl,TIMEOUT:1801.08:-1.0:1800.0:-1
ipc-2014-optimal-barman-p638.1.pddl,CRASHED:1320.65:1000000000.0:1800.0:-1
ipc-2014-optimal-barman-p638.2.pddl,TIMEOUT:1801.09:-1.0:1800.0:-1
ipc-2014-optimal-barman-p638.3.pddl,CRASHED:1303.31:1000000000.0:1800.0:-1
ipc-2014-optimal-barman-p739.1.pddl,TIMEOUT:1801.02:-1.0:1800.0:-1
ipc-2014-optimal-barman-p739.2.pddl,CRASHED:1046.01:1000000000.0:1800.0:-1
ipc-2014-optimal-barman-p739.3.pddl,CRASHED:741.08:1000000000.0:1800.0:-1
ipc-2014-optimal-barman-p839.1.pddl,CRASHED:1098.81:1000000000.0:1800.0:-1
ipc-2014-optimal-barman-p839.2.pddl,CRASHED:1025.18:1000000000.0:1800.0:-1
ipc-2014-optimal-cavediving-01.pddl,CRASHED:868.14:1000000000.0:1800.0:-1
ipc-2014-optimal-cavediving-01_easy.pddl,TIMEOUT:1801.03:-1.0:1800.0:-1
ipc-2014-optimal-cavediving-02_easy.pddl,TIMEOUT:1801.08:-1.0:1800.0:-1
ipc-2014-optimal-cavediving-03_easy.pddl,TIMEOUT:1801.01:-1.0:1800.0:-1
ipc-2014-optimal-cavediving-04_easy.pddl,CRASHED:1081.85:1000000000.0:1800.0:-1
ipc-2014-optimal-cavediving-05A_easy.pddl,SAT:230.509:0.0:1800.0:-1
ipc-2014-optimal-cavediving-06A_easy.pddl,SAT:212.613:0.0:1800.0:-1
ipc-2014-optimal-cavediving-07_easy.pddl,SAT:22.7135:131.0:1800.0:-1
ipc-2014-optimal-cavediving-08_easy.pddl,SAT:222.272:0.0:1800.0:-1
ipc-2014-optimal-cavediving-09_easy.pddl,TIMEOUT:1801.03:-1.0:1800.0:-1
ipc-2014-optimal-cavediving-10_easy.pddl,TIMEOUT:1801.01:-1.0:1800.0:-1
ipc-2014-optimal-cavediving-11_easy.pddl,TIMEOUT:1801.01:-1.0:1800.0:-1
ipc-2014-optimal-cavediving-12_easy.pddl,TIMEOUT:1801.01:-1.0:1800.0:-1
ipc-2014-optimal-cavediving-13_easy.pddl,CRASHED:1258.1:1000000000.0:1800.0:-1
ipc-2014-optimal-cavediving-14_easy.pddl,CRASHED:1089.68:1000000000.0:1800.0:-1
ipc-2014-optimal-cavediving-15_easy.pddl,CRASHED:1494.27:1000000000.0:1800.0:-1
ipc-2014-optimal-cavediving-16_easy.pddl,CRASHED:1501.91:1000000000.0:1800.0:-1
ipc-2014-optimal-cavediving-18A_easy.pddl,SAT:149.703:131.0:1800.0:-1
ipc-2014-optimal-cavediving-18_easy.pddl,SAT:107.359:131.0:1800.0:-1
ipc-2014-optimal-cavediving-20A_easy.pddl,SAT:534.332:0.0:1800.0:-1
ipc-2014-optimal-childsnack-01-2.pddl,SAT:465.908:21.0:1800.0:-1
ipc-2014-optimal-childsnack-01.pddl,SAT:276.102:20.0:1800.0:-1
ipc-2014-optimal-childsnack-02-2.pddl,CRASHED:1402.59:1000000000.0:1800.0:-1
ipc-2014-optimal-childsnack-02.pddl,SAT:1419.37:23.0:1800.0:-1
ipc-2014-optimal-childsnack-03-2.pddl,CRASHED:627.29:1000000000.0:1800.0:-1
ipc-2014-optimal-childsnack-03.pddl,CRASHED:920.84:1000000000.0:1800.0:-1
ipc-2014-optimal-childsnack-04-2.pddl,CRASHED:841.36:1000000000.0:1800.0:-1
ipc-2014-optimal-childsnack-04.pddl,CRASHED:945.83:1000000000.0:1800.0:-1
ipc-2014-optimal-childsnack-05-2.pddl,CRASHED:683.83:1000000000.0:1800.0:-1
ipc-2014-optimal-childsnack-05.pddl,CRASHED:669.31:1000000000.0:1800.0:-1
ipc-2014-optimal-childsnack-06-2.pddl,CRASHED:928.98:1000000000.0:1800.0:-1
ipc-2014-optimal-childsnack-06.pddl,CRASHED:936.45:1000000000.0:1800.0:-1
ipc-2014-optimal-childsnack-07-2.pddl,CRASHED:694.5:1000000000.0:1800.0:-1
ipc-2014-optimal-childsnack-07.pddl,CRASHED:465.53:1000000000.0:1800.0:-1
ipc-2014-optimal-childsnack-08-2.pddl,CRASHED:1213.11:1000000000.0:1800.0:-1
ipc-2014-optimal-childsnack-08.pddl,CRASHED:1152.71:1000000000.0:1800.0:-1
ipc-2014-optimal-childsnack-09-2.pddl,CRASHED:275.91:1000000000.0:1800.0:-1
ipc-2014-optimal-childsnack-09.pddl,CRASHED:672.16:1000000000.0:1800.0:-1
ipc-2014-optimal-childsnack-10-2.pddl,CRASHED:385.08:1000000000.0:1800.0:-1
ipc-2014-optimal-childsnack-10.pddl,CRASHED:727.84:1000000000.0:1800.0:-1
ipc-2014-optimal-citycar-p2-2-2-1-2.pddl,SAT:4.82926:46.0:1800.0:-1
ipc-2014-optimal-citycar-p2-2-2-2-1.pddl,SAT:4.46932:64.0:1800.0:-1
ipc-2014-optimal-citycar-p2-2-3-1-2.pddl,SAT:5.67914:50.0:1800.0:-1
ipc-2014-optimal-citycar-p2-2-3-2-1.pddl,SAT:6.62999:48.0:1800.0:-1
ipc-2014-optimal-citycar-p2-2-3-2-2.pddl,SAT:5.62814:50.0:1800.0:-1
ipc-2014-optimal-citycar-p2-2-4-1-2.pddl,SAT:14.4188:52.0:1800.0:-1
ipc-2014-optimal-citycar-p2-2-4-2-1.pddl,SAT:13.096:52.0:1800.0:-1
ipc-2014-optimal-citycar-p2-2-5-2-2.pddl,SAT:215.088:76.0:1800.0:-1
ipc-2014-optimal-citycar-p2-2-6-1-1.pddl,SAT:65.1871:58.0:1800.0:-1
ipc-2014-optimal-citycar-p2-2-6-2-2.pddl,SAT:73.4078:58.0:1800.0:-1
ipc-2014-optimal-citycar-p2-3-2-3-1.pddl,SAT:18.1712:68.0:1800.0:-1
ipc-2014-optimal-citycar-p2-3-3-3-1.pddl,SAT:142.453:78.0:1800.0:-1
ipc-2014-optimal-citycar-p2-3-4-3-1.pddl,SAT:558.911:82.0:1800.0:-1
ipc-2014-optimal-citycar-p2-3-6-3-2.pddl,TIMEOUT:1801.08:-1.0:1800.0:-1
ipc-2014-optimal-citycar-p3-3-2-2-1.pddl,SAT:136.968:70.0:1800.0:-1
ipc-2014-optimal-citycar-p3-3-2-2-2.pddl,SAT:627.784:92.0:1800.0:-1
ipc-2014-optimal-citycar-p3-3-2-3-1.pddl,SAT:57.0103:48.0:1800.0:-1
ipc-2014-optimal-citycar-p3-3-2-3-2.pddl,SAT:101.289:70.0:1800.0:-1
ipc-2014-optimal-citycar-p3-3-3-3-1.pddl,TIMEOUT:1801.1:-1.0:1800.0:-1
ipc-2014-optimal-citycar-p3-3-3-3-2.pddl,SAT:1354.94:76.0:1800.0:-1
ipc-2014-optimal-floortile-p01-4-3-2.pddl,SAT:10.7004:56.0:1800.0:-1
ipc-2014-optimal-floortile-p01-4-4-2.pddl,SAT:78.0981:68.0:1800.0:-1
ipc-2014-optimal-floortile-p01-5-3-2.pddl,SAT:22.7595:63.0:1800.0:-1
ipc-2014-optimal-floortile-p01-5-4-2.pddl,SAT:470.778:91.0:1800.0:-1
ipc-2014-optimal-floortile-p01-5-5-2.pddl,TIMEOUT:1801.09:-1.0:1800.0:-1
ipc-2014-optimal-floortile-p01-6-4-2.pddl,SAT:1314.18:104.0:1800.0:-1
ipc-2014-optimal-floortile-p01-6-5-2.pddl,TIMEOUT:1801.0:-1.0:1800.0:-1
ipc-2014-optimal-floortile-p02-4-4-2.pddl,SAT:91.1271:75.0:1800.0:-1
ipc-2014-optimal-floortile-p02-5-3-2.pddl,SAT:25.2412:65.0:1800.0:-1
ipc-2014-optimal-floortile-p02-5-4-2.pddl,SAT:502.499:98.0:1800.0:-1
ipc-2014-optimal-floortile-p02-5-5-2.pddl,TIMEOUT:1801.01:-1.0:1800.0:-1
ipc-2014-optimal-floortile-p02-6-4-2.pddl,SAT:1342.91:109.0:1800.0:-1
ipc-2014-optimal-floortile-p02-6-5-2.pddl,TIMEOUT:1801.06:-1.0:1800.0:-1
ipc-2014-optimal-floortile-p03-4-3-2.pddl,SAT:10.3184:56.0:1800.0:-1
ipc-2014-optimal-floortile-p03-4-4-2.pddl,SAT:86.6478:72.0:1800.0:-1
ipc-2014-optimal-floortile-p03-5-3-2.pddl,SAT:25.5221:65.0:1800.0:-1
ipc-2014-optimal-floortile-p03-5-4-2.pddl,SAT:564.297:83.0:1800.0:-1
ipc-2014-optimal-floortile-p03-5-5-2.pddl,TIMEOUT:1801.0:-1.0:1800.0:-1
ipc-2014-optimal-floortile-p03-6-4-2.pddl,SAT:1628.83:116.0:1800.0:-1
ipc-2014-optimal-floortile-p03-6-5-2.pddl,TIMEOUT:1801.03:-1.0:1800.0:-1
ipc-2014-optimal-ged-d-1-2.pddl,CRASHED:0.044992:1000000000.0:1800.0:-1
ipc-2014-optimal-ged-d-1-3.pddl,CRASHED:0.043992:1000000000.0:1800.0:-1
ipc-2014-optimal-ged-d-1-4.pddl,CRASHED:0.040992:1000000000.0:1800.0:-1
ipc-2014-optimal-ged-d-1-8.pddl,CRASHED:0.038993:1000000000.0:1800.0:-1
ipc-2014-optimal-ged-d-2-1.pddl,CRASHED:0.039993:1000000000.0:1800.0:-1
ipc-2014-optimal-ged-d-2-3.pddl,CRASHED:0.036994:1000000000.0:1800.0:-1
ipc-2014-optimal-ged-d-2-4.pddl,CRASHED:0.040993:1000000000.0:1800.0:-1
ipc-2014-optimal-ged-d-2-8.pddl,CRASHED:0.037993:1000000000.0:1800.0:-1
ipc-2014-optimal-ged-d-3-1.pddl,CRASHED:0.039993:1000000000.0:1800.0:-1
ipc-2014-optimal-ged-d-3-2.pddl,CRASHED:0.037993:1000000000.0:1800.0:-1
ipc-2014-optimal-ged-d-3-4.pddl,CRASHED:0.037993:1000000000.0:1800.0:-1
ipc-2014-optimal-ged-d-4-2.pddl,CRASHED:0.045992:1000000000.0:1800.0:-1
ipc-2014-optimal-ged-d-4-3.pddl,CRASHED:0.039993:1000000000.0:1800.0:-1
ipc-2014-optimal-ged-d-4-8.pddl,CRASHED:0.036993:1000000000.0:1800.0:-1
ipc-2014-optimal-ged-d-7-5.pddl,CRASHED:0.040993:1000000000.0:1800.0:-1
ipc-2014-optimal-ged-d-7-6.pddl,CRASHED:0.041993:1000000000.0:1800.0:-1
ipc-2014-optimal-ged-d-8-1.pddl,CRASHED:0.046992:1000000000.0:1800.0:-1
ipc-2014-optimal-ged-d-8-2.pddl,CRASHED:0.037993:1000000000.0:1800.0:-1
ipc-2014-optimal-ged-d-8-4.pddl,CRASHED:0.038993:1000000000.0:1800.0:-1
ipc-2014-optimal-ged-d-8-9.pddl,CRASHED:0.040993:1000000000.0:1800.0:-1
ipc-2014-optimal-hiking-1-2-3.pddl,SAT:1.27181:11.0:1800.0:-1
ipc-2014-optimal-hiking-1-2-4.pddl,SAT:1.72774:17.0:1800.0:-1
ipc-2014-optimal-hiking-1-2-5.pddl,SAT:2.38564:25.0:1800.0:-1
ipc-2014-optimal-hiking-1-2-7.pddl,SAT:3.78942:38.0:1800.0:-1
ipc-2014-optimal-hiking-1-2-8.pddl,SAT:4.56231:45.0:1800.0:-1
ipc-2014-optimal-hiking-2-2-3.pddl,SAT:2.80157:10.0:1800.0:-1
ipc-2014-optimal-hiking-2-2-4.pddl,SAT:9.97148:16.0:1800.0:-1
ipc-2014-optimal-hiking-2-2-5.pddl,SAT:97.6312:22.0:1800.0:-1
ipc-2014-optimal-hiking-2-2-6.pddl,SAT:434.771:30.0:1800.0:-1
ipc-2014-optimal-hiking-2-2-7.pddl,SAT:1643.56:34.0:1800.0:-1
ipc-2014-optimal-hiking-2-2-8.pddl,TIMEOUT:1801.01:-1.0:1800.0:-1
ipc-2014-optimal-hiking-2-3-4.pddl,SAT:30.9403:17.0:1800.0:-1
ipc-2014-optimal-hiking-2-3-5.pddl,SAT:459.008:24.0:1800.0:-1
ipc-2014-optimal-hiking-2-3-6.pddl,TIMEOUT:1801.05:-1.0:1800.0:-1
ipc-2014-optimal-hiking-2-3-7.pddl,TIMEOUT:1801.07:-1.0:1800.0:-1
ipc-2014-optimal-hiking-2-4-3.pddl,SAT:5.67714:10.0:1800.0:-1
ipc-2014-optimal-hiking-2-4-4.pddl,SAT:54.1458:17.0:1800.0:-1
ipc-2014-optimal-hiking-2-4-5.pddl,SAT:927.744:23.0:1800.0:-1
ipc-2014-optimal-hiking-2-4-6.pddl,TIMEOUT:1801.09:-1.0:1800.0:-1
ipc-2014-optimal-hiking-2-4-7.pddl,TIMEOUT:1801.07:-1.0:1800.0:-1
ipc-2014-optimal-maintenance-1.3.010.010.1-001.pddl,CRASHED:0.900862:1000000000.0:1800.0:-1
ipc-2014-optimal-maintenance-1.3.010.010.1-002.pddl,CRASHED:0.91286:1000000000.0:1800.0:-1
ipc-2014-optimal-maintenance-1.3.010.010.2-000.pddl,CRASHED:0.934857:1000000000.0:1800.0:-1
ipc-2014-optimal-maintenance-1.3.010.010.2-001.pddl,CRASHED:0.91886:1000000000.0:1800.0:-1
ipc-2014-optimal-maintenance-1.3.010.010.2-002.pddl,CRASHED:0.897863:1000000000.0:1800.0:-1
ipc-2014-optimal-maintenance-1.3.015.020.1-000.pddl,CRASHED:0.048991:1000000000.0:1800.0:-1
ipc-2014-optimal-maintenance-1.3.015.020.1-001.pddl,CRASHED:0.051991:1000000000.0:1800.0:-1
ipc-2014-optimal-maintenance-1.3.015.020.1-002.pddl,CRASHED:0.052991:1000000000.0:1800.0:-1
ipc-2014-optimal-maintenance-1.3.015.020.2-000.pddl,CRASHED:0.05899:1000000000.0:1800.0:-1
ipc-2014-optimal-maintenance-1.3.015.020.2-001.pddl,CRASHED:0.049991:1000000000.0:1800.0:-1
ipc-2014-optimal-maintenance-1.3.015.020.2-002.pddl,CRASHED:0.047992:1000000000.0:1800.0:-1
ipc-2014-optimal-maintenance-1.3.025.050.1-000.pddl,CRASHED:2.28565:1000000000.0:1800.0:-1
ipc-2014-optimal-maintenance-1.3.025.050.1-001.pddl,CRASHED:2.18967:1000000000.0:1800.0:-1
ipc-2014-optimal-maintenance-1.3.025.050.1-002.pddl,CRASHED:2.10568:1000000000.0:1800.0:-1
ipc-2014-optimal-maintenance-1.3.025.100.1-000.pddl,CRASHED:3.68744:1000000000.0:1800.0:-1
ipc-2014-optimal-maintenance-1.3.025.100.1-001.pddl,CRASHED:3.75943:1000000000.0:1800.0:-1
ipc-2014-optimal-maintenance-1.3.025.100.1-002.pddl,CRASHED:3.70244:1000000000.0:1800.0:-1
ipc-2014-optimal-maintenance-1.3.025.100.2-000.pddl,CRASHED:594.75:1000000000.0:1800.0:-1
ipc-2014-optimal-maintenance-1.3.025.100.2-001.pddl,CRASHED:0.449931:1000000000.0:1800.0:-1
ipc-2014-optimal-maintenance-1.3.025.100.2-002.pddl,CRASHED:0.476927:1000000000.0:1800.0:-1
ipc-2014-optimal-openstacks-p20_1.pddl,SAT:35.3036:3.0:1800.0:-1
ipc-2014-optimal-openstacks-p20_2.pddl,SAT:35.6736:4.0:1800.0:-1
ipc-2014-optimal-openstacks-p20_3.pddl,SAT:37.1534:6.0:1800.0:-1
ipc-2014-optimal-openstacks-p25_1.pddl,SAT:39.393:4.0:1800.0:-1
ipc-2014-optimal-openstacks-p25_3.pddl,SAT:51.0952:9.0:1800.0:-1
ipc-2014-optimal-openstacks-p30_1.pddl,SAT:46.9869:4.0:1800.0:-1
ipc-2014-optimal-openstacks-p30_2.pddl,SAT:49.2655:4.0:1800.0:-1
ipc-2014-optimal-openstacks-p30_3.pddl,SAT:113.431:12.0:1800.0:-1
ipc-2014-optimal-openstacks-p35_1.pddl,SAT:58.4071:4.0:1800.0:-1
ipc-2014-optimal-openstacks-p35_2.pddl,SAT:66.9378:5.0:1800.0:-1
ipc-2014-optimal-openstacks-p35_3.pddl,SAT:1244.07:14.0:1800.0:-1
ipc-2014-optimal-openstacks-p40_1.pddl,SAT:96.0304:3.0:1800.0:-1
ipc-2014-optimal-openstacks-p40_2.pddl,SAT:107.473:4.0:1800.0:-1
ipc-2014-optimal-openstacks-p40_3.pddl,TIMEOUT:1801.07:-1.0:1800.0:-1
ipc-2014-optimal-openstacks-p45_1.pddl,SAT:174.17:4.0:1800.0:-1
ipc-2014-optimal-openstacks-p45_2.pddl,SAT:200.884:5.0:1800.0:-1
ipc-2014-optimal-openstacks-p45_3.pddl,TIMEOUT:1801.06:-1.0:1800.0:-1
ipc-2014-optimal-openstacks-p50_1.pddl,SAT:320.679:4.0:1800.0:-1
ipc-2014-optimal-openstacks-p50_2.pddl,SAT:956.825:5.0:1800.0:-1
ipc-2014-optimal-openstacks-p50_3.pddl,TIMEOUT:1801.08:-1.0:1800.0:-1
ipc-2014-optimal-parking-12_7-01.pddl,CRASHED:1710.88:1000000000.0:1800.0:-1
ipc-2014-optimal-parking-12_7-02.pddl,TIMEOUT:1801.06:-1.0:1800.0:-1
ipc-2014-optimal-parking-12_7-03.pddl,CRASHED:1479.04:1000000000.0:1800.0:-1
ipc-2014-optimal-parking-12_7-04.pddl,CRASHED:1693.41:1000000000.0:1800.0:-1
ipc-2014-optimal-parking-14_8-01.pddl,TIMEOUT:1801.0:-1.0:1800.0:-1
ipc-2014-optimal-parking-14_8-02.pddl,TIMEOUT:1801.08:-1.0:1800.0:-1
ipc-2014-optimal-parking-14_8-03.pddl,TIMEOUT:1801.05:-1.0:1800.0:-1
ipc-2014-optimal-parking-14_8-04.pddl,TIMEOUT:1801.03:-1.0:1800.0:-1
ipc-2014-optimal-parking-16_9-01.pddl,TIMEOUT:1801.0:-1.0:1800.0:-1
ipc-2014-optimal-parking-16_9-02.pddl,TIMEOUT:1801.08:-1.0:1800.0:-1
ipc-2014-optimal-parking-16_9-03.pddl,TIMEOUT:1801.01:-1.0:1800.0:-1
ipc-2014-optimal-parking-16_9-04.pddl,TIMEOUT:1801.08:-1.0:1800.0:-1
ipc-2014-optimal-parking-18_10-01.pddl,TIMEOUT:1801.03:-1.0:1800.0:-1
ipc-2014-optimal-parking-18_10-02.pddl,TIMEOUT:1801.09:-1.0:1800.0:-1
ipc-2014-optimal-parking-18_10-03.pddl,TIMEOUT:1801.05:-1.0:1800.0:-1
ipc-2014-optimal-parking-18_10-04.pddl,TIMEOUT:1801.08:-1.0:1800.0:-1
ipc-2014-optimal-parking-20_11-01.pddl,TIMEOUT:1801.05:-1.0:1800.0:-1
ipc-2014-optimal-parking-20_11-02.pddl,TIMEOUT:1801.07:-1.0:1800.0:-1
ipc-2014-optimal-parking-20_11-03.pddl,TIMEOUT:1801.07:-1.0:1800.0:-1
ipc-2014-optimal-parking-20_11-04.pddl,TIMEOUT:1801.02:-1.0:1800.0:-1
ipc-2014-optimal-tetris-01-10.pddl,TIMEOUT:1801.11:-1.0:1800.0:-1
ipc-2014-optimal-tetris-01-04.pddl,CRASHED:563.335:1000000000.0:1800.0:-1
ipc-2014-optimal-tetris-01-06.pddl,TIMEOUT:1801.02:-1.0:1800.0:-1
ipc-2014-optimal-tetris-01-08.pddl,CRASHED:65.25:1000000000.0:1800.0:-1
ipc-2014-optimal-tetris-02-10.pddl,TIMEOUT:1801.03:-1.0:1800.0:-1
ipc-2014-optimal-tetris-02-04.pddl,SAT:40.5588:10.0:1800.0:-1
ipc-2014-optimal-tetris-02-06.pddl,TIMEOUT:1801.0:-1.0:1800.0:-1
ipc-2014-optimal-tetris-02-08.pddl,CRASHED:129.08:1000000000.0:1800.0:-1
ipc-2014-optimal-tetris-03-10.pddl,CRASHED:103.99:1000000000.0:1800.0:-1
ipc-2014-optimal-tetris-03-04.pddl,SAT:55.4876:11.0:1800.0:-1
ipc-2014-optimal-tetris-03-06.pddl,TIMEOUT:1801.08:-1.0:1800.0:-1
ipc-2014-optimal-tetris-03-08.pddl,CRASHED:80.86:1000000000.0:1800.0:-1
ipc-2014-optimal-tetris-04-10.pddl,CRASHED:77.92:1000000000.0:1800.0:-1
ipc-2014-optimal-tetris-04-04.pddl,CRASHED:338.664:1000000000.0:1800.0:-1
ipc-2014-optimal-tetris-04-06.pddl,TIMEOUT:1801.04:-1.0:1800.0:-1
ipc-2014-optimal-tetris-04-08.pddl,CRASHED:70.53:1000000000.0:1800.0:-1
ipc-2014-optimal-tetris-05-10.pddl,CRASHED:98.45:1000000000.0:1800.0:-1
ipc-2014-optimal-tetris-05-04.pddl,CRASHED:416.746:1000000000.0:1800.0:-1
ipc-2014-optimal-tetris-05-06.pddl,SAT:333.302:19.0:1800.0:-1
ipc-2014-optimal-tetris-05-08.pddl,CRASHED:80.01:1000000000.0:1800.0:-1
ipc-2014-optimal-tidybot-01.pddl,TIMEOUT:1801.03:-1.0:1800.0:-1
ipc-2014-optimal-tidybot-02.pddl,SAT:1595.18:35.0:1800.0:-1
ipc-2014-optimal-tidybot-03.pddl,TIMEOUT:1801.03:-1.0:1800.0:-1
ipc-2014-optimal-tidybot-04.pddl,SAT:1164.8:24.0:1800.0:-1
ipc-2014-optimal-tidybot-05.pddl,TIMEOUT:1801.04:-1.0:1800.0:-1
ipc-2014-optimal-tidybot-06.pddl,CRASHED:1735.64:1000000000.0:1800.0:-1
ipc-2014-optimal-tidybot-07.pddl,TIMEOUT:1801.09:-1.0:1800.0:-1
ipc-2014-optimal-tidybot-08.pddl,TIMEOUT:1801.07:-1.0:1800.0:-1
ipc-2014-optimal-tidybot-09.pddl,TIMEOUT:1801.06:-1.0:1800.0:-1
ipc-2014-optimal-tidybot-10.pddl,TIMEOUT:1801.07:-1.0:1800.0:-1
ipc-2014-optimal-tidybot-11.pddl,SAT:1012.66:29.0:1800.0:-1
ipc-2014-optimal-tidybot-12.pddl,TIMEOUT:1801.04:-1.0:1800.0:-1
ipc-2014-optimal-tidybot-13.pddl,SAT:1713.9:30.0:1800.0:-1
ipc-2014-optimal-tidybot-14.pddl,TIMEOUT:1801.0:-1.0:1800.0:-1
ipc-2014-optimal-tidybot-15.pddl,TIMEOUT:1801.09:-1.0:1800.0:-1
ipc-2014-optimal-tidybot-16.pddl,TIMEOUT:1801.01:-1.0:1800.0:-1
ipc-2014-optimal-tidybot-17.pddl,TIMEOUT:1801.07:-1.0:1800.0:-1
ipc-2014-optimal-tidybot-18.pddl,TIMEOUT:1801.03:-1.0:1800.0:-1
ipc-2014-optimal-tidybot-19.pddl,TIMEOUT:1801.04:-1.0:1800.0:-1
ipc-2014-optimal-tidybot-20.pddl,TIMEOUT:1801.09:-1.0:1800.0:-1
ipc-2014-optimal-transport-01.pddl,SAT:2.27865:148.0:1800.0:-1
ipc-2014-optimal-transport-02.pddl,SAT:13.3:191.0:1800.0:-1
ipc-2014-optimal-transport-03.pddl,SAT:45.6921:300.0:1800.0:-1
ipc-2014-optimal-transport-04.pddl,TIMEOUT:1801.03:-1.0:1800.0:-1
ipc-2014-optimal-transport-05.pddl,TIMEOUT:1801.03:-1.0:1800.0:-1
ipc-2014-optimal-transport-06.pddl,TIMEOUT:1801.01:-1.0:1800.0:-1
ipc-2014-optimal-transport-07.pddl,SAT:31.8732:967.0:1800.0:-1
ipc-2014-optimal-transport-08.pddl,TIMEOUT:1801.01:-1.0:1800.0:-1
ipc-2014-optimal-transport-09.pddl,TIMEOUT:1801.02:-1.0:1800.0:-1
ipc-2014-optimal-transport-10.pddl,TIMEOUT:1801.08:-1.0:1800.0:-1
ipc-2014-optimal-transport-11.pddl,TIMEOUT:1801.01:-1.0:1800.0:-1
ipc-2014-optimal-transport-12.pddl,TIMEOUT:1801.05:-1.0:1800.0:-1
ipc-2014-optimal-transport-13.pddl,SAT:11.6942:594.0:1800.0:-1
ipc-2014-optimal-transport-14.pddl,SAT:352.413:526.0:1800.0:-1
ipc-2014-optimal-transport-15.pddl,TIMEOUT:1801.05:-1.0:1800.0:-1
ipc-2014-optimal-transport-16.pddl,TIMEOUT:1801.08:-1.0:1800.0:-1
ipc-2014-optimal-transport-17.pddl,TIMEOUT:1801.02:-1.0:1800.0:-1
ipc-2014-optimal-transport-18.pddl,TIMEOUT:1801.07:-1.0:1800.0:-1
ipc-2014-optimal-transport-19.pddl,TIMEOUT:1801.07:-1.0:1800.0:-1
ipc-2014-optimal-transport-20.pddl,TIMEOUT:1801.05:-1.0:1800.0:-1
ipc-2014-optimal-visitall-05-10.pddl,CRASHED:847.89:1000000000.0:1800.0:-1
ipc-2014-optimal-visitall-05-05.pddl,SAT:1.70274:21.0:1800.0:-1
ipc-2014-optimal-visitall-05-06.pddl,SAT:2.87556:25.0:1800.0:-1
ipc-2014-optimal-visitall-05-07.pddl,SAT:32.724:34.0:1800.0:-1
ipc-2014-optimal-visitall-05-08.pddl,CRASHED:777.73:1000000000.0:1800.0:-1
ipc-2014-optimal-visitall-05-09.pddl,CRASHED:699.82:1000000000.0:1800.0:-1
ipc-2014-optimal-visitall-01-10.pddl,CRASHED:428.68:1000000000.0:1800.0:-1
ipc-2014-optimal-visitall-01-11.pddl,CRASHED:724.78:1000000000.0:1800.0:-1
ipc-2014-optimal-visitall-01-12.pddl,CRASHED:603.2:1000000000.0:1800.0:-1
ipc-2014-optimal-visitall-01-13.pddl,CRASHED:888.03:1000000000.0:1800.0:-1
ipc-2014-optimal-visitall-01-14.pddl,CRASHED:1297.82:1000000000.0:1800.0:-1
ipc-2014-optimal-visitall-01-15.pddl,CRASHED:740.13:1000000000.0:1800.0:-1
ipc-2014-optimal-visitall-01-16.pddl,CRASHED:938.48:1000000000.0:1800.0:-1
ipc-2014-optimal-visitall-01-17.pddl,CRASHED:1282.92:1000000000.0:1800.0:-1
ipc-2014-optimal-visitall-01-18.pddl,CRASHED:932.63:1000000000.0:1800.0:-1
ipc-2014-optimal-visitall-01-05.pddl,SAT:5.9391:24.0:1800.0:-1
ipc-2014-optimal-visitall-01-06.pddl,SAT:842.314:35.0:1800.0:-1
ipc-2014-optimal-visitall-01-07.pddl,CRASHED:871.55:1000000000.0:1800.0:-1
ipc-2014-optimal-visitall-01-08.pddl,CRASHED:654.68:1000000000.0:1800.0:-1
ipc-2014-optimal-visitall-01-09.pddl,CRASHED:708.83:1000000000.0:1800.0:-1
