instance,ipc-2014-optimal-symba-2
ipc-2014-optimal-barman-p433.1.pddl,TIMEOUT:1801.13:-1.0:1800.0:-1
ipc-2014-optimal-barman-p433.2.pddl,TIMEOUT:1801.06:-1.0:1800.0:-1
ipc-2014-optimal-barman-p433.3.pddl,TIMEOUT:1801.05:-1.0:1800.0:-1
ipc-2014-optimal-barman-p435.1.pddl,SAT:39.0361:49.0:1800.0:-1
ipc-2014-optimal-barman-p435.2.pddl,CRASHED:61.5156:1000000000.0:1800.0:-1
ipc-2014-optimal-barman-p435.3.pddl,SAT:50.9932:49.0:1800.0:-1
ipc-2014-optimal-barman-p443.1.pddl,TIMEOUT:1801.06:-1.0:1800.0:-1
ipc-2014-optimal-barman-p443.2.pddl,TIMEOUT:1801.05:-1.0:1800.0:-1
ipc-2014-optimal-barman-p443.3.pddl,TIMEOUT:1801.11:-1.0:1800.0:-1
ipc-2014-optimal-barman-p536.1.pddl,TIMEOUT:1801.0:-1.0:1800.0:-1
ipc-2014-optimal-barman-p536.2.pddl,TIMEOUT:1801.06:-1.0:1800.0:-1
ipc-2014-optimal-barman-p536.3.pddl,TIMEOUT:1801.06:-1.0:1800.0:-1
ipc-2014-optimal-barman-p638.1.pddl,TIMEOUT:1801.08:-1.0:1800.0:-1
ipc-2014-optimal-barman-p638.2.pddl,TIMEOUT:1801.06:-1.0:1800.0:-1
ipc-2014-optimal-barman-p638.3.pddl,TIMEOUT:1801.02:-1.0:1800.0:-1
ipc-2014-optimal-barman-p739.1.pddl,TIMEOUT:1801.0:-1.0:1800.0:-1
ipc-2014-optimal-barman-p739.2.pddl,TIMEOUT:1801.09:-1.0:1800.0:-1
ipc-2014-optimal-barman-p739.3.pddl,TIMEOUT:1801.04:-1.0:1800.0:-1
ipc-2014-optimal-barman-p839.1.pddl,TIMEOUT:1801.05:-1.0:1800.0:-1
ipc-2014-optimal-barman-p839.2.pddl,TIMEOUT:1801.05:-1.0:1800.0:-1
ipc-2014-optimal-cavediving-01.pddl,TIMEOUT:1801.13:-1.0:1800.0:-1
ipc-2014-optimal-cavediving-01_easy.pddl,TIMEOUT:1801.14:-1.0:1800.0:-1
ipc-2014-optimal-cavediving-02_easy.pddl,TIMEOUT:1801.07:-1.0:1800.0:-1
ipc-2014-optimal-cavediving-03_easy.pddl,TIMEOUT:1801.11:-1.0:1800.0:-1
ipc-2014-optimal-cavediving-04_easy.pddl,TIMEOUT:1801.13:-1.0:1800.0:-1
ipc-2014-optimal-cavediving-05A_easy.pddl,TIMEOUT:1801.1:-1.0:1800.0:-1
ipc-2014-optimal-cavediving-06A_easy.pddl,TIMEOUT:1801.07:-1.0:1800.0:-1
ipc-2014-optimal-cavediving-07_easy.pddl,SAT:4.34534:131.0:1800.0:-1
ipc-2014-optimal-cavediving-08_easy.pddl,TIMEOUT:1801.08:-1.0:1800.0:-1
ipc-2014-optimal-cavediving-09_easy.pddl,TIMEOUT:1801.09:-1.0:1800.0:-1
ipc-2014-optimal-cavediving-10_easy.pddl,TIMEOUT:1801.1:-1.0:1800.0:-1
ipc-2014-optimal-cavediving-11_easy.pddl,TIMEOUT:1801.11:-1.0:1800.0:-1
ipc-2014-optimal-cavediving-12_easy.pddl,TIMEOUT:1801.13:-1.0:1800.0:-1
ipc-2014-optimal-cavediving-13_easy.pddl,TIMEOUT:1801.16:-1.0:1800.0:-1
ipc-2014-optimal-cavediving-14_easy.pddl,TIMEOUT:1801.13:-1.0:1800.0:-1
ipc-2014-optimal-cavediving-15_easy.pddl,TIMEOUT:1801.1:-1.0:1800.0:-1
ipc-2014-optimal-cavediving-16_easy.pddl,TIMEOUT:1801.13:-1.0:1800.0:-1
ipc-2014-optimal-cavediving-18A_easy.pddl,SAT:4.5833:131.0:1800.0:-1
ipc-2014-optimal-cavediving-18_easy.pddl,SAT:10.6694:131.0:1800.0:-1
ipc-2014-optimal-cavediving-20A_easy.pddl,TIMEOUT:1801.14:-1.0:1800.0:-1
ipc-2014-optimal-childsnack-01-2.pddl,TIMEOUT:1801.08:-1.0:1800.0:-1
ipc-2014-optimal-childsnack-01.pddl,CRASHED:48.9736:1000000000.0:1800.0:-1
ipc-2014-optimal-childsnack-02-2.pddl,TIMEOUT:1801.0:-1.0:1800.0:-1
ipc-2014-optimal-childsnack-02.pddl,TIMEOUT:1801.02:-1.0:1800.0:-1
ipc-2014-optimal-childsnack-03-2.pddl,TIMEOUT:1801.05:-1.0:1800.0:-1
ipc-2014-optimal-childsnack-03.pddl,TIMEOUT:1801.05:-1.0:1800.0:-1
ipc-2014-optimal-childsnack-04-2.pddl,CRASHED:83.9682:1000000000.0:1800.0:-1
ipc-2014-optimal-childsnack-04.pddl,TIMEOUT:1801.04:-1.0:1800.0:-1
ipc-2014-optimal-childsnack-05-2.pddl,CRASHED:18.7282:1000000000.0:1800.0:-1
ipc-2014-optimal-childsnack-05.pddl,TIMEOUT:1801.08:-1.0:1800.0:-1
ipc-2014-optimal-childsnack-06-2.pddl,CRASHED:86.8068:1000000000.0:1800.0:-1
ipc-2014-optimal-childsnack-06.pddl,TIMEOUT:1801.04:-1.0:1800.0:-1
ipc-2014-optimal-childsnack-07-2.pddl,CRASHED:76.5154:1000000000.0:1800.0:-1
ipc-2014-optimal-childsnack-07.pddl,TIMEOUT:1801.04:-1.0:1800.0:-1
ipc-2014-optimal-childsnack-08-2.pddl,TIMEOUT:1801.06:-1.0:1800.0:-1
ipc-2014-optimal-childsnack-08.pddl,TIMEOUT:1801.02:-1.0:1800.0:-1
ipc-2014-optimal-childsnack-09-2.pddl,TIMEOUT:1801.09:-1.0:1800.0:-1
ipc-2014-optimal-childsnack-09.pddl,TIMEOUT:1801.08:-1.0:1800.0:-1
ipc-2014-optimal-childsnack-10-2.pddl,TIMEOUT:1801.04:-1.0:1800.0:-1
ipc-2014-optimal-childsnack-10.pddl,TIMEOUT:1801.04:-1.0:1800.0:-1
ipc-2014-optimal-citycar-p2-2-2-1-2.pddl,SAT:2.6476:46.0:1800.0:-1
ipc-2014-optimal-citycar-p2-2-2-2-1.pddl,SAT:3.01454:64.0:1800.0:-1
ipc-2014-optimal-citycar-p2-2-3-1-2.pddl,SAT:5.10322:50.0:1800.0:-1
ipc-2014-optimal-citycar-p2-2-3-2-1.pddl,SAT:4.43432:48.0:1800.0:-1
ipc-2014-optimal-citycar-p2-2-3-2-2.pddl,SAT:4.52231:50.0:1800.0:-1
ipc-2014-optimal-citycar-p2-2-4-1-2.pddl,SAT:11.5722:52.0:1800.0:-1
ipc-2014-optimal-citycar-p2-2-4-2-1.pddl,SAT:9.8735:52.0:1800.0:-1
ipc-2014-optimal-citycar-p2-2-5-2-2.pddl,SAT:164.506:76.0:1800.0:-1
ipc-2014-optimal-citycar-p2-2-6-1-1.pddl,CRASHED:67.6407:1000000000.0:1800.0:-1
ipc-2014-optimal-citycar-p2-2-6-2-2.pddl,SAT:164.184:58.0:1800.0:-1
ipc-2014-optimal-citycar-p2-3-2-3-1.pddl,SAT:10.3754:68.0:1800.0:-1
ipc-2014-optimal-citycar-p2-3-3-3-1.pddl,SAT:46.9309:78.0:1800.0:-1
ipc-2014-optimal-citycar-p2-3-4-3-1.pddl,TIMEOUT:1801.05:-1.0:1800.0:-1
ipc-2014-optimal-citycar-p2-3-6-3-2.pddl,TIMEOUT:1801.02:-1.0:1800.0:-1
ipc-2014-optimal-citycar-p3-3-2-2-1.pddl,SAT:115.153:70.0:1800.0:-1
ipc-2014-optimal-citycar-p3-3-2-2-2.pddl,TIMEOUT:1801.1:-1.0:1800.0:-1
ipc-2014-optimal-citycar-p3-3-2-3-1.pddl,SAT:51.3472:48.0:1800.0:-1
ipc-2014-optimal-citycar-p3-3-2-3-2.pddl,SAT:89.9743:70.0:1800.0:-1
ipc-2014-optimal-citycar-p3-3-3-3-1.pddl,CRASHED:151.971:1000000000.0:1800.0:-1
ipc-2014-optimal-citycar-p3-3-3-3-2.pddl,CRASHED:306.97:1000000000.0:1800.0:-1
ipc-2014-optimal-floortile-p01-4-3-2.pddl,SAT:1.63775:56.0:1800.0:-1
ipc-2014-optimal-floortile-p01-4-4-2.pddl,SAT:5.81812:68.0:1800.0:-1
ipc-2014-optimal-floortile-p01-5-3-2.pddl,SAT:2.29865:63.0:1800.0:-1
ipc-2014-optimal-floortile-p01-5-4-2.pddl,SAT:11.4573:91.0:1800.0:-1
ipc-2014-optimal-floortile-p01-5-5-2.pddl,SAT:64.6982:111.0:1800.0:-1
ipc-2014-optimal-floortile-p01-6-4-2.pddl,SAT:24.9732:104.0:1800.0:-1
ipc-2014-optimal-floortile-p01-6-5-2.pddl,TIMEOUT:1801.08:-1.0:1800.0:-1
ipc-2014-optimal-floortile-p02-4-4-2.pddl,SAT:6.15706:75.0:1800.0:-1
ipc-2014-optimal-floortile-p02-5-3-2.pddl,SAT:2.51462:65.0:1800.0:-1
ipc-2014-optimal-floortile-p02-5-4-2.pddl,SAT:12.5861:98.0:1800.0:-1
ipc-2014-optimal-floortile-p02-5-5-2.pddl,SAT:62.9514:106.0:1800.0:-1
ipc-2014-optimal-floortile-p02-6-4-2.pddl,SAT:25.9351:109.0:1800.0:-1
ipc-2014-optimal-floortile-p02-6-5-2.pddl,TIMEOUT:1801.09:-1.0:1800.0:-1
ipc-2014-optimal-floortile-p03-4-3-2.pddl,SAT:1.72974:56.0:1800.0:-1
ipc-2014-optimal-floortile-p03-4-4-2.pddl,SAT:6.50401:72.0:1800.0:-1
ipc-2014-optimal-floortile-p03-5-3-2.pddl,SAT:2.44763:65.0:1800.0:-1
ipc-2014-optimal-floortile-p03-5-4-2.pddl,SAT:11.2303:83.0:1800.0:-1
ipc-2014-optimal-floortile-p03-5-5-2.pddl,SAT:60.3708:100.0:1800.0:-1
ipc-2014-optimal-floortile-p03-6-4-2.pddl,SAT:26.9629:116.0:1800.0:-1
ipc-2014-optimal-floortile-p03-6-5-2.pddl,CRASHED:124.448:1000000000.0:1800.0:-1
ipc-2014-optimal-ged-d-1-2.pddl,SAT:0.939856:1.0:1800.0:-1
ipc-2014-optimal-ged-d-1-3.pddl,SAT:2.67959:4.0:1800.0:-1
ipc-2014-optimal-ged-d-1-4.pddl,SAT:0.921859:1.0:1800.0:-1
ipc-2014-optimal-ged-d-1-8.pddl,SAT:4.77927:4.0:1800.0:-1
ipc-2014-optimal-ged-d-2-1.pddl,SAT:0.946855:1.0:1800.0:-1
ipc-2014-optimal-ged-d-2-3.pddl,SAT:1.42478:3.0:1800.0:-1
ipc-2014-optimal-ged-d-2-4.pddl,SAT:1.09283:2.0:1800.0:-1
ipc-2014-optimal-ged-d-2-8.pddl,TIMEOUT:1801.02:-1.0:1800.0:-1
ipc-2014-optimal-ged-d-3-1.pddl,SAT:2.6296:4.0:1800.0:-1
ipc-2014-optimal-ged-d-3-2.pddl,SAT:1.37779:3.0:1800.0:-1
ipc-2014-optimal-ged-d-3-4.pddl,SAT:10.4844:5.0:1800.0:-1
ipc-2014-optimal-ged-d-4-2.pddl,SAT:1.00784:2.0:1800.0:-1
ipc-2014-optimal-ged-d-4-3.pddl,SAT:10.7864:5.0:1800.0:-1
ipc-2014-optimal-ged-d-4-8.pddl,TIMEOUT:1801.04:-1.0:1800.0:-1
ipc-2014-optimal-ged-d-7-5.pddl,SAT:4.39733:4.0:1800.0:-1
ipc-2014-optimal-ged-d-7-6.pddl,SAT:2.98854:4.0:1800.0:-1
ipc-2014-optimal-ged-d-8-1.pddl,SAT:4.64329:4.0:1800.0:-1
ipc-2014-optimal-ged-d-8-2.pddl,TIMEOUT:1801.03:-1.0:1800.0:-1
ipc-2014-optimal-ged-d-8-4.pddl,CRASHED:56.2784:1000000000.0:1800.0:-1
ipc-2014-optimal-ged-d-8-9.pddl,CRASHED:55.6635:1000000000.0:1800.0:-1
ipc-2014-optimal-hiking-1-2-3.pddl,SAT:0.630903:11.0:1800.0:-1
ipc-2014-optimal-hiking-1-2-4.pddl,SAT:0.682895:17.0:1800.0:-1
ipc-2014-optimal-hiking-1-2-5.pddl,SAT:0.822874:25.0:1800.0:-1
ipc-2014-optimal-hiking-1-2-7.pddl,SAT:1.41578:38.0:1800.0:-1
ipc-2014-optimal-hiking-1-2-8.pddl,SAT:1.63375:45.0:1800.0:-1
ipc-2014-optimal-hiking-2-2-3.pddl,SAT:1.11683:10.0:1800.0:-1
ipc-2014-optimal-hiking-2-2-4.pddl,SAT:2.5986:16.0:1800.0:-1
ipc-2014-optimal-hiking-2-2-5.pddl,SAT:18.1082:22.0:1800.0:-1
ipc-2014-optimal-hiking-2-2-6.pddl,SAT:115.963:30.0:1800.0:-1
ipc-2014-optimal-hiking-2-2-7.pddl,CRASHED:270.646:1000000000.0:1800.0:-1
ipc-2014-optimal-hiking-2-2-8.pddl,TIMEOUT:1801.01:-1.0:1800.0:-1
ipc-2014-optimal-hiking-2-3-4.pddl,SAT:6.64099:17.0:1800.0:-1
ipc-2014-optimal-hiking-2-3-5.pddl,SAT:116.536:24.0:1800.0:-1
ipc-2014-optimal-hiking-2-3-6.pddl,CRASHED:163.841:1000000000.0:1800.0:-1
ipc-2014-optimal-hiking-2-3-7.pddl,TIMEOUT:1801.02:-1.0:1800.0:-1
ipc-2014-optimal-hiking-2-4-3.pddl,SAT:1.67674:10.0:1800.0:-1
ipc-2014-optimal-hiking-2-4-4.pddl,SAT:7.02193:17.0:1800.0:-1
ipc-2014-optimal-hiking-2-4-5.pddl,SAT:134.553:23.0:1800.0:-1
ipc-2014-optimal-hiking-2-4-6.pddl,TIMEOUT:1801.07:-1.0:1800.0:-1
ipc-2014-optimal-hiking-2-4-7.pddl,CRASHED:73.8828:1000000000.0:1800.0:-1
ipc-2014-optimal-maintenance-1.3.010.010.1-001.pddl,TIMEOUT:1801.13:-1.0:1800.0:-1
ipc-2014-optimal-maintenance-1.3.010.010.1-002.pddl,TIMEOUT:1801.14:-1.0:1800.0:-1
ipc-2014-optimal-maintenance-1.3.010.010.2-000.pddl,SAT:0.725889:4.0:1800.0:-1
ipc-2014-optimal-maintenance-1.3.010.010.2-001.pddl,TIMEOUT:1801.07:-1.0:1800.0:-1
ipc-2014-optimal-maintenance-1.3.010.010.2-002.pddl,SAT:0.815875:6.0:1800.0:-1
ipc-2014-optimal-maintenance-1.3.015.020.1-000.pddl,TIMEOUT:1801.08:-1.0:1800.0:-1
ipc-2014-optimal-maintenance-1.3.015.020.1-001.pddl,TIMEOUT:1801.09:-1.0:1800.0:-1
ipc-2014-optimal-maintenance-1.3.015.020.1-002.pddl,TIMEOUT:1801.14:-1.0:1800.0:-1
ipc-2014-optimal-maintenance-1.3.015.020.2-000.pddl,CRASHED:1.2898:1000000000.0:1800.0:-1
ipc-2014-optimal-maintenance-1.3.015.020.2-001.pddl,SAT:1.20682:11.0:1800.0:-1
ipc-2014-optimal-maintenance-1.3.015.020.2-002.pddl,SAT:1.18182:9.0:1800.0:-1
ipc-2014-optimal-maintenance-1.3.025.050.1-000.pddl,TIMEOUT:1801.09:-1.0:1800.0:-1
ipc-2014-optimal-maintenance-1.3.025.050.1-001.pddl,TIMEOUT:1801.06:-1.0:1800.0:-1
ipc-2014-optimal-maintenance-1.3.025.050.1-002.pddl,TIMEOUT:1801.11:-1.0:1800.0:-1
ipc-2014-optimal-maintenance-1.3.025.100.1-000.pddl,TIMEOUT:1801.1:-1.0:1800.0:-1
ipc-2014-optimal-maintenance-1.3.025.100.1-001.pddl,TIMEOUT:1801.14:-1.0:1800.0:-1
ipc-2014-optimal-maintenance-1.3.025.100.1-002.pddl,TIMEOUT:1801.06:-1.0:1800.0:-1
ipc-2014-optimal-maintenance-1.3.025.100.2-000.pddl,TIMEOUT:1801.09:-1.0:1800.0:-1
ipc-2014-optimal-maintenance-1.3.025.100.2-001.pddl,TIMEOUT:1801.12:-1.0:1800.0:-1
ipc-2014-optimal-maintenance-1.3.025.100.2-002.pddl,TIMEOUT:1801.06:-1.0:1800.0:-1
ipc-2014-optimal-openstacks-p20_1.pddl,SAT:2.31865:3.0:1800.0:-1
ipc-2014-optimal-openstacks-p20_2.pddl,SAT:2.53061:4.0:1800.0:-1
ipc-2014-optimal-openstacks-p20_3.pddl,SAT:2.6086:6.0:1800.0:-1
ipc-2014-optimal-openstacks-p25_1.pddl,SAT:4.20836:4.0:1800.0:-1
ipc-2014-optimal-openstacks-p25_3.pddl,SAT:5.07623:9.0:1800.0:-1
ipc-2014-optimal-openstacks-p30_1.pddl,SAT:5.86211:4.0:1800.0:-1
ipc-2014-optimal-openstacks-p30_2.pddl,SAT:7.2189:4.0:1800.0:-1
ipc-2014-optimal-openstacks-p30_3.pddl,SAT:14.9147:12.0:1800.0:-1
ipc-2014-optimal-openstacks-p35_1.pddl,SAT:10.1365:4.0:1800.0:-1
ipc-2014-optimal-openstacks-p35_2.pddl,SAT:12.922:5.0:1800.0:-1
ipc-2014-optimal-openstacks-p35_3.pddl,SAT:54.1658:14.0:1800.0:-1
ipc-2014-optimal-openstacks-p40_1.pddl,SAT:17.3864:3.0:1800.0:-1
ipc-2014-optimal-openstacks-p40_2.pddl,SAT:18.2992:4.0:1800.0:-1
ipc-2014-optimal-openstacks-p40_3.pddl,SAT:93.3058:15.0:1800.0:-1
ipc-2014-optimal-openstacks-p45_1.pddl,SAT:23.2275:4.0:1800.0:-1
ipc-2014-optimal-openstacks-p45_2.pddl,SAT:33.1999:5.0:1800.0:-1
ipc-2014-optimal-openstacks-p45_3.pddl,TIMEOUT:1801.03:-1.0:1800.0:-1
ipc-2014-optimal-openstacks-p50_1.pddl,SAT:38.7611:4.0:1800.0:-1
ipc-2014-optimal-openstacks-p50_2.pddl,SAT:52.832:5.0:1800.0:-1
ipc-2014-optimal-openstacks-p50_3.pddl,CRASHED:43.0505:1000000000.0:1800.0:-1
ipc-2014-optimal-parking-12_7-01.pddl,CRASHED:187.634:1000000000.0:1800.0:-1
ipc-2014-optimal-parking-12_7-02.pddl,TIMEOUT:1801.11:-1.0:1800.0:-1
ipc-2014-optimal-parking-12_7-03.pddl,TIMEOUT:1801.08:-1.0:1800.0:-1
ipc-2014-optimal-parking-12_7-04.pddl,CRASHED:205.676:1000000000.0:1800.0:-1
ipc-2014-optimal-parking-14_8-01.pddl,CRASHED:297.899:1000000000.0:1800.0:-1
ipc-2014-optimal-parking-14_8-02.pddl,TIMEOUT:1801.06:-1.0:1800.0:-1
ipc-2014-optimal-parking-14_8-03.pddl,TIMEOUT:1801.04:-1.0:1800.0:-1
ipc-2014-optimal-parking-14_8-04.pddl,TIMEOUT:1801.01:-1.0:1800.0:-1
ipc-2014-optimal-parking-16_9-01.pddl,TIMEOUT:1801.06:-1.0:1800.0:-1
ipc-2014-optimal-parking-16_9-02.pddl,CRASHED:609.011:1000000000.0:1800.0:-1
ipc-2014-optimal-parking-16_9-03.pddl,TIMEOUT:1801.02:-1.0:1800.0:-1
ipc-2014-optimal-parking-16_9-04.pddl,TIMEOUT:1801.04:-1.0:1800.0:-1
ipc-2014-optimal-parking-18_10-01.pddl,TIMEOUT:1801.07:-1.0:1800.0:-1
ipc-2014-optimal-parking-18_10-02.pddl,TIMEOUT:1801.09:-1.0:1800.0:-1
ipc-2014-optimal-parking-18_10-03.pddl,TIMEOUT:1801.08:-1.0:1800.0:-1
ipc-2014-optimal-parking-18_10-04.pddl,TIMEOUT:1801.08:-1.0:1800.0:-1
ipc-2014-optimal-parking-20_11-01.pddl,TIMEOUT:1801.02:-1.0:1800.0:-1
ipc-2014-optimal-parking-20_11-02.pddl,CRASHED:583.403:1000000000.0:1800.0:-1
ipc-2014-optimal-parking-20_11-03.pddl,TIMEOUT:1801.06:-1.0:1800.0:-1
ipc-2014-optimal-parking-20_11-04.pddl,TIMEOUT:1801.07:-1.0:1800.0:-1
ipc-2014-optimal-tetris-01-10.pddl,TIMEOUT:1801.04:-1.0:1800.0:-1
ipc-2014-optimal-tetris-01-04.pddl,CRASHED:8.76667:1000000000.0:1800.0:-1
ipc-2014-optimal-tetris-01-06.pddl,TIMEOUT:1801.08:-1.0:1800.0:-1
ipc-2014-optimal-tetris-01-08.pddl,SAT:20.3069:36.0:1800.0:-1
ipc-2014-optimal-tetris-02-10.pddl,TIMEOUT:1801.0:-1.0:1800.0:-1
ipc-2014-optimal-tetris-02-04.pddl,SAT:3.58845:10.0:1800.0:-1
ipc-2014-optimal-tetris-02-06.pddl,SAT:29.5245:30.0:1800.0:-1
ipc-2014-optimal-tetris-02-08.pddl,TIMEOUT:1801.06:-1.0:1800.0:-1
ipc-2014-optimal-tetris-03-10.pddl,CRASHED:86.9558:1000000000.0:1800.0:-1
ipc-2014-optimal-tetris-03-04.pddl,SAT:2.94055:11.0:1800.0:-1
ipc-2014-optimal-tetris-03-06.pddl,CRASHED:71.8641:1000000000.0:1800.0:-1
ipc-2014-optimal-tetris-03-08.pddl,SAT:167.118:48.0:1800.0:-1
ipc-2014-optimal-tetris-04-10.pddl,TIMEOUT:1801.05:-1.0:1800.0:-1
ipc-2014-optimal-tetris-04-04.pddl,CRASHED:6.04208:1000000000.0:1800.0:-1
ipc-2014-optimal-tetris-04-06.pddl,CRASHED:81.5366:1000000000.0:1800.0:-1
ipc-2014-optimal-tetris-04-08.pddl,TIMEOUT:1801.03:-1.0:1800.0:-1
ipc-2014-optimal-tetris-05-10.pddl,TIMEOUT:1801.07:-1.0:1800.0:-1
ipc-2014-optimal-tetris-05-04.pddl,CRASHED:6.25905:1000000000.0:1800.0:-1
ipc-2014-optimal-tetris-05-06.pddl,SAT:12.1192:19.0:1800.0:-1
ipc-2014-optimal-tetris-05-08.pddl,TIMEOUT:1801.01:-1.0:1800.0:-1
ipc-2014-optimal-tidybot-01.pddl,TIMEOUT:1801.04:-1.0:1800.0:-1
ipc-2014-optimal-tidybot-02.pddl,CRASHED:165.068:1000000000.0:1800.0:-1
ipc-2014-optimal-tidybot-03.pddl,SAT:121.775:30.0:1800.0:-1
ipc-2014-optimal-tidybot-04.pddl,CRASHED:137.109:1000000000.0:1800.0:-1
ipc-2014-optimal-tidybot-05.pddl,TIMEOUT:1801.11:-1.0:1800.0:-1
ipc-2014-optimal-tidybot-06.pddl,TIMEOUT:1801.02:-1.0:1800.0:-1
ipc-2014-optimal-tidybot-07.pddl,TIMEOUT:1801.0:-1.0:1800.0:-1
ipc-2014-optimal-tidybot-08.pddl,TIMEOUT:1801.08:-1.0:1800.0:-1
ipc-2014-optimal-tidybot-09.pddl,TIMEOUT:1801.09:-1.0:1800.0:-1
ipc-2014-optimal-tidybot-10.pddl,CRASHED:294.03:1000000000.0:1800.0:-1
ipc-2014-optimal-tidybot-11.pddl,TIMEOUT:1801.05:-1.0:1800.0:-1
ipc-2014-optimal-tidybot-12.pddl,TIMEOUT:1801.06:-1.0:1800.0:-1
ipc-2014-optimal-tidybot-13.pddl,TIMEOUT:1801.03:-1.0:1800.0:-1
ipc-2014-optimal-tidybot-14.pddl,CRASHED:210.081:1000000000.0:1800.0:-1
ipc-2014-optimal-tidybot-15.pddl,TIMEOUT:1801.04:-1.0:1800.0:-1
ipc-2014-optimal-tidybot-16.pddl,CRASHED:166.314:1000000000.0:1800.0:-1
ipc-2014-optimal-tidybot-17.pddl,SAT:190.837:40.0:1800.0:-1
ipc-2014-optimal-tidybot-18.pddl,TIMEOUT:1801.08:-1.0:1800.0:-1
ipc-2014-optimal-tidybot-19.pddl,TIMEOUT:1801.08:-1.0:1800.0:-1
ipc-2014-optimal-tidybot-20.pddl,SAT:144.213:46.0:1800.0:-1
ipc-2014-optimal-transport-01.pddl,SAT:1.08283:148.0:1800.0:-1
ipc-2014-optimal-transport-02.pddl,SAT:10.1375:191.0:1800.0:-1
ipc-2014-optimal-transport-03.pddl,SAT:28.3507:300.0:1800.0:-1
ipc-2014-optimal-transport-04.pddl,SAT:573.919:250.0:1800.0:-1
ipc-2014-optimal-transport-05.pddl,TIMEOUT:1801.02:-1.0:1800.0:-1
ipc-2014-optimal-transport-06.pddl,TIMEOUT:1801.03:-1.0:1800.0:-1
ipc-2014-optimal-transport-07.pddl,SAT:27.5828:967.0:1800.0:-1
ipc-2014-optimal-transport-08.pddl,TIMEOUT:1801.06:-1.0:1800.0:-1
ipc-2014-optimal-transport-09.pddl,CRASHED:806.683:1000000000.0:1800.0:-1
ipc-2014-optimal-transport-10.pddl,CRASHED:711.504:1000000000.0:1800.0:-1
ipc-2014-optimal-transport-11.pddl,TIMEOUT:1801.04:-1.0:1800.0:-1
ipc-2014-optimal-transport-12.pddl,TIMEOUT:1801.07:-1.0:1800.0:-1
ipc-2014-optimal-transport-13.pddl,SAT:9.2206:594.0:1800.0:-1
ipc-2014-optimal-transport-14.pddl,SAT:170.099:526.0:1800.0:-1
ipc-2014-optimal-transport-15.pddl,TIMEOUT:1801.02:-1.0:1800.0:-1
ipc-2014-optimal-transport-16.pddl,TIMEOUT:1801.08:-1.0:1800.0:-1
ipc-2014-optimal-transport-17.pddl,TIMEOUT:1801.03:-1.0:1800.0:-1
ipc-2014-optimal-transport-18.pddl,TIMEOUT:1801.07:-1.0:1800.0:-1
ipc-2014-optimal-transport-19.pddl,TIMEOUT:1801.07:-1.0:1800.0:-1
ipc-2014-optimal-transport-20.pddl,TIMEOUT:1801.07:-1.0:1800.0:-1
ipc-2014-optimal-visitall-05-10.pddl,TIMEOUT:1801.09:-1.0:1800.0:-1
ipc-2014-optimal-visitall-05-05.pddl,SAT:1.03784:21.0:1800.0:-1
ipc-2014-optimal-visitall-05-06.pddl,SAT:1.3338:25.0:1800.0:-1
ipc-2014-optimal-visitall-05-07.pddl,SAT:3.90741:34.0:1800.0:-1
ipc-2014-optimal-visitall-05-08.pddl,SAT:38.9721:43.0:1800.0:-1
ipc-2014-optimal-visitall-05-09.pddl,TIMEOUT:1801.08:-1.0:1800.0:-1
ipc-2014-optimal-visitall-01-10.pddl,TIMEOUT:1801.07:-1.0:1800.0:-1
ipc-2014-optimal-visitall-01-11.pddl,TIMEOUT:1801.07:-1.0:1800.0:-1
ipc-2014-optimal-visitall-01-12.pddl,CRASHED:94.7246:1000000000.0:1800.0:-1
ipc-2014-optimal-visitall-01-13.pddl,CRASHED:114.343:1000000000.0:1800.0:-1
ipc-2014-optimal-visitall-01-14.pddl,TIMEOUT:1801.04:-1.0:1800.0:-1
ipc-2014-optimal-visitall-01-15.pddl,TIMEOUT:1801.07:-1.0:1800.0:-1
ipc-2014-optimal-visitall-01-16.pddl,TIMEOUT:1801.02:-1.0:1800.0:-1
ipc-2014-optimal-visitall-01-17.pddl,TIMEOUT:1801.04:-1.0:1800.0:-1
ipc-2014-optimal-visitall-01-18.pddl,CRASHED:132.353:1000000000.0:1800.0:-1
ipc-2014-optimal-visitall-01-05.pddl,SAT:2.36464:24.0:1800.0:-1
ipc-2014-optimal-visitall-01-06.pddl,TIMEOUT:1801.08:-1.0:1800.0:-1
ipc-2014-optimal-visitall-01-07.pddl,CRASHED:34.5207:1000000000.0:1800.0:-1
ipc-2014-optimal-visitall-01-08.pddl,TIMEOUT:1801.03:-1.0:1800.0:-1
ipc-2014-optimal-visitall-01-09.pddl,CRASHED:78.5681:1000000000.0:1800.0:-1
