instance,ipc-2014-optimal-gamer
ipc-2014-optimal-barman-p433.1.pddl,CRASHED:0.088985:1000000000.0:1800.0:-1
ipc-2014-optimal-barman-p433.2.pddl,CRASHED:0.043992:1000000000.0:1800.0:-1
ipc-2014-optimal-barman-p433.3.pddl,CRASHED:0.083986:1000000000.0:1800.0:-1
ipc-2014-optimal-barman-p435.1.pddl,SAT:786.253:49.0:1800.0:-1
ipc-2014-optimal-barman-p435.2.pddl,SAT:994.474:49.0:1800.0:-1
ipc-2014-optimal-barman-p435.3.pddl,SAT:784.666:49.0:1800.0:-1
ipc-2014-optimal-barman-p443.1.pddl,CRASHED:0.043993:1000000000.0:1800.0:-1
ipc-2014-optimal-barman-p443.2.pddl,CRASHED:0.080987:1000000000.0:1800.0:-1
ipc-2014-optimal-barman-p443.3.pddl,CRASHED:0.046992:1000000000.0:1800.0:-1
ipc-2014-optimal-barman-p536.1.pddl,TIMEOUT:1801.03:-1.0:1800.0:-1
ipc-2014-optimal-barman-p536.2.pddl,TIMEOUT:1801.09:-1.0:1800.0:-1
ipc-2014-optimal-barman-p536.3.pddl,TIMEOUT:1801.06:-1.0:1800.0:-1
ipc-2014-optimal-barman-p638.1.pddl,CRASHED:1333.42:1000000000.0:1800.0:-1
ipc-2014-optimal-barman-p638.2.pddl,TIMEOUT:1801.0:-1.0:1800.0:-1
ipc-2014-optimal-barman-p638.3.pddl,CRASHED:1090.43:1000000000.0:1800.0:-1
ipc-2014-optimal-barman-p739.1.pddl,TIMEOUT:1801.09:-1.0:1800.0:-1
ipc-2014-optimal-barman-p739.2.pddl,CRASHED:1079.4:1000000000.0:1800.0:-1
ipc-2014-optimal-barman-p739.3.pddl,CRASHED:761.6:1000000000.0:1800.0:-1
ipc-2014-optimal-barman-p839.1.pddl,CRASHED:910.2:1000000000.0:1800.0:-1
ipc-2014-optimal-barman-p839.2.pddl,CRASHED:1018.27:1000000000.0:1800.0:-1
ipc-2014-optimal-cavediving-01.pddl,CRASHED:860.86:1000000000.0:1800.0:-1
ipc-2014-optimal-cavediving-01_easy.pddl,CRASHED:1572.09:1000000000.0:1800.0:-1
ipc-2014-optimal-cavediving-02_easy.pddl,CRASHED:1689.82:1000000000.0:1800.0:-1
ipc-2014-optimal-cavediving-03_easy.pddl,TIMEOUT:1801.1:-1.0:1800.0:-1
ipc-2014-optimal-cavediving-04_easy.pddl,CRASHED:927.16:1000000000.0:1800.0:-1
ipc-2014-optimal-cavediving-05A_easy.pddl,SAT:265.308:0.0:1800.0:-1
ipc-2014-optimal-cavediving-06A_easy.pddl,SAT:216.13:0.0:1800.0:-1
ipc-2014-optimal-cavediving-07_easy.pddl,SAT:20.8788:131.0:1800.0:-1
ipc-2014-optimal-cavediving-08_easy.pddl,SAT:216.645:0.0:1800.0:-1
ipc-2014-optimal-cavediving-09_easy.pddl,TIMEOUT:1801.04:-1.0:1800.0:-1
ipc-2014-optimal-cavediving-10_easy.pddl,TIMEOUT:1801.06:-1.0:1800.0:-1
ipc-2014-optimal-cavediving-11_easy.pddl,TIMEOUT:1801.08:-1.0:1800.0:-1
ipc-2014-optimal-cavediving-12_easy.pddl,TIMEOUT:1801.08:-1.0:1800.0:-1
ipc-2014-optimal-cavediving-13_easy.pddl,CRASHED:1358.46:1000000000.0:1800.0:-1
ipc-2014-optimal-cavediving-14_easy.pddl,CRASHED:961.42:1000000000.0:1800.0:-1
ipc-2014-optimal-cavediving-15_easy.pddl,CRASHED:1068.23:1000000000.0:1800.0:-1
ipc-2014-optimal-cavediving-16_easy.pddl,CRASHED:1636.41:1000000000.0:1800.0:-1
ipc-2014-optimal-cavediving-18A_easy.pddl,SAT:154.221:131.0:1800.0:-1
ipc-2014-optimal-cavediving-18_easy.pddl,SAT:103.549:131.0:1800.0:-1
ipc-2014-optimal-cavediving-20A_easy.pddl,SAT:478.306:0.0:1800.0:-1
ipc-2014-optimal-childsnack-01-2.pddl,SAT:414.026:21.0:1800.0:-1
ipc-2014-optimal-childsnack-01.pddl,SAT:246.981:20.0:1800.0:-1
ipc-2014-optimal-childsnack-02-2.pddl,CRASHED:1232.6:1000000000.0:1800.0:-1
ipc-2014-optimal-childsnack-02.pddl,SAT:1298.73:23.0:1800.0:-1
ipc-2014-optimal-childsnack-03-2.pddl,CRASHED:525.91:1000000000.0:1800.0:-1
ipc-2014-optimal-childsnack-03.pddl,CRASHED:690.76:1000000000.0:1800.0:-1
ipc-2014-optimal-childsnack-04-2.pddl,CRASHED:653.56:1000000000.0:1800.0:-1
ipc-2014-optimal-childsnack-04.pddl,CRASHED:823.94:1000000000.0:1800.0:-1
ipc-2014-optimal-childsnack-05-2.pddl,CRASHED:587.01:1000000000.0:1800.0:-1
ipc-2014-optimal-childsnack-05.pddl,CRASHED:553.25:1000000000.0:1800.0:-1
ipc-2014-optimal-childsnack-06-2.pddl,CRASHED:837.19:1000000000.0:1800.0:-1
ipc-2014-optimal-childsnack-06.pddl,CRASHED:920.7:1000000000.0:1800.0:-1
ipc-2014-optimal-childsnack-07-2.pddl,CRASHED:537.59:1000000000.0:1800.0:-1
ipc-2014-optimal-childsnack-07.pddl,CRASHED:368.45:1000000000.0:1800.0:-1
ipc-2014-optimal-childsnack-08-2.pddl,CRASHED:1049.0:1000000000.0:1800.0:-1
ipc-2014-optimal-childsnack-08.pddl,CRASHED:1000.07:1000000000.0:1800.0:-1
ipc-2014-optimal-childsnack-09-2.pddl,CRASHED:213.85:1000000000.0:1800.0:-1
ipc-2014-optimal-childsnack-09.pddl,CRASHED:550.64:1000000000.0:1800.0:-1
ipc-2014-optimal-childsnack-10-2.pddl,CRASHED:303.12:1000000000.0:1800.0:-1
ipc-2014-optimal-childsnack-10.pddl,CRASHED:565.57:1000000000.0:1800.0:-1
ipc-2014-optimal-citycar-p2-2-2-1-2.pddl,SAT:4.48332:46.0:1800.0:-1
ipc-2014-optimal-citycar-p2-2-2-2-1.pddl,SAT:4.6013:64.0:1800.0:-1
ipc-2014-optimal-citycar-p2-2-3-1-2.pddl,SAT:6.75297:50.0:1800.0:-1
ipc-2014-optimal-citycar-p2-2-3-2-1.pddl,SAT:5.21821:48.0:1800.0:-1
ipc-2014-optimal-citycar-p2-2-3-2-2.pddl,SAT:5.08723:50.0:1800.0:-1
ipc-2014-optimal-citycar-p2-2-4-1-2.pddl,SAT:11.9882:52.0:1800.0:-1
ipc-2014-optimal-citycar-p2-2-4-2-1.pddl,SAT:12.2211:52.0:1800.0:-1
ipc-2014-optimal-citycar-p2-2-5-2-2.pddl,SAT:219.34:76.0:1800.0:-1
ipc-2014-optimal-citycar-p2-2-6-1-1.pddl,SAT:65.529:58.0:1800.0:-1
ipc-2014-optimal-citycar-p2-2-6-2-2.pddl,SAT:62.6085:58.0:1800.0:-1
ipc-2014-optimal-citycar-p2-3-2-3-1.pddl,SAT:17.3084:68.0:1800.0:-1
ipc-2014-optimal-citycar-p2-3-3-3-1.pddl,SAT:132.045:78.0:1800.0:-1
ipc-2014-optimal-citycar-p2-3-4-3-1.pddl,SAT:489.804:82.0:1800.0:-1
ipc-2014-optimal-citycar-p2-3-6-3-2.pddl,TIMEOUT:1801.03:-1.0:1800.0:-1
ipc-2014-optimal-citycar-p3-3-2-2-1.pddl,SAT:122.632:70.0:1800.0:-1
ipc-2014-optimal-citycar-p3-3-2-2-2.pddl,SAT:561.869:92.0:1800.0:-1
ipc-2014-optimal-citycar-p3-3-2-3-1.pddl,SAT:54.3457:48.0:1800.0:-1
ipc-2014-optimal-citycar-p3-3-2-3-2.pddl,SAT:94.6986:70.0:1800.0:-1
ipc-2014-optimal-citycar-p3-3-3-3-1.pddl,TIMEOUT:1801.03:-1.0:1800.0:-1
ipc-2014-optimal-citycar-p3-3-3-3-2.pddl,SAT:1089.28:76.0:1800.0:-1
ipc-2014-optimal-floortile-p01-4-3-2.pddl,SAT:10.2954:56.0:1800.0:-1
ipc-2014-optimal-floortile-p01-4-4-2.pddl,SAT:67.3748:68.0:1800.0:-1
ipc-2014-optimal-floortile-p01-5-3-2.pddl,SAT:20.9768:63.0:1800.0:-1
ipc-2014-optimal-floortile-p01-5-4-2.pddl,SAT:437.534:91.0:1800.0:-1
ipc-2014-optimal-floortile-p01-5-5-2.pddl,TIMEOUT:1801.06:-1.0:1800.0:-1
ipc-2014-optimal-floortile-p01-6-4-2.pddl,SAT:1309.91:104.0:1800.0:-1
ipc-2014-optimal-floortile-p01-6-5-2.pddl,TIMEOUT:1801.08:-1.0:1800.0:-1
ipc-2014-optimal-floortile-p02-4-4-2.pddl,SAT:79.6429:75.0:1800.0:-1
ipc-2014-optimal-floortile-p02-5-3-2.pddl,SAT:21.8427:65.0:1800.0:-1
ipc-2014-optimal-floortile-p02-5-4-2.pddl,SAT:497.117:98.0:1800.0:-1
ipc-2014-optimal-floortile-p02-5-5-2.pddl,TIMEOUT:1801.01:-1.0:1800.0:-1
ipc-2014-optimal-floortile-p02-6-4-2.pddl,SAT:1214.06:109.0:1800.0:-1
ipc-2014-optimal-floortile-p02-6-5-2.pddl,TIMEOUT:1801.03:-1.0:1800.0:-1
ipc-2014-optimal-floortile-p03-4-3-2.pddl,SAT:9.66753:56.0:1800.0:-1
ipc-2014-optimal-floortile-p03-4-4-2.pddl,SAT:75.6265:72.0:1800.0:-1
ipc-2014-optimal-floortile-p03-5-3-2.pddl,SAT:21.5767:65.0:1800.0:-1
ipc-2014-optimal-floortile-p03-5-4-2.pddl,SAT:348.256:83.0:1800.0:-1
ipc-2014-optimal-floortile-p03-5-5-2.pddl,TIMEOUT:1801.07:-1.0:1800.0:-1
ipc-2014-optimal-floortile-p03-6-4-2.pddl,SAT:1381.95:116.0:1800.0:-1
ipc-2014-optimal-floortile-p03-6-5-2.pddl,TIMEOUT:1801.05:-1.0:1800.0:-1
ipc-2014-optimal-ged-d-1-2.pddl,CRASHED:0.077987:1000000000.0:1800.0:-1
ipc-2014-optimal-ged-d-1-3.pddl,CRASHED:0.072988:1000000000.0:1800.0:-1
ipc-2014-optimal-ged-d-1-4.pddl,CRASHED:0.070989:1000000000.0:1800.0:-1
ipc-2014-optimal-ged-d-1-8.pddl,CRASHED:0.077987:1000000000.0:1800.0:-1
ipc-2014-optimal-ged-d-2-1.pddl,CRASHED:0.071988:1000000000.0:1800.0:-1
ipc-2014-optimal-ged-d-2-3.pddl,CRASHED:0.040993:1000000000.0:1800.0:-1
ipc-2014-optimal-ged-d-2-4.pddl,CRASHED:0.036994:1000000000.0:1800.0:-1
ipc-2014-optimal-ged-d-2-8.pddl,CRASHED:0.078987:1000000000.0:1800.0:-1
ipc-2014-optimal-ged-d-3-1.pddl,CRASHED:0.070988:1000000000.0:1800.0:-1
ipc-2014-optimal-ged-d-3-2.pddl,CRASHED:0.071988:1000000000.0:1800.0:-1
ipc-2014-optimal-ged-d-3-4.pddl,CRASHED:0.071988:1000000000.0:1800.0:-1
ipc-2014-optimal-ged-d-4-2.pddl,CRASHED:0.070988:1000000000.0:1800.0:-1
ipc-2014-optimal-ged-d-4-3.pddl,CRASHED:0.077988:1000000000.0:1800.0:-1
ipc-2014-optimal-ged-d-4-8.pddl,CRASHED:0.06099:1000000000.0:1800.0:-1
ipc-2014-optimal-ged-d-7-5.pddl,CRASHED:0.071988:1000000000.0:1800.0:-1
ipc-2014-optimal-ged-d-7-6.pddl,CRASHED:0.065989:1000000000.0:1800.0:-1
ipc-2014-optimal-ged-d-8-1.pddl,CRASHED:0.072988:1000000000.0:1800.0:-1
ipc-2014-optimal-ged-d-8-2.pddl,CRASHED:0.072987:1000000000.0:1800.0:-1
ipc-2014-optimal-ged-d-8-4.pddl,CRASHED:0.047992:1000000000.0:1800.0:-1
ipc-2014-optimal-ged-d-8-9.pddl,CRASHED:0.040993:1000000000.0:1800.0:-1
ipc-2014-optimal-hiking-1-2-3.pddl,SAT:1.60576:11.0:1800.0:-1
ipc-2014-optimal-hiking-1-2-4.pddl,SAT:1.67174:17.0:1800.0:-1
ipc-2014-optimal-hiking-1-2-5.pddl,SAT:2.39663:25.0:1800.0:-1
ipc-2014-optimal-hiking-1-2-7.pddl,SAT:3.09653:38.0:1800.0:-1
ipc-2014-optimal-hiking-1-2-8.pddl,SAT:4.68729:45.0:1800.0:-1
ipc-2014-optimal-hiking-2-2-3.pddl,SAT:2.84157:10.0:1800.0:-1
ipc-2014-optimal-hiking-2-2-4.pddl,SAT:9.10961:16.0:1800.0:-1
ipc-2014-optimal-hiking-2-2-5.pddl,SAT:85.546:22.0:1800.0:-1
ipc-2014-optimal-hiking-2-2-6.pddl,SAT:385.733:30.0:1800.0:-1
ipc-2014-optimal-hiking-2-2-7.pddl,SAT:1432.04:34.0:1800.0:-1
ipc-2014-optimal-hiking-2-2-8.pddl,TIMEOUT:1801.01:-1.0:1800.0:-1
ipc-2014-optimal-hiking-2-3-4.pddl,SAT:27.9977:17.0:1800.0:-1
ipc-2014-optimal-hiking-2-3-5.pddl,SAT:412.061:24.0:1800.0:-1
ipc-2014-optimal-hiking-2-3-6.pddl,TIMEOUT:1801.01:-1.0:1800.0:-1
ipc-2014-optimal-hiking-2-3-7.pddl,TIMEOUT:1801.08:-1.0:1800.0:-1
ipc-2014-optimal-hiking-2-4-3.pddl,SAT:4.32834:10.0:1800.0:-1
ipc-2014-optimal-hiking-2-4-4.pddl,SAT:47.9487:17.0:1800.0:-1
ipc-2014-optimal-hiking-2-4-5.pddl,SAT:827.597:23.0:1800.0:-1
ipc-2014-optimal-hiking-2-4-6.pddl,TIMEOUT:1801.08:-1.0:1800.0:-1
ipc-2014-optimal-hiking-2-4-7.pddl,TIMEOUT:1801.04:-1.0:1800.0:-1
ipc-2014-optimal-maintenance-1.3.010.010.1-001.pddl,CRASHED:0.907861:1000000000.0:1800.0:-1
ipc-2014-optimal-maintenance-1.3.010.010.1-002.pddl,CRASHED:0.84587:1000000000.0:1800.0:-1
ipc-2014-optimal-maintenance-1.3.010.010.2-000.pddl,CRASHED:0.945855:1000000000.0:1800.0:-1
ipc-2014-optimal-maintenance-1.3.010.010.2-001.pddl,CRASHED:0.920859:1000000000.0:1800.0:-1
ipc-2014-optimal-maintenance-1.3.010.010.2-002.pddl,CRASHED:0.837872:1000000000.0:1800.0:-1
ipc-2014-optimal-maintenance-1.3.015.020.1-000.pddl,CRASHED:0.087986:1000000000.0:1800.0:-1
ipc-2014-optimal-maintenance-1.3.015.020.1-001.pddl,CRASHED:0.067989:1000000000.0:1800.0:-1
ipc-2014-optimal-maintenance-1.3.015.020.1-002.pddl,CRASHED:0.096984:1000000000.0:1800.0:-1
ipc-2014-optimal-maintenance-1.3.015.020.2-000.pddl,CRASHED:0.088985:1000000000.0:1800.0:-1
ipc-2014-optimal-maintenance-1.3.015.020.2-001.pddl,CRASHED:0.05799:1000000000.0:1800.0:-1
ipc-2014-optimal-maintenance-1.3.015.020.2-002.pddl,CRASHED:0.050991:1000000000.0:1800.0:-1
ipc-2014-optimal-maintenance-1.3.025.050.1-000.pddl,CRASHED:2.26066:1000000000.0:1800.0:-1
ipc-2014-optimal-maintenance-1.3.025.050.1-001.pddl,CRASHED:2.15167:1000000000.0:1800.0:-1
ipc-2014-optimal-maintenance-1.3.025.050.1-002.pddl,CRASHED:2.10568:1000000000.0:1800.0:-1
ipc-2014-optimal-maintenance-1.3.025.100.1-000.pddl,CRASHED:4.19736:1000000000.0:1800.0:-1
ipc-2014-optimal-maintenance-1.3.025.100.1-001.pddl,CRASHED:4.11337:1000000000.0:1800.0:-1
ipc-2014-optimal-maintenance-1.3.025.100.1-002.pddl,CRASHED:3.60745:1000000000.0:1800.0:-1
ipc-2014-optimal-maintenance-1.3.025.100.2-000.pddl,CRASHED:668.96:1000000000.0:1800.0:-1
ipc-2014-optimal-maintenance-1.3.025.100.2-001.pddl,CRASHED:0.457929:1000000000.0:1800.0:-1
ipc-2014-optimal-maintenance-1.3.025.100.2-002.pddl,CRASHED:0.472927:1000000000.0:1800.0:-1
ipc-2014-optimal-openstacks-p20_1.pddl,SAT:34.5487:3.0:1800.0:-1
ipc-2014-optimal-openstacks-p20_2.pddl,SAT:35.5206:4.0:1800.0:-1
ipc-2014-optimal-openstacks-p20_3.pddl,SAT:35.8965:6.0:1800.0:-1
ipc-2014-optimal-openstacks-p25_1.pddl,SAT:39.0721:4.0:1800.0:-1
ipc-2014-optimal-openstacks-p25_3.pddl,SAT:48.7326:9.0:1800.0:-1
ipc-2014-optimal-openstacks-p30_1.pddl,SAT:45.2681:4.0:1800.0:-1
ipc-2014-optimal-openstacks-p30_2.pddl,SAT:47.7377:4.0:1800.0:-1
ipc-2014-optimal-openstacks-p30_3.pddl,SAT:111.454:12.0:1800.0:-1
ipc-2014-optimal-openstacks-p35_1.pddl,SAT:58.0282:4.0:1800.0:-1
ipc-2014-optimal-openstacks-p35_2.pddl,SAT:62.1775:5.0:1800.0:-1
ipc-2014-optimal-openstacks-p35_3.pddl,SAT:1115.55:14.0:1800.0:-1
ipc-2014-optimal-openstacks-p40_1.pddl,SAT:88.7705:3.0:1800.0:-1
ipc-2014-optimal-openstacks-p40_2.pddl,SAT:106.775:4.0:1800.0:-1
ipc-2014-optimal-openstacks-p40_3.pddl,TIMEOUT:1801.04:-1.0:1800.0:-1
ipc-2014-optimal-openstacks-p45_1.pddl,SAT:164.092:4.0:1800.0:-1
ipc-2014-optimal-openstacks-p45_2.pddl,SAT:188.905:5.0:1800.0:-1
ipc-2014-optimal-openstacks-p45_3.pddl,TIMEOUT:1801.04:-1.0:1800.0:-1
ipc-2014-optimal-openstacks-p50_1.pddl,SAT:297.137:4.0:1800.0:-1
ipc-2014-optimal-openstacks-p50_2.pddl,SAT:855.474:5.0:1800.0:-1
ipc-2014-optimal-openstacks-p50_3.pddl,TIMEOUT:1801.08:-1.0:1800.0:-1
ipc-2014-optimal-parking-12_7-01.pddl,CRASHED:1451.79:1000000000.0:1800.0:-1
ipc-2014-optimal-parking-12_7-02.pddl,CRASHED:1602.27:1000000000.0:1800.0:-1
ipc-2014-optimal-parking-12_7-03.pddl,CRASHED:1366.82:1000000000.0:1800.0:-1
ipc-2014-optimal-parking-12_7-04.pddl,CRASHED:1781.72:1000000000.0:1800.0:-1
ipc-2014-optimal-parking-14_8-01.pddl,TIMEOUT:1801.07:-1.0:1800.0:-1
ipc-2014-optimal-parking-14_8-02.pddl,TIMEOUT:1801.05:-1.0:1800.0:-1
ipc-2014-optimal-parking-14_8-03.pddl,TIMEOUT:1801.05:-1.0:1800.0:-1
ipc-2014-optimal-parking-14_8-04.pddl,CRASHED:1697.72:1000000000.0:1800.0:-1
ipc-2014-optimal-parking-16_9-01.pddl,TIMEOUT:1801.04:-1.0:1800.0:-1
ipc-2014-optimal-parking-16_9-02.pddl,TIMEOUT:1801.01:-1.0:1800.0:-1
ipc-2014-optimal-parking-16_9-03.pddl,TIMEOUT:1801.08:-1.0:1800.0:-1
ipc-2014-optimal-parking-16_9-04.pddl,TIMEOUT:1801.07:-1.0:1800.0:-1
ipc-2014-optimal-parking-18_10-01.pddl,TIMEOUT:1801.1:-1.0:1800.0:-1
ipc-2014-optimal-parking-18_10-02.pddl,TIMEOUT:1801.07:-1.0:1800.0:-1
ipc-2014-optimal-parking-18_10-03.pddl,TIMEOUT:1801.0:-1.0:1800.0:-1
ipc-2014-optimal-parking-18_10-04.pddl,TIMEOUT:1801.05:-1.0:1800.0:-1
ipc-2014-optimal-parking-20_11-01.pddl,TIMEOUT:1801.09:-1.0:1800.0:-1
ipc-2014-optimal-parking-20_11-02.pddl,TIMEOUT:1801.08:-1.0:1800.0:-1
ipc-2014-optimal-parking-20_11-03.pddl,TIMEOUT:1801.0:-1.0:1800.0:-1
ipc-2014-optimal-parking-20_11-04.pddl,TIMEOUT:1801.04:-1.0:1800.0:-1
ipc-2014-optimal-tetris-01-10.pddl,TIMEOUT:1801.03:-1.0:1800.0:-1
ipc-2014-optimal-tetris-01-04.pddl,CRASHED:491.795:1000000000.0:1800.0:-1
ipc-2014-optimal-tetris-01-06.pddl,TIMEOUT:1801.02:-1.0:1800.0:-1
ipc-2014-optimal-tetris-01-08.pddl,CRASHED:52.38:1000000000.0:1800.0:-1
ipc-2014-optimal-tetris-02-10.pddl,TIMEOUT:1801.08:-1.0:1800.0:-1
ipc-2014-optimal-tetris-02-04.pddl,SAT:32.864:10.0:1800.0:-1
ipc-2014-optimal-tetris-02-06.pddl,TIMEOUT:1801.07:-1.0:1800.0:-1
ipc-2014-optimal-tetris-02-08.pddl,CRASHED:119.83:1000000000.0:1800.0:-1
ipc-2014-optimal-tetris-03-10.pddl,CRASHED:83.34:1000000000.0:1800.0:-1
ipc-2014-optimal-tetris-03-04.pddl,SAT:47.2488:11.0:1800.0:-1
ipc-2014-optimal-tetris-03-06.pddl,TIMEOUT:1801.05:-1.0:1800.0:-1
ipc-2014-optimal-tetris-03-08.pddl,CRASHED:68.91:1000000000.0:1800.0:-1
ipc-2014-optimal-tetris-04-10.pddl,CRASHED:70.83:1000000000.0:1800.0:-1
ipc-2014-optimal-tetris-04-04.pddl,CRASHED:313.881:1000000000.0:1800.0:-1
ipc-2014-optimal-tetris-04-06.pddl,TIMEOUT:1801.05:-1.0:1800.0:-1
ipc-2014-optimal-tetris-04-08.pddl,CRASHED:64.79:1000000000.0:1800.0:-1
ipc-2014-optimal-tetris-05-10.pddl,CRASHED:84.97:1000000000.0:1800.0:-1
ipc-2014-optimal-tetris-05-04.pddl,CRASHED:367.364:1000000000.0:1800.0:-1
ipc-2014-optimal-tetris-05-06.pddl,SAT:294.277:19.0:1800.0:-1
ipc-2014-optimal-tetris-05-08.pddl,CRASHED:68.5:1000000000.0:1800.0:-1
ipc-2014-optimal-tidybot-01.pddl,TIMEOUT:1801.02:-1.0:1800.0:-1
ipc-2014-optimal-tidybot-02.pddl,SAT:1413.25:35.0:1800.0:-1
ipc-2014-optimal-tidybot-03.pddl,TIMEOUT:1801.05:-1.0:1800.0:-1
ipc-2014-optimal-tidybot-04.pddl,SAT:1063.2:24.0:1800.0:-1
ipc-2014-optimal-tidybot-05.pddl,TIMEOUT:1801.03:-1.0:1800.0:-1
ipc-2014-optimal-tidybot-06.pddl,CRASHED:1788.23:1000000000.0:1800.0:-1
ipc-2014-optimal-tidybot-07.pddl,TIMEOUT:1801.11:-1.0:1800.0:-1
ipc-2014-optimal-tidybot-08.pddl,TIMEOUT:1801.05:-1.0:1800.0:-1
ipc-2014-optimal-tidybot-09.pddl,TIMEOUT:1801.08:-1.0:1800.0:-1
ipc-2014-optimal-tidybot-10.pddl,TIMEOUT:1801.03:-1.0:1800.0:-1
ipc-2014-optimal-tidybot-11.pddl,SAT:898.306:29.0:1800.0:-1
ipc-2014-optimal-tidybot-12.pddl,TIMEOUT:1801.0:-1.0:1800.0:-1
ipc-2014-optimal-tidybot-13.pddl,SAT:1447.34:30.0:1800.0:-1
ipc-2014-optimal-tidybot-14.pddl,TIMEOUT:1801.06:-1.0:1800.0:-1
ipc-2014-optimal-tidybot-15.pddl,TIMEOUT:1801.06:-1.0:1800.0:-1
ipc-2014-optimal-tidybot-16.pddl,CRASHED:1590.81:1000000000.0:1800.0:-1
ipc-2014-optimal-tidybot-17.pddl,TIMEOUT:1801.09:-1.0:1800.0:-1
ipc-2014-optimal-tidybot-18.pddl,TIMEOUT:1801.03:-1.0:1800.0:-1
ipc-2014-optimal-tidybot-19.pddl,TIMEOUT:1801.1:-1.0:1800.0:-1
ipc-2014-optimal-tidybot-20.pddl,TIMEOUT:1801.08:-1.0:1800.0:-1
ipc-2014-optimal-transport-01.pddl,SAT:2.16467:148.0:1800.0:-1
ipc-2014-optimal-transport-02.pddl,SAT:12.2311:191.0:1800.0:-1
ipc-2014-optimal-transport-03.pddl,SAT:41.2087:300.0:1800.0:-1
ipc-2014-optimal-transport-04.pddl,TIMEOUT:1801.09:-1.0:1800.0:-1
ipc-2014-optimal-transport-05.pddl,TIMEOUT:1801.0:-1.0:1800.0:-1
ipc-2014-optimal-transport-06.pddl,TIMEOUT:1801.08:-1.0:1800.0:-1
ipc-2014-optimal-transport-07.pddl,SAT:37.8312:967.0:1800.0:-1
ipc-2014-optimal-transport-08.pddl,TIMEOUT:1801.05:-1.0:1800.0:-1
ipc-2014-optimal-transport-09.pddl,TIMEOUT:1801.1:-1.0:1800.0:-1
ipc-2014-optimal-transport-10.pddl,TIMEOUT:1801.03:-1.0:1800.0:-1
ipc-2014-optimal-transport-11.pddl,TIMEOUT:1801.05:-1.0:1800.0:-1
ipc-2014-optimal-transport-12.pddl,TIMEOUT:1801.08:-1.0:1800.0:-1
ipc-2014-optimal-transport-13.pddl,SAT:11.9352:594.0:1800.0:-1
ipc-2014-optimal-transport-14.pddl,SAT:314.427:526.0:1800.0:-1
ipc-2014-optimal-transport-15.pddl,TIMEOUT:1801.0:-1.0:1800.0:-1
ipc-2014-optimal-transport-16.pddl,TIMEOUT:1801.03:-1.0:1800.0:-1
ipc-2014-optimal-transport-17.pddl,TIMEOUT:1801.05:-1.0:1800.0:-1
ipc-2014-optimal-transport-18.pddl,TIMEOUT:1801.03:-1.0:1800.0:-1
ipc-2014-optimal-transport-19.pddl,TIMEOUT:1801.06:-1.0:1800.0:-1
ipc-2014-optimal-transport-20.pddl,TIMEOUT:1801.09:-1.0:1800.0:-1
ipc-2014-optimal-visitall-05-10.pddl,CRASHED:645.86:1000000000.0:1800.0:-1
ipc-2014-optimal-visitall-05-05.pddl,SAT:1.68074:21.0:1800.0:-1
ipc-2014-optimal-visitall-05-06.pddl,SAT:2.95655:25.0:1800.0:-1
ipc-2014-optimal-visitall-05-07.pddl,SAT:29.8845:34.0:1800.0:-1
ipc-2014-optimal-visitall-05-08.pddl,CRASHED:708.74:1000000000.0:1800.0:-1
ipc-2014-optimal-visitall-05-09.pddl,CRASHED:744.63:1000000000.0:1800.0:-1
ipc-2014-optimal-visitall-01-10.pddl,CRASHED:463.35:1000000000.0:1800.0:-1
ipc-2014-optimal-visitall-01-11.pddl,CRASHED:803.78:1000000000.0:1800.0:-1
ipc-2014-optimal-visitall-01-12.pddl,CRASHED:567.88:1000000000.0:1800.0:-1
ipc-2014-optimal-visitall-01-13.pddl,CRASHED:979.03:1000000000.0:1800.0:-1
ipc-2014-optimal-visitall-01-14.pddl,CRASHED:797.9:1000000000.0:1800.0:-1
ipc-2014-optimal-visitall-01-15.pddl,CRASHED:659.76:1000000000.0:1800.0:-1
ipc-2014-optimal-visitall-01-16.pddl,CRASHED:866.88:1000000000.0:1800.0:-1
ipc-2014-optimal-visitall-01-17.pddl,CRASHED:1330.43:1000000000.0:1800.0:-1
ipc-2014-optimal-visitall-01-18.pddl,CRASHED:845.71:1000000000.0:1800.0:-1
ipc-2014-optimal-visitall-01-05.pddl,SAT:4.07638:24.0:1800.0:-1
ipc-2014-optimal-visitall-01-06.pddl,SAT:477.572:35.0:1800.0:-1
ipc-2014-optimal-visitall-01-07.pddl,CRASHED:669.07:1000000000.0:1800.0:-1
ipc-2014-optimal-visitall-01-08.pddl,CRASHED:503.27:1000000000.0:1800.0:-1
ipc-2014-optimal-visitall-01-09.pddl,CRASHED:552.2:1000000000.0:1800.0:-1
