instance,ipc-2014-optimal-rida-fixed
ipc-2014-optimal-barman-p433.1.pddl,CRASHED:0.304953:1000000000.0:1800.0:-1
ipc-2014-optimal-barman-p433.2.pddl,CRASHED:0.511921:1000000000.0:1800.0:-1
ipc-2014-optimal-barman-p433.3.pddl,CRASHED:0.493924:1000000000.0:1800.0:-1
ipc-2014-optimal-barman-p435.1.pddl,TIMEOUT:1801.02:-1.0:1800.0:-1
ipc-2014-optimal-barman-p435.2.pddl,TIMEOUT:1801.08:-1.0:1800.0:-1
ipc-2014-optimal-barman-p435.3.pddl,CRASHED:696.72:1000000000.0:1800.0:-1
ipc-2014-optimal-barman-p443.1.pddl,CRASHED:0.449931:1000000000.0:1800.0:-1
ipc-2014-optimal-barman-p443.2.pddl,CRASHED:0.425934:1000000000.0:1800.0:-1
ipc-2014-optimal-barman-p443.3.pddl,CRASHED:0.414936:1000000000.0:1800.0:-1
ipc-2014-optimal-barman-p536.1.pddl,CRASHED:498.12:1000000000.0:1800.0:-1
ipc-2014-optimal-barman-p536.2.pddl,CRASHED:492.0:1000000000.0:1800.0:-1
ipc-2014-optimal-barman-p536.3.pddl,CRASHED:489.58:1000000000.0:1800.0:-1
ipc-2014-optimal-barman-p638.1.pddl,CRASHED:514.58:1000000000.0:1800.0:-1
ipc-2014-optimal-barman-p638.2.pddl,TIMEOUT:1801.07:-1.0:1800.0:-1
ipc-2014-optimal-barman-p638.3.pddl,TIMEOUT:1801.04:-1.0:1800.0:-1
ipc-2014-optimal-barman-p739.1.pddl,CRASHED:495.33:1000000000.0:1800.0:-1
ipc-2014-optimal-barman-p739.2.pddl,CRASHED:494.85:1000000000.0:1800.0:-1
ipc-2014-optimal-barman-p739.3.pddl,TIMEOUT:1801.03:-1.0:1800.0:-1
ipc-2014-optimal-barman-p839.1.pddl,CRASHED:522.31:1000000000.0:1800.0:-1
ipc-2014-optimal-barman-p839.2.pddl,CRASHED:477.9:1000000000.0:1800.0:-1
ipc-2014-optimal-cavediving-01.pddl,CRASHED:1.59676:1000000000.0:1800.0:-1
ipc-2014-optimal-cavediving-01_easy.pddl,CRASHED:1.12583:1000000000.0:1800.0:-1
ipc-2014-optimal-cavediving-02_easy.pddl,CRASHED:1.13383:1000000000.0:1800.0:-1
ipc-2014-optimal-cavediving-03_easy.pddl,CRASHED:1.11983:1000000000.0:1800.0:-1
ipc-2014-optimal-cavediving-04_easy.pddl,CRASHED:1.12983:1000000000.0:1800.0:-1
ipc-2014-optimal-cavediving-05A_easy.pddl,CRASHED:0.353945:1000000000.0:1800.0:-1
ipc-2014-optimal-cavediving-06A_easy.pddl,CRASHED:0.330948:1000000000.0:1800.0:-1
ipc-2014-optimal-cavediving-07_easy.pddl,SAT:277.093:131.0:1800.0:-1
ipc-2014-optimal-cavediving-08_easy.pddl,CRASHED:0.32495:1000000000.0:1800.0:-1
ipc-2014-optimal-cavediving-09_easy.pddl,CRASHED:5.2562:1000000000.0:1800.0:-1
ipc-2014-optimal-cavediving-10_easy.pddl,CRASHED:5.2512:1000000000.0:1800.0:-1
ipc-2014-optimal-cavediving-11_easy.pddl,CRASHED:5.10722:1000000000.0:1800.0:-1
ipc-2014-optimal-cavediving-12_easy.pddl,CRASHED:5.2632:1000000000.0:1800.0:-1
ipc-2014-optimal-cavediving-13_easy.pddl,CRASHED:1.66375:1000000000.0:1800.0:-1
ipc-2014-optimal-cavediving-14_easy.pddl,CRASHED:1.66874:1000000000.0:1800.0:-1
ipc-2014-optimal-cavediving-15_easy.pddl,CRASHED:1.44678:1000000000.0:1800.0:-1
ipc-2014-optimal-cavediving-16_easy.pddl,CRASHED:1.65375:1000000000.0:1800.0:-1
ipc-2014-optimal-cavediving-18A_easy.pddl,SAT:222.417:131.0:1800.0:-1
ipc-2014-optimal-cavediving-18_easy.pddl,SAT:257.221:131.0:1800.0:-1
ipc-2014-optimal-cavediving-20A_easy.pddl,CRASHED:0.566913:1000000000.0:1800.0:-1
ipc-2014-optimal-childsnack-01-2.pddl,TIMEOUT:1801.05:-1.0:1800.0:-1
ipc-2014-optimal-childsnack-01.pddl,TIMEOUT:1801.07:-1.0:1800.0:-1
ipc-2014-optimal-childsnack-02-2.pddl,TIMEOUT:1801.03:-1.0:1800.0:-1
ipc-2014-optimal-childsnack-02.pddl,TIMEOUT:1801.01:-1.0:1800.0:-1
ipc-2014-optimal-childsnack-03-2.pddl,TIMEOUT:1801.09:-1.0:1800.0:-1
ipc-2014-optimal-childsnack-03.pddl,TIMEOUT:1801.07:-1.0:1800.0:-1
ipc-2014-optimal-childsnack-04-2.pddl,TIMEOUT:1801.06:-1.0:1800.0:-1
ipc-2014-optimal-childsnack-04.pddl,TIMEOUT:1801.05:-1.0:1800.0:-1
ipc-2014-optimal-childsnack-05-2.pddl,TIMEOUT:1801.03:-1.0:1800.0:-1
ipc-2014-optimal-childsnack-05.pddl,TIMEOUT:1801.02:-1.0:1800.0:-1
ipc-2014-optimal-childsnack-06-2.pddl,TIMEOUT:1801.03:-1.0:1800.0:-1
ipc-2014-optimal-childsnack-06.pddl,TIMEOUT:1801.11:-1.0:1800.0:-1
ipc-2014-optimal-childsnack-07-2.pddl,TIMEOUT:1801.09:-1.0:1800.0:-1
ipc-2014-optimal-childsnack-07.pddl,TIMEOUT:1801.02:-1.0:1800.0:-1
ipc-2014-optimal-childsnack-08-2.pddl,TIMEOUT:1801.07:-1.0:1800.0:-1
ipc-2014-optimal-childsnack-08.pddl,TIMEOUT:1801.08:-1.0:1800.0:-1
ipc-2014-optimal-childsnack-09-2.pddl,TIMEOUT:1801.07:-1.0:1800.0:-1
ipc-2014-optimal-childsnack-09.pddl,TIMEOUT:1801.02:-1.0:1800.0:-1
ipc-2014-optimal-childsnack-10-2.pddl,TIMEOUT:1801.0:-1.0:1800.0:-1
ipc-2014-optimal-childsnack-10.pddl,TIMEOUT:1801.02:-1.0:1800.0:-1
ipc-2014-optimal-citycar-p2-2-2-1-2.pddl,SAT:1.74773:46.0:1800.0:-1
ipc-2014-optimal-citycar-p2-2-2-2-1.pddl,SAT:2.29765:64.0:1800.0:-1
ipc-2014-optimal-citycar-p2-2-3-1-2.pddl,SAT:2.52462:50.0:1800.0:-1
ipc-2014-optimal-citycar-p2-2-3-2-1.pddl,SAT:2.38864:48.0:1800.0:-1
ipc-2014-optimal-citycar-p2-2-3-2-2.pddl,SAT:2.52861:50.0:1800.0:-1
ipc-2014-optimal-citycar-p2-2-4-1-2.pddl,SAT:6.10807:52.0:1800.0:-1
ipc-2014-optimal-citycar-p2-2-4-2-1.pddl,SAT:6.04408:52.0:1800.0:-1
ipc-2014-optimal-citycar-p2-2-5-2-2.pddl,SAT:214.614:76.0:1800.0:-1
ipc-2014-optimal-citycar-p2-2-6-1-1.pddl,SAT:163.17:58.0:1800.0:-1
ipc-2014-optimal-citycar-p2-2-6-2-2.pddl,SAT:159.368:58.0:1800.0:-1
ipc-2014-optimal-citycar-p2-3-2-3-1.pddl,SAT:7.99778:68.0:1800.0:-1
ipc-2014-optimal-citycar-p2-3-3-3-1.pddl,SAT:52.463:78.0:1800.0:-1
ipc-2014-optimal-citycar-p2-3-4-3-1.pddl,SAT:254.81:82.0:1800.0:-1
ipc-2014-optimal-citycar-p2-3-6-3-2.pddl,TIMEOUT:1801.03:-1.0:1800.0:-1
ipc-2014-optimal-citycar-p3-3-2-2-1.pddl,SAT:187.552:70.0:1800.0:-1
ipc-2014-optimal-citycar-p3-3-2-2-2.pddl,CRASHED:1407.91:1000000000.0:1800.0:-1
ipc-2014-optimal-citycar-p3-3-2-3-1.pddl,SAT:7.99678:48.0:1800.0:-1
ipc-2014-optimal-citycar-p3-3-2-3-2.pddl,SAT:162.002:70.0:1800.0:-1
ipc-2014-optimal-citycar-p3-3-3-3-1.pddl,TIMEOUT:1801.01:-1.0:1800.0:-1
ipc-2014-optimal-citycar-p3-3-3-3-2.pddl,SAT:1495.09:76.0:1800.0:-1
ipc-2014-optimal-floortile-p01-4-3-2.pddl,SAT:260.498:56.0:1800.0:-1
ipc-2014-optimal-floortile-p01-4-4-2.pddl,SAT:1342.54:68.0:1800.0:-1
ipc-2014-optimal-floortile-p01-5-3-2.pddl,SAT:393.462:63.0:1800.0:-1
ipc-2014-optimal-floortile-p01-5-4-2.pddl,TIMEOUT:1801.03:-1.0:1800.0:-1
ipc-2014-optimal-floortile-p01-5-5-2.pddl,TIMEOUT:1801.03:-1.0:1800.0:-1
ipc-2014-optimal-floortile-p01-6-4-2.pddl,TIMEOUT:1801.07:-1.0:1800.0:-1
ipc-2014-optimal-floortile-p01-6-5-2.pddl,TIMEOUT:1801.05:-1.0:1800.0:-1
ipc-2014-optimal-floortile-p02-4-4-2.pddl,TIMEOUT:1801.07:-1.0:1800.0:-1
ipc-2014-optimal-floortile-p02-5-3-2.pddl,SAT:465.736:65.0:1800.0:-1
ipc-2014-optimal-floortile-p02-5-4-2.pddl,TIMEOUT:1801.03:-1.0:1800.0:-1
ipc-2014-optimal-floortile-p02-5-5-2.pddl,TIMEOUT:1801.02:-1.0:1800.0:-1
ipc-2014-optimal-floortile-p02-6-4-2.pddl,TIMEOUT:1801.04:-1.0:1800.0:-1
ipc-2014-optimal-floortile-p02-6-5-2.pddl,TIMEOUT:1801.02:-1.0:1800.0:-1
ipc-2014-optimal-floortile-p03-4-3-2.pddl,SAT:259.287:56.0:1800.0:-1
ipc-2014-optimal-floortile-p03-4-4-2.pddl,TIMEOUT:1801.06:-1.0:1800.0:-1
ipc-2014-optimal-floortile-p03-5-3-2.pddl,SAT:505.796:65.0:1800.0:-1
ipc-2014-optimal-floortile-p03-5-4-2.pddl,TIMEOUT:1801.07:-1.0:1800.0:-1
ipc-2014-optimal-floortile-p03-5-5-2.pddl,TIMEOUT:1801.08:-1.0:1800.0:-1
ipc-2014-optimal-floortile-p03-6-4-2.pddl,TIMEOUT:1801.0:-1.0:1800.0:-1
ipc-2014-optimal-floortile-p03-6-5-2.pddl,TIMEOUT:1801.03:-1.0:1800.0:-1
ipc-2014-optimal-ged-d-1-2.pddl,SAT:52.0821:1.0:1800.0:-1
ipc-2014-optimal-ged-d-1-3.pddl,SAT:202.214:4.0:1800.0:-1
ipc-2014-optimal-ged-d-1-4.pddl,SAT:52.1641:1.0:1800.0:-1
ipc-2014-optimal-ged-d-1-8.pddl,SAT:286.023:4.0:1800.0:-1
ipc-2014-optimal-ged-d-2-1.pddl,SAT:52.2401:1.0:1800.0:-1
ipc-2014-optimal-ged-d-2-3.pddl,SAT:144.44:3.0:1800.0:-1
ipc-2014-optimal-ged-d-2-4.pddl,SAT:127.917:2.0:1800.0:-1
ipc-2014-optimal-ged-d-2-8.pddl,SAT:400.793:5.0:1800.0:-1
ipc-2014-optimal-ged-d-3-1.pddl,SAT:237.121:4.0:1800.0:-1
ipc-2014-optimal-ged-d-3-2.pddl,SAT:152.083:3.0:1800.0:-1
ipc-2014-optimal-ged-d-3-4.pddl,SAT:328.498:5.0:1800.0:-1
ipc-2014-optimal-ged-d-4-2.pddl,SAT:128.046:2.0:1800.0:-1
ipc-2014-optimal-ged-d-4-3.pddl,SAT:325.263:5.0:1800.0:-1
ipc-2014-optimal-ged-d-4-8.pddl,SAT:314.414:5.0:1800.0:-1
ipc-2014-optimal-ged-d-7-5.pddl,SAT:285.994:4.0:1800.0:-1
ipc-2014-optimal-ged-d-7-6.pddl,SAT:227.957:4.0:1800.0:-1
ipc-2014-optimal-ged-d-8-1.pddl,SAT:287.925:4.0:1800.0:-1
ipc-2014-optimal-ged-d-8-2.pddl,SAT:375.737:5.0:1800.0:-1
ipc-2014-optimal-ged-d-8-4.pddl,SAT:385.6:5.0:1800.0:-1
ipc-2014-optimal-ged-d-8-9.pddl,CRASHED:470.76:1000000000.0:1800.0:-1
ipc-2014-optimal-hiking-1-2-3.pddl,SAT:7.80681:11.0:1800.0:-1
ipc-2014-optimal-hiking-1-2-4.pddl,SAT:11.1053:17.0:1800.0:-1
ipc-2014-optimal-hiking-1-2-5.pddl,SAT:18.4092:25.0:1800.0:-1
ipc-2014-optimal-hiking-1-2-7.pddl,SAT:39.475:38.0:1800.0:-1
ipc-2014-optimal-hiking-1-2-8.pddl,SAT:64.5522:45.0:1800.0:-1
ipc-2014-optimal-hiking-2-2-3.pddl,SAT:143.311:10.0:1800.0:-1
ipc-2014-optimal-hiking-2-2-4.pddl,SAT:209.783:16.0:1800.0:-1
ipc-2014-optimal-hiking-2-2-5.pddl,SAT:306.775:22.0:1800.0:-1
ipc-2014-optimal-hiking-2-2-6.pddl,SAT:420.529:30.0:1800.0:-1
ipc-2014-optimal-hiking-2-2-7.pddl,SAT:445.3:34.0:1800.0:-1
ipc-2014-optimal-hiking-2-2-8.pddl,SAT:1017.45:42.0:1800.0:-1
ipc-2014-optimal-hiking-2-3-4.pddl,SAT:351.137:17.0:1800.0:-1
ipc-2014-optimal-hiking-2-3-5.pddl,SAT:520.139:24.0:1800.0:-1
ipc-2014-optimal-hiking-2-3-6.pddl,SAT:587.059:28.0:1800.0:-1
ipc-2014-optimal-hiking-2-3-7.pddl,CRASHED:982.24:1000000000.0:1800.0:-1
ipc-2014-optimal-hiking-2-4-3.pddl,SAT:259.736:10.0:1800.0:-1
ipc-2014-optimal-hiking-2-4-4.pddl,SAT:480.891:17.0:1800.0:-1
ipc-2014-optimal-hiking-2-4-5.pddl,SAT:766.458:23.0:1800.0:-1
ipc-2014-optimal-hiking-2-4-6.pddl,SAT:1073.37:30.0:1800.0:-1
ipc-2014-optimal-hiking-2-4-7.pddl,CRASHED:771.88:1000000000.0:1800.0:-1
ipc-2014-optimal-maintenance-1.3.010.010.1-001.pddl,CRASHED:7.75782:1000000000.0:1800.0:-1
ipc-2014-optimal-maintenance-1.3.010.010.1-002.pddl,CRASHED:11.7222:1000000000.0:1800.0:-1
ipc-2014-optimal-maintenance-1.3.010.010.2-000.pddl,SAT:21.8397:4.0:1800.0:-1
ipc-2014-optimal-maintenance-1.3.010.010.2-001.pddl,SAT:26.298:7.0:1800.0:-1
ipc-2014-optimal-maintenance-1.3.010.010.2-002.pddl,SAT:37.3053:6.0:1800.0:-1
ipc-2014-optimal-maintenance-1.3.015.020.1-000.pddl,CRASHED:26.8619:1000000000.0:1800.0:-1
ipc-2014-optimal-maintenance-1.3.015.020.1-001.pddl,CRASHED:20.3129:1000000000.0:1800.0:-1
ipc-2014-optimal-maintenance-1.3.015.020.1-002.pddl,CRASHED:24.8872:1000000000.0:1800.0:-1
ipc-2014-optimal-maintenance-1.3.015.020.2-000.pddl,CRASHED:333.358:1000000000.0:1800.0:-1
ipc-2014-optimal-maintenance-1.3.015.020.2-001.pddl,SAT:124.386:11.0:1800.0:-1
ipc-2014-optimal-maintenance-1.3.015.020.2-002.pddl,SAT:119.254:9.0:1800.0:-1
ipc-2014-optimal-maintenance-1.3.025.050.1-000.pddl,CRASHED:87.1178:1000000000.0:1800.0:-1
ipc-2014-optimal-maintenance-1.3.025.050.1-001.pddl,CRASHED:170.565:1000000000.0:1800.0:-1
ipc-2014-optimal-maintenance-1.3.025.050.1-002.pddl,CRASHED:171.955:1000000000.0:1800.0:-1
ipc-2014-optimal-maintenance-1.3.025.100.1-000.pddl,CRASHED:84.0752:1000000000.0:1800.0:-1
ipc-2014-optimal-maintenance-1.3.025.100.1-001.pddl,CRASHED:80.9137:1000000000.0:1800.0:-1
ipc-2014-optimal-maintenance-1.3.025.100.1-002.pddl,CRASHED:85.601:1000000000.0:1800.0:-1
ipc-2014-optimal-maintenance-1.3.025.100.2-000.pddl,TIMEOUT:1801.09:-1.0:1800.0:-1
ipc-2014-optimal-maintenance-1.3.025.100.2-001.pddl,TIMEOUT:1801.01:-1.0:1800.0:-1
ipc-2014-optimal-maintenance-1.3.025.100.2-002.pddl,TIMEOUT:1801.08:-1.0:1800.0:-1
ipc-2014-optimal-openstacks-p20_1.pddl,SAT:321.962:3.0:1800.0:-1
ipc-2014-optimal-openstacks-p20_2.pddl,SAT:279.229:4.0:1800.0:-1
ipc-2014-optimal-openstacks-p20_3.pddl,SAT:176.246:6.0:1800.0:-1
ipc-2014-optimal-openstacks-p25_1.pddl,CRASHED:631.28:1000000000.0:1800.0:-1
ipc-2014-optimal-openstacks-p25_3.pddl,CRASHED:637.21:1000000000.0:1800.0:-1
ipc-2014-optimal-openstacks-p30_1.pddl,TIMEOUT:1801.05:-1.0:1800.0:-1
ipc-2014-optimal-openstacks-p30_2.pddl,TIMEOUT:1801.03:-1.0:1800.0:-1
ipc-2014-optimal-openstacks-p30_3.pddl,CRASHED:658.34:1000000000.0:1800.0:-1
ipc-2014-optimal-openstacks-p35_1.pddl,TIMEOUT:1801.07:-1.0:1800.0:-1
ipc-2014-optimal-openstacks-p35_2.pddl,TIMEOUT:1801.1:-1.0:1800.0:-1
ipc-2014-optimal-openstacks-p35_3.pddl,CRASHED:656.52:1000000000.0:1800.0:-1
ipc-2014-optimal-openstacks-p40_1.pddl,CRASHED:484.78:1000000000.0:1800.0:-1
ipc-2014-optimal-openstacks-p40_2.pddl,CRASHED:466.25:1000000000.0:1800.0:-1
ipc-2014-optimal-openstacks-p40_3.pddl,CRASHED:697.18:1000000000.0:1800.0:-1
ipc-2014-optimal-openstacks-p45_1.pddl,CRASHED:611.6:1000000000.0:1800.0:-1
ipc-2014-optimal-openstacks-p45_2.pddl,CRASHED:580.38:1000000000.0:1800.0:-1
ipc-2014-optimal-openstacks-p45_3.pddl,CRASHED:753.48:1000000000.0:1800.0:-1
ipc-2014-optimal-openstacks-p50_1.pddl,CRASHED:676.37:1000000000.0:1800.0:-1
ipc-2014-optimal-openstacks-p50_2.pddl,CRASHED:784.53:1000000000.0:1800.0:-1
ipc-2014-optimal-openstacks-p50_3.pddl,CRASHED:669.68:1000000000.0:1800.0:-1
ipc-2014-optimal-parking-12_7-01.pddl,SAT:878.838:18.0:1800.0:-1
ipc-2014-optimal-parking-12_7-02.pddl,SAT:897.16:18.0:1800.0:-1
ipc-2014-optimal-parking-12_7-03.pddl,SAT:899.398:17.0:1800.0:-1
ipc-2014-optimal-parking-12_7-04.pddl,SAT:899.053:19.0:1800.0:-1
ipc-2014-optimal-parking-14_8-01.pddl,CRASHED:1617.13:1000000000.0:1800.0:-1
ipc-2014-optimal-parking-14_8-02.pddl,SAT:1398.91:22.0:1800.0:-1
ipc-2014-optimal-parking-14_8-03.pddl,SAT:1296.47:21.0:1800.0:-1
ipc-2014-optimal-parking-14_8-04.pddl,TIMEOUT:1801.07:-1.0:1800.0:-1
ipc-2014-optimal-parking-16_9-01.pddl,CRASHED:1469.71:1000000000.0:1800.0:-1
ipc-2014-optimal-parking-16_9-02.pddl,CRASHED:1435.69:1000000000.0:1800.0:-1
ipc-2014-optimal-parking-16_9-03.pddl,CRASHED:1423.45:1000000000.0:1800.0:-1
ipc-2014-optimal-parking-16_9-04.pddl,CRASHED:1342.38:1000000000.0:1800.0:-1
ipc-2014-optimal-parking-18_10-01.pddl,TIMEOUT:1801.04:-1.0:1800.0:-1
ipc-2014-optimal-parking-18_10-02.pddl,CRASHED:1687.91:1000000000.0:1800.0:-1
ipc-2014-optimal-parking-18_10-03.pddl,CRASHED:1433.23:1000000000.0:1800.0:-1
ipc-2014-optimal-parking-18_10-04.pddl,CRASHED:1393.29:1000000000.0:1800.0:-1
ipc-2014-optimal-parking-20_11-01.pddl,CRASHED:1701.07:1000000000.0:1800.0:-1
ipc-2014-optimal-parking-20_11-02.pddl,CRASHED:1628.72:1000000000.0:1800.0:-1
ipc-2014-optimal-parking-20_11-03.pddl,CRASHED:1755.74:1000000000.0:1800.0:-1
ipc-2014-optimal-parking-20_11-04.pddl,CRASHED:1462.54:1000000000.0:1800.0:-1
ipc-2014-optimal-tetris-01-10.pddl,TIMEOUT:1801.01:-1.0:1800.0:-1
ipc-2014-optimal-tetris-01-04.pddl,CRASHED:293.752:1000000000.0:1800.0:-1
ipc-2014-optimal-tetris-01-06.pddl,SAT:209.578:30.0:1800.0:-1
ipc-2014-optimal-tetris-01-08.pddl,SAT:996.688:36.0:1800.0:-1
ipc-2014-optimal-tetris-02-10.pddl,TIMEOUT:1801.05:-1.0:1800.0:-1
ipc-2014-optimal-tetris-02-04.pddl,SAT:523.624:10.0:1800.0:-1
ipc-2014-optimal-tetris-02-06.pddl,SAT:282.257:30.0:1800.0:-1
ipc-2014-optimal-tetris-02-08.pddl,TIMEOUT:1801.03:-1.0:1800.0:-1
ipc-2014-optimal-tetris-03-10.pddl,TIMEOUT:1801.05:-1.0:1800.0:-1
ipc-2014-optimal-tetris-03-04.pddl,SAT:730.383:11.0:1800.0:-1
ipc-2014-optimal-tetris-03-06.pddl,SAT:249.096:21.0:1800.0:-1
ipc-2014-optimal-tetris-03-08.pddl,TIMEOUT:1801.05:-1.0:1800.0:-1
ipc-2014-optimal-tetris-04-10.pddl,TIMEOUT:1801.09:-1.0:1800.0:-1
ipc-2014-optimal-tetris-04-04.pddl,CRASHED:329.87:1000000000.0:1800.0:-1
ipc-2014-optimal-tetris-04-06.pddl,SAT:242.819:27.0:1800.0:-1
ipc-2014-optimal-tetris-04-08.pddl,TIMEOUT:1801.0:-1.0:1800.0:-1
ipc-2014-optimal-tetris-05-10.pddl,TIMEOUT:1801.05:-1.0:1800.0:-1
ipc-2014-optimal-tetris-05-04.pddl,CRASHED:417.204:1000000000.0:1800.0:-1
ipc-2014-optimal-tetris-05-06.pddl,SAT:216.53:19.0:1800.0:-1
ipc-2014-optimal-tetris-05-08.pddl,TIMEOUT:1801.05:-1.0:1800.0:-1
ipc-2014-optimal-tidybot-01.pddl,TIMEOUT:1801.08:-1.0:1800.0:-1
ipc-2014-optimal-tidybot-02.pddl,SAT:402.263:35.0:1800.0:-1
ipc-2014-optimal-tidybot-03.pddl,SAT:376.635:30.0:1800.0:-1
ipc-2014-optimal-tidybot-04.pddl,SAT:317.241:24.0:1800.0:-1
ipc-2014-optimal-tidybot-05.pddl,TIMEOUT:1801.03:-1.0:1800.0:-1
ipc-2014-optimal-tidybot-06.pddl,TIMEOUT:1801.08:-1.0:1800.0:-1
ipc-2014-optimal-tidybot-07.pddl,SAT:1097.23:38.0:1800.0:-1
ipc-2014-optimal-tidybot-08.pddl,SAT:274.389:25.0:1800.0:-1
ipc-2014-optimal-tidybot-09.pddl,SAT:1527.38:35.0:1800.0:-1
ipc-2014-optimal-tidybot-10.pddl,TIMEOUT:1801.02:-1.0:1800.0:-1
ipc-2014-optimal-tidybot-11.pddl,SAT:198.367:29.0:1800.0:-1
ipc-2014-optimal-tidybot-12.pddl,SAT:750.231:35.0:1800.0:-1
ipc-2014-optimal-tidybot-13.pddl,SAT:319.051:30.0:1800.0:-1
ipc-2014-optimal-tidybot-14.pddl,SAT:204.396:25.0:1800.0:-1
ipc-2014-optimal-tidybot-15.pddl,TIMEOUT:1801.04:-1.0:1800.0:-1
ipc-2014-optimal-tidybot-16.pddl,TIMEOUT:1801.09:-1.0:1800.0:-1
ipc-2014-optimal-tidybot-17.pddl,TIMEOUT:1801.08:-1.0:1800.0:-1
ipc-2014-optimal-tidybot-18.pddl,TIMEOUT:1801.0:-1.0:1800.0:-1
ipc-2014-optimal-tidybot-19.pddl,TIMEOUT:1801.11:-1.0:1800.0:-1
ipc-2014-optimal-tidybot-20.pddl,TIMEOUT:1801.04:-1.0:1800.0:-1
ipc-2014-optimal-transport-01.pddl,SAT:58.992:148.0:1800.0:-1
ipc-2014-optimal-transport-02.pddl,SAT:104.811:191.0:1800.0:-1
ipc-2014-optimal-transport-03.pddl,SAT:213.399:300.0:1800.0:-1
ipc-2014-optimal-transport-04.pddl,TIMEOUT:1801.01:-1.0:1800.0:-1
ipc-2014-optimal-transport-05.pddl,TIMEOUT:1801.08:-1.0:1800.0:-1
ipc-2014-optimal-transport-06.pddl,TIMEOUT:1801.07:-1.0:1800.0:-1
ipc-2014-optimal-transport-07.pddl,SAT:101.439:967.0:1800.0:-1
ipc-2014-optimal-transport-08.pddl,SAT:199.563:1173.0:1800.0:-1
ipc-2014-optimal-transport-09.pddl,CRASHED:691.98:1000000000.0:1800.0:-1
ipc-2014-optimal-transport-10.pddl,TIMEOUT:1801.0:-1.0:1800.0:-1
ipc-2014-optimal-transport-11.pddl,TIMEOUT:1801.05:-1.0:1800.0:-1
ipc-2014-optimal-transport-12.pddl,TIMEOUT:1801.04:-1.0:1800.0:-1
ipc-2014-optimal-transport-13.pddl,SAT:117.813:594.0:1800.0:-1
ipc-2014-optimal-transport-14.pddl,SAT:326.107:526.0:1800.0:-1
ipc-2014-optimal-transport-15.pddl,SAT:289.742:753.0:1800.0:-1
ipc-2014-optimal-transport-16.pddl,TIMEOUT:1801.05:-1.0:1800.0:-1
ipc-2014-optimal-transport-17.pddl,TIMEOUT:1801.02:-1.0:1800.0:-1
ipc-2014-optimal-transport-18.pddl,TIMEOUT:1801.08:-1.0:1800.0:-1
ipc-2014-optimal-transport-19.pddl,TIMEOUT:1801.05:-1.0:1800.0:-1
ipc-2014-optimal-transport-20.pddl,TIMEOUT:1801.07:-1.0:1800.0:-1
ipc-2014-optimal-visitall-05-10.pddl,SAT:250.711:60.0:1800.0:-1
ipc-2014-optimal-visitall-05-05.pddl,SAT:36.4895:21.0:1800.0:-1
ipc-2014-optimal-visitall-05-06.pddl,SAT:46.179:25.0:1800.0:-1
ipc-2014-optimal-visitall-05-07.pddl,SAT:105.972:34.0:1800.0:-1
ipc-2014-optimal-visitall-05-08.pddl,SAT:214.969:43.0:1800.0:-1
ipc-2014-optimal-visitall-05-09.pddl,SAT:201.947:54.0:1800.0:-1
ipc-2014-optimal-visitall-01-10.pddl,SAT:248.969:99.0:1800.0:-1
ipc-2014-optimal-visitall-01-11.pddl,SAT:295.09:120.0:1800.0:-1
ipc-2014-optimal-visitall-01-12.pddl,SAT:639.675:143.0:1800.0:-1
ipc-2014-optimal-visitall-01-13.pddl,SAT:559.841:168.0:1800.0:-1
ipc-2014-optimal-visitall-01-14.pddl,CRASHED:1058.06:1000000000.0:1800.0:-1
ipc-2014-optimal-visitall-01-15.pddl,CRASHED:1068.06:1000000000.0:1800.0:-1
ipc-2014-optimal-visitall-01-16.pddl,CRASHED:1045.9:1000000000.0:1800.0:-1
ipc-2014-optimal-visitall-01-17.pddl,CRASHED:1135.47:1000000000.0:1800.0:-1
ipc-2014-optimal-visitall-01-18.pddl,CRASHED:1012.86:1000000000.0:1800.0:-1
ipc-2014-optimal-visitall-01-05.pddl,SAT:128.969:24.0:1800.0:-1
ipc-2014-optimal-visitall-01-06.pddl,SAT:271.93:35.0:1800.0:-1
ipc-2014-optimal-visitall-01-07.pddl,SAT:204.786:48.0:1800.0:-1
ipc-2014-optimal-visitall-01-08.pddl,SAT:264.92:63.0:1800.0:-1
ipc-2014-optimal-visitall-01-09.pddl,SAT:298.792:80.0:1800.0:-1
