instance,ipc-2014-optimal-nucelar
ipc-2014-optimal-barman-p433.1.pddl,CRASHED:1.68674:1000000000.0:1800.0:-1
ipc-2014-optimal-barman-p433.2.pddl,CRASHED:1.36679:1000000000.0:1800.0:-1
ipc-2014-optimal-barman-p433.3.pddl,CRASHED:1.41279:1000000000.0:1800.0:-1
ipc-2014-optimal-barman-p435.1.pddl,CRASHED:1782.12:1000000000.0:1800.0:-1
ipc-2014-optimal-barman-p435.2.pddl,CRASHED:1776.39:1000000000.0:1800.0:-1
ipc-2014-optimal-barman-p435.3.pddl,CRASHED:1778.03:1000000000.0:1800.0:-1
ipc-2014-optimal-barman-p443.1.pddl,CRASHED:1.73474:1000000000.0:1800.0:-1
ipc-2014-optimal-barman-p443.2.pddl,CRASHED:1.40079:1000000000.0:1800.0:-1
ipc-2014-optimal-barman-p443.3.pddl,CRASHED:1.43078:1000000000.0:1800.0:-1
ipc-2014-optimal-barman-p536.1.pddl,TIMEOUT:1801.04:-1.0:1800.0:-1
ipc-2014-optimal-barman-p536.2.pddl,TIMEOUT:1801.09:-1.0:1800.0:-1
ipc-2014-optimal-barman-p536.3.pddl,CRASHED:1800.66:1000000000.0:1800.0:-1
ipc-2014-optimal-barman-p638.1.pddl,CRASHED:1797.53:1000000000.0:1800.0:-1
ipc-2014-optimal-barman-p638.2.pddl,CRASHED:1797.92:1000000000.0:1800.0:-1
ipc-2014-optimal-barman-p638.3.pddl,CRASHED:1798.6:1000000000.0:1800.0:-1
ipc-2014-optimal-barman-p739.1.pddl,CRASHED:1796.94:1000000000.0:1800.0:-1
ipc-2014-optimal-barman-p739.2.pddl,CRASHED:1798.19:1000000000.0:1800.0:-1
ipc-2014-optimal-barman-p739.3.pddl,TIMEOUT:1801.06:-1.0:1800.0:-1
ipc-2014-optimal-barman-p839.1.pddl,CRASHED:1797.94:1000000000.0:1800.0:-1
ipc-2014-optimal-barman-p839.2.pddl,CRASHED:1798.16:1000000000.0:1800.0:-1
ipc-2014-optimal-cavediving-01.pddl,CRASHED:46.21:1000000000.0:1800.0:-1
ipc-2014-optimal-cavediving-01_easy.pddl,CRASHED:31.1443:1000000000.0:1800.0:-1
ipc-2014-optimal-cavediving-02_easy.pddl,CRASHED:31.1963:1000000000.0:1800.0:-1
ipc-2014-optimal-cavediving-03_easy.pddl,CRASHED:28.4777:1000000000.0:1800.0:-1
ipc-2014-optimal-cavediving-04_easy.pddl,CRASHED:28.5807:1000000000.0:1800.0:-1
ipc-2014-optimal-cavediving-05A_easy.pddl,CRASHED:5.81212:1000000000.0:1800.0:-1
ipc-2014-optimal-cavediving-06A_easy.pddl,CRASHED:5.82411:1000000000.0:1800.0:-1
ipc-2014-optimal-cavediving-07_easy.pddl,CRASHED:5.77812:1000000000.0:1800.0:-1
ipc-2014-optimal-cavediving-08_easy.pddl,CRASHED:5.84111:1000000000.0:1800.0:-1
ipc-2014-optimal-cavediving-09_easy.pddl,CRASHED:144.042:1000000000.0:1800.0:-1
ipc-2014-optimal-cavediving-10_easy.pddl,CRASHED:156.183:1000000000.0:1800.0:-1
ipc-2014-optimal-cavediving-11_easy.pddl,CRASHED:154.639:1000000000.0:1800.0:-1
ipc-2014-optimal-cavediving-12_easy.pddl,CRASHED:155.468:1000000000.0:1800.0:-1
ipc-2014-optimal-cavediving-13_easy.pddl,CRASHED:41.4067:1000000000.0:1800.0:-1
ipc-2014-optimal-cavediving-14_easy.pddl,CRASHED:41.3427:1000000000.0:1800.0:-1
ipc-2014-optimal-cavediving-15_easy.pddl,CRASHED:35.0267:1000000000.0:1800.0:-1
ipc-2014-optimal-cavediving-16_easy.pddl,CRASHED:41.8566:1000000000.0:1800.0:-1
ipc-2014-optimal-cavediving-18A_easy.pddl,CRASHED:8.84865:1000000000.0:1800.0:-1
ipc-2014-optimal-cavediving-18_easy.pddl,CRASHED:10.2254:1000000000.0:1800.0:-1
ipc-2014-optimal-cavediving-20A_easy.pddl,CRASHED:8.86465:1000000000.0:1800.0:-1
ipc-2014-optimal-childsnack-01-2.pddl,CRASHED:1794.37:1000000000.0:1800.0:-1
ipc-2014-optimal-childsnack-01.pddl,CRASHED:1793.43:1000000000.0:1800.0:-1
ipc-2014-optimal-childsnack-02-2.pddl,CRASHED:1781.9:1000000000.0:1800.0:-1
ipc-2014-optimal-childsnack-02.pddl,CRASHED:188.18:1000000000.0:1800.0:-1
ipc-2014-optimal-childsnack-03-2.pddl,CRASHED:1451.56:1000000000.0:1800.0:-1
ipc-2014-optimal-childsnack-03.pddl,CRASHED:1789.71:1000000000.0:1800.0:-1
ipc-2014-optimal-childsnack-04-2.pddl,CRASHED:1791.85:1000000000.0:1800.0:-1
ipc-2014-optimal-childsnack-04.pddl,CRASHED:1789.29:1000000000.0:1800.0:-1
ipc-2014-optimal-childsnack-05-2.pddl,CRASHED:1792.79:1000000000.0:1800.0:-1
ipc-2014-optimal-childsnack-05.pddl,CRASHED:1255.82:1000000000.0:1800.0:-1
ipc-2014-optimal-childsnack-06-2.pddl,CRASHED:1785.78:1000000000.0:1800.0:-1
ipc-2014-optimal-childsnack-06.pddl,CRASHED:1787.44:1000000000.0:1800.0:-1
ipc-2014-optimal-childsnack-07-2.pddl,CRASHED:1793.49:1000000000.0:1800.0:-1
ipc-2014-optimal-childsnack-07.pddl,CRASHED:1793.95:1000000000.0:1800.0:-1
ipc-2014-optimal-childsnack-08-2.pddl,CRASHED:1795.36:1000000000.0:1800.0:-1
ipc-2014-optimal-childsnack-08.pddl,TIMEOUT:1801.04:-1.0:1800.0:-1
ipc-2014-optimal-childsnack-09-2.pddl,TIMEOUT:1801.01:-1.0:1800.0:-1
ipc-2014-optimal-childsnack-09.pddl,TIMEOUT:1801.07:-1.0:1800.0:-1
ipc-2014-optimal-childsnack-10-2.pddl,TIMEOUT:1801.06:-1.0:1800.0:-1
ipc-2014-optimal-childsnack-10.pddl,TIMEOUT:1801.09:-1.0:1800.0:-1
ipc-2014-optimal-citycar-p2-2-2-1-2.pddl,SAT:52.0241:46.0:1800.0:-1
ipc-2014-optimal-citycar-p2-2-2-2-1.pddl,CRASHED:46.082:64.0:1800.0:-1
ipc-2014-optimal-citycar-p2-2-3-1-2.pddl,CRASHED:96.4423:50.0:1800.0:-1
ipc-2014-optimal-citycar-p2-2-3-2-1.pddl,SAT:76.1024:48.0:1800.0:-1
ipc-2014-optimal-citycar-p2-2-3-2-2.pddl,SAT:98.683:50.0:1800.0:-1
ipc-2014-optimal-citycar-p2-2-4-1-2.pddl,SAT:93.7528:52.0:1800.0:-1
ipc-2014-optimal-citycar-p2-2-4-2-1.pddl,SAT:100.361:52.0:1800.0:-1
ipc-2014-optimal-citycar-p2-2-5-2-2.pddl,CRASHED:519.51:76.0:1800.0:-1
ipc-2014-optimal-citycar-p2-2-6-1-1.pddl,CRASHED:432.0:58.0:1800.0:-1
ipc-2014-optimal-citycar-p2-2-6-2-2.pddl,CRASHED:428.09:58.0:1800.0:-1
ipc-2014-optimal-citycar-p2-3-2-3-1.pddl,SAT:198.562:68.0:1800.0:-1
ipc-2014-optimal-citycar-p2-3-3-3-1.pddl,CRASHED:454.82:78.0:1800.0:-1
ipc-2014-optimal-citycar-p2-3-4-3-1.pddl,TIMEOUT:1801.0:-1.0:1800.0:-1
ipc-2014-optimal-citycar-p2-3-6-3-2.pddl,TIMEOUT:1801.0:-1.0:1800.0:-1
ipc-2014-optimal-citycar-p3-3-2-2-1.pddl,TIMEOUT:1801.0:-1.0:1800.0:-1
ipc-2014-optimal-citycar-p3-3-2-2-2.pddl,TIMEOUT:1801.1:-1.0:1800.0:-1
ipc-2014-optimal-citycar-p3-3-2-3-1.pddl,SAT:115.198:48.0:1800.0:-1
ipc-2014-optimal-citycar-p3-3-2-3-2.pddl,CRASHED:331.63:70.0:1800.0:-1
ipc-2014-optimal-citycar-p3-3-3-3-1.pddl,TIMEOUT:1801.0:-1.0:1800.0:-1
ipc-2014-optimal-citycar-p3-3-3-3-2.pddl,TIMEOUT:1801.09:-1.0:1800.0:-1
ipc-2014-optimal-floortile-p01-4-3-2.pddl,SAT:41.3877:56.0:1800.0:-1
ipc-2014-optimal-floortile-p01-4-4-2.pddl,CRASHED:411.8:68.0:1800.0:-1
ipc-2014-optimal-floortile-p01-5-3-2.pddl,CRASHED:318.513:63.0:1800.0:-1
ipc-2014-optimal-floortile-p01-5-4-2.pddl,CRASHED:1795.12:1000000000.0:1800.0:-1
ipc-2014-optimal-floortile-p01-5-5-2.pddl,TIMEOUT:1801.08:-1.0:1800.0:-1
ipc-2014-optimal-floortile-p01-6-4-2.pddl,TIMEOUT:1801.03:-1.0:1800.0:-1
ipc-2014-optimal-floortile-p01-6-5-2.pddl,TIMEOUT:1801.14:-1.0:1800.0:-1
ipc-2014-optimal-floortile-p02-4-4-2.pddl,CRASHED:1784.54:1000000000.0:1800.0:-1
ipc-2014-optimal-floortile-p02-5-3-2.pddl,CRASHED:409.938:65.0:1800.0:-1
ipc-2014-optimal-floortile-p02-5-4-2.pddl,CRASHED:1791.29:1000000000.0:1800.0:-1
ipc-2014-optimal-floortile-p02-5-5-2.pddl,TIMEOUT:1801.0:-1.0:1800.0:-1
ipc-2014-optimal-floortile-p02-6-4-2.pddl,TIMEOUT:1801.03:-1.0:1800.0:-1
ipc-2014-optimal-floortile-p02-6-5-2.pddl,TIMEOUT:1801.03:-1.0:1800.0:-1
ipc-2014-optimal-floortile-p03-4-3-2.pddl,CRASHED:58.5621:56.0:1800.0:-1
ipc-2014-optimal-floortile-p03-4-4-2.pddl,CRASHED:1787.01:1000000000.0:1800.0:-1
ipc-2014-optimal-floortile-p03-5-3-2.pddl,CRASHED:337.451:65.0:1800.0:-1
ipc-2014-optimal-floortile-p03-5-4-2.pddl,CRASHED:1793.16:1000000000.0:1800.0:-1
ipc-2014-optimal-floortile-p03-5-5-2.pddl,TIMEOUT:1801.0:-1.0:1800.0:-1
ipc-2014-optimal-floortile-p03-6-4-2.pddl,TIMEOUT:1801.07:-1.0:1800.0:-1
ipc-2014-optimal-floortile-p03-6-5-2.pddl,TIMEOUT:1801.07:-1.0:1800.0:-1
ipc-2014-optimal-ged-d-1-2.pddl,SAT:2.65759:1.0:1800.0:-1
ipc-2014-optimal-ged-d-1-3.pddl,SAT:7.84981:4.0:1800.0:-1
ipc-2014-optimal-ged-d-1-4.pddl,SAT:2.65659:1.0:1800.0:-1
ipc-2014-optimal-ged-d-1-8.pddl,SAT:23.3844:4.0:1800.0:-1
ipc-2014-optimal-ged-d-2-1.pddl,SAT:2.57361:1.0:1800.0:-1
ipc-2014-optimal-ged-d-2-3.pddl,CRASHED:3.13852:3.0:1800.0:-1
ipc-2014-optimal-ged-d-2-4.pddl,CRASHED:2.87756:2.0:1800.0:-1
ipc-2014-optimal-ged-d-2-8.pddl,CRASHED:1773.07:1000000000.0:1800.0:-1
ipc-2014-optimal-ged-d-3-1.pddl,SAT:8.13076:4.0:1800.0:-1
ipc-2014-optimal-ged-d-3-2.pddl,CRASHED:3.13052:3.0:1800.0:-1
ipc-2014-optimal-ged-d-3-4.pddl,CRASHED:322.177:5.0:1800.0:-1
ipc-2014-optimal-ged-d-4-2.pddl,CRASHED:2.84657:2.0:1800.0:-1
ipc-2014-optimal-ged-d-4-3.pddl,CRASHED:321.812:5.0:1800.0:-1
ipc-2014-optimal-ged-d-4-8.pddl,CRASHED:1764.08:1000000000.0:1800.0:-1
ipc-2014-optimal-ged-d-7-5.pddl,SAT:22.8075:4.0:1800.0:-1
ipc-2014-optimal-ged-d-7-6.pddl,SAT:7.81981:4.0:1800.0:-1
ipc-2014-optimal-ged-d-8-1.pddl,SAT:23.3564:4.0:1800.0:-1
ipc-2014-optimal-ged-d-8-2.pddl,CRASHED:58.0402:1000000000.0:1800.0:-1
ipc-2014-optimal-ged-d-8-4.pddl,CRASHED:47.9702:1000000000.0:1800.0:-1
ipc-2014-optimal-ged-d-8-9.pddl,CRASHED:69.16:1000000000.0:1800.0:-1
ipc-2014-optimal-hiking-1-2-3.pddl,SAT:2.23666:11.0:1800.0:-1
ipc-2014-optimal-hiking-1-2-4.pddl,SAT:133.725:17.0:1800.0:-1
ipc-2014-optimal-hiking-1-2-5.pddl,SAT:133.821:25.0:1800.0:-1
ipc-2014-optimal-hiking-1-2-7.pddl,SAT:134.57:38.0:1800.0:-1
ipc-2014-optimal-hiking-1-2-8.pddl,SAT:134.757:45.0:1800.0:-1
ipc-2014-optimal-hiking-2-2-3.pddl,SAT:4.68229:10.0:1800.0:-1
ipc-2014-optimal-hiking-2-2-4.pddl,CRASHED:173.112:16.0:1800.0:-1
ipc-2014-optimal-hiking-2-2-5.pddl,SAT:219.023:22.0:1800.0:-1
ipc-2014-optimal-hiking-2-2-6.pddl,SAT:437.293:30.0:1800.0:-1
ipc-2014-optimal-hiking-2-2-7.pddl,TIMEOUT:1801.0:-1.0:1800.0:-1
ipc-2014-optimal-hiking-2-2-8.pddl,CRASHED:189.96:1000000000.0:1800.0:-1
ipc-2014-optimal-hiking-2-3-4.pddl,SAT:8.39999:17.0:1800.0:-1
ipc-2014-optimal-hiking-2-3-5.pddl,SAT:306.255:24.0:1800.0:-1
ipc-2014-optimal-hiking-2-3-6.pddl,TIMEOUT:1801.0:-1.0:1800.0:-1
ipc-2014-optimal-hiking-2-3-7.pddl,CRASHED:192.54:1000000000.0:1800.0:-1
ipc-2014-optimal-hiking-2-4-3.pddl,SAT:25.3461:10.0:1800.0:-1
ipc-2014-optimal-hiking-2-4-4.pddl,SAT:210.854:17.0:1800.0:-1
ipc-2014-optimal-hiking-2-4-5.pddl,CRASHED:1312.64:1000000000.0:1800.0:-1
ipc-2014-optimal-hiking-2-4-6.pddl,TIMEOUT:1801.0:-1.0:1800.0:-1
ipc-2014-optimal-hiking-2-4-7.pddl,TIMEOUT:1801.0:-1.0:1800.0:-1
ipc-2014-optimal-maintenance-1.3.010.010.1-001.pddl,CRASHED:3.14352:1000000000.0:1800.0:-1
ipc-2014-optimal-maintenance-1.3.010.010.1-002.pddl,CRASHED:3.3045:1000000000.0:1800.0:-1
ipc-2014-optimal-maintenance-1.3.010.010.2-000.pddl,SAT:1.63575:4.0:1800.0:-1
ipc-2014-optimal-maintenance-1.3.010.010.2-001.pddl,SAT:1.69574:7.0:1800.0:-1
ipc-2014-optimal-maintenance-1.3.010.010.2-002.pddl,SAT:1.67674:6.0:1800.0:-1
ipc-2014-optimal-maintenance-1.3.015.020.1-000.pddl,CRASHED:1293.12:1000000000.0:1800.0:-1
ipc-2014-optimal-maintenance-1.3.015.020.1-001.pddl,CRASHED:1308.19:1000000000.0:1800.0:-1
ipc-2014-optimal-maintenance-1.3.015.020.1-002.pddl,CRASHED:1316.91:1000000000.0:1800.0:-1
ipc-2014-optimal-maintenance-1.3.015.020.2-000.pddl,CRASHED:655.419:1000000000.0:1800.0:-1
ipc-2014-optimal-maintenance-1.3.015.020.2-001.pddl,SAT:1.9537:11.0:1800.0:-1
ipc-2014-optimal-maintenance-1.3.015.020.2-002.pddl,SAT:1.84072:9.0:1800.0:-1
ipc-2014-optimal-maintenance-1.3.025.050.1-000.pddl,CRASHED:1408.86:1000000000.0:1800.0:-1
ipc-2014-optimal-maintenance-1.3.025.050.1-001.pddl,CRASHED:1467.48:1000000000.0:1800.0:-1
ipc-2014-optimal-maintenance-1.3.025.050.1-002.pddl,CRASHED:1453.53:1000000000.0:1800.0:-1
ipc-2014-optimal-maintenance-1.3.025.100.1-000.pddl,CRASHED:186.083:1000000000.0:1800.0:-1
ipc-2014-optimal-maintenance-1.3.025.100.1-001.pddl,CRASHED:154.013:1000000000.0:1800.0:-1
ipc-2014-optimal-maintenance-1.3.025.100.1-002.pddl,CRASHED:155.402:1000000000.0:1800.0:-1
ipc-2014-optimal-maintenance-1.3.025.100.2-000.pddl,CRASHED:1158.2:1000000000.0:1800.0:-1
ipc-2014-optimal-maintenance-1.3.025.100.2-001.pddl,CRASHED:1462.03:1000000000.0:1800.0:-1
ipc-2014-optimal-maintenance-1.3.025.100.2-002.pddl,CRASHED:1188.68:1000000000.0:1800.0:-1
ipc-2014-optimal-openstacks-p20_1.pddl,CRASHED:511.689:3.0:1800.0:-1
ipc-2014-optimal-openstacks-p20_2.pddl,CRASHED:515.417:4.0:1800.0:-1
ipc-2014-optimal-openstacks-p20_3.pddl,CRASHED:20.61:6.0:1800.0:-1
ipc-2014-optimal-openstacks-p25_1.pddl,CRASHED:549.067:4.0:1800.0:-1
ipc-2014-optimal-openstacks-p25_3.pddl,CRASHED:542.737:9.0:1800.0:-1
ipc-2014-optimal-openstacks-p30_1.pddl,CRASHED:32.896:4.0:1800.0:-1
ipc-2014-optimal-openstacks-p30_2.pddl,CRASHED:38.7651:4.0:1800.0:-1
ipc-2014-optimal-openstacks-p30_3.pddl,CRASHED:89.2124:12.0:1800.0:-1
ipc-2014-optimal-openstacks-p35_1.pddl,CRASHED:93.6438:4.0:1800.0:-1
ipc-2014-optimal-openstacks-p35_2.pddl,CRASHED:120.209:5.0:1800.0:-1
ipc-2014-optimal-openstacks-p35_3.pddl,TIMEOUT:1801.0:-1.0:1800.0:-1
ipc-2014-optimal-openstacks-p40_1.pddl,CRASHED:69.9824:3.0:1800.0:-1
ipc-2014-optimal-openstacks-p40_2.pddl,CRASHED:204.82:4.0:1800.0:-1
ipc-2014-optimal-openstacks-p40_3.pddl,TIMEOUT:1801.07:-1.0:1800.0:-1
ipc-2014-optimal-openstacks-p45_1.pddl,CRASHED:304.174:4.0:1800.0:-1
ipc-2014-optimal-openstacks-p45_2.pddl,TIMEOUT:1801.05:-1.0:1800.0:-1
ipc-2014-optimal-openstacks-p45_3.pddl,TIMEOUT:1801.06:-1.0:1800.0:-1
ipc-2014-optimal-openstacks-p50_1.pddl,TIMEOUT:1801.03:-1.0:1800.0:-1
ipc-2014-optimal-openstacks-p50_2.pddl,TIMEOUT:1801.02:-1.0:1800.0:-1
ipc-2014-optimal-openstacks-p50_3.pddl,TIMEOUT:1801.07:-1.0:1800.0:-1
ipc-2014-optimal-parking-12_7-01.pddl,SAT:116.043:18.0:1800.0:-1
ipc-2014-optimal-parking-12_7-02.pddl,CRASHED:120.847:18.0:1800.0:-1
ipc-2014-optimal-parking-12_7-03.pddl,CRASHED:115.137:17.0:1800.0:-1
ipc-2014-optimal-parking-12_7-04.pddl,CRASHED:139.535:19.0:1800.0:-1
ipc-2014-optimal-parking-14_8-01.pddl,CRASHED:1792.99:1000000000.0:1800.0:-1
ipc-2014-optimal-parking-14_8-02.pddl,CRASHED:289.628:22.0:1800.0:-1
ipc-2014-optimal-parking-14_8-03.pddl,CRASHED:157.632:21.0:1800.0:-1
ipc-2014-optimal-parking-14_8-04.pddl,TIMEOUT:1801.0:-1.0:1800.0:-1
ipc-2014-optimal-parking-16_9-01.pddl,TIMEOUT:1801.08:-1.0:1800.0:-1
ipc-2014-optimal-parking-16_9-02.pddl,TIMEOUT:1801.04:-1.0:1800.0:-1
ipc-2014-optimal-parking-16_9-03.pddl,TIMEOUT:1801.01:-1.0:1800.0:-1
ipc-2014-optimal-parking-16_9-04.pddl,TIMEOUT:1801.0:-1.0:1800.0:-1
ipc-2014-optimal-parking-18_10-01.pddl,TIMEOUT:1801.0:-1.0:1800.0:-1
ipc-2014-optimal-parking-18_10-02.pddl,TIMEOUT:1801.0:-1.0:1800.0:-1
ipc-2014-optimal-parking-18_10-03.pddl,TIMEOUT:1801.0:-1.0:1800.0:-1
ipc-2014-optimal-parking-18_10-04.pddl,TIMEOUT:1801.0:-1.0:1800.0:-1
ipc-2014-optimal-parking-20_11-01.pddl,TIMEOUT:1801.0:-1.0:1800.0:-1
ipc-2014-optimal-parking-20_11-02.pddl,TIMEOUT:1801.0:-1.0:1800.0:-1
ipc-2014-optimal-parking-20_11-03.pddl,TIMEOUT:1801.0:-1.0:1800.0:-1
ipc-2014-optimal-parking-20_11-04.pddl,TIMEOUT:1801.0:-1.0:1800.0:-1
ipc-2014-optimal-tetris-01-10.pddl,CRASHED:1725.34:1000000000.0:1800.0:-1
ipc-2014-optimal-tetris-01-04.pddl,CRASHED:552.96:1000000000.0:1800.0:-1
ipc-2014-optimal-tetris-01-06.pddl,CRASHED:921.211:30.0:1800.0:-1
ipc-2014-optimal-tetris-01-08.pddl,CRASHED:79.36:36.0:1800.0:-1
ipc-2014-optimal-tetris-02-10.pddl,CRASHED:1195.36:1000000000.0:1800.0:-1
ipc-2014-optimal-tetris-02-04.pddl,SAT:4.74228:10.0:1800.0:-1
ipc-2014-optimal-tetris-02-06.pddl,CRASHED:601.106:30.0:1800.0:-1
ipc-2014-optimal-tetris-02-08.pddl,TIMEOUT:1801.0:-1.0:1800.0:-1
ipc-2014-optimal-tetris-03-10.pddl,TIMEOUT:1801.0:-1.0:1800.0:-1
ipc-2014-optimal-tetris-03-04.pddl,CRASHED:26.54:11.0:1800.0:-1
ipc-2014-optimal-tetris-03-06.pddl,SAT:653.408:21.0:1800.0:-1
ipc-2014-optimal-tetris-03-08.pddl,CRASHED:601.99:48.0:1800.0:-1
ipc-2014-optimal-tetris-04-10.pddl,TIMEOUT:1801.0:-1.0:1800.0:-1
ipc-2014-optimal-tetris-04-04.pddl,CRASHED:607.211:1000000000.0:1800.0:-1
ipc-2014-optimal-tetris-04-06.pddl,SAT:888.536:27.0:1800.0:-1
ipc-2014-optimal-tetris-04-08.pddl,TIMEOUT:1801.0:-1.0:1800.0:-1
ipc-2014-optimal-tetris-05-10.pddl,TIMEOUT:1801.0:-1.0:1800.0:-1
ipc-2014-optimal-tetris-05-04.pddl,CRASHED:683.272:1000000000.0:1800.0:-1
ipc-2014-optimal-tetris-05-06.pddl,SAT:563.987:19.0:1800.0:-1
ipc-2014-optimal-tetris-05-08.pddl,TIMEOUT:1801.0:-1.0:1800.0:-1
ipc-2014-optimal-tidybot-01.pddl,TIMEOUT:1801.0:-1.0:1800.0:-1
ipc-2014-optimal-tidybot-02.pddl,SAT:325.709:35.0:1800.0:-1
ipc-2014-optimal-tidybot-03.pddl,SAT:116.55:30.0:1800.0:-1
ipc-2014-optimal-tidybot-04.pddl,CRASHED:184.523:24.0:1800.0:-1
ipc-2014-optimal-tidybot-05.pddl,TIMEOUT:1801.0:-1.0:1800.0:-1
ipc-2014-optimal-tidybot-06.pddl,TIMEOUT:1801.0:-1.0:1800.0:-1
ipc-2014-optimal-tidybot-07.pddl,TIMEOUT:1801.0:-1.0:1800.0:-1
ipc-2014-optimal-tidybot-08.pddl,CRASHED:99.0769:25.0:1800.0:-1
ipc-2014-optimal-tidybot-09.pddl,TIMEOUT:1801.0:-1.0:1800.0:-1
ipc-2014-optimal-tidybot-10.pddl,TIMEOUT:1801.0:-1.0:1800.0:-1
ipc-2014-optimal-tidybot-11.pddl,SAT:69.4384:29.0:1800.0:-1
ipc-2014-optimal-tidybot-12.pddl,CRASHED:3.65:35.0:1800.0:-1
ipc-2014-optimal-tidybot-13.pddl,CRASHED:109.414:30.0:1800.0:-1
ipc-2014-optimal-tidybot-14.pddl,SAT:86.2629:25.0:1800.0:-1
ipc-2014-optimal-tidybot-15.pddl,TIMEOUT:1801.0:-1.0:1800.0:-1
ipc-2014-optimal-tidybot-16.pddl,TIMEOUT:1801.0:-1.0:1800.0:-1
ipc-2014-optimal-tidybot-17.pddl,TIMEOUT:1801.0:-1.0:1800.0:-1
ipc-2014-optimal-tidybot-18.pddl,TIMEOUT:1801.0:-1.0:1800.0:-1
ipc-2014-optimal-tidybot-19.pddl,TIMEOUT:1801.0:-1.0:1800.0:-1
ipc-2014-optimal-tidybot-20.pddl,TIMEOUT:1801.0:-1.0:1800.0:-1
ipc-2014-optimal-transport-01.pddl,SAT:135.685:148.0:1800.0:-1
ipc-2014-optimal-transport-02.pddl,SAT:137.44:191.0:1800.0:-1
ipc-2014-optimal-transport-03.pddl,SAT:145.898:300.0:1800.0:-1
ipc-2014-optimal-transport-04.pddl,CRASHED:1795.13:1000000000.0:1800.0:-1
ipc-2014-optimal-transport-05.pddl,CRASHED:619.35:1000000000.0:1800.0:-1
ipc-2014-optimal-transport-06.pddl,CRASHED:1791.5:1000000000.0:1800.0:-1
ipc-2014-optimal-transport-07.pddl,SAT:138.273:967.0:1800.0:-1
ipc-2014-optimal-transport-08.pddl,CRASHED:291.403:1173.0:1800.0:-1
ipc-2014-optimal-transport-09.pddl,CRASHED:1789.58:1000000000.0:1800.0:-1
ipc-2014-optimal-transport-10.pddl,CRASHED:1790.25:1000000000.0:1800.0:-1
ipc-2014-optimal-transport-11.pddl,CRASHED:1782.92:1000000000.0:1800.0:-1
ipc-2014-optimal-transport-12.pddl,CRASHED:191.11:1000000000.0:1800.0:-1
ipc-2014-optimal-transport-13.pddl,SAT:137.55:594.0:1800.0:-1
ipc-2014-optimal-transport-14.pddl,SAT:252.366:526.0:1800.0:-1
ipc-2014-optimal-transport-15.pddl,CRASHED:1356.83:1000000000.0:1800.0:-1
ipc-2014-optimal-transport-16.pddl,CRASHED:73.8699:1000000000.0:1800.0:-1
ipc-2014-optimal-transport-17.pddl,TIMEOUT:1801.0:-1.0:1800.0:-1
ipc-2014-optimal-transport-18.pddl,CRASHED:188.28:1000000000.0:1800.0:-1
ipc-2014-optimal-transport-19.pddl,CRASHED:1330.27:1000000000.0:1800.0:-1
ipc-2014-optimal-transport-20.pddl,CRASHED:1358.62:1000000000.0:1800.0:-1
ipc-2014-optimal-visitall-05-10.pddl,CRASHED:1792.47:1000000000.0:1800.0:-1
ipc-2014-optimal-visitall-05-05.pddl,SAT:5.02123:21.0:1800.0:-1
ipc-2014-optimal-visitall-05-06.pddl,SAT:7.50786:25.0:1800.0:-1
ipc-2014-optimal-visitall-05-07.pddl,SAT:357.205:34.0:1800.0:-1
ipc-2014-optimal-visitall-05-08.pddl,CRASHED:1265.08:43.0:1800.0:-1
ipc-2014-optimal-visitall-05-09.pddl,CRASHED:1787.96:1000000000.0:1800.0:-1
ipc-2014-optimal-visitall-01-10.pddl,SAT:1155.68:99.0:1800.0:-1
ipc-2014-optimal-visitall-01-11.pddl,SAT:1155.88:120.0:1800.0:-1
ipc-2014-optimal-visitall-01-12.pddl,CRASHED:1199.65:143.0:1800.0:-1
ipc-2014-optimal-visitall-01-13.pddl,SAT:598.56:168.0:1800.0:-1
ipc-2014-optimal-visitall-01-14.pddl,CRASHED:1782.66:1000000000.0:1800.0:-1
ipc-2014-optimal-visitall-01-15.pddl,CRASHED:1794.43:1000000000.0:1800.0:-1
ipc-2014-optimal-visitall-01-16.pddl,CRASHED:1796.19:1000000000.0:1800.0:-1
ipc-2014-optimal-visitall-01-17.pddl,TIMEOUT:1801.0:-1.0:1800.0:-1
ipc-2014-optimal-visitall-01-18.pddl,CRASHED:1106.73:1000000000.0:1800.0:-1
ipc-2014-optimal-visitall-01-05.pddl,CRASHED:21.2858:24.0:1800.0:-1
ipc-2014-optimal-visitall-01-06.pddl,CRASHED:933.5:35.0:1800.0:-1
ipc-2014-optimal-visitall-01-07.pddl,CRASHED:1003.64:48.0:1800.0:-1
ipc-2014-optimal-visitall-01-08.pddl,CRASHED:1101.59:63.0:1800.0:-1
ipc-2014-optimal-visitall-01-09.pddl,CRASHED:1155.27:80.0:1800.0:-1
