@relation 'problem-weka.filters.unsupervised.attribute.Remove-R1-2,78-79'

@attribute requirements numeric
@attribute types numeric
@attribute objects numeric
@attribute predicates numeric
@attribute functions numeric
@attribute init numeric
@attribute goal numeric
@attribute actions numeric
@attribute axioms numeric
@attribute use_min_cost_metric numeric
@attribute generated_rules numeric
@attribute relevant_atoms numeric
@attribute auxiliary_atoms numeric
@attribute final_queue_length numeric
@attribute total_queue_pushes numeric
@attribute implied_effects_removed numeric
@attribute effect_conditions_simplified numeric
@attribute implied_preconditions_added numeric
@attribute translator_variables numeric
@attribute translator_derived_variables numeric
@attribute translator_facts numeric
@attribute translator_mutex_groups numeric
@attribute translator_total_mutex_groups_size numeric
@attribute translator_operators numeric
@attribute translator_task_size numeric
@attribute numberVariablesCG numeric
@attribute highLevelVariablesCG numeric
@attribute totalEdgesCG numeric
@attribute totalWeightCG numeric
@attribute veRatio numeric
@attribute weRatio numeric
@attribute wvRatio numeric
@attribute hvRatio numeric
@attribute inputEdgeCGMax numeric
@attribute inputEdgeCGAvg numeric
@attribute inputEdgeCGStd numeric
@attribute outputEdgeCGMax numeric
@attribute outputEdgeCGAvg numeric
@attribute outputEdgeCGStd numeric
@attribute inputWeightCGMax numeric
@attribute inputWeightCGAvg numeric
@attribute inputWeightCGStd numeric
@attribute outputWeightCGMax numeric
@attribute outputWeightCGAvg numeric
@attribute outputWeightCGStd numeric
@attribute inputEdgeHVMax numeric
@attribute inputEdgeHVAvg numeric
@attribute inputEdgeHVStd numeric
@attribute outputEdgeHVMax numeric
@attribute outputEdgeHVAvg numeric
@attribute outputEdgeHVStd numeric
@attribute inputWeightHVMax numeric
@attribute inputWeightHVAvg numeric
@attribute inputWeightHVStd numeric
@attribute outputWeightHVMax numeric
@attribute outputWeightHVAvg numeric
@attribute outputWeightHVStd numeric
@attribute numberVariablesDTG numeric
@attribute totalEdgesDTG numeric
@attribute totalWeigthDTG numeric
@attribute edVaRatioDTG numeric
@attribute weEdRatioDTG numeric
@attribute weVaRatioDTG numeric
@attribute inputEdgeDTGMax numeric
@attribute inputEdgeDTGAvg numeric
@attribute inputEdgeDTGStd numeric
@attribute outputEdgeDTGMax numeric
@attribute outputEdgeDTGAvg numeric
@attribute outputEdgeDTGStd numeric
@attribute inputWeightDTGMax numeric
@attribute inputWeightDTGAvg numeric
@attribute inputWeightDTGStd numeric
@attribute outputWeightDTGMax numeric
@attribute outputWeightDTGAvg numeric
@attribute outputWeightDTGStd numeric
@attribute num_relevant_facts numeric
@attribute num_actions numeric
@attribute h_max numeric
@attribute h_ff numeric
@attribute h_ff_ratio numeric
@attribute rp_fact_balance_min numeric
@attribute rp_fact_balance_avg numeric
@attribute rp_fact_balance_var numeric
@attribute rp_goal_balance_min numeric
@attribute rp_goal_balance_avg numeric
@attribute rp_goal_balance_var numeric
@attribute Additive numeric
@attribute Blind numeric
@attribute Causal_graph numeric
@attribute Context-enhanced_additive numeric
@attribute FF numeric
@attribute Goal_count numeric
@attribute Landmark_count numeric
@attribute Landmark-cut numeric
@attribute Max numeric
@attribute planner {arvand,brt,fd-autotune-1,fd-autotune-2,fds1,fds2,lama-2008,lama-2011,madagascar,prb2,probe,randward,yahsp2-mt}
@attribute class {true,false}

@data

2,6,35,9,3,299,14,6,0,1,46,3460,2552,6012,11142,0,0,0,22,0,340,22,340,2816,17060,22,14,172,10528,0.127907,61.2093,478.545,0.636364,15,7.81818,5.05997,15,7.81818,4.52906,1512,478.545,442.516,1512,478.545,427.584,4,2.54545,1.92418,376,239.273,180.873,188,119.636,90.4366,376,239.273,180.873,340,5448,15976,0.341012,0.062408,1,164,29.397,2.18869,176,29.2515,2.18869,444,66.1303,2.34769,480,65.9848,2.18869,340,2816,5,58,11.6,-7,0,0.637089,1,1,0,99,1,102,81,59,14,56,35,5,arvand,?
2,6,35,9,3,299,14,6,0,1,46,3460,2552,6012,11142,0,0,0,22,0,340,22,340,2816,17060,22,14,172,10528,0.127907,61.2093,478.545,0.636364,15,7.81818,5.05997,15,7.81818,4.52906,1512,478.545,442.516,1512,478.545,427.584,4,2.54545,1.92418,376,239.273,180.873,188,119.636,90.4366,376,239.273,180.873,340,5448,15976,0.341012,0.062408,1,164,29.397,2.18869,176,29.2515,2.18869,444,66.1303,2.34769,480,65.9848,2.18869,340,2816,5,58,11.6,-7,0,0.637089,1,1,0,99,1,102,81,59,14,56,35,5,brt,?
2,6,35,9,3,299,14,6,0,1,46,3460,2552,6012,11142,0,0,0,22,0,340,22,340,2816,17060,22,14,172,10528,0.127907,61.2093,478.545,0.636364,15,7.81818,5.05997,15,7.81818,4.52906,1512,478.545,442.516,1512,478.545,427.584,4,2.54545,1.92418,376,239.273,180.873,188,119.636,90.4366,376,239.273,180.873,340,5448,15976,0.341012,0.062408,1,164,29.397,2.18869,176,29.2515,2.18869,444,66.1303,2.34769,480,65.9848,2.18869,340,2816,5,58,11.6,-7,0,0.637089,1,1,0,99,1,102,81,59,14,56,35,5,fd-autotune-1,?
2,6,35,9,3,299,14,6,0,1,46,3460,2552,6012,11142,0,0,0,22,0,340,22,340,2816,17060,22,14,172,10528,0.127907,61.2093,478.545,0.636364,15,7.81818,5.05997,15,7.81818,4.52906,1512,478.545,442.516,1512,478.545,427.584,4,2.54545,1.92418,376,239.273,180.873,188,119.636,90.4366,376,239.273,180.873,340,5448,15976,0.341012,0.062408,1,164,29.397,2.18869,176,29.2515,2.18869,444,66.1303,2.34769,480,65.9848,2.18869,340,2816,5,58,11.6,-7,0,0.637089,1,1,0,99,1,102,81,59,14,56,35,5,fd-autotune-2,?
2,6,35,9,3,299,14,6,0,1,46,3460,2552,6012,11142,0,0,0,22,0,340,22,340,2816,17060,22,14,172,10528,0.127907,61.2093,478.545,0.636364,15,7.81818,5.05997,15,7.81818,4.52906,1512,478.545,442.516,1512,478.545,427.584,4,2.54545,1.92418,376,239.273,180.873,188,119.636,90.4366,376,239.273,180.873,340,5448,15976,0.341012,0.062408,1,164,29.397,2.18869,176,29.2515,2.18869,444,66.1303,2.34769,480,65.9848,2.18869,340,2816,5,58,11.6,-7,0,0.637089,1,1,0,99,1,102,81,59,14,56,35,5,fds1,?
2,6,35,9,3,299,14,6,0,1,46,3460,2552,6012,11142,0,0,0,22,0,340,22,340,2816,17060,22,14,172,10528,0.127907,61.2093,478.545,0.636364,15,7.81818,5.05997,15,7.81818,4.52906,1512,478.545,442.516,1512,478.545,427.584,4,2.54545,1.92418,376,239.273,180.873,188,119.636,90.4366,376,239.273,180.873,340,5448,15976,0.341012,0.062408,1,164,29.397,2.18869,176,29.2515,2.18869,444,66.1303,2.34769,480,65.9848,2.18869,340,2816,5,58,11.6,-7,0,0.637089,1,1,0,99,1,102,81,59,14,56,35,5,fds2,?
2,6,35,9,3,299,14,6,0,1,46,3460,2552,6012,11142,0,0,0,22,0,340,22,340,2816,17060,22,14,172,10528,0.127907,61.2093,478.545,0.636364,15,7.81818,5.05997,15,7.81818,4.52906,1512,478.545,442.516,1512,478.545,427.584,4,2.54545,1.92418,376,239.273,180.873,188,119.636,90.4366,376,239.273,180.873,340,5448,15976,0.341012,0.062408,1,164,29.397,2.18869,176,29.2515,2.18869,444,66.1303,2.34769,480,65.9848,2.18869,340,2816,5,58,11.6,-7,0,0.637089,1,1,0,99,1,102,81,59,14,56,35,5,lama-2008,?
2,6,35,9,3,299,14,6,0,1,46,3460,2552,6012,11142,0,0,0,22,0,340,22,340,2816,17060,22,14,172,10528,0.127907,61.2093,478.545,0.636364,15,7.81818,5.05997,15,7.81818,4.52906,1512,478.545,442.516,1512,478.545,427.584,4,2.54545,1.92418,376,239.273,180.873,188,119.636,90.4366,376,239.273,180.873,340,5448,15976,0.341012,0.062408,1,164,29.397,2.18869,176,29.2515,2.18869,444,66.1303,2.34769,480,65.9848,2.18869,340,2816,5,58,11.6,-7,0,0.637089,1,1,0,99,1,102,81,59,14,56,35,5,lama-2011,?
2,6,35,9,3,299,14,6,0,1,46,3460,2552,6012,11142,0,0,0,22,0,340,22,340,2816,17060,22,14,172,10528,0.127907,61.2093,478.545,0.636364,15,7.81818,5.05997,15,7.81818,4.52906,1512,478.545,442.516,1512,478.545,427.584,4,2.54545,1.92418,376,239.273,180.873,188,119.636,90.4366,376,239.273,180.873,340,5448,15976,0.341012,0.062408,1,164,29.397,2.18869,176,29.2515,2.18869,444,66.1303,2.34769,480,65.9848,2.18869,340,2816,5,58,11.6,-7,0,0.637089,1,1,0,99,1,102,81,59,14,56,35,5,madagascar,?
2,6,35,9,3,299,14,6,0,1,46,3460,2552,6012,11142,0,0,0,22,0,340,22,340,2816,17060,22,14,172,10528,0.127907,61.2093,478.545,0.636364,15,7.81818,5.05997,15,7.81818,4.52906,1512,478.545,442.516,1512,478.545,427.584,4,2.54545,1.92418,376,239.273,180.873,188,119.636,90.4366,376,239.273,180.873,340,5448,15976,0.341012,0.062408,1,164,29.397,2.18869,176,29.2515,2.18869,444,66.1303,2.34769,480,65.9848,2.18869,340,2816,5,58,11.6,-7,0,0.637089,1,1,0,99,1,102,81,59,14,56,35,5,prb2,?
2,6,35,9,3,299,14,6,0,1,46,3460,2552,6012,11142,0,0,0,22,0,340,22,340,2816,17060,22,14,172,10528,0.127907,61.2093,478.545,0.636364,15,7.81818,5.05997,15,7.81818,4.52906,1512,478.545,442.516,1512,478.545,427.584,4,2.54545,1.92418,376,239.273,180.873,188,119.636,90.4366,376,239.273,180.873,340,5448,15976,0.341012,0.062408,1,164,29.397,2.18869,176,29.2515,2.18869,444,66.1303,2.34769,480,65.9848,2.18869,340,2816,5,58,11.6,-7,0,0.637089,1,1,0,99,1,102,81,59,14,56,35,5,probe,?
2,6,35,9,3,299,14,6,0,1,46,3460,2552,6012,11142,0,0,0,22,0,340,22,340,2816,17060,22,14,172,10528,0.127907,61.2093,478.545,0.636364,15,7.81818,5.05997,15,7.81818,4.52906,1512,478.545,442.516,1512,478.545,427.584,4,2.54545,1.92418,376,239.273,180.873,188,119.636,90.4366,376,239.273,180.873,340,5448,15976,0.341012,0.062408,1,164,29.397,2.18869,176,29.2515,2.18869,444,66.1303,2.34769,480,65.9848,2.18869,340,2816,5,58,11.6,-7,0,0.637089,1,1,0,99,1,102,81,59,14,56,35,5,randward,?
2,6,35,9,3,299,14,6,0,1,46,3460,2552,6012,11142,0,0,0,22,0,340,22,340,2816,17060,22,14,172,10528,0.127907,61.2093,478.545,0.636364,15,7.81818,5.05997,15,7.81818,4.52906,1512,478.545,442.516,1512,478.545,427.584,4,2.54545,1.92418,376,239.273,180.873,188,119.636,90.4366,376,239.273,180.873,340,5448,15976,0.341012,0.062408,1,164,29.397,2.18869,176,29.2515,2.18869,444,66.1303,2.34769,480,65.9848,2.18869,340,2816,5,58,11.6,-7,0,0.637089,1,1,0,99,1,102,81,59,14,56,35,5,yahsp2-mt,?
