instance,ipc-2014-optimal-miplan
ipc-2014-optimal-barman-p433.1.pddl,CRASHED:2.57961:1000000000.0:1800.0:-1
ipc-2014-optimal-barman-p433.2.pddl,CRASHED:2.54461:1000000000.0:1800.0:-1
ipc-2014-optimal-barman-p433.3.pddl,CRASHED:2.53061:1000000000.0:1800.0:-1
ipc-2014-optimal-barman-p435.1.pddl,CRASHED:1779.16:1000000000.0:1800.0:-1
ipc-2014-optimal-barman-p435.2.pddl,CRASHED:1778.02:1000000000.0:1800.0:-1
ipc-2014-optimal-barman-p435.3.pddl,CRASHED:1777.97:1000000000.0:1800.0:-1
ipc-2014-optimal-barman-p443.1.pddl,CRASHED:2.6476:1000000000.0:1800.0:-1
ipc-2014-optimal-barman-p443.2.pddl,CRASHED:2.6526:1000000000.0:1800.0:-1
ipc-2014-optimal-barman-p443.3.pddl,CRASHED:2.6386:1000000000.0:1800.0:-1
ipc-2014-optimal-barman-p536.1.pddl,CRASHED:1789.61:1000000000.0:1800.0:-1
ipc-2014-optimal-barman-p536.2.pddl,CRASHED:1780.13:1000000000.0:1800.0:-1
ipc-2014-optimal-barman-p536.3.pddl,CRASHED:1247.09:1000000000.0:1800.0:-1
ipc-2014-optimal-barman-p638.1.pddl,CRASHED:1783.27:1000000000.0:1800.0:-1
ipc-2014-optimal-barman-p638.2.pddl,CRASHED:1783.68:1000000000.0:1800.0:-1
ipc-2014-optimal-barman-p638.3.pddl,CRASHED:1782.22:1000000000.0:1800.0:-1
ipc-2014-optimal-barman-p739.1.pddl,CRASHED:1779.82:1000000000.0:1800.0:-1
ipc-2014-optimal-barman-p739.2.pddl,CRASHED:1780.21:1000000000.0:1800.0:-1
ipc-2014-optimal-barman-p739.3.pddl,CRASHED:1780.01:1000000000.0:1800.0:-1
ipc-2014-optimal-barman-p839.1.pddl,CRASHED:1247.26:1000000000.0:1800.0:-1
ipc-2014-optimal-barman-p839.2.pddl,CRASHED:1246.09:1000000000.0:1800.0:-1
ipc-2014-optimal-cavediving-01.pddl,CRASHED:161.569:1000000000.0:1800.0:-1
ipc-2014-optimal-cavediving-01_easy.pddl,CRASHED:150.758:1000000000.0:1800.0:-1
ipc-2014-optimal-cavediving-02_easy.pddl,CRASHED:151.899:1000000000.0:1800.0:-1
ipc-2014-optimal-cavediving-03_easy.pddl,CRASHED:156.605:1000000000.0:1800.0:-1
ipc-2014-optimal-cavediving-04_easy.pddl,CRASHED:175.094:1000000000.0:1800.0:-1
ipc-2014-optimal-cavediving-05A_easy.pddl,SAT:25.3371:94.0:1800.0:-1
ipc-2014-optimal-cavediving-06A_easy.pddl,SAT:25.0602:95.0:1800.0:-1
ipc-2014-optimal-cavediving-07_easy.pddl,SAT:41.6517:131.0:1800.0:-1
ipc-2014-optimal-cavediving-08_easy.pddl,SAT:25.1112:90.0:1800.0:-1
ipc-2014-optimal-cavediving-09_easy.pddl,CRASHED:315.921:1000000000.0:1800.0:-1
ipc-2014-optimal-cavediving-10_easy.pddl,CRASHED:305.312:1000000000.0:1800.0:-1
ipc-2014-optimal-cavediving-11_easy.pddl,CRASHED:307.083:1000000000.0:1800.0:-1
ipc-2014-optimal-cavediving-12_easy.pddl,CRASHED:307.932:1000000000.0:1800.0:-1
ipc-2014-optimal-cavediving-13_easy.pddl,CRASHED:166.116:1000000000.0:1800.0:-1
ipc-2014-optimal-cavediving-14_easy.pddl,CRASHED:166.764:1000000000.0:1800.0:-1
ipc-2014-optimal-cavediving-15_easy.pddl,CRASHED:156.574:1000000000.0:1800.0:-1
ipc-2014-optimal-cavediving-16_easy.pddl,CRASHED:164.683:1000000000.0:1800.0:-1
ipc-2014-optimal-cavediving-18A_easy.pddl,SAT:63.9553:131.0:1800.0:-1
ipc-2014-optimal-cavediving-18_easy.pddl,CRASHED:126.841:131.0:1800.0:-1
ipc-2014-optimal-cavediving-20A_easy.pddl,SAT:40.6108:98.0:1800.0:-1
ipc-2014-optimal-childsnack-01-2.pddl,CRASHED:1775.23:1000000000.0:1800.0:-1
ipc-2014-optimal-childsnack-01.pddl,CRASHED:1775.95:1000000000.0:1800.0:-1
ipc-2014-optimal-childsnack-02-2.pddl,CRASHED:1770.59:1000000000.0:1800.0:-1
ipc-2014-optimal-childsnack-02.pddl,CRASHED:1770.4:1000000000.0:1800.0:-1
ipc-2014-optimal-childsnack-03-2.pddl,CRASHED:1779.96:1000000000.0:1800.0:-1
ipc-2014-optimal-childsnack-03.pddl,CRASHED:1245.35:1000000000.0:1800.0:-1
ipc-2014-optimal-childsnack-04-2.pddl,CRASHED:1244.93:1000000000.0:1800.0:-1
ipc-2014-optimal-childsnack-04.pddl,CRASHED:1782.58:1000000000.0:1800.0:-1
ipc-2014-optimal-childsnack-05-2.pddl,CRASHED:1248.36:1000000000.0:1800.0:-1
ipc-2014-optimal-childsnack-05.pddl,CRASHED:1247.21:1000000000.0:1800.0:-1
ipc-2014-optimal-childsnack-06-2.pddl,CRASHED:1241.99:1000000000.0:1800.0:-1
ipc-2014-optimal-childsnack-06.pddl,CRASHED:1241.99:1000000000.0:1800.0:-1
ipc-2014-optimal-childsnack-07-2.pddl,CRASHED:1790.01:1000000000.0:1800.0:-1
ipc-2014-optimal-childsnack-07.pddl,CRASHED:1786.75:1000000000.0:1800.0:-1
ipc-2014-optimal-childsnack-08-2.pddl,CRASHED:1236.61:1000000000.0:1800.0:-1
ipc-2014-optimal-childsnack-08.pddl,CRASHED:1785.37:1000000000.0:1800.0:-1
ipc-2014-optimal-childsnack-09-2.pddl,CRASHED:1783.61:1000000000.0:1800.0:-1
ipc-2014-optimal-childsnack-09.pddl,CRASHED:1788.43:1000000000.0:1800.0:-1
ipc-2014-optimal-childsnack-10-2.pddl,CRASHED:1787.27:1000000000.0:1800.0:-1
ipc-2014-optimal-childsnack-10.pddl,CRASHED:1788.65:1000000000.0:1800.0:-1
ipc-2014-optimal-citycar-p2-2-2-1-2.pddl,SAT:8.01378:46.0:1800.0:-1
ipc-2014-optimal-citycar-p2-2-2-2-1.pddl,SAT:13.206:64.0:1800.0:-1
ipc-2014-optimal-citycar-p2-2-3-1-2.pddl,SAT:10.4464:50.0:1800.0:-1
ipc-2014-optimal-citycar-p2-2-3-2-1.pddl,SAT:10.2404:48.0:1800.0:-1
ipc-2014-optimal-citycar-p2-2-3-2-2.pddl,SAT:10.4184:50.0:1800.0:-1
ipc-2014-optimal-citycar-p2-2-4-1-2.pddl,SAT:13.5389:52.0:1800.0:-1
ipc-2014-optimal-citycar-p2-2-4-2-1.pddl,SAT:13.342:52.0:1800.0:-1
ipc-2014-optimal-citycar-p2-2-5-2-2.pddl,SAT:521.43:76.0:1800.0:-1
ipc-2014-optimal-citycar-p2-2-6-1-1.pddl,SAT:35.4996:58.0:1800.0:-1
ipc-2014-optimal-citycar-p2-2-6-2-2.pddl,SAT:35.4346:58.0:1800.0:-1
ipc-2014-optimal-citycar-p2-3-2-3-1.pddl,SAT:520.93:68.0:1800.0:-1
ipc-2014-optimal-citycar-p2-3-3-3-1.pddl,SAT:521.29:78.0:1800.0:-1
ipc-2014-optimal-citycar-p2-3-4-3-1.pddl,CRASHED:1727.42:1000000000.0:1800.0:-1
ipc-2014-optimal-citycar-p2-3-6-3-2.pddl,CRASHED:1715.86:1000000000.0:1800.0:-1
ipc-2014-optimal-citycar-p3-3-2-2-1.pddl,CRASHED:1721.38:1000000000.0:1800.0:-1
ipc-2014-optimal-citycar-p3-3-2-2-2.pddl,CRASHED:1719.57:1000000000.0:1800.0:-1
ipc-2014-optimal-citycar-p3-3-2-3-1.pddl,SAT:46.4789:48.0:1800.0:-1
ipc-2014-optimal-citycar-p3-3-2-3-2.pddl,CRASHED:1720.92:1000000000.0:1800.0:-1
ipc-2014-optimal-citycar-p3-3-3-3-1.pddl,CRASHED:1603.86:1000000000.0:1800.0:-1
ipc-2014-optimal-citycar-p3-3-3-3-2.pddl,CRASHED:1605.18:1000000000.0:1800.0:-1
ipc-2014-optimal-floortile-p01-4-3-2.pddl,SAT:131.747:56.0:1800.0:-1
ipc-2014-optimal-floortile-p01-4-4-2.pddl,SAT:465.479:68.0:1800.0:-1
ipc-2014-optimal-floortile-p01-5-3-2.pddl,CRASHED:392.46:63.0:1800.0:-1
ipc-2014-optimal-floortile-p01-5-4-2.pddl,CRASHED:1307.57:1000000000.0:1800.0:-1
ipc-2014-optimal-floortile-p01-5-5-2.pddl,CRASHED:1778.92:1000000000.0:1800.0:-1
ipc-2014-optimal-floortile-p01-6-4-2.pddl,CRASHED:1788.62:1000000000.0:1800.0:-1
ipc-2014-optimal-floortile-p01-6-5-2.pddl,CRASHED:1784.51:1000000000.0:1800.0:-1
ipc-2014-optimal-floortile-p02-4-4-2.pddl,CRASHED:1780.57:1000000000.0:1800.0:-1
ipc-2014-optimal-floortile-p02-5-3-2.pddl,CRASHED:424.443:65.0:1800.0:-1
ipc-2014-optimal-floortile-p02-5-4-2.pddl,CRASHED:1782.27:1000000000.0:1800.0:-1
ipc-2014-optimal-floortile-p02-5-5-2.pddl,CRASHED:1782.95:1000000000.0:1800.0:-1
ipc-2014-optimal-floortile-p02-6-4-2.pddl,CRASHED:1789.76:1000000000.0:1800.0:-1
ipc-2014-optimal-floortile-p02-6-5-2.pddl,CRASHED:1784.11:1000000000.0:1800.0:-1
ipc-2014-optimal-floortile-p03-4-3-2.pddl,SAT:148.124:56.0:1800.0:-1
ipc-2014-optimal-floortile-p03-4-4-2.pddl,CRASHED:1781.77:1000000000.0:1800.0:-1
ipc-2014-optimal-floortile-p03-5-3-2.pddl,CRASHED:430.227:65.0:1800.0:-1
ipc-2014-optimal-floortile-p03-5-4-2.pddl,CRASHED:1782.02:1000000000.0:1800.0:-1
ipc-2014-optimal-floortile-p03-5-5-2.pddl,CRASHED:1780.23:1000000000.0:1800.0:-1
ipc-2014-optimal-floortile-p03-6-4-2.pddl,CRASHED:1785.02:1000000000.0:1800.0:-1
ipc-2014-optimal-floortile-p03-6-5-2.pddl,CRASHED:1779.12:1000000000.0:1800.0:-1
ipc-2014-optimal-ged-d-1-2.pddl,SAT:1.13483:1.0:1800.0:-1
ipc-2014-optimal-ged-d-1-3.pddl,SAT:6.00609:4.0:1800.0:-1
ipc-2014-optimal-ged-d-1-4.pddl,SAT:1.17582:1.0:1800.0:-1
ipc-2014-optimal-ged-d-1-8.pddl,SAT:26.024:4.0:1800.0:-1
ipc-2014-optimal-ged-d-2-1.pddl,SAT:1.16382:1.0:1800.0:-1
ipc-2014-optimal-ged-d-2-3.pddl,SAT:1.43478:3.0:1800.0:-1
ipc-2014-optimal-ged-d-2-4.pddl,SAT:1.18182:2.0:1800.0:-1
ipc-2014-optimal-ged-d-2-8.pddl,CRASHED:1784.99:1000000000.0:1800.0:-1
ipc-2014-optimal-ged-d-3-1.pddl,SAT:6.11407:4.0:1800.0:-1
ipc-2014-optimal-ged-d-3-2.pddl,SAT:1.40779:3.0:1800.0:-1
ipc-2014-optimal-ged-d-3-4.pddl,CRASHED:340.939:5.0:1800.0:-1
ipc-2014-optimal-ged-d-4-2.pddl,SAT:1.23281:2.0:1800.0:-1
ipc-2014-optimal-ged-d-4-3.pddl,CRASHED:337.96:5.0:1800.0:-1
ipc-2014-optimal-ged-d-4-8.pddl,CRASHED:1304.53:1000000000.0:1800.0:-1
ipc-2014-optimal-ged-d-7-5.pddl,SAT:26.167:4.0:1800.0:-1
ipc-2014-optimal-ged-d-7-6.pddl,SAT:7.49486:4.0:1800.0:-1
ipc-2014-optimal-ged-d-8-1.pddl,SAT:26.315:4.0:1800.0:-1
ipc-2014-optimal-ged-d-8-2.pddl,CRASHED:1308.27:1000000000.0:1800.0:-1
ipc-2014-optimal-ged-d-8-4.pddl,CRASHED:1307.94:1000000000.0:1800.0:-1
ipc-2014-optimal-ged-d-8-9.pddl,CRASHED:1302.31:1000000000.0:1800.0:-1
ipc-2014-optimal-hiking-1-2-3.pddl,SAT:1.20382:11.0:1800.0:-1
ipc-2014-optimal-hiking-1-2-4.pddl,SAT:21.0518:17.0:1800.0:-1
ipc-2014-optimal-hiking-1-2-5.pddl,SAT:21.2198:25.0:1800.0:-1
ipc-2014-optimal-hiking-1-2-7.pddl,SAT:25.2802:38.0:1800.0:-1
ipc-2014-optimal-hiking-1-2-8.pddl,SAT:32.1251:45.0:1800.0:-1
ipc-2014-optimal-hiking-2-2-3.pddl,SAT:21.4967:10.0:1800.0:-1
ipc-2014-optimal-hiking-2-2-4.pddl,SAT:60.5838:16.0:1800.0:-1
ipc-2014-optimal-hiking-2-2-5.pddl,SAT:294.942:22.0:1800.0:-1
ipc-2014-optimal-hiking-2-2-6.pddl,CRASHED:1784.12:1000000000.0:1800.0:-1
ipc-2014-optimal-hiking-2-2-7.pddl,CRASHED:1244.39:1000000000.0:1800.0:-1
ipc-2014-optimal-hiking-2-2-8.pddl,CRASHED:1441.1:1000000000.0:1800.0:-1
ipc-2014-optimal-hiking-2-3-4.pddl,SAT:214.7:17.0:1800.0:-1
ipc-2014-optimal-hiking-2-3-5.pddl,SAT:459.617:24.0:1800.0:-1
ipc-2014-optimal-hiking-2-3-6.pddl,CRASHED:1244.89:1000000000.0:1800.0:-1
ipc-2014-optimal-hiking-2-3-7.pddl,CRASHED:1437.11:1000000000.0:1800.0:-1
ipc-2014-optimal-hiking-2-4-3.pddl,SAT:24.9072:10.0:1800.0:-1
ipc-2014-optimal-hiking-2-4-4.pddl,SAT:304.101:17.0:1800.0:-1
ipc-2014-optimal-hiking-2-4-5.pddl,CRASHED:1785.67:1000000000.0:1800.0:-1
ipc-2014-optimal-hiking-2-4-6.pddl,CRASHED:1789.45:1000000000.0:1800.0:-1
ipc-2014-optimal-hiking-2-4-7.pddl,CRASHED:1792.23:1000000000.0:1800.0:-1
ipc-2014-optimal-maintenance-1.3.010.010.1-001.pddl,CRASHED:2.29265:1000000000.0:1800.0:-1
ipc-2014-optimal-maintenance-1.3.010.010.1-002.pddl,CRASHED:2.32465:1000000000.0:1800.0:-1
ipc-2014-optimal-maintenance-1.3.010.010.2-000.pddl,SAT:0.621904:4.0:1800.0:-1
ipc-2014-optimal-maintenance-1.3.010.010.2-001.pddl,SAT:0.601907:7.0:1800.0:-1
ipc-2014-optimal-maintenance-1.3.010.010.2-002.pddl,SAT:0.612906:6.0:1800.0:-1
ipc-2014-optimal-maintenance-1.3.015.020.1-000.pddl,CRASHED:5.72313:1000000000.0:1800.0:-1
ipc-2014-optimal-maintenance-1.3.015.020.1-001.pddl,CRASHED:15.8666:1000000000.0:1800.0:-1
ipc-2014-optimal-maintenance-1.3.015.020.1-002.pddl,CRASHED:24.8142:1000000000.0:1800.0:-1
ipc-2014-optimal-maintenance-1.3.015.020.2-000.pddl,CRASHED:133.456:1000000000.0:1800.0:-1
ipc-2014-optimal-maintenance-1.3.015.020.2-001.pddl,SAT:0.771882:11.0:1800.0:-1
ipc-2014-optimal-maintenance-1.3.015.020.2-002.pddl,SAT:0.750885:9.0:1800.0:-1
ipc-2014-optimal-maintenance-1.3.025.050.1-000.pddl,CRASHED:181.587:1000000000.0:1800.0:-1
ipc-2014-optimal-maintenance-1.3.025.050.1-001.pddl,CRASHED:203.267:1000000000.0:1800.0:-1
ipc-2014-optimal-maintenance-1.3.025.050.1-002.pddl,CRASHED:185.122:1000000000.0:1800.0:-1
ipc-2014-optimal-maintenance-1.3.025.100.1-000.pddl,CRASHED:163.212:1000000000.0:1800.0:-1
ipc-2014-optimal-maintenance-1.3.025.100.1-001.pddl,CRASHED:161.02:1000000000.0:1800.0:-1
ipc-2014-optimal-maintenance-1.3.025.100.1-002.pddl,CRASHED:163.741:1000000000.0:1800.0:-1
ipc-2014-optimal-maintenance-1.3.025.100.2-000.pddl,CRASHED:1108.51:1000000000.0:1800.0:-1
ipc-2014-optimal-maintenance-1.3.025.100.2-001.pddl,CRASHED:1359.46:1000000000.0:1800.0:-1
ipc-2014-optimal-maintenance-1.3.025.100.2-002.pddl,CRASHED:1105.72:1000000000.0:1800.0:-1
ipc-2014-optimal-openstacks-p20_1.pddl,CRASHED:1476.22:3.0:1800.0:-1
ipc-2014-optimal-openstacks-p20_2.pddl,CRASHED:1589.56:4.0:1800.0:-1
ipc-2014-optimal-openstacks-p20_3.pddl,SAT:44.5192:6.0:1800.0:-1
ipc-2014-optimal-openstacks-p25_1.pddl,CRASHED:1779.55:1000000000.0:1800.0:-1
ipc-2014-optimal-openstacks-p25_3.pddl,CRASHED:1779.48:1000000000.0:1800.0:-1
ipc-2014-optimal-openstacks-p30_1.pddl,CRASHED:1780.12:1000000000.0:1800.0:-1
ipc-2014-optimal-openstacks-p30_2.pddl,CRASHED:1309.92:1000000000.0:1800.0:-1
ipc-2014-optimal-openstacks-p30_3.pddl,CRASHED:1782.1:1000000000.0:1800.0:-1
ipc-2014-optimal-openstacks-p35_1.pddl,CRASHED:1785.38:1000000000.0:1800.0:-1
ipc-2014-optimal-openstacks-p35_2.pddl,CRASHED:1267.55:1000000000.0:1800.0:-1
ipc-2014-optimal-openstacks-p35_3.pddl,CRASHED:1781.32:1000000000.0:1800.0:-1
ipc-2014-optimal-openstacks-p40_1.pddl,CRASHED:1786.1:1000000000.0:1800.0:-1
ipc-2014-optimal-openstacks-p40_2.pddl,CRASHED:1784.12:1000000000.0:1800.0:-1
ipc-2014-optimal-openstacks-p40_3.pddl,CRASHED:1783.29:1000000000.0:1800.0:-1
ipc-2014-optimal-openstacks-p45_1.pddl,CRASHED:1786.54:1000000000.0:1800.0:-1
ipc-2014-optimal-openstacks-p45_2.pddl,CRASHED:1783.62:1000000000.0:1800.0:-1
ipc-2014-optimal-openstacks-p45_3.pddl,CRASHED:1785.82:1000000000.0:1800.0:-1
ipc-2014-optimal-openstacks-p50_1.pddl,CRASHED:1314.3:1000000000.0:1800.0:-1
ipc-2014-optimal-openstacks-p50_2.pddl,CRASHED:1786.24:1000000000.0:1800.0:-1
ipc-2014-optimal-openstacks-p50_3.pddl,CRASHED:1787.97:1000000000.0:1800.0:-1
ipc-2014-optimal-parking-12_7-01.pddl,SAT:179.214:18.0:1800.0:-1
ipc-2014-optimal-parking-12_7-02.pddl,SAT:182.876:18.0:1800.0:-1
ipc-2014-optimal-parking-12_7-03.pddl,SAT:178.296:17.0:1800.0:-1
ipc-2014-optimal-parking-12_7-04.pddl,SAT:202.028:19.0:1800.0:-1
ipc-2014-optimal-parking-14_8-01.pddl,CRASHED:1524.74:1000000000.0:1800.0:-1
ipc-2014-optimal-parking-14_8-02.pddl,SAT:336.6:22.0:1800.0:-1
ipc-2014-optimal-parking-14_8-03.pddl,SAT:216.967:21.0:1800.0:-1
ipc-2014-optimal-parking-14_8-04.pddl,CRASHED:1790.17:1000000000.0:1800.0:-1
ipc-2014-optimal-parking-16_9-01.pddl,CRASHED:162.92:1000000000.0:1800.0:-1
ipc-2014-optimal-parking-16_9-02.pddl,CRASHED:1567.81:1000000000.0:1800.0:-1
ipc-2014-optimal-parking-16_9-03.pddl,CRASHED:163.13:1000000000.0:1800.0:-1
ipc-2014-optimal-parking-16_9-04.pddl,CRASHED:162.6:1000000000.0:1800.0:-1
ipc-2014-optimal-parking-18_10-01.pddl,CRASHED:320.47:1000000000.0:1800.0:-1
ipc-2014-optimal-parking-18_10-02.pddl,CRASHED:320.37:1000000000.0:1800.0:-1
ipc-2014-optimal-parking-18_10-03.pddl,CRASHED:320.25:1000000000.0:1800.0:-1
ipc-2014-optimal-parking-18_10-04.pddl,CRASHED:1622.42:1000000000.0:1800.0:-1
ipc-2014-optimal-parking-20_11-01.pddl,CRASHED:1522.95:1000000000.0:1800.0:-1
ipc-2014-optimal-parking-20_11-02.pddl,CRASHED:1527.75:1000000000.0:1800.0:-1
ipc-2014-optimal-parking-20_11-03.pddl,CRASHED:321.58:1000000000.0:1800.0:-1
ipc-2014-optimal-parking-20_11-04.pddl,CRASHED:321.16:1000000000.0:1800.0:-1
ipc-2014-optimal-tetris-01-10.pddl,CRASHED:518.99:1000000000.0:1800.0:-1
ipc-2014-optimal-tetris-01-04.pddl,CRASHED:198.03:1000000000.0:1800.0:-1
ipc-2014-optimal-tetris-01-06.pddl,SAT:257.49:30.0:1800.0:-1
ipc-2014-optimal-tetris-01-08.pddl,CRASHED:53.5259:36.0:1800.0:-1
ipc-2014-optimal-tetris-02-10.pddl,CRASHED:1760.29:1000000000.0:1800.0:-1
ipc-2014-optimal-tetris-02-04.pddl,SAT:0.900862:10.0:1800.0:-1
ipc-2014-optimal-tetris-02-06.pddl,SAT:55.2866:30.0:1800.0:-1
ipc-2014-optimal-tetris-02-08.pddl,CRASHED:698.15:1000000000.0:1800.0:-1
ipc-2014-optimal-tetris-03-10.pddl,CRASHED:549.02:1000000000.0:1800.0:-1
ipc-2014-optimal-tetris-03-04.pddl,SAT:22.6556:11.0:1800.0:-1
ipc-2014-optimal-tetris-03-06.pddl,SAT:192.468:21.0:1800.0:-1
ipc-2014-optimal-tetris-03-08.pddl,CRASHED:1753.11:1000000000.0:1800.0:-1
ipc-2014-optimal-tetris-04-10.pddl,CRASHED:519.23:1000000000.0:1800.0:-1
ipc-2014-optimal-tetris-04-04.pddl,CRASHED:288.378:1000000000.0:1800.0:-1
ipc-2014-optimal-tetris-04-06.pddl,SAT:235.94:27.0:1800.0:-1
ipc-2014-optimal-tetris-04-08.pddl,CRASHED:677.93:1000000000.0:1800.0:-1
ipc-2014-optimal-tetris-05-10.pddl,CRASHED:1635.31:1000000000.0:1800.0:-1
ipc-2014-optimal-tetris-05-04.pddl,CRASHED:389.405:1000000000.0:1800.0:-1
ipc-2014-optimal-tetris-05-06.pddl,SAT:25.2412:19.0:1800.0:-1
ipc-2014-optimal-tetris-05-08.pddl,CRASHED:1756.24:1000000000.0:1800.0:-1
ipc-2014-optimal-tidybot-01.pddl,CRASHED:1708.01:1000000000.0:1800.0:-1
ipc-2014-optimal-tidybot-02.pddl,CRASHED:320.75:35.0:1800.0:-1
ipc-2014-optimal-tidybot-03.pddl,CRASHED:320.63:30.0:1800.0:-1
ipc-2014-optimal-tidybot-04.pddl,CRASHED:320.89:24.0:1800.0:-1
ipc-2014-optimal-tidybot-05.pddl,CRASHED:1710.3:1000000000.0:1800.0:-1
ipc-2014-optimal-tidybot-06.pddl,CRASHED:1710.13:1000000000.0:1800.0:-1
ipc-2014-optimal-tidybot-07.pddl,CRASHED:1710.04:1000000000.0:1800.0:-1
ipc-2014-optimal-tidybot-08.pddl,SAT:63.2574:25.0:1800.0:-1
ipc-2014-optimal-tidybot-09.pddl,CRASHED:1567.02:1000000000.0:1800.0:-1
ipc-2014-optimal-tidybot-10.pddl,CRASHED:1600.66:1000000000.0:1800.0:-1
ipc-2014-optimal-tidybot-11.pddl,CRASHED:320.23:29.0:1800.0:-1
ipc-2014-optimal-tidybot-12.pddl,CRASHED:1661.41:1000000000.0:1800.0:-1
ipc-2014-optimal-tidybot-13.pddl,CRASHED:319.75:30.0:1800.0:-1
ipc-2014-optimal-tidybot-14.pddl,SAT:57.7982:25.0:1800.0:-1
ipc-2014-optimal-tidybot-15.pddl,CRASHED:1708.28:1000000000.0:1800.0:-1
ipc-2014-optimal-tidybot-16.pddl,CRASHED:1702.77:1000000000.0:1800.0:-1
ipc-2014-optimal-tidybot-17.pddl,CRASHED:1707.07:1000000000.0:1800.0:-1
ipc-2014-optimal-tidybot-18.pddl,CRASHED:1707.91:1000000000.0:1800.0:-1
ipc-2014-optimal-tidybot-19.pddl,CRASHED:1707.99:1000000000.0:1800.0:-1
ipc-2014-optimal-tidybot-20.pddl,CRASHED:1700.98:1000000000.0:1800.0:-1
ipc-2014-optimal-transport-01.pddl,SAT:21.3238:148.0:1800.0:-1
ipc-2014-optimal-transport-02.pddl,SAT:25.6661:191.0:1800.0:-1
ipc-2014-optimal-transport-03.pddl,SAT:72.7409:300.0:1800.0:-1
ipc-2014-optimal-transport-04.pddl,CRASHED:1779.08:1000000000.0:1800.0:-1
ipc-2014-optimal-transport-05.pddl,CRASHED:1785.29:1000000000.0:1800.0:-1
ipc-2014-optimal-transport-06.pddl,CRASHED:1781.29:1000000000.0:1800.0:-1
ipc-2014-optimal-transport-07.pddl,SAT:64.9171:967.0:1800.0:-1
ipc-2014-optimal-transport-08.pddl,SAT:501.759:1173.0:1800.0:-1
ipc-2014-optimal-transport-09.pddl,CRASHED:1784.03:1000000000.0:1800.0:-1
ipc-2014-optimal-transport-10.pddl,CRASHED:1783.27:1000000000.0:1800.0:-1
ipc-2014-optimal-transport-11.pddl,CRASHED:1785.41:1000000000.0:1800.0:-1
ipc-2014-optimal-transport-12.pddl,CRASHED:1786.46:1000000000.0:1800.0:-1
ipc-2014-optimal-transport-13.pddl,SAT:32.729:594.0:1800.0:-1
ipc-2014-optimal-transport-14.pddl,SAT:290.731:526.0:1800.0:-1
ipc-2014-optimal-transport-15.pddl,CRASHED:1788.48:1000000000.0:1800.0:-1
ipc-2014-optimal-transport-16.pddl,CRASHED:1787.01:1000000000.0:1800.0:-1
ipc-2014-optimal-transport-17.pddl,CRASHED:1437.16:1000000000.0:1800.0:-1
ipc-2014-optimal-transport-18.pddl,CRASHED:1594.71:1000000000.0:1800.0:-1
ipc-2014-optimal-transport-19.pddl,CRASHED:1540.47:1000000000.0:1800.0:-1
ipc-2014-optimal-transport-20.pddl,CRASHED:1791.5:1000000000.0:1800.0:-1
ipc-2014-optimal-visitall-05-10.pddl,CRASHED:1312.57:1000000000.0:1800.0:-1
ipc-2014-optimal-visitall-05-05.pddl,SAT:4.06938:21.0:1800.0:-1
ipc-2014-optimal-visitall-05-06.pddl,SAT:6.48101:25.0:1800.0:-1
ipc-2014-optimal-visitall-05-07.pddl,SAT:115.44:34.0:1800.0:-1
ipc-2014-optimal-visitall-05-08.pddl,CRASHED:642.302:43.0:1800.0:-1
ipc-2014-optimal-visitall-05-09.pddl,CRASHED:1781.54:1000000000.0:1800.0:-1
ipc-2014-optimal-visitall-01-10.pddl,SAT:172.891:99.0:1800.0:-1
ipc-2014-optimal-visitall-01-11.pddl,SAT:174.367:120.0:1800.0:-1
ipc-2014-optimal-visitall-01-12.pddl,SAT:216.27:143.0:1800.0:-1
ipc-2014-optimal-visitall-01-13.pddl,SAT:174.378:168.0:1800.0:-1
ipc-2014-optimal-visitall-01-14.pddl,CRASHED:1781.99:1000000000.0:1800.0:-1
ipc-2014-optimal-visitall-01-15.pddl,CRASHED:1784.91:1000000000.0:1800.0:-1
ipc-2014-optimal-visitall-01-16.pddl,CRASHED:1539.53:1000000000.0:1800.0:-1
ipc-2014-optimal-visitall-01-17.pddl,CRASHED:1780.77:1000000000.0:1800.0:-1
ipc-2014-optimal-visitall-01-18.pddl,CRASHED:1782.15:1000000000.0:1800.0:-1
ipc-2014-optimal-visitall-01-05.pddl,SAT:20.0859:24.0:1800.0:-1
ipc-2014-optimal-visitall-01-06.pddl,SAT:173.35:35.0:1800.0:-1
ipc-2014-optimal-visitall-01-07.pddl,SAT:172.236:48.0:1800.0:-1
ipc-2014-optimal-visitall-01-08.pddl,SAT:173.599:63.0:1800.0:-1
ipc-2014-optimal-visitall-01-09.pddl,SAT:172.533:80.0:1800.0:-1
