instance,ipc-2014-optimal-rida
ipc-2014-optimal-barman-p433.1.pddl,CRASHED:0.289955:1000000000.0:1800.0:-1
ipc-2014-optimal-barman-p433.2.pddl,CRASHED:0.281956:1000000000.0:1800.0:-1
ipc-2014-optimal-barman-p433.3.pddl,CRASHED:0.296954:1000000000.0:1800.0:-1
ipc-2014-optimal-barman-p435.1.pddl,TIMEOUT:1801.05:-1.0:1800.0:-1
ipc-2014-optimal-barman-p435.2.pddl,TIMEOUT:1801.06:-1.0:1800.0:-1
ipc-2014-optimal-barman-p435.3.pddl,TIMEOUT:1801.08:-1.0:1800.0:-1
ipc-2014-optimal-barman-p443.1.pddl,CRASHED:0.298954:1000000000.0:1800.0:-1
ipc-2014-optimal-barman-p443.2.pddl,CRASHED:0.306952:1000000000.0:1800.0:-1
ipc-2014-optimal-barman-p443.3.pddl,CRASHED:0.294954:1000000000.0:1800.0:-1
ipc-2014-optimal-barman-p536.1.pddl,TIMEOUT:1801.01:-1.0:1800.0:-1
ipc-2014-optimal-barman-p536.2.pddl,TIMEOUT:1801.02:-1.0:1800.0:-1
ipc-2014-optimal-barman-p536.3.pddl,TIMEOUT:1801.05:-1.0:1800.0:-1
ipc-2014-optimal-barman-p638.1.pddl,TIMEOUT:1801.03:-1.0:1800.0:-1
ipc-2014-optimal-barman-p638.2.pddl,TIMEOUT:1801.0:-1.0:1800.0:-1
ipc-2014-optimal-barman-p638.3.pddl,TIMEOUT:1801.1:-1.0:1800.0:-1
ipc-2014-optimal-barman-p739.1.pddl,TIMEOUT:1801.07:-1.0:1800.0:-1
ipc-2014-optimal-barman-p739.2.pddl,TIMEOUT:1801.11:-1.0:1800.0:-1
ipc-2014-optimal-barman-p739.3.pddl,TIMEOUT:1801.08:-1.0:1800.0:-1
ipc-2014-optimal-barman-p839.1.pddl,TIMEOUT:1801.06:-1.0:1800.0:-1
ipc-2014-optimal-barman-p839.2.pddl,TIMEOUT:1801.11:-1.0:1800.0:-1
ipc-2014-optimal-cavediving-01.pddl,CRASHED:1.60576:1000000000.0:1800.0:-1
ipc-2014-optimal-cavediving-01_easy.pddl,CRASHED:1.12683:1000000000.0:1800.0:-1
ipc-2014-optimal-cavediving-02_easy.pddl,CRASHED:1.11383:1000000000.0:1800.0:-1
ipc-2014-optimal-cavediving-03_easy.pddl,CRASHED:1.11783:1000000000.0:1800.0:-1
ipc-2014-optimal-cavediving-04_easy.pddl,CRASHED:1.11783:1000000000.0:1800.0:-1
ipc-2014-optimal-cavediving-05A_easy.pddl,CRASHED:0.337948:1000000000.0:1800.0:-1
ipc-2014-optimal-cavediving-06A_easy.pddl,CRASHED:0.328949:1000000000.0:1800.0:-1
ipc-2014-optimal-cavediving-07_easy.pddl,TIMEOUT:1801.04:-1.0:1800.0:-1
ipc-2014-optimal-cavediving-08_easy.pddl,CRASHED:0.339947:1000000000.0:1800.0:-1
ipc-2014-optimal-cavediving-09_easy.pddl,CRASHED:5.12422:1000000000.0:1800.0:-1
ipc-2014-optimal-cavediving-10_easy.pddl,CRASHED:5.15921:1000000000.0:1800.0:-1
ipc-2014-optimal-cavediving-11_easy.pddl,CRASHED:5.19621:1000000000.0:1800.0:-1
ipc-2014-optimal-cavediving-12_easy.pddl,CRASHED:5.41517:1000000000.0:1800.0:-1
ipc-2014-optimal-cavediving-13_easy.pddl,CRASHED:1.66674:1000000000.0:1800.0:-1
ipc-2014-optimal-cavediving-14_easy.pddl,CRASHED:1.64575:1000000000.0:1800.0:-1
ipc-2014-optimal-cavediving-15_easy.pddl,CRASHED:1.49777:1000000000.0:1800.0:-1
ipc-2014-optimal-cavediving-16_easy.pddl,CRASHED:1.74273:1000000000.0:1800.0:-1
ipc-2014-optimal-cavediving-18A_easy.pddl,TIMEOUT:1801.08:-1.0:1800.0:-1
ipc-2014-optimal-cavediving-18_easy.pddl,TIMEOUT:1801.05:-1.0:1800.0:-1
ipc-2014-optimal-cavediving-20A_easy.pddl,CRASHED:0.553915:1000000000.0:1800.0:-1
ipc-2014-optimal-childsnack-01-2.pddl,TIMEOUT:1801.09:-1.0:1800.0:-1
ipc-2014-optimal-childsnack-01.pddl,TIMEOUT:1801.02:-1.0:1800.0:-1
ipc-2014-optimal-childsnack-02-2.pddl,TIMEOUT:1801.04:-1.0:1800.0:-1
ipc-2014-optimal-childsnack-02.pddl,TIMEOUT:1801.05:-1.0:1800.0:-1
ipc-2014-optimal-childsnack-03-2.pddl,TIMEOUT:1801.05:-1.0:1800.0:-1
ipc-2014-optimal-childsnack-03.pddl,TIMEOUT:1801.02:-1.0:1800.0:-1
ipc-2014-optimal-childsnack-04-2.pddl,TIMEOUT:1801.06:-1.0:1800.0:-1
ipc-2014-optimal-childsnack-04.pddl,TIMEOUT:1801.03:-1.0:1800.0:-1
ipc-2014-optimal-childsnack-05-2.pddl,TIMEOUT:1801.03:-1.0:1800.0:-1
ipc-2014-optimal-childsnack-05.pddl,TIMEOUT:1801.05:-1.0:1800.0:-1
ipc-2014-optimal-childsnack-06-2.pddl,TIMEOUT:1801.06:-1.0:1800.0:-1
ipc-2014-optimal-childsnack-06.pddl,TIMEOUT:1801.03:-1.0:1800.0:-1
ipc-2014-optimal-childsnack-07-2.pddl,TIMEOUT:1801.06:-1.0:1800.0:-1
ipc-2014-optimal-childsnack-07.pddl,TIMEOUT:1801.0:-1.0:1800.0:-1
ipc-2014-optimal-childsnack-08-2.pddl,TIMEOUT:1801.04:-1.0:1800.0:-1
ipc-2014-optimal-childsnack-08.pddl,TIMEOUT:1801.04:-1.0:1800.0:-1
ipc-2014-optimal-childsnack-09-2.pddl,TIMEOUT:1801.0:-1.0:1800.0:-1
ipc-2014-optimal-childsnack-09.pddl,TIMEOUT:1801.02:-1.0:1800.0:-1
ipc-2014-optimal-childsnack-10-2.pddl,TIMEOUT:1801.05:-1.0:1800.0:-1
ipc-2014-optimal-childsnack-10.pddl,TIMEOUT:1801.02:-1.0:1800.0:-1
ipc-2014-optimal-citycar-p2-2-2-1-2.pddl,SAT:1.40379:46.0:1800.0:-1
ipc-2014-optimal-citycar-p2-2-2-2-1.pddl,SAT:1.92271:64.0:1800.0:-1
ipc-2014-optimal-citycar-p2-2-3-1-2.pddl,SAT:2.19367:50.0:1800.0:-1
ipc-2014-optimal-citycar-p2-2-3-2-1.pddl,SAT:2.03769:48.0:1800.0:-1
ipc-2014-optimal-citycar-p2-2-3-2-2.pddl,SAT:2.21366:50.0:1800.0:-1
ipc-2014-optimal-citycar-p2-2-4-1-2.pddl,SAT:6.00209:52.0:1800.0:-1
ipc-2014-optimal-citycar-p2-2-4-2-1.pddl,SAT:5.99809:52.0:1800.0:-1
ipc-2014-optimal-citycar-p2-2-5-2-2.pddl,SAT:222.256:76.0:1800.0:-1
ipc-2014-optimal-citycar-p2-2-6-1-1.pddl,SAT:168.25:58.0:1800.0:-1
ipc-2014-optimal-citycar-p2-2-6-2-2.pddl,SAT:167.238:58.0:1800.0:-1
ipc-2014-optimal-citycar-p2-3-2-3-1.pddl,SAT:8.10977:68.0:1800.0:-1
ipc-2014-optimal-citycar-p2-3-3-3-1.pddl,SAT:52.446:78.0:1800.0:-1
ipc-2014-optimal-citycar-p2-3-4-3-1.pddl,SAT:263.248:82.0:1800.0:-1
ipc-2014-optimal-citycar-p2-3-6-3-2.pddl,TIMEOUT:1801.03:-1.0:1800.0:-1
ipc-2014-optimal-citycar-p3-3-2-2-1.pddl,SAT:201.642:70.0:1800.0:-1
ipc-2014-optimal-citycar-p3-3-2-2-2.pddl,CRASHED:1519.03:1000000000.0:1800.0:-1
ipc-2014-optimal-citycar-p3-3-2-3-1.pddl,SAT:8.09477:48.0:1800.0:-1
ipc-2014-optimal-citycar-p3-3-2-3-2.pddl,SAT:170.006:70.0:1800.0:-1
ipc-2014-optimal-citycar-p3-3-3-3-1.pddl,TIMEOUT:1801.03:-1.0:1800.0:-1
ipc-2014-optimal-citycar-p3-3-3-3-2.pddl,SAT:1608.04:76.0:1800.0:-1
ipc-2014-optimal-floortile-p01-4-3-2.pddl,TIMEOUT:1801.0:-1.0:1800.0:-1
ipc-2014-optimal-floortile-p01-4-4-2.pddl,TIMEOUT:1801.08:-1.0:1800.0:-1
ipc-2014-optimal-floortile-p01-5-3-2.pddl,TIMEOUT:1801.03:-1.0:1800.0:-1
ipc-2014-optimal-floortile-p01-5-4-2.pddl,TIMEOUT:1801.06:-1.0:1800.0:-1
ipc-2014-optimal-floortile-p01-5-5-2.pddl,TIMEOUT:1801.07:-1.0:1800.0:-1
ipc-2014-optimal-floortile-p01-6-4-2.pddl,TIMEOUT:1801.07:-1.0:1800.0:-1
ipc-2014-optimal-floortile-p01-6-5-2.pddl,TIMEOUT:1801.08:-1.0:1800.0:-1
ipc-2014-optimal-floortile-p02-4-4-2.pddl,TIMEOUT:1801.06:-1.0:1800.0:-1
ipc-2014-optimal-floortile-p02-5-3-2.pddl,TIMEOUT:1801.06:-1.0:1800.0:-1
ipc-2014-optimal-floortile-p02-5-4-2.pddl,TIMEOUT:1801.07:-1.0:1800.0:-1
ipc-2014-optimal-floortile-p02-5-5-2.pddl,TIMEOUT:1801.05:-1.0:1800.0:-1
ipc-2014-optimal-floortile-p02-6-4-2.pddl,TIMEOUT:1801.02:-1.0:1800.0:-1
ipc-2014-optimal-floortile-p02-6-5-2.pddl,TIMEOUT:1801.04:-1.0:1800.0:-1
ipc-2014-optimal-floortile-p03-4-3-2.pddl,TIMEOUT:1801.05:-1.0:1800.0:-1
ipc-2014-optimal-floortile-p03-4-4-2.pddl,TIMEOUT:1801.08:-1.0:1800.0:-1
ipc-2014-optimal-floortile-p03-5-3-2.pddl,TIMEOUT:1801.05:-1.0:1800.0:-1
ipc-2014-optimal-floortile-p03-5-4-2.pddl,TIMEOUT:1801.05:-1.0:1800.0:-1
ipc-2014-optimal-floortile-p03-5-5-2.pddl,TIMEOUT:1801.01:-1.0:1800.0:-1
ipc-2014-optimal-floortile-p03-6-4-2.pddl,TIMEOUT:1801.08:-1.0:1800.0:-1
ipc-2014-optimal-floortile-p03-6-5-2.pddl,TIMEOUT:1801.04:-1.0:1800.0:-1
ipc-2014-optimal-ged-d-1-2.pddl,SAT:49.4845:1.0:1800.0:-1
ipc-2014-optimal-ged-d-1-3.pddl,SAT:255.651:4.0:1800.0:-1
ipc-2014-optimal-ged-d-1-4.pddl,SAT:49.3035:1.0:1800.0:-1
ipc-2014-optimal-ged-d-1-8.pddl,SAT:478.767:4.0:1800.0:-1
ipc-2014-optimal-ged-d-2-1.pddl,SAT:49.3755:1.0:1800.0:-1
ipc-2014-optimal-ged-d-2-3.pddl,SAT:150.442:3.0:1800.0:-1
ipc-2014-optimal-ged-d-2-4.pddl,SAT:130.138:2.0:1800.0:-1
ipc-2014-optimal-ged-d-2-8.pddl,TIMEOUT:1801.07:-1.0:1800.0:-1
ipc-2014-optimal-ged-d-3-1.pddl,SAT:265.718:4.0:1800.0:-1
ipc-2014-optimal-ged-d-3-2.pddl,SAT:142.041:3.0:1800.0:-1
ipc-2014-optimal-ged-d-3-4.pddl,TIMEOUT:1801.05:-1.0:1800.0:-1
ipc-2014-optimal-ged-d-4-2.pddl,SAT:123.612:2.0:1800.0:-1
ipc-2014-optimal-ged-d-4-3.pddl,TIMEOUT:1801.04:-1.0:1800.0:-1
ipc-2014-optimal-ged-d-4-8.pddl,TIMEOUT:1801.03:-1.0:1800.0:-1
ipc-2014-optimal-ged-d-7-5.pddl,SAT:522.808:4.0:1800.0:-1
ipc-2014-optimal-ged-d-7-6.pddl,SAT:539.739:4.0:1800.0:-1
ipc-2014-optimal-ged-d-8-1.pddl,SAT:526.193:4.0:1800.0:-1
ipc-2014-optimal-ged-d-8-2.pddl,TIMEOUT:1801.03:-1.0:1800.0:-1
ipc-2014-optimal-ged-d-8-4.pddl,TIMEOUT:1801.03:-1.0:1800.0:-1
ipc-2014-optimal-ged-d-8-9.pddl,TIMEOUT:1801.0:-1.0:1800.0:-1
ipc-2014-optimal-hiking-1-2-3.pddl,SAT:2.95555:11.0:1800.0:-1
ipc-2014-optimal-hiking-1-2-4.pddl,SAT:6.10407:17.0:1800.0:-1
ipc-2014-optimal-hiking-1-2-5.pddl,SAT:13.8819:25.0:1800.0:-1
ipc-2014-optimal-hiking-1-2-7.pddl,SAT:41.7746:38.0:1800.0:-1
ipc-2014-optimal-hiking-1-2-8.pddl,SAT:73.7838:45.0:1800.0:-1
ipc-2014-optimal-hiking-2-2-3.pddl,SAT:140.571:10.0:1800.0:-1
ipc-2014-optimal-hiking-2-2-4.pddl,SAT:258.617:16.0:1800.0:-1
ipc-2014-optimal-hiking-2-2-5.pddl,SAT:763.55:22.0:1800.0:-1
ipc-2014-optimal-hiking-2-2-6.pddl,TIMEOUT:1801.11:-1.0:1800.0:-1
ipc-2014-optimal-hiking-2-2-7.pddl,TIMEOUT:1801.06:-1.0:1800.0:-1
ipc-2014-optimal-hiking-2-2-8.pddl,TIMEOUT:1801.05:-1.0:1800.0:-1
ipc-2014-optimal-hiking-2-3-4.pddl,SAT:563.001:17.0:1800.0:-1
ipc-2014-optimal-hiking-2-3-5.pddl,TIMEOUT:1801.08:-1.0:1800.0:-1
ipc-2014-optimal-hiking-2-3-6.pddl,TIMEOUT:1801.06:-1.0:1800.0:-1
ipc-2014-optimal-hiking-2-3-7.pddl,TIMEOUT:1801.01:-1.0:1800.0:-1
ipc-2014-optimal-hiking-2-4-3.pddl,SAT:266.944:10.0:1800.0:-1
ipc-2014-optimal-hiking-2-4-4.pddl,SAT:1323.58:17.0:1800.0:-1
ipc-2014-optimal-hiking-2-4-5.pddl,TIMEOUT:1801.08:-1.0:1800.0:-1
ipc-2014-optimal-hiking-2-4-6.pddl,TIMEOUT:1801.05:-1.0:1800.0:-1
ipc-2014-optimal-hiking-2-4-7.pddl,TIMEOUT:1801.0:-1.0:1800.0:-1
ipc-2014-optimal-maintenance-1.3.010.010.1-001.pddl,CRASHED:2.67959:1000000000.0:1800.0:-1
ipc-2014-optimal-maintenance-1.3.010.010.1-002.pddl,CRASHED:6.74297:1000000000.0:1800.0:-1
ipc-2014-optimal-maintenance-1.3.010.010.2-000.pddl,SAT:16.7674:4.0:1800.0:-1
ipc-2014-optimal-maintenance-1.3.010.010.2-001.pddl,SAT:20.9528:7.0:1800.0:-1
ipc-2014-optimal-maintenance-1.3.010.010.2-002.pddl,SAT:32.2051:6.0:1800.0:-1
ipc-2014-optimal-maintenance-1.3.015.020.1-000.pddl,CRASHED:21.7087:1000000000.0:1800.0:-1
ipc-2014-optimal-maintenance-1.3.015.020.1-001.pddl,CRASHED:15.0697:1000000000.0:1800.0:-1
ipc-2014-optimal-maintenance-1.3.015.020.1-002.pddl,CRASHED:19.909:1000000000.0:1800.0:-1
ipc-2014-optimal-maintenance-1.3.015.020.2-000.pddl,CRASHED:269.307:1000000000.0:1800.0:-1
ipc-2014-optimal-maintenance-1.3.015.020.2-001.pddl,SAT:132.332:11.0:1800.0:-1
ipc-2014-optimal-maintenance-1.3.015.020.2-002.pddl,SAT:115.895:9.0:1800.0:-1
ipc-2014-optimal-maintenance-1.3.025.050.1-000.pddl,CRASHED:81.3206:1000000000.0:1800.0:-1
ipc-2014-optimal-maintenance-1.3.025.050.1-001.pddl,CRASHED:170.087:1000000000.0:1800.0:-1
ipc-2014-optimal-maintenance-1.3.025.050.1-002.pddl,CRASHED:165.284:1000000000.0:1800.0:-1
ipc-2014-optimal-maintenance-1.3.025.100.1-000.pddl,CRASHED:79.092:1000000000.0:1800.0:-1
ipc-2014-optimal-maintenance-1.3.025.100.1-001.pddl,CRASHED:75.6175:1000000000.0:1800.0:-1
ipc-2014-optimal-maintenance-1.3.025.100.1-002.pddl,CRASHED:83.8942:1000000000.0:1800.0:-1
ipc-2014-optimal-maintenance-1.3.025.100.2-000.pddl,TIMEOUT:1801.05:-1.0:1800.0:-1
ipc-2014-optimal-maintenance-1.3.025.100.2-001.pddl,TIMEOUT:1801.0:-1.0:1800.0:-1
ipc-2014-optimal-maintenance-1.3.025.100.2-002.pddl,TIMEOUT:1801.05:-1.0:1800.0:-1
ipc-2014-optimal-openstacks-p20_1.pddl,TIMEOUT:1801.02:-1.0:1800.0:-1
ipc-2014-optimal-openstacks-p20_2.pddl,TIMEOUT:1801.06:-1.0:1800.0:-1
ipc-2014-optimal-openstacks-p20_3.pddl,SAT:848.127:6.0:1800.0:-1
ipc-2014-optimal-openstacks-p25_1.pddl,TIMEOUT:1801.08:-1.0:1800.0:-1
ipc-2014-optimal-openstacks-p25_3.pddl,TIMEOUT:1801.02:-1.0:1800.0:-1
ipc-2014-optimal-openstacks-p30_1.pddl,TIMEOUT:1801.06:-1.0:1800.0:-1
ipc-2014-optimal-openstacks-p30_2.pddl,TIMEOUT:1801.1:-1.0:1800.0:-1
ipc-2014-optimal-openstacks-p30_3.pddl,TIMEOUT:1801.1:-1.0:1800.0:-1
ipc-2014-optimal-openstacks-p35_1.pddl,TIMEOUT:1801.03:-1.0:1800.0:-1
ipc-2014-optimal-openstacks-p35_2.pddl,TIMEOUT:1801.11:-1.0:1800.0:-1
ipc-2014-optimal-openstacks-p35_3.pddl,TIMEOUT:1801.01:-1.0:1800.0:-1
ipc-2014-optimal-openstacks-p40_1.pddl,TIMEOUT:1801.05:-1.0:1800.0:-1
ipc-2014-optimal-openstacks-p40_2.pddl,TIMEOUT:1801.08:-1.0:1800.0:-1
ipc-2014-optimal-openstacks-p40_3.pddl,TIMEOUT:1801.02:-1.0:1800.0:-1
ipc-2014-optimal-openstacks-p45_1.pddl,TIMEOUT:1801.01:-1.0:1800.0:-1
ipc-2014-optimal-openstacks-p45_2.pddl,TIMEOUT:1801.05:-1.0:1800.0:-1
ipc-2014-optimal-openstacks-p45_3.pddl,TIMEOUT:1801.01:-1.0:1800.0:-1
ipc-2014-optimal-openstacks-p50_1.pddl,TIMEOUT:1801.05:-1.0:1800.0:-1
ipc-2014-optimal-openstacks-p50_2.pddl,TIMEOUT:1801.06:-1.0:1800.0:-1
ipc-2014-optimal-openstacks-p50_3.pddl,TIMEOUT:1801.08:-1.0:1800.0:-1
ipc-2014-optimal-parking-12_7-01.pddl,TIMEOUT:1801.1:-1.0:1800.0:-1
ipc-2014-optimal-parking-12_7-02.pddl,TIMEOUT:1801.04:-1.0:1800.0:-1
ipc-2014-optimal-parking-12_7-03.pddl,TIMEOUT:1801.07:-1.0:1800.0:-1
ipc-2014-optimal-parking-12_7-04.pddl,TIMEOUT:1801.02:-1.0:1800.0:-1
ipc-2014-optimal-parking-14_8-01.pddl,TIMEOUT:1801.05:-1.0:1800.0:-1
ipc-2014-optimal-parking-14_8-02.pddl,TIMEOUT:1801.06:-1.0:1800.0:-1
ipc-2014-optimal-parking-14_8-03.pddl,TIMEOUT:1801.01:-1.0:1800.0:-1
ipc-2014-optimal-parking-14_8-04.pddl,TIMEOUT:1801.04:-1.0:1800.0:-1
ipc-2014-optimal-parking-16_9-01.pddl,TIMEOUT:1801.01:-1.0:1800.0:-1
ipc-2014-optimal-parking-16_9-02.pddl,TIMEOUT:1801.03:-1.0:1800.0:-1
ipc-2014-optimal-parking-16_9-03.pddl,TIMEOUT:1801.04:-1.0:1800.0:-1
ipc-2014-optimal-parking-16_9-04.pddl,TIMEOUT:1801.05:-1.0:1800.0:-1
ipc-2014-optimal-parking-18_10-01.pddl,TIMEOUT:1801.08:-1.0:1800.0:-1
ipc-2014-optimal-parking-18_10-02.pddl,TIMEOUT:1801.08:-1.0:1800.0:-1
ipc-2014-optimal-parking-18_10-03.pddl,TIMEOUT:1801.04:-1.0:1800.0:-1
ipc-2014-optimal-parking-18_10-04.pddl,TIMEOUT:1801.07:-1.0:1800.0:-1
ipc-2014-optimal-parking-20_11-01.pddl,TIMEOUT:1801.1:-1.0:1800.0:-1
ipc-2014-optimal-parking-20_11-02.pddl,TIMEOUT:1801.0:-1.0:1800.0:-1
ipc-2014-optimal-parking-20_11-03.pddl,TIMEOUT:1801.01:-1.0:1800.0:-1
ipc-2014-optimal-parking-20_11-04.pddl,TIMEOUT:1801.07:-1.0:1800.0:-1
ipc-2014-optimal-tetris-01-10.pddl,TIMEOUT:1801.09:-1.0:1800.0:-1
ipc-2014-optimal-tetris-01-04.pddl,CRASHED:1038.24:1000000000.0:1800.0:-1
ipc-2014-optimal-tetris-01-06.pddl,TIMEOUT:1801.01:-1.0:1800.0:-1
ipc-2014-optimal-tetris-01-08.pddl,TIMEOUT:1801.08:-1.0:1800.0:-1
ipc-2014-optimal-tetris-02-10.pddl,TIMEOUT:1801.07:-1.0:1800.0:-1
ipc-2014-optimal-tetris-02-04.pddl,SAT:525.874:10.0:1800.0:-1
ipc-2014-optimal-tetris-02-06.pddl,TIMEOUT:1801.08:-1.0:1800.0:-1
ipc-2014-optimal-tetris-02-08.pddl,TIMEOUT:1801.08:-1.0:1800.0:-1
ipc-2014-optimal-tetris-03-10.pddl,TIMEOUT:1801.07:-1.0:1800.0:-1
ipc-2014-optimal-tetris-03-04.pddl,SAT:746.262:11.0:1800.0:-1
ipc-2014-optimal-tetris-03-06.pddl,TIMEOUT:1801.08:-1.0:1800.0:-1
ipc-2014-optimal-tetris-03-08.pddl,TIMEOUT:1801.04:-1.0:1800.0:-1
ipc-2014-optimal-tetris-04-10.pddl,TIMEOUT:1801.05:-1.0:1800.0:-1
ipc-2014-optimal-tetris-04-04.pddl,CRASHED:430.225:1000000000.0:1800.0:-1
ipc-2014-optimal-tetris-04-06.pddl,TIMEOUT:1801.03:-1.0:1800.0:-1
ipc-2014-optimal-tetris-04-08.pddl,TIMEOUT:1801.0:-1.0:1800.0:-1
ipc-2014-optimal-tetris-05-10.pddl,TIMEOUT:1801.06:-1.0:1800.0:-1
ipc-2014-optimal-tetris-05-04.pddl,CRASHED:860.05:1000000000.0:1800.0:-1
ipc-2014-optimal-tetris-05-06.pddl,SAT:303.753:19.0:1800.0:-1
ipc-2014-optimal-tetris-05-08.pddl,TIMEOUT:1801.01:-1.0:1800.0:-1
ipc-2014-optimal-tidybot-01.pddl,TIMEOUT:1801.03:-1.0:1800.0:-1
ipc-2014-optimal-tidybot-02.pddl,SAT:244.289:35.0:1800.0:-1
ipc-2014-optimal-tidybot-03.pddl,SAT:256.953:30.0:1800.0:-1
ipc-2014-optimal-tidybot-04.pddl,SAT:269.253:24.0:1800.0:-1
ipc-2014-optimal-tidybot-05.pddl,TIMEOUT:1801.08:-1.0:1800.0:-1
ipc-2014-optimal-tidybot-06.pddl,TIMEOUT:1801.06:-1.0:1800.0:-1
ipc-2014-optimal-tidybot-07.pddl,SAT:510.489:38.0:1800.0:-1
ipc-2014-optimal-tidybot-08.pddl,SAT:232.121:25.0:1800.0:-1
ipc-2014-optimal-tidybot-09.pddl,SAT:604.907:35.0:1800.0:-1
ipc-2014-optimal-tidybot-10.pddl,TIMEOUT:1801.06:-1.0:1800.0:-1
ipc-2014-optimal-tidybot-11.pddl,SAT:142.925:29.0:1800.0:-1
ipc-2014-optimal-tidybot-12.pddl,SAT:377.113:35.0:1800.0:-1
ipc-2014-optimal-tidybot-13.pddl,SAT:190.184:30.0:1800.0:-1
ipc-2014-optimal-tidybot-14.pddl,SAT:189.046:25.0:1800.0:-1
ipc-2014-optimal-tidybot-15.pddl,TIMEOUT:1801.0:-1.0:1800.0:-1
ipc-2014-optimal-tidybot-16.pddl,TIMEOUT:1801.03:-1.0:1800.0:-1
ipc-2014-optimal-tidybot-17.pddl,SAT:1451.56:40.0:1800.0:-1
ipc-2014-optimal-tidybot-18.pddl,TIMEOUT:1801.01:-1.0:1800.0:-1
ipc-2014-optimal-tidybot-19.pddl,TIMEOUT:1801.01:-1.0:1800.0:-1
ipc-2014-optimal-tidybot-20.pddl,SAT:1797.2:46.0:1800.0:-1
ipc-2014-optimal-transport-01.pddl,SAT:55.2806:148.0:1800.0:-1
ipc-2014-optimal-transport-02.pddl,SAT:103.717:191.0:1800.0:-1
ipc-2014-optimal-transport-03.pddl,SAT:219.037:300.0:1800.0:-1
ipc-2014-optimal-transport-04.pddl,TIMEOUT:1801.05:-1.0:1800.0:-1
ipc-2014-optimal-transport-05.pddl,TIMEOUT:1801.07:-1.0:1800.0:-1
ipc-2014-optimal-transport-06.pddl,TIMEOUT:1801.02:-1.0:1800.0:-1
ipc-2014-optimal-transport-07.pddl,SAT:152.101:967.0:1800.0:-1
ipc-2014-optimal-transport-08.pddl,TIMEOUT:1801.08:-1.0:1800.0:-1
ipc-2014-optimal-transport-09.pddl,TIMEOUT:1801.03:-1.0:1800.0:-1
ipc-2014-optimal-transport-10.pddl,TIMEOUT:1801.09:-1.0:1800.0:-1
ipc-2014-optimal-transport-11.pddl,TIMEOUT:1801.09:-1.0:1800.0:-1
ipc-2014-optimal-transport-12.pddl,TIMEOUT:1801.0:-1.0:1800.0:-1
ipc-2014-optimal-transport-13.pddl,SAT:117.133:594.0:1800.0:-1
ipc-2014-optimal-transport-14.pddl,SAT:392.348:526.0:1800.0:-1
ipc-2014-optimal-transport-15.pddl,SAT:779.54:753.0:1800.0:-1
ipc-2014-optimal-transport-16.pddl,TIMEOUT:1801.05:-1.0:1800.0:-1
ipc-2014-optimal-transport-17.pddl,TIMEOUT:1801.02:-1.0:1800.0:-1
ipc-2014-optimal-transport-18.pddl,TIMEOUT:1801.1:-1.0:1800.0:-1
ipc-2014-optimal-transport-19.pddl,TIMEOUT:1801.07:-1.0:1800.0:-1
ipc-2014-optimal-transport-20.pddl,TIMEOUT:1801.08:-1.0:1800.0:-1
ipc-2014-optimal-visitall-05-10.pddl,TIMEOUT:1801.1:-1.0:1800.0:-1
ipc-2014-optimal-visitall-05-05.pddl,SAT:32.696:21.0:1800.0:-1
ipc-2014-optimal-visitall-05-06.pddl,SAT:42.9325:25.0:1800.0:-1
ipc-2014-optimal-visitall-05-07.pddl,SAT:124.094:34.0:1800.0:-1
ipc-2014-optimal-visitall-05-08.pddl,SAT:1778.94:43.0:1800.0:-1
ipc-2014-optimal-visitall-05-09.pddl,TIMEOUT:1801.09:-1.0:1800.0:-1
ipc-2014-optimal-visitall-01-10.pddl,SAT:288.353:99.0:1800.0:-1
ipc-2014-optimal-visitall-01-11.pddl,SAT:374.764:120.0:1800.0:-1
ipc-2014-optimal-visitall-01-12.pddl,TIMEOUT:1801.03:-1.0:1800.0:-1
ipc-2014-optimal-visitall-01-13.pddl,SAT:930.606:168.0:1800.0:-1
ipc-2014-optimal-visitall-01-14.pddl,TIMEOUT:1801.05:-1.0:1800.0:-1
ipc-2014-optimal-visitall-01-15.pddl,TIMEOUT:1801.01:-1.0:1800.0:-1
ipc-2014-optimal-visitall-01-16.pddl,TIMEOUT:1801.07:-1.0:1800.0:-1
ipc-2014-optimal-visitall-01-17.pddl,TIMEOUT:1801.01:-1.0:1800.0:-1
ipc-2014-optimal-visitall-01-18.pddl,TIMEOUT:1801.01:-1.0:1800.0:-1
ipc-2014-optimal-visitall-01-05.pddl,SAT:128.091:24.0:1800.0:-1
ipc-2014-optimal-visitall-01-06.pddl,SAT:268.182:35.0:1800.0:-1
ipc-2014-optimal-visitall-01-07.pddl,SAT:222.229:48.0:1800.0:-1
ipc-2014-optimal-visitall-01-08.pddl,SAT:261.885:63.0:1800.0:-1
ipc-2014-optimal-visitall-01-09.pddl,SAT:300.578:80.0:1800.0:-1
