instance,ipc-2014-optimal-nucelar
ipc-2014-optimal-barman-p433.1.pddl,CRASHED:1.13983:1000000000.0:1800.0:-1
ipc-2014-optimal-barman-p433.2.pddl,CRASHED:1.13083:1000000000.0:1800.0:-1
ipc-2014-optimal-barman-p433.3.pddl,CRASHED:1.11483:1000000000.0:1800.0:-1
ipc-2014-optimal-barman-p435.1.pddl,CRASHED:491.52:1000000000.0:1800.0:-1
ipc-2014-optimal-barman-p435.2.pddl,CRASHED:1797.65:1000000000.0:1800.0:-1
ipc-2014-optimal-barman-p435.3.pddl,CRASHED:1790.09:1000000000.0:1800.0:-1
ipc-2014-optimal-barman-p443.1.pddl,CRASHED:1.16582:1000000000.0:1800.0:-1
ipc-2014-optimal-barman-p443.2.pddl,CRASHED:1.16482:1000000000.0:1800.0:-1
ipc-2014-optimal-barman-p443.3.pddl,CRASHED:1.18482:1000000000.0:1800.0:-1
ipc-2014-optimal-barman-p536.1.pddl,CRASHED:1793.45:1000000000.0:1800.0:-1
ipc-2014-optimal-barman-p536.2.pddl,CRASHED:1792.42:1000000000.0:1800.0:-1
ipc-2014-optimal-barman-p536.3.pddl,TIMEOUT:1801.0:-1.0:1800.0:-1
ipc-2014-optimal-barman-p638.1.pddl,CRASHED:1798.57:1000000000.0:1800.0:-1
ipc-2014-optimal-barman-p638.2.pddl,TIMEOUT:1801.05:-1.0:1800.0:-1
ipc-2014-optimal-barman-p638.3.pddl,CRASHED:1797.8:1000000000.0:1800.0:-1
ipc-2014-optimal-barman-p739.1.pddl,CRASHED:1798.63:1000000000.0:1800.0:-1
ipc-2014-optimal-barman-p739.2.pddl,CRASHED:327.49:1000000000.0:1800.0:-1
ipc-2014-optimal-barman-p739.3.pddl,CRASHED:326.57:1000000000.0:1800.0:-1
ipc-2014-optimal-barman-p839.1.pddl,CRASHED:1798.38:1000000000.0:1800.0:-1
ipc-2014-optimal-barman-p839.2.pddl,CRASHED:1799.74:1000000000.0:1800.0:-1
ipc-2014-optimal-cavediving-01.pddl,CRASHED:42.6205:1000000000.0:1800.0:-1
ipc-2014-optimal-cavediving-01_easy.pddl,CRASHED:30.7683:1000000000.0:1800.0:-1
ipc-2014-optimal-cavediving-02_easy.pddl,CRASHED:30.8433:1000000000.0:1800.0:-1
ipc-2014-optimal-cavediving-03_easy.pddl,CRASHED:30.7563:1000000000.0:1800.0:-1
ipc-2014-optimal-cavediving-04_easy.pddl,CRASHED:30.9073:1000000000.0:1800.0:-1
ipc-2014-optimal-cavediving-05A_easy.pddl,CRASHED:5.9351:1000000000.0:1800.0:-1
ipc-2014-optimal-cavediving-06A_easy.pddl,CRASHED:5.9391:1000000000.0:1800.0:-1
ipc-2014-optimal-cavediving-07_easy.pddl,CRASHED:5.8791:1000000000.0:1800.0:-1
ipc-2014-optimal-cavediving-08_easy.pddl,CRASHED:5.9261:1000000000.0:1800.0:-1
ipc-2014-optimal-cavediving-09_easy.pddl,CRASHED:155.94:1000000000.0:1800.0:-1
ipc-2014-optimal-cavediving-10_easy.pddl,CRASHED:157.897:1000000000.0:1800.0:-1
ipc-2014-optimal-cavediving-11_easy.pddl,CRASHED:157.528:1000000000.0:1800.0:-1
ipc-2014-optimal-cavediving-12_easy.pddl,CRASHED:158.58:1000000000.0:1800.0:-1
ipc-2014-optimal-cavediving-13_easy.pddl,CRASHED:43.6804:1000000000.0:1800.0:-1
ipc-2014-optimal-cavediving-14_easy.pddl,CRASHED:43.6064:1000000000.0:1800.0:-1
ipc-2014-optimal-cavediving-15_easy.pddl,CRASHED:36.8344:1000000000.0:1800.0:-1
ipc-2014-optimal-cavediving-16_easy.pddl,CRASHED:42.2166:1000000000.0:1800.0:-1
ipc-2014-optimal-cavediving-18A_easy.pddl,CRASHED:8.47471:1000000000.0:1800.0:-1
ipc-2014-optimal-cavediving-18_easy.pddl,CRASHED:9.99548:1000000000.0:1800.0:-1
ipc-2014-optimal-cavediving-20A_easy.pddl,CRASHED:8.5687:1000000000.0:1800.0:-1
ipc-2014-optimal-childsnack-01-2.pddl,CRASHED:1792.38:1000000000.0:1800.0:-1
ipc-2014-optimal-childsnack-01.pddl,CRASHED:1790.62:1000000000.0:1800.0:-1
ipc-2014-optimal-childsnack-02-2.pddl,CRASHED:1784.81:1000000000.0:1800.0:-1
ipc-2014-optimal-childsnack-02.pddl,CRASHED:1776.14:1000000000.0:1800.0:-1
ipc-2014-optimal-childsnack-03-2.pddl,CRASHED:1792.62:1000000000.0:1800.0:-1
ipc-2014-optimal-childsnack-03.pddl,CRASHED:1794.98:1000000000.0:1800.0:-1
ipc-2014-optimal-childsnack-04-2.pddl,CRASHED:1794.25:1000000000.0:1800.0:-1
ipc-2014-optimal-childsnack-04.pddl,CRASHED:1794.47:1000000000.0:1800.0:-1
ipc-2014-optimal-childsnack-05-2.pddl,CRASHED:1796.03:1000000000.0:1800.0:-1
ipc-2014-optimal-childsnack-05.pddl,CRASHED:1796.22:1000000000.0:1800.0:-1
ipc-2014-optimal-childsnack-06-2.pddl,CRASHED:1448.77:1000000000.0:1800.0:-1
ipc-2014-optimal-childsnack-06.pddl,CRASHED:1793.37:1000000000.0:1800.0:-1
ipc-2014-optimal-childsnack-07-2.pddl,CRASHED:1795.71:1000000000.0:1800.0:-1
ipc-2014-optimal-childsnack-07.pddl,CRASHED:1793.69:1000000000.0:1800.0:-1
ipc-2014-optimal-childsnack-08-2.pddl,CRASHED:1798.76:1000000000.0:1800.0:-1
ipc-2014-optimal-childsnack-08.pddl,CRASHED:1793.39:1000000000.0:1800.0:-1
ipc-2014-optimal-childsnack-09-2.pddl,TIMEOUT:1801.03:-1.0:1800.0:-1
ipc-2014-optimal-childsnack-09.pddl,TIMEOUT:1801.09:-1.0:1800.0:-1
ipc-2014-optimal-childsnack-10-2.pddl,TIMEOUT:1801.0:-1.0:1800.0:-1
ipc-2014-optimal-childsnack-10.pddl,TIMEOUT:1801.04:-1.0:1800.0:-1
ipc-2014-optimal-citycar-p2-2-2-1-2.pddl,CRASHED:62.5835:46.0:1800.0:-1
ipc-2014-optimal-citycar-p2-2-2-2-1.pddl,CRASHED:58.7911:64.0:1800.0:-1
ipc-2014-optimal-citycar-p2-2-3-1-2.pddl,CRASHED:74.2137:50.0:1800.0:-1
ipc-2014-optimal-citycar-p2-2-3-2-1.pddl,SAT:87.4477:48.0:1800.0:-1
ipc-2014-optimal-citycar-p2-2-3-2-2.pddl,SAT:81.1137:50.0:1800.0:-1
ipc-2014-optimal-citycar-p2-2-4-1-2.pddl,SAT:107.953:52.0:1800.0:-1
ipc-2014-optimal-citycar-p2-2-4-2-1.pddl,CRASHED:100.351:52.0:1800.0:-1
ipc-2014-optimal-citycar-p2-2-5-2-2.pddl,SAT:521.64:76.0:1800.0:-1
ipc-2014-optimal-citycar-p2-2-6-1-1.pddl,CRASHED:521.7:58.0:1800.0:-1
ipc-2014-optimal-citycar-p2-2-6-2-2.pddl,CRASHED:521.54:58.0:1800.0:-1
ipc-2014-optimal-citycar-p2-3-2-3-1.pddl,SAT:236.6:68.0:1800.0:-1
ipc-2014-optimal-citycar-p2-3-3-3-1.pddl,CRASHED:523.25:78.0:1800.0:-1
ipc-2014-optimal-citycar-p2-3-4-3-1.pddl,TIMEOUT:1801.0:-1.0:1800.0:-1
ipc-2014-optimal-citycar-p2-3-6-3-2.pddl,TIMEOUT:1801.0:-1.0:1800.0:-1
ipc-2014-optimal-citycar-p3-3-2-2-1.pddl,TIMEOUT:1801.06:-1.0:1800.0:-1
ipc-2014-optimal-citycar-p3-3-2-2-2.pddl,TIMEOUT:1801.0:-1.0:1800.0:-1
ipc-2014-optimal-citycar-p3-3-2-3-1.pddl,SAT:117.744:48.0:1800.0:-1
ipc-2014-optimal-citycar-p3-3-2-3-2.pddl,SAT:298.96:70.0:1800.0:-1
ipc-2014-optimal-citycar-p3-3-3-3-1.pddl,TIMEOUT:1801.05:-1.0:1800.0:-1
ipc-2014-optimal-citycar-p3-3-3-3-2.pddl,TIMEOUT:1801.02:-1.0:1800.0:-1
ipc-2014-optimal-floortile-p01-4-3-2.pddl,SAT:45.4311:56.0:1800.0:-1
ipc-2014-optimal-floortile-p01-4-4-2.pddl,CRASHED:450.834:68.0:1800.0:-1
ipc-2014-optimal-floortile-p01-5-3-2.pddl,CRASHED:357.498:63.0:1800.0:-1
ipc-2014-optimal-floortile-p01-5-4-2.pddl,CRASHED:1790.73:1000000000.0:1800.0:-1
ipc-2014-optimal-floortile-p01-5-5-2.pddl,TIMEOUT:1801.1:-1.0:1800.0:-1
ipc-2014-optimal-floortile-p01-6-4-2.pddl,TIMEOUT:1801.03:-1.0:1800.0:-1
ipc-2014-optimal-floortile-p01-6-5-2.pddl,TIMEOUT:1801.1:-1.0:1800.0:-1
ipc-2014-optimal-floortile-p02-4-4-2.pddl,CRASHED:1325.17:1000000000.0:1800.0:-1
ipc-2014-optimal-floortile-p02-5-3-2.pddl,CRASHED:341.915:65.0:1800.0:-1
ipc-2014-optimal-floortile-p02-5-4-2.pddl,CRASHED:1793.11:1000000000.0:1800.0:-1
ipc-2014-optimal-floortile-p02-5-5-2.pddl,TIMEOUT:1801.05:-1.0:1800.0:-1
ipc-2014-optimal-floortile-p02-6-4-2.pddl,TIMEOUT:1801.08:-1.0:1800.0:-1
ipc-2014-optimal-floortile-p02-6-5-2.pddl,TIMEOUT:1801.08:-1.0:1800.0:-1
ipc-2014-optimal-floortile-p03-4-3-2.pddl,CRASHED:59.137:56.0:1800.0:-1
ipc-2014-optimal-floortile-p03-4-4-2.pddl,CRASHED:1351.21:1000000000.0:1800.0:-1
ipc-2014-optimal-floortile-p03-5-3-2.pddl,CRASHED:353.053:65.0:1800.0:-1
ipc-2014-optimal-floortile-p03-5-4-2.pddl,CRASHED:1792.68:1000000000.0:1800.0:-1
ipc-2014-optimal-floortile-p03-5-5-2.pddl,TIMEOUT:1801.05:-1.0:1800.0:-1
ipc-2014-optimal-floortile-p03-6-4-2.pddl,TIMEOUT:1801.06:-1.0:1800.0:-1
ipc-2014-optimal-floortile-p03-6-5-2.pddl,TIMEOUT:1801.03:-1.0:1800.0:-1
ipc-2014-optimal-ged-d-1-2.pddl,CRASHED:2.43363:1.0:1800.0:-1
ipc-2014-optimal-ged-d-1-3.pddl,CRASHED:7.8718:4.0:1800.0:-1
ipc-2014-optimal-ged-d-1-4.pddl,SAT:2.37864:1.0:1800.0:-1
ipc-2014-optimal-ged-d-1-8.pddl,SAT:24.0663:4.0:1800.0:-1
ipc-2014-optimal-ged-d-2-1.pddl,SAT:2.39364:1.0:1800.0:-1
ipc-2014-optimal-ged-d-2-3.pddl,CRASHED:2.93655:3.0:1800.0:-1
ipc-2014-optimal-ged-d-2-4.pddl,CRASHED:2.72058:2.0:1800.0:-1
ipc-2014-optimal-ged-d-2-8.pddl,CRASHED:1795.36:1000000000.0:1800.0:-1
ipc-2014-optimal-ged-d-3-1.pddl,CRASHED:8.29474:4.0:1800.0:-1
ipc-2014-optimal-ged-d-3-2.pddl,CRASHED:2.94155:3.0:1800.0:-1
ipc-2014-optimal-ged-d-3-4.pddl,CRASHED:321.669:5.0:1800.0:-1
ipc-2014-optimal-ged-d-4-2.pddl,CRASHED:2.53561:2.0:1800.0:-1
ipc-2014-optimal-ged-d-4-3.pddl,CRASHED:327.059:5.0:1800.0:-1
ipc-2014-optimal-ged-d-4-8.pddl,CRASHED:1798.28:1000000000.0:1800.0:-1
ipc-2014-optimal-ged-d-7-5.pddl,SAT:24.5443:4.0:1800.0:-1
ipc-2014-optimal-ged-d-7-6.pddl,CRASHED:8.28174:4.0:1800.0:-1
ipc-2014-optimal-ged-d-8-1.pddl,SAT:23.6414:4.0:1800.0:-1
ipc-2014-optimal-ged-d-8-2.pddl,CRASHED:1791.97:1000000000.0:1800.0:-1
ipc-2014-optimal-ged-d-8-4.pddl,CRASHED:1796.87:1000000000.0:1800.0:-1
ipc-2014-optimal-ged-d-8-9.pddl,CRASHED:4.66003:1000000000.0:1800.0:-1
ipc-2014-optimal-hiking-1-2-3.pddl,CRASHED:1.9727:11.0:1800.0:-1
ipc-2014-optimal-hiking-1-2-4.pddl,SAT:133.106:17.0:1800.0:-1
ipc-2014-optimal-hiking-1-2-5.pddl,CRASHED:133.289:25.0:1800.0:-1
ipc-2014-optimal-hiking-1-2-7.pddl,SAT:134.892:38.0:1800.0:-1
ipc-2014-optimal-hiking-1-2-8.pddl,SAT:135.321:45.0:1800.0:-1
ipc-2014-optimal-hiking-2-2-3.pddl,SAT:4.56231:10.0:1800.0:-1
ipc-2014-optimal-hiking-2-2-4.pddl,CRASHED:193.611:16.0:1800.0:-1
ipc-2014-optimal-hiking-2-2-5.pddl,SAT:221.43:22.0:1800.0:-1
ipc-2014-optimal-hiking-2-2-6.pddl,SAT:430.28:30.0:1800.0:-1
ipc-2014-optimal-hiking-2-2-7.pddl,TIMEOUT:1801.01:-1.0:1800.0:-1
ipc-2014-optimal-hiking-2-2-8.pddl,TIMEOUT:1801.0:-1.0:1800.0:-1
ipc-2014-optimal-hiking-2-3-4.pddl,SAT:204.437:17.0:1800.0:-1
ipc-2014-optimal-hiking-2-3-5.pddl,CRASHED:316.695:24.0:1800.0:-1
ipc-2014-optimal-hiking-2-3-6.pddl,TIMEOUT:1801.0:-1.0:1800.0:-1
ipc-2014-optimal-hiking-2-3-7.pddl,TIMEOUT:1801.0:-1.0:1800.0:-1
ipc-2014-optimal-hiking-2-4-3.pddl,CRASHED:26.132:10.0:1800.0:-1
ipc-2014-optimal-hiking-2-4-4.pddl,CRASHED:211.471:17.0:1800.0:-1
ipc-2014-optimal-hiking-2-4-5.pddl,CRASHED:326.37:1000000000.0:1800.0:-1
ipc-2014-optimal-hiking-2-4-6.pddl,TIMEOUT:1801.0:-1.0:1800.0:-1
ipc-2014-optimal-hiking-2-4-7.pddl,TIMEOUT:1801.0:-1.0:1800.0:-1
ipc-2014-optimal-maintenance-1.3.010.010.1-001.pddl,CRASHED:2.19167:1000000000.0:1800.0:-1
ipc-2014-optimal-maintenance-1.3.010.010.1-002.pddl,CRASHED:2.23066:1000000000.0:1800.0:-1
ipc-2014-optimal-maintenance-1.3.010.010.2-000.pddl,CRASHED:1.27881:4.0:1800.0:-1
ipc-2014-optimal-maintenance-1.3.010.010.2-001.pddl,SAT:1.42378:7.0:1800.0:-1
ipc-2014-optimal-maintenance-1.3.010.010.2-002.pddl,CRASHED:1.37679:6.0:1800.0:-1
ipc-2014-optimal-maintenance-1.3.015.020.1-000.pddl,CRASHED:5.96809:1000000000.0:1800.0:-1
ipc-2014-optimal-maintenance-1.3.015.020.1-001.pddl,CRASHED:15.5656:1000000000.0:1800.0:-1
ipc-2014-optimal-maintenance-1.3.015.020.1-002.pddl,CRASHED:24.4203:1000000000.0:1800.0:-1
ipc-2014-optimal-maintenance-1.3.015.020.2-000.pddl,CRASHED:657.256:1000000000.0:1800.0:-1
ipc-2014-optimal-maintenance-1.3.015.020.2-001.pddl,SAT:1.47378:11.0:1800.0:-1
ipc-2014-optimal-maintenance-1.3.015.020.2-002.pddl,CRASHED:1.42778:9.0:1800.0:-1
ipc-2014-optimal-maintenance-1.3.025.050.1-000.pddl,CRASHED:177.686:1000000000.0:1800.0:-1
ipc-2014-optimal-maintenance-1.3.025.050.1-001.pddl,CRASHED:210.76:1000000000.0:1800.0:-1
ipc-2014-optimal-maintenance-1.3.025.050.1-002.pddl,CRASHED:191.593:1000000000.0:1800.0:-1
ipc-2014-optimal-maintenance-1.3.025.100.1-000.pddl,CRASHED:170.431:1000000000.0:1800.0:-1
ipc-2014-optimal-maintenance-1.3.025.100.1-001.pddl,CRASHED:152.23:1000000000.0:1800.0:-1
ipc-2014-optimal-maintenance-1.3.025.100.1-002.pddl,CRASHED:156.03:1000000000.0:1800.0:-1
ipc-2014-optimal-maintenance-1.3.025.100.2-000.pddl,CRASHED:1172.66:1000000000.0:1800.0:-1
ipc-2014-optimal-maintenance-1.3.025.100.2-001.pddl,CRASHED:1504.67:1000000000.0:1800.0:-1
ipc-2014-optimal-maintenance-1.3.025.100.2-002.pddl,CRASHED:1220.52:1000000000.0:1800.0:-1
ipc-2014-optimal-openstacks-p20_1.pddl,CRASHED:1452.51:3.0:1800.0:-1
ipc-2014-optimal-openstacks-p20_2.pddl,CRASHED:1561.52:4.0:1800.0:-1
ipc-2014-optimal-openstacks-p20_3.pddl,CRASHED:21.0988:6.0:1800.0:-1
ipc-2014-optimal-openstacks-p25_1.pddl,CRASHED:1789.02:1000000000.0:1800.0:-1
ipc-2014-optimal-openstacks-p25_3.pddl,CRASHED:188.03:1000000000.0:1800.0:-1
ipc-2014-optimal-openstacks-p30_1.pddl,CRASHED:1463.86:1000000000.0:1800.0:-1
ipc-2014-optimal-openstacks-p30_2.pddl,TIMEOUT:1801.05:-1.0:1800.0:-1
ipc-2014-optimal-openstacks-p30_3.pddl,TIMEOUT:1801.01:-1.0:1800.0:-1
ipc-2014-optimal-openstacks-p35_1.pddl,TIMEOUT:1801.02:-1.0:1800.0:-1
ipc-2014-optimal-openstacks-p35_2.pddl,TIMEOUT:1801.08:-1.0:1800.0:-1
ipc-2014-optimal-openstacks-p35_3.pddl,TIMEOUT:1801.08:-1.0:1800.0:-1
ipc-2014-optimal-openstacks-p40_1.pddl,TIMEOUT:1801.03:-1.0:1800.0:-1
ipc-2014-optimal-openstacks-p40_2.pddl,TIMEOUT:1801.05:-1.0:1800.0:-1
ipc-2014-optimal-openstacks-p40_3.pddl,TIMEOUT:1801.01:-1.0:1800.0:-1
ipc-2014-optimal-openstacks-p45_1.pddl,TIMEOUT:1801.04:-1.0:1800.0:-1
ipc-2014-optimal-openstacks-p45_2.pddl,TIMEOUT:1801.01:-1.0:1800.0:-1
ipc-2014-optimal-openstacks-p45_3.pddl,TIMEOUT:1801.01:-1.0:1800.0:-1
ipc-2014-optimal-openstacks-p50_1.pddl,TIMEOUT:1801.02:-1.0:1800.0:-1
ipc-2014-optimal-openstacks-p50_2.pddl,TIMEOUT:1801.11:-1.0:1800.0:-1
ipc-2014-optimal-openstacks-p50_3.pddl,TIMEOUT:1801.04:-1.0:1800.0:-1
ipc-2014-optimal-parking-12_7-01.pddl,CRASHED:116.851:18.0:1800.0:-1
ipc-2014-optimal-parking-12_7-02.pddl,CRASHED:120.09:18.0:1800.0:-1
ipc-2014-optimal-parking-12_7-03.pddl,CRASHED:115.583:17.0:1800.0:-1
ipc-2014-optimal-parking-12_7-04.pddl,CRASHED:135.438:19.0:1800.0:-1
ipc-2014-optimal-parking-14_8-01.pddl,TIMEOUT:1801.02:-1.0:1800.0:-1
ipc-2014-optimal-parking-14_8-02.pddl,SAT:258.476:22.0:1800.0:-1
ipc-2014-optimal-parking-14_8-03.pddl,SAT:152.772:21.0:1800.0:-1
ipc-2014-optimal-parking-14_8-04.pddl,TIMEOUT:1801.02:-1.0:1800.0:-1
ipc-2014-optimal-parking-16_9-01.pddl,TIMEOUT:1801.0:-1.0:1800.0:-1
ipc-2014-optimal-parking-16_9-02.pddl,TIMEOUT:1801.01:-1.0:1800.0:-1
ipc-2014-optimal-parking-16_9-03.pddl,TIMEOUT:1801.04:-1.0:1800.0:-1
ipc-2014-optimal-parking-16_9-04.pddl,TIMEOUT:1801.07:-1.0:1800.0:-1
ipc-2014-optimal-parking-18_10-01.pddl,TIMEOUT:1801.0:-1.0:1800.0:-1
ipc-2014-optimal-parking-18_10-02.pddl,TIMEOUT:1801.0:-1.0:1800.0:-1
ipc-2014-optimal-parking-18_10-03.pddl,TIMEOUT:1801.0:-1.0:1800.0:-1
ipc-2014-optimal-parking-18_10-04.pddl,TIMEOUT:1801.0:-1.0:1800.0:-1
ipc-2014-optimal-parking-20_11-01.pddl,TIMEOUT:1801.0:-1.0:1800.0:-1
ipc-2014-optimal-parking-20_11-02.pddl,TIMEOUT:1801.0:-1.0:1800.0:-1
ipc-2014-optimal-parking-20_11-03.pddl,TIMEOUT:1801.0:-1.0:1800.0:-1
ipc-2014-optimal-parking-20_11-04.pddl,TIMEOUT:1801.0:-1.0:1800.0:-1
ipc-2014-optimal-tetris-01-10.pddl,CRASHED:1758.57:1000000000.0:1800.0:-1
ipc-2014-optimal-tetris-01-04.pddl,CRASHED:746.939:1000000000.0:1800.0:-1
ipc-2014-optimal-tetris-01-06.pddl,SAT:917.379:30.0:1800.0:-1
ipc-2014-optimal-tetris-01-08.pddl,CRASHED:67.1888:36.0:1800.0:-1
ipc-2014-optimal-tetris-02-10.pddl,TIMEOUT:1801.09:-1.0:1800.0:-1
ipc-2014-optimal-tetris-02-04.pddl,SAT:5.2662:10.0:1800.0:-1
ipc-2014-optimal-tetris-02-06.pddl,CRASHED:600.112:30.0:1800.0:-1
ipc-2014-optimal-tetris-02-08.pddl,TIMEOUT:1801.0:-1.0:1800.0:-1
ipc-2014-optimal-tetris-03-10.pddl,TIMEOUT:1801.0:-1.0:1800.0:-1
ipc-2014-optimal-tetris-03-04.pddl,CRASHED:25.6391:11.0:1800.0:-1
ipc-2014-optimal-tetris-03-06.pddl,SAT:653.056:21.0:1800.0:-1
ipc-2014-optimal-tetris-03-08.pddl,CRASHED:599.98:48.0:1800.0:-1
ipc-2014-optimal-tetris-04-10.pddl,TIMEOUT:1801.0:-1.0:1800.0:-1
ipc-2014-optimal-tetris-04-04.pddl,CRASHED:610.275:1000000000.0:1800.0:-1
ipc-2014-optimal-tetris-04-06.pddl,CRASHED:909.905:27.0:1800.0:-1
ipc-2014-optimal-tetris-04-08.pddl,TIMEOUT:1801.0:-1.0:1800.0:-1
ipc-2014-optimal-tetris-05-10.pddl,TIMEOUT:1801.0:-1.0:1800.0:-1
ipc-2014-optimal-tetris-05-04.pddl,CRASHED:675.745:1000000000.0:1800.0:-1
ipc-2014-optimal-tetris-05-06.pddl,CRASHED:565.445:19.0:1800.0:-1
ipc-2014-optimal-tetris-05-08.pddl,TIMEOUT:1801.0:-1.0:1800.0:-1
ipc-2014-optimal-tidybot-01.pddl,TIMEOUT:1801.0:-1.0:1800.0:-1
ipc-2014-optimal-tidybot-02.pddl,SAT:449.264:35.0:1800.0:-1
ipc-2014-optimal-tidybot-03.pddl,CRASHED:160.218:30.0:1800.0:-1
ipc-2014-optimal-tidybot-04.pddl,CRASHED:270.046:24.0:1800.0:-1
ipc-2014-optimal-tidybot-05.pddl,TIMEOUT:1801.0:-1.0:1800.0:-1
ipc-2014-optimal-tidybot-06.pddl,TIMEOUT:1801.0:-1.0:1800.0:-1
ipc-2014-optimal-tidybot-07.pddl,TIMEOUT:1801.0:-1.0:1800.0:-1
ipc-2014-optimal-tidybot-08.pddl,SAT:121.82:25.0:1800.0:-1
ipc-2014-optimal-tidybot-09.pddl,TIMEOUT:1801.0:-1.0:1800.0:-1
ipc-2014-optimal-tidybot-10.pddl,TIMEOUT:1801.0:-1.0:1800.0:-1
ipc-2014-optimal-tidybot-11.pddl,CRASHED:73.2009:29.0:1800.0:-1
ipc-2014-optimal-tidybot-12.pddl,CRASHED:232.978:35.0:1800.0:-1
ipc-2014-optimal-tidybot-13.pddl,CRASHED:125.378:30.0:1800.0:-1
ipc-2014-optimal-tidybot-14.pddl,SAT:106.332:25.0:1800.0:-1
ipc-2014-optimal-tidybot-15.pddl,TIMEOUT:1801.0:-1.0:1800.0:-1
ipc-2014-optimal-tidybot-16.pddl,TIMEOUT:1801.0:-1.0:1800.0:-1
ipc-2014-optimal-tidybot-17.pddl,TIMEOUT:1801.0:-1.0:1800.0:-1
ipc-2014-optimal-tidybot-18.pddl,TIMEOUT:1801.0:-1.0:1800.0:-1
ipc-2014-optimal-tidybot-19.pddl,TIMEOUT:1801.0:-1.0:1800.0:-1
ipc-2014-optimal-tidybot-20.pddl,TIMEOUT:1801.0:-1.0:1800.0:-1
ipc-2014-optimal-transport-01.pddl,CRASHED:134.293:148.0:1800.0:-1
ipc-2014-optimal-transport-02.pddl,SAT:136.979:191.0:1800.0:-1
ipc-2014-optimal-transport-03.pddl,SAT:145.721:300.0:1800.0:-1
ipc-2014-optimal-transport-04.pddl,CRASHED:1359.37:1000000000.0:1800.0:-1
ipc-2014-optimal-transport-05.pddl,CRASHED:1800.96:1000000000.0:1800.0:-1
ipc-2014-optimal-transport-06.pddl,TIMEOUT:1801.0:-1.0:1800.0:-1
ipc-2014-optimal-transport-07.pddl,SAT:138.311:967.0:1800.0:-1
ipc-2014-optimal-transport-08.pddl,CRASHED:311.042:1173.0:1800.0:-1
ipc-2014-optimal-transport-09.pddl,CRASHED:1790.13:1000000000.0:1800.0:-1
ipc-2014-optimal-transport-10.pddl,CRASHED:1359.98:1000000000.0:1800.0:-1
ipc-2014-optimal-transport-11.pddl,TIMEOUT:1801.0:-1.0:1800.0:-1
ipc-2014-optimal-transport-12.pddl,TIMEOUT:1801.02:-1.0:1800.0:-1
ipc-2014-optimal-transport-13.pddl,SAT:138.35:594.0:1800.0:-1
ipc-2014-optimal-transport-14.pddl,SAT:264.626:526.0:1800.0:-1
ipc-2014-optimal-transport-15.pddl,CRASHED:1791.37:1000000000.0:1800.0:-1
ipc-2014-optimal-transport-16.pddl,CRASHED:9.61011:1000000000.0:1800.0:-1
ipc-2014-optimal-transport-17.pddl,CRASHED:324.11:1000000000.0:1800.0:-1
ipc-2014-optimal-transport-18.pddl,TIMEOUT:1801.05:-1.0:1800.0:-1
ipc-2014-optimal-transport-19.pddl,TIMEOUT:1801.06:-1.0:1800.0:-1
ipc-2014-optimal-transport-20.pddl,TIMEOUT:1801.0:-1.0:1800.0:-1
ipc-2014-optimal-visitall-05-10.pddl,CRASHED:1800.3:1000000000.0:1800.0:-1
ipc-2014-optimal-visitall-05-05.pddl,SAT:5.05623:21.0:1800.0:-1
ipc-2014-optimal-visitall-05-06.pddl,SAT:7.36588:25.0:1800.0:-1
ipc-2014-optimal-visitall-05-07.pddl,SAT:346.153:34.0:1800.0:-1
ipc-2014-optimal-visitall-05-08.pddl,CRASHED:1218.46:43.0:1800.0:-1
ipc-2014-optimal-visitall-05-09.pddl,CRASHED:1798.38:1000000000.0:1800.0:-1
ipc-2014-optimal-visitall-01-10.pddl,SAT:1156.74:99.0:1800.0:-1
ipc-2014-optimal-visitall-01-11.pddl,CRASHED:1157.92:120.0:1800.0:-1
ipc-2014-optimal-visitall-01-12.pddl,CRASHED:1198.92:143.0:1800.0:-1
ipc-2014-optimal-visitall-01-13.pddl,SAT:1149.59:168.0:1800.0:-1
ipc-2014-optimal-visitall-01-14.pddl,CRASHED:1794.58:1000000000.0:1800.0:-1
ipc-2014-optimal-visitall-01-15.pddl,CRASHED:1088.62:1000000000.0:1800.0:-1
ipc-2014-optimal-visitall-01-16.pddl,CRASHED:1679.7:1000000000.0:1800.0:-1
ipc-2014-optimal-visitall-01-17.pddl,TIMEOUT:1801.0:-1.0:1800.0:-1
ipc-2014-optimal-visitall-01-18.pddl,TIMEOUT:1801.0:-1.0:1800.0:-1
ipc-2014-optimal-visitall-01-05.pddl,CRASHED:20.7928:24.0:1800.0:-1
ipc-2014-optimal-visitall-01-06.pddl,CRASHED:932.511:35.0:1800.0:-1
ipc-2014-optimal-visitall-01-07.pddl,CRASHED:1014.51:48.0:1800.0:-1
ipc-2014-optimal-visitall-01-08.pddl,CRASHED:1086.69:63.0:1800.0:-1
ipc-2014-optimal-visitall-01-09.pddl,CRASHED:1154.62:80.0:1800.0:-1
