instance,ipc-2014-agile-ibacop2
ipc-2014-agile-barman-p1-11-4-15.pddl,CRASHED:29.0:251.0:300.0:-1
ipc-2014-agile-barman-p1-11-5-15.pddl,CRASHED:58.0:258.0:300.0:-1
ipc-2014-agile-barman-p1-11-5-16.pddl,CRASHED:19.0:194.0:300.0:-1
ipc-2014-agile-barman-p2-10-4-13.pddl,CRASHED:18.0:221.0:300.0:-1
ipc-2014-agile-barman-p2-11-4-15.pddl,CRASHED:93.0:195.0:300.0:-1
ipc-2014-agile-barman-p2-11-5-15.pddl,CRASHED:18.0:199.0:300.0:-1
ipc-2014-agile-barman-p2-11-5-16.pddl,CRASHED:88.0:239.0:300.0:-1
ipc-2014-agile-barman-p2-11-5-17.pddl,CRASHED:18.0:226.0:300.0:-1
ipc-2014-agile-barman-p3-10-4-13.pddl,CRASHED:22.0:228.0:300.0:-1
ipc-2014-agile-barman-p3-11-4-15.pddl,CRASHED:17.0:180.0:300.0:-1
ipc-2014-agile-barman-p3-11-5-15.pddl,CRASHED:149.0:216.0:300.0:-1
ipc-2014-agile-barman-p3-11-5-16.pddl,CRASHED:89.0:191.0:300.0:-1
ipc-2014-agile-barman-p3-11-5-17.pddl,CRASHED:19.0:199.0:300.0:-1
ipc-2014-agile-barman-p4-11-4-14.pddl,CRASHED:19.0:170.0:300.0:-1
ipc-2014-agile-barman-p4-11-4-15.pddl,CRASHED:18.0:161.0:300.0:-1
ipc-2014-agile-barman-p4-11-5-15.pddl,CRASHED:18.0:192.0:300.0:-1
ipc-2014-agile-barman-p5-10-4-13.pddl,CRASHED:53.0:251.0:300.0:-1
ipc-2014-agile-barman-p5-11-4-15.pddl,CRASHED:18.0:211.0:300.0:-1
ipc-2014-agile-barman-p5-11-5-15.pddl,CRASHED:68.0:229.0:300.0:-1
ipc-2014-agile-barman-p5-11-5-16.pddl,CRASHED:89.0:185.0:300.0:-1
ipc-2014-agile-cavediving-01_easy.pddl,CRASHED:306.0:1000000000.0:300.0:-1
ipc-2014-agile-cavediving-01.pddl,CRASHED:305.0:1000000000.0:300.0:-1
ipc-2014-agile-cavediving-02_easy.pddl,CRASHED:306.0:1000000000.0:300.0:-1
ipc-2014-agile-cavediving-03_easy.pddl,CRASHED:306.0:1000000000.0:300.0:-1
ipc-2014-agile-cavediving-04_easy.pddl,CRASHED:307.0:1000000000.0:300.0:-1
ipc-2014-agile-cavediving-05A_easy.pddl,CRASHED:50.0:113.0:300.0:-1
ipc-2014-agile-cavediving-06A_easy.pddl,CRASHED:50.0:114.0:300.0:-1
ipc-2014-agile-cavediving-07_easy.pddl,CRASHED:43.0:136.0:300.0:-1
ipc-2014-agile-cavediving-08_easy.pddl,CRASHED:48.0:109.0:300.0:-1
ipc-2014-agile-cavediving-09_easy.pddl,CRASHED:309.0:1000000000.0:300.0:-1
ipc-2014-agile-cavediving-10_easy.pddl,CRASHED:309.0:1000000000.0:300.0:-1
ipc-2014-agile-cavediving-11_easy.pddl,CRASHED:305.0:1000000000.0:300.0:-1
ipc-2014-agile-cavediving-12_easy.pddl,CRASHED:309.0:1000000000.0:300.0:-1
ipc-2014-agile-cavediving-13_easy.pddl,CRASHED:305.0:1000000000.0:300.0:-1
ipc-2014-agile-cavediving-14_easy.pddl,CRASHED:306.0:1000000000.0:300.0:-1
ipc-2014-agile-cavediving-15_easy.pddl,CRASHED:307.0:1000000000.0:300.0:-1
ipc-2014-agile-cavediving-16_easy.pddl,CRASHED:304.0:1000000000.0:300.0:-1
ipc-2014-agile-cavediving-18A_easy.pddl,CRASHED:61.0:138.0:300.0:-1
ipc-2014-agile-cavediving-18_easy.pddl,CRASHED:46.0:138.0:300.0:-1
ipc-2014-agile-cavediving-20A_easy.pddl,CRASHED:50.0:103.0:300.0:-1
ipc-2014-agile-childsnack-05-2.pddl,TIMEOUT:301.08:-1.0:300.0:-1
ipc-2014-agile-childsnack-05.pddl,CRASHED:246.0:53.0:300.0:-1
ipc-2014-agile-childsnack-06-2.pddl,TIMEOUT:301.0:-1.0:300.0:-1
ipc-2014-agile-childsnack-07-2.pddl,CRASHED:82.0:63.0:300.0:-1
ipc-2014-agile-childsnack-08-2.pddl,TIMEOUT:301.05:-1.0:300.0:-1
ipc-2014-agile-childsnack-08.pddl,TIMEOUT:301.04:-1.0:300.0:-1
ipc-2014-agile-childsnack-09-2.pddl,CRASHED:213.0:73.0:300.0:-1
ipc-2014-agile-childsnack-09.pddl,TIMEOUT:301.03:-1.0:300.0:-1
ipc-2014-agile-childsnack-10-2.pddl,TIMEOUT:301.0:-1.0:300.0:-1
ipc-2014-agile-childsnack-10.pddl,TIMEOUT:301.07:-1.0:300.0:-1
ipc-2014-agile-childsnack-11-2.pddl,TIMEOUT:301.05:-1.0:300.0:-1
ipc-2014-agile-childsnack-11.pddl,TIMEOUT:301.08:-1.0:300.0:-1
ipc-2014-agile-childsnack-12.pddl,TIMEOUT:301.05:-1.0:300.0:-1
ipc-2014-agile-childsnack-13-2.pddl,TIMEOUT:301.06:-1.0:300.0:-1
ipc-2014-agile-childsnack-13.pddl,TIMEOUT:301.07:-1.0:300.0:-1
ipc-2014-agile-childsnack-14.pddl,TIMEOUT:301.07:-1.0:300.0:-1
ipc-2014-agile-childsnack-15-2.pddl,TIMEOUT:301.08:-1.0:300.0:-1
ipc-2014-agile-childsnack-16-2.pddl,TIMEOUT:301.0:-1.0:300.0:-1
ipc-2014-agile-childsnack-19-2.pddl,TIMEOUT:301.0:-1.0:300.0:-1
ipc-2014-agile-childsnack-19.pddl,TIMEOUT:301.0:-1.0:300.0:-1
ipc-2014-agile-citycar-p3-2-2-0-1.pddl,CRASHED:105.0:171.0:300.0:-1
ipc-2014-agile-citycar-p3-3-2-0-1.pddl,CRASHED:108.0:187.0:300.0:-1
ipc-2014-agile-citycar-p3-4-2-0-1.pddl,CRASHED:103.0:100.0:300.0:-1
ipc-2014-agile-citycar-p3-5-2-0-1.pddl,CRASHED:242.0:162.0:300.0:-1
ipc-2014-agile-citycar-p3-5-2-0-2.pddl,CRASHED:173.0:872.0:300.0:-1
ipc-2014-agile-citycar-p4-2-2-0-1.pddl,TIMEOUT:301.0:-1.0:300.0:-1
ipc-2014-agile-citycar-p4-2-3-0-1.pddl,TIMEOUT:301.0:-1.0:300.0:-1
ipc-2014-agile-citycar-p4-2-3-0-2.pddl,CRASHED:290.0:1212.0:300.0:-1
ipc-2014-agile-citycar-p4-3-2-0-1.pddl,CRASHED:158.0:431.0:300.0:-1
ipc-2014-agile-citycar-p4-3-2-0-2.pddl,TIMEOUT:301.0:-1.0:300.0:-1
ipc-2014-agile-citycar-p4-3-3-0-1.pddl,TIMEOUT:301.0:-1.0:300.0:-1
ipc-2014-agile-citycar-p4-3-3-0-2.pddl,TIMEOUT:301.0:-1.0:300.0:-1
ipc-2014-agile-citycar-p4-4-2-0-1.pddl,TIMEOUT:301.0:-1.0:300.0:-1
ipc-2014-agile-citycar-p4-4-2-0-2.pddl,TIMEOUT:301.0:-1.0:300.0:-1
ipc-2014-agile-citycar-p4-4-3-0-1.pddl,TIMEOUT:301.0:-1.0:300.0:-1
ipc-2014-agile-citycar-p4-4-3-0-2.pddl,TIMEOUT:301.0:-1.0:300.0:-1
ipc-2014-agile-citycar-p4-5-2-0-1.pddl,TIMEOUT:301.0:-1.0:300.0:-1
ipc-2014-agile-citycar-p4-5-2-0-2.pddl,TIMEOUT:301.0:-1.0:300.0:-1
ipc-2014-agile-citycar-p4-5-3-0-1.pddl,TIMEOUT:301.0:-1.0:300.0:-1
ipc-2014-agile-citycar-p4-5-3-0-2.pddl,TIMEOUT:301.0:-1.0:300.0:-1
ipc-2014-agile-floortile-p01-4-3-2.pddl,CRASHED:36.0:74.0:300.0:-1
ipc-2014-agile-floortile-p01-5-4-2.pddl,TIMEOUT:301.02:-1.0:300.0:-1
ipc-2014-agile-floortile-p01-5-5-2.pddl,TIMEOUT:301.06:-1.0:300.0:-1
ipc-2014-agile-floortile-p01-6-4-2.pddl,TIMEOUT:301.06:-1.0:300.0:-1
ipc-2014-agile-floortile-p01-6-5-2.pddl,TIMEOUT:301.04:-1.0:300.0:-1
ipc-2014-agile-floortile-p01-6-5-3.pddl,TIMEOUT:301.08:-1.0:300.0:-1
ipc-2014-agile-floortile-p02-5-4-2.pddl,TIMEOUT:301.06:-1.0:300.0:-1
ipc-2014-agile-floortile-p02-6-4-2.pddl,TIMEOUT:301.05:-1.0:300.0:-1
ipc-2014-agile-floortile-p02-6-5-2.pddl,TIMEOUT:301.04:-1.0:300.0:-1
ipc-2014-agile-floortile-p02-6-5-3.pddl,TIMEOUT:301.03:-1.0:300.0:-1
ipc-2014-agile-floortile-p03-6-4-2.pddl,TIMEOUT:301.05:-1.0:300.0:-1
ipc-2014-agile-floortile-p03-6-5-2.pddl,TIMEOUT:301.04:-1.0:300.0:-1
ipc-2014-agile-floortile-p03-6-5-3.pddl,TIMEOUT:301.0:-1.0:300.0:-1
ipc-2014-agile-floortile-p04-5-4-2.pddl,TIMEOUT:301.02:-1.0:300.0:-1
ipc-2014-agile-floortile-p04-5-5-2.pddl,TIMEOUT:301.02:-1.0:300.0:-1
ipc-2014-agile-floortile-p04-6-5-2.pddl,TIMEOUT:301.07:-1.0:300.0:-1
ipc-2014-agile-floortile-p04-6-5-3.pddl,TIMEOUT:301.01:-1.0:300.0:-1
ipc-2014-agile-floortile-p05-4-3-2.pddl,CRASHED:16.0:77.0:300.0:-1
ipc-2014-agile-floortile-p05-6-5-2.pddl,TIMEOUT:301.1:-1.0:300.0:-1
ipc-2014-agile-floortile-p05-6-5-3.pddl,TIMEOUT:301.07:-1.0:300.0:-1
ipc-2014-agile-ged-d-10-1.pddl,CRASHED:24.0:62.0:300.0:-1
ipc-2014-agile-ged-d-10-2.pddl,CRASHED:20.0:64.0:300.0:-1
ipc-2014-agile-ged-d-10-3.pddl,CRASHED:26.0:34.0:300.0:-1
ipc-2014-agile-ged-d-10-4.pddl,CRASHED:30.0:72.0:300.0:-1
ipc-2014-agile-ged-d-10-5.pddl,CRASHED:74.0:115.0:300.0:-1
ipc-2014-agile-ged-d-10-6.pddl,CRASHED:34.0:117.0:300.0:-1
ipc-2014-agile-ged-d-11-1.pddl,CRASHED:21.0:41.0:300.0:-1
ipc-2014-agile-ged-d-11-3.pddl,CRASHED:36.0:56.0:300.0:-1
ipc-2014-agile-ged-d-11-5.pddl,CRASHED:163.0:38.0:300.0:-1
ipc-2014-agile-ged-d-11-6.pddl,CRASHED:162.0:37.0:300.0:-1
ipc-2014-agile-ged-d-12-11.pddl,CRASHED:42.0:83.0:300.0:-1
ipc-2014-agile-ged-d-12-2.pddl,CRASHED:51.0:108.0:300.0:-1
ipc-2014-agile-ged-d-12-3.pddl,CRASHED:107.0:39.0:300.0:-1
ipc-2014-agile-ged-d-12-5.pddl,CRASHED:83.0:121.0:300.0:-1
ipc-2014-agile-ged-d-12-6.pddl,CRASHED:65.0:65.0:300.0:-1
ipc-2014-agile-ged-d-12-7.pddl,CRASHED:112.0:50.0:300.0:-1
ipc-2014-agile-ged-d-12-8.pddl,CRASHED:104.0:51.0:300.0:-1
ipc-2014-agile-ged-d-12-9.pddl,CRASHED:104.0:54.0:300.0:-1
ipc-2014-agile-ged-d-3-6.pddl,CRASHED:20.0:59.0:300.0:-1
ipc-2014-agile-ged-d-9-5.pddl,CRASHED:31.0:58.0:300.0:-1
ipc-2014-agile-hiking-3-4-3.pddl,CRASHED:18.0:15.0:300.0:-1
ipc-2014-agile-hiking-3-4-4.pddl,CRASHED:25.0:62.0:300.0:-1
ipc-2014-agile-hiking-3-4-5.pddl,CRASHED:28.0:27.0:300.0:-1
ipc-2014-agile-hiking-3-4-6.pddl,CRASHED:171.0:42.0:300.0:-1
ipc-2014-agile-hiking-3-4-7.pddl,CRASHED:185.0:54.0:300.0:-1
ipc-2014-agile-hiking-3-4-8.pddl,CRASHED:200.0:90.0:300.0:-1
ipc-2014-agile-hiking-3-4-9.pddl,CRASHED:81.0:75.0:300.0:-1
ipc-2014-agile-hiking-4-5-3.pddl,CRASHED:24.0:31.0:300.0:-1
ipc-2014-agile-hiking-4-5-4.pddl,CRASHED:36.0:47.0:300.0:-1
ipc-2014-agile-hiking-4-5-5.pddl,CRASHED:55.0:52.0:300.0:-1
ipc-2014-agile-hiking-4-5-6.pddl,CRASHED:83.0:58.0:300.0:-1
ipc-2014-agile-hiking-4-5-7.pddl,CRASHED:100.0:71.0:300.0:-1
ipc-2014-agile-hiking-4-5-8.pddl,CRASHED:127.0:71.0:300.0:-1
ipc-2014-agile-hiking-4-5-9.pddl,TIMEOUT:301.0:-1.0:300.0:-1
ipc-2014-agile-hiking-5-6-3.pddl,CRASHED:38.0:16.0:300.0:-1
ipc-2014-agile-hiking-5-6-4.pddl,CRASHED:64.0:24.0:300.0:-1
ipc-2014-agile-hiking-5-6-5.pddl,CRASHED:165.0:32.0:300.0:-1
ipc-2014-agile-hiking-5-6-6.pddl,CRASHED:271.0:43.0:300.0:-1
ipc-2014-agile-hiking-5-6-7.pddl,CRASHED:240.0:58.0:300.0:-1
ipc-2014-agile-hiking-5-6-8.pddl,TIMEOUT:301.0:-1.0:300.0:-1
ipc-2014-agile-maintenance-1.3.060.180.5-000.pddl,CRASHED:237.0:48.0:300.0:-1
ipc-2014-agile-maintenance-1.3.060.180.5-001.pddl,CRASHED:213.0:55.0:300.0:-1
ipc-2014-agile-maintenance-1.3.060.180.5-002.pddl,CRASHED:248.0:48.0:300.0:-1
ipc-2014-agile-maintenance-1.3.100.300.5-000.pddl,CRASHED:152.0:90.0:300.0:-1
ipc-2014-agile-maintenance-1.3.100.300.5-001.pddl,TIMEOUT:301.09:-1.0:300.0:-1
ipc-2014-agile-maintenance-1.3.100.300.7-000.pddl,CRASHED:22.0:83.0:300.0:-1
ipc-2014-agile-maintenance-1.3.100.300.7-001.pddl,CRASHED:22.0:89.0:300.0:-1
ipc-2014-agile-maintenance-1.3.100.300.7-002.pddl,CRASHED:22.0:83.0:300.0:-1
ipc-2014-agile-maintenance-1.3.150.500.6-001.pddl,CRASHED:168.0:133.0:300.0:-1
ipc-2014-agile-maintenance-1.3.200.500.5-001.pddl,TIMEOUT:301.09:-1.0:300.0:-1
ipc-2014-agile-maintenance-1.3.200.500.5-002.pddl,CRASHED:157.0:136.0:300.0:-1
ipc-2014-agile-maintenance-1.3.200.700.7-000.pddl,CRASHED:176.0:183.0:300.0:-1
ipc-2014-agile-maintenance-1.3.200.700.7-001.pddl,CRASHED:111.0:172.0:300.0:-1
ipc-2014-agile-maintenance-1.3.200.700.7-002.pddl,CRASHED:176.0:174.0:300.0:-1
ipc-2014-agile-maintenance-1.3.200.900.5-000.pddl,TIMEOUT:301.0:-1.0:300.0:-1
ipc-2014-agile-maintenance-1.3.200.900.5-001.pddl,TIMEOUT:301.0:-1.0:300.0:-1
ipc-2014-agile-maintenance-1.3.200.900.5-002.pddl,TIMEOUT:301.0:-1.0:300.0:-1
ipc-2014-agile-maintenance-1.3.200.900.8-000.pddl,CRASHED:100.0:174.0:300.0:-1
ipc-2014-agile-maintenance-1.3.200.900.8-001.pddl,CRASHED:103.0:171.0:300.0:-1
ipc-2014-agile-maintenance-1.3.200.900.8-002.pddl,CRASHED:104.0:169.0:300.0:-1
ipc-2014-agile-openstacks-p130_2.pddl,CRASHED:59.0:78.0:300.0:-1
ipc-2014-agile-openstacks-p130_3.pddl,CRASHED:72.0:117.0:300.0:-1
ipc-2014-agile-openstacks-p150_2.pddl,CRASHED:92.0:81.0:300.0:-1
ipc-2014-agile-openstacks-p150_3.pddl,CRASHED:97.0:136.0:300.0:-1
ipc-2014-agile-openstacks-p170_1.pddl,CRASHED:96.0:127.0:300.0:-1
ipc-2014-agile-openstacks-p170_2.pddl,CRASHED:137.0:100.0:300.0:-1
ipc-2014-agile-openstacks-p170_3.pddl,CRASHED:134.0:170.0:300.0:-1
ipc-2014-agile-openstacks-p190_1.pddl,CRASHED:137.0:113.0:300.0:-1
ipc-2014-agile-openstacks-p190_2.pddl,CRASHED:137.0:132.0:300.0:-1
ipc-2014-agile-openstacks-p190_3.pddl,CRASHED:248.0:190.0:300.0:-1
ipc-2014-agile-openstacks-p210_1.pddl,CRASHED:146.0:121.0:300.0:-1
ipc-2014-agile-openstacks-p210_2.pddl,CRASHED:154.0:144.0:300.0:-1
ipc-2014-agile-openstacks-p230_1.pddl,CRASHED:184.0:135.0:300.0:-1
ipc-2014-agile-openstacks-p230_2.pddl,CRASHED:198.0:162.0:300.0:-1
ipc-2014-agile-openstacks-p250_1.pddl,CRASHED:234.0:160.0:300.0:-1
ipc-2014-agile-openstacks-p250_2.pddl,CRASHED:236.0:183.0:300.0:-1
ipc-2014-agile-openstacks-p270_1.pddl,TIMEOUT:301.0:-1.0:300.0:-1
ipc-2014-agile-openstacks-p270_2.pddl,CRASHED:270.0:206.0:300.0:-1
ipc-2014-agile-openstacks-p290_1.pddl,TIMEOUT:301.0:-1.0:300.0:-1
ipc-2014-agile-openstacks-p290_2.pddl,TIMEOUT:301.0:-1.0:300.0:-1
ipc-2014-agile-parking-28_2.pddl,TIMEOUT:301.0:-1.0:300.0:-1
ipc-2014-agile-parking-28_3.pddl,CRASHED:225.0:68.0:300.0:-1
ipc-2014-agile-parking-30_1.pddl,CRASHED:238.0:63.0:300.0:-1
ipc-2014-agile-parking-30_2.pddl,CRASHED:248.0:74.0:300.0:-1
ipc-2014-agile-parking-30_3.pddl,CRASHED:188.0:73.0:300.0:-1
ipc-2014-agile-parking-32_1.pddl,TIMEOUT:301.0:-1.0:300.0:-1
ipc-2014-agile-parking-32_2.pddl,TIMEOUT:301.0:-1.0:300.0:-1
ipc-2014-agile-parking-32_3.pddl,TIMEOUT:301.0:-1.0:300.0:-1
ipc-2014-agile-parking-34_1.pddl,TIMEOUT:301.0:-1.0:300.0:-1
ipc-2014-agile-parking-34_2.pddl,TIMEOUT:301.0:-1.0:300.0:-1
ipc-2014-agile-parking-34_3.pddl,TIMEOUT:301.0:-1.0:300.0:-1
ipc-2014-agile-parking-36_1.pddl,TIMEOUT:301.0:-1.0:300.0:-1
ipc-2014-agile-parking-36_2.pddl,TIMEOUT:301.0:-1.0:300.0:-1
ipc-2014-agile-parking-36_3.pddl,TIMEOUT:301.0:-1.0:300.0:-1
ipc-2014-agile-parking-38_1.pddl,TIMEOUT:301.0:-1.0:300.0:-1
ipc-2014-agile-parking-38_2.pddl,TIMEOUT:301.0:-1.0:300.0:-1
ipc-2014-agile-parking-38_3.pddl,TIMEOUT:301.0:-1.0:300.0:-1
ipc-2014-agile-parking-40_1.pddl,TIMEOUT:301.01:-1.0:300.0:-1
ipc-2014-agile-parking-40_2.pddl,TIMEOUT:301.07:-1.0:300.0:-1
ipc-2014-agile-parking-40_3.pddl,TIMEOUT:301.09:-1.0:300.0:-1
ipc-2014-agile-tetris-020.pddl,CRASHED:250.0:56.0:300.0:-1
ipc-2014-agile-tetris-021.pddl,TIMEOUT:301.124:-1.0:300.0:-1
ipc-2014-agile-tetris-022.pddl,TIMEOUT:301.057:-1.0:300.0:-1
ipc-2014-agile-tetris-023.pddl,TIMEOUT:301.099:-1.0:300.0:-1
ipc-2014-agile-tetris-024.pddl,TIMEOUT:301.052:-1.0:300.0:-1
ipc-2014-agile-tetris-025.pddl,TIMEOUT:301.049:-1.0:300.0:-1
ipc-2014-agile-tetris-026.pddl,TIMEOUT:301.0:-1.0:300.0:-1
ipc-2014-agile-tetris-027.pddl,TIMEOUT:301.075:-1.0:300.0:-1
ipc-2014-agile-tetris-028.pddl,TIMEOUT:301.028:-1.0:300.0:-1
ipc-2014-agile-tetris-029.pddl,TIMEOUT:301.095:-1.0:300.0:-1
ipc-2014-agile-tetris-031.pddl,TIMEOUT:301.03:-1.0:300.0:-1
ipc-2014-agile-tetris-032.pddl,TIMEOUT:301.036:-1.0:300.0:-1
ipc-2014-agile-tetris-033.pddl,TIMEOUT:301.09:-1.0:300.0:-1
ipc-2014-agile-tetris-034.pddl,CRASHED:319.0:246.0:300.0:-1
ipc-2014-agile-tetris-035.pddl,TIMEOUT:301.0:-1.0:300.0:-1
ipc-2014-agile-tetris-036.pddl,CRASHED:319.0:940.0:300.0:-1
ipc-2014-agile-tetris-037.pddl,TIMEOUT:301.056:-1.0:300.0:-1
ipc-2014-agile-tetris-038.pddl,TIMEOUT:301.02:-1.0:300.0:-1
ipc-2014-agile-tetris-039.pddl,TIMEOUT:301.06:-1.0:300.0:-1
ipc-2014-agile-tetris-040.pddl,TIMEOUT:301.09:-1.0:300.0:-1
ipc-2014-agile-thoughtful-bootstrap-typed-01.pddl,CRASHED:16.0:36.0:300.0:-1
ipc-2014-agile-thoughtful-bootstrap-typed-02.pddl,CRASHED:16.0:28.0:300.0:-1
ipc-2014-agile-thoughtful-bootstrap-typed-03.pddl,CRASHED:16.0:44.0:300.0:-1
ipc-2014-agile-thoughtful-bootstrap-typed-04.pddl,CRASHED:16.0:37.0:300.0:-1
ipc-2014-agile-thoughtful-bootstrap-typed-05.pddl,CRASHED:17.0:34.0:300.0:-1
ipc-2014-agile-thoughtful-p11_6_53-typed.pddl,CRASHED:296.0:1000000000.0:300.0:-1
ipc-2014-agile-thoughtful-p11_6_59-typed.pddl,CRASHED:22.0:126.0:300.0:-1
ipc-2014-agile-thoughtful-p11_6_62-typed.pddl,CRASHED:32.0:139.0:300.0:-1
ipc-2014-agile-thoughtful-p13_7_78-typed.pddl,CRASHED:297.0:1000000000.0:300.0:-1
ipc-2014-agile-thoughtful-p13_7_79-typed.pddl,CRASHED:297.0:1000000000.0:300.0:-1
ipc-2014-agile-thoughtful-p13_7_86-typed.pddl,CRASHED:29.0:155.0:300.0:-1
ipc-2014-agile-thoughtful-target-typed-20.pddl,CRASHED:26.0:170.0:300.0:-1
ipc-2014-agile-thoughtful-target-typed-21.pddl,CRASHED:296.0:1000000000.0:300.0:-1
ipc-2014-agile-thoughtful-target-typed-22.pddl,CRASHED:299.0:1000000000.0:300.0:-1
ipc-2014-agile-thoughtful-target-typed-23.pddl,CRASHED:32.0:137.0:300.0:-1
ipc-2014-agile-thoughtful-target-typed-24.pddl,CRASHED:201.0:1000000000.0:300.0:-1
ipc-2014-agile-thoughtful-target-typed-25.pddl,CRASHED:26.0:142.0:300.0:-1
ipc-2014-agile-thoughtful-target-typed-26.pddl,CRASHED:27.0:153.0:300.0:-1
ipc-2014-agile-thoughtful-target-typed-27.pddl,CRASHED:32.0:210.0:300.0:-1
ipc-2014-agile-thoughtful-target-typed-28.pddl,CRASHED:52.0:152.0:300.0:-1
ipc-2014-agile-transport-01.pddl,CRASHED:61.0:2047.0:300.0:-1
ipc-2014-agile-transport-02.pddl,CRASHED:311.0:1000000000.0:300.0:-1
ipc-2014-agile-transport-03.pddl,CRASHED:148.0:2640.0:300.0:-1
ipc-2014-agile-transport-04.pddl,TIMEOUT:301.0:-1.0:300.0:-1
ipc-2014-agile-transport-05.pddl,TIMEOUT:301.0:-1.0:300.0:-1
ipc-2014-agile-transport-06.pddl,TIMEOUT:301.0:-1.0:300.0:-1
ipc-2014-agile-transport-07.pddl,TIMEOUT:301.0:-1.0:300.0:-1
ipc-2014-agile-transport-08.pddl,TIMEOUT:301.03:-1.0:300.0:-1
ipc-2014-agile-transport-09.pddl,TIMEOUT:301.0:-1.0:300.0:-1
ipc-2014-agile-transport-10.pddl,TIMEOUT:301.0:-1.0:300.0:-1
ipc-2014-agile-transport-11.pddl,CRASHED:100.0:2189.0:300.0:-1
ipc-2014-agile-transport-12.pddl,CRASHED:103.0:2521.0:300.0:-1
ipc-2014-agile-transport-13.pddl,CRASHED:65.0:2658.0:300.0:-1
ipc-2014-agile-transport-14.pddl,TIMEOUT:301.0:-1.0:300.0:-1
ipc-2014-agile-transport-15.pddl,TIMEOUT:301.0:-1.0:300.0:-1
ipc-2014-agile-transport-16.pddl,TIMEOUT:301.0:-1.0:300.0:-1
ipc-2014-agile-transport-17.pddl,TIMEOUT:301.0:-1.0:300.0:-1
ipc-2014-agile-transport-18.pddl,TIMEOUT:301.06:-1.0:300.0:-1
ipc-2014-agile-transport-19.pddl,CRASHED:320.0:1000000000.0:300.0:-1
ipc-2014-agile-transport-20.pddl,TIMEOUT:301.0:-1.0:300.0:-1
ipc-2014-agile-visitall-30.pddl,CRASHED:91.0:2452.0:300.0:-1
ipc-2014-agile-visitall-31.pddl,CRASHED:106.0:2702.0:300.0:-1
ipc-2014-agile-visitall-32.pddl,CRASHED:85.0:1431.0:300.0:-1
ipc-2014-agile-visitall-33.pddl,CRASHED:85.0:1388.0:300.0:-1
ipc-2014-agile-visitall-50.pddl,TIMEOUT:301.04:-1.0:300.0:-1
ipc-2014-agile-visitall-51.pddl,TIMEOUT:301.02:-1.0:300.0:-1
ipc-2014-agile-visitall-52.pddl,TIMEOUT:301.068:-1.0:300.0:-1
ipc-2014-agile-visitall-53.pddl,TIMEOUT:301.092:-1.0:300.0:-1
ipc-2014-agile-visitall-54.pddl,TIMEOUT:301.122:-1.0:300.0:-1
ipc-2014-agile-visitall-55.pddl,TIMEOUT:301.045:-1.0:300.0:-1
ipc-2014-agile-visitall-56.pddl,TIMEOUT:301.107:-1.0:300.0:-1
ipc-2014-agile-visitall-57.pddl,TIMEOUT:301.073:-1.0:300.0:-1
ipc-2014-agile-visitall-58.pddl,TIMEOUT:301.063:-1.0:300.0:-1
ipc-2014-agile-visitall-59.pddl,TIMEOUT:301.06:-1.0:300.0:-1
ipc-2014-agile-visitall-60.pddl,TIMEOUT:301.053:-1.0:300.0:-1
ipc-2014-agile-visitall-61.pddl,TIMEOUT:301.05:-1.0:300.0:-1
ipc-2014-agile-visitall-62.pddl,TIMEOUT:301.118:-1.0:300.0:-1
ipc-2014-agile-visitall-63.pddl,TIMEOUT:301.1:-1.0:300.0:-1
ipc-2014-agile-visitall-64.pddl,TIMEOUT:301.068:-1.0:300.0:-1
ipc-2014-agile-visitall-65.pddl,TIMEOUT:301.143:-1.0:300.0:-1
