instance,ipc-2014-agile-mercury
ipc-2014-agile-barman-p1-11-4-15.pddl,SAT:3.27409:233.0:300.0:-1
ipc-2014-agile-barman-p1-11-5-15.pddl,TIMEOUT:301.06:-1.0:300.0:-1
ipc-2014-agile-barman-p1-11-5-16.pddl,SAT:224.231:190.0:300.0:-1
ipc-2014-agile-barman-p2-10-4-13.pddl,SAT:204.716:194.0:300.0:-1
ipc-2014-agile-barman-p2-11-4-15.pddl,TIMEOUT:301.05:-1.0:300.0:-1
ipc-2014-agile-barman-p2-11-5-15.pddl,SAT:272.932:232.0:300.0:-1
ipc-2014-agile-barman-p2-11-5-16.pddl,TIMEOUT:301.06:-1.0:300.0:-1
ipc-2014-agile-barman-p2-11-5-17.pddl,TIMEOUT:301.04:-1.0:300.0:-1
ipc-2014-agile-barman-p3-10-4-13.pddl,SAT:112.76:299.0:300.0:-1
ipc-2014-agile-barman-p3-11-4-15.pddl,SAT:186.496:221.0:300.0:-1
ipc-2014-agile-barman-p3-11-5-15.pddl,SAT:4.00889:275.0:300.0:-1
ipc-2014-agile-barman-p3-11-5-16.pddl,SAT:282.064:244.0:300.0:-1
ipc-2014-agile-barman-p3-11-5-17.pddl,TIMEOUT:301.06:-1.0:300.0:-1
ipc-2014-agile-barman-p4-11-4-14.pddl,SAT:3.78101:310.0:300.0:-1
ipc-2014-agile-barman-p4-11-4-15.pddl,TIMEOUT:301.05:-1.0:300.0:-1
ipc-2014-agile-barman-p4-11-5-15.pddl,SAT:133.15:291.0:300.0:-1
ipc-2014-agile-barman-p5-10-4-13.pddl,SAT:4.72619:180.0:300.0:-1
ipc-2014-agile-barman-p5-11-4-15.pddl,SAT:3.40744:279.0:300.0:-1
ipc-2014-agile-barman-p5-11-5-15.pddl,SAT:15.7249:297.0:300.0:-1
ipc-2014-agile-barman-p5-11-5-16.pddl,SAT:154.358:235.0:300.0:-1
ipc-2014-agile-cavediving-01_easy.pddl,TIMEOUT:301.05:-1.0:300.0:-1
ipc-2014-agile-cavediving-01.pddl,TIMEOUT:301.07:-1.0:300.0:-1
ipc-2014-agile-cavediving-02_easy.pddl,TIMEOUT:301.08:-1.0:300.0:-1
ipc-2014-agile-cavediving-03_easy.pddl,TIMEOUT:301.01:-1.0:300.0:-1
ipc-2014-agile-cavediving-04_easy.pddl,TIMEOUT:301.05:-1.0:300.0:-1
ipc-2014-agile-cavediving-05A_easy.pddl,SAT:19.4328:94.0:300.0:-1
ipc-2014-agile-cavediving-06A_easy.pddl,SAT:19.2513:95.0:300.0:-1
ipc-2014-agile-cavediving-07_easy.pddl,SAT:30.6709:131.0:300.0:-1
ipc-2014-agile-cavediving-08_easy.pddl,SAT:19.2486:90.0:300.0:-1
ipc-2014-agile-cavediving-09_easy.pddl,TIMEOUT:301.03:-1.0:300.0:-1
ipc-2014-agile-cavediving-10_easy.pddl,TIMEOUT:301.07:-1.0:300.0:-1
ipc-2014-agile-cavediving-11_easy.pddl,TIMEOUT:301.03:-1.0:300.0:-1
ipc-2014-agile-cavediving-12_easy.pddl,TIMEOUT:301.08:-1.0:300.0:-1
ipc-2014-agile-cavediving-13_easy.pddl,TIMEOUT:301.07:-1.0:300.0:-1
ipc-2014-agile-cavediving-14_easy.pddl,TIMEOUT:301.02:-1.0:300.0:-1
ipc-2014-agile-cavediving-15_easy.pddl,TIMEOUT:301.07:-1.0:300.0:-1
ipc-2014-agile-cavediving-16_easy.pddl,TIMEOUT:301.09:-1.0:300.0:-1
ipc-2014-agile-cavediving-18A_easy.pddl,SAT:89.4155:131.0:300.0:-1
ipc-2014-agile-cavediving-18_easy.pddl,SAT:193.187:131.0:300.0:-1
ipc-2014-agile-cavediving-20A_easy.pddl,SAT:54.1693:98.0:300.0:-1
ipc-2014-agile-childsnack-05-2.pddl,SAT:33.9372:52.0:300.0:-1
ipc-2014-agile-childsnack-05.pddl,SAT:117.89:53.0:300.0:-1
ipc-2014-agile-childsnack-06-2.pddl,SAT:67.693:60.0:300.0:-1
ipc-2014-agile-childsnack-07-2.pddl,SAT:200.4:66.0:300.0:-1
ipc-2014-agile-childsnack-08-2.pddl,TIMEOUT:301.06:-1.0:300.0:-1
ipc-2014-agile-childsnack-08.pddl,SAT:89.4501:68.0:300.0:-1
ipc-2014-agile-childsnack-09-2.pddl,CRASHED:204.05:1000000000.0:300.0:-1
ipc-2014-agile-childsnack-09.pddl,TIMEOUT:301.02:-1.0:300.0:-1
ipc-2014-agile-childsnack-10-2.pddl,CRASHED:213.02:1000000000.0:300.0:-1
ipc-2014-agile-childsnack-10.pddl,CRASHED:213.05:1000000000.0:300.0:-1
ipc-2014-agile-childsnack-11-2.pddl,CRASHED:199.29:1000000000.0:300.0:-1
ipc-2014-agile-childsnack-11.pddl,CRASHED:214.09:1000000000.0:300.0:-1
ipc-2014-agile-childsnack-12.pddl,CRASHED:204.76:1000000000.0:300.0:-1
ipc-2014-agile-childsnack-13-2.pddl,CRASHED:220.49:1000000000.0:300.0:-1
ipc-2014-agile-childsnack-13.pddl,CRASHED:210.82:1000000000.0:300.0:-1
ipc-2014-agile-childsnack-14.pddl,CRASHED:217.23:1000000000.0:300.0:-1
ipc-2014-agile-childsnack-15-2.pddl,CRASHED:224.54:1000000000.0:300.0:-1
ipc-2014-agile-childsnack-16-2.pddl,CRASHED:252.29:1000000000.0:300.0:-1
ipc-2014-agile-childsnack-19-2.pddl,CRASHED:119.68:1000000000.0:300.0:-1
ipc-2014-agile-childsnack-19.pddl,CRASHED:116.91:1000000000.0:300.0:-1
ipc-2014-agile-citycar-p3-2-2-0-1.pddl,SAT:2.56795:201.0:300.0:-1
ipc-2014-agile-citycar-p3-3-2-0-1.pddl,SAT:16.4118:384.0:300.0:-1
ipc-2014-agile-citycar-p3-4-2-0-1.pddl,SAT:29.6372:231.0:300.0:-1
ipc-2014-agile-citycar-p3-5-2-0-1.pddl,SAT:56.7251:279.0:300.0:-1
ipc-2014-agile-citycar-p3-5-2-0-2.pddl,SAT:215.132:199.0:300.0:-1
ipc-2014-agile-citycar-p4-2-2-0-1.pddl,TIMEOUT:301.06:-1.0:300.0:-1
ipc-2014-agile-citycar-p4-2-3-0-1.pddl,TIMEOUT:301.02:-1.0:300.0:-1
ipc-2014-agile-citycar-p4-2-3-0-2.pddl,TIMEOUT:301.08:-1.0:300.0:-1
ipc-2014-agile-citycar-p4-3-2-0-1.pddl,TIMEOUT:301.0:-1.0:300.0:-1
ipc-2014-agile-citycar-p4-3-2-0-2.pddl,TIMEOUT:301.03:-1.0:300.0:-1
ipc-2014-agile-citycar-p4-3-3-0-1.pddl,TIMEOUT:301.03:-1.0:300.0:-1
ipc-2014-agile-citycar-p4-3-3-0-2.pddl,TIMEOUT:301.08:-1.0:300.0:-1
ipc-2014-agile-citycar-p4-4-2-0-1.pddl,TIMEOUT:301.07:-1.0:300.0:-1
ipc-2014-agile-citycar-p4-4-2-0-2.pddl,TIMEOUT:301.05:-1.0:300.0:-1
ipc-2014-agile-citycar-p4-4-3-0-1.pddl,TIMEOUT:301.02:-1.0:300.0:-1
ipc-2014-agile-citycar-p4-4-3-0-2.pddl,TIMEOUT:301.05:-1.0:300.0:-1
ipc-2014-agile-citycar-p4-5-2-0-1.pddl,TIMEOUT:301.06:-1.0:300.0:-1
ipc-2014-agile-citycar-p4-5-2-0-2.pddl,TIMEOUT:301.03:-1.0:300.0:-1
ipc-2014-agile-citycar-p4-5-3-0-1.pddl,TIMEOUT:301.01:-1.0:300.0:-1
ipc-2014-agile-citycar-p4-5-3-0-2.pddl,TIMEOUT:301.05:-1.0:300.0:-1
ipc-2014-agile-floortile-p01-4-3-2.pddl,SAT:6.47958:94.0:300.0:-1
ipc-2014-agile-floortile-p01-5-4-2.pddl,TIMEOUT:301.06:-1.0:300.0:-1
ipc-2014-agile-floortile-p01-5-5-2.pddl,TIMEOUT:301.05:-1.0:300.0:-1
ipc-2014-agile-floortile-p01-6-4-2.pddl,TIMEOUT:301.04:-1.0:300.0:-1
ipc-2014-agile-floortile-p01-6-5-2.pddl,TIMEOUT:301.03:-1.0:300.0:-1
ipc-2014-agile-floortile-p01-6-5-3.pddl,TIMEOUT:301.03:-1.0:300.0:-1
ipc-2014-agile-floortile-p02-5-4-2.pddl,TIMEOUT:301.07:-1.0:300.0:-1
ipc-2014-agile-floortile-p02-6-4-2.pddl,TIMEOUT:301.07:-1.0:300.0:-1
ipc-2014-agile-floortile-p02-6-5-2.pddl,TIMEOUT:301.04:-1.0:300.0:-1
ipc-2014-agile-floortile-p02-6-5-3.pddl,TIMEOUT:301.06:-1.0:300.0:-1
ipc-2014-agile-floortile-p03-6-4-2.pddl,TIMEOUT:301.02:-1.0:300.0:-1
ipc-2014-agile-floortile-p03-6-5-2.pddl,TIMEOUT:301.01:-1.0:300.0:-1
ipc-2014-agile-floortile-p03-6-5-3.pddl,TIMEOUT:301.06:-1.0:300.0:-1
ipc-2014-agile-floortile-p04-5-4-2.pddl,TIMEOUT:301.08:-1.0:300.0:-1
ipc-2014-agile-floortile-p04-5-5-2.pddl,TIMEOUT:301.05:-1.0:300.0:-1
ipc-2014-agile-floortile-p04-6-5-2.pddl,TIMEOUT:301.05:-1.0:300.0:-1
ipc-2014-agile-floortile-p04-6-5-3.pddl,TIMEOUT:301.05:-1.0:300.0:-1
ipc-2014-agile-floortile-p05-4-3-2.pddl,SAT:0.595655:93.0:300.0:-1
ipc-2014-agile-floortile-p05-6-5-2.pddl,TIMEOUT:301.05:-1.0:300.0:-1
ipc-2014-agile-floortile-p05-6-5-3.pddl,TIMEOUT:301.01:-1.0:300.0:-1
ipc-2014-agile-ged-d-10-1.pddl,SAT:3.7558:24.0:300.0:-1
ipc-2014-agile-ged-d-10-2.pddl,SAT:3.84699:25.0:300.0:-1
ipc-2014-agile-ged-d-10-3.pddl,SAT:3.36:31.0:300.0:-1
ipc-2014-agile-ged-d-10-4.pddl,SAT:2.88504:24.0:300.0:-1
ipc-2014-agile-ged-d-10-5.pddl,SAT:4.18606:33.0:300.0:-1
ipc-2014-agile-ged-d-10-6.pddl,SAT:4.09735:34.0:300.0:-1
ipc-2014-agile-ged-d-11-1.pddl,SAT:3.09793:27.0:300.0:-1
ipc-2014-agile-ged-d-11-3.pddl,SAT:3.09755:28.0:300.0:-1
ipc-2014-agile-ged-d-11-5.pddl,SAT:3.81826:30.0:300.0:-1
ipc-2014-agile-ged-d-11-6.pddl,SAT:3.57559:37.0:300.0:-1
ipc-2014-agile-ged-d-12-11.pddl,SAT:3.42426:27.0:300.0:-1
ipc-2014-agile-ged-d-12-2.pddl,SAT:5.38246:40.0:300.0:-1
ipc-2014-agile-ged-d-12-3.pddl,SAT:9.25583:61.0:300.0:-1
ipc-2014-agile-ged-d-12-5.pddl,SAT:7.53454:60.0:300.0:-1
ipc-2014-agile-ged-d-12-6.pddl,SAT:6.04316:39.0:300.0:-1
ipc-2014-agile-ged-d-12-7.pddl,SAT:6.50035:44.0:300.0:-1
ipc-2014-agile-ged-d-12-8.pddl,SAT:12.4091:71.0:300.0:-1
ipc-2014-agile-ged-d-12-9.pddl,SAT:9.92216:70.0:300.0:-1
ipc-2014-agile-ged-d-3-6.pddl,SAT:3.28652:29.0:300.0:-1
ipc-2014-agile-ged-d-9-5.pddl,SAT:4.65509:26.0:300.0:-1
ipc-2014-agile-hiking-3-4-3.pddl,SAT:1.73123:13.0:300.0:-1
ipc-2014-agile-hiking-3-4-4.pddl,SAT:2.50125:24.0:300.0:-1
ipc-2014-agile-hiking-3-4-5.pddl,TIMEOUT:301.06:-1.0:300.0:-1
ipc-2014-agile-hiking-3-4-6.pddl,TIMEOUT:301.08:-1.0:300.0:-1
ipc-2014-agile-hiking-3-4-7.pddl,TIMEOUT:301.08:-1.0:300.0:-1
ipc-2014-agile-hiking-3-4-8.pddl,TIMEOUT:301.07:-1.0:300.0:-1
ipc-2014-agile-hiking-3-4-9.pddl,TIMEOUT:301.07:-1.0:300.0:-1
ipc-2014-agile-hiking-4-5-3.pddl,SAT:2.96306:15.0:300.0:-1
ipc-2014-agile-hiking-4-5-4.pddl,SAT:4.17105:22.0:300.0:-1
ipc-2014-agile-hiking-4-5-5.pddl,SAT:6.79036:32.0:300.0:-1
ipc-2014-agile-hiking-4-5-6.pddl,TIMEOUT:301.0:-1.0:300.0:-1
ipc-2014-agile-hiking-4-5-7.pddl,TIMEOUT:301.07:-1.0:300.0:-1
ipc-2014-agile-hiking-4-5-8.pddl,TIMEOUT:301.045:-1.0:300.0:-1
ipc-2014-agile-hiking-4-5-9.pddl,TIMEOUT:301.05:-1.0:300.0:-1
ipc-2014-agile-hiking-5-6-3.pddl,SAT:5.59461:18.0:300.0:-1
ipc-2014-agile-hiking-5-6-4.pddl,SAT:10.9579:27.0:300.0:-1
ipc-2014-agile-hiking-5-6-5.pddl,SAT:20.629:34.0:300.0:-1
ipc-2014-agile-hiking-5-6-6.pddl,TIMEOUT:301.113:-1.0:300.0:-1
ipc-2014-agile-hiking-5-6-7.pddl,TIMEOUT:301.057:-1.0:300.0:-1
ipc-2014-agile-hiking-5-6-8.pddl,TIMEOUT:301.01:-1.0:300.0:-1
ipc-2014-agile-maintenance-1.3.060.180.5-000.pddl,TIMEOUT:301.07:-1.0:300.0:-1
ipc-2014-agile-maintenance-1.3.060.180.5-001.pddl,TIMEOUT:301.09:-1.0:300.0:-1
ipc-2014-agile-maintenance-1.3.060.180.5-002.pddl,TIMEOUT:301.0:-1.0:300.0:-1
ipc-2014-agile-maintenance-1.3.100.300.5-000.pddl,TIMEOUT:301.07:-1.0:300.0:-1
ipc-2014-agile-maintenance-1.3.100.300.5-001.pddl,TIMEOUT:301.1:-1.0:300.0:-1
ipc-2014-agile-maintenance-1.3.100.300.7-000.pddl,SAT:0.8873:82.0:300.0:-1
ipc-2014-agile-maintenance-1.3.100.300.7-001.pddl,SAT:0.855974:77.0:300.0:-1
ipc-2014-agile-maintenance-1.3.100.300.7-002.pddl,SAT:0.845811:74.0:300.0:-1
ipc-2014-agile-maintenance-1.3.150.500.6-001.pddl,SAT:1.40604:133.0:300.0:-1
ipc-2014-agile-maintenance-1.3.200.500.5-001.pddl,TIMEOUT:301.01:-1.0:300.0:-1
ipc-2014-agile-maintenance-1.3.200.500.5-002.pddl,TIMEOUT:301.08:-1.0:300.0:-1
ipc-2014-agile-maintenance-1.3.200.700.7-000.pddl,SAT:2.2481:173.0:300.0:-1
ipc-2014-agile-maintenance-1.3.200.700.7-001.pddl,SAT:2.33538:168.0:300.0:-1
ipc-2014-agile-maintenance-1.3.200.700.7-002.pddl,SAT:2.22828:169.0:300.0:-1
ipc-2014-agile-maintenance-1.3.200.900.5-000.pddl,TIMEOUT:301.04:-1.0:300.0:-1
ipc-2014-agile-maintenance-1.3.200.900.5-001.pddl,TIMEOUT:301.04:-1.0:300.0:-1
ipc-2014-agile-maintenance-1.3.200.900.5-002.pddl,TIMEOUT:301.0:-1.0:300.0:-1
ipc-2014-agile-maintenance-1.3.200.900.8-000.pddl,SAT:2.93269:166.0:300.0:-1
ipc-2014-agile-maintenance-1.3.200.900.8-001.pddl,SAT:3.00337:160.0:300.0:-1
ipc-2014-agile-maintenance-1.3.200.900.8-002.pddl,SAT:2.95615:168.0:300.0:-1
ipc-2014-agile-openstacks-p130_2.pddl,SAT:13.0441:50.0:300.0:-1
ipc-2014-agile-openstacks-p130_3.pddl,SAT:23.8847:104.0:300.0:-1
ipc-2014-agile-openstacks-p150_2.pddl,SAT:41.0849:54.0:300.0:-1
ipc-2014-agile-openstacks-p150_3.pddl,SAT:92.6442:128.0:300.0:-1
ipc-2014-agile-openstacks-p170_1.pddl,SAT:61.5141:55.0:300.0:-1
ipc-2014-agile-openstacks-p170_2.pddl,SAT:34.0254:80.0:300.0:-1
ipc-2014-agile-openstacks-p170_3.pddl,SAT:66.8311:141.0:300.0:-1
ipc-2014-agile-openstacks-p190_1.pddl,SAT:48.9484:76.0:300.0:-1
ipc-2014-agile-openstacks-p190_2.pddl,SAT:55.1346:94.0:300.0:-1
ipc-2014-agile-openstacks-p190_3.pddl,SAT:106.95:164.0:300.0:-1
ipc-2014-agile-openstacks-p210_1.pddl,SAT:63.0016:89.0:300.0:-1
ipc-2014-agile-openstacks-p210_2.pddl,SAT:71.4942:102.0:300.0:-1
ipc-2014-agile-openstacks-p230_1.pddl,SAT:130.413:79.0:300.0:-1
ipc-2014-agile-openstacks-p230_2.pddl,SAT:171.674:112.0:300.0:-1
ipc-2014-agile-openstacks-p250_1.pddl,SAT:197.393:117.0:300.0:-1
ipc-2014-agile-openstacks-p250_2.pddl,SAT:242.077:137.0:300.0:-1
ipc-2014-agile-openstacks-p270_1.pddl,SAT:282.294:131.0:300.0:-1
ipc-2014-agile-openstacks-p270_2.pddl,TIMEOUT:301.05:-1.0:300.0:-1
ipc-2014-agile-openstacks-p290_1.pddl,TIMEOUT:301.09:-1.0:300.0:-1
ipc-2014-agile-openstacks-p290_2.pddl,TIMEOUT:301.03:-1.0:300.0:-1
ipc-2014-agile-parking-28_2.pddl,SAT:121.881:135.0:300.0:-1
ipc-2014-agile-parking-28_3.pddl,SAT:125.997:109.0:300.0:-1
ipc-2014-agile-parking-30_1.pddl,SAT:279.336:109.0:300.0:-1
ipc-2014-agile-parking-30_2.pddl,SAT:132.787:73.0:300.0:-1
ipc-2014-agile-parking-30_3.pddl,TIMEOUT:301.09:-1.0:300.0:-1
ipc-2014-agile-parking-32_1.pddl,TIMEOUT:301.07:-1.0:300.0:-1
ipc-2014-agile-parking-32_2.pddl,SAT:267.034:104.0:300.0:-1
ipc-2014-agile-parking-32_3.pddl,TIMEOUT:301.06:-1.0:300.0:-1
ipc-2014-agile-parking-34_1.pddl,TIMEOUT:301.03:-1.0:300.0:-1
ipc-2014-agile-parking-34_2.pddl,TIMEOUT:301.06:-1.0:300.0:-1
ipc-2014-agile-parking-34_3.pddl,TIMEOUT:301.06:-1.0:300.0:-1
ipc-2014-agile-parking-36_1.pddl,SAT:137.144:116.0:300.0:-1
ipc-2014-agile-parking-36_2.pddl,TIMEOUT:301.05:-1.0:300.0:-1
ipc-2014-agile-parking-36_3.pddl,TIMEOUT:301.02:-1.0:300.0:-1
ipc-2014-agile-parking-38_1.pddl,TIMEOUT:301.06:-1.0:300.0:-1
ipc-2014-agile-parking-38_2.pddl,TIMEOUT:301.03:-1.0:300.0:-1
ipc-2014-agile-parking-38_3.pddl,TIMEOUT:301.07:-1.0:300.0:-1
ipc-2014-agile-parking-40_1.pddl,TIMEOUT:301.05:-1.0:300.0:-1
ipc-2014-agile-parking-40_2.pddl,TIMEOUT:301.02:-1.0:300.0:-1
ipc-2014-agile-parking-40_3.pddl,TIMEOUT:301.04:-1.0:300.0:-1
ipc-2014-agile-tetris-020.pddl,SAT:4.24386:60.0:300.0:-1
ipc-2014-agile-tetris-021.pddl,SAT:97.2678:110.0:300.0:-1
ipc-2014-agile-tetris-022.pddl,SAT:174.954:184.0:300.0:-1
ipc-2014-agile-tetris-023.pddl,SAT:174.678:116.0:300.0:-1
ipc-2014-agile-tetris-024.pddl,SAT:219.044:129.0:300.0:-1
ipc-2014-agile-tetris-025.pddl,SAT:32.4538:96.0:300.0:-1
ipc-2014-agile-tetris-026.pddl,TIMEOUT:301.08:-1.0:300.0:-1
ipc-2014-agile-tetris-027.pddl,TIMEOUT:301.05:-1.0:300.0:-1
ipc-2014-agile-tetris-028.pddl,TIMEOUT:301.02:-1.0:300.0:-1
ipc-2014-agile-tetris-029.pddl,TIMEOUT:301.06:-1.0:300.0:-1
ipc-2014-agile-tetris-031.pddl,TIMEOUT:301.05:-1.0:300.0:-1
ipc-2014-agile-tetris-032.pddl,TIMEOUT:301.04:-1.0:300.0:-1
ipc-2014-agile-tetris-033.pddl,TIMEOUT:301.02:-1.0:300.0:-1
ipc-2014-agile-tetris-034.pddl,SAT:157.575:205.0:300.0:-1
ipc-2014-agile-tetris-035.pddl,TIMEOUT:301.07:-1.0:300.0:-1
ipc-2014-agile-tetris-036.pddl,SAT:109.265:129.0:300.0:-1
ipc-2014-agile-tetris-037.pddl,TIMEOUT:301.06:-1.0:300.0:-1
ipc-2014-agile-tetris-038.pddl,TIMEOUT:301.02:-1.0:300.0:-1
ipc-2014-agile-tetris-039.pddl,TIMEOUT:301.01:-1.0:300.0:-1
ipc-2014-agile-tetris-040.pddl,TIMEOUT:301.09:-1.0:300.0:-1
ipc-2014-agile-thoughtful-bootstrap-typed-01.pddl,CRASHED:0.263068:1000000000.0:300.0:-1
ipc-2014-agile-thoughtful-bootstrap-typed-02.pddl,CRASHED:0.262387:1000000000.0:300.0:-1
ipc-2014-agile-thoughtful-bootstrap-typed-03.pddl,CRASHED:0.26323:1000000000.0:300.0:-1
ipc-2014-agile-thoughtful-bootstrap-typed-04.pddl,CRASHED:0.261631:1000000000.0:300.0:-1
ipc-2014-agile-thoughtful-bootstrap-typed-05.pddl,CRASHED:0.280862:1000000000.0:300.0:-1
ipc-2014-agile-thoughtful-p11_6_53-typed.pddl,CRASHED:0.308841:1000000000.0:300.0:-1
ipc-2014-agile-thoughtful-p11_6_59-typed.pddl,CRASHED:0.308039:1000000000.0:300.0:-1
ipc-2014-agile-thoughtful-p11_6_62-typed.pddl,CRASHED:0.307115:1000000000.0:300.0:-1
ipc-2014-agile-thoughtful-p13_7_78-typed.pddl,CRASHED:0.313633:1000000000.0:300.0:-1
ipc-2014-agile-thoughtful-p13_7_79-typed.pddl,CRASHED:0.311951:1000000000.0:300.0:-1
ipc-2014-agile-thoughtful-p13_7_86-typed.pddl,CRASHED:0.308655:1000000000.0:300.0:-1
ipc-2014-agile-thoughtful-target-typed-20.pddl,CRASHED:0.310264:1000000000.0:300.0:-1
ipc-2014-agile-thoughtful-target-typed-21.pddl,CRASHED:0.311209:1000000000.0:300.0:-1
ipc-2014-agile-thoughtful-target-typed-22.pddl,CRASHED:0.312339:1000000000.0:300.0:-1
ipc-2014-agile-thoughtful-target-typed-23.pddl,CRASHED:0.307171:1000000000.0:300.0:-1
ipc-2014-agile-thoughtful-target-typed-24.pddl,CRASHED:0.251973:1000000000.0:300.0:-1
ipc-2014-agile-thoughtful-target-typed-25.pddl,CRASHED:0.311752:1000000000.0:300.0:-1
ipc-2014-agile-thoughtful-target-typed-26.pddl,CRASHED:0.308099:1000000000.0:300.0:-1
ipc-2014-agile-thoughtful-target-typed-27.pddl,CRASHED:0.313652:1000000000.0:300.0:-1
ipc-2014-agile-thoughtful-target-typed-28.pddl,CRASHED:0.310398:1000000000.0:300.0:-1
ipc-2014-agile-transport-01.pddl,SAT:5.25032:1474.0:300.0:-1
ipc-2014-agile-transport-02.pddl,SAT:6.66353:2528.0:300.0:-1
ipc-2014-agile-transport-03.pddl,SAT:5.36594:1885.0:300.0:-1
ipc-2014-agile-transport-04.pddl,SAT:18.0399:6061.0:300.0:-1
ipc-2014-agile-transport-05.pddl,SAT:22.4477:9166.0:300.0:-1
ipc-2014-agile-transport-06.pddl,SAT:17.9308:6061.0:300.0:-1
ipc-2014-agile-transport-07.pddl,SAT:45.3788:5686.0:300.0:-1
ipc-2014-agile-transport-08.pddl,SAT:55.0211:4725.0:300.0:-1
ipc-2014-agile-transport-09.pddl,SAT:44.4259:5686.0:300.0:-1
ipc-2014-agile-transport-10.pddl,SAT:42.1403:5638.0:300.0:-1
ipc-2014-agile-transport-11.pddl,SAT:10.7025:1687.0:300.0:-1
ipc-2014-agile-transport-12.pddl,SAT:10.7554:1868.0:300.0:-1
ipc-2014-agile-transport-13.pddl,SAT:7.3511:1691.0:300.0:-1
ipc-2014-agile-transport-14.pddl,SAT:25.1725:6850.0:300.0:-1
ipc-2014-agile-transport-15.pddl,SAT:26.5723:6947.0:300.0:-1
ipc-2014-agile-transport-16.pddl,SAT:15.6954:5952.0:300.0:-1
ipc-2014-agile-transport-17.pddl,SAT:41.8927:5963.0:300.0:-1
ipc-2014-agile-transport-18.pddl,SAT:46.3107:5825.0:300.0:-1
ipc-2014-agile-transport-19.pddl,SAT:28.4455:4418.0:300.0:-1
ipc-2014-agile-transport-20.pddl,SAT:47.9751:6118.0:300.0:-1
ipc-2014-agile-visitall-30.pddl,SAT:7.68213:909.0:300.0:-1
ipc-2014-agile-visitall-31.pddl,SAT:7.4986:980.0:300.0:-1
ipc-2014-agile-visitall-32.pddl,SAT:8.62418:1033.0:300.0:-1
ipc-2014-agile-visitall-33.pddl,SAT:10.2098:1118.0:300.0:-1
ipc-2014-agile-visitall-50.pddl,SAT:102.143:2509.0:300.0:-1
ipc-2014-agile-visitall-51.pddl,SAT:114.363:2620.0:300.0:-1
ipc-2014-agile-visitall-52.pddl,SAT:127.006:2713.0:300.0:-1
ipc-2014-agile-visitall-53.pddl,SAT:142.286:2858.0:300.0:-1
ipc-2014-agile-visitall-54.pddl,SAT:162.788:2925.0:300.0:-1
ipc-2014-agile-visitall-55.pddl,SAT:183.251:3044.0:300.0:-1
ipc-2014-agile-visitall-56.pddl,SAT:198.377:3145.0:300.0:-1
ipc-2014-agile-visitall-57.pddl,SAT:225.113:3302.0:300.0:-1
ipc-2014-agile-visitall-58.pddl,SAT:241.924:3373.0:300.0:-1
ipc-2014-agile-visitall-59.pddl,SAT:267.771:3500.0:300.0:-1
ipc-2014-agile-visitall-60.pddl,SAT:298.438:3609.0:300.0:-1
ipc-2014-agile-visitall-61.pddl,TIMEOUT:301.01:-1.0:300.0:-1
ipc-2014-agile-visitall-62.pddl,TIMEOUT:301.05:-1.0:300.0:-1
ipc-2014-agile-visitall-63.pddl,TIMEOUT:301.0:-1.0:300.0:-1
ipc-2014-agile-visitall-64.pddl,TIMEOUT:301.0:-1.0:300.0:-1
ipc-2014-agile-visitall-65.pddl,TIMEOUT:301.08:-1.0:300.0:-1
