instance,ipc-2014-optimal-symba-2
ipc-2014-optimal-barman-p433.1.pddl,TIMEOUT:1801.08:-1.0:1800.0:-1
ipc-2014-optimal-barman-p433.2.pddl,TIMEOUT:1801.08:-1.0:1800.0:-1
ipc-2014-optimal-barman-p433.3.pddl,TIMEOUT:1801.11:-1.0:1800.0:-1
ipc-2014-optimal-barman-p435.1.pddl,SAT:29.6303:49.0:1800.0:-1
ipc-2014-optimal-barman-p435.2.pddl,TIMEOUT:1801.06:-1.0:1800.0:-1
ipc-2014-optimal-barman-p435.3.pddl,SAT:33.989:49.0:1800.0:-1
ipc-2014-optimal-barman-p443.1.pddl,TIMEOUT:1801.05:-1.0:1800.0:-1
ipc-2014-optimal-barman-p443.2.pddl,TIMEOUT:1801.08:-1.0:1800.0:-1
ipc-2014-optimal-barman-p443.3.pddl,TIMEOUT:1801.06:-1.0:1800.0:-1
ipc-2014-optimal-barman-p536.1.pddl,TIMEOUT:1801.08:-1.0:1800.0:-1
ipc-2014-optimal-barman-p536.2.pddl,CRASHED:50.5398:1000000000.0:1800.0:-1
ipc-2014-optimal-barman-p536.3.pddl,TIMEOUT:1801.02:-1.0:1800.0:-1
ipc-2014-optimal-barman-p638.1.pddl,CRASHED:23.3833:1000000000.0:1800.0:-1
ipc-2014-optimal-barman-p638.2.pddl,TIMEOUT:1801.05:-1.0:1800.0:-1
ipc-2014-optimal-barman-p638.3.pddl,CRASHED:30.0091:1000000000.0:1800.0:-1
ipc-2014-optimal-barman-p739.1.pddl,TIMEOUT:1801.06:-1.0:1800.0:-1
ipc-2014-optimal-barman-p739.2.pddl,CRASHED:36.5201:1000000000.0:1800.0:-1
ipc-2014-optimal-barman-p739.3.pddl,TIMEOUT:1801.02:-1.0:1800.0:-1
ipc-2014-optimal-barman-p839.1.pddl,TIMEOUT:1801.01:-1.0:1800.0:-1
ipc-2014-optimal-barman-p839.2.pddl,CRASHED:74.6076:1000000000.0:1800.0:-1
ipc-2014-optimal-cavediving-01.pddl,TIMEOUT:1801.1:-1.0:1800.0:-1
ipc-2014-optimal-cavediving-01_easy.pddl,TIMEOUT:1801.04:-1.0:1800.0:-1
ipc-2014-optimal-cavediving-02_easy.pddl,TIMEOUT:1801.08:-1.0:1800.0:-1
ipc-2014-optimal-cavediving-03_easy.pddl,TIMEOUT:1801.06:-1.0:1800.0:-1
ipc-2014-optimal-cavediving-04_easy.pddl,TIMEOUT:1801.07:-1.0:1800.0:-1
ipc-2014-optimal-cavediving-05A_easy.pddl,TIMEOUT:1801.09:-1.0:1800.0:-1
ipc-2014-optimal-cavediving-06A_easy.pddl,TIMEOUT:1801.06:-1.0:1800.0:-1
ipc-2014-optimal-cavediving-07_easy.pddl,SAT:3.28985:131.0:1800.0:-1
ipc-2014-optimal-cavediving-08_easy.pddl,TIMEOUT:1801.08:-1.0:1800.0:-1
ipc-2014-optimal-cavediving-09_easy.pddl,TIMEOUT:1801.1:-1.0:1800.0:-1
ipc-2014-optimal-cavediving-10_easy.pddl,TIMEOUT:1801.11:-1.0:1800.0:-1
ipc-2014-optimal-cavediving-11_easy.pddl,TIMEOUT:1801.1:-1.0:1800.0:-1
ipc-2014-optimal-cavediving-12_easy.pddl,TIMEOUT:1801.06:-1.0:1800.0:-1
ipc-2014-optimal-cavediving-13_easy.pddl,TIMEOUT:1801.05:-1.0:1800.0:-1
ipc-2014-optimal-cavediving-14_easy.pddl,TIMEOUT:1801.11:-1.0:1800.0:-1
ipc-2014-optimal-cavediving-15_easy.pddl,TIMEOUT:1801.11:-1.0:1800.0:-1
ipc-2014-optimal-cavediving-16_easy.pddl,TIMEOUT:1801.06:-1.0:1800.0:-1
ipc-2014-optimal-cavediving-18A_easy.pddl,SAT:3.84574:131.0:1800.0:-1
ipc-2014-optimal-cavediving-18_easy.pddl,SAT:8.82617:131.0:1800.0:-1
ipc-2014-optimal-cavediving-20A_easy.pddl,TIMEOUT:1801.06:-1.0:1800.0:-1
ipc-2014-optimal-childsnack-01-2.pddl,CRASHED:31.8281:1000000000.0:1800.0:-1
ipc-2014-optimal-childsnack-01.pddl,CRASHED:32.6487:1000000000.0:1800.0:-1
ipc-2014-optimal-childsnack-02-2.pddl,CRASHED:39.7653:1000000000.0:1800.0:-1
ipc-2014-optimal-childsnack-02.pddl,TIMEOUT:1801.03:-1.0:1800.0:-1
ipc-2014-optimal-childsnack-03-2.pddl,CRASHED:77.0332:1000000000.0:1800.0:-1
ipc-2014-optimal-childsnack-03.pddl,CRASHED:26.4928:1000000000.0:1800.0:-1
ipc-2014-optimal-childsnack-04-2.pddl,TIMEOUT:1801.08:-1.0:1800.0:-1
ipc-2014-optimal-childsnack-04.pddl,TIMEOUT:1801.07:-1.0:1800.0:-1
ipc-2014-optimal-childsnack-05-2.pddl,TIMEOUT:1801.09:-1.0:1800.0:-1
ipc-2014-optimal-childsnack-05.pddl,TIMEOUT:1801.07:-1.0:1800.0:-1
ipc-2014-optimal-childsnack-06-2.pddl,TIMEOUT:1801.06:-1.0:1800.0:-1
ipc-2014-optimal-childsnack-06.pddl,TIMEOUT:1801.0:-1.0:1800.0:-1
ipc-2014-optimal-childsnack-07-2.pddl,CRASHED:78.1413:1000000000.0:1800.0:-1
ipc-2014-optimal-childsnack-07.pddl,TIMEOUT:1801.06:-1.0:1800.0:-1
ipc-2014-optimal-childsnack-08-2.pddl,TIMEOUT:1801.0:-1.0:1800.0:-1
ipc-2014-optimal-childsnack-08.pddl,CRASHED:82.3298:1000000000.0:1800.0:-1
ipc-2014-optimal-childsnack-09-2.pddl,CRASHED:8.20706:1000000000.0:1800.0:-1
ipc-2014-optimal-childsnack-09.pddl,CRASHED:8.69049:1000000000.0:1800.0:-1
ipc-2014-optimal-childsnack-10-2.pddl,CRASHED:35.3873:1000000000.0:1800.0:-1
ipc-2014-optimal-childsnack-10.pddl,TIMEOUT:1801.02:-1.0:1800.0:-1
ipc-2014-optimal-citycar-p2-2-2-1-2.pddl,SAT:2.25006:46.0:1800.0:-1
ipc-2014-optimal-citycar-p2-2-2-2-1.pddl,SAT:2.50836:64.0:1800.0:-1
ipc-2014-optimal-citycar-p2-2-3-1-2.pddl,SAT:3.95866:50.0:1800.0:-1
ipc-2014-optimal-citycar-p2-2-3-2-1.pddl,SAT:3.43165:48.0:1800.0:-1
ipc-2014-optimal-citycar-p2-2-3-2-2.pddl,SAT:3.53415:50.0:1800.0:-1
ipc-2014-optimal-citycar-p2-2-4-1-2.pddl,SAT:9.41115:52.0:1800.0:-1
ipc-2014-optimal-citycar-p2-2-4-2-1.pddl,SAT:7.77603:52.0:1800.0:-1
ipc-2014-optimal-citycar-p2-2-5-2-2.pddl,SAT:145.697:76.0:1800.0:-1
ipc-2014-optimal-citycar-p2-2-6-1-1.pddl,CRASHED:105.944:1000000000.0:1800.0:-1
ipc-2014-optimal-citycar-p2-2-6-2-2.pddl,SAT:141.773:58.0:1800.0:-1
ipc-2014-optimal-citycar-p2-3-2-3-1.pddl,SAT:8.17383:68.0:1800.0:-1
ipc-2014-optimal-citycar-p2-3-3-3-1.pddl,SAT:35.5035:78.0:1800.0:-1
ipc-2014-optimal-citycar-p2-3-4-3-1.pddl,TIMEOUT:1801.0:-1.0:1800.0:-1
ipc-2014-optimal-citycar-p2-3-6-3-2.pddl,TIMEOUT:1801.04:-1.0:1800.0:-1
ipc-2014-optimal-citycar-p3-3-2-2-1.pddl,SAT:94.6963:70.0:1800.0:-1
ipc-2014-optimal-citycar-p3-3-2-2-2.pddl,CRASHED:213.094:1000000000.0:1800.0:-1
ipc-2014-optimal-citycar-p3-3-2-3-1.pddl,SAT:46.6644:48.0:1800.0:-1
ipc-2014-optimal-citycar-p3-3-2-3-2.pddl,SAT:75.4181:70.0:1800.0:-1
ipc-2014-optimal-citycar-p3-3-3-3-1.pddl,TIMEOUT:1801.05:-1.0:1800.0:-1
ipc-2014-optimal-citycar-p3-3-3-3-2.pddl,TIMEOUT:1801.04:-1.0:1800.0:-1
ipc-2014-optimal-floortile-p01-4-3-2.pddl,SAT:1.27747:56.0:1800.0:-1
ipc-2014-optimal-floortile-p01-4-4-2.pddl,SAT:4.7482:68.0:1800.0:-1
ipc-2014-optimal-floortile-p01-5-3-2.pddl,SAT:1.98396:63.0:1800.0:-1
ipc-2014-optimal-floortile-p01-5-4-2.pddl,SAT:10.3742:91.0:1800.0:-1
ipc-2014-optimal-floortile-p01-5-5-2.pddl,SAT:56.0434:111.0:1800.0:-1
ipc-2014-optimal-floortile-p01-6-4-2.pddl,SAT:21.3493:104.0:1800.0:-1
ipc-2014-optimal-floortile-p01-6-5-2.pddl,CRASHED:121.209:1000000000.0:1800.0:-1
ipc-2014-optimal-floortile-p02-4-4-2.pddl,SAT:5.2858:75.0:1800.0:-1
ipc-2014-optimal-floortile-p02-5-3-2.pddl,SAT:2.15091:65.0:1800.0:-1
ipc-2014-optimal-floortile-p02-5-4-2.pddl,SAT:11.4705:98.0:1800.0:-1
ipc-2014-optimal-floortile-p02-5-5-2.pddl,SAT:57.6627:106.0:1800.0:-1
ipc-2014-optimal-floortile-p02-6-4-2.pddl,SAT:23.284:109.0:1800.0:-1
ipc-2014-optimal-floortile-p02-6-5-2.pddl,CRASHED:107.782:1000000000.0:1800.0:-1
ipc-2014-optimal-floortile-p03-4-3-2.pddl,SAT:1.34589:56.0:1800.0:-1
ipc-2014-optimal-floortile-p03-4-4-2.pddl,SAT:5.1351:72.0:1800.0:-1
ipc-2014-optimal-floortile-p03-5-3-2.pddl,SAT:2.15544:65.0:1800.0:-1
ipc-2014-optimal-floortile-p03-5-4-2.pddl,SAT:9.64253:83.0:1800.0:-1
ipc-2014-optimal-floortile-p03-5-5-2.pddl,SAT:55.2725:100.0:1800.0:-1
ipc-2014-optimal-floortile-p03-6-4-2.pddl,SAT:24.7189:116.0:1800.0:-1
ipc-2014-optimal-floortile-p03-6-5-2.pddl,TIMEOUT:1801.03:-1.0:1800.0:-1
ipc-2014-optimal-ged-d-1-2.pddl,SAT:0.64967:1.0:1800.0:-1
ipc-2014-optimal-ged-d-1-3.pddl,SAT:2.04718:4.0:1800.0:-1
ipc-2014-optimal-ged-d-1-4.pddl,SAT:0.649588:1.0:1800.0:-1
ipc-2014-optimal-ged-d-1-8.pddl,SAT:3.95213:4.0:1800.0:-1
ipc-2014-optimal-ged-d-2-1.pddl,SAT:0.667794:1.0:1800.0:-1
ipc-2014-optimal-ged-d-2-3.pddl,SAT:1.10186:3.0:1800.0:-1
ipc-2014-optimal-ged-d-2-4.pddl,SAT:0.808726:2.0:1800.0:-1
ipc-2014-optimal-ged-d-2-8.pddl,TIMEOUT:1801.09:-1.0:1800.0:-1
ipc-2014-optimal-ged-d-3-1.pddl,SAT:2.125:4.0:1800.0:-1
ipc-2014-optimal-ged-d-3-2.pddl,SAT:1.05805:3.0:1800.0:-1
ipc-2014-optimal-ged-d-3-4.pddl,SAT:9.46256:5.0:1800.0:-1
ipc-2014-optimal-ged-d-4-2.pddl,SAT:0.8297:2.0:1800.0:-1
ipc-2014-optimal-ged-d-4-3.pddl,SAT:10.155:5.0:1800.0:-1
ipc-2014-optimal-ged-d-4-8.pddl,TIMEOUT:1801.02:-1.0:1800.0:-1
ipc-2014-optimal-ged-d-7-5.pddl,SAT:4.04023:4.0:1800.0:-1
ipc-2014-optimal-ged-d-7-6.pddl,SAT:2.52885:4.0:1800.0:-1
ipc-2014-optimal-ged-d-8-1.pddl,SAT:3.90144:4.0:1800.0:-1
ipc-2014-optimal-ged-d-8-2.pddl,CRASHED:49.202:1000000000.0:1800.0:-1
ipc-2014-optimal-ged-d-8-4.pddl,TIMEOUT:1801.09:-1.0:1800.0:-1
ipc-2014-optimal-ged-d-8-9.pddl,TIMEOUT:1801.0:-1.0:1800.0:-1
ipc-2014-optimal-hiking-1-2-3.pddl,SAT:0.394269:11.0:1800.0:-1
ipc-2014-optimal-hiking-1-2-4.pddl,SAT:0.466945:17.0:1800.0:-1
ipc-2014-optimal-hiking-1-2-5.pddl,SAT:0.569356:25.0:1800.0:-1
ipc-2014-optimal-hiking-1-2-7.pddl,SAT:1.01779:38.0:1800.0:-1
ipc-2014-optimal-hiking-1-2-8.pddl,SAT:1.28476:45.0:1800.0:-1
ipc-2014-optimal-hiking-2-2-3.pddl,SAT:0.795885:10.0:1800.0:-1
ipc-2014-optimal-hiking-2-2-4.pddl,SAT:1.91578:16.0:1800.0:-1
ipc-2014-optimal-hiking-2-2-5.pddl,SAT:15.1658:22.0:1800.0:-1
ipc-2014-optimal-hiking-2-2-6.pddl,SAT:101.149:30.0:1800.0:-1
ipc-2014-optimal-hiking-2-2-7.pddl,TIMEOUT:1801.05:-1.0:1800.0:-1
ipc-2014-optimal-hiking-2-2-8.pddl,TIMEOUT:1801.04:-1.0:1800.0:-1
ipc-2014-optimal-hiking-2-3-4.pddl,SAT:5.12005:17.0:1800.0:-1
ipc-2014-optimal-hiking-2-3-5.pddl,SAT:95.7268:24.0:1800.0:-1
ipc-2014-optimal-hiking-2-3-6.pddl,TIMEOUT:1801.07:-1.0:1800.0:-1
ipc-2014-optimal-hiking-2-3-7.pddl,TIMEOUT:1801.01:-1.0:1800.0:-1
ipc-2014-optimal-hiking-2-4-3.pddl,SAT:1.24565:10.0:1800.0:-1
ipc-2014-optimal-hiking-2-4-4.pddl,SAT:5.62519:17.0:1800.0:-1
ipc-2014-optimal-hiking-2-4-5.pddl,SAT:113.409:23.0:1800.0:-1
ipc-2014-optimal-hiking-2-4-6.pddl,TIMEOUT:1801.04:-1.0:1800.0:-1
ipc-2014-optimal-hiking-2-4-7.pddl,TIMEOUT:1801.0:-1.0:1800.0:-1
ipc-2014-optimal-maintenance-1.3.010.010.1-001.pddl,TIMEOUT:1801.1:-1.0:1800.0:-1
ipc-2014-optimal-maintenance-1.3.010.010.1-002.pddl,TIMEOUT:1801.05:-1.0:1800.0:-1
ipc-2014-optimal-maintenance-1.3.010.010.2-000.pddl,SAT:0.551105:4.0:1800.0:-1
ipc-2014-optimal-maintenance-1.3.010.010.2-001.pddl,TIMEOUT:1801.12:-1.0:1800.0:-1
ipc-2014-optimal-maintenance-1.3.010.010.2-002.pddl,SAT:0.606573:6.0:1800.0:-1
ipc-2014-optimal-maintenance-1.3.015.020.1-000.pddl,TIMEOUT:1801.09:-1.0:1800.0:-1
ipc-2014-optimal-maintenance-1.3.015.020.1-001.pddl,TIMEOUT:1801.05:-1.0:1800.0:-1
ipc-2014-optimal-maintenance-1.3.015.020.1-002.pddl,TIMEOUT:1801.1:-1.0:1800.0:-1
ipc-2014-optimal-maintenance-1.3.015.020.2-000.pddl,CRASHED:1.11686:1000000000.0:1800.0:-1
ipc-2014-optimal-maintenance-1.3.015.020.2-001.pddl,SAT:1.02507:11.0:1800.0:-1
ipc-2014-optimal-maintenance-1.3.015.020.2-002.pddl,SAT:0.914012:9.0:1800.0:-1
ipc-2014-optimal-maintenance-1.3.025.050.1-000.pddl,TIMEOUT:1801.05:-1.0:1800.0:-1
ipc-2014-optimal-maintenance-1.3.025.050.1-001.pddl,TIMEOUT:1801.05:-1.0:1800.0:-1
ipc-2014-optimal-maintenance-1.3.025.050.1-002.pddl,TIMEOUT:1801.07:-1.0:1800.0:-1
ipc-2014-optimal-maintenance-1.3.025.100.1-000.pddl,TIMEOUT:1801.08:-1.0:1800.0:-1
ipc-2014-optimal-maintenance-1.3.025.100.1-001.pddl,TIMEOUT:1801.09:-1.0:1800.0:-1
ipc-2014-optimal-maintenance-1.3.025.100.1-002.pddl,TIMEOUT:1801.1:-1.0:1800.0:-1
ipc-2014-optimal-maintenance-1.3.025.100.2-000.pddl,TIMEOUT:1801.13:-1.0:1800.0:-1
ipc-2014-optimal-maintenance-1.3.025.100.2-001.pddl,TIMEOUT:1801.12:-1.0:1800.0:-1
ipc-2014-optimal-maintenance-1.3.025.100.2-002.pddl,TIMEOUT:1801.05:-1.0:1800.0:-1
ipc-2014-optimal-openstacks-p20_1.pddl,SAT:1.85422:3.0:1800.0:-1
ipc-2014-optimal-openstacks-p20_2.pddl,SAT:2.06127:4.0:1800.0:-1
ipc-2014-optimal-openstacks-p20_3.pddl,SAT:2.119:6.0:1800.0:-1
ipc-2014-optimal-openstacks-p25_1.pddl,SAT:3.37543:4.0:1800.0:-1
ipc-2014-optimal-openstacks-p25_3.pddl,SAT:4.30008:9.0:1800.0:-1
ipc-2014-optimal-openstacks-p30_1.pddl,SAT:4.7325:4.0:1800.0:-1
ipc-2014-optimal-openstacks-p30_2.pddl,SAT:5.40928:4.0:1800.0:-1
ipc-2014-optimal-openstacks-p30_3.pddl,SAT:12.1275:12.0:1800.0:-1
ipc-2014-optimal-openstacks-p35_1.pddl,SAT:7.60104:4.0:1800.0:-1
ipc-2014-optimal-openstacks-p35_2.pddl,SAT:9.89673:5.0:1800.0:-1
ipc-2014-optimal-openstacks-p35_3.pddl,SAT:45.3417:14.0:1800.0:-1
ipc-2014-optimal-openstacks-p40_1.pddl,SAT:12.9497:3.0:1800.0:-1
ipc-2014-optimal-openstacks-p40_2.pddl,SAT:14.1405:4.0:1800.0:-1
ipc-2014-optimal-openstacks-p40_3.pddl,SAT:79.9268:15.0:1800.0:-1
ipc-2014-optimal-openstacks-p45_1.pddl,SAT:17.1851:4.0:1800.0:-1
ipc-2014-optimal-openstacks-p45_2.pddl,SAT:25.955:5.0:1800.0:-1
ipc-2014-optimal-openstacks-p45_3.pddl,TIMEOUT:1801.04:-1.0:1800.0:-1
ipc-2014-optimal-openstacks-p50_1.pddl,SAT:33.2333:4.0:1800.0:-1
ipc-2014-optimal-openstacks-p50_2.pddl,SAT:47.0392:5.0:1800.0:-1
ipc-2014-optimal-openstacks-p50_3.pddl,TIMEOUT:1801.03:-1.0:1800.0:-1
ipc-2014-optimal-parking-12_7-01.pddl,CRASHED:161.408:1000000000.0:1800.0:-1
ipc-2014-optimal-parking-12_7-02.pddl,TIMEOUT:1801.1:-1.0:1800.0:-1
ipc-2014-optimal-parking-12_7-03.pddl,TIMEOUT:1801.01:-1.0:1800.0:-1
ipc-2014-optimal-parking-12_7-04.pddl,TIMEOUT:1801.09:-1.0:1800.0:-1
ipc-2014-optimal-parking-14_8-01.pddl,TIMEOUT:1801.06:-1.0:1800.0:-1
ipc-2014-optimal-parking-14_8-02.pddl,TIMEOUT:1801.03:-1.0:1800.0:-1
ipc-2014-optimal-parking-14_8-03.pddl,CRASHED:293.216:1000000000.0:1800.0:-1
ipc-2014-optimal-parking-14_8-04.pddl,TIMEOUT:1801.09:-1.0:1800.0:-1
ipc-2014-optimal-parking-16_9-01.pddl,TIMEOUT:1801.08:-1.0:1800.0:-1
ipc-2014-optimal-parking-16_9-02.pddl,TIMEOUT:1801.07:-1.0:1800.0:-1
ipc-2014-optimal-parking-16_9-03.pddl,CRASHED:215.006:1000000000.0:1800.0:-1
ipc-2014-optimal-parking-16_9-04.pddl,TIMEOUT:1801.07:-1.0:1800.0:-1
ipc-2014-optimal-parking-18_10-01.pddl,CRASHED:291.598:1000000000.0:1800.0:-1
ipc-2014-optimal-parking-18_10-02.pddl,TIMEOUT:1801.07:-1.0:1800.0:-1
ipc-2014-optimal-parking-18_10-03.pddl,TIMEOUT:1801.04:-1.0:1800.0:-1
ipc-2014-optimal-parking-18_10-04.pddl,TIMEOUT:1801.03:-1.0:1800.0:-1
ipc-2014-optimal-parking-20_11-01.pddl,CRASHED:333.116:1000000000.0:1800.0:-1
ipc-2014-optimal-parking-20_11-02.pddl,TIMEOUT:1801.07:-1.0:1800.0:-1
ipc-2014-optimal-parking-20_11-03.pddl,TIMEOUT:1801.06:-1.0:1800.0:-1
ipc-2014-optimal-parking-20_11-04.pddl,TIMEOUT:1801.02:-1.0:1800.0:-1
ipc-2014-optimal-tetris-01-10.pddl,TIMEOUT:1801.01:-1.0:1800.0:-1
ipc-2014-optimal-tetris-01-04.pddl,CRASHED:7.62883:1000000000.0:1800.0:-1
ipc-2014-optimal-tetris-01-06.pddl,CRASHED:70.6374:1000000000.0:1800.0:-1
ipc-2014-optimal-tetris-01-08.pddl,SAT:16.2533:36.0:1800.0:-1
ipc-2014-optimal-tetris-02-10.pddl,TIMEOUT:1801.06:-1.0:1800.0:-1
ipc-2014-optimal-tetris-02-04.pddl,SAT:3.10557:10.0:1800.0:-1
ipc-2014-optimal-tetris-02-06.pddl,SAT:26.2475:30.0:1800.0:-1
ipc-2014-optimal-tetris-02-08.pddl,TIMEOUT:1801.08:-1.0:1800.0:-1
ipc-2014-optimal-tetris-03-10.pddl,TIMEOUT:1801.02:-1.0:1800.0:-1
ipc-2014-optimal-tetris-03-04.pddl,SAT:2.29006:11.0:1800.0:-1
ipc-2014-optimal-tetris-03-06.pddl,CRASHED:59.5063:1000000000.0:1800.0:-1
ipc-2014-optimal-tetris-03-08.pddl,SAT:147.967:48.0:1800.0:-1
ipc-2014-optimal-tetris-04-10.pddl,CRASHED:114.986:1000000000.0:1800.0:-1
ipc-2014-optimal-tetris-04-04.pddl,CRASHED:4.93395:1000000000.0:1800.0:-1
ipc-2014-optimal-tetris-04-06.pddl,CRASHED:78.3696:1000000000.0:1800.0:-1
ipc-2014-optimal-tetris-04-08.pddl,TIMEOUT:1801.06:-1.0:1800.0:-1
ipc-2014-optimal-tetris-05-10.pddl,TIMEOUT:1801.06:-1.0:1800.0:-1
ipc-2014-optimal-tetris-05-04.pddl,CRASHED:4.54623:1000000000.0:1800.0:-1
ipc-2014-optimal-tetris-05-06.pddl,SAT:10.14:19.0:1800.0:-1
ipc-2014-optimal-tetris-05-08.pddl,CRASHED:117.336:1000000000.0:1800.0:-1
ipc-2014-optimal-tidybot-01.pddl,CRASHED:792.021:1000000000.0:1800.0:-1
ipc-2014-optimal-tidybot-02.pddl,CRASHED:147.275:1000000000.0:1800.0:-1
ipc-2014-optimal-tidybot-03.pddl,SAT:114.13:30.0:1800.0:-1
ipc-2014-optimal-tidybot-04.pddl,CRASHED:127.754:1000000000.0:1800.0:-1
ipc-2014-optimal-tidybot-05.pddl,CRASHED:145.251:1000000000.0:1800.0:-1
ipc-2014-optimal-tidybot-06.pddl,CRASHED:235.388:1000000000.0:1800.0:-1
ipc-2014-optimal-tidybot-07.pddl,TIMEOUT:1801.0:-1.0:1800.0:-1
ipc-2014-optimal-tidybot-08.pddl,TIMEOUT:1801.05:-1.0:1800.0:-1
ipc-2014-optimal-tidybot-09.pddl,CRASHED:203.206:1000000000.0:1800.0:-1
ipc-2014-optimal-tidybot-10.pddl,TIMEOUT:1801.05:-1.0:1800.0:-1
ipc-2014-optimal-tidybot-11.pddl,TIMEOUT:1801.08:-1.0:1800.0:-1
ipc-2014-optimal-tidybot-12.pddl,TIMEOUT:1801.0:-1.0:1800.0:-1
ipc-2014-optimal-tidybot-13.pddl,TIMEOUT:1801.01:-1.0:1800.0:-1
ipc-2014-optimal-tidybot-14.pddl,CRASHED:159.125:1000000000.0:1800.0:-1
ipc-2014-optimal-tidybot-15.pddl,TIMEOUT:1801.06:-1.0:1800.0:-1
ipc-2014-optimal-tidybot-16.pddl,CRASHED:146.265:1000000000.0:1800.0:-1
ipc-2014-optimal-tidybot-17.pddl,SAT:172.811:40.0:1800.0:-1
ipc-2014-optimal-tidybot-18.pddl,TIMEOUT:1801.0:-1.0:1800.0:-1
ipc-2014-optimal-tidybot-19.pddl,TIMEOUT:1801.03:-1.0:1800.0:-1
ipc-2014-optimal-tidybot-20.pddl,SAT:129.699:46.0:1800.0:-1
ipc-2014-optimal-transport-01.pddl,SAT:0.872576:148.0:1800.0:-1
ipc-2014-optimal-transport-02.pddl,SAT:8.59129:191.0:1800.0:-1
ipc-2014-optimal-transport-03.pddl,SAT:20.9897:300.0:1800.0:-1
ipc-2014-optimal-transport-04.pddl,SAT:450.706:250.0:1800.0:-1
ipc-2014-optimal-transport-05.pddl,TIMEOUT:1801.08:-1.0:1800.0:-1
ipc-2014-optimal-transport-06.pddl,TIMEOUT:1801.06:-1.0:1800.0:-1
ipc-2014-optimal-transport-07.pddl,SAT:24.1694:967.0:1800.0:-1
ipc-2014-optimal-transport-08.pddl,SAT:1488.15:1173.0:1800.0:-1
ipc-2014-optimal-transport-09.pddl,TIMEOUT:1801.0:-1.0:1800.0:-1
ipc-2014-optimal-transport-10.pddl,TIMEOUT:1801.06:-1.0:1800.0:-1
ipc-2014-optimal-transport-11.pddl,TIMEOUT:1801.03:-1.0:1800.0:-1
ipc-2014-optimal-transport-12.pddl,TIMEOUT:1801.02:-1.0:1800.0:-1
ipc-2014-optimal-transport-13.pddl,SAT:6.84306:594.0:1800.0:-1
ipc-2014-optimal-transport-14.pddl,SAT:135.126:526.0:1800.0:-1
ipc-2014-optimal-transport-15.pddl,CRASHED:976.337:1000000000.0:1800.0:-1
ipc-2014-optimal-transport-16.pddl,TIMEOUT:1801.09:-1.0:1800.0:-1
ipc-2014-optimal-transport-17.pddl,CRASHED:830.97:1000000000.0:1800.0:-1
ipc-2014-optimal-transport-18.pddl,CRASHED:930.373:1000000000.0:1800.0:-1
ipc-2014-optimal-transport-19.pddl,CRASHED:967.56:1000000000.0:1800.0:-1
ipc-2014-optimal-transport-20.pddl,TIMEOUT:1801.05:-1.0:1800.0:-1
ipc-2014-optimal-visitall-05-10.pddl,CRASHED:26.0198:1000000000.0:1800.0:-1
ipc-2014-optimal-visitall-05-05.pddl,SAT:0.840487:21.0:1800.0:-1
ipc-2014-optimal-visitall-05-06.pddl,SAT:1.08048:25.0:1800.0:-1
ipc-2014-optimal-visitall-05-07.pddl,SAT:3.44364:34.0:1800.0:-1
ipc-2014-optimal-visitall-05-08.pddl,SAT:33.5693:43.0:1800.0:-1
ipc-2014-optimal-visitall-05-09.pddl,TIMEOUT:1801.03:-1.0:1800.0:-1
ipc-2014-optimal-visitall-01-10.pddl,TIMEOUT:1801.01:-1.0:1800.0:-1
ipc-2014-optimal-visitall-01-11.pddl,TIMEOUT:1801.08:-1.0:1800.0:-1
ipc-2014-optimal-visitall-01-12.pddl,TIMEOUT:1801.1:-1.0:1800.0:-1
ipc-2014-optimal-visitall-01-13.pddl,TIMEOUT:1801.07:-1.0:1800.0:-1
ipc-2014-optimal-visitall-01-14.pddl,CRASHED:95.6133:1000000000.0:1800.0:-1
ipc-2014-optimal-visitall-01-15.pddl,TIMEOUT:1801.01:-1.0:1800.0:-1
ipc-2014-optimal-visitall-01-16.pddl,TIMEOUT:1801.05:-1.0:1800.0:-1
ipc-2014-optimal-visitall-01-17.pddl,CRASHED:80.9899:1000000000.0:1800.0:-1
ipc-2014-optimal-visitall-01-18.pddl,TIMEOUT:1801.05:-1.0:1800.0:-1
ipc-2014-optimal-visitall-01-05.pddl,SAT:1.90386:24.0:1800.0:-1
ipc-2014-optimal-visitall-01-06.pddl,TIMEOUT:1801.09:-1.0:1800.0:-1
ipc-2014-optimal-visitall-01-07.pddl,TIMEOUT:1801.06:-1.0:1800.0:-1
ipc-2014-optimal-visitall-01-08.pddl,TIMEOUT:1801.08:-1.0:1800.0:-1
ipc-2014-optimal-visitall-01-09.pddl,CRASHED:66.3813:1000000000.0:1800.0:-1
