instance,ipc-2014-optimal-rlazya
ipc-2014-optimal-barman-p433.1.pddl,CRASHED:0.152369:1000000000.0:1800.0:-1
ipc-2014-optimal-barman-p433.2.pddl,CRASHED:0.1509:1000000000.0:1800.0:-1
ipc-2014-optimal-barman-p433.3.pddl,CRASHED:0.149642:1000000000.0:1800.0:-1
ipc-2014-optimal-barman-p435.1.pddl,TIMEOUT:1801.06:-1.0:1800.0:-1
ipc-2014-optimal-barman-p435.2.pddl,TIMEOUT:1801.09:-1.0:1800.0:-1
ipc-2014-optimal-barman-p435.3.pddl,TIMEOUT:1801.09:-1.0:1800.0:-1
ipc-2014-optimal-barman-p443.1.pddl,CRASHED:0.164332:1000000000.0:1800.0:-1
ipc-2014-optimal-barman-p443.2.pddl,CRASHED:0.153526:1000000000.0:1800.0:-1
ipc-2014-optimal-barman-p443.3.pddl,CRASHED:0.15178:1000000000.0:1800.0:-1
ipc-2014-optimal-barman-p536.1.pddl,TIMEOUT:1801.05:-1.0:1800.0:-1
ipc-2014-optimal-barman-p536.2.pddl,TIMEOUT:1801.06:-1.0:1800.0:-1
ipc-2014-optimal-barman-p536.3.pddl,TIMEOUT:1801.04:-1.0:1800.0:-1
ipc-2014-optimal-barman-p638.1.pddl,TIMEOUT:1801.05:-1.0:1800.0:-1
ipc-2014-optimal-barman-p638.2.pddl,TIMEOUT:1801.09:-1.0:1800.0:-1
ipc-2014-optimal-barman-p638.3.pddl,TIMEOUT:1801.02:-1.0:1800.0:-1
ipc-2014-optimal-barman-p739.1.pddl,TIMEOUT:1801.08:-1.0:1800.0:-1
ipc-2014-optimal-barman-p739.2.pddl,TIMEOUT:1801.09:-1.0:1800.0:-1
ipc-2014-optimal-barman-p739.3.pddl,TIMEOUT:1801.01:-1.0:1800.0:-1
ipc-2014-optimal-barman-p839.1.pddl,TIMEOUT:1801.09:-1.0:1800.0:-1
ipc-2014-optimal-barman-p839.2.pddl,TIMEOUT:1801.08:-1.0:1800.0:-1
ipc-2014-optimal-cavediving-01.pddl,TIMEOUT:1801.08:-1.0:1800.0:-1
ipc-2014-optimal-cavediving-01_easy.pddl,TIMEOUT:1801.05:-1.0:1800.0:-1
ipc-2014-optimal-cavediving-02_easy.pddl,TIMEOUT:1801.07:-1.0:1800.0:-1
ipc-2014-optimal-cavediving-03_easy.pddl,TIMEOUT:1801.02:-1.0:1800.0:-1
ipc-2014-optimal-cavediving-04_easy.pddl,TIMEOUT:1801.07:-1.0:1800.0:-1
ipc-2014-optimal-cavediving-05A_easy.pddl,SAT:31.5769:94.0:1800.0:-1
ipc-2014-optimal-cavediving-06A_easy.pddl,SAT:33.6218:95.0:1800.0:-1
ipc-2014-optimal-cavediving-07_easy.pddl,SAT:32.5262:131.0:1800.0:-1
ipc-2014-optimal-cavediving-08_easy.pddl,SAT:33.6807:90.0:1800.0:-1
ipc-2014-optimal-cavediving-09_easy.pddl,TIMEOUT:1801.06:-1.0:1800.0:-1
ipc-2014-optimal-cavediving-10_easy.pddl,TIMEOUT:1801.08:-1.0:1800.0:-1
ipc-2014-optimal-cavediving-11_easy.pddl,TIMEOUT:1801.13:-1.0:1800.0:-1
ipc-2014-optimal-cavediving-12_easy.pddl,TIMEOUT:1801.07:-1.0:1800.0:-1
ipc-2014-optimal-cavediving-13_easy.pddl,TIMEOUT:1801.08:-1.0:1800.0:-1
ipc-2014-optimal-cavediving-14_easy.pddl,TIMEOUT:1801.05:-1.0:1800.0:-1
ipc-2014-optimal-cavediving-15_easy.pddl,TIMEOUT:1801.03:-1.0:1800.0:-1
ipc-2014-optimal-cavediving-16_easy.pddl,TIMEOUT:1801.01:-1.0:1800.0:-1
ipc-2014-optimal-cavediving-18A_easy.pddl,SAT:52.1822:131.0:1800.0:-1
ipc-2014-optimal-cavediving-18_easy.pddl,SAT:84.9712:131.0:1800.0:-1
ipc-2014-optimal-cavediving-20A_easy.pddl,SAT:64.6962:98.0:1800.0:-1
ipc-2014-optimal-childsnack-01-2.pddl,CRASHED:1158.72:1000000000.0:1800.0:-1
ipc-2014-optimal-childsnack-01.pddl,CRASHED:1103.86:1000000000.0:1800.0:-1
ipc-2014-optimal-childsnack-02-2.pddl,CRASHED:1733.3:1000000000.0:1800.0:-1
ipc-2014-optimal-childsnack-02.pddl,CRASHED:1461.37:1000000000.0:1800.0:-1
ipc-2014-optimal-childsnack-03-2.pddl,TIMEOUT:1801.05:-1.0:1800.0:-1
ipc-2014-optimal-childsnack-03.pddl,TIMEOUT:1801.01:-1.0:1800.0:-1
ipc-2014-optimal-childsnack-04-2.pddl,TIMEOUT:1801.08:-1.0:1800.0:-1
ipc-2014-optimal-childsnack-04.pddl,TIMEOUT:1801.09:-1.0:1800.0:-1
ipc-2014-optimal-childsnack-05-2.pddl,TIMEOUT:1801.06:-1.0:1800.0:-1
ipc-2014-optimal-childsnack-05.pddl,TIMEOUT:1801.01:-1.0:1800.0:-1
ipc-2014-optimal-childsnack-06-2.pddl,TIMEOUT:1801.02:-1.0:1800.0:-1
ipc-2014-optimal-childsnack-06.pddl,TIMEOUT:1801.08:-1.0:1800.0:-1
ipc-2014-optimal-childsnack-07-2.pddl,TIMEOUT:1801.01:-1.0:1800.0:-1
ipc-2014-optimal-childsnack-07.pddl,TIMEOUT:1801.04:-1.0:1800.0:-1
ipc-2014-optimal-childsnack-08-2.pddl,TIMEOUT:1801.01:-1.0:1800.0:-1
ipc-2014-optimal-childsnack-08.pddl,TIMEOUT:1801.09:-1.0:1800.0:-1
ipc-2014-optimal-childsnack-09-2.pddl,TIMEOUT:1801.0:-1.0:1800.0:-1
ipc-2014-optimal-childsnack-09.pddl,TIMEOUT:1801.02:-1.0:1800.0:-1
ipc-2014-optimal-childsnack-10-2.pddl,TIMEOUT:1801.06:-1.0:1800.0:-1
ipc-2014-optimal-childsnack-10.pddl,TIMEOUT:1801.07:-1.0:1800.0:-1
ipc-2014-optimal-citycar-p2-2-2-1-2.pddl,SAT:0.236609:46.0:1800.0:-1
ipc-2014-optimal-citycar-p2-2-2-2-1.pddl,SAT:1.58062:64.0:1800.0:-1
ipc-2014-optimal-citycar-p2-2-3-1-2.pddl,SAT:0.345055:50.0:1800.0:-1
ipc-2014-optimal-citycar-p2-2-3-2-1.pddl,SAT:0.349715:48.0:1800.0:-1
ipc-2014-optimal-citycar-p2-2-3-2-2.pddl,SAT:0.351552:50.0:1800.0:-1
ipc-2014-optimal-citycar-p2-2-4-1-2.pddl,SAT:0.455799:52.0:1800.0:-1
ipc-2014-optimal-citycar-p2-2-4-2-1.pddl,SAT:0.469556:52.0:1800.0:-1
ipc-2014-optimal-citycar-p2-2-5-2-2.pddl,SAT:63.8642:76.0:1800.0:-1
ipc-2014-optimal-citycar-p2-2-6-1-1.pddl,SAT:2.03331:58.0:1800.0:-1
ipc-2014-optimal-citycar-p2-2-6-2-2.pddl,SAT:0.845126:58.0:1800.0:-1
ipc-2014-optimal-citycar-p2-3-2-3-1.pddl,SAT:9.15161:68.0:1800.0:-1
ipc-2014-optimal-citycar-p2-3-3-3-1.pddl,SAT:43.1594:78.0:1800.0:-1
ipc-2014-optimal-citycar-p2-3-4-3-1.pddl,SAT:164.568:82.0:1800.0:-1
ipc-2014-optimal-citycar-p2-3-6-3-2.pddl,TIMEOUT:1801.09:-1.0:1800.0:-1
ipc-2014-optimal-citycar-p3-3-2-2-1.pddl,SAT:142.907:70.0:1800.0:-1
ipc-2014-optimal-citycar-p3-3-2-2-2.pddl,TIMEOUT:1801.06:-1.0:1800.0:-1
ipc-2014-optimal-citycar-p3-3-2-3-1.pddl,SAT:1.58566:48.0:1800.0:-1
ipc-2014-optimal-citycar-p3-3-2-3-2.pddl,SAT:117.88:70.0:1800.0:-1
ipc-2014-optimal-citycar-p3-3-3-3-1.pddl,TIMEOUT:1801.03:-1.0:1800.0:-1
ipc-2014-optimal-citycar-p3-3-3-3-2.pddl,SAT:435.813:76.0:1800.0:-1
ipc-2014-optimal-floortile-p01-4-3-2.pddl,SAT:39.7336:56.0:1800.0:-1
ipc-2014-optimal-floortile-p01-4-4-2.pddl,SAT:1245.68:68.0:1800.0:-1
ipc-2014-optimal-floortile-p01-5-3-2.pddl,SAT:179.474:63.0:1800.0:-1
ipc-2014-optimal-floortile-p01-5-4-2.pddl,TIMEOUT:1801.02:-1.0:1800.0:-1
ipc-2014-optimal-floortile-p01-5-5-2.pddl,TIMEOUT:1801.06:-1.0:1800.0:-1
ipc-2014-optimal-floortile-p01-6-4-2.pddl,TIMEOUT:1801.07:-1.0:1800.0:-1
ipc-2014-optimal-floortile-p01-6-5-2.pddl,TIMEOUT:1801.02:-1.0:1800.0:-1
ipc-2014-optimal-floortile-p02-4-4-2.pddl,TIMEOUT:1801.0:-1.0:1800.0:-1
ipc-2014-optimal-floortile-p02-5-3-2.pddl,SAT:258.186:65.0:1800.0:-1
ipc-2014-optimal-floortile-p02-5-4-2.pddl,TIMEOUT:1801.01:-1.0:1800.0:-1
ipc-2014-optimal-floortile-p02-5-5-2.pddl,TIMEOUT:1801.04:-1.0:1800.0:-1
ipc-2014-optimal-floortile-p02-6-4-2.pddl,TIMEOUT:1801.06:-1.0:1800.0:-1
ipc-2014-optimal-floortile-p02-6-5-2.pddl,TIMEOUT:1801.03:-1.0:1800.0:-1
ipc-2014-optimal-floortile-p03-4-3-2.pddl,SAT:56.4464:56.0:1800.0:-1
ipc-2014-optimal-floortile-p03-4-4-2.pddl,TIMEOUT:1801.04:-1.0:1800.0:-1
ipc-2014-optimal-floortile-p03-5-3-2.pddl,SAT:299.701:65.0:1800.0:-1
ipc-2014-optimal-floortile-p03-5-4-2.pddl,TIMEOUT:1801.06:-1.0:1800.0:-1
ipc-2014-optimal-floortile-p03-5-5-2.pddl,TIMEOUT:1801.01:-1.0:1800.0:-1
ipc-2014-optimal-floortile-p03-6-4-2.pddl,TIMEOUT:1801.09:-1.0:1800.0:-1
ipc-2014-optimal-floortile-p03-6-5-2.pddl,TIMEOUT:1801.06:-1.0:1800.0:-1
ipc-2014-optimal-ged-d-1-2.pddl,SAT:0.324552:1.0:1800.0:-1
ipc-2014-optimal-ged-d-1-3.pddl,SAT:2.80315:4.0:1800.0:-1
ipc-2014-optimal-ged-d-1-4.pddl,SAT:0.350973:1.0:1800.0:-1
ipc-2014-optimal-ged-d-1-8.pddl,SAT:9.13934:4.0:1800.0:-1
ipc-2014-optimal-ged-d-2-1.pddl,SAT:0.35983:1.0:1800.0:-1
ipc-2014-optimal-ged-d-2-3.pddl,SAT:0.531171:3.0:1800.0:-1
ipc-2014-optimal-ged-d-2-4.pddl,SAT:0.404559:2.0:1800.0:-1
ipc-2014-optimal-ged-d-2-8.pddl,CRASHED:745.09:1000000000.0:1800.0:-1
ipc-2014-optimal-ged-d-3-1.pddl,SAT:2.77696:4.0:1800.0:-1
ipc-2014-optimal-ged-d-3-2.pddl,SAT:0.544561:3.0:1800.0:-1
ipc-2014-optimal-ged-d-3-4.pddl,SAT:72.1051:5.0:1800.0:-1
ipc-2014-optimal-ged-d-4-2.pddl,SAT:0.39849:2.0:1800.0:-1
ipc-2014-optimal-ged-d-4-3.pddl,SAT:72.5546:5.0:1800.0:-1
ipc-2014-optimal-ged-d-4-8.pddl,CRASHED:753.62:1000000000.0:1800.0:-1
ipc-2014-optimal-ged-d-7-5.pddl,SAT:9.19331:4.0:1800.0:-1
ipc-2014-optimal-ged-d-7-6.pddl,SAT:2.94919:4.0:1800.0:-1
ipc-2014-optimal-ged-d-8-1.pddl,SAT:9.27012:4.0:1800.0:-1
ipc-2014-optimal-ged-d-8-2.pddl,CRASHED:754.84:1000000000.0:1800.0:-1
ipc-2014-optimal-ged-d-8-4.pddl,CRASHED:764.28:1000000000.0:1800.0:-1
ipc-2014-optimal-ged-d-8-9.pddl,CRASHED:801.5:1000000000.0:1800.0:-1
ipc-2014-optimal-hiking-1-2-3.pddl,SAT:0.154763:11.0:1800.0:-1
ipc-2014-optimal-hiking-1-2-4.pddl,SAT:0.307811:17.0:1800.0:-1
ipc-2014-optimal-hiking-1-2-5.pddl,SAT:1.04146:25.0:1800.0:-1
ipc-2014-optimal-hiking-1-2-7.pddl,SAT:13.7253:38.0:1800.0:-1
ipc-2014-optimal-hiking-1-2-8.pddl,SAT:40.3857:45.0:1800.0:-1
ipc-2014-optimal-hiking-2-2-3.pddl,SAT:1.05132:10.0:1800.0:-1
ipc-2014-optimal-hiking-2-2-4.pddl,SAT:100.958:16.0:1800.0:-1
ipc-2014-optimal-hiking-2-2-5.pddl,TIMEOUT:1801.05:-1.0:1800.0:-1
ipc-2014-optimal-hiking-2-2-6.pddl,TIMEOUT:1801.06:-1.0:1800.0:-1
ipc-2014-optimal-hiking-2-2-7.pddl,TIMEOUT:1801.02:-1.0:1800.0:-1
ipc-2014-optimal-hiking-2-2-8.pddl,TIMEOUT:1801.0:-1.0:1800.0:-1
ipc-2014-optimal-hiking-2-3-4.pddl,SAT:554.356:17.0:1800.0:-1
ipc-2014-optimal-hiking-2-3-5.pddl,TIMEOUT:1801.07:-1.0:1800.0:-1
ipc-2014-optimal-hiking-2-3-6.pddl,TIMEOUT:1801.02:-1.0:1800.0:-1
ipc-2014-optimal-hiking-2-3-7.pddl,TIMEOUT:1801.01:-1.0:1800.0:-1
ipc-2014-optimal-hiking-2-4-3.pddl,SAT:6.28931:10.0:1800.0:-1
ipc-2014-optimal-hiking-2-4-4.pddl,TIMEOUT:1801.04:-1.0:1800.0:-1
ipc-2014-optimal-hiking-2-4-5.pddl,TIMEOUT:1801.0:-1.0:1800.0:-1
ipc-2014-optimal-hiking-2-4-6.pddl,TIMEOUT:1801.09:-1.0:1800.0:-1
ipc-2014-optimal-hiking-2-4-7.pddl,TIMEOUT:1801.13:-1.0:1800.0:-1
ipc-2014-optimal-maintenance-1.3.010.010.1-001.pddl,CRASHED:0.095259:1000000000.0:1800.0:-1
ipc-2014-optimal-maintenance-1.3.010.010.1-002.pddl,CRASHED:0.104879:1000000000.0:1800.0:-1
ipc-2014-optimal-maintenance-1.3.010.010.2-000.pddl,SAT:0.103046:4.0:1800.0:-1
ipc-2014-optimal-maintenance-1.3.010.010.2-001.pddl,SAT:0.109168:7.0:1800.0:-1
ipc-2014-optimal-maintenance-1.3.010.010.2-002.pddl,SAT:0.111936:6.0:1800.0:-1
ipc-2014-optimal-maintenance-1.3.015.020.1-000.pddl,CRASHED:0.142784:1000000000.0:1800.0:-1
ipc-2014-optimal-maintenance-1.3.015.020.1-001.pddl,CRASHED:0.143054:1000000000.0:1800.0:-1
ipc-2014-optimal-maintenance-1.3.015.020.1-002.pddl,CRASHED:0.120509:1000000000.0:1800.0:-1
ipc-2014-optimal-maintenance-1.3.015.020.2-000.pddl,CRASHED:23.4348:1000000000.0:1800.0:-1
ipc-2014-optimal-maintenance-1.3.015.020.2-001.pddl,SAT:0.204384:11.0:1800.0:-1
ipc-2014-optimal-maintenance-1.3.015.020.2-002.pddl,SAT:0.124004:9.0:1800.0:-1
ipc-2014-optimal-maintenance-1.3.025.050.1-000.pddl,CRASHED:0.220025:1000000000.0:1800.0:-1
ipc-2014-optimal-maintenance-1.3.025.050.1-001.pddl,CRASHED:0.697193:1000000000.0:1800.0:-1
ipc-2014-optimal-maintenance-1.3.025.050.1-002.pddl,CRASHED:1.23201:1000000000.0:1800.0:-1
ipc-2014-optimal-maintenance-1.3.025.100.1-000.pddl,CRASHED:0.232703:1000000000.0:1800.0:-1
ipc-2014-optimal-maintenance-1.3.025.100.1-001.pddl,CRASHED:0.209508:1000000000.0:1800.0:-1
ipc-2014-optimal-maintenance-1.3.025.100.1-002.pddl,CRASHED:0.215725:1000000000.0:1800.0:-1
ipc-2014-optimal-maintenance-1.3.025.100.2-000.pddl,CRASHED:1365.63:1000000000.0:1800.0:-1
ipc-2014-optimal-maintenance-1.3.025.100.2-001.pddl,CRASHED:1436.85:1000000000.0:1800.0:-1
ipc-2014-optimal-maintenance-1.3.025.100.2-002.pddl,CRASHED:1364.71:1000000000.0:1800.0:-1
ipc-2014-optimal-openstacks-p20_1.pddl,CRASHED:651.663:3.0:1800.0:-1
ipc-2014-optimal-openstacks-p20_2.pddl,CRASHED:893.656:4.0:1800.0:-1
ipc-2014-optimal-openstacks-p20_3.pddl,SAT:28.9858:6.0:1800.0:-1
ipc-2014-optimal-openstacks-p25_1.pddl,TIMEOUT:1801.09:-1.0:1800.0:-1
ipc-2014-optimal-openstacks-p25_3.pddl,TIMEOUT:1801.03:-1.0:1800.0:-1
ipc-2014-optimal-openstacks-p30_1.pddl,TIMEOUT:1801.09:-1.0:1800.0:-1
ipc-2014-optimal-openstacks-p30_2.pddl,TIMEOUT:1801.05:-1.0:1800.0:-1
ipc-2014-optimal-openstacks-p30_3.pddl,TIMEOUT:1801.08:-1.0:1800.0:-1
ipc-2014-optimal-openstacks-p35_1.pddl,TIMEOUT:1801.04:-1.0:1800.0:-1
ipc-2014-optimal-openstacks-p35_2.pddl,TIMEOUT:1801.09:-1.0:1800.0:-1
ipc-2014-optimal-openstacks-p35_3.pddl,TIMEOUT:1801.0:-1.0:1800.0:-1
ipc-2014-optimal-openstacks-p40_1.pddl,TIMEOUT:1801.04:-1.0:1800.0:-1
ipc-2014-optimal-openstacks-p40_2.pddl,TIMEOUT:1801.0:-1.0:1800.0:-1
ipc-2014-optimal-openstacks-p40_3.pddl,TIMEOUT:1801.03:-1.0:1800.0:-1
ipc-2014-optimal-openstacks-p45_1.pddl,TIMEOUT:1801.0:-1.0:1800.0:-1
ipc-2014-optimal-openstacks-p45_2.pddl,TIMEOUT:1801.01:-1.0:1800.0:-1
ipc-2014-optimal-openstacks-p45_3.pddl,TIMEOUT:1801.05:-1.0:1800.0:-1
ipc-2014-optimal-openstacks-p50_1.pddl,TIMEOUT:1801.03:-1.0:1800.0:-1
ipc-2014-optimal-openstacks-p50_2.pddl,TIMEOUT:1801.0:-1.0:1800.0:-1
ipc-2014-optimal-openstacks-p50_3.pddl,TIMEOUT:1801.03:-1.0:1800.0:-1
ipc-2014-optimal-parking-12_7-01.pddl,SAT:142.215:18.0:1800.0:-1
ipc-2014-optimal-parking-12_7-02.pddl,SAT:296.435:18.0:1800.0:-1
ipc-2014-optimal-parking-12_7-03.pddl,SAT:66.8978:17.0:1800.0:-1
ipc-2014-optimal-parking-12_7-04.pddl,SAT:1243.37:19.0:1800.0:-1
ipc-2014-optimal-parking-14_8-01.pddl,TIMEOUT:1801.06:-1.0:1800.0:-1
ipc-2014-optimal-parking-14_8-02.pddl,TIMEOUT:1801.04:-1.0:1800.0:-1
ipc-2014-optimal-parking-14_8-03.pddl,TIMEOUT:1801.01:-1.0:1800.0:-1
ipc-2014-optimal-parking-14_8-04.pddl,TIMEOUT:1801.05:-1.0:1800.0:-1
ipc-2014-optimal-parking-16_9-01.pddl,TIMEOUT:1801.03:-1.0:1800.0:-1
ipc-2014-optimal-parking-16_9-02.pddl,TIMEOUT:1801.1:-1.0:1800.0:-1
ipc-2014-optimal-parking-16_9-03.pddl,TIMEOUT:1801.07:-1.0:1800.0:-1
ipc-2014-optimal-parking-16_9-04.pddl,TIMEOUT:1801.01:-1.0:1800.0:-1
ipc-2014-optimal-parking-18_10-01.pddl,TIMEOUT:1801.03:-1.0:1800.0:-1
ipc-2014-optimal-parking-18_10-02.pddl,TIMEOUT:1801.01:-1.0:1800.0:-1
ipc-2014-optimal-parking-18_10-03.pddl,TIMEOUT:1801.08:-1.0:1800.0:-1
ipc-2014-optimal-parking-18_10-04.pddl,TIMEOUT:1801.09:-1.0:1800.0:-1
ipc-2014-optimal-parking-20_11-01.pddl,TIMEOUT:1801.0:-1.0:1800.0:-1
ipc-2014-optimal-parking-20_11-02.pddl,TIMEOUT:1801.01:-1.0:1800.0:-1
ipc-2014-optimal-parking-20_11-03.pddl,TIMEOUT:1801.1:-1.0:1800.0:-1
ipc-2014-optimal-parking-20_11-04.pddl,TIMEOUT:1801.01:-1.0:1800.0:-1
ipc-2014-optimal-tetris-01-10.pddl,TIMEOUT:1801.04:-1.0:1800.0:-1
ipc-2014-optimal-tetris-01-04.pddl,CRASHED:52.1581:1000000000.0:1800.0:-1
ipc-2014-optimal-tetris-01-06.pddl,TIMEOUT:1801.05:-1.0:1800.0:-1
ipc-2014-optimal-tetris-01-08.pddl,SAT:504.059:36.0:1800.0:-1
ipc-2014-optimal-tetris-02-10.pddl,TIMEOUT:1801.05:-1.0:1800.0:-1
ipc-2014-optimal-tetris-02-04.pddl,SAT:1.43414:10.0:1800.0:-1
ipc-2014-optimal-tetris-02-06.pddl,SAT:285.072:30.0:1800.0:-1
ipc-2014-optimal-tetris-02-08.pddl,TIMEOUT:1801.03:-1.0:1800.0:-1
ipc-2014-optimal-tetris-03-10.pddl,TIMEOUT:1801.02:-1.0:1800.0:-1
ipc-2014-optimal-tetris-03-04.pddl,SAT:1.90532:11.0:1800.0:-1
ipc-2014-optimal-tetris-03-06.pddl,SAT:598.681:21.0:1800.0:-1
ipc-2014-optimal-tetris-03-08.pddl,TIMEOUT:1801.04:-1.0:1800.0:-1
ipc-2014-optimal-tetris-04-10.pddl,TIMEOUT:1801.02:-1.0:1800.0:-1
ipc-2014-optimal-tetris-04-04.pddl,CRASHED:12.2483:1000000000.0:1800.0:-1
ipc-2014-optimal-tetris-04-06.pddl,TIMEOUT:1801.04:-1.0:1800.0:-1
ipc-2014-optimal-tetris-04-08.pddl,TIMEOUT:1801.05:-1.0:1800.0:-1
ipc-2014-optimal-tetris-05-10.pddl,TIMEOUT:1801.03:-1.0:1800.0:-1
ipc-2014-optimal-tetris-05-04.pddl,CRASHED:49.1869:1000000000.0:1800.0:-1
ipc-2014-optimal-tetris-05-06.pddl,SAT:11.292:19.0:1800.0:-1
ipc-2014-optimal-tetris-05-08.pddl,TIMEOUT:1801.01:-1.0:1800.0:-1
ipc-2014-optimal-tidybot-01.pddl,TIMEOUT:1801.12:-1.0:1800.0:-1
ipc-2014-optimal-tidybot-02.pddl,SAT:476.532:35.0:1800.0:-1
ipc-2014-optimal-tidybot-03.pddl,SAT:391.952:30.0:1800.0:-1
ipc-2014-optimal-tidybot-04.pddl,SAT:301.861:24.0:1800.0:-1
ipc-2014-optimal-tidybot-05.pddl,TIMEOUT:1801.0:-1.0:1800.0:-1
ipc-2014-optimal-tidybot-06.pddl,TIMEOUT:1801.04:-1.0:1800.0:-1
ipc-2014-optimal-tidybot-07.pddl,SAT:1365.87:38.0:1800.0:-1
ipc-2014-optimal-tidybot-08.pddl,SAT:162.209:25.0:1800.0:-1
ipc-2014-optimal-tidybot-09.pddl,TIMEOUT:1801.1:-1.0:1800.0:-1
ipc-2014-optimal-tidybot-10.pddl,TIMEOUT:1801.07:-1.0:1800.0:-1
ipc-2014-optimal-tidybot-11.pddl,SAT:132.1:29.0:1800.0:-1
ipc-2014-optimal-tidybot-12.pddl,SAT:1076.83:35.0:1800.0:-1
ipc-2014-optimal-tidybot-13.pddl,SAT:352.297:30.0:1800.0:-1
ipc-2014-optimal-tidybot-14.pddl,SAT:89.2224:25.0:1800.0:-1
ipc-2014-optimal-tidybot-15.pddl,TIMEOUT:1801.04:-1.0:1800.0:-1
ipc-2014-optimal-tidybot-16.pddl,TIMEOUT:1801.01:-1.0:1800.0:-1
ipc-2014-optimal-tidybot-17.pddl,TIMEOUT:1801.03:-1.0:1800.0:-1
ipc-2014-optimal-tidybot-18.pddl,TIMEOUT:1801.01:-1.0:1800.0:-1
ipc-2014-optimal-tidybot-19.pddl,TIMEOUT:1801.02:-1.0:1800.0:-1
ipc-2014-optimal-tidybot-20.pddl,TIMEOUT:1801.13:-1.0:1800.0:-1
ipc-2014-optimal-transport-01.pddl,SAT:0.35853:148.0:1800.0:-1
ipc-2014-optimal-transport-02.pddl,SAT:20.0409:191.0:1800.0:-1
ipc-2014-optimal-transport-03.pddl,SAT:78.5914:300.0:1800.0:-1
ipc-2014-optimal-transport-04.pddl,TIMEOUT:1801.14:-1.0:1800.0:-1
ipc-2014-optimal-transport-05.pddl,TIMEOUT:1801.06:-1.0:1800.0:-1
ipc-2014-optimal-transport-06.pddl,TIMEOUT:1801.04:-1.0:1800.0:-1
ipc-2014-optimal-transport-07.pddl,SAT:221.411:967.0:1800.0:-1
ipc-2014-optimal-transport-08.pddl,TIMEOUT:1801.09:-1.0:1800.0:-1
ipc-2014-optimal-transport-09.pddl,TIMEOUT:1801.04:-1.0:1800.0:-1
ipc-2014-optimal-transport-10.pddl,TIMEOUT:1801.13:-1.0:1800.0:-1
ipc-2014-optimal-transport-11.pddl,TIMEOUT:1801.07:-1.0:1800.0:-1
ipc-2014-optimal-transport-12.pddl,TIMEOUT:1801.01:-1.0:1800.0:-1
ipc-2014-optimal-transport-13.pddl,SAT:6.13761:594.0:1800.0:-1
ipc-2014-optimal-transport-14.pddl,SAT:252.35:526.0:1800.0:-1
ipc-2014-optimal-transport-15.pddl,TIMEOUT:1801.02:-1.0:1800.0:-1
ipc-2014-optimal-transport-16.pddl,TIMEOUT:1801.12:-1.0:1800.0:-1
ipc-2014-optimal-transport-17.pddl,TIMEOUT:1801.12:-1.0:1800.0:-1
ipc-2014-optimal-transport-18.pddl,TIMEOUT:1801.1:-1.0:1800.0:-1
ipc-2014-optimal-transport-19.pddl,TIMEOUT:1801.13:-1.0:1800.0:-1
ipc-2014-optimal-transport-20.pddl,TIMEOUT:1801.15:-1.0:1800.0:-1
ipc-2014-optimal-visitall-05-10.pddl,TIMEOUT:1801.04:-1.0:1800.0:-1
ipc-2014-optimal-visitall-05-05.pddl,SAT:0.476111:21.0:1800.0:-1
ipc-2014-optimal-visitall-05-06.pddl,SAT:0.829433:25.0:1800.0:-1
ipc-2014-optimal-visitall-05-07.pddl,SAT:20.1715:34.0:1800.0:-1
ipc-2014-optimal-visitall-05-08.pddl,SAT:153.603:43.0:1800.0:-1
ipc-2014-optimal-visitall-05-09.pddl,TIMEOUT:1801.06:-1.0:1800.0:-1
ipc-2014-optimal-visitall-01-10.pddl,TIMEOUT:1801.01:-1.0:1800.0:-1
ipc-2014-optimal-visitall-01-11.pddl,TIMEOUT:1801.03:-1.0:1800.0:-1
ipc-2014-optimal-visitall-01-12.pddl,TIMEOUT:1801.03:-1.0:1800.0:-1
ipc-2014-optimal-visitall-01-13.pddl,TIMEOUT:1801.04:-1.0:1800.0:-1
ipc-2014-optimal-visitall-01-14.pddl,TIMEOUT:1801.14:-1.0:1800.0:-1
ipc-2014-optimal-visitall-01-15.pddl,TIMEOUT:1801.07:-1.0:1800.0:-1
ipc-2014-optimal-visitall-01-16.pddl,TIMEOUT:1801.07:-1.0:1800.0:-1
ipc-2014-optimal-visitall-01-17.pddl,TIMEOUT:1801.0:-1.0:1800.0:-1
ipc-2014-optimal-visitall-01-18.pddl,TIMEOUT:1801.03:-1.0:1800.0:-1
ipc-2014-optimal-visitall-01-05.pddl,SAT:4.15385:24.0:1800.0:-1
ipc-2014-optimal-visitall-01-06.pddl,CRASHED:1433.92:35.0:1800.0:-1
ipc-2014-optimal-visitall-01-07.pddl,TIMEOUT:1801.0:-1.0:1800.0:-1
ipc-2014-optimal-visitall-01-08.pddl,TIMEOUT:1801.06:-1.0:1800.0:-1
ipc-2014-optimal-visitall-01-09.pddl,TIMEOUT:1801.04:-1.0:1800.0:-1
